clientId,topic,guid,broker,timestamp,type
Publisher_001,topicA,topicA-1,172.172.1.1:1883,1551649645761,PRODUCED
Publisher_001,topicA,topicA-2,172.172.1.1:1883,1551649646034,PRODUCED
Publisher_001,topicA,topicA-3,172.172.1.1:1883,1551649646040,PRODUCED
Publisher_001,topicA,topicA-4,172.172.1.1:1883,1551649646046,PRODUCED
Publisher_001,topicA,topicA-5,172.172.1.1:1883,1551649646052,PRODUCED
Publisher_001,topicA,topicA-6,172.172.1.1:1883,1551649646057,PRODUCED
Publisher_001,topicA,topicA-7,172.172.1.1:1883,1551649646155,PRODUCED
Publisher_001,topicA,topicA-8,172.172.1.1:1883,1551649646256,PRODUCED
Publisher_001,topicA,topicA-9,172.172.1.1:1883,1551649646355,PRODUCED
Publisher_001,topicA,topicA-10,172.172.1.1:1883,1551649646457,PRODUCED
Publisher_001,topicA,topicA-11,172.172.1.1:1883,1551649646557,PRODUCED
Publisher_001,topicA,topicA-12,172.172.1.1:1883,1551649646657,PRODUCED
Publisher_001,topicA,topicA-13,172.172.1.1:1883,1551649646756,PRODUCED
Publisher_001,topicA,topicA-14,172.172.1.1:1883,1551649646856,PRODUCED
Publisher_001,topicA,topicA-15,172.172.1.1:1883,1551649646958,PRODUCED
Publisher_001,topicA,topicA-16,172.172.1.1:1883,1551649647057,PRODUCED
Publisher_001,topicA,topicA-17,172.172.1.1:1883,1551649647155,PRODUCED
Publisher_001,topicA,topicA-18,172.172.1.1:1883,1551649647259,PRODUCED
Publisher_001,topicA,topicA-19,172.172.1.1:1883,1551649647356,PRODUCED
Publisher_001,topicA,topicA-20,172.172.1.1:1883,1551649647456,PRODUCED
Publisher_001,topicA,topicA-21,172.172.1.1:1883,1551649647556,PRODUCED
Publisher_001,topicA,topicA-22,172.172.1.1:1883,1551649647662,PRODUCED
Publisher_001,topicA,topicA-23,172.172.1.1:1883,1551649647755,PRODUCED
Publisher_001,topicA,topicA-24,172.172.1.1:1883,1551649647856,PRODUCED
Publisher_001,topicA,topicA-25,172.172.1.1:1883,1551649647955,PRODUCED
Publisher_001,topicA,topicA-26,172.172.1.1:1883,1551649648056,PRODUCED
Publisher_001,topicA,topicA-27,172.172.1.1:1883,1551649648155,PRODUCED
Publisher_001,topicA,topicA-28,172.172.1.1:1883,1551649648256,PRODUCED
Publisher_001,topicA,topicA-29,172.172.1.1:1883,1551649648356,PRODUCED
Publisher_001,topicA,topicA-30,172.172.1.1:1883,1551649648456,PRODUCED
Publisher_001,topicA,topicA-31,172.172.1.1:1883,1551649648556,PRODUCED
Publisher_001,topicA,topicA-32,172.172.1.1:1883,1551649648655,PRODUCED
Publisher_001,topicA,topicA-33,172.172.1.1:1883,1551649648755,PRODUCED
Publisher_001,topicA,topicA-34,172.172.1.1:1883,1551649648855,PRODUCED
Publisher_001,topicA,topicA-35,172.172.1.1:1883,1551649648955,PRODUCED
Publisher_001,topicA,topicA-36,172.172.1.1:1883,1551649649056,PRODUCED
Publisher_001,topicA,topicA-37,172.172.1.1:1883,1551649649155,PRODUCED
Publisher_001,topicA,topicA-38,172.172.1.1:1883,1551649649257,PRODUCED
Publisher_001,topicA,topicA-39,172.172.1.1:1883,1551649649361,PRODUCED
Publisher_001,topicA,topicA-40,172.172.1.1:1883,1551649649456,PRODUCED
Publisher_001,topicA,topicA-41,172.172.1.1:1883,1551649649556,PRODUCED
Publisher_001,topicA,topicA-42,172.172.1.1:1883,1551649649659,PRODUCED
Publisher_001,topicA,topicA-43,172.172.1.1:1883,1551649649756,PRODUCED
Publisher_001,topicA,topicA-44,172.172.1.1:1883,1551649649856,PRODUCED
Publisher_001,topicA,topicA-45,172.172.1.1:1883,1551649649955,PRODUCED
Publisher_001,topicA,topicA-46,172.172.1.1:1883,1551649650055,PRODUCED
Publisher_001,topicA,topicA-47,172.172.1.1:1883,1551649650157,PRODUCED
Publisher_001,topicA,topicA-48,172.172.1.1:1883,1551649650256,PRODUCED
Publisher_001,topicA,topicA-49,172.172.1.1:1883,1551649650356,PRODUCED
Publisher_001,topicA,topicA-50,172.172.1.1:1883,1551649650457,PRODUCED
Publisher_001,topicA,topicA-51,172.172.1.1:1883,1551649650558,PRODUCED
Publisher_001,topicA,topicA-52,172.172.1.1:1883,1551649650656,PRODUCED
Publisher_001,topicA,topicA-53,172.172.1.1:1883,1551649650761,PRODUCED
Publisher_001,topicA,topicA-54,172.172.1.1:1883,1551649650855,PRODUCED
Publisher_001,topicA,topicA-55,172.172.1.1:1883,1551649650956,PRODUCED
Publisher_001,topicA,topicA-56,172.172.1.1:1883,1551649651056,PRODUCED
Publisher_001,topicA,topicA-57,172.172.1.1:1883,1551649651155,PRODUCED
Publisher_001,topicA,topicA-58,172.172.1.1:1883,1551649651255,PRODUCED
Publisher_001,topicA,topicA-59,172.172.1.1:1883,1551649651357,PRODUCED
Publisher_001,topicA,topicA-60,172.172.1.1:1883,1551649651457,PRODUCED
Publisher_001,topicA,topicA-61,172.172.1.1:1883,1551649651556,PRODUCED
Publisher_001,topicA,topicA-62,172.172.1.1:1883,1551649651660,PRODUCED
Publisher_001,topicA,topicA-63,172.172.1.1:1883,1551649651756,PRODUCED
Publisher_001,topicA,topicA-64,172.172.1.1:1883,1551649651858,PRODUCED
Publisher_001,topicA,topicA-65,172.172.1.1:1883,1551649651956,PRODUCED
Publisher_001,topicA,topicA-66,172.172.1.1:1883,1551649652056,PRODUCED
Publisher_001,topicA,topicA-67,172.172.1.1:1883,1551649652156,PRODUCED
Publisher_001,topicA,topicA-68,172.172.1.1:1883,1551649652255,PRODUCED
Publisher_001,topicA,topicA-69,172.172.1.1:1883,1551649652356,PRODUCED
Publisher_001,topicA,topicA-70,172.172.1.1:1883,1551649652457,PRODUCED
Publisher_001,topicA,topicA-71,172.172.1.1:1883,1551649652556,PRODUCED
Publisher_001,topicA,topicA-72,172.172.1.1:1883,1551649652656,PRODUCED
Publisher_001,topicA,topicA-73,172.172.1.1:1883,1551649652756,PRODUCED
Publisher_001,topicA,topicA-74,172.172.1.1:1883,1551649652855,PRODUCED
Publisher_001,topicA,topicA-75,172.172.1.1:1883,1551649652961,PRODUCED
Publisher_001,topicA,topicA-76,172.172.1.1:1883,1551649653056,PRODUCED
Publisher_001,topicA,topicA-77,172.172.1.1:1883,1551649653157,PRODUCED
Publisher_001,topicA,topicA-78,172.172.1.1:1883,1551649653256,PRODUCED
Publisher_001,topicA,topicA-79,172.172.1.1:1883,1551649653357,PRODUCED
Publisher_001,topicA,topicA-80,172.172.1.1:1883,1551649653457,PRODUCED
Publisher_001,topicA,topicA-81,172.172.1.1:1883,1551649653556,PRODUCED
Publisher_001,topicA,topicA-82,172.172.1.1:1883,1551649653659,PRODUCED
Publisher_001,topicA,topicA-83,172.172.1.1:1883,1551649653755,PRODUCED
Publisher_001,topicA,topicA-84,172.172.1.1:1883,1551649653856,PRODUCED
Publisher_001,topicA,topicA-85,172.172.1.1:1883,1551649653955,PRODUCED
Publisher_001,topicA,topicA-86,172.172.1.1:1883,1551649654055,PRODUCED
Publisher_001,topicA,topicA-87,172.172.1.1:1883,1551649654155,PRODUCED
Publisher_001,topicA,topicA-88,172.172.1.1:1883,1551649654255,PRODUCED
Publisher_001,topicA,topicA-89,172.172.1.1:1883,1551649654356,PRODUCED
Publisher_001,topicA,topicA-90,172.172.1.1:1883,1551649654458,PRODUCED
Publisher_001,topicA,topicA-91,172.172.1.1:1883,1551649654560,PRODUCED
Publisher_001,topicA,topicA-92,172.172.1.1:1883,1551649654657,PRODUCED
Publisher_001,topicA,topicA-93,172.172.1.1:1883,1551649654760,PRODUCED
Publisher_001,topicA,topicA-94,172.172.1.1:1883,1551649654856,PRODUCED
Publisher_001,topicA,topicA-95,172.172.1.1:1883,1551649654957,PRODUCED
Publisher_001,topicA,topicA-96,172.172.1.1:1883,1551649655056,PRODUCED
Publisher_001,topicA,topicA-97,172.172.1.1:1883,1551649655156,PRODUCED
Publisher_001,topicA,topicA-98,172.172.1.1:1883,1551649655255,PRODUCED
Publisher_001,topicA,topicA-99,172.172.1.1:1883,1551649655356,PRODUCED
Publisher_001,topicA,topicA-100,172.172.1.1:1883,1551649655456,PRODUCED
Publisher_001,topicA,topicA-101,172.172.1.1:1883,1551649655557,PRODUCED
Publisher_001,topicA,topicA-102,172.172.1.1:1883,1551649655658,PRODUCED
Publisher_001,topicA,topicA-103,172.172.1.1:1883,1551649655755,PRODUCED
Publisher_001,topicA,topicA-104,172.172.1.1:1883,1551649655859,PRODUCED
Publisher_001,topicA,topicA-105,172.172.1.1:1883,1551649655956,PRODUCED
Publisher_001,topicA,topicA-106,172.172.1.1:1883,1551649656055,PRODUCED
Publisher_001,topicA,topicA-107,172.172.1.1:1883,1551649656155,PRODUCED
Publisher_001,topicA,topicA-108,172.172.1.1:1883,1551649656255,PRODUCED
Publisher_001,topicA,topicA-109,172.172.1.1:1883,1551649656355,PRODUCED
Publisher_001,topicA,topicA-110,172.172.1.1:1883,1551649656456,PRODUCED
Publisher_001,topicA,topicA-111,172.172.1.1:1883,1551649656558,PRODUCED
Publisher_001,topicA,topicA-112,172.172.1.1:1883,1551649656656,PRODUCED
Publisher_001,topicA,topicA-113,172.172.1.1:1883,1551649656755,PRODUCED
Publisher_001,topicA,topicA-114,172.172.1.1:1883,1551649656855,PRODUCED
Publisher_001,topicA,topicA-115,172.172.1.1:1883,1551649656962,PRODUCED
Publisher_001,topicA,topicA-116,172.172.1.1:1883,1551649657058,PRODUCED
Publisher_001,topicA,topicA-117,172.172.1.1:1883,1551649657157,PRODUCED
Publisher_001,topicA,topicA-118,172.172.1.1:1883,1551649657258,PRODUCED
Publisher_001,topicA,topicA-119,172.172.1.1:1883,1551649657357,PRODUCED
Publisher_001,topicA,topicA-120,172.172.1.1:1883,1551649657455,PRODUCED
Publisher_001,topicA,topicA-121,172.172.1.1:1883,1551649657556,PRODUCED
Publisher_001,topicA,topicA-122,172.172.1.1:1883,1551649657662,PRODUCED
Publisher_001,topicA,topicA-123,172.172.1.1:1883,1551649657755,PRODUCED
Publisher_001,topicA,topicA-124,172.172.1.1:1883,1551649657858,PRODUCED
Publisher_001,topicA,topicA-125,172.172.1.1:1883,1551649657955,PRODUCED
Publisher_001,topicA,topicA-126,172.172.1.1:1883,1551649658055,PRODUCED
Publisher_001,topicA,topicA-127,172.172.1.1:1883,1551649658155,PRODUCED
Publisher_001,topicA,topicA-128,172.172.1.1:1883,1551649658256,PRODUCED
Publisher_001,topicA,topicA-129,172.172.1.1:1883,1551649658356,PRODUCED
Publisher_001,topicA,topicA-130,172.172.1.1:1883,1551649658456,PRODUCED
Publisher_001,topicA,topicA-131,172.172.1.1:1883,1551649658555,PRODUCED
Publisher_001,topicA,topicA-132,172.172.1.1:1883,1551649658655,PRODUCED
Publisher_001,topicA,topicA-133,172.172.1.1:1883,1551649658757,PRODUCED
Publisher_001,topicA,topicA-134,172.172.1.1:1883,1551649658855,PRODUCED
Publisher_001,topicA,topicA-135,172.172.1.1:1883,1551649658955,PRODUCED
Publisher_001,topicA,topicA-136,172.172.1.1:1883,1551649659055,PRODUCED
Publisher_001,topicA,topicA-137,172.172.1.1:1883,1551649659155,PRODUCED
Publisher_001,topicA,topicA-138,172.172.1.1:1883,1551649659257,PRODUCED
Publisher_001,topicA,topicA-139,172.172.1.1:1883,1551649659359,PRODUCED
Publisher_001,topicA,topicA-140,172.172.1.1:1883,1551649659456,PRODUCED
Publisher_001,topicA,topicA-141,172.172.1.1:1883,1551649659561,PRODUCED
Publisher_001,topicA,topicA-142,172.172.1.1:1883,1551649659655,PRODUCED
Publisher_001,topicA,topicA-143,172.172.1.1:1883,1551649659756,PRODUCED
Publisher_001,topicA,topicA-144,172.172.1.1:1883,1551649659857,PRODUCED
Publisher_001,topicA,topicA-145,172.172.1.1:1883,1551649659955,PRODUCED
Publisher_001,topicA,topicA-146,172.172.1.1:1883,1551649660056,PRODUCED
Publisher_001,topicA,topicA-147,172.172.1.1:1883,1551649660159,PRODUCED
Publisher_001,topicA,topicA-148,172.172.1.1:1883,1551649660255,PRODUCED
Publisher_001,topicA,topicA-149,172.172.1.1:1883,1551649660357,PRODUCED
Publisher_001,topicA,topicA-150,172.172.1.1:1883,1551649660456,PRODUCED
Publisher_001,topicA,topicA-151,172.172.1.1:1883,1551649660556,PRODUCED
Publisher_001,topicA,topicA-152,172.172.1.1:1883,1551649660655,PRODUCED
Publisher_001,topicA,topicA-153,172.172.1.1:1883,1551649660760,PRODUCED
Publisher_001,topicA,topicA-154,172.172.1.1:1883,1551649660856,PRODUCED
Publisher_001,topicA,topicA-155,172.172.1.1:1883,1551649660957,PRODUCED
Publisher_001,topicA,topicA-156,172.172.1.1:1883,1551649661057,PRODUCED
Publisher_001,topicA,topicA-157,172.172.1.1:1883,1551649661155,PRODUCED
Publisher_001,topicA,topicA-158,172.172.1.1:1883,1551649661255,PRODUCED
Publisher_001,topicA,topicA-159,172.172.1.1:1883,1551649661356,PRODUCED
Publisher_001,topicA,topicA-160,172.172.1.1:1883,1551649661456,PRODUCED
Publisher_001,topicA,topicA-161,172.172.1.1:1883,1551649661556,PRODUCED
Publisher_001,topicA,topicA-162,172.172.1.1:1883,1551649661656,PRODUCED
Publisher_001,topicA,topicA-163,172.172.1.1:1883,1551649661756,PRODUCED
Publisher_001,topicA,topicA-164,172.172.1.1:1883,1551649661856,PRODUCED
Publisher_001,topicA,topicA-165,172.172.1.1:1883,1551649661955,PRODUCED
Publisher_001,topicA,topicA-166,172.172.1.1:1883,1551649662057,PRODUCED
Publisher_001,topicA,topicA-167,172.172.1.1:1883,1551649662156,PRODUCED
Publisher_001,topicA,topicA-168,172.172.1.1:1883,1551649662255,PRODUCED
Publisher_001,topicA,topicA-169,172.172.1.1:1883,1551649662357,PRODUCED
Publisher_001,topicA,topicA-170,172.172.1.1:1883,1551649662457,PRODUCED
Publisher_001,topicA,topicA-171,172.172.1.1:1883,1551649662556,PRODUCED
Publisher_001,topicA,topicA-172,172.172.1.1:1883,1551649662656,PRODUCED
Publisher_001,topicA,topicA-173,172.172.1.1:1883,1551649662756,PRODUCED
Publisher_001,topicA,topicA-174,172.172.1.1:1883,1551649662856,PRODUCED
Publisher_001,topicA,topicA-175,172.172.1.1:1883,1551649662955,PRODUCED
Publisher_001,topicA,topicA-176,172.172.1.1:1883,1551649663057,PRODUCED
Publisher_001,topicA,topicA-177,172.172.1.1:1883,1551649663155,PRODUCED
Publisher_001,topicA,topicA-178,172.172.1.1:1883,1551649663256,PRODUCED
Publisher_001,topicA,topicA-179,172.172.1.1:1883,1551649663356,PRODUCED
Publisher_001,topicA,topicA-180,172.172.1.1:1883,1551649663456,PRODUCED
Publisher_001,topicA,topicA-181,172.172.1.1:1883,1551649663556,PRODUCED
Publisher_001,topicA,topicA-182,172.172.1.1:1883,1551649663656,PRODUCED
Publisher_001,topicA,topicA-183,172.172.1.1:1883,1551649663755,PRODUCED
Publisher_001,topicA,topicA-184,172.172.1.1:1883,1551649663856,PRODUCED
Publisher_001,topicA,topicA-185,172.172.1.1:1883,1551649663956,PRODUCED
Publisher_001,topicA,topicA-186,172.172.1.1:1883,1551649664055,PRODUCED
Publisher_001,topicA,topicA-187,172.172.1.1:1883,1551649664155,PRODUCED
Publisher_001,topicA,topicA-188,172.172.1.1:1883,1551649664257,PRODUCED
Publisher_001,topicA,topicA-189,172.172.1.1:1883,1551649664357,PRODUCED
Publisher_001,topicA,topicA-190,172.172.1.1:1883,1551649664456,PRODUCED
Publisher_001,topicA,topicA-191,172.172.1.1:1883,1551649664556,PRODUCED
Publisher_001,topicA,topicA-192,172.172.1.1:1883,1551649664656,PRODUCED
Publisher_001,topicA,topicA-193,172.172.1.1:1883,1551649664763,PRODUCED
Publisher_001,topicA,topicA-194,172.172.1.1:1883,1551649664856,PRODUCED
Publisher_001,topicA,topicA-195,172.172.1.1:1883,1551649664956,PRODUCED
Publisher_001,topicA,topicA-196,172.172.1.1:1883,1551649665055,PRODUCED
Publisher_001,topicA,topicA-197,172.172.1.1:1883,1551649665158,PRODUCED
Publisher_001,topicA,topicA-198,172.172.1.1:1883,1551649665257,PRODUCED
Publisher_001,topicA,topicA-199,172.172.1.1:1883,1551649665355,PRODUCED
Publisher_001,topicA,topicA-200,172.172.1.1:1883,1551649665455,PRODUCED
Publisher_001,topicA,topicA-201,172.172.1.1:1883,1551649665555,PRODUCED
Publisher_001,topicA,topicA-202,172.172.1.1:1883,1551649665655,PRODUCED
Publisher_001,topicA,topicA-203,172.172.1.1:1883,1551649665755,PRODUCED
Publisher_001,topicA,topicA-204,172.172.1.1:1883,1551649665857,PRODUCED
Publisher_001,topicA,topicA-205,172.172.1.1:1883,1551649665959,PRODUCED
Publisher_001,topicA,topicA-206,172.172.1.1:1883,1551649666056,PRODUCED
Publisher_001,topicA,topicA-207,172.172.1.1:1883,1551649666157,PRODUCED
Publisher_001,topicA,topicA-208,172.172.1.1:1883,1551649666259,PRODUCED
Publisher_001,topicA,topicA-209,172.172.1.1:1883,1551649666356,PRODUCED
Publisher_001,topicA,topicA-210,172.172.1.1:1883,1551649666455,PRODUCED
Publisher_001,topicA,topicA-211,172.172.1.1:1883,1551649666557,PRODUCED
Publisher_001,topicA,topicA-212,172.172.1.1:1883,1551649666658,PRODUCED
Publisher_001,topicA,topicA-213,172.172.1.1:1883,1551649666758,PRODUCED
Publisher_001,topicA,topicA-214,172.172.1.1:1883,1551649666856,PRODUCED
Publisher_001,topicA,topicA-215,172.172.1.1:1883,1551649666955,PRODUCED
Publisher_001,topicA,topicA-216,172.172.1.1:1883,1551649667056,PRODUCED
Publisher_001,topicA,topicA-217,172.172.1.1:1883,1551649667157,PRODUCED
Publisher_001,topicA,topicA-218,172.172.1.1:1883,1551649667260,PRODUCED
Publisher_001,topicA,topicA-219,172.172.1.1:1883,1551649667358,PRODUCED
Publisher_001,topicA,topicA-220,172.172.1.1:1883,1551649667455,PRODUCED
Publisher_001,topicA,topicA-221,172.172.1.1:1883,1551649667558,PRODUCED
Publisher_001,topicA,topicA-222,172.172.1.1:1883,1551649667656,PRODUCED
Publisher_001,topicA,topicA-223,172.172.1.1:1883,1551649667761,PRODUCED
Publisher_001,topicA,topicA-224,172.172.1.1:1883,1551649667870,PRODUCED
Publisher_001,topicA,topicA-225,172.172.1.1:1883,1551649667960,PRODUCED
Publisher_001,topicA,topicA-226,172.172.1.1:1883,1551649668058,PRODUCED
Publisher_001,topicA,topicA-227,172.172.1.1:1883,1551649668159,PRODUCED
Publisher_001,topicA,topicA-228,172.172.1.1:1883,1551649668260,PRODUCED
Publisher_001,topicA,topicA-229,172.172.1.1:1883,1551649668374,PRODUCED
Publisher_001,topicA,topicA-230,172.172.1.1:1883,1551649668455,PRODUCED
Publisher_001,topicA,topicA-231,172.172.1.1:1883,1551649668555,PRODUCED
Publisher_001,topicA,topicA-232,172.172.1.1:1883,1551649668655,PRODUCED
Publisher_001,topicA,topicA-233,172.172.1.1:1883,1551649668755,PRODUCED
Publisher_001,topicA,topicA-234,172.172.1.1:1883,1551649668858,PRODUCED
Publisher_001,topicA,topicA-235,172.172.1.1:1883,1551649668955,PRODUCED
Publisher_001,topicA,topicA-236,172.172.1.1:1883,1551649669055,PRODUCED
Publisher_001,topicA,topicA-237,172.172.1.1:1883,1551649669158,PRODUCED
Publisher_001,topicA,topicA-238,172.172.1.1:1883,1551649669256,PRODUCED
Publisher_001,topicA,topicA-239,172.172.1.1:1883,1551649669357,PRODUCED
Publisher_001,topicA,topicA-240,172.172.1.1:1883,1551649669456,PRODUCED
Publisher_001,topicA,topicA-241,172.172.1.1:1883,1551649669557,PRODUCED
Publisher_001,topicA,topicA-242,172.172.1.1:1883,1551649669655,PRODUCED
Publisher_001,topicA,topicA-243,172.172.1.1:1883,1551649669759,PRODUCED
Publisher_001,topicA,topicA-244,172.172.1.1:1883,1551649669859,PRODUCED
Publisher_001,topicA,topicA-245,172.172.1.1:1883,1551649669956,PRODUCED
Publisher_001,topicA,topicA-246,172.172.1.1:1883,1551649670056,PRODUCED
Publisher_001,topicA,topicA-247,172.172.1.1:1883,1551649670156,PRODUCED
Publisher_001,topicA,topicA-248,172.172.1.1:1883,1551649670257,PRODUCED
Publisher_001,topicA,topicA-249,172.172.1.1:1883,1551649670361,PRODUCED
Publisher_001,topicA,topicA-250,172.172.1.1:1883,1551649670455,PRODUCED
Publisher_001,topicA,topicA-251,172.172.1.1:1883,1551649670555,PRODUCED
Publisher_001,topicA,topicA-252,172.172.1.1:1883,1551649670656,PRODUCED
Publisher_001,topicA,topicA-253,172.172.1.1:1883,1551649670755,PRODUCED
Publisher_001,topicA,topicA-254,172.172.1.1:1883,1551649670860,PRODUCED
Publisher_001,topicA,topicA-255,172.172.1.1:1883,1551649670956,PRODUCED
Publisher_001,topicA,topicA-256,172.172.1.1:1883,1551649671055,PRODUCED
Publisher_001,topicA,topicA-257,172.172.1.1:1883,1551649671155,PRODUCED
Publisher_001,topicA,topicA-258,172.172.1.1:1883,1551649671255,PRODUCED
Publisher_001,topicA,topicA-259,172.172.1.1:1883,1551649671355,PRODUCED
Publisher_001,topicA,topicA-260,172.172.1.1:1883,1551649671455,PRODUCED
Publisher_001,topicA,topicA-261,172.172.1.1:1883,1551649671555,PRODUCED
Publisher_001,topicA,topicA-262,172.172.1.1:1883,1551649671655,PRODUCED
Publisher_001,topicA,topicA-263,172.172.1.1:1883,1551649671755,PRODUCED
Publisher_001,topicA,topicA-264,172.172.1.1:1883,1551649671855,PRODUCED
Publisher_001,topicA,topicA-265,172.172.1.1:1883,1551649671955,PRODUCED
Publisher_001,topicA,topicA-266,172.172.1.1:1883,1551649672055,PRODUCED
Publisher_001,topicA,topicA-267,172.172.1.1:1883,1551649672155,PRODUCED
Publisher_001,topicA,topicA-268,172.172.1.1:1883,1551649672255,PRODUCED
Publisher_001,topicA,topicA-269,172.172.1.1:1883,1551649672355,PRODUCED
Publisher_001,topicA,topicA-270,172.172.1.1:1883,1551649672455,PRODUCED
Publisher_001,topicA,topicA-271,172.172.1.1:1883,1551649672555,PRODUCED
Publisher_001,topicA,topicA-272,172.172.1.1:1883,1551649672655,PRODUCED
Publisher_001,topicA,topicA-273,172.172.1.1:1883,1551649672755,PRODUCED
Publisher_001,topicA,topicA-274,172.172.1.1:1883,1551649672855,PRODUCED
Publisher_001,topicA,topicA-275,172.172.1.1:1883,1551649672955,PRODUCED
Publisher_001,topicA,topicA-276,172.172.1.1:1883,1551649673055,PRODUCED
Publisher_001,topicA,topicA-277,172.172.1.1:1883,1551649673155,PRODUCED
Publisher_001,topicA,topicA-278,172.172.1.1:1883,1551649673255,PRODUCED
Publisher_001,topicA,topicA-279,172.172.1.1:1883,1551649673356,PRODUCED
Publisher_001,topicA,topicA-280,172.172.1.1:1883,1551649673455,PRODUCED
Publisher_001,topicA,topicA-281,172.172.1.1:1883,1551649673555,PRODUCED
Publisher_001,topicA,topicA-282,172.172.1.1:1883,1551649673655,PRODUCED
Publisher_001,topicA,topicA-283,172.172.1.1:1883,1551649673755,PRODUCED
Publisher_001,topicA,topicA-284,172.172.1.1:1883,1551649673855,PRODUCED
Publisher_001,topicA,topicA-285,172.172.1.1:1883,1551649673955,PRODUCED
Publisher_001,topicA,topicA-286,172.172.1.1:1883,1551649674055,PRODUCED
Publisher_001,topicA,topicA-287,172.172.1.1:1883,1551649674155,PRODUCED
Publisher_001,topicA,topicA-288,172.172.1.1:1883,1551649674255,PRODUCED
Publisher_001,topicA,topicA-289,172.172.1.1:1883,1551649674355,PRODUCED
Publisher_001,topicA,topicA-290,172.172.1.1:1883,1551649674455,PRODUCED
Publisher_001,topicA,topicA-291,172.172.1.1:1883,1551649674555,PRODUCED
Publisher_001,topicA,topicA-292,172.172.1.1:1883,1551649674655,PRODUCED
Publisher_001,topicA,topicA-293,172.172.1.1:1883,1551649674755,PRODUCED
Publisher_001,topicA,topicA-294,172.172.1.1:1883,1551649674855,PRODUCED
Publisher_001,topicA,topicA-295,172.172.1.1:1883,1551649674955,PRODUCED
Publisher_001,topicA,topicA-296,172.172.1.1:1883,1551649675055,PRODUCED
Publisher_001,topicA,topicA-297,172.172.1.1:1883,1551649675155,PRODUCED
Publisher_001,topicA,topicA-298,172.172.1.1:1883,1551649675255,PRODUCED
Publisher_001,topicA,topicA-299,172.172.1.1:1883,1551649675355,PRODUCED
Publisher_001,topicA,topicA-300,172.172.1.1:1883,1551649675455,PRODUCED
Publisher_001,topicA,topicA-301,172.172.1.1:1883,1551649675555,PRODUCED
Publisher_001,topicA,topicA-302,172.172.1.1:1883,1551649675655,PRODUCED
Publisher_001,topicA,topicA-303,172.172.1.1:1883,1551649675755,PRODUCED
Publisher_001,topicA,topicA-304,172.172.1.1:1883,1551649675855,PRODUCED
Publisher_001,topicA,topicA-305,172.172.1.1:1883,1551649675955,PRODUCED
Publisher_001,topicA,topicA-306,172.172.1.1:1883,1551649676055,PRODUCED
Publisher_001,topicA,topicA-307,172.172.1.1:1883,1551649676155,PRODUCED
Publisher_001,topicA,topicA-308,172.172.1.1:1883,1551649676255,PRODUCED
Publisher_001,topicA,topicA-309,172.172.1.1:1883,1551649676355,PRODUCED
Publisher_001,topicA,topicA-310,172.172.1.1:1883,1551649676455,PRODUCED
Publisher_001,topicA,topicA-311,172.172.1.1:1883,1551649676555,PRODUCED
Publisher_001,topicA,topicA-312,172.172.1.1:1883,1551649676655,PRODUCED
Publisher_001,topicA,topicA-313,172.172.1.1:1883,1551649676755,PRODUCED
Publisher_001,topicA,topicA-314,172.172.1.1:1883,1551649676855,PRODUCED
Publisher_001,topicA,topicA-315,172.172.1.1:1883,1551649676955,PRODUCED
Publisher_001,topicA,topicA-316,172.172.1.1:1883,1551649677055,PRODUCED
Publisher_001,topicA,topicA-317,172.172.1.1:1883,1551649677155,PRODUCED
Publisher_001,topicA,topicA-318,172.172.1.1:1883,1551649677255,PRODUCED
Publisher_001,topicA,topicA-319,172.172.1.1:1883,1551649677355,PRODUCED
Publisher_001,topicA,topicA-320,172.172.1.1:1883,1551649677455,PRODUCED
Publisher_001,topicA,topicA-321,172.172.1.1:1883,1551649677555,PRODUCED
Publisher_001,topicA,topicA-322,172.172.1.1:1883,1551649677655,PRODUCED
Publisher_001,topicA,topicA-323,172.172.1.1:1883,1551649677755,PRODUCED
Publisher_001,topicA,topicA-324,172.172.1.1:1883,1551649677855,PRODUCED
Publisher_001,topicA,topicA-325,172.172.1.1:1883,1551649677955,PRODUCED
Publisher_001,topicA,topicA-326,172.172.1.1:1883,1551649678055,PRODUCED
Publisher_001,topicA,topicA-327,172.172.1.1:1883,1551649678155,PRODUCED
Publisher_001,topicA,topicA-328,172.172.1.1:1883,1551649678255,PRODUCED
Publisher_001,topicA,topicA-329,172.172.1.1:1883,1551649678355,PRODUCED
Publisher_001,topicA,topicA-330,172.172.1.1:1883,1551649678455,PRODUCED
Publisher_001,topicA,topicA-331,172.172.1.1:1883,1551649678555,PRODUCED
Publisher_001,topicA,topicA-332,172.172.1.1:1883,1551649678655,PRODUCED
Publisher_001,topicA,topicA-333,172.172.1.1:1883,1551649678755,PRODUCED
Publisher_001,topicA,topicA-334,172.172.1.1:1883,1551649678855,PRODUCED
Publisher_001,topicA,topicA-335,172.172.1.1:1883,1551649678955,PRODUCED
Publisher_001,topicA,topicA-336,172.172.1.1:1883,1551649679055,PRODUCED
Publisher_001,topicA,topicA-337,172.172.1.1:1883,1551649679155,PRODUCED
Publisher_001,topicA,topicA-338,172.172.1.1:1883,1551649679255,PRODUCED
Publisher_001,topicA,topicA-339,172.172.1.1:1883,1551649679355,PRODUCED
Publisher_001,topicA,topicA-340,172.172.1.1:1883,1551649679455,PRODUCED
Publisher_001,topicA,topicA-341,172.172.1.1:1883,1551649679555,PRODUCED
Publisher_001,topicA,topicA-342,172.172.1.1:1883,1551649679655,PRODUCED
Publisher_001,topicA,topicA-343,172.172.1.1:1883,1551649679755,PRODUCED
Publisher_001,topicA,topicA-344,172.172.1.1:1883,1551649679855,PRODUCED
Publisher_001,topicA,topicA-345,172.172.1.1:1883,1551649679955,PRODUCED
Publisher_001,topicA,topicA-346,172.172.1.1:1883,1551649680055,PRODUCED
Publisher_001,topicA,topicA-347,172.172.1.1:1883,1551649680155,PRODUCED
Publisher_001,topicA,topicA-348,172.172.1.1:1883,1551649680255,PRODUCED
Publisher_001,topicA,topicA-349,172.172.1.1:1883,1551649680355,PRODUCED
Publisher_001,topicA,topicA-350,172.172.1.1:1883,1551649680455,PRODUCED
Publisher_001,topicA,topicA-351,172.172.1.1:1883,1551649680555,PRODUCED
Publisher_001,topicA,topicA-352,172.172.1.1:1883,1551649680656,PRODUCED
Publisher_001,topicA,topicA-353,172.172.1.1:1883,1551649680755,PRODUCED
Publisher_001,topicA,topicA-354,172.172.1.1:1883,1551649680855,PRODUCED
Publisher_001,topicA,topicA-355,172.172.1.1:1883,1551649680955,PRODUCED
Publisher_001,topicA,topicA-356,172.172.1.1:1883,1551649681055,PRODUCED
Publisher_001,topicA,topicA-357,172.172.1.1:1883,1551649681155,PRODUCED
Publisher_001,topicA,topicA-358,172.172.1.1:1883,1551649681255,PRODUCED
Publisher_001,topicA,topicA-359,172.172.1.1:1883,1551649681355,PRODUCED
Publisher_001,topicA,topicA-360,172.172.1.1:1883,1551649681456,PRODUCED
Publisher_001,topicA,topicA-361,172.172.1.1:1883,1551649681555,PRODUCED
Publisher_001,topicA,topicA-362,172.172.1.1:1883,1551649681655,PRODUCED
Publisher_001,topicA,topicA-363,172.172.1.1:1883,1551649681755,PRODUCED
Publisher_001,topicA,topicA-364,172.172.1.1:1883,1551649681855,PRODUCED
Publisher_001,topicA,topicA-365,172.172.1.1:1883,1551649681955,PRODUCED
Publisher_001,topicA,topicA-366,172.172.1.1:1883,1551649682055,PRODUCED
Publisher_001,topicA,topicA-367,172.172.1.1:1883,1551649682155,PRODUCED
Publisher_001,topicA,topicA-368,172.172.1.1:1883,1551649682255,PRODUCED
Publisher_001,topicA,topicA-369,172.172.1.1:1883,1551649682355,PRODUCED
Publisher_001,topicA,topicA-370,172.172.1.1:1883,1551649682455,PRODUCED
Publisher_001,topicA,topicA-371,172.172.1.1:1883,1551649682555,PRODUCED
Publisher_001,topicA,topicA-372,172.172.1.1:1883,1551649682655,PRODUCED
Publisher_001,topicA,topicA-373,172.172.1.1:1883,1551649682755,PRODUCED
Publisher_001,topicA,topicA-374,172.172.1.1:1883,1551649682855,PRODUCED
Publisher_001,topicA,topicA-375,172.172.1.1:1883,1551649682955,PRODUCED
Publisher_001,topicA,topicA-376,172.172.1.1:1883,1551649683055,PRODUCED
Publisher_001,topicA,topicA-377,172.172.1.1:1883,1551649683155,PRODUCED
Publisher_001,topicA,topicA-378,172.172.1.1:1883,1551649683255,PRODUCED
Publisher_001,topicA,topicA-379,172.172.1.1:1883,1551649683355,PRODUCED
Publisher_001,topicA,topicA-380,172.172.1.1:1883,1551649683455,PRODUCED
Publisher_001,topicA,topicA-381,172.172.1.1:1883,1551649683555,PRODUCED
Publisher_001,topicA,topicA-382,172.172.1.1:1883,1551649683655,PRODUCED
Publisher_001,topicA,topicA-383,172.172.1.1:1883,1551649683755,PRODUCED
Publisher_001,topicA,topicA-384,172.172.1.1:1883,1551649683855,PRODUCED
Publisher_001,topicA,topicA-385,172.172.1.1:1883,1551649683955,PRODUCED
Publisher_001,topicA,topicA-386,172.172.1.1:1883,1551649684055,PRODUCED
Publisher_001,topicA,topicA-387,172.172.1.1:1883,1551649684155,PRODUCED
Publisher_001,topicA,topicA-388,172.172.1.1:1883,1551649684255,PRODUCED
Publisher_001,topicA,topicA-389,172.172.1.1:1883,1551649684355,PRODUCED
Publisher_001,topicA,topicA-390,172.172.1.1:1883,1551649684455,PRODUCED
Publisher_001,topicA,topicA-391,172.172.1.1:1883,1551649684555,PRODUCED
Publisher_001,topicA,topicA-392,172.172.1.1:1883,1551649684655,PRODUCED
Publisher_001,topicA,topicA-393,172.172.1.1:1883,1551649684755,PRODUCED
Publisher_001,topicA,topicA-394,172.172.1.1:1883,1551649684855,PRODUCED
Publisher_001,topicA,topicA-395,172.172.1.1:1883,1551649684955,PRODUCED
Publisher_001,topicA,topicA-396,172.172.1.1:1883,1551649685055,PRODUCED
Publisher_001,topicA,topicA-397,172.172.1.1:1883,1551649685155,PRODUCED
Publisher_001,topicA,topicA-398,172.172.1.1:1883,1551649685255,PRODUCED
Publisher_001,topicA,topicA-399,172.172.1.1:1883,1551649685355,PRODUCED
Publisher_001,topicA,topicA-400,172.172.1.1:1883,1551649685455,PRODUCED
Publisher_001,topicA,topicA-401,172.172.1.1:1883,1551649685555,PRODUCED
Publisher_001,topicA,topicA-402,172.172.1.1:1883,1551649685655,PRODUCED
Publisher_001,topicA,topicA-403,172.172.1.1:1883,1551649685755,PRODUCED
Publisher_001,topicA,topicA-404,172.172.1.1:1883,1551649685855,PRODUCED
Publisher_001,topicA,topicA-405,172.172.1.1:1883,1551649685955,PRODUCED
Publisher_001,topicA,topicA-406,172.172.1.1:1883,1551649686055,PRODUCED
Publisher_001,topicA,topicA-407,172.172.1.1:1883,1551649686155,PRODUCED
Publisher_001,topicA,topicA-408,172.172.1.1:1883,1551649686255,PRODUCED
Publisher_001,topicA,topicA-409,172.172.1.1:1883,1551649686355,PRODUCED
Publisher_001,topicA,topicA-410,172.172.1.1:1883,1551649686455,PRODUCED
Publisher_001,topicA,topicA-411,172.172.1.1:1883,1551649686555,PRODUCED
Publisher_001,topicA,topicA-412,172.172.1.1:1883,1551649686655,PRODUCED
Publisher_001,topicA,topicA-413,172.172.1.1:1883,1551649686755,PRODUCED
Publisher_001,topicA,topicA-414,172.172.1.1:1883,1551649686855,PRODUCED
Publisher_001,topicA,topicA-415,172.172.1.1:1883,1551649686955,PRODUCED
Publisher_001,topicA,topicA-416,172.172.1.1:1883,1551649687055,PRODUCED
Publisher_001,topicA,topicA-417,172.172.1.1:1883,1551649687155,PRODUCED
Publisher_001,topicA,topicA-418,172.172.1.1:1883,1551649687255,PRODUCED
Publisher_001,topicA,topicA-419,172.172.1.1:1883,1551649687355,PRODUCED
Publisher_001,topicA,topicA-420,172.172.1.1:1883,1551649687455,PRODUCED
Publisher_001,topicA,topicA-421,172.172.1.1:1883,1551649687556,PRODUCED
Publisher_001,topicA,topicA-422,172.172.1.1:1883,1551649687655,PRODUCED
Publisher_001,topicA,topicA-423,172.172.1.1:1883,1551649687755,PRODUCED
Publisher_001,topicA,topicA-424,172.172.1.1:1883,1551649687855,PRODUCED
Publisher_001,topicA,topicA-425,172.172.1.1:1883,1551649687955,PRODUCED
Publisher_001,topicA,topicA-426,172.172.1.1:1883,1551649688055,PRODUCED
Publisher_001,topicA,topicA-427,172.172.1.1:1883,1551649688155,PRODUCED
Publisher_001,topicA,topicA-428,172.172.1.1:1883,1551649688255,PRODUCED
Publisher_001,topicA,topicA-429,172.172.1.1:1883,1551649688355,PRODUCED
Publisher_001,topicA,topicA-430,172.172.1.1:1883,1551649688455,PRODUCED
Publisher_001,topicA,topicA-431,172.172.1.1:1883,1551649688555,PRODUCED
Publisher_001,topicA,topicA-432,172.172.1.1:1883,1551649688655,PRODUCED
Publisher_001,topicA,topicA-433,172.172.1.1:1883,1551649688755,PRODUCED
Publisher_001,topicA,topicA-434,172.172.1.1:1883,1551649688855,PRODUCED
Publisher_001,topicA,topicA-435,172.172.1.1:1883,1551649688955,PRODUCED
Publisher_001,topicA,topicA-436,172.172.1.1:1883,1551649689055,PRODUCED
Publisher_001,topicA,topicA-437,172.172.1.1:1883,1551649689155,PRODUCED
Publisher_001,topicA,topicA-438,172.172.1.1:1883,1551649689255,PRODUCED
Publisher_001,topicA,topicA-439,172.172.1.1:1883,1551649689355,PRODUCED
Publisher_001,topicA,topicA-440,172.172.1.1:1883,1551649689455,PRODUCED
Publisher_001,topicA,topicA-441,172.172.1.1:1883,1551649689555,PRODUCED
Publisher_001,topicA,topicA-442,172.172.1.1:1883,1551649689655,PRODUCED
Publisher_001,topicA,topicA-443,172.172.1.1:1883,1551649689755,PRODUCED
Publisher_001,topicA,topicA-444,172.172.1.1:1883,1551649689855,PRODUCED
Publisher_001,topicA,topicA-445,172.172.1.1:1883,1551649689955,PRODUCED
Publisher_001,topicA,topicA-446,172.172.1.1:1883,1551649690055,PRODUCED
Publisher_001,topicA,topicA-447,172.172.1.1:1883,1551649690155,PRODUCED
Publisher_001,topicA,topicA-448,172.172.1.1:1883,1551649690255,PRODUCED
Publisher_001,topicA,topicA-449,172.172.1.1:1883,1551649690355,PRODUCED
Publisher_001,topicA,topicA-450,172.172.1.1:1883,1551649690455,PRODUCED
Publisher_001,topicA,topicA-451,172.172.1.1:1883,1551649690555,PRODUCED
Publisher_001,topicA,topicA-452,172.172.1.1:1883,1551649690655,PRODUCED
Publisher_001,topicA,topicA-453,172.172.1.1:1883,1551649690755,PRODUCED
Publisher_001,topicA,topicA-454,172.172.1.1:1883,1551649690855,PRODUCED
Publisher_001,topicA,topicA-455,172.172.1.1:1883,1551649690955,PRODUCED
Publisher_001,topicA,topicA-456,172.172.1.1:1883,1551649691055,PRODUCED
Publisher_001,topicA,topicA-457,172.172.1.1:1883,1551649691155,PRODUCED
Publisher_001,topicA,topicA-458,172.172.1.1:1883,1551649691255,PRODUCED
Publisher_001,topicA,topicA-459,172.172.1.1:1883,1551649691355,PRODUCED
Publisher_001,topicA,topicA-460,172.172.1.1:1883,1551649691455,PRODUCED
Publisher_001,topicA,topicA-461,172.172.1.1:1883,1551649691555,PRODUCED
Publisher_001,topicA,topicA-462,172.172.1.1:1883,1551649691655,PRODUCED
Publisher_001,topicA,topicA-463,172.172.1.1:1883,1551649691755,PRODUCED
Publisher_001,topicA,topicA-464,172.172.1.1:1883,1551649691855,PRODUCED
Publisher_001,topicA,topicA-465,172.172.1.1:1883,1551649691955,PRODUCED
Publisher_001,topicA,topicA-466,172.172.1.1:1883,1551649692055,PRODUCED
Publisher_001,topicA,topicA-467,172.172.1.1:1883,1551649692155,PRODUCED
Publisher_001,topicA,topicA-468,172.172.1.1:1883,1551649692255,PRODUCED
Publisher_001,topicA,topicA-469,172.172.1.1:1883,1551649692355,PRODUCED
Publisher_001,topicA,topicA-470,172.172.1.1:1883,1551649692455,PRODUCED
Publisher_001,topicA,topicA-471,172.172.1.1:1883,1551649692555,PRODUCED
Publisher_001,topicA,topicA-472,172.172.1.1:1883,1551649692655,PRODUCED
Publisher_001,topicA,topicA-473,172.172.1.1:1883,1551649692755,PRODUCED
Publisher_001,topicA,topicA-474,172.172.1.1:1883,1551649692855,PRODUCED
Publisher_001,topicA,topicA-475,172.172.1.1:1883,1551649692955,PRODUCED
Publisher_001,topicA,topicA-476,172.172.1.1:1883,1551649693055,PRODUCED
Publisher_001,topicA,topicA-477,172.172.1.1:1883,1551649693155,PRODUCED
Publisher_001,topicA,topicA-478,172.172.1.1:1883,1551649693255,PRODUCED
Publisher_001,topicA,topicA-479,172.172.1.1:1883,1551649693355,PRODUCED
Publisher_001,topicA,topicA-480,172.172.1.1:1883,1551649693455,PRODUCED
Publisher_001,topicA,topicA-481,172.172.1.1:1883,1551649693555,PRODUCED
Publisher_001,topicA,topicA-482,172.172.1.1:1883,1551649693655,PRODUCED
Publisher_001,topicA,topicA-483,172.172.1.1:1883,1551649693755,PRODUCED
Publisher_001,topicA,topicA-484,172.172.1.1:1883,1551649693855,PRODUCED
Publisher_001,topicA,topicA-485,172.172.1.1:1883,1551649693955,PRODUCED
Publisher_001,topicA,topicA-486,172.172.1.1:1883,1551649694055,PRODUCED
Publisher_001,topicA,topicA-487,172.172.1.1:1883,1551649694155,PRODUCED
Publisher_001,topicA,topicA-488,172.172.1.1:1883,1551649694255,PRODUCED
Publisher_001,topicA,topicA-489,172.172.1.1:1883,1551649694355,PRODUCED
Publisher_001,topicA,topicA-490,172.172.1.1:1883,1551649694455,PRODUCED
Publisher_001,topicA,topicA-491,172.172.1.1:1883,1551649694555,PRODUCED
Publisher_001,topicA,topicA-492,172.172.1.1:1883,1551649694655,PRODUCED
Publisher_001,topicA,topicA-493,172.172.1.1:1883,1551649694760,PRODUCED
Publisher_001,topicA,topicA-494,172.172.1.1:1883,1551649694856,PRODUCED
Publisher_001,topicA,topicA-495,172.172.1.1:1883,1551649694955,PRODUCED
Publisher_001,topicA,topicA-496,172.172.1.1:1883,1551649695055,PRODUCED
Publisher_001,topicA,topicA-497,172.172.1.1:1883,1551649695155,PRODUCED
Publisher_001,topicA,topicA-498,172.172.1.1:1883,1551649695255,PRODUCED
Publisher_001,topicA,topicA-499,172.172.1.1:1883,1551649695355,PRODUCED
Publisher_001,topicA,topicA-500,172.172.1.1:1883,1551649695455,PRODUCED
Publisher_001,topicA,topicA-501,172.172.1.1:1883,1551649695555,PRODUCED
Publisher_001,topicA,topicA-502,172.172.1.1:1883,1551649695655,PRODUCED
Publisher_001,topicA,topicA-503,172.172.1.1:1883,1551649695755,PRODUCED
Publisher_001,topicA,topicA-504,172.172.1.1:1883,1551649695855,PRODUCED
Publisher_001,topicA,topicA-505,172.172.1.1:1883,1551649695955,PRODUCED
Publisher_001,topicA,topicA-506,172.172.1.1:1883,1551649696055,PRODUCED
Publisher_001,topicA,topicA-507,172.172.1.1:1883,1551649696155,PRODUCED
Publisher_001,topicA,topicA-508,172.172.1.1:1883,1551649696255,PRODUCED
Publisher_001,topicA,topicA-509,172.172.1.1:1883,1551649696355,PRODUCED
Publisher_001,topicA,topicA-510,172.172.1.1:1883,1551649696456,PRODUCED
Publisher_001,topicA,topicA-511,172.172.1.1:1883,1551649696555,PRODUCED
Publisher_001,topicA,topicA-512,172.172.1.1:1883,1551649696655,PRODUCED
Publisher_001,topicA,topicA-513,172.172.1.1:1883,1551649696755,PRODUCED
Publisher_001,topicA,topicA-514,172.172.1.1:1883,1551649696855,PRODUCED
Publisher_001,topicA,topicA-515,172.172.1.1:1883,1551649696955,PRODUCED
Publisher_001,topicA,topicA-516,172.172.1.1:1883,1551649697055,PRODUCED
Publisher_001,topicA,topicA-517,172.172.1.1:1883,1551649697155,PRODUCED
Publisher_001,topicA,topicA-518,172.172.1.1:1883,1551649697255,PRODUCED
Publisher_001,topicA,topicA-519,172.172.1.1:1883,1551649697355,PRODUCED
Publisher_001,topicA,topicA-520,172.172.1.1:1883,1551649697455,PRODUCED
Publisher_001,topicA,topicA-521,172.172.1.1:1883,1551649697555,PRODUCED
Publisher_001,topicA,topicA-522,172.172.1.1:1883,1551649697655,PRODUCED
Publisher_001,topicA,topicA-523,172.172.1.1:1883,1551649697755,PRODUCED
Publisher_001,topicA,topicA-524,172.172.1.1:1883,1551649697855,PRODUCED
Publisher_001,topicA,topicA-525,172.172.1.1:1883,1551649697955,PRODUCED
Publisher_001,topicA,topicA-526,172.172.1.1:1883,1551649698055,PRODUCED
Publisher_001,topicA,topicA-527,172.172.1.1:1883,1551649698155,PRODUCED
Publisher_001,topicA,topicA-528,172.172.1.1:1883,1551649698255,PRODUCED
Publisher_001,topicA,topicA-529,172.172.1.1:1883,1551649698355,PRODUCED
Publisher_001,topicA,topicA-530,172.172.1.1:1883,1551649698455,PRODUCED
Publisher_001,topicA,topicA-531,172.172.1.1:1883,1551649698555,PRODUCED
Publisher_001,topicA,topicA-532,172.172.1.1:1883,1551649698655,PRODUCED
Publisher_001,topicA,topicA-533,172.172.1.1:1883,1551649698755,PRODUCED
Publisher_001,topicA,topicA-534,172.172.1.1:1883,1551649698855,PRODUCED
Publisher_001,topicA,topicA-535,172.172.1.1:1883,1551649698955,PRODUCED
Publisher_001,topicA,topicA-536,172.172.1.1:1883,1551649699055,PRODUCED
Publisher_001,topicA,topicA-537,172.172.1.1:1883,1551649699155,PRODUCED
Publisher_001,topicA,topicA-538,172.172.1.1:1883,1551649699255,PRODUCED
Publisher_001,topicA,topicA-539,172.172.1.1:1883,1551649699355,PRODUCED
Publisher_001,topicA,topicA-540,172.172.1.1:1883,1551649699455,PRODUCED
Publisher_001,topicA,topicA-541,172.172.1.1:1883,1551649699555,PRODUCED
Publisher_001,topicA,topicA-542,172.172.1.1:1883,1551649699655,PRODUCED
Publisher_001,topicA,topicA-543,172.172.1.1:1883,1551649699755,PRODUCED
Publisher_001,topicA,topicA-544,172.172.1.1:1883,1551649699855,PRODUCED
Publisher_001,topicA,topicA-545,172.172.1.1:1883,1551649699955,PRODUCED
Publisher_001,topicA,topicA-546,172.172.1.1:1883,1551649700055,PRODUCED
Publisher_001,topicA,topicA-547,172.172.1.1:1883,1551649700155,PRODUCED
Publisher_001,topicA,topicA-548,172.172.1.1:1883,1551649700255,PRODUCED
Publisher_001,topicA,topicA-549,172.172.1.1:1883,1551649700355,PRODUCED
Publisher_001,topicA,topicA-550,172.172.1.1:1883,1551649700455,PRODUCED
Publisher_001,topicA,topicA-551,172.172.1.1:1883,1551649700555,PRODUCED
Publisher_001,topicA,topicA-552,172.172.1.1:1883,1551649700655,PRODUCED
Publisher_001,topicA,topicA-553,172.172.1.1:1883,1551649700755,PRODUCED
Publisher_001,topicA,topicA-554,172.172.1.1:1883,1551649700855,PRODUCED
Publisher_001,topicA,topicA-555,172.172.1.1:1883,1551649700955,PRODUCED
Publisher_001,topicA,topicA-556,172.172.1.1:1883,1551649701055,PRODUCED
Publisher_001,topicA,topicA-557,172.172.1.1:1883,1551649701155,PRODUCED
Publisher_001,topicA,topicA-558,172.172.1.1:1883,1551649701255,PRODUCED
Publisher_001,topicA,topicA-559,172.172.1.1:1883,1551649701355,PRODUCED
Publisher_001,topicA,topicA-560,172.172.1.1:1883,1551649701455,PRODUCED
Publisher_001,topicA,topicA-561,172.172.1.1:1883,1551649701555,PRODUCED
Publisher_001,topicA,topicA-562,172.172.1.1:1883,1551649701655,PRODUCED
Publisher_001,topicA,topicA-563,172.172.1.1:1883,1551649701755,PRODUCED
Publisher_001,topicA,topicA-564,172.172.1.1:1883,1551649701855,PRODUCED
Publisher_001,topicA,topicA-565,172.172.1.1:1883,1551649701955,PRODUCED
Publisher_001,topicA,topicA-566,172.172.1.1:1883,1551649702055,PRODUCED
Publisher_001,topicA,topicA-567,172.172.1.1:1883,1551649702155,PRODUCED
Publisher_001,topicA,topicA-568,172.172.1.1:1883,1551649702255,PRODUCED
Publisher_001,topicA,topicA-569,172.172.1.1:1883,1551649702355,PRODUCED
Publisher_001,topicA,topicA-570,172.172.1.1:1883,1551649702458,PRODUCED
Publisher_001,topicA,topicA-571,172.172.1.1:1883,1551649702555,PRODUCED
Publisher_001,topicA,topicA-572,172.172.1.1:1883,1551649702655,PRODUCED
Publisher_001,topicA,topicA-573,172.172.1.1:1883,1551649702755,PRODUCED
Publisher_001,topicA,topicA-574,172.172.1.1:1883,1551649702855,PRODUCED
Publisher_001,topicA,topicA-575,172.172.1.1:1883,1551649702955,PRODUCED
Publisher_001,topicA,topicA-576,172.172.1.1:1883,1551649703055,PRODUCED
Publisher_001,topicA,topicA-577,172.172.1.1:1883,1551649703155,PRODUCED
Publisher_001,topicA,topicA-578,172.172.1.1:1883,1551649703255,PRODUCED
Publisher_001,topicA,topicA-579,172.172.1.1:1883,1551649703355,PRODUCED
Publisher_001,topicA,topicA-580,172.172.1.1:1883,1551649703455,PRODUCED
Publisher_001,topicA,topicA-581,172.172.1.1:1883,1551649703555,PRODUCED
Publisher_001,topicA,topicA-582,172.172.1.1:1883,1551649703655,PRODUCED
Publisher_001,topicA,topicA-583,172.172.1.1:1883,1551649703755,PRODUCED
Publisher_001,topicA,topicA-584,172.172.1.1:1883,1551649703855,PRODUCED
Publisher_001,topicA,topicA-585,172.172.1.1:1883,1551649703955,PRODUCED
Publisher_001,topicA,topicA-586,172.172.1.1:1883,1551649704055,PRODUCED
Publisher_001,topicA,topicA-587,172.172.1.1:1883,1551649704155,PRODUCED
Publisher_001,topicA,topicA-588,172.172.1.1:1883,1551649704255,PRODUCED
Publisher_001,topicA,topicA-589,172.172.1.1:1883,1551649704355,PRODUCED
Publisher_001,topicA,topicA-590,172.172.1.1:1883,1551649704455,PRODUCED
Publisher_001,topicA,topicA-591,172.172.1.1:1883,1551649704555,PRODUCED
Publisher_001,topicA,topicA-592,172.172.1.1:1883,1551649704655,PRODUCED
Publisher_001,topicA,topicA-593,172.172.1.1:1883,1551649704755,PRODUCED
Publisher_001,topicA,topicA-594,172.172.1.1:1883,1551649704855,PRODUCED
Publisher_001,topicA,topicA-595,172.172.1.1:1883,1551649704955,PRODUCED
Publisher_001,topicA,topicA-596,172.172.1.1:1883,1551649705055,PRODUCED
Publisher_001,topicA,topicA-597,172.172.1.1:1883,1551649705155,PRODUCED
Publisher_001,topicA,topicA-598,172.172.1.1:1883,1551649705255,PRODUCED
Publisher_001,topicA,topicA-599,172.172.1.1:1883,1551649705355,PRODUCED
Publisher_001,topicA,topicA-600,172.172.1.1:1883,1551649705455,PRODUCED
Publisher_001,topicA,topicA-601,172.172.1.1:1883,1551649705555,PRODUCED
Publisher_001,topicA,topicA-602,172.172.1.1:1883,1551649705655,PRODUCED
Publisher_001,topicA,topicA-603,172.172.1.1:1883,1551649705755,PRODUCED
Publisher_001,topicA,topicA-604,172.172.1.1:1883,1551649705855,PRODUCED
Publisher_001,topicA,topicA-605,172.172.1.1:1883,1551649705955,PRODUCED
Publisher_001,topicA,topicA-606,172.172.1.1:1883,1551649706055,PRODUCED
Publisher_001,topicA,topicA-607,172.172.1.1:1883,1551649706155,PRODUCED
Publisher_001,topicA,topicA-608,172.172.1.1:1883,1551649706255,PRODUCED
Publisher_001,topicA,topicA-609,172.172.1.1:1883,1551649706355,PRODUCED
Publisher_001,topicA,topicA-610,172.172.1.1:1883,1551649706455,PRODUCED
Publisher_001,topicA,topicA-611,172.172.1.1:1883,1551649706555,PRODUCED
Publisher_001,topicA,topicA-612,172.172.1.1:1883,1551649706655,PRODUCED
Publisher_001,topicA,topicA-613,172.172.1.1:1883,1551649706755,PRODUCED
Publisher_001,topicA,topicA-614,172.172.1.1:1883,1551649706855,PRODUCED
Publisher_001,topicA,topicA-615,172.172.1.1:1883,1551649706955,PRODUCED
Publisher_001,topicA,topicA-616,172.172.1.1:1883,1551649707055,PRODUCED
Publisher_001,topicA,topicA-617,172.172.1.1:1883,1551649707155,PRODUCED
Publisher_001,topicA,topicA-618,172.172.1.1:1883,1551649707255,PRODUCED
Publisher_001,topicA,topicA-619,172.172.1.1:1883,1551649707355,PRODUCED
Publisher_001,topicA,topicA-620,172.172.1.1:1883,1551649707455,PRODUCED
Publisher_001,topicA,topicA-621,172.172.1.1:1883,1551649707555,PRODUCED
Publisher_001,topicA,topicA-622,172.172.1.1:1883,1551649707655,PRODUCED
Publisher_001,topicA,topicA-623,172.172.1.1:1883,1551649707755,PRODUCED
Publisher_001,topicA,topicA-624,172.172.1.1:1883,1551649707855,PRODUCED
Publisher_001,topicA,topicA-625,172.172.1.1:1883,1551649707955,PRODUCED
Publisher_001,topicA,topicA-626,172.172.1.1:1883,1551649708055,PRODUCED
Publisher_001,topicA,topicA-627,172.172.1.1:1883,1551649708155,PRODUCED
Publisher_001,topicA,topicA-628,172.172.1.1:1883,1551649708255,PRODUCED
Publisher_001,topicA,topicA-629,172.172.1.1:1883,1551649708355,PRODUCED
Publisher_001,topicA,topicA-630,172.172.1.1:1883,1551649708455,PRODUCED
Publisher_001,topicA,topicA-631,172.172.1.1:1883,1551649708555,PRODUCED
Publisher_001,topicA,topicA-632,172.172.1.1:1883,1551649708655,PRODUCED
Publisher_001,topicA,topicA-633,172.172.1.1:1883,1551649708755,PRODUCED
Publisher_001,topicA,topicA-634,172.172.1.1:1883,1551649708855,PRODUCED
Publisher_001,topicA,topicA-635,172.172.1.1:1883,1551649708955,PRODUCED
Publisher_001,topicA,topicA-636,172.172.1.1:1883,1551649709056,PRODUCED
Publisher_001,topicA,topicA-637,172.172.1.1:1883,1551649709155,PRODUCED
Publisher_001,topicA,topicA-638,172.172.1.1:1883,1551649709255,PRODUCED
Publisher_001,topicA,topicA-639,172.172.1.1:1883,1551649709355,PRODUCED
Publisher_001,topicA,topicA-640,172.172.1.1:1883,1551649709455,PRODUCED
Publisher_001,topicA,topicA-641,172.172.1.1:1883,1551649709555,PRODUCED
Publisher_001,topicA,topicA-642,172.172.1.1:1883,1551649709655,PRODUCED
Publisher_001,topicA,topicA-643,172.172.1.1:1883,1551649709755,PRODUCED
Publisher_001,topicA,topicA-644,172.172.1.1:1883,1551649709855,PRODUCED
