clientId,topic,guid,broker,timestamp,type
Publisher_002,topicA,topicA-1,172.172.1.2:1883,1551651052415,PRODUCED
Publisher_002,topicA,topicA-2,172.172.1.2:1883,1551651052643,PRODUCED
Publisher_002,topicA,topicA-3,172.172.1.2:1883,1551651052648,PRODUCED
Publisher_002,topicA,topicA-4,172.172.1.2:1883,1551651052652,PRODUCED
Publisher_002,topicA,topicA-5,172.172.1.2:1883,1551651052656,PRODUCED
Publisher_002,topicA,topicA-6,172.172.1.2:1883,1551651052737,PRODUCED
Publisher_002,topicA,topicA-7,172.172.1.2:1883,1551651052837,PRODUCED
Publisher_002,topicA,topicA-8,172.172.1.2:1883,1551651052937,PRODUCED
Publisher_002,topicA,topicA-9,172.172.1.2:1883,1551651053039,PRODUCED
Publisher_002,topicA,topicA-10,172.172.1.2:1883,1551651053138,PRODUCED
Publisher_002,topicA,topicA-11,172.172.1.2:1883,1551651053237,PRODUCED
Publisher_002,topicA,topicA-12,172.172.1.2:1883,1551651053338,PRODUCED
Publisher_002,topicA,topicA-13,172.172.1.2:1883,1551651053437,PRODUCED
Publisher_002,topicA,topicA-14,172.172.1.2:1883,1551651053537,PRODUCED
Publisher_002,topicA,topicA-15,172.172.1.2:1883,1551651053637,PRODUCED
Publisher_002,topicA,topicA-16,172.172.1.2:1883,1551651053737,PRODUCED
Publisher_002,topicA,topicA-17,172.172.1.2:1883,1551651053841,PRODUCED
Publisher_002,topicA,topicA-18,172.172.1.2:1883,1551651053939,PRODUCED
Publisher_002,topicA,topicA-19,172.172.1.2:1883,1551651054040,PRODUCED
Publisher_002,topicA,topicA-20,172.172.1.2:1883,1551651054138,PRODUCED
Publisher_002,topicA,topicA-21,172.172.1.2:1883,1551651054237,PRODUCED
Publisher_002,topicA,topicA-22,172.172.1.2:1883,1551651054337,PRODUCED
Publisher_002,topicA,topicA-23,172.172.1.2:1883,1551651054437,PRODUCED
Publisher_002,topicA,topicA-24,172.172.1.2:1883,1551651054537,PRODUCED
Publisher_002,topicA,topicA-25,172.172.1.2:1883,1551651054637,PRODUCED
Publisher_002,topicA,topicA-26,172.172.1.2:1883,1551651054737,PRODUCED
Publisher_002,topicA,topicA-27,172.172.1.2:1883,1551651054839,PRODUCED
Publisher_002,topicA,topicA-28,172.172.1.2:1883,1551651054937,PRODUCED
Publisher_002,topicA,topicA-29,172.172.1.2:1883,1551651055037,PRODUCED
Publisher_002,topicA,topicA-30,172.172.1.2:1883,1551651055139,PRODUCED
Publisher_002,topicA,topicA-31,172.172.1.2:1883,1551651055237,PRODUCED
Publisher_002,topicA,topicA-32,172.172.1.2:1883,1551651055341,PRODUCED
Publisher_002,topicA,topicA-33,172.172.1.2:1883,1551651055438,PRODUCED
Publisher_002,topicA,topicA-34,172.172.1.2:1883,1551651055537,PRODUCED
Publisher_002,topicA,topicA-35,172.172.1.2:1883,1551651055640,PRODUCED
Publisher_002,topicA,topicA-36,172.172.1.2:1883,1551651055738,PRODUCED
Publisher_002,topicA,topicA-37,172.172.1.2:1883,1551651055837,PRODUCED
Publisher_002,topicA,topicA-38,172.172.1.2:1883,1551651055941,PRODUCED
Publisher_002,topicA,topicA-39,172.172.1.2:1883,1551651056039,PRODUCED
Publisher_002,topicA,topicA-40,172.172.1.2:1883,1551651056138,PRODUCED
Publisher_002,topicA,topicA-41,172.172.1.2:1883,1551651056237,PRODUCED
Publisher_002,topicA,topicA-42,172.172.1.2:1883,1551651056340,PRODUCED
Publisher_002,topicA,topicA-43,172.172.1.2:1883,1551651056438,PRODUCED
Publisher_002,topicA,topicA-44,172.172.1.2:1883,1551651056541,PRODUCED
Publisher_002,topicA,topicA-45,172.172.1.2:1883,1551651056642,PRODUCED
Publisher_002,topicA,topicA-46,172.172.1.2:1883,1551651056737,PRODUCED
Publisher_002,topicA,topicA-47,172.172.1.2:1883,1551651056837,PRODUCED
Publisher_002,topicA,topicA-48,172.172.1.2:1883,1551651056937,PRODUCED
Publisher_002,topicA,topicA-49,172.172.1.2:1883,1551651057037,PRODUCED
Publisher_002,topicA,topicA-50,172.172.1.2:1883,1551651057137,PRODUCED
Publisher_002,topicA,topicA-51,172.172.1.2:1883,1551651057237,PRODUCED
Publisher_002,topicA,topicA-52,172.172.1.2:1883,1551651057337,PRODUCED
Publisher_002,topicA,topicA-53,172.172.1.2:1883,1551651057437,PRODUCED
Publisher_002,topicA,topicA-54,172.172.1.2:1883,1551651057537,PRODUCED
Publisher_002,topicA,topicA-55,172.172.1.2:1883,1551651057637,PRODUCED
Publisher_002,topicA,topicA-56,172.172.1.2:1883,1551651057737,PRODUCED
Publisher_002,topicA,topicA-57,172.172.1.2:1883,1551651057837,PRODUCED
Publisher_002,topicA,topicA-58,172.172.1.2:1883,1551651057936,PRODUCED
Publisher_002,topicA,topicA-59,172.172.1.2:1883,1551651058036,PRODUCED
Publisher_002,topicA,topicA-60,172.172.1.2:1883,1551651058137,PRODUCED
Publisher_002,topicA,topicA-61,172.172.1.2:1883,1551651058237,PRODUCED
Publisher_002,topicA,topicA-62,172.172.1.2:1883,1551651058338,PRODUCED
Publisher_002,topicA,topicA-63,172.172.1.2:1883,1551651058437,PRODUCED
Publisher_002,topicA,topicA-64,172.172.1.2:1883,1551651058537,PRODUCED
Publisher_002,topicA,topicA-65,172.172.1.2:1883,1551651058637,PRODUCED
Publisher_002,topicA,topicA-66,172.172.1.2:1883,1551651058737,PRODUCED
Publisher_002,topicA,topicA-67,172.172.1.2:1883,1551651058838,PRODUCED
Publisher_002,topicA,topicA-68,172.172.1.2:1883,1551651058937,PRODUCED
Publisher_002,topicA,topicA-69,172.172.1.2:1883,1551651059037,PRODUCED
Publisher_002,topicA,topicA-70,172.172.1.2:1883,1551651059137,PRODUCED
Publisher_002,topicA,topicA-71,172.172.1.2:1883,1551651059237,PRODUCED
Publisher_002,topicA,topicA-72,172.172.1.2:1883,1551651059337,PRODUCED
Publisher_002,topicA,topicA-73,172.172.1.2:1883,1551651059437,PRODUCED
Publisher_002,topicA,topicA-74,172.172.1.2:1883,1551651059538,PRODUCED
Publisher_002,topicA,topicA-75,172.172.1.2:1883,1551651059637,PRODUCED
Publisher_002,topicA,topicA-76,172.172.1.2:1883,1551651059737,PRODUCED
Publisher_002,topicA,topicA-77,172.172.1.2:1883,1551651059843,PRODUCED
Publisher_002,topicA,topicA-78,172.172.1.2:1883,1551651059937,PRODUCED
Publisher_002,topicA,topicA-79,172.172.1.2:1883,1551651060037,PRODUCED
Publisher_002,topicA,topicA-80,172.172.1.2:1883,1551651060137,PRODUCED
Publisher_002,topicA,topicA-81,172.172.1.2:1883,1551651060237,PRODUCED
Publisher_002,topicA,topicA-82,172.172.1.2:1883,1551651060337,PRODUCED
Publisher_002,topicA,topicA-83,172.172.1.2:1883,1551651060438,PRODUCED
Publisher_002,topicA,topicA-84,172.172.1.2:1883,1551651060537,PRODUCED
Publisher_002,topicA,topicA-85,172.172.1.2:1883,1551651060637,PRODUCED
Publisher_002,topicA,topicA-86,172.172.1.2:1883,1551651060737,PRODUCED
Publisher_002,topicA,topicA-87,172.172.1.2:1883,1551651060841,PRODUCED
Publisher_002,topicA,topicA-88,172.172.1.2:1883,1551651060937,PRODUCED
Publisher_002,topicA,topicA-89,172.172.1.2:1883,1551651061037,PRODUCED
Publisher_002,topicA,topicA-90,172.172.1.2:1883,1551651061137,PRODUCED
Publisher_002,topicA,topicA-91,172.172.1.2:1883,1551651061237,PRODUCED
Publisher_002,topicA,topicA-92,172.172.1.2:1883,1551651061337,PRODUCED
Publisher_002,topicA,topicA-93,172.172.1.2:1883,1551651061437,PRODUCED
Publisher_002,topicA,topicA-94,172.172.1.2:1883,1551651061540,PRODUCED
Publisher_002,topicA,topicA-95,172.172.1.2:1883,1551651061637,PRODUCED
Publisher_002,topicA,topicA-96,172.172.1.2:1883,1551651061737,PRODUCED
Publisher_002,topicA,topicA-97,172.172.1.2:1883,1551651061837,PRODUCED
Publisher_002,topicA,topicA-98,172.172.1.2:1883,1551651061937,PRODUCED
Publisher_002,topicA,topicA-99,172.172.1.2:1883,1551651062037,PRODUCED
Publisher_002,topicA,topicA-100,172.172.1.2:1883,1551651062137,PRODUCED
Publisher_002,topicA,topicA-101,172.172.1.2:1883,1551651062237,PRODUCED
Publisher_002,topicA,topicA-102,172.172.1.2:1883,1551651062338,PRODUCED
Publisher_002,topicA,topicA-103,172.172.1.2:1883,1551651062439,PRODUCED
Publisher_002,topicA,topicA-104,172.172.1.2:1883,1551651062541,PRODUCED
Publisher_002,topicA,topicA-105,172.172.1.2:1883,1551651062637,PRODUCED
Publisher_002,topicA,topicA-106,172.172.1.2:1883,1551651062740,PRODUCED
Publisher_002,topicA,topicA-107,172.172.1.2:1883,1551651062837,PRODUCED
Publisher_002,topicA,topicA-108,172.172.1.2:1883,1551651062937,PRODUCED
Publisher_002,topicA,topicA-109,172.172.1.2:1883,1551651063037,PRODUCED
Publisher_002,topicA,topicA-110,172.172.1.2:1883,1551651063138,PRODUCED
Publisher_002,topicA,topicA-111,172.172.1.2:1883,1551651063238,PRODUCED
Publisher_002,topicA,topicA-112,172.172.1.2:1883,1551651063337,PRODUCED
Publisher_002,topicA,topicA-113,172.172.1.2:1883,1551651063436,PRODUCED
Publisher_002,topicA,topicA-114,172.172.1.2:1883,1551651063537,PRODUCED
Publisher_002,topicA,topicA-115,172.172.1.2:1883,1551651063637,PRODUCED
Publisher_002,topicA,topicA-116,172.172.1.2:1883,1551651063738,PRODUCED
Publisher_002,topicA,topicA-117,172.172.1.2:1883,1551651063837,PRODUCED
Publisher_002,topicA,topicA-118,172.172.1.2:1883,1551651063937,PRODUCED
Publisher_002,topicA,topicA-119,172.172.1.2:1883,1551651064037,PRODUCED
Publisher_002,topicA,topicA-120,172.172.1.2:1883,1551651064137,PRODUCED
Publisher_002,topicA,topicA-121,172.172.1.2:1883,1551651064237,PRODUCED
Publisher_002,topicA,topicA-122,172.172.1.2:1883,1551651064338,PRODUCED
Publisher_002,topicA,topicA-123,172.172.1.2:1883,1551651064438,PRODUCED
Publisher_002,topicA,topicA-124,172.172.1.2:1883,1551651064537,PRODUCED
Publisher_002,topicA,topicA-125,172.172.1.2:1883,1551651064637,PRODUCED
Publisher_002,topicA,topicA-126,172.172.1.2:1883,1551651064741,PRODUCED
Publisher_002,topicA,topicA-127,172.172.1.2:1883,1551651064837,PRODUCED
Publisher_002,topicA,topicA-128,172.172.1.2:1883,1551651064938,PRODUCED
Publisher_002,topicA,topicA-129,172.172.1.2:1883,1551651065039,PRODUCED
Publisher_002,topicA,topicA-130,172.172.1.2:1883,1551651065137,PRODUCED
Publisher_002,topicA,topicA-131,172.172.1.2:1883,1551651065237,PRODUCED
Publisher_002,topicA,topicA-132,172.172.1.2:1883,1551651065337,PRODUCED
Publisher_002,topicA,topicA-133,172.172.1.2:1883,1551651065437,PRODUCED
Publisher_002,topicA,topicA-134,172.172.1.2:1883,1551651065538,PRODUCED
Publisher_002,topicA,topicA-135,172.172.1.2:1883,1551651065637,PRODUCED
Publisher_002,topicA,topicA-136,172.172.1.2:1883,1551651065737,PRODUCED
Publisher_002,topicA,topicA-137,172.172.1.2:1883,1551651065840,PRODUCED
Publisher_002,topicA,topicA-138,172.172.1.2:1883,1551651065937,PRODUCED
Publisher_002,topicA,topicA-139,172.172.1.2:1883,1551651066038,PRODUCED
Publisher_002,topicA,topicA-140,172.172.1.2:1883,1551651066141,PRODUCED
Publisher_002,topicA,topicA-141,172.172.1.2:1883,1551651066237,PRODUCED
Publisher_002,topicA,topicA-142,172.172.1.2:1883,1551651066337,PRODUCED
Publisher_002,topicA,topicA-143,172.172.1.2:1883,1551651066437,PRODUCED
Publisher_002,topicA,topicA-144,172.172.1.2:1883,1551651066537,PRODUCED
Publisher_002,topicA,topicA-145,172.172.1.2:1883,1551651066637,PRODUCED
Publisher_002,topicA,topicA-146,172.172.1.2:1883,1551651066737,PRODUCED
Publisher_002,topicA,topicA-147,172.172.1.2:1883,1551651066840,PRODUCED
Publisher_002,topicA,topicA-148,172.172.1.2:1883,1551651066938,PRODUCED
Publisher_002,topicA,topicA-149,172.172.1.2:1883,1551651067039,PRODUCED
Publisher_002,topicA,topicA-150,172.172.1.2:1883,1551651067137,PRODUCED
Publisher_002,topicA,topicA-151,172.172.1.2:1883,1551651067238,PRODUCED
Publisher_002,topicA,topicA-152,172.172.1.2:1883,1551651067337,PRODUCED
Publisher_002,topicA,topicA-153,172.172.1.2:1883,1551651067437,PRODUCED
Publisher_002,topicA,topicA-154,172.172.1.2:1883,1551651067541,PRODUCED
Publisher_002,topicA,topicA-155,172.172.1.2:1883,1551651067637,PRODUCED
Publisher_002,topicA,topicA-156,172.172.1.2:1883,1551651067737,PRODUCED
Publisher_002,topicA,topicA-157,172.172.1.2:1883,1551651067836,PRODUCED
Publisher_002,topicA,topicA-158,172.172.1.2:1883,1551651067937,PRODUCED
Publisher_002,topicA,topicA-159,172.172.1.2:1883,1551651068037,PRODUCED
Publisher_002,topicA,topicA-160,172.172.1.2:1883,1551651068137,PRODUCED
Publisher_002,topicA,topicA-161,172.172.1.2:1883,1551651068237,PRODUCED
Publisher_002,topicA,topicA-162,172.172.1.2:1883,1551651068337,PRODUCED
Publisher_002,topicA,topicA-163,172.172.1.2:1883,1551651068437,PRODUCED
Publisher_002,topicA,topicA-164,172.172.1.2:1883,1551651068538,PRODUCED
Publisher_002,topicA,topicA-165,172.172.1.2:1883,1551651068640,PRODUCED
Publisher_002,topicA,topicA-166,172.172.1.2:1883,1551651068739,PRODUCED
Publisher_002,topicA,topicA-167,172.172.1.2:1883,1551651068838,PRODUCED
Publisher_002,topicA,topicA-168,172.172.1.2:1883,1551651068937,PRODUCED
Publisher_002,topicA,topicA-169,172.172.1.2:1883,1551651069037,PRODUCED
Publisher_002,topicA,topicA-170,172.172.1.2:1883,1551651069137,PRODUCED
Publisher_002,topicA,topicA-171,172.172.1.2:1883,1551651069237,PRODUCED
Publisher_002,topicA,topicA-172,172.172.1.2:1883,1551651069337,PRODUCED
Publisher_002,topicA,topicA-173,172.172.1.2:1883,1551651069437,PRODUCED
Publisher_002,topicA,topicA-174,172.172.1.2:1883,1551651069538,PRODUCED
Publisher_002,topicA,topicA-175,172.172.1.2:1883,1551651069637,PRODUCED
Publisher_002,topicA,topicA-176,172.172.1.2:1883,1551651069740,PRODUCED
Publisher_002,topicA,topicA-177,172.172.1.2:1883,1551651069838,PRODUCED
Publisher_002,topicA,topicA-178,172.172.1.2:1883,1551651069937,PRODUCED
Publisher_002,topicA,topicA-179,172.172.1.2:1883,1551651070038,PRODUCED
Publisher_002,topicA,topicA-180,172.172.1.2:1883,1551651070137,PRODUCED
Publisher_002,topicA,topicA-181,172.172.1.2:1883,1551651070237,PRODUCED
Publisher_002,topicA,topicA-182,172.172.1.2:1883,1551651070342,PRODUCED
Publisher_002,topicA,topicA-183,172.172.1.2:1883,1551651070438,PRODUCED
Publisher_002,topicA,topicA-184,172.172.1.2:1883,1551651070538,PRODUCED
Publisher_002,topicA,topicA-185,172.172.1.2:1883,1551651070638,PRODUCED
Publisher_002,topicA,topicA-186,172.172.1.2:1883,1551651070738,PRODUCED
Publisher_002,topicA,topicA-187,172.172.1.2:1883,1551651070838,PRODUCED
Publisher_002,topicA,topicA-188,172.172.1.2:1883,1551651070937,PRODUCED
Publisher_002,topicA,topicA-189,172.172.1.2:1883,1551651071038,PRODUCED
Publisher_002,topicA,topicA-190,172.172.1.2:1883,1551651071137,PRODUCED
Publisher_002,topicA,topicA-191,172.172.1.2:1883,1551651071237,PRODUCED
Publisher_002,topicA,topicA-192,172.172.1.2:1883,1551651071337,PRODUCED
Publisher_002,topicA,topicA-193,172.172.1.2:1883,1551651071437,PRODUCED
Publisher_002,topicA,topicA-194,172.172.1.2:1883,1551651071537,PRODUCED
Publisher_002,topicA,topicA-195,172.172.1.2:1883,1551651071637,PRODUCED
Publisher_002,topicA,topicA-196,172.172.1.2:1883,1551651071738,PRODUCED
Publisher_002,topicA,topicA-197,172.172.1.2:1883,1551651071838,PRODUCED
Publisher_002,topicA,topicA-198,172.172.1.2:1883,1551651071937,PRODUCED
Publisher_002,topicA,topicA-199,172.172.1.2:1883,1551651072037,PRODUCED
Publisher_002,topicA,topicA-200,172.172.1.2:1883,1551651072142,PRODUCED
Publisher_002,topicA,topicA-201,172.172.1.2:1883,1551651072238,PRODUCED
Publisher_002,topicA,topicA-202,172.172.1.2:1883,1551651072337,PRODUCED
Publisher_002,topicA,topicA-203,172.172.1.2:1883,1551651072437,PRODUCED
Publisher_002,topicA,topicA-204,172.172.1.2:1883,1551651072543,PRODUCED
Publisher_002,topicA,topicA-205,172.172.1.2:1883,1551651072637,PRODUCED
Publisher_002,topicA,topicA-206,172.172.1.2:1883,1551651072737,PRODUCED
Publisher_002,topicA,topicA-207,172.172.1.2:1883,1551651072837,PRODUCED
Publisher_002,topicA,topicA-208,172.172.1.2:1883,1551651072938,PRODUCED
Publisher_002,topicA,topicA-209,172.172.1.2:1883,1551651073038,PRODUCED
Publisher_002,topicA,topicA-210,172.172.1.2:1883,1551651073137,PRODUCED
Publisher_002,topicA,topicA-211,172.172.1.2:1883,1551651073237,PRODUCED
Publisher_002,topicA,topicA-212,172.172.1.2:1883,1551651073337,PRODUCED
Publisher_002,topicA,topicA-213,172.172.1.2:1883,1551651073437,PRODUCED
Publisher_002,topicA,topicA-214,172.172.1.2:1883,1551651073537,PRODUCED
Publisher_002,topicA,topicA-215,172.172.1.2:1883,1551651073638,PRODUCED
Publisher_002,topicA,topicA-216,172.172.1.2:1883,1551651073737,PRODUCED
Publisher_002,topicA,topicA-217,172.172.1.2:1883,1551651073838,PRODUCED
Publisher_002,topicA,topicA-218,172.172.1.2:1883,1551651073937,PRODUCED
Publisher_002,topicA,topicA-219,172.172.1.2:1883,1551651074040,PRODUCED
Publisher_002,topicA,topicA-220,172.172.1.2:1883,1551651074137,PRODUCED
Publisher_002,topicA,topicA-221,172.172.1.2:1883,1551651074237,PRODUCED
Publisher_002,topicA,topicA-222,172.172.1.2:1883,1551651074337,PRODUCED
Publisher_002,topicA,topicA-223,172.172.1.2:1883,1551651074437,PRODUCED
Publisher_002,topicA,topicA-224,172.172.1.2:1883,1551651074546,PRODUCED
Publisher_002,topicA,topicA-225,172.172.1.2:1883,1551651074637,PRODUCED
Publisher_002,topicA,topicA-226,172.172.1.2:1883,1551651074737,PRODUCED
Publisher_002,topicA,topicA-227,172.172.1.2:1883,1551651074838,PRODUCED
Publisher_002,topicA,topicA-228,172.172.1.2:1883,1551651074960,PRODUCED
Publisher_002,topicA,topicA-229,172.172.1.2:1883,1551651075037,PRODUCED
Publisher_002,topicA,topicA-230,172.172.1.2:1883,1551651075137,PRODUCED
Publisher_002,topicA,topicA-231,172.172.1.2:1883,1551651075237,PRODUCED
Publisher_002,topicA,topicA-232,172.172.1.2:1883,1551651075337,PRODUCED
Publisher_002,topicA,topicA-233,172.172.1.2:1883,1551651075439,PRODUCED
Publisher_002,topicA,topicA-234,172.172.1.2:1883,1551651075537,PRODUCED
Publisher_002,topicA,topicA-235,172.172.1.2:1883,1551651075637,PRODUCED
Publisher_002,topicA,topicA-236,172.172.1.2:1883,1551651075737,PRODUCED
Publisher_002,topicA,topicA-237,172.172.1.2:1883,1551651075838,PRODUCED
Publisher_002,topicA,topicA-238,172.172.1.2:1883,1551651075937,PRODUCED
Publisher_002,topicA,topicA-239,172.172.1.2:1883,1551651076037,PRODUCED
Publisher_002,topicA,topicA-240,172.172.1.2:1883,1551651076137,PRODUCED
Publisher_002,topicA,topicA-241,172.172.1.2:1883,1551651076238,PRODUCED
Publisher_002,topicA,topicA-242,172.172.1.2:1883,1551651076339,PRODUCED
Publisher_002,topicA,topicA-243,172.172.1.2:1883,1551651076437,PRODUCED
Publisher_002,topicA,topicA-244,172.172.1.2:1883,1551651076537,PRODUCED
Publisher_002,topicA,topicA-245,172.172.1.2:1883,1551651076637,PRODUCED
Publisher_002,topicA,topicA-246,172.172.1.2:1883,1551651076738,PRODUCED
Publisher_002,topicA,topicA-247,172.172.1.2:1883,1551651076837,PRODUCED
Publisher_002,topicA,topicA-248,172.172.1.2:1883,1551651076937,PRODUCED
Publisher_002,topicA,topicA-249,172.172.1.2:1883,1551651077037,PRODUCED
Publisher_002,topicA,topicA-250,172.172.1.2:1883,1551651077137,PRODUCED
Publisher_002,topicA,topicA-251,172.172.1.2:1883,1551651077237,PRODUCED
Publisher_002,topicA,topicA-252,172.172.1.2:1883,1551651077337,PRODUCED
Publisher_002,topicA,topicA-253,172.172.1.2:1883,1551651077437,PRODUCED
Publisher_002,topicA,topicA-254,172.172.1.2:1883,1551651077537,PRODUCED
Publisher_002,topicA,topicA-255,172.172.1.2:1883,1551651077638,PRODUCED
Publisher_002,topicA,topicA-256,172.172.1.2:1883,1551651077737,PRODUCED
Publisher_002,topicA,topicA-257,172.172.1.2:1883,1551651077837,PRODUCED
Publisher_002,topicA,topicA-258,172.172.1.2:1883,1551651077936,PRODUCED
Publisher_002,topicA,topicA-259,172.172.1.2:1883,1551651078037,PRODUCED
Publisher_002,topicA,topicA-260,172.172.1.2:1883,1551651078139,PRODUCED
Publisher_002,topicA,topicA-261,172.172.1.2:1883,1551651078237,PRODUCED
Publisher_002,topicA,topicA-262,172.172.1.2:1883,1551651078337,PRODUCED
Publisher_002,topicA,topicA-263,172.172.1.2:1883,1551651078437,PRODUCED
Publisher_002,topicA,topicA-264,172.172.1.2:1883,1551651078539,PRODUCED
Publisher_002,topicA,topicA-265,172.172.1.2:1883,1551651078637,PRODUCED
Publisher_002,topicA,topicA-266,172.172.1.2:1883,1551651078737,PRODUCED
Publisher_002,topicA,topicA-267,172.172.1.2:1883,1551651078837,PRODUCED
Publisher_002,topicA,topicA-268,172.172.1.2:1883,1551651078937,PRODUCED
Publisher_002,topicA,topicA-269,172.172.1.2:1883,1551651079037,PRODUCED
Publisher_002,topicA,topicA-270,172.172.1.2:1883,1551651079139,PRODUCED
Publisher_002,topicA,topicA-271,172.172.1.2:1883,1551651079240,PRODUCED
Publisher_002,topicA,topicA-272,172.172.1.2:1883,1551651079337,PRODUCED
Publisher_002,topicA,topicA-273,172.172.1.2:1883,1551651079437,PRODUCED
Publisher_002,topicA,topicA-274,172.172.1.2:1883,1551651079538,PRODUCED
Publisher_002,topicA,topicA-275,172.172.1.2:1883,1551651079638,PRODUCED
Publisher_002,topicA,topicA-276,172.172.1.2:1883,1551651079737,PRODUCED
Publisher_002,topicA,topicA-277,172.172.1.2:1883,1551651079837,PRODUCED
Publisher_002,topicA,topicA-278,172.172.1.2:1883,1551651079937,PRODUCED
Publisher_002,topicA,topicA-279,172.172.1.2:1883,1551651080037,PRODUCED
Publisher_002,topicA,topicA-280,172.172.1.2:1883,1551651080137,PRODUCED
Publisher_002,topicA,topicA-281,172.172.1.2:1883,1551651080237,PRODUCED
Publisher_002,topicA,topicA-282,172.172.1.2:1883,1551651080336,PRODUCED
Publisher_002,topicA,topicA-283,172.172.1.2:1883,1551651080436,PRODUCED
Publisher_002,topicA,topicA-284,172.172.1.2:1883,1551651080537,PRODUCED
Publisher_002,topicA,topicA-285,172.172.1.2:1883,1551651080636,PRODUCED
Publisher_002,topicA,topicA-286,172.172.1.2:1883,1551651080737,PRODUCED
Publisher_002,topicA,topicA-287,172.172.1.2:1883,1551651080836,PRODUCED
Publisher_002,topicA,topicA-288,172.172.1.2:1883,1551651080936,PRODUCED
Publisher_002,topicA,topicA-289,172.172.1.2:1883,1551651081036,PRODUCED
Publisher_002,topicA,topicA-290,172.172.1.2:1883,1551651081137,PRODUCED
Publisher_002,topicA,topicA-291,172.172.1.2:1883,1551651081237,PRODUCED
Publisher_002,topicA,topicA-292,172.172.1.2:1883,1551651081337,PRODUCED
Publisher_002,topicA,topicA-293,172.172.1.2:1883,1551651081436,PRODUCED
Publisher_002,topicA,topicA-294,172.172.1.2:1883,1551651081536,PRODUCED
Publisher_002,topicA,topicA-295,172.172.1.2:1883,1551651081637,PRODUCED
Publisher_002,topicA,topicA-296,172.172.1.2:1883,1551651081736,PRODUCED
Publisher_002,topicA,topicA-297,172.172.1.2:1883,1551651081837,PRODUCED
Publisher_002,topicA,topicA-298,172.172.1.2:1883,1551651081937,PRODUCED
Publisher_002,topicA,topicA-299,172.172.1.2:1883,1551651082036,PRODUCED
Publisher_002,topicA,topicA-300,172.172.1.2:1883,1551651082136,PRODUCED
Publisher_002,topicA,topicA-301,172.172.1.2:1883,1551651082237,PRODUCED
Publisher_002,topicA,topicA-302,172.172.1.2:1883,1551651082337,PRODUCED
Publisher_002,topicA,topicA-303,172.172.1.2:1883,1551651082437,PRODUCED
Publisher_002,topicA,topicA-304,172.172.1.2:1883,1551651082537,PRODUCED
Publisher_002,topicA,topicA-305,172.172.1.2:1883,1551651082636,PRODUCED
Publisher_002,topicA,topicA-306,172.172.1.2:1883,1551651082737,PRODUCED
Publisher_002,topicA,topicA-307,172.172.1.2:1883,1551651082838,PRODUCED
Publisher_002,topicA,topicA-308,172.172.1.2:1883,1551651082937,PRODUCED
Publisher_002,topicA,topicA-309,172.172.1.2:1883,1551651083036,PRODUCED
Publisher_002,topicA,topicA-310,172.172.1.2:1883,1551651083137,PRODUCED
Publisher_002,topicA,topicA-311,172.172.1.2:1883,1551651083237,PRODUCED
Publisher_002,topicA,topicA-312,172.172.1.2:1883,1551651083337,PRODUCED
Publisher_002,topicA,topicA-313,172.172.1.2:1883,1551651083437,PRODUCED
Publisher_002,topicA,topicA-314,172.172.1.2:1883,1551651083537,PRODUCED
Publisher_002,topicA,topicA-315,172.172.1.2:1883,1551651083636,PRODUCED
Publisher_002,topicA,topicA-316,172.172.1.2:1883,1551651083736,PRODUCED
Publisher_002,topicA,topicA-317,172.172.1.2:1883,1551651083837,PRODUCED
Publisher_002,topicA,topicA-318,172.172.1.2:1883,1551651083936,PRODUCED
Publisher_002,topicA,topicA-319,172.172.1.2:1883,1551651084036,PRODUCED
Publisher_002,topicA,topicA-320,172.172.1.2:1883,1551651084137,PRODUCED
Publisher_002,topicA,topicA-321,172.172.1.2:1883,1551651084236,PRODUCED
Publisher_002,topicA,topicA-322,172.172.1.2:1883,1551651084336,PRODUCED
Publisher_002,topicA,topicA-323,172.172.1.2:1883,1551651084436,PRODUCED
Publisher_002,topicA,topicA-324,172.172.1.2:1883,1551651084536,PRODUCED
Publisher_002,topicA,topicA-325,172.172.1.2:1883,1551651084637,PRODUCED
Publisher_002,topicA,topicA-326,172.172.1.2:1883,1551651084736,PRODUCED
Publisher_002,topicA,topicA-327,172.172.1.2:1883,1551651084837,PRODUCED
Publisher_002,topicA,topicA-328,172.172.1.2:1883,1551651084936,PRODUCED
Publisher_002,topicA,topicA-329,172.172.1.2:1883,1551651085036,PRODUCED
Publisher_002,topicA,topicA-330,172.172.1.2:1883,1551651085136,PRODUCED
Publisher_002,topicA,topicA-331,172.172.1.2:1883,1551651085236,PRODUCED
Publisher_002,topicA,topicA-332,172.172.1.2:1883,1551651085336,PRODUCED
Publisher_002,topicA,topicA-333,172.172.1.2:1883,1551651085437,PRODUCED
Publisher_002,topicA,topicA-334,172.172.1.2:1883,1551651085537,PRODUCED
Publisher_002,topicA,topicA-335,172.172.1.2:1883,1551651085637,PRODUCED
Publisher_002,topicA,topicA-336,172.172.1.2:1883,1551651085737,PRODUCED
Publisher_002,topicA,topicA-337,172.172.1.2:1883,1551651085837,PRODUCED
Publisher_002,topicA,topicA-338,172.172.1.2:1883,1551651085936,PRODUCED
Publisher_002,topicA,topicA-339,172.172.1.2:1883,1551651086037,PRODUCED
Publisher_002,topicA,topicA-340,172.172.1.2:1883,1551651086136,PRODUCED
Publisher_002,topicA,topicA-341,172.172.1.2:1883,1551651086237,PRODUCED
Publisher_002,topicA,topicA-342,172.172.1.2:1883,1551651086337,PRODUCED
Publisher_002,topicA,topicA-343,172.172.1.2:1883,1551651086437,PRODUCED
Publisher_002,topicA,topicA-344,172.172.1.2:1883,1551651086537,PRODUCED
Publisher_002,topicA,topicA-345,172.172.1.2:1883,1551651086637,PRODUCED
Publisher_002,topicA,topicA-346,172.172.1.2:1883,1551651086737,PRODUCED
Publisher_002,topicA,topicA-347,172.172.1.2:1883,1551651086837,PRODUCED
Publisher_002,topicA,topicA-348,172.172.1.2:1883,1551651086937,PRODUCED
Publisher_002,topicA,topicA-349,172.172.1.2:1883,1551651087036,PRODUCED
Publisher_002,topicA,topicA-350,172.172.1.2:1883,1551651087137,PRODUCED
Publisher_002,topicA,topicA-351,172.172.1.2:1883,1551651087236,PRODUCED
Publisher_002,topicA,topicA-352,172.172.1.2:1883,1551651087337,PRODUCED
Publisher_002,topicA,topicA-353,172.172.1.2:1883,1551651087436,PRODUCED
Publisher_002,topicA,topicA-354,172.172.1.2:1883,1551651087537,PRODUCED
Publisher_002,topicA,topicA-355,172.172.1.2:1883,1551651087636,PRODUCED
Publisher_002,topicA,topicA-356,172.172.1.2:1883,1551651087737,PRODUCED
Publisher_002,topicA,topicA-357,172.172.1.2:1883,1551651087837,PRODUCED
Publisher_002,topicA,topicA-358,172.172.1.2:1883,1551651087936,PRODUCED
Publisher_002,topicA,topicA-359,172.172.1.2:1883,1551651088036,PRODUCED
Publisher_002,topicA,topicA-360,172.172.1.2:1883,1551651088137,PRODUCED
Publisher_002,topicA,topicA-361,172.172.1.2:1883,1551651088237,PRODUCED
Publisher_002,topicA,topicA-362,172.172.1.2:1883,1551651088337,PRODUCED
Publisher_002,topicA,topicA-363,172.172.1.2:1883,1551651088439,PRODUCED
Publisher_002,topicA,topicA-364,172.172.1.2:1883,1551651088537,PRODUCED
Publisher_002,topicA,topicA-365,172.172.1.2:1883,1551651088637,PRODUCED
Publisher_002,topicA,topicA-366,172.172.1.2:1883,1551651088737,PRODUCED
Publisher_002,topicA,topicA-367,172.172.1.2:1883,1551651088836,PRODUCED
Publisher_002,topicA,topicA-368,172.172.1.2:1883,1551651088937,PRODUCED
Publisher_002,topicA,topicA-369,172.172.1.2:1883,1551651089037,PRODUCED
Publisher_002,topicA,topicA-370,172.172.1.2:1883,1551651089137,PRODUCED
Publisher_002,topicA,topicA-371,172.172.1.2:1883,1551651089236,PRODUCED
Publisher_002,topicA,topicA-372,172.172.1.2:1883,1551651089336,PRODUCED
Publisher_002,topicA,topicA-373,172.172.1.2:1883,1551651089437,PRODUCED
Publisher_002,topicA,topicA-374,172.172.1.2:1883,1551651089536,PRODUCED
Publisher_002,topicA,topicA-375,172.172.1.2:1883,1551651089636,PRODUCED
Publisher_002,topicA,topicA-376,172.172.1.2:1883,1551651089737,PRODUCED
Publisher_002,topicA,topicA-377,172.172.1.2:1883,1551651089836,PRODUCED
Publisher_002,topicA,topicA-378,172.172.1.2:1883,1551651089936,PRODUCED
Publisher_002,topicA,topicA-379,172.172.1.2:1883,1551651090036,PRODUCED
Publisher_002,topicA,topicA-380,172.172.1.2:1883,1551651090136,PRODUCED
Publisher_002,topicA,topicA-381,172.172.1.2:1883,1551651090237,PRODUCED
Publisher_002,topicA,topicA-382,172.172.1.2:1883,1551651090338,PRODUCED
Publisher_002,topicA,topicA-383,172.172.1.2:1883,1551651090437,PRODUCED
Publisher_002,topicA,topicA-384,172.172.1.2:1883,1551651090540,PRODUCED
Publisher_002,topicA,topicA-385,172.172.1.2:1883,1551651090637,PRODUCED
Publisher_002,topicA,topicA-386,172.172.1.2:1883,1551651090736,PRODUCED
Publisher_002,topicA,topicA-387,172.172.1.2:1883,1551651090837,PRODUCED
Publisher_002,topicA,topicA-388,172.172.1.2:1883,1551651090936,PRODUCED
Publisher_002,topicA,topicA-389,172.172.1.2:1883,1551651091036,PRODUCED
Publisher_002,topicA,topicA-390,172.172.1.2:1883,1551651091136,PRODUCED
Publisher_002,topicA,topicA-391,172.172.1.2:1883,1551651091236,PRODUCED
Publisher_002,topicA,topicA-392,172.172.1.2:1883,1551651091336,PRODUCED
Publisher_002,topicA,topicA-393,172.172.1.2:1883,1551651091437,PRODUCED
Publisher_002,topicA,topicA-394,172.172.1.2:1883,1551651091537,PRODUCED
Publisher_002,topicA,topicA-395,172.172.1.2:1883,1551651091636,PRODUCED
Publisher_002,topicA,topicA-396,172.172.1.2:1883,1551651091736,PRODUCED
Publisher_002,topicA,topicA-397,172.172.1.2:1883,1551651091836,PRODUCED
Publisher_002,topicA,topicA-398,172.172.1.2:1883,1551651091936,PRODUCED
Publisher_002,topicA,topicA-399,172.172.1.2:1883,1551651092036,PRODUCED
Publisher_002,topicA,topicA-400,172.172.1.2:1883,1551651092136,PRODUCED
Publisher_002,topicA,topicA-401,172.172.1.2:1883,1551651092236,PRODUCED
Publisher_002,topicA,topicA-402,172.172.1.2:1883,1551651092336,PRODUCED
Publisher_002,topicA,topicA-403,172.172.1.2:1883,1551651092436,PRODUCED
Publisher_002,topicA,topicA-404,172.172.1.2:1883,1551651092536,PRODUCED
Publisher_002,topicA,topicA-405,172.172.1.2:1883,1551651092636,PRODUCED
Publisher_002,topicA,topicA-406,172.172.1.2:1883,1551651092736,PRODUCED
Publisher_002,topicA,topicA-407,172.172.1.2:1883,1551651092836,PRODUCED
Publisher_002,topicA,topicA-408,172.172.1.2:1883,1551651092936,PRODUCED
Publisher_002,topicA,topicA-409,172.172.1.2:1883,1551651093036,PRODUCED
Publisher_002,topicA,topicA-410,172.172.1.2:1883,1551651093136,PRODUCED
Publisher_002,topicA,topicA-411,172.172.1.2:1883,1551651093236,PRODUCED
Publisher_002,topicA,topicA-412,172.172.1.2:1883,1551651093336,PRODUCED
Publisher_002,topicA,topicA-413,172.172.1.2:1883,1551651093436,PRODUCED
Publisher_002,topicA,topicA-414,172.172.1.2:1883,1551651093536,PRODUCED
Publisher_002,topicA,topicA-415,172.172.1.2:1883,1551651093642,PRODUCED
Publisher_002,topicA,topicA-416,172.172.1.2:1883,1551651093736,PRODUCED
Publisher_002,topicA,topicA-417,172.172.1.2:1883,1551651093837,PRODUCED
Publisher_002,topicA,topicA-418,172.172.1.2:1883,1551651093942,PRODUCED
Publisher_002,topicA,topicA-419,172.172.1.2:1883,1551651094037,PRODUCED
Publisher_002,topicA,topicA-420,172.172.1.2:1883,1551651094136,PRODUCED
Publisher_002,topicA,topicA-421,172.172.1.2:1883,1551651094236,PRODUCED
Publisher_002,topicA,topicA-422,172.172.1.2:1883,1551651094337,PRODUCED
Publisher_002,topicA,topicA-423,172.172.1.2:1883,1551651094436,PRODUCED
Publisher_002,topicA,topicA-424,172.172.1.2:1883,1551651094536,PRODUCED
Publisher_002,topicA,topicA-425,172.172.1.2:1883,1551651094636,PRODUCED
Publisher_002,topicA,topicA-426,172.172.1.2:1883,1551651094736,PRODUCED
Publisher_002,topicA,topicA-427,172.172.1.2:1883,1551651094837,PRODUCED
Publisher_002,topicA,topicA-428,172.172.1.2:1883,1551651094936,PRODUCED
Publisher_002,topicA,topicA-429,172.172.1.2:1883,1551651095036,PRODUCED
Publisher_002,topicA,topicA-430,172.172.1.2:1883,1551651095137,PRODUCED
Publisher_002,topicA,topicA-431,172.172.1.2:1883,1551651095236,PRODUCED
Publisher_002,topicA,topicA-432,172.172.1.2:1883,1551651095336,PRODUCED
Publisher_002,topicA,topicA-433,172.172.1.2:1883,1551651095436,PRODUCED
Publisher_002,topicA,topicA-434,172.172.1.2:1883,1551651095536,PRODUCED
Publisher_002,topicA,topicA-435,172.172.1.2:1883,1551651095636,PRODUCED
Publisher_002,topicA,topicA-436,172.172.1.2:1883,1551651095737,PRODUCED
Publisher_002,topicA,topicA-437,172.172.1.2:1883,1551651095836,PRODUCED
Publisher_002,topicA,topicA-438,172.172.1.2:1883,1551651095936,PRODUCED
Publisher_002,topicA,topicA-439,172.172.1.2:1883,1551651096036,PRODUCED
Publisher_002,topicA,topicA-440,172.172.1.2:1883,1551651096136,PRODUCED
Publisher_002,topicA,topicA-441,172.172.1.2:1883,1551651096237,PRODUCED
Publisher_002,topicA,topicA-442,172.172.1.2:1883,1551651096336,PRODUCED
Publisher_002,topicA,topicA-443,172.172.1.2:1883,1551651096437,PRODUCED
Publisher_002,topicA,topicA-444,172.172.1.2:1883,1551651096536,PRODUCED
Publisher_002,topicA,topicA-445,172.172.1.2:1883,1551651096636,PRODUCED
Publisher_002,topicA,topicA-446,172.172.1.2:1883,1551651096736,PRODUCED
Publisher_002,topicA,topicA-447,172.172.1.2:1883,1551651096836,PRODUCED
Publisher_002,topicA,topicA-448,172.172.1.2:1883,1551651096936,PRODUCED
Publisher_002,topicA,topicA-449,172.172.1.2:1883,1551651097036,PRODUCED
Publisher_002,topicA,topicA-450,172.172.1.2:1883,1551651097136,PRODUCED
Publisher_002,topicA,topicA-451,172.172.1.2:1883,1551651097236,PRODUCED
Publisher_002,topicA,topicA-452,172.172.1.2:1883,1551651097336,PRODUCED
Publisher_002,topicA,topicA-453,172.172.1.2:1883,1551651097437,PRODUCED
Publisher_002,topicA,topicA-454,172.172.1.2:1883,1551651097537,PRODUCED
Publisher_002,topicA,topicA-455,172.172.1.2:1883,1551651097636,PRODUCED
Publisher_002,topicA,topicA-456,172.172.1.2:1883,1551651097736,PRODUCED
Publisher_002,topicA,topicA-457,172.172.1.2:1883,1551651097836,PRODUCED
Publisher_002,topicA,topicA-458,172.172.1.2:1883,1551651097936,PRODUCED
Publisher_002,topicA,topicA-459,172.172.1.2:1883,1551651098037,PRODUCED
Publisher_002,topicA,topicA-460,172.172.1.2:1883,1551651098137,PRODUCED
Publisher_002,topicA,topicA-461,172.172.1.2:1883,1551651098237,PRODUCED
Publisher_002,topicA,topicA-462,172.172.1.2:1883,1551651098336,PRODUCED
Publisher_002,topicA,topicA-463,172.172.1.2:1883,1551651098437,PRODUCED
Publisher_002,topicA,topicA-464,172.172.1.2:1883,1551651098536,PRODUCED
Publisher_002,topicA,topicA-465,172.172.1.2:1883,1551651098637,PRODUCED
Publisher_002,topicA,topicA-466,172.172.1.2:1883,1551651098737,PRODUCED
Publisher_002,topicA,topicA-467,172.172.1.2:1883,1551651098836,PRODUCED
Publisher_002,topicA,topicA-468,172.172.1.2:1883,1551651098936,PRODUCED
Publisher_002,topicA,topicA-469,172.172.1.2:1883,1551651099036,PRODUCED
Publisher_002,topicA,topicA-470,172.172.1.2:1883,1551651099136,PRODUCED
Publisher_002,topicA,topicA-471,172.172.1.2:1883,1551651099237,PRODUCED
Publisher_002,topicA,topicA-472,172.172.1.2:1883,1551651099336,PRODUCED
Publisher_002,topicA,topicA-473,172.172.1.2:1883,1551651099436,PRODUCED
Publisher_002,topicA,topicA-474,172.172.1.2:1883,1551651099536,PRODUCED
Publisher_002,topicA,topicA-475,172.172.1.2:1883,1551651099636,PRODUCED
Publisher_002,topicA,topicA-476,172.172.1.2:1883,1551651099736,PRODUCED
Publisher_002,topicA,topicA-477,172.172.1.2:1883,1551651099836,PRODUCED
Publisher_002,topicA,topicA-478,172.172.1.2:1883,1551651099936,PRODUCED
Publisher_002,topicA,topicA-479,172.172.1.2:1883,1551651100036,PRODUCED
Publisher_002,topicA,topicA-480,172.172.1.2:1883,1551651100136,PRODUCED
Publisher_002,topicA,topicA-481,172.172.1.2:1883,1551651100236,PRODUCED
Publisher_002,topicA,topicA-482,172.172.1.2:1883,1551651100336,PRODUCED
Publisher_002,topicA,topicA-483,172.172.1.2:1883,1551651100436,PRODUCED
Publisher_002,topicA,topicA-484,172.172.1.2:1883,1551651100536,PRODUCED
Publisher_002,topicA,topicA-485,172.172.1.2:1883,1551651100636,PRODUCED
Publisher_002,topicA,topicA-486,172.172.1.2:1883,1551651100736,PRODUCED
Publisher_002,topicA,topicA-487,172.172.1.2:1883,1551651100836,PRODUCED
Publisher_002,topicA,topicA-488,172.172.1.2:1883,1551651100936,PRODUCED
Publisher_002,topicA,topicA-489,172.172.1.2:1883,1551651101036,PRODUCED
Publisher_002,topicA,topicA-490,172.172.1.2:1883,1551651101137,PRODUCED
Publisher_002,topicA,topicA-491,172.172.1.2:1883,1551651101236,PRODUCED
Publisher_002,topicA,topicA-492,172.172.1.2:1883,1551651101336,PRODUCED
Publisher_002,topicA,topicA-493,172.172.1.2:1883,1551651101436,PRODUCED
Publisher_002,topicA,topicA-494,172.172.1.2:1883,1551651101536,PRODUCED
Publisher_002,topicA,topicA-495,172.172.1.2:1883,1551651101636,PRODUCED
Publisher_002,topicA,topicA-496,172.172.1.2:1883,1551651101736,PRODUCED
Publisher_002,topicA,topicA-497,172.172.1.2:1883,1551651101836,PRODUCED
Publisher_002,topicA,topicA-498,172.172.1.2:1883,1551651101937,PRODUCED
Publisher_002,topicA,topicA-499,172.172.1.2:1883,1551651102036,PRODUCED
Publisher_002,topicA,topicA-500,172.172.1.2:1883,1551651102137,PRODUCED
Publisher_002,topicA,topicA-501,172.172.1.2:1883,1551651102237,PRODUCED
Publisher_002,topicA,topicA-502,172.172.1.2:1883,1551651102336,PRODUCED
Publisher_002,topicA,topicA-503,172.172.1.2:1883,1551651102437,PRODUCED
Publisher_002,topicA,topicA-504,172.172.1.2:1883,1551651102536,PRODUCED
Publisher_002,topicA,topicA-505,172.172.1.2:1883,1551651102637,PRODUCED
Publisher_002,topicA,topicA-506,172.172.1.2:1883,1551651102736,PRODUCED
Publisher_002,topicA,topicA-507,172.172.1.2:1883,1551651102837,PRODUCED
Publisher_002,topicA,topicA-508,172.172.1.2:1883,1551651102936,PRODUCED
Publisher_002,topicA,topicA-509,172.172.1.2:1883,1551651103037,PRODUCED
Publisher_002,topicA,topicA-510,172.172.1.2:1883,1551651103137,PRODUCED
Publisher_002,topicA,topicA-511,172.172.1.2:1883,1551651103244,PRODUCED
Publisher_002,topicA,topicA-512,172.172.1.2:1883,1551651103336,PRODUCED
Publisher_002,topicA,topicA-513,172.172.1.2:1883,1551651103437,PRODUCED
Publisher_002,topicA,topicA-514,172.172.1.2:1883,1551651103536,PRODUCED
Publisher_002,topicA,topicA-515,172.172.1.2:1883,1551651103636,PRODUCED
Publisher_002,topicA,topicA-516,172.172.1.2:1883,1551651103736,PRODUCED
Publisher_002,topicA,topicA-517,172.172.1.2:1883,1551651103836,PRODUCED
Publisher_002,topicA,topicA-518,172.172.1.2:1883,1551651103936,PRODUCED
Publisher_002,topicA,topicA-519,172.172.1.2:1883,1551651104036,PRODUCED
Publisher_002,topicA,topicA-520,172.172.1.2:1883,1551651104137,PRODUCED
Publisher_002,topicA,topicA-521,172.172.1.2:1883,1551651104236,PRODUCED
Publisher_002,topicA,topicA-522,172.172.1.2:1883,1551651104337,PRODUCED
Publisher_002,topicA,topicA-523,172.172.1.2:1883,1551651104437,PRODUCED
Publisher_002,topicA,topicA-524,172.172.1.2:1883,1551651104536,PRODUCED
Publisher_002,topicA,topicA-525,172.172.1.2:1883,1551651104636,PRODUCED
Publisher_002,topicA,topicA-526,172.172.1.2:1883,1551651104736,PRODUCED
Publisher_002,topicA,topicA-527,172.172.1.2:1883,1551651104836,PRODUCED
Publisher_002,topicA,topicA-528,172.172.1.2:1883,1551651104936,PRODUCED
Publisher_002,topicA,topicA-529,172.172.1.2:1883,1551651105036,PRODUCED
Publisher_002,topicA,topicA-530,172.172.1.2:1883,1551651105136,PRODUCED
Publisher_002,topicA,topicA-531,172.172.1.2:1883,1551651105236,PRODUCED
Publisher_002,topicA,topicA-532,172.172.1.2:1883,1551651105336,PRODUCED
Publisher_002,topicA,topicA-533,172.172.1.2:1883,1551651105436,PRODUCED
Publisher_002,topicA,topicA-534,172.172.1.2:1883,1551651105536,PRODUCED
Publisher_002,topicA,topicA-535,172.172.1.2:1883,1551651105642,PRODUCED
Publisher_002,topicA,topicA-536,172.172.1.2:1883,1551651105736,PRODUCED
Publisher_002,topicA,topicA-537,172.172.1.2:1883,1551651105836,PRODUCED
Publisher_002,topicA,topicA-538,172.172.1.2:1883,1551651105936,PRODUCED
Publisher_002,topicA,topicA-539,172.172.1.2:1883,1551651106036,PRODUCED
Publisher_002,topicA,topicA-540,172.172.1.2:1883,1551651106136,PRODUCED
Publisher_002,topicA,topicA-541,172.172.1.2:1883,1551651106237,PRODUCED
Publisher_002,topicA,topicA-542,172.172.1.2:1883,1551651106336,PRODUCED
Publisher_002,topicA,topicA-543,172.172.1.2:1883,1551651106436,PRODUCED
Publisher_002,topicA,topicA-544,172.172.1.2:1883,1551651106536,PRODUCED
Publisher_002,topicA,topicA-545,172.172.1.2:1883,1551651106636,PRODUCED
Publisher_002,topicA,topicA-546,172.172.1.2:1883,1551651106739,PRODUCED
Publisher_002,topicA,topicA-547,172.172.1.2:1883,1551651106837,PRODUCED
Publisher_002,topicA,topicA-548,172.172.1.2:1883,1551651106936,PRODUCED
Publisher_002,topicA,topicA-549,172.172.1.2:1883,1551651107036,PRODUCED
Publisher_002,topicA,topicA-550,172.172.1.2:1883,1551651107136,PRODUCED
Publisher_002,topicA,topicA-551,172.172.1.2:1883,1551651107236,PRODUCED
Publisher_002,topicA,topicA-552,172.172.1.2:1883,1551651107336,PRODUCED
Publisher_002,topicA,topicA-553,172.172.1.2:1883,1551651107436,PRODUCED
Publisher_002,topicA,topicA-554,172.172.1.2:1883,1551651107536,PRODUCED
Publisher_002,topicA,topicA-555,172.172.1.2:1883,1551651107636,PRODUCED
Publisher_002,topicA,topicA-556,172.172.1.2:1883,1551651107738,PRODUCED
Publisher_002,topicA,topicA-557,172.172.1.2:1883,1551651107836,PRODUCED
Publisher_002,topicA,topicA-558,172.172.1.2:1883,1551651107936,PRODUCED
Publisher_002,topicA,topicA-559,172.172.1.2:1883,1551651108036,PRODUCED
Publisher_002,topicA,topicA-560,172.172.1.2:1883,1551651108136,PRODUCED
Publisher_002,topicA,topicA-561,172.172.1.2:1883,1551651108236,PRODUCED
Publisher_002,topicA,topicA-562,172.172.1.2:1883,1551651108336,PRODUCED
Publisher_002,topicA,topicA-563,172.172.1.2:1883,1551651108436,PRODUCED
Publisher_002,topicA,topicA-564,172.172.1.2:1883,1551651108536,PRODUCED
Publisher_002,topicA,topicA-565,172.172.1.2:1883,1551651108636,PRODUCED
Publisher_002,topicA,topicA-566,172.172.1.2:1883,1551651108736,PRODUCED
Publisher_002,topicA,topicA-567,172.172.1.2:1883,1551651108836,PRODUCED
Publisher_002,topicA,topicA-568,172.172.1.2:1883,1551651108936,PRODUCED
Publisher_002,topicA,topicA-569,172.172.1.2:1883,1551651109036,PRODUCED
Publisher_002,topicA,topicA-570,172.172.1.2:1883,1551651109136,PRODUCED
Publisher_002,topicA,topicA-571,172.172.1.2:1883,1551651109236,PRODUCED
Publisher_002,topicA,topicA-572,172.172.1.2:1883,1551651109336,PRODUCED
Publisher_002,topicA,topicA-573,172.172.1.2:1883,1551651109436,PRODUCED
Publisher_002,topicA,topicA-574,172.172.1.2:1883,1551651109536,PRODUCED
Publisher_002,topicA,topicA-575,172.172.1.2:1883,1551651109636,PRODUCED
Publisher_002,topicA,topicA-576,172.172.1.2:1883,1551651109736,PRODUCED
Publisher_002,topicA,topicA-577,172.172.1.2:1883,1551651109836,PRODUCED
Publisher_002,topicA,topicA-578,172.172.1.2:1883,1551651109936,PRODUCED
Publisher_002,topicA,topicA-579,172.172.1.2:1883,1551651110037,PRODUCED
Publisher_002,topicA,topicA-580,172.172.1.2:1883,1551651110136,PRODUCED
Publisher_002,topicA,topicA-581,172.172.1.2:1883,1551651110237,PRODUCED
Publisher_002,topicA,topicA-582,172.172.1.2:1883,1551651110337,PRODUCED
Publisher_002,topicA,topicA-583,172.172.1.2:1883,1551651110436,PRODUCED
Publisher_002,topicA,topicA-584,172.172.1.2:1883,1551651110536,PRODUCED
Publisher_002,topicA,topicA-585,172.172.1.2:1883,1551651110636,PRODUCED
Publisher_002,topicA,topicA-586,172.172.1.2:1883,1551651110736,PRODUCED
Publisher_002,topicA,topicA-587,172.172.1.2:1883,1551651110836,PRODUCED
Publisher_002,topicA,topicA-588,172.172.1.2:1883,1551651110936,PRODUCED
Publisher_002,topicA,topicA-589,172.172.1.2:1883,1551651111037,PRODUCED
Publisher_002,topicA,topicA-590,172.172.1.2:1883,1551651111136,PRODUCED
Publisher_002,topicA,topicA-591,172.172.1.2:1883,1551651111237,PRODUCED
Publisher_002,topicA,topicA-592,172.172.1.2:1883,1551651111337,PRODUCED
Publisher_002,topicA,topicA-593,172.172.1.2:1883,1551651111436,PRODUCED
Publisher_002,topicA,topicA-594,172.172.1.2:1883,1551651111536,PRODUCED
Publisher_002,topicA,topicA-595,172.172.1.2:1883,1551651111636,PRODUCED
Publisher_002,topicA,topicA-596,172.172.1.2:1883,1551651111736,PRODUCED
Publisher_002,topicA,topicA-597,172.172.1.2:1883,1551651111836,PRODUCED
Publisher_002,topicA,topicA-598,172.172.1.2:1883,1551651111936,PRODUCED
Publisher_002,topicA,topicA-599,172.172.1.2:1883,1551651112036,PRODUCED
Publisher_002,topicA,topicA-600,172.172.1.2:1883,1551651112136,PRODUCED
Publisher_002,topicA,topicA-601,172.172.1.2:1883,1551651112236,PRODUCED
Publisher_002,topicA,topicA-602,172.172.1.2:1883,1551651112336,PRODUCED
Publisher_002,topicA,topicA-603,172.172.1.2:1883,1551651112436,PRODUCED
Publisher_002,topicA,topicA-604,172.172.1.2:1883,1551651112536,PRODUCED
Publisher_002,topicA,topicA-605,172.172.1.2:1883,1551651112636,PRODUCED
Publisher_002,topicA,topicA-606,172.172.1.2:1883,1551651112736,PRODUCED
Publisher_002,topicA,topicA-607,172.172.1.2:1883,1551651112836,PRODUCED
Publisher_002,topicA,topicA-608,172.172.1.2:1883,1551651112936,PRODUCED
Publisher_002,topicA,topicA-609,172.172.1.2:1883,1551651113036,PRODUCED
Publisher_002,topicA,topicA-610,172.172.1.2:1883,1551651113136,PRODUCED
Publisher_002,topicA,topicA-611,172.172.1.2:1883,1551651113236,PRODUCED
Publisher_002,topicA,topicA-612,172.172.1.2:1883,1551651113336,PRODUCED
Publisher_002,topicA,topicA-613,172.172.1.2:1883,1551651113437,PRODUCED
Publisher_002,topicA,topicA-614,172.172.1.2:1883,1551651113536,PRODUCED
Publisher_002,topicA,topicA-615,172.172.1.2:1883,1551651113636,PRODUCED
Publisher_002,topicA,topicA-616,172.172.1.2:1883,1551651113736,PRODUCED
Publisher_002,topicA,topicA-617,172.172.1.2:1883,1551651113836,PRODUCED
Publisher_002,topicA,topicA-618,172.172.1.2:1883,1551651113936,PRODUCED
Publisher_002,topicA,topicA-619,172.172.1.2:1883,1551651114036,PRODUCED
Publisher_002,topicA,topicA-620,172.172.1.2:1883,1551651114136,PRODUCED
Publisher_002,topicA,topicA-621,172.172.1.2:1883,1551651114236,PRODUCED
Publisher_002,topicA,topicA-622,172.172.1.2:1883,1551651114336,PRODUCED
Publisher_002,topicA,topicA-623,172.172.1.2:1883,1551651114436,PRODUCED
Publisher_002,topicA,topicA-624,172.172.1.2:1883,1551651114536,PRODUCED
Publisher_002,topicA,topicA-625,172.172.1.2:1883,1551651114636,PRODUCED
Publisher_002,topicA,topicA-626,172.172.1.2:1883,1551651114736,PRODUCED
Publisher_002,topicA,topicA-627,172.172.1.2:1883,1551651114836,PRODUCED
Publisher_002,topicA,topicA-628,172.172.1.2:1883,1551651114936,PRODUCED
Publisher_002,topicA,topicA-629,172.172.1.2:1883,1551651115036,PRODUCED
Publisher_002,topicA,topicA-630,172.172.1.2:1883,1551651115136,PRODUCED
Publisher_002,topicA,topicA-631,172.172.1.2:1883,1551651115236,PRODUCED
Publisher_002,topicA,topicA-632,172.172.1.2:1883,1551651115336,PRODUCED
Publisher_002,topicA,topicA-633,172.172.1.2:1883,1551651115436,PRODUCED
Publisher_002,topicA,topicA-634,172.172.1.2:1883,1551651115536,PRODUCED
Publisher_002,topicA,topicA-635,172.172.1.2:1883,1551651115636,PRODUCED
Publisher_002,topicA,topicA-636,172.172.1.2:1883,1551651115736,PRODUCED
Publisher_002,topicA,topicA-637,172.172.1.2:1883,1551651115836,PRODUCED
Publisher_002,topicA,topicA-638,172.172.1.2:1883,1551651115936,PRODUCED
Publisher_002,topicA,topicA-639,172.172.1.2:1883,1551651116036,PRODUCED
Publisher_002,topicA,topicA-640,172.172.1.2:1883,1551651116136,PRODUCED
Publisher_002,topicA,topicA-641,172.172.1.2:1883,1551651116236,PRODUCED
Publisher_002,topicA,topicA-642,172.172.1.2:1883,1551651116336,PRODUCED
Publisher_002,topicA,topicA-643,172.172.1.2:1883,1551651116436,PRODUCED
Publisher_002,topicA,topicA-644,172.172.1.2:1883,1551651116536,PRODUCED
Publisher_002,topicA,topicA-645,172.172.1.2:1883,1551651116636,PRODUCED
Publisher_002,topicA,topicA-646,172.172.1.2:1883,1551651116736,PRODUCED
Publisher_002,topicA,topicA-647,172.172.1.2:1883,1551651116836,PRODUCED
Publisher_002,topicA,topicA-648,172.172.1.2:1883,1551651116936,PRODUCED
Publisher_002,topicA,topicA-649,172.172.1.2:1883,1551651117036,PRODUCED
Publisher_002,topicA,topicA-650,172.172.1.2:1883,1551651117136,PRODUCED
Publisher_002,topicA,topicA-651,172.172.1.2:1883,1551651117236,PRODUCED
Publisher_002,topicA,topicA-652,172.172.1.2:1883,1551651117336,PRODUCED
Publisher_002,topicA,topicA-653,172.172.1.2:1883,1551651117436,PRODUCED
Publisher_002,topicA,topicA-654,172.172.1.2:1883,1551651117536,PRODUCED
Publisher_002,topicA,topicA-655,172.172.1.2:1883,1551651117636,PRODUCED
Publisher_002,topicA,topicA-656,172.172.1.2:1883,1551651117736,PRODUCED
Publisher_002,topicA,topicA-657,172.172.1.2:1883,1551651117836,PRODUCED
Publisher_002,topicA,topicA-658,172.172.1.2:1883,1551651117936,PRODUCED
Publisher_002,topicA,topicA-659,172.172.1.2:1883,1551651118036,PRODUCED
Publisher_002,topicA,topicA-660,172.172.1.2:1883,1551651118136,PRODUCED
Publisher_002,topicA,topicA-661,172.172.1.2:1883,1551651118237,PRODUCED
Publisher_002,topicA,topicA-662,172.172.1.2:1883,1551651118336,PRODUCED
Publisher_002,topicA,topicA-663,172.172.1.2:1883,1551651118436,PRODUCED
Publisher_002,topicA,topicA-664,172.172.1.2:1883,1551651118536,PRODUCED
