timestamp,event,migrationId
1551643710532,INITIALIZED,8c514dd9-c2df-4138-9cda-d5d135c22399
1551643710534,topicA-INITIALIZED,8c514dd9-c2df-4138-9cda-d5d135c22399
1551643710755,topicA-SYNCING,8c514dd9-c2df-4138-9cda-d5d135c22399
1551643710755,SYNCING,8c514dd9-c2df-4138-9cda-d5d135c22399
1551643710756,topicA-SYNCING_THIS,8c514dd9-c2df-4138-9cda-d5d135c22399
1551643711001,topicA-SYNCED,8c514dd9-c2df-4138-9cda-d5d135c22399
1551643711002,SYNCED,8c514dd9-c2df-4138-9cda-d5d135c22399
1551643711025,topicA-FINISHED,8c514dd9-c2df-4138-9cda-d5d135c22399
1551643711028,FINISHED,8c514dd9-c2df-4138-9cda-d5d135c22399
