clientId,topic,guid,broker,timestamp,type
Publisher_001,topicA,topicA-1,172.172.1.1:1883,1551656116469,PRODUCED
Publisher_001,topicA,topicA-2,172.172.1.1:1883,1551656116708,PRODUCED
Publisher_001,topicA,topicA-3,172.172.1.1:1883,1551656116714,PRODUCED
Publisher_001,topicA,topicA-4,172.172.1.1:1883,1551656116718,PRODUCED
Publisher_001,topicA,topicA-5,172.172.1.1:1883,1551656116723,PRODUCED
Publisher_001,topicA,topicA-6,172.172.1.1:1883,1551656116800,PRODUCED
Publisher_001,topicA,topicA-7,172.172.1.1:1883,1551656116900,PRODUCED
Publisher_001,topicA,topicA-8,172.172.1.1:1883,1551656117000,PRODUCED
Publisher_001,topicA,topicA-9,172.172.1.1:1883,1551656117100,PRODUCED
Publisher_001,topicA,topicA-10,172.172.1.1:1883,1551656117200,PRODUCED
Publisher_001,topicA,topicA-11,172.172.1.1:1883,1551656117303,PRODUCED
Publisher_001,topicA,topicA-12,172.172.1.1:1883,1551656117404,PRODUCED
Publisher_001,topicA,topicA-13,172.172.1.1:1883,1551656117500,PRODUCED
Publisher_001,topicA,topicA-14,172.172.1.1:1883,1551656117600,PRODUCED
Publisher_001,topicA,topicA-15,172.172.1.1:1883,1551656117700,PRODUCED
Publisher_001,topicA,topicA-16,172.172.1.1:1883,1551656117801,PRODUCED
Publisher_001,topicA,topicA-17,172.172.1.1:1883,1551656117905,PRODUCED
Publisher_001,topicA,topicA-18,172.172.1.1:1883,1551656118001,PRODUCED
Publisher_001,topicA,topicA-19,172.172.1.1:1883,1551656118101,PRODUCED
Publisher_001,topicA,topicA-20,172.172.1.1:1883,1551656118202,PRODUCED
Publisher_001,topicA,topicA-21,172.172.1.1:1883,1551656118300,PRODUCED
Publisher_001,topicA,topicA-22,172.172.1.1:1883,1551656118400,PRODUCED
Publisher_001,topicA,topicA-23,172.172.1.1:1883,1551656118500,PRODUCED
Publisher_001,topicA,topicA-24,172.172.1.1:1883,1551656118600,PRODUCED
Publisher_001,topicA,topicA-25,172.172.1.1:1883,1551656118700,PRODUCED
Publisher_001,topicA,topicA-26,172.172.1.1:1883,1551656118800,PRODUCED
Publisher_001,topicA,topicA-27,172.172.1.1:1883,1551656118900,PRODUCED
Publisher_001,topicA,topicA-28,172.172.1.1:1883,1551656119000,PRODUCED
Publisher_001,topicA,topicA-29,172.172.1.1:1883,1551656119101,PRODUCED
Publisher_001,topicA,topicA-30,172.172.1.1:1883,1551656119202,PRODUCED
Publisher_001,topicA,topicA-31,172.172.1.1:1883,1551656119300,PRODUCED
Publisher_001,topicA,topicA-32,172.172.1.1:1883,1551656119400,PRODUCED
Publisher_001,topicA,topicA-33,172.172.1.1:1883,1551656119500,PRODUCED
Publisher_001,topicA,topicA-34,172.172.1.1:1883,1551656119600,PRODUCED
Publisher_001,topicA,topicA-35,172.172.1.1:1883,1551656119701,PRODUCED
Publisher_001,topicA,topicA-36,172.172.1.1:1883,1551656119800,PRODUCED
Publisher_001,topicA,topicA-37,172.172.1.1:1883,1551656119902,PRODUCED
Publisher_001,topicA,topicA-38,172.172.1.1:1883,1551656120004,PRODUCED
Publisher_001,topicA,topicA-39,172.172.1.1:1883,1551656120102,PRODUCED
Publisher_001,topicA,topicA-40,172.172.1.1:1883,1551656120200,PRODUCED
Publisher_001,topicA,topicA-41,172.172.1.1:1883,1551656120306,PRODUCED
Publisher_001,topicA,topicA-42,172.172.1.1:1883,1551656120400,PRODUCED
Publisher_001,topicA,topicA-43,172.172.1.1:1883,1551656120500,PRODUCED
Publisher_001,topicA,topicA-44,172.172.1.1:1883,1551656120600,PRODUCED
Publisher_001,topicA,topicA-45,172.172.1.1:1883,1551656120708,PRODUCED
Publisher_001,topicA,topicA-46,172.172.1.1:1883,1551656120801,PRODUCED
Publisher_001,topicA,topicA-47,172.172.1.1:1883,1551656120900,PRODUCED
Publisher_001,topicA,topicA-48,172.172.1.1:1883,1551656121000,PRODUCED
Publisher_001,topicA,topicA-49,172.172.1.1:1883,1551656121100,PRODUCED
Publisher_001,topicA,topicA-50,172.172.1.1:1883,1551656121200,PRODUCED
Publisher_001,topicA,topicA-51,172.172.1.1:1883,1551656121300,PRODUCED
Publisher_001,topicA,topicA-52,172.172.1.1:1883,1551656121400,PRODUCED
Publisher_001,topicA,topicA-53,172.172.1.1:1883,1551656121500,PRODUCED
Publisher_001,topicA,topicA-54,172.172.1.1:1883,1551656121600,PRODUCED
Publisher_001,topicA,topicA-55,172.172.1.1:1883,1551656121700,PRODUCED
Publisher_001,topicA,topicA-56,172.172.1.1:1883,1551656121800,PRODUCED
Publisher_001,topicA,topicA-57,172.172.1.1:1883,1551656121901,PRODUCED
Publisher_001,topicA,topicA-58,172.172.1.1:1883,1551656122000,PRODUCED
Publisher_001,topicA,topicA-59,172.172.1.1:1883,1551656122101,PRODUCED
Publisher_001,topicA,topicA-60,172.172.1.1:1883,1551656122204,PRODUCED
Publisher_001,topicA,topicA-61,172.172.1.1:1883,1551656122301,PRODUCED
Publisher_001,topicA,topicA-62,172.172.1.1:1883,1551656122400,PRODUCED
Publisher_001,topicA,topicA-63,172.172.1.1:1883,1551656122503,PRODUCED
Publisher_001,topicA,topicA-64,172.172.1.1:1883,1551656122604,PRODUCED
Publisher_001,topicA,topicA-65,172.172.1.1:1883,1551656122700,PRODUCED
Publisher_001,topicA,topicA-66,172.172.1.1:1883,1551656122804,PRODUCED
Publisher_001,topicA,topicA-67,172.172.1.1:1883,1551656122904,PRODUCED
Publisher_001,topicA,topicA-68,172.172.1.1:1883,1551656123003,PRODUCED
Publisher_001,topicA,topicA-69,172.172.1.1:1883,1551656123100,PRODUCED
Publisher_001,topicA,topicA-70,172.172.1.1:1883,1551656123202,PRODUCED
Publisher_001,topicA,topicA-71,172.172.1.1:1883,1551656123304,PRODUCED
Publisher_001,topicA,topicA-72,172.172.1.1:1883,1551656123402,PRODUCED
Publisher_001,topicA,topicA-73,172.172.1.1:1883,1551656123503,PRODUCED
Publisher_001,topicA,topicA-74,172.172.1.1:1883,1551656123603,PRODUCED
Publisher_001,topicA,topicA-75,172.172.1.1:1883,1551656123700,PRODUCED
Publisher_001,topicA,topicA-76,172.172.1.1:1883,1551656123803,PRODUCED
Publisher_001,topicA,topicA-77,172.172.1.1:1883,1551656123904,PRODUCED
Publisher_001,topicA,topicA-78,172.172.1.1:1883,1551656124004,PRODUCED
Publisher_001,topicA,topicA-79,172.172.1.1:1883,1551656124100,PRODUCED
Publisher_001,topicA,topicA-80,172.172.1.1:1883,1551656124200,PRODUCED
Publisher_001,topicA,topicA-81,172.172.1.1:1883,1551656124300,PRODUCED
Publisher_001,topicA,topicA-82,172.172.1.1:1883,1551656124401,PRODUCED
Publisher_001,topicA,topicA-83,172.172.1.1:1883,1551656124500,PRODUCED
Publisher_001,topicA,topicA-84,172.172.1.1:1883,1551656124600,PRODUCED
Publisher_001,topicA,topicA-85,172.172.1.1:1883,1551656124701,PRODUCED
Publisher_001,topicA,topicA-86,172.172.1.1:1883,1551656124800,PRODUCED
Publisher_001,topicA,topicA-87,172.172.1.1:1883,1551656124900,PRODUCED
Publisher_001,topicA,topicA-88,172.172.1.1:1883,1551656125000,PRODUCED
Publisher_001,topicA,topicA-89,172.172.1.1:1883,1551656125100,PRODUCED
Publisher_001,topicA,topicA-90,172.172.1.1:1883,1551656125200,PRODUCED
Publisher_001,topicA,topicA-91,172.172.1.1:1883,1551656125300,PRODUCED
Publisher_001,topicA,topicA-92,172.172.1.1:1883,1551656125401,PRODUCED
Publisher_001,topicA,topicA-93,172.172.1.1:1883,1551656125504,PRODUCED
Publisher_001,topicA,topicA-94,172.172.1.1:1883,1551656125601,PRODUCED
Publisher_001,topicA,topicA-95,172.172.1.1:1883,1551656125703,PRODUCED
Publisher_001,topicA,topicA-96,172.172.1.1:1883,1551656125800,PRODUCED
Publisher_001,topicA,topicA-97,172.172.1.1:1883,1551656125905,PRODUCED
Publisher_001,topicA,topicA-98,172.172.1.1:1883,1551656126005,PRODUCED
Publisher_001,topicA,topicA-99,172.172.1.1:1883,1551656126102,PRODUCED
Publisher_001,topicA,topicA-100,172.172.1.1:1883,1551656126202,PRODUCED
Publisher_001,topicA,topicA-101,172.172.1.1:1883,1551656126301,PRODUCED
Publisher_001,topicA,topicA-102,172.172.1.1:1883,1551656126402,PRODUCED
Publisher_001,topicA,topicA-103,172.172.1.1:1883,1551656126500,PRODUCED
Publisher_001,topicA,topicA-104,172.172.1.1:1883,1551656126604,PRODUCED
Publisher_001,topicA,topicA-105,172.172.1.1:1883,1551656126700,PRODUCED
Publisher_001,topicA,topicA-106,172.172.1.1:1883,1551656126801,PRODUCED
Publisher_001,topicA,topicA-107,172.172.1.1:1883,1551656126901,PRODUCED
Publisher_001,topicA,topicA-108,172.172.1.1:1883,1551656127001,PRODUCED
Publisher_001,topicA,topicA-109,172.172.1.1:1883,1551656127103,PRODUCED
Publisher_001,topicA,topicA-110,172.172.1.1:1883,1551656127201,PRODUCED
Publisher_001,topicA,topicA-111,172.172.1.1:1883,1551656127301,PRODUCED
Publisher_001,topicA,topicA-112,172.172.1.1:1883,1551656127401,PRODUCED
Publisher_001,topicA,topicA-113,172.172.1.1:1883,1551656127501,PRODUCED
Publisher_001,topicA,topicA-114,172.172.1.1:1883,1551656127601,PRODUCED
Publisher_001,topicA,topicA-115,172.172.1.1:1883,1551656127701,PRODUCED
Publisher_001,topicA,topicA-116,172.172.1.1:1883,1551656127800,PRODUCED
Publisher_001,topicA,topicA-117,172.172.1.1:1883,1551656127905,PRODUCED
Publisher_001,topicA,topicA-118,172.172.1.1:1883,1551656128001,PRODUCED
Publisher_001,topicA,topicA-119,172.172.1.1:1883,1551656128101,PRODUCED
Publisher_001,topicA,topicA-120,172.172.1.1:1883,1551656128201,PRODUCED
Publisher_001,topicA,topicA-121,172.172.1.1:1883,1551656128303,PRODUCED
Publisher_001,topicA,topicA-122,172.172.1.1:1883,1551656128400,PRODUCED
Publisher_001,topicA,topicA-123,172.172.1.1:1883,1551656128500,PRODUCED
Publisher_001,topicA,topicA-124,172.172.1.1:1883,1551656128601,PRODUCED
Publisher_001,topicA,topicA-125,172.172.1.1:1883,1551656128701,PRODUCED
Publisher_001,topicA,topicA-126,172.172.1.1:1883,1551656128801,PRODUCED
Publisher_001,topicA,topicA-127,172.172.1.1:1883,1551656128901,PRODUCED
Publisher_001,topicA,topicA-128,172.172.1.1:1883,1551656129003,PRODUCED
Publisher_001,topicA,topicA-129,172.172.1.1:1883,1551656129101,PRODUCED
Publisher_001,topicA,topicA-130,172.172.1.1:1883,1551656129203,PRODUCED
Publisher_001,topicA,topicA-131,172.172.1.1:1883,1551656129301,PRODUCED
Publisher_001,topicA,topicA-132,172.172.1.1:1883,1551656129400,PRODUCED
Publisher_001,topicA,topicA-133,172.172.1.1:1883,1551656129501,PRODUCED
Publisher_001,topicA,topicA-134,172.172.1.1:1883,1551656129601,PRODUCED
Publisher_001,topicA,topicA-135,172.172.1.1:1883,1551656129700,PRODUCED
Publisher_001,topicA,topicA-136,172.172.1.1:1883,1551656129801,PRODUCED
Publisher_001,topicA,topicA-137,172.172.1.1:1883,1551656129900,PRODUCED
Publisher_001,topicA,topicA-138,172.172.1.1:1883,1551656130000,PRODUCED
Publisher_001,topicA,topicA-139,172.172.1.1:1883,1551656130101,PRODUCED
Publisher_001,topicA,topicA-140,172.172.1.1:1883,1551656130200,PRODUCED
Publisher_001,topicA,topicA-141,172.172.1.1:1883,1551656130301,PRODUCED
Publisher_001,topicA,topicA-142,172.172.1.1:1883,1551656130402,PRODUCED
Publisher_001,topicA,topicA-143,172.172.1.1:1883,1551656130502,PRODUCED
Publisher_001,topicA,topicA-144,172.172.1.1:1883,1551656130600,PRODUCED
Publisher_001,topicA,topicA-145,172.172.1.1:1883,1551656130700,PRODUCED
Publisher_001,topicA,topicA-146,172.172.1.1:1883,1551656130800,PRODUCED
Publisher_001,topicA,topicA-147,172.172.1.1:1883,1551656130902,PRODUCED
Publisher_001,topicA,topicA-148,172.172.1.1:1883,1551656131000,PRODUCED
Publisher_001,topicA,topicA-149,172.172.1.1:1883,1551656131101,PRODUCED
Publisher_001,topicA,topicA-150,172.172.1.1:1883,1551656131200,PRODUCED
Publisher_001,topicA,topicA-151,172.172.1.1:1883,1551656131301,PRODUCED
Publisher_001,topicA,topicA-152,172.172.1.1:1883,1551656131400,PRODUCED
Publisher_001,topicA,topicA-153,172.172.1.1:1883,1551656131501,PRODUCED
Publisher_001,topicA,topicA-154,172.172.1.1:1883,1551656131604,PRODUCED
Publisher_001,topicA,topicA-155,172.172.1.1:1883,1551656131701,PRODUCED
Publisher_001,topicA,topicA-156,172.172.1.1:1883,1551656131800,PRODUCED
Publisher_001,topicA,topicA-157,172.172.1.1:1883,1551656131901,PRODUCED
Publisher_001,topicA,topicA-158,172.172.1.1:1883,1551656132001,PRODUCED
Publisher_001,topicA,topicA-159,172.172.1.1:1883,1551656132100,PRODUCED
Publisher_001,topicA,topicA-160,172.172.1.1:1883,1551656132200,PRODUCED
Publisher_001,topicA,topicA-161,172.172.1.1:1883,1551656132300,PRODUCED
Publisher_001,topicA,topicA-162,172.172.1.1:1883,1551656132401,PRODUCED
Publisher_001,topicA,topicA-163,172.172.1.1:1883,1551656132501,PRODUCED
Publisher_001,topicA,topicA-164,172.172.1.1:1883,1551656132600,PRODUCED
Publisher_001,topicA,topicA-165,172.172.1.1:1883,1551656132700,PRODUCED
Publisher_001,topicA,topicA-166,172.172.1.1:1883,1551656132800,PRODUCED
Publisher_001,topicA,topicA-167,172.172.1.1:1883,1551656132900,PRODUCED
Publisher_001,topicA,topicA-168,172.172.1.1:1883,1551656133004,PRODUCED
Publisher_001,topicA,topicA-169,172.172.1.1:1883,1551656133100,PRODUCED
Publisher_001,topicA,topicA-170,172.172.1.1:1883,1551656133200,PRODUCED
Publisher_001,topicA,topicA-171,172.172.1.1:1883,1551656133301,PRODUCED
Publisher_001,topicA,topicA-172,172.172.1.1:1883,1551656133400,PRODUCED
Publisher_001,topicA,topicA-173,172.172.1.1:1883,1551656133500,PRODUCED
Publisher_001,topicA,topicA-174,172.172.1.1:1883,1551656133601,PRODUCED
Publisher_001,topicA,topicA-175,172.172.1.1:1883,1551656133700,PRODUCED
Publisher_001,topicA,topicA-176,172.172.1.1:1883,1551656133801,PRODUCED
Publisher_001,topicA,topicA-177,172.172.1.1:1883,1551656133904,PRODUCED
Publisher_001,topicA,topicA-178,172.172.1.1:1883,1551656134001,PRODUCED
Publisher_001,topicA,topicA-179,172.172.1.1:1883,1551656134103,PRODUCED
Publisher_001,topicA,topicA-180,172.172.1.1:1883,1551656134201,PRODUCED
Publisher_001,topicA,topicA-181,172.172.1.1:1883,1551656134304,PRODUCED
Publisher_001,topicA,topicA-182,172.172.1.1:1883,1551656134401,PRODUCED
Publisher_001,topicA,topicA-183,172.172.1.1:1883,1551656134501,PRODUCED
Publisher_001,topicA,topicA-184,172.172.1.1:1883,1551656134604,PRODUCED
Publisher_001,topicA,topicA-185,172.172.1.1:1883,1551656134700,PRODUCED
Publisher_001,topicA,topicA-186,172.172.1.1:1883,1551656134800,PRODUCED
Publisher_001,topicA,topicA-187,172.172.1.1:1883,1551656134903,PRODUCED
Publisher_001,topicA,topicA-188,172.172.1.1:1883,1551656135001,PRODUCED
Publisher_001,topicA,topicA-189,172.172.1.1:1883,1551656135100,PRODUCED
Publisher_001,topicA,topicA-190,172.172.1.1:1883,1551656135200,PRODUCED
Publisher_001,topicA,topicA-191,172.172.1.1:1883,1551656135301,PRODUCED
Publisher_001,topicA,topicA-192,172.172.1.1:1883,1551656135401,PRODUCED
Publisher_001,topicA,topicA-193,172.172.1.1:1883,1551656135500,PRODUCED
Publisher_001,topicA,topicA-194,172.172.1.1:1883,1551656135600,PRODUCED
Publisher_001,topicA,topicA-195,172.172.1.1:1883,1551656135700,PRODUCED
Publisher_001,topicA,topicA-196,172.172.1.1:1883,1551656135800,PRODUCED
Publisher_001,topicA,topicA-197,172.172.1.1:1883,1551656135902,PRODUCED
Publisher_001,topicA,topicA-198,172.172.1.1:1883,1551656136001,PRODUCED
Publisher_001,topicA,topicA-199,172.172.1.1:1883,1551656136102,PRODUCED
Publisher_001,topicA,topicA-200,172.172.1.1:1883,1551656136202,PRODUCED
Publisher_001,topicA,topicA-201,172.172.1.1:1883,1551656136300,PRODUCED
Publisher_001,topicA,topicA-202,172.172.1.1:1883,1551656136403,PRODUCED
Publisher_001,topicA,topicA-203,172.172.1.1:1883,1551656136503,PRODUCED
Publisher_001,topicA,topicA-204,172.172.1.1:1883,1551656136600,PRODUCED
Publisher_001,topicA,topicA-205,172.172.1.1:1883,1551656136700,PRODUCED
Publisher_001,topicA,topicA-206,172.172.1.1:1883,1551656136801,PRODUCED
Publisher_001,topicA,topicA-207,172.172.1.1:1883,1551656136900,PRODUCED
Publisher_001,topicA,topicA-208,172.172.1.1:1883,1551656137000,PRODUCED
Publisher_001,topicA,topicA-209,172.172.1.1:1883,1551656137101,PRODUCED
Publisher_001,topicA,topicA-210,172.172.1.1:1883,1551656137200,PRODUCED
Publisher_001,topicA,topicA-211,172.172.1.1:1883,1551656137301,PRODUCED
Publisher_001,topicA,topicA-212,172.172.1.1:1883,1551656137401,PRODUCED
Publisher_001,topicA,topicA-213,172.172.1.1:1883,1551656137500,PRODUCED
Publisher_001,topicA,topicA-214,172.172.1.1:1883,1551656137601,PRODUCED
Publisher_001,topicA,topicA-215,172.172.1.1:1883,1551656137705,PRODUCED
Publisher_001,topicA,topicA-216,172.172.1.1:1883,1551656137800,PRODUCED
Publisher_001,topicA,topicA-217,172.172.1.1:1883,1551656137903,PRODUCED
Publisher_001,topicA,topicA-218,172.172.1.1:1883,1551656138005,PRODUCED
Publisher_001,topicA,topicA-219,172.172.1.1:1883,1551656138104,PRODUCED
Publisher_001,topicA,topicA-220,172.172.1.1:1883,1551656138200,PRODUCED
Publisher_001,topicA,topicA-221,172.172.1.1:1883,1551656138301,PRODUCED
Publisher_001,topicA,topicA-222,172.172.1.1:1883,1551656138400,PRODUCED
Publisher_001,topicA,topicA-223,172.172.1.1:1883,1551656138500,PRODUCED
Publisher_001,topicA,topicA-224,172.172.1.1:1883,1551656138605,PRODUCED
Publisher_001,topicA,topicA-225,172.172.1.1:1883,1551656138704,PRODUCED
Publisher_001,topicA,topicA-226,172.172.1.1:1883,1551656138802,PRODUCED
Publisher_001,topicA,topicA-227,172.172.1.1:1883,1551656138904,PRODUCED
Publisher_001,topicA,topicA-228,172.172.1.1:1883,1551656139004,PRODUCED
Publisher_001,topicA,topicA-229,172.172.1.1:1883,1551656139101,PRODUCED
Publisher_001,topicA,topicA-230,172.172.1.1:1883,1551656139204,PRODUCED
Publisher_001,topicA,topicA-231,172.172.1.1:1883,1551656139301,PRODUCED
Publisher_001,topicA,topicA-232,172.172.1.1:1883,1551656139401,PRODUCED
Publisher_001,topicA,topicA-233,172.172.1.1:1883,1551656139502,PRODUCED
Publisher_001,topicA,topicA-234,172.172.1.1:1883,1551656139604,PRODUCED
Publisher_001,topicA,topicA-235,172.172.1.1:1883,1551656139700,PRODUCED
Publisher_001,topicA,topicA-236,172.172.1.1:1883,1551656139800,PRODUCED
Publisher_001,topicA,topicA-237,172.172.1.1:1883,1551656139900,PRODUCED
Publisher_001,topicA,topicA-238,172.172.1.1:1883,1551656140000,PRODUCED
Publisher_001,topicA,topicA-239,172.172.1.1:1883,1551656140100,PRODUCED
Publisher_001,topicA,topicA-240,172.172.1.1:1883,1551656140203,PRODUCED
Publisher_001,topicA,topicA-241,172.172.1.1:1883,1551656140300,PRODUCED
Publisher_001,topicA,topicA-242,172.172.1.1:1883,1551656140400,PRODUCED
Publisher_001,topicA,topicA-243,172.172.1.1:1883,1551656140501,PRODUCED
Publisher_001,topicA,topicA-244,172.172.1.1:1883,1551656140600,PRODUCED
Publisher_001,topicA,topicA-245,172.172.1.1:1883,1551656140701,PRODUCED
Publisher_001,topicA,topicA-246,172.172.1.1:1883,1551656140800,PRODUCED
Publisher_001,topicA,topicA-247,172.172.1.1:1883,1551656140900,PRODUCED
Publisher_001,topicA,topicA-248,172.172.1.1:1883,1551656141001,PRODUCED
Publisher_001,topicA,topicA-249,172.172.1.1:1883,1551656141100,PRODUCED
Publisher_001,topicA,topicA-250,172.172.1.1:1883,1551656141200,PRODUCED
Publisher_001,topicA,topicA-251,172.172.1.1:1883,1551656141300,PRODUCED
Publisher_001,topicA,topicA-252,172.172.1.1:1883,1551656141405,PRODUCED
Publisher_001,topicA,topicA-253,172.172.1.1:1883,1551656141500,PRODUCED
Publisher_001,topicA,topicA-254,172.172.1.1:1883,1551656141600,PRODUCED
Publisher_001,topicA,topicA-255,172.172.1.1:1883,1551656141701,PRODUCED
Publisher_001,topicA,topicA-256,172.172.1.1:1883,1551656141801,PRODUCED
Publisher_001,topicA,topicA-257,172.172.1.1:1883,1551656141900,PRODUCED
Publisher_001,topicA,topicA-258,172.172.1.1:1883,1551656142000,PRODUCED
Publisher_001,topicA,topicA-259,172.172.1.1:1883,1551656142100,PRODUCED
Publisher_001,topicA,topicA-260,172.172.1.1:1883,1551656142201,PRODUCED
Publisher_001,topicA,topicA-261,172.172.1.1:1883,1551656142300,PRODUCED
Publisher_001,topicA,topicA-262,172.172.1.1:1883,1551656142401,PRODUCED
Publisher_001,topicA,topicA-263,172.172.1.1:1883,1551656142500,PRODUCED
Publisher_001,topicA,topicA-264,172.172.1.1:1883,1551656142601,PRODUCED
Publisher_001,topicA,topicA-265,172.172.1.1:1883,1551656142701,PRODUCED
Publisher_001,topicA,topicA-266,172.172.1.1:1883,1551656142800,PRODUCED
Publisher_001,topicA,topicA-267,172.172.1.1:1883,1551656142901,PRODUCED
Publisher_001,topicA,topicA-268,172.172.1.1:1883,1551656143000,PRODUCED
Publisher_001,topicA,topicA-269,172.172.1.1:1883,1551656143100,PRODUCED
Publisher_001,topicA,topicA-270,172.172.1.1:1883,1551656143200,PRODUCED
Publisher_001,topicA,topicA-271,172.172.1.1:1883,1551656143301,PRODUCED
Publisher_001,topicA,topicA-272,172.172.1.1:1883,1551656143400,PRODUCED
Publisher_001,topicA,topicA-273,172.172.1.1:1883,1551656143503,PRODUCED
Publisher_001,topicA,topicA-274,172.172.1.1:1883,1551656143601,PRODUCED
Publisher_001,topicA,topicA-275,172.172.1.1:1883,1551656143701,PRODUCED
Publisher_001,topicA,topicA-276,172.172.1.1:1883,1551656143800,PRODUCED
Publisher_001,topicA,topicA-277,172.172.1.1:1883,1551656143900,PRODUCED
Publisher_001,topicA,topicA-278,172.172.1.1:1883,1551656144000,PRODUCED
Publisher_001,topicA,topicA-279,172.172.1.1:1883,1551656144103,PRODUCED
Publisher_001,topicA,topicA-280,172.172.1.1:1883,1551656144204,PRODUCED
Publisher_001,topicA,topicA-281,172.172.1.1:1883,1551656144301,PRODUCED
Publisher_001,topicA,topicA-282,172.172.1.1:1883,1551656144400,PRODUCED
Publisher_001,topicA,topicA-283,172.172.1.1:1883,1551656144500,PRODUCED
Publisher_001,topicA,topicA-284,172.172.1.1:1883,1551656144600,PRODUCED
Publisher_001,topicA,topicA-285,172.172.1.1:1883,1551656144700,PRODUCED
Publisher_001,topicA,topicA-286,172.172.1.1:1883,1551656144801,PRODUCED
Publisher_001,topicA,topicA-287,172.172.1.1:1883,1551656144900,PRODUCED
Publisher_001,topicA,topicA-288,172.172.1.1:1883,1551656145002,PRODUCED
Publisher_001,topicA,topicA-289,172.172.1.1:1883,1551656145101,PRODUCED
Publisher_001,topicA,topicA-290,172.172.1.1:1883,1551656145200,PRODUCED
Publisher_001,topicA,topicA-291,172.172.1.1:1883,1551656145303,PRODUCED
Publisher_001,topicA,topicA-292,172.172.1.1:1883,1551656145400,PRODUCED
Publisher_001,topicA,topicA-293,172.172.1.1:1883,1551656145500,PRODUCED
Publisher_001,topicA,topicA-294,172.172.1.1:1883,1551656145602,PRODUCED
Publisher_001,topicA,topicA-295,172.172.1.1:1883,1551656145700,PRODUCED
Publisher_001,topicA,topicA-296,172.172.1.1:1883,1551656145801,PRODUCED
Publisher_001,topicA,topicA-297,172.172.1.1:1883,1551656145900,PRODUCED
Publisher_001,topicA,topicA-298,172.172.1.1:1883,1551656146006,PRODUCED
Publisher_001,topicA,topicA-299,172.172.1.1:1883,1551656146101,PRODUCED
Publisher_001,topicA,topicA-300,172.172.1.1:1883,1551656146201,PRODUCED
Publisher_001,topicA,topicA-301,172.172.1.1:1883,1551656146300,PRODUCED
Publisher_001,topicA,topicA-302,172.172.1.1:1883,1551656146402,PRODUCED
Publisher_001,topicA,topicA-303,172.172.1.1:1883,1551656146500,PRODUCED
Publisher_001,topicA,topicA-304,172.172.1.1:1883,1551656146600,PRODUCED
Publisher_001,topicA,topicA-305,172.172.1.1:1883,1551656146701,PRODUCED
Publisher_001,topicA,topicA-306,172.172.1.1:1883,1551656146800,PRODUCED
Publisher_001,topicA,topicA-307,172.172.1.1:1883,1551656146901,PRODUCED
Publisher_001,topicA,topicA-308,172.172.1.1:1883,1551656147001,PRODUCED
Publisher_001,topicA,topicA-309,172.172.1.1:1883,1551656147101,PRODUCED
Publisher_001,topicA,topicA-310,172.172.1.1:1883,1551656147205,PRODUCED
Publisher_001,topicA,topicA-311,172.172.1.1:1883,1551656147301,PRODUCED
Publisher_001,topicA,topicA-312,172.172.1.1:1883,1551656147401,PRODUCED
Publisher_001,topicA,topicA-313,172.172.1.1:1883,1551656147501,PRODUCED
Publisher_001,topicA,topicA-314,172.172.1.1:1883,1551656147602,PRODUCED
Publisher_001,topicA,topicA-315,172.172.1.1:1883,1551656147700,PRODUCED
Publisher_001,topicA,topicA-316,172.172.1.1:1883,1551656147800,PRODUCED
Publisher_001,topicA,topicA-317,172.172.1.1:1883,1551656147901,PRODUCED
Publisher_001,topicA,topicA-318,172.172.1.1:1883,1551656148003,PRODUCED
Publisher_001,topicA,topicA-319,172.172.1.1:1883,1551656148100,PRODUCED
Publisher_001,topicA,topicA-320,172.172.1.1:1883,1551656148200,PRODUCED
Publisher_001,topicA,topicA-321,172.172.1.1:1883,1551656148300,PRODUCED
Publisher_001,topicA,topicA-322,172.172.1.1:1883,1551656148400,PRODUCED
Publisher_001,topicA,topicA-323,172.172.1.1:1883,1551656148500,PRODUCED
Publisher_001,topicA,topicA-324,172.172.1.1:1883,1551656148600,PRODUCED
Publisher_001,topicA,topicA-325,172.172.1.1:1883,1551656148701,PRODUCED
Publisher_001,topicA,topicA-326,172.172.1.1:1883,1551656148800,PRODUCED
Publisher_001,topicA,topicA-327,172.172.1.1:1883,1551656148900,PRODUCED
Publisher_001,topicA,topicA-328,172.172.1.1:1883,1551656149001,PRODUCED
Publisher_001,topicA,topicA-329,172.172.1.1:1883,1551656149100,PRODUCED
Publisher_001,topicA,topicA-330,172.172.1.1:1883,1551656149201,PRODUCED
Publisher_001,topicA,topicA-331,172.172.1.1:1883,1551656149302,PRODUCED
Publisher_001,topicA,topicA-332,172.172.1.1:1883,1551656149402,PRODUCED
Publisher_001,topicA,topicA-333,172.172.1.1:1883,1551656149501,PRODUCED
Publisher_001,topicA,topicA-334,172.172.1.1:1883,1551656149600,PRODUCED
Publisher_001,topicA,topicA-335,172.172.1.1:1883,1551656149700,PRODUCED
Publisher_001,topicA,topicA-336,172.172.1.1:1883,1551656149801,PRODUCED
Publisher_001,topicA,topicA-337,172.172.1.1:1883,1551656149900,PRODUCED
Publisher_001,topicA,topicA-338,172.172.1.1:1883,1551656150000,PRODUCED
Publisher_001,topicA,topicA-339,172.172.1.1:1883,1551656150100,PRODUCED
Publisher_001,topicA,topicA-340,172.172.1.1:1883,1551656150200,PRODUCED
Publisher_001,topicA,topicA-341,172.172.1.1:1883,1551656150300,PRODUCED
Publisher_001,topicA,topicA-342,172.172.1.1:1883,1551656150400,PRODUCED
Publisher_001,topicA,topicA-343,172.172.1.1:1883,1551656150500,PRODUCED
Publisher_001,topicA,topicA-344,172.172.1.1:1883,1551656150600,PRODUCED
Publisher_001,topicA,topicA-345,172.172.1.1:1883,1551656150702,PRODUCED
Publisher_001,topicA,topicA-346,172.172.1.1:1883,1551656150800,PRODUCED
Publisher_001,topicA,topicA-347,172.172.1.1:1883,1551656150903,PRODUCED
Publisher_001,topicA,topicA-348,172.172.1.1:1883,1551656151002,PRODUCED
Publisher_001,topicA,topicA-349,172.172.1.1:1883,1551656151103,PRODUCED
Publisher_001,topicA,topicA-350,172.172.1.1:1883,1551656151200,PRODUCED
Publisher_001,topicA,topicA-351,172.172.1.1:1883,1551656151300,PRODUCED
Publisher_001,topicA,topicA-352,172.172.1.1:1883,1551656151403,PRODUCED
Publisher_001,topicA,topicA-353,172.172.1.1:1883,1551656151500,PRODUCED
Publisher_001,topicA,topicA-354,172.172.1.1:1883,1551656151600,PRODUCED
Publisher_001,topicA,topicA-355,172.172.1.1:1883,1551656151703,PRODUCED
Publisher_001,topicA,topicA-356,172.172.1.1:1883,1551656151800,PRODUCED
Publisher_001,topicA,topicA-357,172.172.1.1:1883,1551656151900,PRODUCED
Publisher_001,topicA,topicA-358,172.172.1.1:1883,1551656152000,PRODUCED
Publisher_001,topicA,topicA-359,172.172.1.1:1883,1551656152101,PRODUCED
Publisher_001,topicA,topicA-360,172.172.1.1:1883,1551656152200,PRODUCED
Publisher_001,topicA,topicA-361,172.172.1.1:1883,1551656152300,PRODUCED
Publisher_001,topicA,topicA-362,172.172.1.1:1883,1551656152401,PRODUCED
Publisher_001,topicA,topicA-363,172.172.1.1:1883,1551656152500,PRODUCED
Publisher_001,topicA,topicA-364,172.172.1.1:1883,1551656152601,PRODUCED
Publisher_001,topicA,topicA-365,172.172.1.1:1883,1551656152700,PRODUCED
Publisher_001,topicA,topicA-366,172.172.1.1:1883,1551656152801,PRODUCED
Publisher_001,topicA,topicA-367,172.172.1.1:1883,1551656152901,PRODUCED
Publisher_001,topicA,topicA-368,172.172.1.1:1883,1551656153001,PRODUCED
Publisher_001,topicA,topicA-369,172.172.1.1:1883,1551656153103,PRODUCED
Publisher_001,topicA,topicA-370,172.172.1.1:1883,1551656153200,PRODUCED
Publisher_001,topicA,topicA-371,172.172.1.1:1883,1551656153301,PRODUCED
Publisher_001,topicA,topicA-372,172.172.1.1:1883,1551656153401,PRODUCED
Publisher_001,topicA,topicA-373,172.172.1.1:1883,1551656153500,PRODUCED
Publisher_001,topicA,topicA-374,172.172.1.1:1883,1551656153600,PRODUCED
Publisher_001,topicA,topicA-375,172.172.1.1:1883,1551656153700,PRODUCED
Publisher_001,topicA,topicA-376,172.172.1.1:1883,1551656153800,PRODUCED
Publisher_001,topicA,topicA-377,172.172.1.1:1883,1551656153900,PRODUCED
Publisher_001,topicA,topicA-378,172.172.1.1:1883,1551656154001,PRODUCED
Publisher_001,topicA,topicA-379,172.172.1.1:1883,1551656154102,PRODUCED
Publisher_001,topicA,topicA-380,172.172.1.1:1883,1551656154201,PRODUCED
Publisher_001,topicA,topicA-381,172.172.1.1:1883,1551656154300,PRODUCED
Publisher_001,topicA,topicA-382,172.172.1.1:1883,1551656154405,PRODUCED
Publisher_001,topicA,topicA-383,172.172.1.1:1883,1551656154503,PRODUCED
Publisher_001,topicA,topicA-384,172.172.1.1:1883,1551656154601,PRODUCED
Publisher_001,topicA,topicA-385,172.172.1.1:1883,1551656154700,PRODUCED
Publisher_001,topicA,topicA-386,172.172.1.1:1883,1551656154801,PRODUCED
Publisher_001,topicA,topicA-387,172.172.1.1:1883,1551656154900,PRODUCED
Publisher_001,topicA,topicA-388,172.172.1.1:1883,1551656155000,PRODUCED
Publisher_001,topicA,topicA-389,172.172.1.1:1883,1551656155100,PRODUCED
Publisher_001,topicA,topicA-390,172.172.1.1:1883,1551656155201,PRODUCED
Publisher_001,topicA,topicA-391,172.172.1.1:1883,1551656155301,PRODUCED
Publisher_001,topicA,topicA-392,172.172.1.1:1883,1551656155401,PRODUCED
Publisher_001,topicA,topicA-393,172.172.1.1:1883,1551656155500,PRODUCED
Publisher_001,topicA,topicA-394,172.172.1.1:1883,1551656155601,PRODUCED
Publisher_001,topicA,topicA-395,172.172.1.1:1883,1551656155701,PRODUCED
Publisher_001,topicA,topicA-396,172.172.1.1:1883,1551656155800,PRODUCED
Publisher_001,topicA,topicA-397,172.172.1.1:1883,1551656155900,PRODUCED
Publisher_001,topicA,topicA-398,172.172.1.1:1883,1551656156002,PRODUCED
Publisher_001,topicA,topicA-399,172.172.1.1:1883,1551656156101,PRODUCED
Publisher_001,topicA,topicA-400,172.172.1.1:1883,1551656156200,PRODUCED
Publisher_001,topicA,topicA-401,172.172.1.1:1883,1551656156301,PRODUCED
Publisher_001,topicA,topicA-402,172.172.1.1:1883,1551656156400,PRODUCED
Publisher_001,topicA,topicA-403,172.172.1.1:1883,1551656156500,PRODUCED
Publisher_001,topicA,topicA-404,172.172.1.1:1883,1551656156601,PRODUCED
Publisher_001,topicA,topicA-405,172.172.1.1:1883,1551656156700,PRODUCED
Publisher_001,topicA,topicA-406,172.172.1.1:1883,1551656156800,PRODUCED
Publisher_001,topicA,topicA-407,172.172.1.1:1883,1551656156901,PRODUCED
Publisher_001,topicA,topicA-408,172.172.1.1:1883,1551656157001,PRODUCED
Publisher_001,topicA,topicA-409,172.172.1.1:1883,1551656157101,PRODUCED
Publisher_001,topicA,topicA-410,172.172.1.1:1883,1551656157200,PRODUCED
Publisher_001,topicA,topicA-411,172.172.1.1:1883,1551656157300,PRODUCED
Publisher_001,topicA,topicA-412,172.172.1.1:1883,1551656157400,PRODUCED
Publisher_001,topicA,topicA-413,172.172.1.1:1883,1551656157500,PRODUCED
Publisher_001,topicA,topicA-414,172.172.1.1:1883,1551656157600,PRODUCED
Publisher_001,topicA,topicA-415,172.172.1.1:1883,1551656157700,PRODUCED
Publisher_001,topicA,topicA-416,172.172.1.1:1883,1551656157800,PRODUCED
Publisher_001,topicA,topicA-417,172.172.1.1:1883,1551656157900,PRODUCED
Publisher_001,topicA,topicA-418,172.172.1.1:1883,1551656158000,PRODUCED
Publisher_001,topicA,topicA-419,172.172.1.1:1883,1551656158100,PRODUCED
Publisher_001,topicA,topicA-420,172.172.1.1:1883,1551656158200,PRODUCED
Publisher_001,topicA,topicA-421,172.172.1.1:1883,1551656158300,PRODUCED
Publisher_001,topicA,topicA-422,172.172.1.1:1883,1551656158400,PRODUCED
Publisher_001,topicA,topicA-423,172.172.1.1:1883,1551656158500,PRODUCED
Publisher_001,topicA,topicA-424,172.172.1.1:1883,1551656158600,PRODUCED
Publisher_001,topicA,topicA-425,172.172.1.1:1883,1551656158700,PRODUCED
Publisher_001,topicA,topicA-426,172.172.1.1:1883,1551656158800,PRODUCED
Publisher_001,topicA,topicA-427,172.172.1.1:1883,1551656158901,PRODUCED
Publisher_001,topicA,topicA-428,172.172.1.1:1883,1551656159000,PRODUCED
Publisher_001,topicA,topicA-429,172.172.1.1:1883,1551656159101,PRODUCED
Publisher_001,topicA,topicA-430,172.172.1.1:1883,1551656159200,PRODUCED
Publisher_001,topicA,topicA-431,172.172.1.1:1883,1551656159300,PRODUCED
Publisher_001,topicA,topicA-432,172.172.1.1:1883,1551656159400,PRODUCED
Publisher_001,topicA,topicA-433,172.172.1.1:1883,1551656159500,PRODUCED
Publisher_001,topicA,topicA-434,172.172.1.1:1883,1551656159600,PRODUCED
Publisher_001,topicA,topicA-435,172.172.1.1:1883,1551656159700,PRODUCED
Publisher_001,topicA,topicA-436,172.172.1.1:1883,1551656159800,PRODUCED
Publisher_001,topicA,topicA-437,172.172.1.1:1883,1551656159900,PRODUCED
Publisher_001,topicA,topicA-438,172.172.1.1:1883,1551656160000,PRODUCED
Publisher_001,topicA,topicA-439,172.172.1.1:1883,1551656160101,PRODUCED
Publisher_001,topicA,topicA-440,172.172.1.1:1883,1551656160200,PRODUCED
Publisher_001,topicA,topicA-441,172.172.1.1:1883,1551656160300,PRODUCED
Publisher_001,topicA,topicA-442,172.172.1.1:1883,1551656160400,PRODUCED
Publisher_001,topicA,topicA-443,172.172.1.1:1883,1551656160501,PRODUCED
Publisher_001,topicA,topicA-444,172.172.1.1:1883,1551656160603,PRODUCED
Publisher_001,topicA,topicA-445,172.172.1.1:1883,1551656160700,PRODUCED
Publisher_001,topicA,topicA-446,172.172.1.1:1883,1551656160800,PRODUCED
Publisher_001,topicA,topicA-447,172.172.1.1:1883,1551656160901,PRODUCED
Publisher_001,topicA,topicA-448,172.172.1.1:1883,1551656161000,PRODUCED
Publisher_001,topicA,topicA-449,172.172.1.1:1883,1551656161100,PRODUCED
Publisher_001,topicA,topicA-450,172.172.1.1:1883,1551656161203,PRODUCED
Publisher_001,topicA,topicA-451,172.172.1.1:1883,1551656161300,PRODUCED
Publisher_001,topicA,topicA-452,172.172.1.1:1883,1551656161401,PRODUCED
Publisher_001,topicA,topicA-453,172.172.1.1:1883,1551656161501,PRODUCED
Publisher_001,topicA,topicA-454,172.172.1.1:1883,1551656161601,PRODUCED
Publisher_001,topicA,topicA-455,172.172.1.1:1883,1551656161701,PRODUCED
Publisher_001,topicA,topicA-456,172.172.1.1:1883,1551656161801,PRODUCED
Publisher_001,topicA,topicA-457,172.172.1.1:1883,1551656161900,PRODUCED
Publisher_001,topicA,topicA-458,172.172.1.1:1883,1551656162001,PRODUCED
Publisher_001,topicA,topicA-459,172.172.1.1:1883,1551656162100,PRODUCED
Publisher_001,topicA,topicA-460,172.172.1.1:1883,1551656162200,PRODUCED
Publisher_001,topicA,topicA-461,172.172.1.1:1883,1551656162300,PRODUCED
Publisher_001,topicA,topicA-462,172.172.1.1:1883,1551656162400,PRODUCED
Publisher_001,topicA,topicA-463,172.172.1.1:1883,1551656162500,PRODUCED
Publisher_001,topicA,topicA-464,172.172.1.1:1883,1551656162600,PRODUCED
Publisher_001,topicA,topicA-465,172.172.1.1:1883,1551656162700,PRODUCED
Publisher_001,topicA,topicA-466,172.172.1.1:1883,1551656162800,PRODUCED
Publisher_001,topicA,topicA-467,172.172.1.1:1883,1551656162900,PRODUCED
Publisher_001,topicA,topicA-468,172.172.1.1:1883,1551656163000,PRODUCED
Publisher_001,topicA,topicA-469,172.172.1.1:1883,1551656163103,PRODUCED
Publisher_001,topicA,topicA-470,172.172.1.1:1883,1551656163203,PRODUCED
Publisher_001,topicA,topicA-471,172.172.1.1:1883,1551656163301,PRODUCED
Publisher_001,topicA,topicA-472,172.172.1.1:1883,1551656163400,PRODUCED
Publisher_001,topicA,topicA-473,172.172.1.1:1883,1551656163500,PRODUCED
Publisher_001,topicA,topicA-474,172.172.1.1:1883,1551656163600,PRODUCED
Publisher_001,topicA,topicA-475,172.172.1.1:1883,1551656163700,PRODUCED
Publisher_001,topicA,topicA-476,172.172.1.1:1883,1551656163800,PRODUCED
Publisher_001,topicA,topicA-477,172.172.1.1:1883,1551656163900,PRODUCED
Publisher_001,topicA,topicA-478,172.172.1.1:1883,1551656164000,PRODUCED
Publisher_001,topicA,topicA-479,172.172.1.1:1883,1551656164100,PRODUCED
Publisher_001,topicA,topicA-480,172.172.1.1:1883,1551656164200,PRODUCED
Publisher_001,topicA,topicA-481,172.172.1.1:1883,1551656164300,PRODUCED
Publisher_001,topicA,topicA-482,172.172.1.1:1883,1551656164400,PRODUCED
Publisher_001,topicA,topicA-483,172.172.1.1:1883,1551656164500,PRODUCED
Publisher_001,topicA,topicA-484,172.172.1.1:1883,1551656164600,PRODUCED
Publisher_001,topicA,topicA-485,172.172.1.1:1883,1551656164700,PRODUCED
Publisher_001,topicA,topicA-486,172.172.1.1:1883,1551656164803,PRODUCED
Publisher_001,topicA,topicA-487,172.172.1.1:1883,1551656164901,PRODUCED
Publisher_001,topicA,topicA-488,172.172.1.1:1883,1551656165000,PRODUCED
Publisher_001,topicA,topicA-489,172.172.1.1:1883,1551656165100,PRODUCED
Publisher_001,topicA,topicA-490,172.172.1.1:1883,1551656165200,PRODUCED
Publisher_001,topicA,topicA-491,172.172.1.1:1883,1551656165303,PRODUCED
Publisher_001,topicA,topicA-492,172.172.1.1:1883,1551656165403,PRODUCED
Publisher_001,topicA,topicA-493,172.172.1.1:1883,1551656165502,PRODUCED
Publisher_001,topicA,topicA-494,172.172.1.1:1883,1551656165603,PRODUCED
Publisher_001,topicA,topicA-495,172.172.1.1:1883,1551656165705,PRODUCED
Publisher_001,topicA,topicA-496,172.172.1.1:1883,1551656165801,PRODUCED
Publisher_001,topicA,topicA-497,172.172.1.1:1883,1551656165900,PRODUCED
Publisher_001,topicA,topicA-498,172.172.1.1:1883,1551656166003,PRODUCED
Publisher_001,topicA,topicA-499,172.172.1.1:1883,1551656166100,PRODUCED
Publisher_001,topicA,topicA-500,172.172.1.1:1883,1551656166200,PRODUCED
Publisher_001,topicA,topicA-501,172.172.1.1:1883,1551656166301,PRODUCED
Publisher_001,topicA,topicA-502,172.172.1.1:1883,1551656166400,PRODUCED
Publisher_001,topicA,topicA-503,172.172.1.1:1883,1551656166501,PRODUCED
Publisher_001,topicA,topicA-504,172.172.1.1:1883,1551656166604,PRODUCED
Publisher_001,topicA,topicA-505,172.172.1.1:1883,1551656166701,PRODUCED
Publisher_001,topicA,topicA-506,172.172.1.1:1883,1551656166800,PRODUCED
Publisher_001,topicA,topicA-507,172.172.1.1:1883,1551656166901,PRODUCED
Publisher_001,topicA,topicA-508,172.172.1.1:1883,1551656167000,PRODUCED
Publisher_001,topicA,topicA-509,172.172.1.1:1883,1551656167100,PRODUCED
Publisher_001,topicA,topicA-510,172.172.1.1:1883,1551656167201,PRODUCED
Publisher_001,topicA,topicA-511,172.172.1.1:1883,1551656167300,PRODUCED
Publisher_001,topicA,topicA-512,172.172.1.1:1883,1551656167400,PRODUCED
Publisher_001,topicA,topicA-513,172.172.1.1:1883,1551656167501,PRODUCED
Publisher_001,topicA,topicA-514,172.172.1.1:1883,1551656167600,PRODUCED
Publisher_001,topicA,topicA-515,172.172.1.1:1883,1551656167700,PRODUCED
Publisher_001,topicA,topicA-516,172.172.1.1:1883,1551656167800,PRODUCED
Publisher_001,topicA,topicA-517,172.172.1.1:1883,1551656167903,PRODUCED
Publisher_001,topicA,topicA-518,172.172.1.1:1883,1551656168001,PRODUCED
Publisher_001,topicA,topicA-519,172.172.1.1:1883,1551656168100,PRODUCED
Publisher_001,topicA,topicA-520,172.172.1.1:1883,1551656168201,PRODUCED
Publisher_001,topicA,topicA-521,172.172.1.1:1883,1551656168300,PRODUCED
Publisher_001,topicA,topicA-522,172.172.1.1:1883,1551656168405,PRODUCED
Publisher_001,topicA,topicA-523,172.172.1.1:1883,1551656168501,PRODUCED
Publisher_001,topicA,topicA-524,172.172.1.1:1883,1551656168600,PRODUCED
Publisher_001,topicA,topicA-525,172.172.1.1:1883,1551656168700,PRODUCED
Publisher_001,topicA,topicA-526,172.172.1.1:1883,1551656168800,PRODUCED
Publisher_001,topicA,topicA-527,172.172.1.1:1883,1551656168900,PRODUCED
Publisher_001,topicA,topicA-528,172.172.1.1:1883,1551656169000,PRODUCED
Publisher_001,topicA,topicA-529,172.172.1.1:1883,1551656169100,PRODUCED
Publisher_001,topicA,topicA-530,172.172.1.1:1883,1551656169200,PRODUCED
Publisher_001,topicA,topicA-531,172.172.1.1:1883,1551656169300,PRODUCED
Publisher_001,topicA,topicA-532,172.172.1.1:1883,1551656169400,PRODUCED
Publisher_001,topicA,topicA-533,172.172.1.1:1883,1551656169501,PRODUCED
Publisher_001,topicA,topicA-534,172.172.1.1:1883,1551656169600,PRODUCED
Publisher_001,topicA,topicA-535,172.172.1.1:1883,1551656169702,PRODUCED
Publisher_001,topicA,topicA-536,172.172.1.1:1883,1551656169800,PRODUCED
Publisher_001,topicA,topicA-537,172.172.1.1:1883,1551656169901,PRODUCED
Publisher_001,topicA,topicA-538,172.172.1.1:1883,1551656170001,PRODUCED
Publisher_001,topicA,topicA-539,172.172.1.1:1883,1551656170100,PRODUCED
Publisher_001,topicA,topicA-540,172.172.1.1:1883,1551656170201,PRODUCED
Publisher_001,topicA,topicA-541,172.172.1.1:1883,1551656170300,PRODUCED
Publisher_001,topicA,topicA-542,172.172.1.1:1883,1551656170400,PRODUCED
Publisher_001,topicA,topicA-543,172.172.1.1:1883,1551656170500,PRODUCED
Publisher_001,topicA,topicA-544,172.172.1.1:1883,1551656170602,PRODUCED
Publisher_001,topicA,topicA-545,172.172.1.1:1883,1551656170701,PRODUCED
Publisher_001,topicA,topicA-546,172.172.1.1:1883,1551656170800,PRODUCED
Publisher_001,topicA,topicA-547,172.172.1.1:1883,1551656170902,PRODUCED
Publisher_001,topicA,topicA-548,172.172.1.1:1883,1551656171000,PRODUCED
Publisher_001,topicA,topicA-549,172.172.1.1:1883,1551656171100,PRODUCED
Publisher_001,topicA,topicA-550,172.172.1.1:1883,1551656171200,PRODUCED
Publisher_001,topicA,topicA-551,172.172.1.1:1883,1551656171301,PRODUCED
Publisher_001,topicA,topicA-552,172.172.1.1:1883,1551656171400,PRODUCED
Publisher_001,topicA,topicA-553,172.172.1.1:1883,1551656171501,PRODUCED
Publisher_001,topicA,topicA-554,172.172.1.1:1883,1551656171601,PRODUCED
Publisher_001,topicA,topicA-555,172.172.1.1:1883,1551656171701,PRODUCED
Publisher_001,topicA,topicA-556,172.172.1.1:1883,1551656171800,PRODUCED
Publisher_001,topicA,topicA-557,172.172.1.1:1883,1551656171900,PRODUCED
Publisher_001,topicA,topicA-558,172.172.1.1:1883,1551656172000,PRODUCED
Publisher_001,topicA,topicA-559,172.172.1.1:1883,1551656172100,PRODUCED
Publisher_001,topicA,topicA-560,172.172.1.1:1883,1551656172200,PRODUCED
Publisher_001,topicA,topicA-561,172.172.1.1:1883,1551656172300,PRODUCED
Publisher_001,topicA,topicA-562,172.172.1.1:1883,1551656172400,PRODUCED
Publisher_001,topicA,topicA-563,172.172.1.1:1883,1551656172500,PRODUCED
Publisher_001,topicA,topicA-564,172.172.1.1:1883,1551656172600,PRODUCED
Publisher_001,topicA,topicA-565,172.172.1.1:1883,1551656172703,PRODUCED
Publisher_001,topicA,topicA-566,172.172.1.1:1883,1551656172801,PRODUCED
Publisher_001,topicA,topicA-567,172.172.1.1:1883,1551656172900,PRODUCED
Publisher_001,topicA,topicA-568,172.172.1.1:1883,1551656173003,PRODUCED
Publisher_001,topicA,topicA-569,172.172.1.1:1883,1551656173100,PRODUCED
Publisher_001,topicA,topicA-570,172.172.1.1:1883,1551656173200,PRODUCED
Publisher_001,topicA,topicA-571,172.172.1.1:1883,1551656173300,PRODUCED
Publisher_001,topicA,topicA-572,172.172.1.1:1883,1551656173400,PRODUCED
Publisher_001,topicA,topicA-573,172.172.1.1:1883,1551656173500,PRODUCED
Publisher_001,topicA,topicA-574,172.172.1.1:1883,1551656173600,PRODUCED
Publisher_001,topicA,topicA-575,172.172.1.1:1883,1551656173700,PRODUCED
Publisher_001,topicA,topicA-576,172.172.1.1:1883,1551656173800,PRODUCED
Publisher_001,topicA,topicA-577,172.172.1.1:1883,1551656173900,PRODUCED
Publisher_001,topicA,topicA-578,172.172.1.1:1883,1551656174000,PRODUCED
Publisher_001,topicA,topicA-579,172.172.1.1:1883,1551656174100,PRODUCED
Publisher_001,topicA,topicA-580,172.172.1.1:1883,1551656174200,PRODUCED
Publisher_001,topicA,topicA-581,172.172.1.1:1883,1551656174301,PRODUCED
Publisher_001,topicA,topicA-582,172.172.1.1:1883,1551656174400,PRODUCED
Publisher_001,topicA,topicA-583,172.172.1.1:1883,1551656174500,PRODUCED
Publisher_001,topicA,topicA-584,172.172.1.1:1883,1551656174600,PRODUCED
Publisher_001,topicA,topicA-585,172.172.1.1:1883,1551656174700,PRODUCED
Publisher_001,topicA,topicA-586,172.172.1.1:1883,1551656174800,PRODUCED
Publisher_001,topicA,topicA-587,172.172.1.1:1883,1551656174900,PRODUCED
Publisher_001,topicA,topicA-588,172.172.1.1:1883,1551656175000,PRODUCED
Publisher_001,topicA,topicA-589,172.172.1.1:1883,1551656175100,PRODUCED
Publisher_001,topicA,topicA-590,172.172.1.1:1883,1551656175200,PRODUCED
Publisher_001,topicA,topicA-591,172.172.1.1:1883,1551656175301,PRODUCED
Publisher_001,topicA,topicA-592,172.172.1.1:1883,1551656175400,PRODUCED
Publisher_001,topicA,topicA-593,172.172.1.1:1883,1551656175500,PRODUCED
Publisher_001,topicA,topicA-594,172.172.1.1:1883,1551656175601,PRODUCED
Publisher_001,topicA,topicA-595,172.172.1.1:1883,1551656175700,PRODUCED
Publisher_001,topicA,topicA-596,172.172.1.1:1883,1551656175800,PRODUCED
Publisher_001,topicA,topicA-597,172.172.1.1:1883,1551656175901,PRODUCED
Publisher_001,topicA,topicA-598,172.172.1.1:1883,1551656176001,PRODUCED
Publisher_001,topicA,topicA-599,172.172.1.1:1883,1551656176100,PRODUCED
Publisher_001,topicA,topicA-600,172.172.1.1:1883,1551656176200,PRODUCED
Publisher_001,topicA,topicA-601,172.172.1.1:1883,1551656176300,PRODUCED
Publisher_001,topicA,topicA-602,172.172.1.1:1883,1551656176401,PRODUCED
Publisher_001,topicA,topicA-603,172.172.1.1:1883,1551656176500,PRODUCED
Publisher_001,topicA,topicA-604,172.172.1.1:1883,1551656176600,PRODUCED
Publisher_001,topicA,topicA-605,172.172.1.1:1883,1551656176700,PRODUCED
Publisher_001,topicA,topicA-606,172.172.1.1:1883,1551656176801,PRODUCED
Publisher_001,topicA,topicA-607,172.172.1.1:1883,1551656176900,PRODUCED
Publisher_001,topicA,topicA-608,172.172.1.1:1883,1551656177001,PRODUCED
Publisher_001,topicA,topicA-609,172.172.1.1:1883,1551656177100,PRODUCED
Publisher_001,topicA,topicA-610,172.172.1.1:1883,1551656177201,PRODUCED
Publisher_001,topicA,topicA-611,172.172.1.1:1883,1551656177301,PRODUCED
Publisher_001,topicA,topicA-612,172.172.1.1:1883,1551656177400,PRODUCED
Publisher_001,topicA,topicA-613,172.172.1.1:1883,1551656177501,PRODUCED
Publisher_001,topicA,topicA-614,172.172.1.1:1883,1551656177600,PRODUCED
Publisher_001,topicA,topicA-615,172.172.1.1:1883,1551656177700,PRODUCED
Publisher_001,topicA,topicA-616,172.172.1.1:1883,1551656177800,PRODUCED
Publisher_001,topicA,topicA-617,172.172.1.1:1883,1551656177900,PRODUCED
Publisher_001,topicA,topicA-618,172.172.1.1:1883,1551656178000,PRODUCED
Publisher_001,topicA,topicA-619,172.172.1.1:1883,1551656178100,PRODUCED
Publisher_001,topicA,topicA-620,172.172.1.1:1883,1551656178201,PRODUCED
Publisher_001,topicA,topicA-621,172.172.1.1:1883,1551656178300,PRODUCED
Publisher_001,topicA,topicA-622,172.172.1.1:1883,1551656178400,PRODUCED
Publisher_001,topicA,topicA-623,172.172.1.1:1883,1551656178504,PRODUCED
Publisher_001,topicA,topicA-624,172.172.1.1:1883,1551656178600,PRODUCED
Publisher_001,topicA,topicA-625,172.172.1.1:1883,1551656178701,PRODUCED
Publisher_001,topicA,topicA-626,172.172.1.1:1883,1551656178801,PRODUCED
Publisher_001,topicA,topicA-627,172.172.1.1:1883,1551656178900,PRODUCED
Publisher_001,topicA,topicA-628,172.172.1.1:1883,1551656179002,PRODUCED
Publisher_001,topicA,topicA-629,172.172.1.1:1883,1551656179101,PRODUCED
Publisher_001,topicA,topicA-630,172.172.1.1:1883,1551656179200,PRODUCED
Publisher_001,topicA,topicA-631,172.172.1.1:1883,1551656179301,PRODUCED
Publisher_001,topicA,topicA-632,172.172.1.1:1883,1551656179401,PRODUCED
Publisher_001,topicA,topicA-633,172.172.1.1:1883,1551656179501,PRODUCED
Publisher_001,topicA,topicA-634,172.172.1.1:1883,1551656179601,PRODUCED
Publisher_001,topicA,topicA-635,172.172.1.1:1883,1551656179700,PRODUCED
Publisher_001,topicA,topicA-636,172.172.1.1:1883,1551656179800,PRODUCED
Publisher_001,topicA,topicA-637,172.172.1.1:1883,1551656179900,PRODUCED
Publisher_001,topicA,topicA-638,172.172.1.1:1883,1551656180000,PRODUCED
Publisher_001,topicA,topicA-639,172.172.1.1:1883,1551656180101,PRODUCED
Publisher_001,topicA,topicA-640,172.172.1.1:1883,1551656180200,PRODUCED
Publisher_001,topicA,topicA-641,172.172.1.1:1883,1551656180301,PRODUCED
Publisher_001,topicA,topicA-642,172.172.1.1:1883,1551656180404,PRODUCED
Publisher_001,topicA,topicA-643,172.172.1.1:1883,1551656180500,PRODUCED
Publisher_001,topicA,topicA-644,172.172.1.1:1883,1551656180601,PRODUCED
Publisher_001,topicA,topicA-645,172.172.1.1:1883,1551656180707,PRODUCED
Publisher_001,topicA,topicA-646,172.172.1.1:1883,1551656180802,PRODUCED
Publisher_001,topicA,topicA-647,172.172.1.1:1883,1551656180901,PRODUCED
Publisher_001,topicA,topicA-648,172.172.1.1:1883,1551656181000,PRODUCED
Publisher_001,topicA,topicA-649,172.172.1.1:1883,1551656181100,PRODUCED
Publisher_001,topicA,topicA-650,172.172.1.1:1883,1551656181200,PRODUCED
Publisher_001,topicA,topicA-651,172.172.1.1:1883,1551656181300,PRODUCED
Publisher_001,topicA,topicA-652,172.172.1.1:1883,1551656181400,PRODUCED
Publisher_001,topicA,topicA-653,172.172.1.1:1883,1551656181501,PRODUCED
Publisher_001,topicA,topicA-654,172.172.1.1:1883,1551656181604,PRODUCED
Publisher_001,topicA,topicA-655,172.172.1.1:1883,1551656181700,PRODUCED
Publisher_001,topicA,topicA-656,172.172.1.1:1883,1551656181800,PRODUCED
Publisher_001,topicA,topicA-657,172.172.1.1:1883,1551656181900,PRODUCED
Publisher_001,topicA,topicA-658,172.172.1.1:1883,1551656182000,PRODUCED
Publisher_001,topicA,topicA-659,172.172.1.1:1883,1551656182100,PRODUCED
Publisher_001,topicA,topicA-660,172.172.1.1:1883,1551656182200,PRODUCED
Publisher_001,topicA,topicA-661,172.172.1.1:1883,1551656182300,PRODUCED
Publisher_001,topicA,topicA-662,172.172.1.1:1883,1551656182400,PRODUCED
Publisher_001,topicA,topicA-663,172.172.1.1:1883,1551656182504,PRODUCED
