clientId,topic,guid,broker,timestamp,type
Subscriber_001,topicA,topicA-54,172.172.1.1:1883,1551656121883,RECEIVED
Subscriber_001,topicA,topicA-55,172.172.1.1:1883,1551656121885,RECEIVED
Subscriber_001,topicA,topicA-56,172.172.1.1:1883,1551656121886,RECEIVED
Subscriber_001,topicA,topicA-57,172.172.1.1:1883,1551656121950,RECEIVED
Subscriber_001,topicA,topicA-58,172.172.1.1:1883,1551656122045,RECEIVED
Subscriber_001,topicA,topicA-59,172.172.1.1:1883,1551656122148,RECEIVED
Subscriber_001,topicA,topicA-60,172.172.1.1:1883,1551656122266,RECEIVED
Subscriber_001,topicA,topicA-61,172.172.1.1:1883,1551656122364,RECEIVED
Subscriber_001,topicA,topicA-62,172.172.1.1:1883,1551656122449,RECEIVED
Subscriber_001,topicA,topicA-63,172.172.1.1:1883,1551656122554,RECEIVED
Subscriber_001,topicA,topicA-64,172.172.1.1:1883,1551656122655,RECEIVED
Subscriber_001,topicA,topicA-65,172.172.1.1:1883,1551656122752,RECEIVED
Subscriber_001,topicA,topicA-66,172.172.1.1:1883,1551656122855,RECEIVED
Subscriber_001,topicA,topicA-67,172.172.1.1:1883,1551656122955,RECEIVED
Subscriber_001,topicA,topicA-68,172.172.1.1:1883,1551656123045,RECEIVED
Subscriber_001,topicA,topicA-69,172.172.1.1:1883,1551656123153,RECEIVED
Subscriber_001,topicA,topicA-70,172.172.1.1:1883,1551656123248,RECEIVED
Subscriber_001,topicA,topicA-71,172.172.1.1:1883,1551656123350,RECEIVED
Subscriber_001,topicA,topicA-72,172.172.1.1:1883,1551656123455,RECEIVED
Subscriber_001,topicA,topicA-73,172.172.1.1:1883,1551656123555,RECEIVED
Subscriber_001,topicA,topicA-74,172.172.1.1:1883,1551656123654,RECEIVED
Subscriber_001,topicA,topicA-75,172.172.1.1:1883,1551656123746,RECEIVED
Subscriber_001,topicA,topicA-76,172.172.1.1:1883,1551656123854,RECEIVED
Subscriber_001,topicA,topicA-77,172.172.1.1:1883,1551656123957,RECEIVED
Subscriber_001,topicA,topicA-78,172.172.1.1:1883,1551656124047,RECEIVED
Subscriber_001,topicA,topicA-79,172.172.1.1:1883,1551656124147,RECEIVED
Subscriber_001,topicA,topicA-80,172.172.1.1:1883,1551656124247,RECEIVED
Subscriber_001,topicA,topicA-81,172.172.1.1:1883,1551656124348,RECEIVED
Subscriber_001,topicA,topicA-82,172.172.1.1:1883,1551656124455,RECEIVED
Subscriber_001,topicA,topicA-83,172.172.1.1:1883,1551656124558,RECEIVED
Subscriber_001,topicA,topicA-84,172.172.1.1:1883,1551656124644,RECEIVED
Subscriber_001,topicA,topicA-85,172.172.1.1:1883,1551656124752,RECEIVED
Subscriber_001,topicA,topicA-86,172.172.1.1:1883,1551656124848,RECEIVED
Subscriber_001,topicA,topicA-87,172.172.1.1:1883,1551656124944,RECEIVED
Subscriber_001,topicA,topicA-88,172.172.1.1:1883,1551656125051,RECEIVED
Subscriber_001,topicA,topicA-89,172.172.1.1:1883,1551656125151,RECEIVED
Subscriber_001,topicA,topicA-90,172.172.1.1:1883,1551656125244,RECEIVED
Subscriber_001,topicA,topicA-91,172.172.1.1:1883,1551656125348,RECEIVED
Subscriber_001,topicA,topicA-92,172.172.1.1:1883,1551656125444,RECEIVED
Subscriber_001,topicA,topicA-93,172.172.1.1:1883,1551656125554,RECEIVED
Subscriber_001,topicA,topicA-94,172.172.1.1:1883,1551656125650,RECEIVED
Subscriber_001,topicA,topicA-95,172.172.1.1:1883,1551656125754,RECEIVED
Subscriber_001,topicA,topicA-96,172.172.1.1:1883,1551656125846,RECEIVED
Subscriber_001,topicA,topicA-97,172.172.1.1:1883,1551656125961,RECEIVED
Subscriber_001,topicA,topicA-98,172.172.1.1:1883,1551656126062,RECEIVED
Subscriber_001,topicA,topicA-99,172.172.1.1:1883,1551656126153,RECEIVED
Subscriber_001,topicA,topicA-100,172.172.1.1:1883,1551656126251,RECEIVED
Subscriber_001,topicA,topicA-101,172.172.1.1:1883,1551656126350,RECEIVED
Subscriber_001,topicA,topicA-102,172.172.1.1:1883,1551656126457,RECEIVED
Subscriber_001,topicA,topicA-103,172.172.1.1:1883,1551656126554,RECEIVED
Subscriber_001,topicA,topicA-104,172.172.1.1:1883,1551656126655,RECEIVED
Subscriber_001,topicA,topicA-105,172.172.1.1:1883,1551656126748,RECEIVED
Subscriber_001,topicA,topicA-106,172.172.1.1:1883,1551656126863,RECEIVED
Subscriber_001,topicA,topicA-107,172.172.1.1:1883,1551656126957,RECEIVED
Subscriber_001,topicA,topicA-108,172.172.1.1:1883,1551656127055,RECEIVED
Subscriber_001,topicA,topicA-109,172.172.1.1:1883,1551656127161,RECEIVED
Subscriber_001,topicA,topicA-110,172.172.1.1:1883,1551656127258,RECEIVED
Subscriber_001,topicA,topicA-111,172.172.1.1:1883,1551656127364,RECEIVED
Subscriber_001,topicA,topicA-112,172.172.1.1:1883,1551656127460,RECEIVED
Subscriber_001,topicA,topicA-113,172.172.1.1:1883,1551656127554,RECEIVED
Subscriber_001,topicA,topicA-114,172.172.1.1:1883,1551656127660,RECEIVED
Subscriber_001,topicA,topicA-115,172.172.1.1:1883,1551656127761,RECEIVED
Subscriber_001,topicA,topicA-116,172.172.1.1:1883,1551656127860,RECEIVED
Subscriber_001,topicA,topicA-117,172.172.1.1:1883,1551656127968,RECEIVED
Subscriber_001,topicA,topicA-118,172.172.1.1:1883,1551656128055,RECEIVED
Subscriber_001,topicA,topicA-119,172.172.1.1:1883,1551656128153,RECEIVED
Subscriber_001,topicA,topicA-120,172.172.1.1:1883,1551656128246,RECEIVED
Subscriber_001,topicA,topicA-121,172.172.1.1:1883,1551656128348,RECEIVED
Subscriber_001,topicA,topicA-122,172.172.1.1:1883,1551656128443,RECEIVED
Subscriber_001,topicA,topicA-123,172.172.1.1:1883,1551656128545,RECEIVED
Subscriber_001,topicA,topicA-124,172.172.1.1:1883,1551656128643,RECEIVED
Subscriber_001,topicA,topicA-125,172.172.1.1:1883,1551656128756,RECEIVED
Subscriber_001,topicA,topicA-126,172.172.1.1:1883,1551656128853,RECEIVED
Subscriber_001,topicA,topicA-127,172.172.1.1:1883,1551656128957,RECEIVED
Subscriber_001,topicA,topicA-128,172.172.1.1:1883,1551656129068,RECEIVED
Subscriber_001,topicA,topicA-129,172.172.1.1:1883,1551656129149,RECEIVED
Subscriber_001,topicA,topicA-130,172.172.1.1:1883,1551656129250,RECEIVED
Subscriber_001,topicA,topicA-131,172.172.1.1:1883,1551656129361,RECEIVED
Subscriber_001,topicA,topicA-132,172.172.1.1:1883,1551656129453,RECEIVED
Subscriber_001,topicA,topicA-133,172.172.1.1:1883,1551656129550,RECEIVED
Subscriber_001,topicA,topicA-134,172.172.1.1:1883,1551656129652,RECEIVED
Subscriber_001,topicA,topicA-135,172.172.1.1:1883,1551656129749,RECEIVED
Subscriber_001,topicA,topicA-136,172.172.1.1:1883,1551656129857,RECEIVED
Subscriber_001,topicA,topicA-137,172.172.1.1:1883,1551656129961,RECEIVED
Subscriber_001,topicA,topicA-138,172.172.1.1:1883,1551656130049,RECEIVED
Subscriber_001,topicA,topicA-139,172.172.1.1:1883,1551656130149,RECEIVED
Subscriber_001,topicA,topicA-140,172.172.1.1:1883,1551656130251,RECEIVED
Subscriber_001,topicA,topicA-141,172.172.1.1:1883,1551656130347,RECEIVED
Subscriber_001,topicA,topicA-142,172.172.1.1:1883,1551656130449,RECEIVED
Subscriber_001,topicA,topicA-143,172.172.1.1:1883,1551656130548,RECEIVED
Subscriber_001,topicA,topicA-144,172.172.1.1:1883,1551656130645,RECEIVED
Subscriber_001,topicA,topicA-145,172.172.1.1:1883,1551656130755,RECEIVED
Subscriber_001,topicA,topicA-146,172.172.1.1:1883,1551656130851,RECEIVED
Subscriber_001,topicA,topicA-147,172.172.1.1:1883,1551656130946,RECEIVED
Subscriber_001,topicA,topicA-148,172.172.1.1:1883,1551656131047,RECEIVED
Subscriber_001,topicA,topicA-149,172.172.1.1:1883,1551656131154,RECEIVED
Subscriber_001,topicA,topicA-150,172.172.1.1:1883,1551656131252,RECEIVED
Subscriber_001,topicA,topicA-151,172.172.1.1:1883,1551656131350,RECEIVED
Subscriber_001,topicA,topicA-152,172.172.1.1:1883,1551656131457,RECEIVED
Subscriber_001,topicA,topicA-153,172.172.1.1:1883,1551656131548,RECEIVED
Subscriber_001,topicA,topicA-154,172.172.1.1:1883,1551656131663,RECEIVED
Subscriber_001,topicA,topicA-155,172.172.1.1:1883,1551656131758,RECEIVED
Subscriber_001,topicA,topicA-156,172.172.1.1:1883,1551656131856,RECEIVED
Subscriber_001,topicA,topicA-157,172.172.1.1:1883,1551656131961,RECEIVED
Subscriber_001,topicA,topicA-158,172.172.1.1:1883,1551656132058,RECEIVED
Subscriber_001,topicA,topicA-159,172.172.1.1:1883,1551656132143,RECEIVED
Subscriber_001,topicA,topicA-160,172.172.1.1:1883,1551656132245,RECEIVED
Subscriber_001,topicA,topicA-161,172.172.1.1:1883,1551656132346,RECEIVED
Subscriber_001,topicA,topicA-162,172.172.1.1:1883,1551656132459,RECEIVED
Subscriber_001,topicA,topicA-163,172.172.1.1:1883,1551656132549,RECEIVED
Subscriber_001,topicA,topicA-164,172.172.1.1:1883,1551656132640,RECEIVED
Subscriber_001,topicA,topicA-165,172.172.1.1:1883,1551656132739,RECEIVED
Subscriber_001,topicA,topicA-166,172.172.1.1:1883,1551656132843,RECEIVED
Subscriber_001,topicA,topicA-167,172.172.1.1:1883,1551656132948,RECEIVED
Subscriber_001,topicA,topicA-168,172.172.1.1:1883,1551656133051,RECEIVED
Subscriber_001,topicA,topicA-169,172.172.1.1:1883,1551656133147,RECEIVED
Subscriber_001,topicA,topicA-170,172.172.1.1:1883,1551656133245,RECEIVED
Subscriber_001,topicA,topicA-171,172.172.1.1:1883,1551656133354,RECEIVED
Subscriber_001,topicA,topicA-172,172.172.1.1:1883,1551656133457,RECEIVED
Subscriber_001,topicA,topicA-173,172.172.1.1:1883,1551656133548,RECEIVED
Subscriber_001,topicA,topicA-174,172.172.1.1:1883,1551656133660,RECEIVED
Subscriber_001,topicA,topicA-175,172.172.1.1:1883,1551656133745,RECEIVED
Subscriber_001,topicA,topicA-176,172.172.1.1:1883,1551656133848,RECEIVED
Subscriber_001,topicA,topicA-177,172.172.1.1:1883,1551656133953,RECEIVED
Subscriber_001,topicA,topicA-178,172.172.1.1:1883,1551656134060,RECEIVED
Subscriber_001,topicA,topicA-179,172.172.1.1:1883,1551656134149,RECEIVED
Subscriber_001,topicA,topicA-180,172.172.1.1:1883,1551656134248,RECEIVED
Subscriber_001,topicA,topicA-181,172.172.1.1:1883,1551656134364,RECEIVED
Subscriber_001,topicA,topicA-182,172.172.1.1:1883,1551656134453,RECEIVED
Subscriber_001,topicA,topicA-183,172.172.1.1:1883,1551656134555,RECEIVED
Subscriber_001,topicA,topicA-184,172.172.1.1:1883,1551656134664,RECEIVED
Subscriber_001,topicA,topicA-185,172.172.1.1:1883,1551656134749,RECEIVED
Subscriber_001,topicA,topicA-186,172.172.1.1:1883,1551656134846,RECEIVED
Subscriber_001,topicA,topicA-187,172.172.1.1:1883,1551656134960,RECEIVED
Subscriber_001,topicA,topicA-188,172.172.1.1:1883,1551656135067,RECEIVED
Subscriber_001,topicA,topicA-189,172.172.1.1:1883,1551656135145,RECEIVED
Subscriber_001,topicA,topicA-190,172.172.1.1:1883,1551656135249,RECEIVED
Subscriber_001,topicA,topicA-191,172.172.1.1:1883,1551656135360,RECEIVED
Subscriber_001,topicA,topicA-192,172.172.1.1:1883,1551656135446,RECEIVED
Subscriber_001,topicA,topicA-193,172.172.1.1:1883,1551656135545,RECEIVED
Subscriber_001,topicA,topicA-194,172.172.1.1:1883,1551656135644,RECEIVED
Subscriber_001,topicA,topicA-195,172.172.1.1:1883,1551656135749,RECEIVED
Subscriber_001,topicA,topicA-196,172.172.1.1:1883,1551656135848,RECEIVED
Subscriber_001,topicA,topicA-197,172.172.1.1:1883,1551656135944,RECEIVED
Subscriber_001,topicA,topicA-198,172.172.1.1:1883,1551656136056,RECEIVED
Subscriber_001,topicA,topicA-199,172.172.1.1:1883,1551656136161,RECEIVED
Subscriber_001,topicA,topicA-200,172.172.1.1:1883,1551656136245,RECEIVED
Subscriber_001,topicA,topicA-201,172.172.1.1:1883,1551656136355,RECEIVED
Subscriber_001,topicA,topicA-202,172.172.1.1:1883,1551656136450,RECEIVED
Subscriber_001,topicA,topicA-203,172.172.1.1:1883,1551656136550,RECEIVED
Subscriber_001,topicA,topicA-204,172.172.1.1:1883,1551656136646,RECEIVED
Subscriber_001,topicA,topicA-205,172.172.1.1:1883,1551656136743,RECEIVED
Subscriber_001,topicA,topicA-206,172.172.1.1:1883,1551656136844,RECEIVED
Subscriber_001,topicA,topicA-207,172.172.1.1:1883,1551656136946,RECEIVED
Subscriber_001,topicA,topicA-208,172.172.1.1:1883,1551656137042,RECEIVED
Subscriber_001,topicA,topicA-209,172.172.1.1:1883,1551656137160,RECEIVED
Subscriber_001,topicA,topicA-210,172.172.1.1:1883,1551656137244,RECEIVED
Subscriber_001,topicA,topicA-211,172.172.1.1:1883,1551656137363,RECEIVED
Subscriber_001,topicA,topicA-212,172.172.1.1:1883,1551656137449,RECEIVED
Subscriber_001,topicA,topicA-213,172.172.1.1:1883,1551656137544,RECEIVED
Subscriber_001,topicA,topicA-214,172.172.1.1:1883,1551656137654,RECEIVED
Subscriber_001,topicA,topicA-215,172.172.1.1:1883,1551656137754,RECEIVED
Subscriber_001,topicA,topicA-216,172.172.1.1:1883,1551656137843,RECEIVED
Subscriber_001,topicA,topicA-217,172.172.1.1:1883,1551656137952,RECEIVED
Subscriber_001,topicA,topicA-218,172.172.1.1:1883,1551656138057,RECEIVED
Subscriber_001,topicA,topicA-219,172.172.1.1:1883,1551656138156,RECEIVED
Subscriber_001,topicA,topicA-220,172.172.1.1:1883,1551656138249,RECEIVED
Subscriber_001,topicA,topicA-221,172.172.1.1:1883,1551656138344,RECEIVED
Subscriber_001,topicA,topicA-222,172.172.1.1:1883,1551656138454,RECEIVED
Subscriber_001,topicA,topicA-223,172.172.1.1:1883,1551656138547,RECEIVED
Subscriber_001,topicA,topicA-224,172.172.1.1:1883,1551656138650,RECEIVED
Subscriber_001,topicA,topicA-225,172.172.1.1:1883,1551656138750,RECEIVED
Subscriber_001,topicA,topicA-226,172.172.1.1:1883,1551656138852,RECEIVED
Subscriber_001,topicA,topicA-227,172.172.1.1:1883,1551656138953,RECEIVED
Subscriber_001,topicA,topicA-228,172.172.1.1:1883,1551656139062,RECEIVED
Subscriber_001,topicA,topicA-229,172.172.1.1:1883,1551656139156,RECEIVED
Subscriber_001,topicA,topicA-230,172.172.1.1:1883,1551656139252,RECEIVED
Subscriber_001,topicA,topicA-231,172.172.1.1:1883,1551656139342,RECEIVED
Subscriber_001,topicA,topicA-232,172.172.1.1:1883,1551656139450,RECEIVED
Subscriber_001,topicA,topicA-233,172.172.1.1:1883,1551656139554,RECEIVED
Subscriber_001,topicA,topicA-234,172.172.1.1:1883,1551656139649,RECEIVED
Subscriber_001,topicA,topicA-235,172.172.1.1:1883,1551656139745,RECEIVED
Subscriber_001,topicA,topicA-236,172.172.1.1:1883,1551656139843,RECEIVED
Subscriber_001,topicA,topicA-237,172.172.1.1:1883,1551656139941,RECEIVED
Subscriber_001,topicA,topicA-238,172.172.1.1:1883,1551656140042,RECEIVED
Subscriber_001,topicA,topicA-239,172.172.1.1:1883,1551656140143,RECEIVED
Subscriber_001,topicA,topicA-240,172.172.1.1:1883,1551656140255,RECEIVED
Subscriber_001,topicA,topicA-241,172.172.1.1:1883,1551656140344,RECEIVED
Subscriber_001,topicA,topicA-242,172.172.1.1:1883,1551656140444,RECEIVED
Subscriber_001,topicA,topicA-243,172.172.1.1:1883,1551656140548,RECEIVED
Subscriber_001,topicA,topicA-244,172.172.1.1:1883,1551656140643,RECEIVED
Subscriber_001,topicA,topicA-245,172.172.1.1:1883,1551656140759,RECEIVED
Subscriber_001,topicA,topicA-246,172.172.1.1:1883,1551656140847,RECEIVED
Subscriber_001,topicA,topicA-247,172.172.1.1:1883,1551656140952,RECEIVED
Subscriber_001,topicA,topicA-248,172.172.1.1:1883,1551656141065,RECEIVED
Subscriber_001,topicA,topicA-249,172.172.1.2:1883,1551656143096,RECEIVED
Subscriber_001,topicA,topicA-250,172.172.1.2:1883,1551656143200,RECEIVED
Subscriber_001,topicA,topicA-251,172.172.1.2:1883,1551656143304,RECEIVED
Subscriber_001,topicA,topicA-252,172.172.1.2:1883,1551656143403,RECEIVED
Subscriber_001,topicA,topicA-253,172.172.1.2:1883,1551656143508,RECEIVED
Subscriber_001,topicA,topicA-254,172.172.1.2:1883,1551656143608,RECEIVED
Subscriber_001,topicA,topicA-255,172.172.1.2:1883,1551656143700,RECEIVED
Subscriber_001,topicA,topicA-256,172.172.1.2:1883,1551656143799,RECEIVED
Subscriber_001,topicA,topicA-257,172.172.1.2:1883,1551656143902,RECEIVED
Subscriber_001,topicA,topicA-258,172.172.1.2:1883,1551656143991,RECEIVED
Subscriber_001,topicA,topicA-259,172.172.1.2:1883,1551656144095,RECEIVED
Subscriber_001,topicA,topicA-260,172.172.1.2:1883,1551656144196,RECEIVED
Subscriber_001,topicA,topicA-261,172.172.1.2:1883,1551656144296,RECEIVED
Subscriber_001,topicA,topicA-262,172.172.1.2:1883,1551656144398,RECEIVED
Subscriber_001,topicA,topicA-263,172.172.1.2:1883,1551656144500,RECEIVED
Subscriber_001,topicA,topicA-264,172.172.1.2:1883,1551656144592,RECEIVED
Subscriber_001,topicA,topicA-265,172.172.1.2:1883,1551656144700,RECEIVED
Subscriber_001,topicA,topicA-266,172.172.1.2:1883,1551656144799,RECEIVED
Subscriber_001,topicA,topicA-267,172.172.1.2:1883,1551656144901,RECEIVED
Subscriber_001,topicA,topicA-268,172.172.1.2:1883,1551656145003,RECEIVED
Subscriber_001,topicA,topicA-269,172.172.1.2:1883,1551656145108,RECEIVED
Subscriber_001,topicA,topicA-270,172.172.1.2:1883,1551656145209,RECEIVED
Subscriber_001,topicA,topicA-271,172.172.1.2:1883,1551656145297,RECEIVED
Subscriber_001,topicA,topicA-272,172.172.1.2:1883,1551656145399,RECEIVED
Subscriber_001,topicA,topicA-273,172.172.1.2:1883,1551656145495,RECEIVED
Subscriber_001,topicA,topicA-274,172.172.1.2:1883,1551656145603,RECEIVED
Subscriber_001,topicA,topicA-275,172.172.1.2:1883,1551656145708,RECEIVED
Subscriber_001,topicA,topicA-276,172.172.1.2:1883,1551656145801,RECEIVED
Subscriber_001,topicA,topicA-277,172.172.1.2:1883,1551656145894,RECEIVED
Subscriber_001,topicA,topicA-278,172.172.1.2:1883,1551656146005,RECEIVED
Subscriber_001,topicA,topicA-279,172.172.1.2:1883,1551656146108,RECEIVED
Subscriber_001,topicA,topicA-280,172.172.1.2:1883,1551656146201,RECEIVED
Subscriber_001,topicA,topicA-281,172.172.1.2:1883,1551656146300,RECEIVED
Subscriber_001,topicA,topicA-282,172.172.1.2:1883,1551656146404,RECEIVED
Subscriber_001,topicA,topicA-283,172.172.1.2:1883,1551656146499,RECEIVED
Subscriber_001,topicA,topicA-284,172.172.1.2:1883,1551656146591,RECEIVED
Subscriber_001,topicA,topicA-285,172.172.1.2:1883,1551656146707,RECEIVED
Subscriber_001,topicA,topicA-286,172.172.1.2:1883,1551656146799,RECEIVED
Subscriber_001,topicA,topicA-287,172.172.1.2:1883,1551656146905,RECEIVED
Subscriber_001,topicA,topicA-288,172.172.1.2:1883,1551656147004,RECEIVED
Subscriber_001,topicA,topicA-289,172.172.1.2:1883,1551656147104,RECEIVED
Subscriber_001,topicA,topicA-290,172.172.1.2:1883,1551656147207,RECEIVED
Subscriber_001,topicA,topicA-291,172.172.1.2:1883,1551656147307,RECEIVED
Subscriber_001,topicA,topicA-292,172.172.1.2:1883,1551656147401,RECEIVED
Subscriber_001,topicA,topicA-293,172.172.1.2:1883,1551656147502,RECEIVED
Subscriber_001,topicA,topicA-294,172.172.1.2:1883,1551656147608,RECEIVED
Subscriber_001,topicA,topicA-295,172.172.1.2:1883,1551656147699,RECEIVED
Subscriber_001,topicA,topicA-296,172.172.1.2:1883,1551656147796,RECEIVED
Subscriber_001,topicA,topicA-297,172.172.1.2:1883,1551656147898,RECEIVED
Subscriber_001,topicA,topicA-298,172.172.1.2:1883,1551656147997,RECEIVED
Subscriber_001,topicA,topicA-299,172.172.1.2:1883,1551656148106,RECEIVED
Subscriber_001,topicA,topicA-300,172.172.1.2:1883,1551656148193,RECEIVED
Subscriber_001,topicA,topicA-301,172.172.1.2:1883,1551656148301,RECEIVED
Subscriber_001,topicA,topicA-302,172.172.1.2:1883,1551656148390,RECEIVED
Subscriber_001,topicA,topicA-303,172.172.1.2:1883,1551656148496,RECEIVED
Subscriber_001,topicA,topicA-304,172.172.1.2:1883,1551656148593,RECEIVED
Subscriber_001,topicA,topicA-305,172.172.1.2:1883,1551656148701,RECEIVED
Subscriber_001,topicA,topicA-306,172.172.1.2:1883,1551656148803,RECEIVED
Subscriber_001,topicA,topicA-307,172.172.1.2:1883,1551656148893,RECEIVED
Subscriber_001,topicA,topicA-308,172.172.1.2:1883,1551656148995,RECEIVED
Subscriber_001,topicA,topicA-309,172.172.1.2:1883,1551656149096,RECEIVED
Subscriber_001,topicA,topicA-310,172.172.1.2:1883,1551656149191,RECEIVED
Subscriber_001,topicA,topicA-311,172.172.1.2:1883,1551656149302,RECEIVED
Subscriber_001,topicA,topicA-312,172.172.1.2:1883,1551656149402,RECEIVED
Subscriber_001,topicA,topicA-313,172.172.1.2:1883,1551656149504,RECEIVED
Subscriber_001,topicA,topicA-314,172.172.1.2:1883,1551656149604,RECEIVED
Subscriber_001,topicA,topicA-315,172.172.1.2:1883,1551656149692,RECEIVED
Subscriber_001,topicA,topicA-316,172.172.1.2:1883,1551656149809,RECEIVED
Subscriber_001,topicA,topicA-317,172.172.1.2:1883,1551656149920,RECEIVED
Subscriber_001,topicA,topicA-318,172.172.1.2:1883,1551656150009,RECEIVED
Subscriber_001,topicA,topicA-319,172.172.1.2:1883,1551656150104,RECEIVED
Subscriber_001,topicA,topicA-320,172.172.1.2:1883,1551656150214,RECEIVED
Subscriber_001,topicA,topicA-321,172.172.1.2:1883,1551656150300,RECEIVED
Subscriber_001,topicA,topicA-322,172.172.1.2:1883,1551656150406,RECEIVED
Subscriber_001,topicA,topicA-323,172.172.1.2:1883,1551656150500,RECEIVED
Subscriber_001,topicA,topicA-324,172.172.1.2:1883,1551656150603,RECEIVED
Subscriber_001,topicA,topicA-325,172.172.1.2:1883,1551656150703,RECEIVED
Subscriber_001,topicA,topicA-326,172.172.1.2:1883,1551656150797,RECEIVED
Subscriber_001,topicA,topicA-327,172.172.1.2:1883,1551656150898,RECEIVED
Subscriber_001,topicA,topicA-328,172.172.1.2:1883,1551656150993,RECEIVED
Subscriber_001,topicA,topicA-329,172.172.1.2:1883,1551656151091,RECEIVED
Subscriber_001,topicA,topicA-330,172.172.1.2:1883,1551656151197,RECEIVED
Subscriber_001,topicA,topicA-331,172.172.1.2:1883,1551656151294,RECEIVED
Subscriber_001,topicA,topicA-332,172.172.1.2:1883,1551656151403,RECEIVED
Subscriber_001,topicA,topicA-333,172.172.1.2:1883,1551656151496,RECEIVED
Subscriber_001,topicA,topicA-334,172.172.1.2:1883,1551656151595,RECEIVED
Subscriber_001,topicA,topicA-335,172.172.1.2:1883,1551656151707,RECEIVED
Subscriber_001,topicA,topicA-336,172.172.1.2:1883,1551656151799,RECEIVED
Subscriber_001,topicA,topicA-337,172.172.1.2:1883,1551656151899,RECEIVED
Subscriber_001,topicA,topicA-338,172.172.1.2:1883,1551656152023,RECEIVED
Subscriber_001,topicA,topicA-339,172.172.1.2:1883,1551656152101,RECEIVED
Subscriber_001,topicA,topicA-340,172.172.1.2:1883,1551656152190,RECEIVED
Subscriber_001,topicA,topicA-341,172.172.1.2:1883,1551656152300,RECEIVED
Subscriber_001,topicA,topicA-342,172.172.1.2:1883,1551656152401,RECEIVED
Subscriber_001,topicA,topicA-343,172.172.1.2:1883,1551656152494,RECEIVED
Subscriber_001,topicA,topicA-344,172.172.1.2:1883,1551656152615,RECEIVED
Subscriber_001,topicA,topicA-345,172.172.1.2:1883,1551656152708,RECEIVED
Subscriber_001,topicA,topicA-346,172.172.1.2:1883,1551656152798,RECEIVED
Subscriber_001,topicA,topicA-347,172.172.1.2:1883,1551656152907,RECEIVED
Subscriber_001,topicA,topicA-348,172.172.1.2:1883,1551656153006,RECEIVED
Subscriber_001,topicA,topicA-349,172.172.1.2:1883,1551656153106,RECEIVED
Subscriber_001,topicA,topicA-350,172.172.1.2:1883,1551656153199,RECEIVED
Subscriber_001,topicA,topicA-351,172.172.1.2:1883,1551656153306,RECEIVED
Subscriber_001,topicA,topicA-352,172.172.1.2:1883,1551656153402,RECEIVED
Subscriber_001,topicA,topicA-353,172.172.1.2:1883,1551656153499,RECEIVED
Subscriber_001,topicA,topicA-354,172.172.1.2:1883,1551656153591,RECEIVED
Subscriber_001,topicA,topicA-355,172.172.1.2:1883,1551656153689,RECEIVED
Subscriber_001,topicA,topicA-356,172.172.1.2:1883,1551656153800,RECEIVED
Subscriber_001,topicA,topicA-357,172.172.1.2:1883,1551656153901,RECEIVED
Subscriber_001,topicA,topicA-358,172.172.1.2:1883,1551656154002,RECEIVED
Subscriber_001,topicA,topicA-359,172.172.1.2:1883,1551656154104,RECEIVED
Subscriber_001,topicA,topicA-360,172.172.1.2:1883,1551656154201,RECEIVED
Subscriber_001,topicA,topicA-361,172.172.1.2:1883,1551656154296,RECEIVED
Subscriber_001,topicA,topicA-362,172.172.1.2:1883,1551656154398,RECEIVED
Subscriber_001,topicA,topicA-363,172.172.1.2:1883,1551656154503,RECEIVED
Subscriber_001,topicA,topicA-364,172.172.1.2:1883,1551656154604,RECEIVED
Subscriber_001,topicA,topicA-365,172.172.1.2:1883,1551656154698,RECEIVED
Subscriber_001,topicA,topicA-366,172.172.1.2:1883,1551656154807,RECEIVED
Subscriber_001,topicA,topicA-367,172.172.1.2:1883,1551656154906,RECEIVED
Subscriber_001,topicA,topicA-368,172.172.1.2:1883,1551656155005,RECEIVED
Subscriber_001,topicA,topicA-369,172.172.1.2:1883,1551656155099,RECEIVED
Subscriber_001,topicA,topicA-370,172.172.1.2:1883,1551656155210,RECEIVED
Subscriber_001,topicA,topicA-371,172.172.1.2:1883,1551656155302,RECEIVED
Subscriber_001,topicA,topicA-372,172.172.1.2:1883,1551656155411,RECEIVED
Subscriber_001,topicA,topicA-373,172.172.1.2:1883,1551656155504,RECEIVED
Subscriber_001,topicA,topicA-374,172.172.1.2:1883,1551656155603,RECEIVED
Subscriber_001,topicA,topicA-375,172.172.1.2:1883,1551656155691,RECEIVED
Subscriber_001,topicA,topicA-376,172.172.1.2:1883,1551656155815,RECEIVED
Subscriber_001,topicA,topicA-377,172.172.1.2:1883,1551656155903,RECEIVED
Subscriber_001,topicA,topicA-378,172.172.1.2:1883,1551656156004,RECEIVED
Subscriber_001,topicA,topicA-379,172.172.1.2:1883,1551656156098,RECEIVED
Subscriber_001,topicA,topicA-380,172.172.1.2:1883,1551656156208,RECEIVED
Subscriber_001,topicA,topicA-381,172.172.1.2:1883,1551656156303,RECEIVED
Subscriber_001,topicA,topicA-382,172.172.1.2:1883,1551656156415,RECEIVED
Subscriber_001,topicA,topicA-383,172.172.1.2:1883,1551656156502,RECEIVED
Subscriber_001,topicA,topicA-384,172.172.1.2:1883,1551656156601,RECEIVED
Subscriber_001,topicA,topicA-385,172.172.1.2:1883,1551656156695,RECEIVED
Subscriber_001,topicA,topicA-386,172.172.1.2:1883,1551656156794,RECEIVED
Subscriber_001,topicA,topicA-387,172.172.1.2:1883,1551656156902,RECEIVED
Subscriber_001,topicA,topicA-388,172.172.1.2:1883,1551656157005,RECEIVED
Subscriber_001,topicA,topicA-389,172.172.1.2:1883,1551656157101,RECEIVED
Subscriber_001,topicA,topicA-390,172.172.1.2:1883,1551656157201,RECEIVED
Subscriber_001,topicA,topicA-391,172.172.1.2:1883,1551656157299,RECEIVED
Subscriber_001,topicA,topicA-392,172.172.1.2:1883,1551656157401,RECEIVED
Subscriber_001,topicA,topicA-393,172.172.1.2:1883,1551656157499,RECEIVED
Subscriber_001,topicA,topicA-394,172.172.1.2:1883,1551656157595,RECEIVED
Subscriber_001,topicA,topicA-395,172.172.1.2:1883,1551656157695,RECEIVED
Subscriber_001,topicA,topicA-396,172.172.1.2:1883,1551656157791,RECEIVED
Subscriber_001,topicA,topicA-397,172.172.1.2:1883,1551656157895,RECEIVED
Subscriber_001,topicA,topicA-398,172.172.1.2:1883,1551656157990,RECEIVED
Subscriber_001,topicA,topicA-399,172.172.1.2:1883,1551656158094,RECEIVED
Subscriber_001,topicA,topicA-400,172.172.1.2:1883,1551656158191,RECEIVED
Subscriber_001,topicA,topicA-401,172.172.1.2:1883,1551656158298,RECEIVED
Subscriber_001,topicA,topicA-402,172.172.1.2:1883,1551656158391,RECEIVED
Subscriber_001,topicA,topicA-403,172.172.1.2:1883,1551656158502,RECEIVED
Subscriber_001,topicA,topicA-404,172.172.1.2:1883,1551656158588,RECEIVED
Subscriber_001,topicA,topicA-405,172.172.1.2:1883,1551656158698,RECEIVED
Subscriber_001,topicA,topicA-406,172.172.1.2:1883,1551656158794,RECEIVED
Subscriber_001,topicA,topicA-407,172.172.1.2:1883,1551656158902,RECEIVED
Subscriber_001,topicA,topicA-408,172.172.1.2:1883,1551656158993,RECEIVED
Subscriber_001,topicA,topicA-409,172.172.1.2:1883,1551656159096,RECEIVED
Subscriber_001,topicA,topicA-410,172.172.1.2:1883,1551656159201,RECEIVED
Subscriber_001,topicA,topicA-411,172.172.1.2:1883,1551656159303,RECEIVED
Subscriber_001,topicA,topicA-412,172.172.1.2:1883,1551656159398,RECEIVED
Subscriber_001,topicA,topicA-413,172.172.1.2:1883,1551656159497,RECEIVED
Subscriber_001,topicA,topicA-414,172.172.1.2:1883,1551656159589,RECEIVED
Subscriber_001,topicA,topicA-415,172.172.1.2:1883,1551656159692,RECEIVED
Subscriber_001,topicA,topicA-416,172.172.1.2:1883,1551656159794,RECEIVED
Subscriber_001,topicA,topicA-417,172.172.1.2:1883,1551656159893,RECEIVED
Subscriber_001,topicA,topicA-418,172.172.1.2:1883,1551656160003,RECEIVED
Subscriber_001,topicA,topicA-419,172.172.1.2:1883,1551656160093,RECEIVED
Subscriber_001,topicA,topicA-420,172.172.1.2:1883,1551656160204,RECEIVED
Subscriber_001,topicA,topicA-421,172.172.1.2:1883,1551656160299,RECEIVED
Subscriber_001,topicA,topicA-422,172.172.1.2:1883,1551656160402,RECEIVED
Subscriber_001,topicA,topicA-423,172.172.1.2:1883,1551656160502,RECEIVED
Subscriber_001,topicA,topicA-424,172.172.1.2:1883,1551656160604,RECEIVED
Subscriber_001,topicA,topicA-425,172.172.1.2:1883,1551656160700,RECEIVED
Subscriber_001,topicA,topicA-426,172.172.1.2:1883,1551656160801,RECEIVED
Subscriber_001,topicA,topicA-427,172.172.1.2:1883,1551656160897,RECEIVED
Subscriber_001,topicA,topicA-428,172.172.1.2:1883,1551656161001,RECEIVED
Subscriber_001,topicA,topicA-429,172.172.1.2:1883,1551656161092,RECEIVED
Subscriber_001,topicA,topicA-430,172.172.1.2:1883,1551656161190,RECEIVED
Subscriber_001,topicA,topicA-431,172.172.1.2:1883,1551656161295,RECEIVED
Subscriber_001,topicA,topicA-432,172.172.1.2:1883,1551656161391,RECEIVED
Subscriber_001,topicA,topicA-433,172.172.1.2:1883,1551656161499,RECEIVED
Subscriber_001,topicA,topicA-434,172.172.1.2:1883,1551656161607,RECEIVED
Subscriber_001,topicA,topicA-435,172.172.1.2:1883,1551656161704,RECEIVED
Subscriber_001,topicA,topicA-436,172.172.1.2:1883,1551656161803,RECEIVED
Subscriber_001,topicA,topicA-437,172.172.1.2:1883,1551656161910,RECEIVED
Subscriber_001,topicA,topicA-438,172.172.1.2:1883,1551656161994,RECEIVED
Subscriber_001,topicA,topicA-439,172.172.1.2:1883,1551656162099,RECEIVED
Subscriber_001,topicA,topicA-440,172.172.1.2:1883,1551656162199,RECEIVED
Subscriber_001,topicA,topicA-441,172.172.1.2:1883,1551656162290,RECEIVED
Subscriber_001,topicA,topicA-442,172.172.1.2:1883,1551656162396,RECEIVED
Subscriber_001,topicA,topicA-443,172.172.1.2:1883,1551656162496,RECEIVED
Subscriber_001,topicA,topicA-444,172.172.1.2:1883,1551656162591,RECEIVED
Subscriber_001,topicA,topicA-445,172.172.1.2:1883,1551656162694,RECEIVED
Subscriber_001,topicA,topicA-446,172.172.1.2:1883,1551656162797,RECEIVED
Subscriber_001,topicA,topicA-447,172.172.1.2:1883,1551656162908,RECEIVED
Subscriber_001,topicA,topicA-448,172.172.1.2:1883,1551656162999,RECEIVED
Subscriber_001,topicA,topicA-449,172.172.1.2:1883,1551656163098,RECEIVED
Subscriber_001,topicA,topicA-450,172.172.1.2:1883,1551656163202,RECEIVED
Subscriber_001,topicA,topicA-451,172.172.1.2:1883,1551656163301,RECEIVED
Subscriber_001,topicA,topicA-452,172.172.1.2:1883,1551656163398,RECEIVED
Subscriber_001,topicA,topicA-453,172.172.1.2:1883,1551656163493,RECEIVED
Subscriber_001,topicA,topicA-454,172.172.1.2:1883,1551656163594,RECEIVED
Subscriber_001,topicA,topicA-455,172.172.1.2:1883,1551656163691,RECEIVED
Subscriber_001,topicA,topicA-456,172.172.1.2:1883,1551656163798,RECEIVED
Subscriber_001,topicA,topicA-457,172.172.1.2:1883,1551656163899,RECEIVED
Subscriber_001,topicA,topicA-458,172.172.1.2:1883,1551656164005,RECEIVED
Subscriber_001,topicA,topicA-459,172.172.1.2:1883,1551656164099,RECEIVED
Subscriber_001,topicA,topicA-460,172.172.1.2:1883,1551656164200,RECEIVED
Subscriber_001,topicA,topicA-461,172.172.1.2:1883,1551656164298,RECEIVED
Subscriber_001,topicA,topicA-462,172.172.1.2:1883,1551656164392,RECEIVED
Subscriber_001,topicA,topicA-463,172.172.1.2:1883,1551656164493,RECEIVED
Subscriber_001,topicA,topicA-464,172.172.1.2:1883,1551656164601,RECEIVED
Subscriber_001,topicA,topicA-465,172.172.1.2:1883,1551656164699,RECEIVED
Subscriber_001,topicA,topicA-466,172.172.1.2:1883,1551656164791,RECEIVED
Subscriber_001,topicA,topicA-467,172.172.1.2:1883,1551656164891,RECEIVED
Subscriber_001,topicA,topicA-468,172.172.1.2:1883,1551656165002,RECEIVED
Subscriber_001,topicA,topicA-469,172.172.1.2:1883,1551656165097,RECEIVED
Subscriber_001,topicA,topicA-470,172.172.1.2:1883,1551656165193,RECEIVED
Subscriber_001,topicA,topicA-471,172.172.1.2:1883,1551656165294,RECEIVED
Subscriber_001,topicA,topicA-472,172.172.1.2:1883,1551656165391,RECEIVED
Subscriber_001,topicA,topicA-473,172.172.1.2:1883,1551656165488,RECEIVED
Subscriber_001,topicA,topicA-474,172.172.1.2:1883,1551656165592,RECEIVED
Subscriber_001,topicA,topicA-475,172.172.1.2:1883,1551656165706,RECEIVED
Subscriber_001,topicA,topicA-476,172.172.1.2:1883,1551656165805,RECEIVED
Subscriber_001,topicA,topicA-477,172.172.1.2:1883,1551656165898,RECEIVED
Subscriber_001,topicA,topicA-478,172.172.1.2:1883,1551656165994,RECEIVED
Subscriber_001,topicA,topicA-479,172.172.1.2:1883,1551656166098,RECEIVED
Subscriber_001,topicA,topicA-480,172.172.1.2:1883,1551656166194,RECEIVED
Subscriber_001,topicA,topicA-481,172.172.1.2:1883,1551656166296,RECEIVED
Subscriber_001,topicA,topicA-482,172.172.1.2:1883,1551656166401,RECEIVED
Subscriber_001,topicA,topicA-483,172.172.1.2:1883,1551656166503,RECEIVED
Subscriber_001,topicA,topicA-484,172.172.1.2:1883,1551656166597,RECEIVED
Subscriber_001,topicA,topicA-485,172.172.1.2:1883,1551656166701,RECEIVED
Subscriber_001,topicA,topicA-486,172.172.1.2:1883,1551656166801,RECEIVED
Subscriber_001,topicA,topicA-487,172.172.1.2:1883,1551656166911,RECEIVED
Subscriber_001,topicA,topicA-488,172.172.1.2:1883,1551656167011,RECEIVED
Subscriber_001,topicA,topicA-489,172.172.1.2:1883,1551656167093,RECEIVED
Subscriber_001,topicA,topicA-490,172.172.1.2:1883,1551656167203,RECEIVED
Subscriber_001,topicA,topicA-491,172.172.1.2:1883,1551656167300,RECEIVED
Subscriber_001,topicA,topicA-492,172.172.1.2:1883,1551656167405,RECEIVED
Subscriber_001,topicA,topicA-493,172.172.1.2:1883,1551656167496,RECEIVED
Subscriber_001,topicA,topicA-494,172.172.1.2:1883,1551656167592,RECEIVED
Subscriber_001,topicA,topicA-495,172.172.1.2:1883,1551656167696,RECEIVED
Subscriber_001,topicA,topicA-496,172.172.1.2:1883,1551656167799,RECEIVED
Subscriber_001,topicA,topicA-497,172.172.1.2:1883,1551656167896,RECEIVED
Subscriber_001,topicA,topicA-498,172.172.1.2:1883,1551656168001,RECEIVED
Subscriber_001,topicA,topicA-499,172.172.1.2:1883,1551656168101,RECEIVED
Subscriber_001,topicA,topicA-500,172.172.1.2:1883,1551656168201,RECEIVED
Subscriber_001,topicA,topicA-501,172.172.1.2:1883,1551656168301,RECEIVED
Subscriber_001,topicA,topicA-502,172.172.1.2:1883,1551656168408,RECEIVED
Subscriber_001,topicA,topicA-503,172.172.1.2:1883,1551656168491,RECEIVED
Subscriber_001,topicA,topicA-504,172.172.1.2:1883,1551656168598,RECEIVED
Subscriber_001,topicA,topicA-505,172.172.1.2:1883,1551656168696,RECEIVED
Subscriber_001,topicA,topicA-506,172.172.1.2:1883,1551656168794,RECEIVED
Subscriber_001,topicA,topicA-507,172.172.1.2:1883,1551656168889,RECEIVED
Subscriber_001,topicA,topicA-508,172.172.1.2:1883,1551656168990,RECEIVED
Subscriber_001,topicA,topicA-509,172.172.1.2:1883,1551656169096,RECEIVED
Subscriber_001,topicA,topicA-510,172.172.1.2:1883,1551656169190,RECEIVED
Subscriber_001,topicA,topicA-511,172.172.1.2:1883,1551656169296,RECEIVED
Subscriber_001,topicA,topicA-512,172.172.1.2:1883,1551656169415,RECEIVED
Subscriber_001,topicA,topicA-513,172.172.1.2:1883,1551656169491,RECEIVED
Subscriber_001,topicA,topicA-514,172.172.1.2:1883,1551656169597,RECEIVED
Subscriber_001,topicA,topicA-515,172.172.1.2:1883,1551656169693,RECEIVED
Subscriber_001,topicA,topicA-516,172.172.1.2:1883,1551656169792,RECEIVED
Subscriber_001,topicA,topicA-517,172.172.1.2:1883,1551656169902,RECEIVED
Subscriber_001,topicA,topicA-518,172.172.1.2:1883,1551656170000,RECEIVED
Subscriber_001,topicA,topicA-519,172.172.1.2:1883,1551656170103,RECEIVED
Subscriber_001,topicA,topicA-520,172.172.1.2:1883,1551656170193,RECEIVED
Subscriber_001,topicA,topicA-521,172.172.1.2:1883,1551656170293,RECEIVED
Subscriber_001,topicA,topicA-522,172.172.1.2:1883,1551656170396,RECEIVED
Subscriber_001,topicA,topicA-523,172.172.1.2:1883,1551656170493,RECEIVED
Subscriber_001,topicA,topicA-524,172.172.1.2:1883,1551656170597,RECEIVED
Subscriber_001,topicA,topicA-525,172.172.1.2:1883,1551656170692,RECEIVED
Subscriber_001,topicA,topicA-526,172.172.1.2:1883,1551656170798,RECEIVED
Subscriber_001,topicA,topicA-527,172.172.1.2:1883,1551656170894,RECEIVED
Subscriber_001,topicA,topicA-528,172.172.1.2:1883,1551656170992,RECEIVED
Subscriber_001,topicA,topicA-529,172.172.1.2:1883,1551656171099,RECEIVED
Subscriber_001,topicA,topicA-530,172.172.1.2:1883,1551656171190,RECEIVED
Subscriber_001,topicA,topicA-531,172.172.1.2:1883,1551656171300,RECEIVED
Subscriber_001,topicA,topicA-532,172.172.1.2:1883,1551656171401,RECEIVED
Subscriber_001,topicA,topicA-533,172.172.1.2:1883,1551656171498,RECEIVED
Subscriber_001,topicA,topicA-534,172.172.1.2:1883,1551656171601,RECEIVED
Subscriber_001,topicA,topicA-535,172.172.1.2:1883,1551656171703,RECEIVED
Subscriber_001,topicA,topicA-536,172.172.1.2:1883,1551656171800,RECEIVED
Subscriber_001,topicA,topicA-537,172.172.1.2:1883,1551656171924,RECEIVED
Subscriber_001,topicA,topicA-538,172.172.1.2:1883,1551656171992,RECEIVED
Subscriber_001,topicA,topicA-539,172.172.1.2:1883,1551656172100,RECEIVED
Subscriber_001,topicA,topicA-540,172.172.1.2:1883,1551656172191,RECEIVED
Subscriber_001,topicA,topicA-541,172.172.1.2:1883,1551656172298,RECEIVED
Subscriber_001,topicA,topicA-542,172.172.1.2:1883,1551656172390,RECEIVED
Subscriber_001,topicA,topicA-543,172.172.1.2:1883,1551656172490,RECEIVED
Subscriber_001,topicA,topicA-544,172.172.1.2:1883,1551656172593,RECEIVED
Subscriber_001,topicA,topicA-545,172.172.1.2:1883,1551656172693,RECEIVED
Subscriber_001,topicA,topicA-546,172.172.1.2:1883,1551656172795,RECEIVED
Subscriber_001,topicA,topicA-547,172.172.1.2:1883,1551656172891,RECEIVED
Subscriber_001,topicA,topicA-548,172.172.1.2:1883,1551656172994,RECEIVED
Subscriber_001,topicA,topicA-549,172.172.1.2:1883,1551656173090,RECEIVED
Subscriber_001,topicA,topicA-550,172.172.1.2:1883,1551656173198,RECEIVED
Subscriber_001,topicA,topicA-551,172.172.1.2:1883,1551656173298,RECEIVED
Subscriber_001,topicA,topicA-552,172.172.1.2:1883,1551656173389,RECEIVED
Subscriber_001,topicA,topicA-553,172.172.1.2:1883,1551656173494,RECEIVED
Subscriber_001,topicA,topicA-554,172.172.1.2:1883,1551656173596,RECEIVED
Subscriber_001,topicA,topicA-555,172.172.1.2:1883,1551656173691,RECEIVED
Subscriber_001,topicA,topicA-556,172.172.1.2:1883,1551656173794,RECEIVED
Subscriber_001,topicA,topicA-557,172.172.1.2:1883,1551656173899,RECEIVED
Subscriber_001,topicA,topicA-558,172.172.1.2:1883,1551656173991,RECEIVED
Subscriber_001,topicA,topicA-559,172.172.1.2:1883,1551656174102,RECEIVED
Subscriber_001,topicA,topicA-560,172.172.1.2:1883,1551656174201,RECEIVED
Subscriber_001,topicA,topicA-561,172.172.1.2:1883,1551656174302,RECEIVED
Subscriber_001,topicA,topicA-562,172.172.1.2:1883,1551656174406,RECEIVED
Subscriber_001,topicA,topicA-563,172.172.1.2:1883,1551656174503,RECEIVED
Subscriber_001,topicA,topicA-564,172.172.1.2:1883,1551656174602,RECEIVED
Subscriber_001,topicA,topicA-565,172.172.1.2:1883,1551656174698,RECEIVED
Subscriber_001,topicA,topicA-566,172.172.1.2:1883,1551656174793,RECEIVED
Subscriber_001,topicA,topicA-567,172.172.1.2:1883,1551656174903,RECEIVED
Subscriber_001,topicA,topicA-568,172.172.1.2:1883,1551656174998,RECEIVED
Subscriber_001,topicA,topicA-569,172.172.1.2:1883,1551656175095,RECEIVED
Subscriber_001,topicA,topicA-570,172.172.1.2:1883,1551656175200,RECEIVED
Subscriber_001,topicA,topicA-571,172.172.1.2:1883,1551656175301,RECEIVED
Subscriber_001,topicA,topicA-572,172.172.1.2:1883,1551656175406,RECEIVED
Subscriber_001,topicA,topicA-573,172.172.1.2:1883,1551656175501,RECEIVED
Subscriber_001,topicA,topicA-574,172.172.1.2:1883,1551656175597,RECEIVED
Subscriber_001,topicA,topicA-575,172.172.1.2:1883,1551656175699,RECEIVED
Subscriber_001,topicA,topicA-576,172.172.1.2:1883,1551656175797,RECEIVED
Subscriber_001,topicA,topicA-577,172.172.1.2:1883,1551656175894,RECEIVED
Subscriber_001,topicA,topicA-578,172.172.1.2:1883,1551656176015,RECEIVED
Subscriber_001,topicA,topicA-579,172.172.1.2:1883,1551656176107,RECEIVED
Subscriber_001,topicA,topicA-580,172.172.1.2:1883,1551656176196,RECEIVED
Subscriber_001,topicA,topicA-581,172.172.1.2:1883,1551656176302,RECEIVED
Subscriber_001,topicA,topicA-582,172.172.1.2:1883,1551656176401,RECEIVED
Subscriber_001,topicA,topicA-583,172.172.1.2:1883,1551656176502,RECEIVED
Subscriber_001,topicA,topicA-584,172.172.1.2:1883,1551656176606,RECEIVED
Subscriber_001,topicA,topicA-585,172.172.1.2:1883,1551656176701,RECEIVED
Subscriber_001,topicA,topicA-586,172.172.1.2:1883,1551656176805,RECEIVED
Subscriber_001,topicA,topicA-587,172.172.1.2:1883,1551656176905,RECEIVED
Subscriber_001,topicA,topicA-588,172.172.1.2:1883,1551656176997,RECEIVED
Subscriber_001,topicA,topicA-589,172.172.1.2:1883,1551656177105,RECEIVED
Subscriber_001,topicA,topicA-590,172.172.1.2:1883,1551656177200,RECEIVED
Subscriber_001,topicA,topicA-591,172.172.1.2:1883,1551656177303,RECEIVED
Subscriber_001,topicA,topicA-592,172.172.1.2:1883,1551656177405,RECEIVED
Subscriber_001,topicA,topicA-593,172.172.1.2:1883,1551656177505,RECEIVED
Subscriber_001,topicA,topicA-594,172.172.1.2:1883,1551656177602,RECEIVED
Subscriber_001,topicA,topicA-595,172.172.1.2:1883,1551656177702,RECEIVED
Subscriber_001,topicA,topicA-596,172.172.1.2:1883,1551656177797,RECEIVED
Subscriber_001,topicA,topicA-597,172.172.1.2:1883,1551656177908,RECEIVED
Subscriber_001,topicA,topicA-598,172.172.1.2:1883,1551656177999,RECEIVED
Subscriber_001,topicA,topicA-599,172.172.1.2:1883,1551656178107,RECEIVED
Subscriber_001,topicA,topicA-600,172.172.1.2:1883,1551656178206,RECEIVED
Subscriber_001,topicA,topicA-601,172.172.1.2:1883,1551656178307,RECEIVED
Subscriber_001,topicA,topicA-602,172.172.1.2:1883,1551656178399,RECEIVED
Subscriber_001,topicA,topicA-603,172.172.1.2:1883,1551656178504,RECEIVED
Subscriber_001,topicA,topicA-604,172.172.1.2:1883,1551656178597,RECEIVED
Subscriber_001,topicA,topicA-605,172.172.1.2:1883,1551656178701,RECEIVED
Subscriber_001,topicA,topicA-606,172.172.1.2:1883,1551656178803,RECEIVED
Subscriber_001,topicA,topicA-607,172.172.1.2:1883,1551656178896,RECEIVED
Subscriber_001,topicA,topicA-608,172.172.1.2:1883,1551656179005,RECEIVED
Subscriber_001,topicA,topicA-609,172.172.1.2:1883,1551656179102,RECEIVED
Subscriber_001,topicA,topicA-610,172.172.1.2:1883,1551656179199,RECEIVED
Subscriber_001,topicA,topicA-611,172.172.1.2:1883,1551656179305,RECEIVED
Subscriber_001,topicA,topicA-612,172.172.1.2:1883,1551656179404,RECEIVED
Subscriber_001,topicA,topicA-613,172.172.1.2:1883,1551656179497,RECEIVED
Subscriber_001,topicA,topicA-614,172.172.1.2:1883,1551656179602,RECEIVED
Subscriber_001,topicA,topicA-615,172.172.1.2:1883,1551656179708,RECEIVED
Subscriber_001,topicA,topicA-616,172.172.1.2:1883,1551656179799,RECEIVED
Subscriber_001,topicA,topicA-617,172.172.1.2:1883,1551656179906,RECEIVED
Subscriber_001,topicA,topicA-618,172.172.1.2:1883,1551656179999,RECEIVED
Subscriber_001,topicA,topicA-619,172.172.1.2:1883,1551656180111,RECEIVED
Subscriber_001,topicA,topicA-620,172.172.1.2:1883,1551656180204,RECEIVED
Subscriber_001,topicA,topicA-621,172.172.1.2:1883,1551656180295,RECEIVED
Subscriber_001,topicA,topicA-622,172.172.1.2:1883,1551656180407,RECEIVED
Subscriber_001,topicA,topicA-623,172.172.1.2:1883,1551656180497,RECEIVED
Subscriber_001,topicA,topicA-624,172.172.1.2:1883,1551656180602,RECEIVED
Subscriber_001,topicA,topicA-625,172.172.1.2:1883,1551656180708,RECEIVED
Subscriber_001,topicA,topicA-626,172.172.1.2:1883,1551656180802,RECEIVED
Subscriber_001,topicA,topicA-627,172.172.1.2:1883,1551656180901,RECEIVED
Subscriber_001,topicA,topicA-628,172.172.1.2:1883,1551656180992,RECEIVED
Subscriber_001,topicA,topicA-629,172.172.1.2:1883,1551656181096,RECEIVED
Subscriber_001,topicA,topicA-630,172.172.1.2:1883,1551656181197,RECEIVED
Subscriber_001,topicA,topicA-631,172.172.1.2:1883,1551656181305,RECEIVED
Subscriber_001,topicA,topicA-632,172.172.1.2:1883,1551656181400,RECEIVED
Subscriber_001,topicA,topicA-633,172.172.1.2:1883,1551656181488,RECEIVED
Subscriber_001,topicA,topicA-634,172.172.1.2:1883,1551656181590,RECEIVED
Subscriber_001,topicA,topicA-635,172.172.1.2:1883,1551656181695,RECEIVED
Subscriber_001,topicA,topicA-636,172.172.1.2:1883,1551656181799,RECEIVED
Subscriber_001,topicA,topicA-637,172.172.1.2:1883,1551656181896,RECEIVED
Subscriber_001,topicA,topicA-638,172.172.1.2:1883,1551656181993,RECEIVED
Subscriber_001,topicA,topicA-639,172.172.1.2:1883,1551656182100,RECEIVED
Subscriber_001,topicA,topicA-640,172.172.1.2:1883,1551656182216,RECEIVED
Subscriber_001,topicA,topicA-641,172.172.1.2:1883,1551656182289,RECEIVED
Subscriber_001,topicA,topicA-642,172.172.1.2:1883,1551656182397,RECEIVED
Subscriber_001,topicA,topicA-643,172.172.1.2:1883,1551656182493,RECEIVED
