clientId,topic,guid,broker,timestamp,type
Publisher_002,topicA,topicA-1,172.172.1.2:1883,1551649923658,PRODUCED
Publisher_002,topicA,topicA-2,172.172.1.2:1883,1551649923913,PRODUCED
Publisher_002,topicA,topicA-3,172.172.1.2:1883,1551649923918,PRODUCED
Publisher_002,topicA,topicA-4,172.172.1.2:1883,1551649923923,PRODUCED
Publisher_002,topicA,topicA-5,172.172.1.2:1883,1551649923927,PRODUCED
Publisher_002,topicA,topicA-6,172.172.1.2:1883,1551649924009,PRODUCED
Publisher_002,topicA,topicA-7,172.172.1.2:1883,1551649924109,PRODUCED
Publisher_002,topicA,topicA-8,172.172.1.2:1883,1551649924209,PRODUCED
Publisher_002,topicA,topicA-9,172.172.1.2:1883,1551649924309,PRODUCED
Publisher_002,topicA,topicA-10,172.172.1.2:1883,1551649924409,PRODUCED
Publisher_002,topicA,topicA-11,172.172.1.2:1883,1551649924510,PRODUCED
Publisher_002,topicA,topicA-12,172.172.1.2:1883,1551649924609,PRODUCED
Publisher_002,topicA,topicA-13,172.172.1.2:1883,1551649924709,PRODUCED
Publisher_002,topicA,topicA-14,172.172.1.2:1883,1551649924811,PRODUCED
Publisher_002,topicA,topicA-15,172.172.1.2:1883,1551649924910,PRODUCED
Publisher_002,topicA,topicA-16,172.172.1.2:1883,1551649925012,PRODUCED
Publisher_002,topicA,topicA-17,172.172.1.2:1883,1551649925116,PRODUCED
Publisher_002,topicA,topicA-18,172.172.1.2:1883,1551649925209,PRODUCED
Publisher_002,topicA,topicA-19,172.172.1.2:1883,1551649925311,PRODUCED
Publisher_002,topicA,topicA-20,172.172.1.2:1883,1551649925409,PRODUCED
Publisher_002,topicA,topicA-21,172.172.1.2:1883,1551649925509,PRODUCED
Publisher_002,topicA,topicA-22,172.172.1.2:1883,1551649925609,PRODUCED
Publisher_002,topicA,topicA-23,172.172.1.2:1883,1551649925709,PRODUCED
Publisher_002,topicA,topicA-24,172.172.1.2:1883,1551649925809,PRODUCED
Publisher_002,topicA,topicA-25,172.172.1.2:1883,1551649925909,PRODUCED
Publisher_002,topicA,topicA-26,172.172.1.2:1883,1551649926008,PRODUCED
Publisher_002,topicA,topicA-27,172.172.1.2:1883,1551649926109,PRODUCED
Publisher_002,topicA,topicA-28,172.172.1.2:1883,1551649926209,PRODUCED
Publisher_002,topicA,topicA-29,172.172.1.2:1883,1551649926308,PRODUCED
Publisher_002,topicA,topicA-30,172.172.1.2:1883,1551649926412,PRODUCED
Publisher_002,topicA,topicA-31,172.172.1.2:1883,1551649926509,PRODUCED
Publisher_002,topicA,topicA-32,172.172.1.2:1883,1551649926609,PRODUCED
Publisher_002,topicA,topicA-33,172.172.1.2:1883,1551649926709,PRODUCED
Publisher_002,topicA,topicA-34,172.172.1.2:1883,1551649926809,PRODUCED
Publisher_002,topicA,topicA-35,172.172.1.2:1883,1551649926912,PRODUCED
Publisher_002,topicA,topicA-36,172.172.1.2:1883,1551649927009,PRODUCED
Publisher_002,topicA,topicA-37,172.172.1.2:1883,1551649927111,PRODUCED
Publisher_002,topicA,topicA-38,172.172.1.2:1883,1551649927208,PRODUCED
Publisher_002,topicA,topicA-39,172.172.1.2:1883,1551649927309,PRODUCED
Publisher_002,topicA,topicA-40,172.172.1.2:1883,1551649927409,PRODUCED
Publisher_002,topicA,topicA-41,172.172.1.2:1883,1551649927515,PRODUCED
Publisher_002,topicA,topicA-42,172.172.1.2:1883,1551649927609,PRODUCED
Publisher_002,topicA,topicA-43,172.172.1.2:1883,1551649927709,PRODUCED
Publisher_002,topicA,topicA-44,172.172.1.2:1883,1551649927808,PRODUCED
Publisher_002,topicA,topicA-45,172.172.1.2:1883,1551649927910,PRODUCED
Publisher_002,topicA,topicA-46,172.172.1.2:1883,1551649928008,PRODUCED
Publisher_002,topicA,topicA-47,172.172.1.2:1883,1551649928108,PRODUCED
Publisher_002,topicA,topicA-48,172.172.1.2:1883,1551649928209,PRODUCED
Publisher_002,topicA,topicA-49,172.172.1.2:1883,1551649928310,PRODUCED
Publisher_002,topicA,topicA-50,172.172.1.2:1883,1551649928409,PRODUCED
Publisher_002,topicA,topicA-51,172.172.1.2:1883,1551649928509,PRODUCED
Publisher_002,topicA,topicA-52,172.172.1.2:1883,1551649928611,PRODUCED
Publisher_002,topicA,topicA-53,172.172.1.2:1883,1551649928708,PRODUCED
Publisher_002,topicA,topicA-54,172.172.1.2:1883,1551649928809,PRODUCED
Publisher_002,topicA,topicA-55,172.172.1.2:1883,1551649928908,PRODUCED
Publisher_002,topicA,topicA-56,172.172.1.2:1883,1551649929010,PRODUCED
Publisher_002,topicA,topicA-57,172.172.1.2:1883,1551649929110,PRODUCED
Publisher_002,topicA,topicA-58,172.172.1.2:1883,1551649929208,PRODUCED
Publisher_002,topicA,topicA-59,172.172.1.2:1883,1551649929309,PRODUCED
Publisher_002,topicA,topicA-60,172.172.1.2:1883,1551649929409,PRODUCED
Publisher_002,topicA,topicA-61,172.172.1.2:1883,1551649929508,PRODUCED
Publisher_002,topicA,topicA-62,172.172.1.2:1883,1551649929608,PRODUCED
Publisher_002,topicA,topicA-63,172.172.1.2:1883,1551649929709,PRODUCED
Publisher_002,topicA,topicA-64,172.172.1.2:1883,1551649929809,PRODUCED
Publisher_002,topicA,topicA-65,172.172.1.2:1883,1551649929910,PRODUCED
Publisher_002,topicA,topicA-66,172.172.1.2:1883,1551649930009,PRODUCED
Publisher_002,topicA,topicA-67,172.172.1.2:1883,1551649930109,PRODUCED
Publisher_002,topicA,topicA-68,172.172.1.2:1883,1551649930210,PRODUCED
Publisher_002,topicA,topicA-69,172.172.1.2:1883,1551649930309,PRODUCED
Publisher_002,topicA,topicA-70,172.172.1.2:1883,1551649930408,PRODUCED
Publisher_002,topicA,topicA-71,172.172.1.2:1883,1551649930508,PRODUCED
Publisher_002,topicA,topicA-72,172.172.1.2:1883,1551649930609,PRODUCED
Publisher_002,topicA,topicA-73,172.172.1.2:1883,1551649930709,PRODUCED
Publisher_002,topicA,topicA-74,172.172.1.2:1883,1551649930809,PRODUCED
Publisher_002,topicA,topicA-75,172.172.1.2:1883,1551649930909,PRODUCED
Publisher_002,topicA,topicA-76,172.172.1.2:1883,1551649931009,PRODUCED
Publisher_002,topicA,topicA-77,172.172.1.2:1883,1551649931109,PRODUCED
Publisher_002,topicA,topicA-78,172.172.1.2:1883,1551649931208,PRODUCED
Publisher_002,topicA,topicA-79,172.172.1.2:1883,1551649931308,PRODUCED
Publisher_002,topicA,topicA-80,172.172.1.2:1883,1551649931408,PRODUCED
Publisher_002,topicA,topicA-81,172.172.1.2:1883,1551649931509,PRODUCED
Publisher_002,topicA,topicA-82,172.172.1.2:1883,1551649931608,PRODUCED
Publisher_002,topicA,topicA-83,172.172.1.2:1883,1551649931709,PRODUCED
Publisher_002,topicA,topicA-84,172.172.1.2:1883,1551649931809,PRODUCED
Publisher_002,topicA,topicA-85,172.172.1.2:1883,1551649931909,PRODUCED
Publisher_002,topicA,topicA-86,172.172.1.2:1883,1551649932012,PRODUCED
Publisher_002,topicA,topicA-87,172.172.1.2:1883,1551649932109,PRODUCED
Publisher_002,topicA,topicA-88,172.172.1.2:1883,1551649932209,PRODUCED
Publisher_002,topicA,topicA-89,172.172.1.2:1883,1551649932309,PRODUCED
Publisher_002,topicA,topicA-90,172.172.1.2:1883,1551649932409,PRODUCED
Publisher_002,topicA,topicA-91,172.172.1.2:1883,1551649932511,PRODUCED
Publisher_002,topicA,topicA-92,172.172.1.2:1883,1551649932610,PRODUCED
Publisher_002,topicA,topicA-93,172.172.1.2:1883,1551649932709,PRODUCED
Publisher_002,topicA,topicA-94,172.172.1.2:1883,1551649932809,PRODUCED
Publisher_002,topicA,topicA-95,172.172.1.2:1883,1551649932908,PRODUCED
Publisher_002,topicA,topicA-96,172.172.1.2:1883,1551649933009,PRODUCED
Publisher_002,topicA,topicA-97,172.172.1.2:1883,1551649933109,PRODUCED
Publisher_002,topicA,topicA-98,172.172.1.2:1883,1551649933209,PRODUCED
Publisher_002,topicA,topicA-99,172.172.1.2:1883,1551649933310,PRODUCED
Publisher_002,topicA,topicA-100,172.172.1.2:1883,1551649933411,PRODUCED
Publisher_002,topicA,topicA-101,172.172.1.2:1883,1551649933509,PRODUCED
Publisher_002,topicA,topicA-102,172.172.1.2:1883,1551649933610,PRODUCED
Publisher_002,topicA,topicA-103,172.172.1.2:1883,1551649933708,PRODUCED
Publisher_002,topicA,topicA-104,172.172.1.2:1883,1551649933809,PRODUCED
Publisher_002,topicA,topicA-105,172.172.1.2:1883,1551649933909,PRODUCED
Publisher_002,topicA,topicA-106,172.172.1.2:1883,1551649934012,PRODUCED
Publisher_002,topicA,topicA-107,172.172.1.2:1883,1551649934109,PRODUCED
Publisher_002,topicA,topicA-108,172.172.1.2:1883,1551649934208,PRODUCED
Publisher_002,topicA,topicA-109,172.172.1.2:1883,1551649934308,PRODUCED
Publisher_002,topicA,topicA-110,172.172.1.2:1883,1551649934409,PRODUCED
Publisher_002,topicA,topicA-111,172.172.1.2:1883,1551649934508,PRODUCED
Publisher_002,topicA,topicA-112,172.172.1.2:1883,1551649934610,PRODUCED
Publisher_002,topicA,topicA-113,172.172.1.2:1883,1551649934709,PRODUCED
Publisher_002,topicA,topicA-114,172.172.1.2:1883,1551649934809,PRODUCED
Publisher_002,topicA,topicA-115,172.172.1.2:1883,1551649934909,PRODUCED
Publisher_002,topicA,topicA-116,172.172.1.2:1883,1551649935008,PRODUCED
Publisher_002,topicA,topicA-117,172.172.1.2:1883,1551649935108,PRODUCED
Publisher_002,topicA,topicA-118,172.172.1.2:1883,1551649935208,PRODUCED
Publisher_002,topicA,topicA-119,172.172.1.2:1883,1551649935308,PRODUCED
Publisher_002,topicA,topicA-120,172.172.1.2:1883,1551649935409,PRODUCED
Publisher_002,topicA,topicA-121,172.172.1.2:1883,1551649935508,PRODUCED
Publisher_002,topicA,topicA-122,172.172.1.2:1883,1551649935609,PRODUCED
Publisher_002,topicA,topicA-123,172.172.1.2:1883,1551649935708,PRODUCED
Publisher_002,topicA,topicA-124,172.172.1.2:1883,1551649935808,PRODUCED
Publisher_002,topicA,topicA-125,172.172.1.2:1883,1551649935910,PRODUCED
Publisher_002,topicA,topicA-126,172.172.1.2:1883,1551649936012,PRODUCED
Publisher_002,topicA,topicA-127,172.172.1.2:1883,1551649936109,PRODUCED
Publisher_002,topicA,topicA-128,172.172.1.2:1883,1551649936210,PRODUCED
Publisher_002,topicA,topicA-129,172.172.1.2:1883,1551649936309,PRODUCED
Publisher_002,topicA,topicA-130,172.172.1.2:1883,1551649936413,PRODUCED
Publisher_002,topicA,topicA-131,172.172.1.2:1883,1551649936509,PRODUCED
Publisher_002,topicA,topicA-132,172.172.1.2:1883,1551649936609,PRODUCED
Publisher_002,topicA,topicA-133,172.172.1.2:1883,1551649936709,PRODUCED
Publisher_002,topicA,topicA-134,172.172.1.2:1883,1551649936809,PRODUCED
Publisher_002,topicA,topicA-135,172.172.1.2:1883,1551649936909,PRODUCED
Publisher_002,topicA,topicA-136,172.172.1.2:1883,1551649937009,PRODUCED
Publisher_002,topicA,topicA-137,172.172.1.2:1883,1551649937112,PRODUCED
Publisher_002,topicA,topicA-138,172.172.1.2:1883,1551649937208,PRODUCED
Publisher_002,topicA,topicA-139,172.172.1.2:1883,1551649937308,PRODUCED
Publisher_002,topicA,topicA-140,172.172.1.2:1883,1551649937408,PRODUCED
Publisher_002,topicA,topicA-141,172.172.1.2:1883,1551649937508,PRODUCED
Publisher_002,topicA,topicA-142,172.172.1.2:1883,1551649937609,PRODUCED
Publisher_002,topicA,topicA-143,172.172.1.2:1883,1551649937709,PRODUCED
Publisher_002,topicA,topicA-144,172.172.1.2:1883,1551649937809,PRODUCED
Publisher_002,topicA,topicA-145,172.172.1.2:1883,1551649937909,PRODUCED
Publisher_002,topicA,topicA-146,172.172.1.2:1883,1551649938009,PRODUCED
Publisher_002,topicA,topicA-147,172.172.1.2:1883,1551649938108,PRODUCED
Publisher_002,topicA,topicA-148,172.172.1.2:1883,1551649938210,PRODUCED
Publisher_002,topicA,topicA-149,172.172.1.2:1883,1551649938308,PRODUCED
Publisher_002,topicA,topicA-150,172.172.1.2:1883,1551649938409,PRODUCED
Publisher_002,topicA,topicA-151,172.172.1.2:1883,1551649938509,PRODUCED
Publisher_002,topicA,topicA-152,172.172.1.2:1883,1551649938609,PRODUCED
Publisher_002,topicA,topicA-153,172.172.1.2:1883,1551649938708,PRODUCED
Publisher_002,topicA,topicA-154,172.172.1.2:1883,1551649938808,PRODUCED
Publisher_002,topicA,topicA-155,172.172.1.2:1883,1551649938908,PRODUCED
Publisher_002,topicA,topicA-156,172.172.1.2:1883,1551649939008,PRODUCED
Publisher_002,topicA,topicA-157,172.172.1.2:1883,1551649939109,PRODUCED
Publisher_002,topicA,topicA-158,172.172.1.2:1883,1551649939208,PRODUCED
Publisher_002,topicA,topicA-159,172.172.1.2:1883,1551649939308,PRODUCED
Publisher_002,topicA,topicA-160,172.172.1.2:1883,1551649939409,PRODUCED
Publisher_002,topicA,topicA-161,172.172.1.2:1883,1551649939509,PRODUCED
Publisher_002,topicA,topicA-162,172.172.1.2:1883,1551649939608,PRODUCED
Publisher_002,topicA,topicA-163,172.172.1.2:1883,1551649939708,PRODUCED
Publisher_002,topicA,topicA-164,172.172.1.2:1883,1551649939809,PRODUCED
Publisher_002,topicA,topicA-165,172.172.1.2:1883,1551649939908,PRODUCED
Publisher_002,topicA,topicA-166,172.172.1.2:1883,1551649940008,PRODUCED
Publisher_002,topicA,topicA-167,172.172.1.2:1883,1551649940108,PRODUCED
Publisher_002,topicA,topicA-168,172.172.1.2:1883,1551649940209,PRODUCED
Publisher_002,topicA,topicA-169,172.172.1.2:1883,1551649940309,PRODUCED
Publisher_002,topicA,topicA-170,172.172.1.2:1883,1551649940409,PRODUCED
Publisher_002,topicA,topicA-171,172.172.1.2:1883,1551649940508,PRODUCED
Publisher_002,topicA,topicA-172,172.172.1.2:1883,1551649940608,PRODUCED
Publisher_002,topicA,topicA-173,172.172.1.2:1883,1551649940708,PRODUCED
Publisher_002,topicA,topicA-174,172.172.1.2:1883,1551649940808,PRODUCED
Publisher_002,topicA,topicA-175,172.172.1.2:1883,1551649940908,PRODUCED
Publisher_002,topicA,topicA-176,172.172.1.2:1883,1551649941008,PRODUCED
Publisher_002,topicA,topicA-177,172.172.1.2:1883,1551649941114,PRODUCED
Publisher_002,topicA,topicA-178,172.172.1.2:1883,1551649941209,PRODUCED
Publisher_002,topicA,topicA-179,172.172.1.2:1883,1551649941308,PRODUCED
Publisher_002,topicA,topicA-180,172.172.1.2:1883,1551649941409,PRODUCED
Publisher_002,topicA,topicA-181,172.172.1.2:1883,1551649941508,PRODUCED
Publisher_002,topicA,topicA-182,172.172.1.2:1883,1551649941609,PRODUCED
Publisher_002,topicA,topicA-183,172.172.1.2:1883,1551649941709,PRODUCED
Publisher_002,topicA,topicA-184,172.172.1.2:1883,1551649941809,PRODUCED
Publisher_002,topicA,topicA-185,172.172.1.2:1883,1551649941909,PRODUCED
Publisher_002,topicA,topicA-186,172.172.1.2:1883,1551649942008,PRODUCED
Publisher_002,topicA,topicA-187,172.172.1.2:1883,1551649942108,PRODUCED
Publisher_002,topicA,topicA-188,172.172.1.2:1883,1551649942208,PRODUCED
Publisher_002,topicA,topicA-189,172.172.1.2:1883,1551649942308,PRODUCED
Publisher_002,topicA,topicA-190,172.172.1.2:1883,1551649942408,PRODUCED
Publisher_002,topicA,topicA-191,172.172.1.2:1883,1551649942509,PRODUCED
Publisher_002,topicA,topicA-192,172.172.1.2:1883,1551649942613,PRODUCED
Publisher_002,topicA,topicA-193,172.172.1.2:1883,1551649942710,PRODUCED
Publisher_002,topicA,topicA-194,172.172.1.2:1883,1551649942809,PRODUCED
Publisher_002,topicA,topicA-195,172.172.1.2:1883,1551649942909,PRODUCED
Publisher_002,topicA,topicA-196,172.172.1.2:1883,1551649943008,PRODUCED
Publisher_002,topicA,topicA-197,172.172.1.2:1883,1551649943108,PRODUCED
Publisher_002,topicA,topicA-198,172.172.1.2:1883,1551649943209,PRODUCED
Publisher_002,topicA,topicA-199,172.172.1.2:1883,1551649943308,PRODUCED
Publisher_002,topicA,topicA-200,172.172.1.2:1883,1551649943408,PRODUCED
Publisher_002,topicA,topicA-201,172.172.1.2:1883,1551649943512,PRODUCED
Publisher_002,topicA,topicA-202,172.172.1.2:1883,1551649943621,PRODUCED
Publisher_002,topicA,topicA-203,172.172.1.2:1883,1551649943708,PRODUCED
Publisher_002,topicA,topicA-204,172.172.1.2:1883,1551649943808,PRODUCED
Publisher_002,topicA,topicA-205,172.172.1.2:1883,1551649943909,PRODUCED
Publisher_002,topicA,topicA-206,172.172.1.2:1883,1551649944012,PRODUCED
Publisher_002,topicA,topicA-207,172.172.1.2:1883,1551649944108,PRODUCED
Publisher_002,topicA,topicA-208,172.172.1.2:1883,1551649944208,PRODUCED
Publisher_002,topicA,topicA-209,172.172.1.2:1883,1551649944308,PRODUCED
Publisher_002,topicA,topicA-210,172.172.1.2:1883,1551649944408,PRODUCED
Publisher_002,topicA,topicA-211,172.172.1.2:1883,1551649944508,PRODUCED
Publisher_002,topicA,topicA-212,172.172.1.2:1883,1551649944608,PRODUCED
Publisher_002,topicA,topicA-213,172.172.1.2:1883,1551649944708,PRODUCED
Publisher_002,topicA,topicA-214,172.172.1.2:1883,1551649944808,PRODUCED
Publisher_002,topicA,topicA-215,172.172.1.2:1883,1551649944908,PRODUCED
Publisher_002,topicA,topicA-216,172.172.1.2:1883,1551649945008,PRODUCED
Publisher_002,topicA,topicA-217,172.172.1.2:1883,1551649945108,PRODUCED
Publisher_002,topicA,topicA-218,172.172.1.2:1883,1551649945208,PRODUCED
Publisher_002,topicA,topicA-219,172.172.1.2:1883,1551649945308,PRODUCED
Publisher_002,topicA,topicA-220,172.172.1.2:1883,1551649945408,PRODUCED
Publisher_002,topicA,topicA-221,172.172.1.2:1883,1551649945508,PRODUCED
Publisher_002,topicA,topicA-222,172.172.1.2:1883,1551649945608,PRODUCED
Publisher_002,topicA,topicA-223,172.172.1.2:1883,1551649945708,PRODUCED
Publisher_002,topicA,topicA-224,172.172.1.2:1883,1551649945808,PRODUCED
Publisher_002,topicA,topicA-225,172.172.1.2:1883,1551649945908,PRODUCED
Publisher_002,topicA,topicA-226,172.172.1.2:1883,1551649946010,PRODUCED
Publisher_002,topicA,topicA-227,172.172.1.2:1883,1551649946108,PRODUCED
Publisher_002,topicA,topicA-228,172.172.1.2:1883,1551649946209,PRODUCED
Publisher_002,topicA,topicA-229,172.172.1.2:1883,1551649946311,PRODUCED
Publisher_002,topicA,topicA-230,172.172.1.2:1883,1551649946408,PRODUCED
Publisher_002,topicA,topicA-231,172.172.1.2:1883,1551649946508,PRODUCED
Publisher_002,topicA,topicA-232,172.172.1.2:1883,1551649946608,PRODUCED
Publisher_002,topicA,topicA-233,172.172.1.2:1883,1551649946709,PRODUCED
Publisher_002,topicA,topicA-234,172.172.1.2:1883,1551649946808,PRODUCED
Publisher_002,topicA,topicA-235,172.172.1.2:1883,1551649946909,PRODUCED
Publisher_002,topicA,topicA-236,172.172.1.2:1883,1551649947008,PRODUCED
Publisher_002,topicA,topicA-237,172.172.1.2:1883,1551649947109,PRODUCED
Publisher_002,topicA,topicA-238,172.172.1.2:1883,1551649947210,PRODUCED
Publisher_002,topicA,topicA-239,172.172.1.2:1883,1551649947308,PRODUCED
Publisher_002,topicA,topicA-240,172.172.1.2:1883,1551649947409,PRODUCED
Publisher_002,topicA,topicA-241,172.172.1.2:1883,1551649947509,PRODUCED
Publisher_002,topicA,topicA-242,172.172.1.2:1883,1551649947608,PRODUCED
Publisher_002,topicA,topicA-243,172.172.1.2:1883,1551649947709,PRODUCED
Publisher_002,topicA,topicA-244,172.172.1.2:1883,1551649947808,PRODUCED
Publisher_002,topicA,topicA-245,172.172.1.2:1883,1551649947908,PRODUCED
Publisher_002,topicA,topicA-246,172.172.1.2:1883,1551649948010,PRODUCED
Publisher_002,topicA,topicA-247,172.172.1.2:1883,1551649948109,PRODUCED
Publisher_002,topicA,topicA-248,172.172.1.2:1883,1551649948208,PRODUCED
Publisher_002,topicA,topicA-249,172.172.1.2:1883,1551649948308,PRODUCED
Publisher_002,topicA,topicA-250,172.172.1.2:1883,1551649948408,PRODUCED
Publisher_002,topicA,topicA-251,172.172.1.2:1883,1551649948508,PRODUCED
Publisher_002,topicA,topicA-252,172.172.1.2:1883,1551649948609,PRODUCED
Publisher_002,topicA,topicA-253,172.172.1.2:1883,1551649948709,PRODUCED
Publisher_002,topicA,topicA-254,172.172.1.2:1883,1551649948808,PRODUCED
Publisher_002,topicA,topicA-255,172.172.1.2:1883,1551649948908,PRODUCED
Publisher_002,topicA,topicA-256,172.172.1.2:1883,1551649949009,PRODUCED
Publisher_002,topicA,topicA-257,172.172.1.2:1883,1551649949109,PRODUCED
Publisher_002,topicA,topicA-258,172.172.1.2:1883,1551649949208,PRODUCED
Publisher_002,topicA,topicA-259,172.172.1.2:1883,1551649949308,PRODUCED
Publisher_002,topicA,topicA-260,172.172.1.2:1883,1551649949409,PRODUCED
Publisher_002,topicA,topicA-261,172.172.1.2:1883,1551649949509,PRODUCED
Publisher_002,topicA,topicA-262,172.172.1.2:1883,1551649949608,PRODUCED
Publisher_002,topicA,topicA-263,172.172.1.2:1883,1551649949709,PRODUCED
Publisher_002,topicA,topicA-264,172.172.1.2:1883,1551649949808,PRODUCED
Publisher_002,topicA,topicA-265,172.172.1.2:1883,1551649949908,PRODUCED
Publisher_002,topicA,topicA-266,172.172.1.2:1883,1551649950008,PRODUCED
Publisher_002,topicA,topicA-267,172.172.1.2:1883,1551649950109,PRODUCED
Publisher_002,topicA,topicA-268,172.172.1.2:1883,1551649950208,PRODUCED
Publisher_002,topicA,topicA-269,172.172.1.2:1883,1551649950308,PRODUCED
Publisher_002,topicA,topicA-270,172.172.1.2:1883,1551649950409,PRODUCED
Publisher_002,topicA,topicA-271,172.172.1.2:1883,1551649950509,PRODUCED
Publisher_002,topicA,topicA-272,172.172.1.2:1883,1551649950610,PRODUCED
Publisher_002,topicA,topicA-273,172.172.1.2:1883,1551649950708,PRODUCED
Publisher_002,topicA,topicA-274,172.172.1.2:1883,1551649950809,PRODUCED
Publisher_002,topicA,topicA-275,172.172.1.2:1883,1551649950909,PRODUCED
Publisher_002,topicA,topicA-276,172.172.1.2:1883,1551649951008,PRODUCED
Publisher_002,topicA,topicA-277,172.172.1.2:1883,1551649951109,PRODUCED
Publisher_002,topicA,topicA-278,172.172.1.2:1883,1551649951208,PRODUCED
Publisher_002,topicA,topicA-279,172.172.1.2:1883,1551649951308,PRODUCED
Publisher_002,topicA,topicA-280,172.172.1.2:1883,1551649951410,PRODUCED
Publisher_002,topicA,topicA-281,172.172.1.2:1883,1551649951516,PRODUCED
Publisher_002,topicA,topicA-282,172.172.1.2:1883,1551649951608,PRODUCED
Publisher_002,topicA,topicA-283,172.172.1.2:1883,1551649951708,PRODUCED
Publisher_002,topicA,topicA-284,172.172.1.2:1883,1551649951808,PRODUCED
Publisher_002,topicA,topicA-285,172.172.1.2:1883,1551649951910,PRODUCED
Publisher_002,topicA,topicA-286,172.172.1.2:1883,1551649952008,PRODUCED
Publisher_002,topicA,topicA-287,172.172.1.2:1883,1551649952108,PRODUCED
Publisher_002,topicA,topicA-288,172.172.1.2:1883,1551649952208,PRODUCED
Publisher_002,topicA,topicA-289,172.172.1.2:1883,1551649952308,PRODUCED
Publisher_002,topicA,topicA-290,172.172.1.2:1883,1551649952408,PRODUCED
Publisher_002,topicA,topicA-291,172.172.1.2:1883,1551649952508,PRODUCED
Publisher_002,topicA,topicA-292,172.172.1.2:1883,1551649952608,PRODUCED
Publisher_002,topicA,topicA-293,172.172.1.2:1883,1551649952708,PRODUCED
Publisher_002,topicA,topicA-294,172.172.1.2:1883,1551649952810,PRODUCED
Publisher_002,topicA,topicA-295,172.172.1.2:1883,1551649952909,PRODUCED
Publisher_002,topicA,topicA-296,172.172.1.2:1883,1551649953009,PRODUCED
Publisher_002,topicA,topicA-297,172.172.1.2:1883,1551649953108,PRODUCED
Publisher_002,topicA,topicA-298,172.172.1.2:1883,1551649953208,PRODUCED
Publisher_002,topicA,topicA-299,172.172.1.2:1883,1551649953309,PRODUCED
Publisher_002,topicA,topicA-300,172.172.1.2:1883,1551649953408,PRODUCED
Publisher_002,topicA,topicA-301,172.172.1.2:1883,1551649953508,PRODUCED
Publisher_002,topicA,topicA-302,172.172.1.2:1883,1551649953608,PRODUCED
Publisher_002,topicA,topicA-303,172.172.1.2:1883,1551649953708,PRODUCED
Publisher_002,topicA,topicA-304,172.172.1.2:1883,1551649953808,PRODUCED
Publisher_002,topicA,topicA-305,172.172.1.2:1883,1551649953908,PRODUCED
Publisher_002,topicA,topicA-306,172.172.1.2:1883,1551649954010,PRODUCED
Publisher_002,topicA,topicA-307,172.172.1.2:1883,1551649954108,PRODUCED
Publisher_002,topicA,topicA-308,172.172.1.2:1883,1551649954208,PRODUCED
Publisher_002,topicA,topicA-309,172.172.1.2:1883,1551649954308,PRODUCED
Publisher_002,topicA,topicA-310,172.172.1.2:1883,1551649954408,PRODUCED
Publisher_002,topicA,topicA-311,172.172.1.2:1883,1551649954508,PRODUCED
Publisher_002,topicA,topicA-312,172.172.1.2:1883,1551649954608,PRODUCED
Publisher_002,topicA,topicA-313,172.172.1.2:1883,1551649954708,PRODUCED
Publisher_002,topicA,topicA-314,172.172.1.2:1883,1551649954809,PRODUCED
Publisher_002,topicA,topicA-315,172.172.1.2:1883,1551649954909,PRODUCED
Publisher_002,topicA,topicA-316,172.172.1.2:1883,1551649955009,PRODUCED
Publisher_002,topicA,topicA-317,172.172.1.2:1883,1551649955109,PRODUCED
Publisher_002,topicA,topicA-318,172.172.1.2:1883,1551649955209,PRODUCED
Publisher_002,topicA,topicA-319,172.172.1.2:1883,1551649955312,PRODUCED
Publisher_002,topicA,topicA-320,172.172.1.2:1883,1551649955408,PRODUCED
Publisher_002,topicA,topicA-321,172.172.1.2:1883,1551649955509,PRODUCED
Publisher_002,topicA,topicA-322,172.172.1.2:1883,1551649955608,PRODUCED
Publisher_002,topicA,topicA-323,172.172.1.2:1883,1551649955708,PRODUCED
Publisher_002,topicA,topicA-324,172.172.1.2:1883,1551649955809,PRODUCED
Publisher_002,topicA,topicA-325,172.172.1.2:1883,1551649955908,PRODUCED
Publisher_002,topicA,topicA-326,172.172.1.2:1883,1551649956009,PRODUCED
Publisher_002,topicA,topicA-327,172.172.1.2:1883,1551649956109,PRODUCED
Publisher_002,topicA,topicA-328,172.172.1.2:1883,1551649956209,PRODUCED
Publisher_002,topicA,topicA-329,172.172.1.2:1883,1551649956309,PRODUCED
Publisher_002,topicA,topicA-330,172.172.1.2:1883,1551649956408,PRODUCED
Publisher_002,topicA,topicA-331,172.172.1.2:1883,1551649956508,PRODUCED
Publisher_002,topicA,topicA-332,172.172.1.2:1883,1551649956608,PRODUCED
Publisher_002,topicA,topicA-333,172.172.1.2:1883,1551649956709,PRODUCED
Publisher_002,topicA,topicA-334,172.172.1.2:1883,1551649956808,PRODUCED
Publisher_002,topicA,topicA-335,172.172.1.2:1883,1551649956908,PRODUCED
Publisher_002,topicA,topicA-336,172.172.1.2:1883,1551649957009,PRODUCED
Publisher_002,topicA,topicA-337,172.172.1.2:1883,1551649957109,PRODUCED
Publisher_002,topicA,topicA-338,172.172.1.2:1883,1551649957208,PRODUCED
Publisher_002,topicA,topicA-339,172.172.1.2:1883,1551649957308,PRODUCED
Publisher_002,topicA,topicA-340,172.172.1.2:1883,1551649957408,PRODUCED
Publisher_002,topicA,topicA-341,172.172.1.2:1883,1551649957509,PRODUCED
Publisher_002,topicA,topicA-342,172.172.1.2:1883,1551649957613,PRODUCED
Publisher_002,topicA,topicA-343,172.172.1.2:1883,1551649957709,PRODUCED
Publisher_002,topicA,topicA-344,172.172.1.2:1883,1551649957809,PRODUCED
Publisher_002,topicA,topicA-345,172.172.1.2:1883,1551649957909,PRODUCED
Publisher_002,topicA,topicA-346,172.172.1.2:1883,1551649958008,PRODUCED
Publisher_002,topicA,topicA-347,172.172.1.2:1883,1551649958108,PRODUCED
Publisher_002,topicA,topicA-348,172.172.1.2:1883,1551649958210,PRODUCED
Publisher_002,topicA,topicA-349,172.172.1.2:1883,1551649958316,PRODUCED
Publisher_002,topicA,topicA-350,172.172.1.2:1883,1551649958409,PRODUCED
Publisher_002,topicA,topicA-351,172.172.1.2:1883,1551649958508,PRODUCED
Publisher_002,topicA,topicA-352,172.172.1.2:1883,1551649958608,PRODUCED
Publisher_002,topicA,topicA-353,172.172.1.2:1883,1551649958708,PRODUCED
Publisher_002,topicA,topicA-354,172.172.1.2:1883,1551649958809,PRODUCED
Publisher_002,topicA,topicA-355,172.172.1.2:1883,1551649958909,PRODUCED
Publisher_002,topicA,topicA-356,172.172.1.2:1883,1551649959013,PRODUCED
Publisher_002,topicA,topicA-357,172.172.1.2:1883,1551649959110,PRODUCED
Publisher_002,topicA,topicA-358,172.172.1.2:1883,1551649959209,PRODUCED
Publisher_002,topicA,topicA-359,172.172.1.2:1883,1551649959310,PRODUCED
Publisher_002,topicA,topicA-360,172.172.1.2:1883,1551649959408,PRODUCED
Publisher_002,topicA,topicA-361,172.172.1.2:1883,1551649959509,PRODUCED
Publisher_002,topicA,topicA-362,172.172.1.2:1883,1551649959609,PRODUCED
Publisher_002,topicA,topicA-363,172.172.1.2:1883,1551649959708,PRODUCED
Publisher_002,topicA,topicA-364,172.172.1.2:1883,1551649959808,PRODUCED
Publisher_002,topicA,topicA-365,172.172.1.2:1883,1551649959909,PRODUCED
Publisher_002,topicA,topicA-366,172.172.1.2:1883,1551649960009,PRODUCED
Publisher_002,topicA,topicA-367,172.172.1.2:1883,1551649960112,PRODUCED
Publisher_002,topicA,topicA-368,172.172.1.2:1883,1551649960209,PRODUCED
Publisher_002,topicA,topicA-369,172.172.1.2:1883,1551649960308,PRODUCED
Publisher_002,topicA,topicA-370,172.172.1.2:1883,1551649960412,PRODUCED
Publisher_002,topicA,topicA-371,172.172.1.2:1883,1551649960508,PRODUCED
Publisher_002,topicA,topicA-372,172.172.1.2:1883,1551649960608,PRODUCED
Publisher_002,topicA,topicA-373,172.172.1.2:1883,1551649960709,PRODUCED
Publisher_002,topicA,topicA-374,172.172.1.2:1883,1551649960808,PRODUCED
Publisher_002,topicA,topicA-375,172.172.1.2:1883,1551649960908,PRODUCED
Publisher_002,topicA,topicA-376,172.172.1.2:1883,1551649961008,PRODUCED
Publisher_002,topicA,topicA-377,172.172.1.2:1883,1551649961109,PRODUCED
Publisher_002,topicA,topicA-378,172.172.1.2:1883,1551649961208,PRODUCED
Publisher_002,topicA,topicA-379,172.172.1.2:1883,1551649961309,PRODUCED
Publisher_002,topicA,topicA-380,172.172.1.2:1883,1551649961416,PRODUCED
Publisher_002,topicA,topicA-381,172.172.1.2:1883,1551649961509,PRODUCED
Publisher_002,topicA,topicA-382,172.172.1.2:1883,1551649961609,PRODUCED
Publisher_002,topicA,topicA-383,172.172.1.2:1883,1551649961710,PRODUCED
Publisher_002,topicA,topicA-384,172.172.1.2:1883,1551649961813,PRODUCED
Publisher_002,topicA,topicA-385,172.172.1.2:1883,1551649961909,PRODUCED
Publisher_002,topicA,topicA-386,172.172.1.2:1883,1551649962009,PRODUCED
Publisher_002,topicA,topicA-387,172.172.1.2:1883,1551649962109,PRODUCED
Publisher_002,topicA,topicA-388,172.172.1.2:1883,1551649962208,PRODUCED
Publisher_002,topicA,topicA-389,172.172.1.2:1883,1551649962308,PRODUCED
Publisher_002,topicA,topicA-390,172.172.1.2:1883,1551649962409,PRODUCED
Publisher_002,topicA,topicA-391,172.172.1.2:1883,1551649962509,PRODUCED
Publisher_002,topicA,topicA-392,172.172.1.2:1883,1551649962609,PRODUCED
Publisher_002,topicA,topicA-393,172.172.1.2:1883,1551649962708,PRODUCED
Publisher_002,topicA,topicA-394,172.172.1.2:1883,1551649962809,PRODUCED
Publisher_002,topicA,topicA-395,172.172.1.2:1883,1551649962908,PRODUCED
Publisher_002,topicA,topicA-396,172.172.1.2:1883,1551649963008,PRODUCED
Publisher_002,topicA,topicA-397,172.172.1.2:1883,1551649963110,PRODUCED
Publisher_002,topicA,topicA-398,172.172.1.2:1883,1551649963208,PRODUCED
Publisher_002,topicA,topicA-399,172.172.1.2:1883,1551649963308,PRODUCED
Publisher_002,topicA,topicA-400,172.172.1.2:1883,1551649963410,PRODUCED
Publisher_002,topicA,topicA-401,172.172.1.2:1883,1551649963508,PRODUCED
Publisher_002,topicA,topicA-402,172.172.1.2:1883,1551649963609,PRODUCED
Publisher_002,topicA,topicA-403,172.172.1.2:1883,1551649963708,PRODUCED
Publisher_002,topicA,topicA-404,172.172.1.2:1883,1551649963808,PRODUCED
Publisher_002,topicA,topicA-405,172.172.1.2:1883,1551649963908,PRODUCED
Publisher_002,topicA,topicA-406,172.172.1.2:1883,1551649964008,PRODUCED
Publisher_002,topicA,topicA-407,172.172.1.2:1883,1551649964108,PRODUCED
Publisher_002,topicA,topicA-408,172.172.1.2:1883,1551649964208,PRODUCED
Publisher_002,topicA,topicA-409,172.172.1.2:1883,1551649964308,PRODUCED
Publisher_002,topicA,topicA-410,172.172.1.2:1883,1551649964408,PRODUCED
Publisher_002,topicA,topicA-411,172.172.1.2:1883,1551649964509,PRODUCED
Publisher_002,topicA,topicA-412,172.172.1.2:1883,1551649964608,PRODUCED
Publisher_002,topicA,topicA-413,172.172.1.2:1883,1551649964708,PRODUCED
Publisher_002,topicA,topicA-414,172.172.1.2:1883,1551649964808,PRODUCED
Publisher_002,topicA,topicA-415,172.172.1.2:1883,1551649964908,PRODUCED
Publisher_002,topicA,topicA-416,172.172.1.2:1883,1551649965009,PRODUCED
Publisher_002,topicA,topicA-417,172.172.1.2:1883,1551649965109,PRODUCED
Publisher_002,topicA,topicA-418,172.172.1.2:1883,1551649965208,PRODUCED
Publisher_002,topicA,topicA-419,172.172.1.2:1883,1551649965309,PRODUCED
Publisher_002,topicA,topicA-420,172.172.1.2:1883,1551649965409,PRODUCED
Publisher_002,topicA,topicA-421,172.172.1.2:1883,1551649965509,PRODUCED
Publisher_002,topicA,topicA-422,172.172.1.2:1883,1551649965608,PRODUCED
Publisher_002,topicA,topicA-423,172.172.1.2:1883,1551649965709,PRODUCED
Publisher_002,topicA,topicA-424,172.172.1.2:1883,1551649965809,PRODUCED
Publisher_002,topicA,topicA-425,172.172.1.2:1883,1551649965910,PRODUCED
Publisher_002,topicA,topicA-426,172.172.1.2:1883,1551649966009,PRODUCED
Publisher_002,topicA,topicA-427,172.172.1.2:1883,1551649966109,PRODUCED
Publisher_002,topicA,topicA-428,172.172.1.2:1883,1551649966209,PRODUCED
Publisher_002,topicA,topicA-429,172.172.1.2:1883,1551649966309,PRODUCED
Publisher_002,topicA,topicA-430,172.172.1.2:1883,1551649966408,PRODUCED
Publisher_002,topicA,topicA-431,172.172.1.2:1883,1551649966508,PRODUCED
Publisher_002,topicA,topicA-432,172.172.1.2:1883,1551649966608,PRODUCED
Publisher_002,topicA,topicA-433,172.172.1.2:1883,1551649966709,PRODUCED
Publisher_002,topicA,topicA-434,172.172.1.2:1883,1551649966808,PRODUCED
Publisher_002,topicA,topicA-435,172.172.1.2:1883,1551649966909,PRODUCED
Publisher_002,topicA,topicA-436,172.172.1.2:1883,1551649967009,PRODUCED
Publisher_002,topicA,topicA-437,172.172.1.2:1883,1551649967109,PRODUCED
Publisher_002,topicA,topicA-438,172.172.1.2:1883,1551649967208,PRODUCED
Publisher_002,topicA,topicA-439,172.172.1.2:1883,1551649967312,PRODUCED
Publisher_002,topicA,topicA-440,172.172.1.2:1883,1551649967409,PRODUCED
Publisher_002,topicA,topicA-441,172.172.1.2:1883,1551649967509,PRODUCED
Publisher_002,topicA,topicA-442,172.172.1.2:1883,1551649967609,PRODUCED
Publisher_002,topicA,topicA-443,172.172.1.2:1883,1551649967709,PRODUCED
Publisher_002,topicA,topicA-444,172.172.1.2:1883,1551649967809,PRODUCED
Publisher_002,topicA,topicA-445,172.172.1.2:1883,1551649967908,PRODUCED
Publisher_002,topicA,topicA-446,172.172.1.2:1883,1551649968009,PRODUCED
Publisher_002,topicA,topicA-447,172.172.1.2:1883,1551649968111,PRODUCED
Publisher_002,topicA,topicA-448,172.172.1.2:1883,1551649968208,PRODUCED
Publisher_002,topicA,topicA-449,172.172.1.2:1883,1551649968308,PRODUCED
Publisher_002,topicA,topicA-450,172.172.1.2:1883,1551649968408,PRODUCED
Publisher_002,topicA,topicA-451,172.172.1.2:1883,1551649968509,PRODUCED
Publisher_002,topicA,topicA-452,172.172.1.2:1883,1551649968609,PRODUCED
Publisher_002,topicA,topicA-453,172.172.1.2:1883,1551649968708,PRODUCED
Publisher_002,topicA,topicA-454,172.172.1.2:1883,1551649968808,PRODUCED
Publisher_002,topicA,topicA-455,172.172.1.2:1883,1551649968908,PRODUCED
Publisher_002,topicA,topicA-456,172.172.1.2:1883,1551649969008,PRODUCED
Publisher_002,topicA,topicA-457,172.172.1.2:1883,1551649969108,PRODUCED
Publisher_002,topicA,topicA-458,172.172.1.2:1883,1551649969208,PRODUCED
Publisher_002,topicA,topicA-459,172.172.1.2:1883,1551649969308,PRODUCED
Publisher_002,topicA,topicA-460,172.172.1.2:1883,1551649969408,PRODUCED
Publisher_002,topicA,topicA-461,172.172.1.2:1883,1551649969508,PRODUCED
Publisher_002,topicA,topicA-462,172.172.1.2:1883,1551649969609,PRODUCED
Publisher_002,topicA,topicA-463,172.172.1.2:1883,1551649969709,PRODUCED
Publisher_002,topicA,topicA-464,172.172.1.2:1883,1551649969810,PRODUCED
Publisher_002,topicA,topicA-465,172.172.1.2:1883,1551649969909,PRODUCED
Publisher_002,topicA,topicA-466,172.172.1.2:1883,1551649970009,PRODUCED
Publisher_002,topicA,topicA-467,172.172.1.2:1883,1551649970109,PRODUCED
Publisher_002,topicA,topicA-468,172.172.1.2:1883,1551649970208,PRODUCED
Publisher_002,topicA,topicA-469,172.172.1.2:1883,1551649970308,PRODUCED
Publisher_002,topicA,topicA-470,172.172.1.2:1883,1551649970409,PRODUCED
Publisher_002,topicA,topicA-471,172.172.1.2:1883,1551649970509,PRODUCED
Publisher_002,topicA,topicA-472,172.172.1.2:1883,1551649970609,PRODUCED
Publisher_002,topicA,topicA-473,172.172.1.2:1883,1551649970709,PRODUCED
Publisher_002,topicA,topicA-474,172.172.1.2:1883,1551649970808,PRODUCED
Publisher_002,topicA,topicA-475,172.172.1.2:1883,1551649970909,PRODUCED
Publisher_002,topicA,topicA-476,172.172.1.2:1883,1551649971009,PRODUCED
Publisher_002,topicA,topicA-477,172.172.1.2:1883,1551649971109,PRODUCED
Publisher_002,topicA,topicA-478,172.172.1.2:1883,1551649971209,PRODUCED
Publisher_002,topicA,topicA-479,172.172.1.2:1883,1551649971308,PRODUCED
Publisher_002,topicA,topicA-480,172.172.1.2:1883,1551649971408,PRODUCED
Publisher_002,topicA,topicA-481,172.172.1.2:1883,1551649971509,PRODUCED
Publisher_002,topicA,topicA-482,172.172.1.2:1883,1551649971609,PRODUCED
Publisher_002,topicA,topicA-483,172.172.1.2:1883,1551649971709,PRODUCED
Publisher_002,topicA,topicA-484,172.172.1.2:1883,1551649971808,PRODUCED
Publisher_002,topicA,topicA-485,172.172.1.2:1883,1551649971909,PRODUCED
Publisher_002,topicA,topicA-486,172.172.1.2:1883,1551649972009,PRODUCED
Publisher_002,topicA,topicA-487,172.172.1.2:1883,1551649972108,PRODUCED
Publisher_002,topicA,topicA-488,172.172.1.2:1883,1551649972208,PRODUCED
Publisher_002,topicA,topicA-489,172.172.1.2:1883,1551649972308,PRODUCED
Publisher_002,topicA,topicA-490,172.172.1.2:1883,1551649972408,PRODUCED
Publisher_002,topicA,topicA-491,172.172.1.2:1883,1551649972508,PRODUCED
Publisher_002,topicA,topicA-492,172.172.1.2:1883,1551649972608,PRODUCED
Publisher_002,topicA,topicA-493,172.172.1.2:1883,1551649972708,PRODUCED
Publisher_002,topicA,topicA-494,172.172.1.2:1883,1551649972809,PRODUCED
Publisher_002,topicA,topicA-495,172.172.1.2:1883,1551649972909,PRODUCED
Publisher_002,topicA,topicA-496,172.172.1.2:1883,1551649973009,PRODUCED
Publisher_002,topicA,topicA-497,172.172.1.2:1883,1551649973109,PRODUCED
Publisher_002,topicA,topicA-498,172.172.1.2:1883,1551649973208,PRODUCED
Publisher_002,topicA,topicA-499,172.172.1.2:1883,1551649973309,PRODUCED
Publisher_002,topicA,topicA-500,172.172.1.2:1883,1551649973409,PRODUCED
Publisher_002,topicA,topicA-501,172.172.1.2:1883,1551649973509,PRODUCED
Publisher_002,topicA,topicA-502,172.172.1.2:1883,1551649973608,PRODUCED
Publisher_002,topicA,topicA-503,172.172.1.2:1883,1551649973709,PRODUCED
Publisher_002,topicA,topicA-504,172.172.1.2:1883,1551649973808,PRODUCED
Publisher_002,topicA,topicA-505,172.172.1.2:1883,1551649973908,PRODUCED
Publisher_002,topicA,topicA-506,172.172.1.2:1883,1551649974009,PRODUCED
Publisher_002,topicA,topicA-507,172.172.1.2:1883,1551649974108,PRODUCED
Publisher_002,topicA,topicA-508,172.172.1.2:1883,1551649974208,PRODUCED
Publisher_002,topicA,topicA-509,172.172.1.2:1883,1551649974308,PRODUCED
Publisher_002,topicA,topicA-510,172.172.1.2:1883,1551649974408,PRODUCED
Publisher_002,topicA,topicA-511,172.172.1.2:1883,1551649974509,PRODUCED
Publisher_002,topicA,topicA-512,172.172.1.2:1883,1551649974609,PRODUCED
Publisher_002,topicA,topicA-513,172.172.1.2:1883,1551649974709,PRODUCED
Publisher_002,topicA,topicA-514,172.172.1.2:1883,1551649974808,PRODUCED
Publisher_002,topicA,topicA-515,172.172.1.2:1883,1551649974908,PRODUCED
Publisher_002,topicA,topicA-516,172.172.1.2:1883,1551649975008,PRODUCED
Publisher_002,topicA,topicA-517,172.172.1.2:1883,1551649975108,PRODUCED
Publisher_002,topicA,topicA-518,172.172.1.2:1883,1551649975208,PRODUCED
Publisher_002,topicA,topicA-519,172.172.1.2:1883,1551649975308,PRODUCED
Publisher_002,topicA,topicA-520,172.172.1.2:1883,1551649975408,PRODUCED
Publisher_002,topicA,topicA-521,172.172.1.2:1883,1551649975508,PRODUCED
Publisher_002,topicA,topicA-522,172.172.1.2:1883,1551649975609,PRODUCED
Publisher_002,topicA,topicA-523,172.172.1.2:1883,1551649975713,PRODUCED
Publisher_002,topicA,topicA-524,172.172.1.2:1883,1551649975808,PRODUCED
Publisher_002,topicA,topicA-525,172.172.1.2:1883,1551649975908,PRODUCED
Publisher_002,topicA,topicA-526,172.172.1.2:1883,1551649976009,PRODUCED
Publisher_002,topicA,topicA-527,172.172.1.2:1883,1551649976109,PRODUCED
Publisher_002,topicA,topicA-528,172.172.1.2:1883,1551649976209,PRODUCED
Publisher_002,topicA,topicA-529,172.172.1.2:1883,1551649976312,PRODUCED
Publisher_002,topicA,topicA-530,172.172.1.2:1883,1551649976409,PRODUCED
Publisher_002,topicA,topicA-531,172.172.1.2:1883,1551649976509,PRODUCED
Publisher_002,topicA,topicA-532,172.172.1.2:1883,1551649976609,PRODUCED
Publisher_002,topicA,topicA-533,172.172.1.2:1883,1551649976709,PRODUCED
Publisher_002,topicA,topicA-534,172.172.1.2:1883,1551649976809,PRODUCED
Publisher_002,topicA,topicA-535,172.172.1.2:1883,1551649976909,PRODUCED
Publisher_002,topicA,topicA-536,172.172.1.2:1883,1551649977009,PRODUCED
Publisher_002,topicA,topicA-537,172.172.1.2:1883,1551649977109,PRODUCED
Publisher_002,topicA,topicA-538,172.172.1.2:1883,1551649977209,PRODUCED
Publisher_002,topicA,topicA-539,172.172.1.2:1883,1551649977308,PRODUCED
Publisher_002,topicA,topicA-540,172.172.1.2:1883,1551649977408,PRODUCED
Publisher_002,topicA,topicA-541,172.172.1.2:1883,1551649977508,PRODUCED
Publisher_002,topicA,topicA-542,172.172.1.2:1883,1551649977608,PRODUCED
Publisher_002,topicA,topicA-543,172.172.1.2:1883,1551649977708,PRODUCED
Publisher_002,topicA,topicA-544,172.172.1.2:1883,1551649977809,PRODUCED
Publisher_002,topicA,topicA-545,172.172.1.2:1883,1551649977909,PRODUCED
Publisher_002,topicA,topicA-546,172.172.1.2:1883,1551649978008,PRODUCED
Publisher_002,topicA,topicA-547,172.172.1.2:1883,1551649978108,PRODUCED
Publisher_002,topicA,topicA-548,172.172.1.2:1883,1551649978208,PRODUCED
Publisher_002,topicA,topicA-549,172.172.1.2:1883,1551649978309,PRODUCED
Publisher_002,topicA,topicA-550,172.172.1.2:1883,1551649978408,PRODUCED
Publisher_002,topicA,topicA-551,172.172.1.2:1883,1551649978509,PRODUCED
Publisher_002,topicA,topicA-552,172.172.1.2:1883,1551649978609,PRODUCED
Publisher_002,topicA,topicA-553,172.172.1.2:1883,1551649978708,PRODUCED
Publisher_002,topicA,topicA-554,172.172.1.2:1883,1551649978808,PRODUCED
Publisher_002,topicA,topicA-555,172.172.1.2:1883,1551649978909,PRODUCED
Publisher_002,topicA,topicA-556,172.172.1.2:1883,1551649979008,PRODUCED
Publisher_002,topicA,topicA-557,172.172.1.2:1883,1551649979108,PRODUCED
Publisher_002,topicA,topicA-558,172.172.1.2:1883,1551649979208,PRODUCED
Publisher_002,topicA,topicA-559,172.172.1.2:1883,1551649979309,PRODUCED
Publisher_002,topicA,topicA-560,172.172.1.2:1883,1551649979409,PRODUCED
Publisher_002,topicA,topicA-561,172.172.1.2:1883,1551649979509,PRODUCED
Publisher_002,topicA,topicA-562,172.172.1.2:1883,1551649979609,PRODUCED
Publisher_002,topicA,topicA-563,172.172.1.2:1883,1551649979709,PRODUCED
Publisher_002,topicA,topicA-564,172.172.1.2:1883,1551649979809,PRODUCED
Publisher_002,topicA,topicA-565,172.172.1.2:1883,1551649979909,PRODUCED
Publisher_002,topicA,topicA-566,172.172.1.2:1883,1551649980009,PRODUCED
Publisher_002,topicA,topicA-567,172.172.1.2:1883,1551649980109,PRODUCED
Publisher_002,topicA,topicA-568,172.172.1.2:1883,1551649980208,PRODUCED
Publisher_002,topicA,topicA-569,172.172.1.2:1883,1551649980309,PRODUCED
Publisher_002,topicA,topicA-570,172.172.1.2:1883,1551649980409,PRODUCED
Publisher_002,topicA,topicA-571,172.172.1.2:1883,1551649980508,PRODUCED
Publisher_002,topicA,topicA-572,172.172.1.2:1883,1551649980609,PRODUCED
Publisher_002,topicA,topicA-573,172.172.1.2:1883,1551649980708,PRODUCED
Publisher_002,topicA,topicA-574,172.172.1.2:1883,1551649980808,PRODUCED
Publisher_002,topicA,topicA-575,172.172.1.2:1883,1551649980908,PRODUCED
Publisher_002,topicA,topicA-576,172.172.1.2:1883,1551649981008,PRODUCED
Publisher_002,topicA,topicA-577,172.172.1.2:1883,1551649981108,PRODUCED
Publisher_002,topicA,topicA-578,172.172.1.2:1883,1551649981208,PRODUCED
Publisher_002,topicA,topicA-579,172.172.1.2:1883,1551649981308,PRODUCED
Publisher_002,topicA,topicA-580,172.172.1.2:1883,1551649981409,PRODUCED
Publisher_002,topicA,topicA-581,172.172.1.2:1883,1551649981508,PRODUCED
Publisher_002,topicA,topicA-582,172.172.1.2:1883,1551649981609,PRODUCED
Publisher_002,topicA,topicA-583,172.172.1.2:1883,1551649981709,PRODUCED
Publisher_002,topicA,topicA-584,172.172.1.2:1883,1551649981809,PRODUCED
Publisher_002,topicA,topicA-585,172.172.1.2:1883,1551649981908,PRODUCED
Publisher_002,topicA,topicA-586,172.172.1.2:1883,1551649982009,PRODUCED
Publisher_002,topicA,topicA-587,172.172.1.2:1883,1551649982109,PRODUCED
Publisher_002,topicA,topicA-588,172.172.1.2:1883,1551649982209,PRODUCED
Publisher_002,topicA,topicA-589,172.172.1.2:1883,1551649982308,PRODUCED
Publisher_002,topicA,topicA-590,172.172.1.2:1883,1551649982408,PRODUCED
Publisher_002,topicA,topicA-591,172.172.1.2:1883,1551649982508,PRODUCED
Publisher_002,topicA,topicA-592,172.172.1.2:1883,1551649982609,PRODUCED
Publisher_002,topicA,topicA-593,172.172.1.2:1883,1551649982709,PRODUCED
Publisher_002,topicA,topicA-594,172.172.1.2:1883,1551649982809,PRODUCED
Publisher_002,topicA,topicA-595,172.172.1.2:1883,1551649982908,PRODUCED
Publisher_002,topicA,topicA-596,172.172.1.2:1883,1551649983009,PRODUCED
Publisher_002,topicA,topicA-597,172.172.1.2:1883,1551649983109,PRODUCED
Publisher_002,topicA,topicA-598,172.172.1.2:1883,1551649983209,PRODUCED
Publisher_002,topicA,topicA-599,172.172.1.2:1883,1551649983316,PRODUCED
Publisher_002,topicA,topicA-600,172.172.1.2:1883,1551649983409,PRODUCED
Publisher_002,topicA,topicA-601,172.172.1.2:1883,1551649983509,PRODUCED
Publisher_002,topicA,topicA-602,172.172.1.2:1883,1551649983609,PRODUCED
Publisher_002,topicA,topicA-603,172.172.1.2:1883,1551649983712,PRODUCED
Publisher_002,topicA,topicA-604,172.172.1.2:1883,1551649983809,PRODUCED
Publisher_002,topicA,topicA-605,172.172.1.2:1883,1551649983908,PRODUCED
Publisher_002,topicA,topicA-606,172.172.1.2:1883,1551649984009,PRODUCED
Publisher_002,topicA,topicA-607,172.172.1.2:1883,1551649984110,PRODUCED
Publisher_002,topicA,topicA-608,172.172.1.2:1883,1551649984208,PRODUCED
Publisher_002,topicA,topicA-609,172.172.1.2:1883,1551649984310,PRODUCED
Publisher_002,topicA,topicA-610,172.172.1.2:1883,1551649984411,PRODUCED
Publisher_002,topicA,topicA-611,172.172.1.2:1883,1551649984508,PRODUCED
Publisher_002,topicA,topicA-612,172.172.1.2:1883,1551649984609,PRODUCED
Publisher_002,topicA,topicA-613,172.172.1.2:1883,1551649984709,PRODUCED
Publisher_002,topicA,topicA-614,172.172.1.2:1883,1551649984809,PRODUCED
Publisher_002,topicA,topicA-615,172.172.1.2:1883,1551649984909,PRODUCED
Publisher_002,topicA,topicA-616,172.172.1.2:1883,1551649985009,PRODUCED
Publisher_002,topicA,topicA-617,172.172.1.2:1883,1551649985109,PRODUCED
Publisher_002,topicA,topicA-618,172.172.1.2:1883,1551649985208,PRODUCED
Publisher_002,topicA,topicA-619,172.172.1.2:1883,1551649985309,PRODUCED
Publisher_002,topicA,topicA-620,172.172.1.2:1883,1551649985409,PRODUCED
Publisher_002,topicA,topicA-621,172.172.1.2:1883,1551649985509,PRODUCED
Publisher_002,topicA,topicA-622,172.172.1.2:1883,1551649985609,PRODUCED
Publisher_002,topicA,topicA-623,172.172.1.2:1883,1551649985709,PRODUCED
Publisher_002,topicA,topicA-624,172.172.1.2:1883,1551649985809,PRODUCED
Publisher_002,topicA,topicA-625,172.172.1.2:1883,1551649985908,PRODUCED
Publisher_002,topicA,topicA-626,172.172.1.2:1883,1551649986011,PRODUCED
Publisher_002,topicA,topicA-627,172.172.1.2:1883,1551649986108,PRODUCED
Publisher_002,topicA,topicA-628,172.172.1.2:1883,1551649986209,PRODUCED
Publisher_002,topicA,topicA-629,172.172.1.2:1883,1551649986308,PRODUCED
Publisher_002,topicA,topicA-630,172.172.1.2:1883,1551649986409,PRODUCED
Publisher_002,topicA,topicA-631,172.172.1.2:1883,1551649986509,PRODUCED
Publisher_002,topicA,topicA-632,172.172.1.2:1883,1551649986609,PRODUCED
Publisher_002,topicA,topicA-633,172.172.1.2:1883,1551649986709,PRODUCED
Publisher_002,topicA,topicA-634,172.172.1.2:1883,1551649986809,PRODUCED
Publisher_002,topicA,topicA-635,172.172.1.2:1883,1551649986908,PRODUCED
Publisher_002,topicA,topicA-636,172.172.1.2:1883,1551649987009,PRODUCED
Publisher_002,topicA,topicA-637,172.172.1.2:1883,1551649987109,PRODUCED
Publisher_002,topicA,topicA-638,172.172.1.2:1883,1551649987208,PRODUCED
Publisher_002,topicA,topicA-639,172.172.1.2:1883,1551649987309,PRODUCED
Publisher_002,topicA,topicA-640,172.172.1.2:1883,1551649987408,PRODUCED
Publisher_002,topicA,topicA-641,172.172.1.2:1883,1551649987508,PRODUCED
Publisher_002,topicA,topicA-642,172.172.1.2:1883,1551649987609,PRODUCED
Publisher_002,topicA,topicA-643,172.172.1.2:1883,1551649987708,PRODUCED
Publisher_002,topicA,topicA-644,172.172.1.2:1883,1551649987808,PRODUCED
Publisher_002,topicA,topicA-645,172.172.1.2:1883,1551649987908,PRODUCED
Publisher_002,topicA,topicA-646,172.172.1.2:1883,1551649988008,PRODUCED
Publisher_002,topicA,topicA-647,172.172.1.2:1883,1551649988108,PRODUCED
Publisher_002,topicA,topicA-648,172.172.1.2:1883,1551649988208,PRODUCED
Publisher_002,topicA,topicA-649,172.172.1.2:1883,1551649988310,PRODUCED
Publisher_002,topicA,topicA-650,172.172.1.2:1883,1551649988412,PRODUCED
Publisher_002,topicA,topicA-651,172.172.1.2:1883,1551649988508,PRODUCED
Publisher_002,topicA,topicA-652,172.172.1.2:1883,1551649988608,PRODUCED
Publisher_002,topicA,topicA-653,172.172.1.2:1883,1551649988708,PRODUCED
Publisher_002,topicA,topicA-654,172.172.1.2:1883,1551649988808,PRODUCED
Publisher_002,topicA,topicA-655,172.172.1.2:1883,1551649988908,PRODUCED
Publisher_002,topicA,topicA-656,172.172.1.2:1883,1551649989008,PRODUCED
Publisher_002,topicA,topicA-657,172.172.1.2:1883,1551649989109,PRODUCED
Publisher_002,topicA,topicA-658,172.172.1.2:1883,1551649989208,PRODUCED
Publisher_002,topicA,topicA-659,172.172.1.2:1883,1551649989310,PRODUCED
Publisher_002,topicA,topicA-660,172.172.1.2:1883,1551649989408,PRODUCED
Publisher_002,topicA,topicA-661,172.172.1.2:1883,1551649989508,PRODUCED
Publisher_002,topicA,topicA-662,172.172.1.2:1883,1551649989608,PRODUCED
