clientId,topic,guid,broker,timestamp,type
Publisher_001,topicA,topicA-1,172.172.1.1:1883,1551650205648,PRODUCED
Publisher_001,topicA,topicA-2,172.172.1.1:1883,1551650205963,PRODUCED
Publisher_001,topicA,topicA-3,172.172.1.1:1883,1551650205967,PRODUCED
Publisher_001,topicA,topicA-4,172.172.1.1:1883,1551650205972,PRODUCED
Publisher_001,topicA,topicA-5,172.172.1.1:1883,1551650205976,PRODUCED
Publisher_001,topicA,topicA-6,172.172.1.1:1883,1551650205985,PRODUCED
Publisher_001,topicA,topicA-7,172.172.1.1:1883,1551650206063,PRODUCED
Publisher_001,topicA,topicA-8,172.172.1.1:1883,1551650206163,PRODUCED
Publisher_001,topicA,topicA-9,172.172.1.1:1883,1551650206262,PRODUCED
Publisher_001,topicA,topicA-10,172.172.1.1:1883,1551650206364,PRODUCED
Publisher_001,topicA,topicA-11,172.172.1.1:1883,1551650206463,PRODUCED
Publisher_001,topicA,topicA-12,172.172.1.1:1883,1551650206565,PRODUCED
Publisher_001,topicA,topicA-13,172.172.1.1:1883,1551650206663,PRODUCED
Publisher_001,topicA,topicA-14,172.172.1.1:1883,1551650206763,PRODUCED
Publisher_001,topicA,topicA-15,172.172.1.1:1883,1551650206867,PRODUCED
Publisher_001,topicA,topicA-16,172.172.1.1:1883,1551650206964,PRODUCED
Publisher_001,topicA,topicA-17,172.172.1.1:1883,1551650207063,PRODUCED
Publisher_001,topicA,topicA-18,172.172.1.1:1883,1551650207162,PRODUCED
Publisher_001,topicA,topicA-19,172.172.1.1:1883,1551650207267,PRODUCED
Publisher_001,topicA,topicA-20,172.172.1.1:1883,1551650207363,PRODUCED
Publisher_001,topicA,topicA-21,172.172.1.1:1883,1551650207463,PRODUCED
Publisher_001,topicA,topicA-22,172.172.1.1:1883,1551650207563,PRODUCED
Publisher_001,topicA,topicA-23,172.172.1.1:1883,1551650207663,PRODUCED
Publisher_001,topicA,topicA-24,172.172.1.1:1883,1551650207763,PRODUCED
Publisher_001,topicA,topicA-25,172.172.1.1:1883,1551650207865,PRODUCED
Publisher_001,topicA,topicA-26,172.172.1.1:1883,1551650207963,PRODUCED
Publisher_001,topicA,topicA-27,172.172.1.1:1883,1551650208062,PRODUCED
Publisher_001,topicA,topicA-28,172.172.1.1:1883,1551650208163,PRODUCED
Publisher_001,topicA,topicA-29,172.172.1.1:1883,1551650208263,PRODUCED
Publisher_001,topicA,topicA-30,172.172.1.1:1883,1551650208363,PRODUCED
Publisher_001,topicA,topicA-31,172.172.1.1:1883,1551650208462,PRODUCED
Publisher_001,topicA,topicA-32,172.172.1.1:1883,1551650208562,PRODUCED
Publisher_001,topicA,topicA-33,172.172.1.1:1883,1551650208663,PRODUCED
Publisher_001,topicA,topicA-34,172.172.1.1:1883,1551650208763,PRODUCED
Publisher_001,topicA,topicA-35,172.172.1.1:1883,1551650208863,PRODUCED
Publisher_001,topicA,topicA-36,172.172.1.1:1883,1551650208963,PRODUCED
Publisher_001,topicA,topicA-37,172.172.1.1:1883,1551650209062,PRODUCED
Publisher_001,topicA,topicA-38,172.172.1.1:1883,1551650209163,PRODUCED
Publisher_001,topicA,topicA-39,172.172.1.1:1883,1551650209263,PRODUCED
Publisher_001,topicA,topicA-40,172.172.1.1:1883,1551650209364,PRODUCED
Publisher_001,topicA,topicA-41,172.172.1.1:1883,1551650209467,PRODUCED
Publisher_001,topicA,topicA-42,172.172.1.1:1883,1551650209563,PRODUCED
Publisher_001,topicA,topicA-43,172.172.1.1:1883,1551650209666,PRODUCED
Publisher_001,topicA,topicA-44,172.172.1.1:1883,1551650209764,PRODUCED
Publisher_001,topicA,topicA-45,172.172.1.1:1883,1551650209863,PRODUCED
Publisher_001,topicA,topicA-46,172.172.1.1:1883,1551650209963,PRODUCED
Publisher_001,topicA,topicA-47,172.172.1.1:1883,1551650210062,PRODUCED
Publisher_001,topicA,topicA-48,172.172.1.1:1883,1551650210163,PRODUCED
Publisher_001,topicA,topicA-49,172.172.1.1:1883,1551650210263,PRODUCED
Publisher_001,topicA,topicA-50,172.172.1.1:1883,1551650210365,PRODUCED
Publisher_001,topicA,topicA-51,172.172.1.1:1883,1551650210463,PRODUCED
Publisher_001,topicA,topicA-52,172.172.1.1:1883,1551650210564,PRODUCED
Publisher_001,topicA,topicA-53,172.172.1.1:1883,1551650210665,PRODUCED
Publisher_001,topicA,topicA-54,172.172.1.1:1883,1551650210763,PRODUCED
Publisher_001,topicA,topicA-55,172.172.1.1:1883,1551650210863,PRODUCED
Publisher_001,topicA,topicA-56,172.172.1.1:1883,1551650210964,PRODUCED
Publisher_001,topicA,topicA-57,172.172.1.1:1883,1551650211063,PRODUCED
Publisher_001,topicA,topicA-58,172.172.1.1:1883,1551650211163,PRODUCED
Publisher_001,topicA,topicA-59,172.172.1.1:1883,1551650211264,PRODUCED
Publisher_001,topicA,topicA-60,172.172.1.1:1883,1551650211363,PRODUCED
Publisher_001,topicA,topicA-61,172.172.1.1:1883,1551650211463,PRODUCED
Publisher_001,topicA,topicA-62,172.172.1.1:1883,1551650211565,PRODUCED
Publisher_001,topicA,topicA-63,172.172.1.1:1883,1551650211663,PRODUCED
Publisher_001,topicA,topicA-64,172.172.1.1:1883,1551650211765,PRODUCED
Publisher_001,topicA,topicA-65,172.172.1.1:1883,1551650211865,PRODUCED
Publisher_001,topicA,topicA-66,172.172.1.1:1883,1551650211963,PRODUCED
Publisher_001,topicA,topicA-67,172.172.1.1:1883,1551650212065,PRODUCED
Publisher_001,topicA,topicA-68,172.172.1.1:1883,1551650212167,PRODUCED
Publisher_001,topicA,topicA-69,172.172.1.1:1883,1551650212264,PRODUCED
Publisher_001,topicA,topicA-70,172.172.1.1:1883,1551650212365,PRODUCED
Publisher_001,topicA,topicA-71,172.172.1.1:1883,1551650212463,PRODUCED
Publisher_001,topicA,topicA-72,172.172.1.1:1883,1551650212563,PRODUCED
Publisher_001,topicA,topicA-73,172.172.1.1:1883,1551650212663,PRODUCED
Publisher_001,topicA,topicA-74,172.172.1.1:1883,1551650212763,PRODUCED
Publisher_001,topicA,topicA-75,172.172.1.1:1883,1551650212867,PRODUCED
Publisher_001,topicA,topicA-76,172.172.1.1:1883,1551650212962,PRODUCED
Publisher_001,topicA,topicA-77,172.172.1.1:1883,1551650213064,PRODUCED
Publisher_001,topicA,topicA-78,172.172.1.1:1883,1551650213164,PRODUCED
Publisher_001,topicA,topicA-79,172.172.1.1:1883,1551650213263,PRODUCED
Publisher_001,topicA,topicA-80,172.172.1.1:1883,1551650213363,PRODUCED
Publisher_001,topicA,topicA-81,172.172.1.1:1883,1551650213463,PRODUCED
Publisher_001,topicA,topicA-82,172.172.1.1:1883,1551650213564,PRODUCED
Publisher_001,topicA,topicA-83,172.172.1.1:1883,1551650213664,PRODUCED
Publisher_001,topicA,topicA-84,172.172.1.1:1883,1551650213774,PRODUCED
Publisher_001,topicA,topicA-85,172.172.1.1:1883,1551650213866,PRODUCED
Publisher_001,topicA,topicA-86,172.172.1.1:1883,1551650213963,PRODUCED
Publisher_001,topicA,topicA-87,172.172.1.1:1883,1551650214065,PRODUCED
Publisher_001,topicA,topicA-88,172.172.1.1:1883,1551650214163,PRODUCED
Publisher_001,topicA,topicA-89,172.172.1.1:1883,1551650214263,PRODUCED
Publisher_001,topicA,topicA-90,172.172.1.1:1883,1551650214362,PRODUCED
Publisher_001,topicA,topicA-91,172.172.1.1:1883,1551650214463,PRODUCED
Publisher_001,topicA,topicA-92,172.172.1.1:1883,1551650214562,PRODUCED
Publisher_001,topicA,topicA-93,172.172.1.1:1883,1551650214663,PRODUCED
Publisher_001,topicA,topicA-94,172.172.1.1:1883,1551650214762,PRODUCED
Publisher_001,topicA,topicA-95,172.172.1.1:1883,1551650214863,PRODUCED
Publisher_001,topicA,topicA-96,172.172.1.1:1883,1551650214972,PRODUCED
Publisher_001,topicA,topicA-97,172.172.1.1:1883,1551650215063,PRODUCED
Publisher_001,topicA,topicA-98,172.172.1.1:1883,1551650215165,PRODUCED
Publisher_001,topicA,topicA-99,172.172.1.1:1883,1551650215263,PRODUCED
Publisher_001,topicA,topicA-100,172.172.1.1:1883,1551650215366,PRODUCED
Publisher_001,topicA,topicA-101,172.172.1.1:1883,1551650215464,PRODUCED
Publisher_001,topicA,topicA-102,172.172.1.1:1883,1551650215563,PRODUCED
Publisher_001,topicA,topicA-103,172.172.1.1:1883,1551650215663,PRODUCED
Publisher_001,topicA,topicA-104,172.172.1.1:1883,1551650215763,PRODUCED
Publisher_001,topicA,topicA-105,172.172.1.1:1883,1551650215863,PRODUCED
Publisher_001,topicA,topicA-106,172.172.1.1:1883,1551650215963,PRODUCED
Publisher_001,topicA,topicA-107,172.172.1.1:1883,1551650216063,PRODUCED
Publisher_001,topicA,topicA-108,172.172.1.1:1883,1551650216163,PRODUCED
Publisher_001,topicA,topicA-109,172.172.1.1:1883,1551650216263,PRODUCED
Publisher_001,topicA,topicA-110,172.172.1.1:1883,1551650216364,PRODUCED
Publisher_001,topicA,topicA-111,172.172.1.1:1883,1551650216463,PRODUCED
Publisher_001,topicA,topicA-112,172.172.1.1:1883,1551650216572,PRODUCED
Publisher_001,topicA,topicA-113,172.172.1.1:1883,1551650216663,PRODUCED
Publisher_001,topicA,topicA-114,172.172.1.1:1883,1551650216763,PRODUCED
Publisher_001,topicA,topicA-115,172.172.1.1:1883,1551650216868,PRODUCED
Publisher_001,topicA,topicA-116,172.172.1.1:1883,1551650216965,PRODUCED
Publisher_001,topicA,topicA-117,172.172.1.1:1883,1551650217063,PRODUCED
Publisher_001,topicA,topicA-118,172.172.1.1:1883,1551650217164,PRODUCED
Publisher_001,topicA,topicA-119,172.172.1.1:1883,1551650217268,PRODUCED
Publisher_001,topicA,topicA-120,172.172.1.1:1883,1551650217363,PRODUCED
Publisher_001,topicA,topicA-121,172.172.1.1:1883,1551650217463,PRODUCED
Publisher_001,topicA,topicA-122,172.172.1.1:1883,1551650217563,PRODUCED
Publisher_001,topicA,topicA-123,172.172.1.1:1883,1551650217663,PRODUCED
Publisher_001,topicA,topicA-124,172.172.1.1:1883,1551650217763,PRODUCED
Publisher_001,topicA,topicA-125,172.172.1.1:1883,1551650217865,PRODUCED
Publisher_001,topicA,topicA-126,172.172.1.1:1883,1551650217964,PRODUCED
Publisher_001,topicA,topicA-127,172.172.1.1:1883,1551650218069,PRODUCED
Publisher_001,topicA,topicA-128,172.172.1.1:1883,1551650218167,PRODUCED
Publisher_001,topicA,topicA-129,172.172.1.1:1883,1551650218264,PRODUCED
Publisher_001,topicA,topicA-130,172.172.1.1:1883,1551650218364,PRODUCED
Publisher_001,topicA,topicA-131,172.172.1.1:1883,1551650218466,PRODUCED
Publisher_001,topicA,topicA-132,172.172.1.1:1883,1551650218563,PRODUCED
Publisher_001,topicA,topicA-133,172.172.1.1:1883,1551650218664,PRODUCED
Publisher_001,topicA,topicA-134,172.172.1.1:1883,1551650218768,PRODUCED
Publisher_001,topicA,topicA-135,172.172.1.1:1883,1551650218865,PRODUCED
Publisher_001,topicA,topicA-136,172.172.1.1:1883,1551650218967,PRODUCED
Publisher_001,topicA,topicA-137,172.172.1.1:1883,1551650219063,PRODUCED
Publisher_001,topicA,topicA-138,172.172.1.1:1883,1551650219164,PRODUCED
Publisher_001,topicA,topicA-139,172.172.1.1:1883,1551650219263,PRODUCED
Publisher_001,topicA,topicA-140,172.172.1.1:1883,1551650219368,PRODUCED
Publisher_001,topicA,topicA-141,172.172.1.1:1883,1551650219462,PRODUCED
Publisher_001,topicA,topicA-142,172.172.1.1:1883,1551650219563,PRODUCED
Publisher_001,topicA,topicA-143,172.172.1.1:1883,1551650219663,PRODUCED
Publisher_001,topicA,topicA-144,172.172.1.1:1883,1551650219763,PRODUCED
Publisher_001,topicA,topicA-145,172.172.1.1:1883,1551650219863,PRODUCED
Publisher_001,topicA,topicA-146,172.172.1.1:1883,1551650219963,PRODUCED
Publisher_001,topicA,topicA-147,172.172.1.1:1883,1551650220063,PRODUCED
Publisher_001,topicA,topicA-148,172.172.1.1:1883,1551650220163,PRODUCED
Publisher_001,topicA,topicA-149,172.172.1.1:1883,1551650220263,PRODUCED
Publisher_001,topicA,topicA-150,172.172.1.1:1883,1551650220364,PRODUCED
Publisher_001,topicA,topicA-151,172.172.1.1:1883,1551650220465,PRODUCED
Publisher_001,topicA,topicA-152,172.172.1.1:1883,1551650220565,PRODUCED
Publisher_001,topicA,topicA-153,172.172.1.1:1883,1551650220664,PRODUCED
Publisher_001,topicA,topicA-154,172.172.1.1:1883,1551650220763,PRODUCED
Publisher_001,topicA,topicA-155,172.172.1.1:1883,1551650220863,PRODUCED
Publisher_001,topicA,topicA-156,172.172.1.1:1883,1551650220965,PRODUCED
Publisher_001,topicA,topicA-157,172.172.1.1:1883,1551650221064,PRODUCED
Publisher_001,topicA,topicA-158,172.172.1.1:1883,1551650221163,PRODUCED
Publisher_001,topicA,topicA-159,172.172.1.1:1883,1551650221262,PRODUCED
Publisher_001,topicA,topicA-160,172.172.1.1:1883,1551650221363,PRODUCED
Publisher_001,topicA,topicA-161,172.172.1.1:1883,1551650221463,PRODUCED
Publisher_001,topicA,topicA-162,172.172.1.1:1883,1551650221563,PRODUCED
Publisher_001,topicA,topicA-163,172.172.1.1:1883,1551650221663,PRODUCED
Publisher_001,topicA,topicA-164,172.172.1.1:1883,1551650221764,PRODUCED
Publisher_001,topicA,topicA-165,172.172.1.1:1883,1551650221863,PRODUCED
Publisher_001,topicA,topicA-166,172.172.1.1:1883,1551650221966,PRODUCED
Publisher_001,topicA,topicA-167,172.172.1.1:1883,1551650222063,PRODUCED
Publisher_001,topicA,topicA-168,172.172.1.1:1883,1551650222167,PRODUCED
Publisher_001,topicA,topicA-169,172.172.1.1:1883,1551650222263,PRODUCED
Publisher_001,topicA,topicA-170,172.172.1.1:1883,1551650222365,PRODUCED
Publisher_001,topicA,topicA-171,172.172.1.1:1883,1551650222463,PRODUCED
Publisher_001,topicA,topicA-172,172.172.1.1:1883,1551650222563,PRODUCED
Publisher_001,topicA,topicA-173,172.172.1.1:1883,1551650222667,PRODUCED
Publisher_001,topicA,topicA-174,172.172.1.1:1883,1551650222763,PRODUCED
Publisher_001,topicA,topicA-175,172.172.1.1:1883,1551650222863,PRODUCED
Publisher_001,topicA,topicA-176,172.172.1.1:1883,1551650222963,PRODUCED
Publisher_001,topicA,topicA-177,172.172.1.1:1883,1551650223064,PRODUCED
Publisher_001,topicA,topicA-178,172.172.1.1:1883,1551650223163,PRODUCED
Publisher_001,topicA,topicA-179,172.172.1.1:1883,1551650223265,PRODUCED
Publisher_001,topicA,topicA-180,172.172.1.1:1883,1551650223363,PRODUCED
Publisher_001,topicA,topicA-181,172.172.1.1:1883,1551650223464,PRODUCED
Publisher_001,topicA,topicA-182,172.172.1.1:1883,1551650223567,PRODUCED
Publisher_001,topicA,topicA-183,172.172.1.1:1883,1551650223666,PRODUCED
Publisher_001,topicA,topicA-184,172.172.1.1:1883,1551650223769,PRODUCED
Publisher_001,topicA,topicA-185,172.172.1.1:1883,1551650223863,PRODUCED
Publisher_001,topicA,topicA-186,172.172.1.1:1883,1551650223964,PRODUCED
Publisher_001,topicA,topicA-187,172.172.1.1:1883,1551650224064,PRODUCED
Publisher_001,topicA,topicA-188,172.172.1.1:1883,1551650224163,PRODUCED
Publisher_001,topicA,topicA-189,172.172.1.1:1883,1551650224263,PRODUCED
Publisher_001,topicA,topicA-190,172.172.1.1:1883,1551650224363,PRODUCED
Publisher_001,topicA,topicA-191,172.172.1.1:1883,1551650224463,PRODUCED
Publisher_001,topicA,topicA-192,172.172.1.1:1883,1551650224564,PRODUCED
Publisher_001,topicA,topicA-193,172.172.1.1:1883,1551650224663,PRODUCED
Publisher_001,topicA,topicA-194,172.172.1.1:1883,1551650224763,PRODUCED
Publisher_001,topicA,topicA-195,172.172.1.1:1883,1551650224863,PRODUCED
Publisher_001,topicA,topicA-196,172.172.1.1:1883,1551650224963,PRODUCED
Publisher_001,topicA,topicA-197,172.172.1.1:1883,1551650225062,PRODUCED
Publisher_001,topicA,topicA-198,172.172.1.1:1883,1551650225163,PRODUCED
Publisher_001,topicA,topicA-199,172.172.1.1:1883,1551650225264,PRODUCED
Publisher_001,topicA,topicA-200,172.172.1.1:1883,1551650225363,PRODUCED
Publisher_001,topicA,topicA-201,172.172.1.1:1883,1551650225463,PRODUCED
Publisher_001,topicA,topicA-202,172.172.1.1:1883,1551650225563,PRODUCED
Publisher_001,topicA,topicA-203,172.172.1.1:1883,1551650225663,PRODUCED
Publisher_001,topicA,topicA-204,172.172.1.1:1883,1551650225763,PRODUCED
Publisher_001,topicA,topicA-205,172.172.1.1:1883,1551650225863,PRODUCED
Publisher_001,topicA,topicA-206,172.172.1.1:1883,1551650225964,PRODUCED
Publisher_001,topicA,topicA-207,172.172.1.1:1883,1551650226063,PRODUCED
Publisher_001,topicA,topicA-208,172.172.1.1:1883,1551650226164,PRODUCED
Publisher_001,topicA,topicA-209,172.172.1.1:1883,1551650226263,PRODUCED
Publisher_001,topicA,topicA-210,172.172.1.1:1883,1551650226367,PRODUCED
Publisher_001,topicA,topicA-211,172.172.1.1:1883,1551650226464,PRODUCED
Publisher_001,topicA,topicA-212,172.172.1.1:1883,1551650226563,PRODUCED
Publisher_001,topicA,topicA-213,172.172.1.1:1883,1551650226664,PRODUCED
Publisher_001,topicA,topicA-214,172.172.1.1:1883,1551650226764,PRODUCED
Publisher_001,topicA,topicA-215,172.172.1.1:1883,1551650226863,PRODUCED
Publisher_001,topicA,topicA-216,172.172.1.1:1883,1551650226962,PRODUCED
Publisher_001,topicA,topicA-217,172.172.1.1:1883,1551650227065,PRODUCED
Publisher_001,topicA,topicA-218,172.172.1.1:1883,1551650227162,PRODUCED
Publisher_001,topicA,topicA-219,172.172.1.1:1883,1551650227263,PRODUCED
Publisher_001,topicA,topicA-220,172.172.1.1:1883,1551650227362,PRODUCED
Publisher_001,topicA,topicA-221,172.172.1.1:1883,1551650227462,PRODUCED
Publisher_001,topicA,topicA-222,172.172.1.1:1883,1551650227563,PRODUCED
Publisher_001,topicA,topicA-223,172.172.1.1:1883,1551650227662,PRODUCED
Publisher_001,topicA,topicA-224,172.172.1.1:1883,1551650227764,PRODUCED
Publisher_001,topicA,topicA-225,172.172.1.1:1883,1551650227862,PRODUCED
Publisher_001,topicA,topicA-226,172.172.1.1:1883,1551650227962,PRODUCED
Publisher_001,topicA,topicA-227,172.172.1.1:1883,1551650228068,PRODUCED
Publisher_001,topicA,topicA-228,172.172.1.1:1883,1551650228163,PRODUCED
Publisher_001,topicA,topicA-229,172.172.1.1:1883,1551650228263,PRODUCED
Publisher_001,topicA,topicA-230,172.172.1.1:1883,1551650228363,PRODUCED
Publisher_001,topicA,topicA-231,172.172.1.1:1883,1551650228463,PRODUCED
Publisher_001,topicA,topicA-232,172.172.1.1:1883,1551650228562,PRODUCED
Publisher_001,topicA,topicA-233,172.172.1.1:1883,1551650228663,PRODUCED
Publisher_001,topicA,topicA-234,172.172.1.1:1883,1551650228763,PRODUCED
Publisher_001,topicA,topicA-235,172.172.1.1:1883,1551650228864,PRODUCED
Publisher_001,topicA,topicA-236,172.172.1.1:1883,1551650228966,PRODUCED
Publisher_001,topicA,topicA-237,172.172.1.1:1883,1551650229063,PRODUCED
Publisher_001,topicA,topicA-238,172.172.1.1:1883,1551650229162,PRODUCED
Publisher_001,topicA,topicA-239,172.172.1.1:1883,1551650229266,PRODUCED
Publisher_001,topicA,topicA-240,172.172.1.1:1883,1551650229363,PRODUCED
Publisher_001,topicA,topicA-241,172.172.1.1:1883,1551650229464,PRODUCED
Publisher_001,topicA,topicA-242,172.172.1.1:1883,1551650229563,PRODUCED
Publisher_001,topicA,topicA-243,172.172.1.1:1883,1551650229666,PRODUCED
Publisher_001,topicA,topicA-244,172.172.1.1:1883,1551650229765,PRODUCED
Publisher_001,topicA,topicA-245,172.172.1.1:1883,1551650229862,PRODUCED
Publisher_001,topicA,topicA-246,172.172.1.1:1883,1551650229969,PRODUCED
Publisher_001,topicA,topicA-247,172.172.1.1:1883,1551650230063,PRODUCED
Publisher_001,topicA,topicA-248,172.172.1.1:1883,1551650230165,PRODUCED
Publisher_001,topicA,topicA-249,172.172.1.1:1883,1551650230267,PRODUCED
Publisher_001,topicA,topicA-250,172.172.1.1:1883,1551650230362,PRODUCED
Publisher_001,topicA,topicA-251,172.172.1.1:1883,1551650230463,PRODUCED
Publisher_001,topicA,topicA-252,172.172.1.1:1883,1551650230567,PRODUCED
Publisher_001,topicA,topicA-253,172.172.1.1:1883,1551650230664,PRODUCED
Publisher_001,topicA,topicA-254,172.172.1.1:1883,1551650230762,PRODUCED
Publisher_001,topicA,topicA-255,172.172.1.1:1883,1551650230863,PRODUCED
Publisher_001,topicA,topicA-256,172.172.1.1:1883,1551650230964,PRODUCED
Publisher_001,topicA,topicA-257,172.172.1.1:1883,1551650231063,PRODUCED
Publisher_001,topicA,topicA-258,172.172.1.1:1883,1551650231166,PRODUCED
Publisher_001,topicA,topicA-259,172.172.1.1:1883,1551650231266,PRODUCED
Publisher_001,topicA,topicA-260,172.172.1.1:1883,1551650231363,PRODUCED
Publisher_001,topicA,topicA-261,172.172.1.1:1883,1551650231464,PRODUCED
Publisher_001,topicA,topicA-262,172.172.1.1:1883,1551650231563,PRODUCED
Publisher_001,topicA,topicA-263,172.172.1.1:1883,1551650231671,PRODUCED
Publisher_001,topicA,topicA-264,172.172.1.1:1883,1551650231763,PRODUCED
Publisher_001,topicA,topicA-265,172.172.1.1:1883,1551650231863,PRODUCED
Publisher_001,topicA,topicA-266,172.172.1.1:1883,1551650231962,PRODUCED
Publisher_001,topicA,topicA-267,172.172.1.1:1883,1551650232062,PRODUCED
Publisher_001,topicA,topicA-268,172.172.1.1:1883,1551650232163,PRODUCED
Publisher_001,topicA,topicA-269,172.172.1.1:1883,1551650232262,PRODUCED
Publisher_001,topicA,topicA-270,172.172.1.1:1883,1551650232363,PRODUCED
Publisher_001,topicA,topicA-271,172.172.1.1:1883,1551650232463,PRODUCED
Publisher_001,topicA,topicA-272,172.172.1.1:1883,1551650232563,PRODUCED
Publisher_001,topicA,topicA-273,172.172.1.1:1883,1551650232663,PRODUCED
Publisher_001,topicA,topicA-274,172.172.1.1:1883,1551650232763,PRODUCED
Publisher_001,topicA,topicA-275,172.172.1.1:1883,1551650232862,PRODUCED
Publisher_001,topicA,topicA-276,172.172.1.1:1883,1551650232962,PRODUCED
Publisher_001,topicA,topicA-277,172.172.1.1:1883,1551650233062,PRODUCED
Publisher_001,topicA,topicA-278,172.172.1.1:1883,1551650233163,PRODUCED
Publisher_001,topicA,topicA-279,172.172.1.1:1883,1551650233266,PRODUCED
Publisher_001,topicA,topicA-280,172.172.1.1:1883,1551650233362,PRODUCED
Publisher_001,topicA,topicA-281,172.172.1.1:1883,1551650233469,PRODUCED
Publisher_001,topicA,topicA-282,172.172.1.1:1883,1551650233563,PRODUCED
Publisher_001,topicA,topicA-283,172.172.1.1:1883,1551650233665,PRODUCED
Publisher_001,topicA,topicA-284,172.172.1.1:1883,1551650233764,PRODUCED
Publisher_001,topicA,topicA-285,172.172.1.1:1883,1551650233867,PRODUCED
Publisher_001,topicA,topicA-286,172.172.1.1:1883,1551650233969,PRODUCED
Publisher_001,topicA,topicA-287,172.172.1.1:1883,1551650234064,PRODUCED
Publisher_001,topicA,topicA-288,172.172.1.1:1883,1551650234163,PRODUCED
Publisher_001,topicA,topicA-289,172.172.1.1:1883,1551650234266,PRODUCED
Publisher_001,topicA,topicA-290,172.172.1.1:1883,1551650234362,PRODUCED
Publisher_001,topicA,topicA-291,172.172.1.1:1883,1551650234463,PRODUCED
Publisher_001,topicA,topicA-292,172.172.1.1:1883,1551650234563,PRODUCED
Publisher_001,topicA,topicA-293,172.172.1.1:1883,1551650234670,PRODUCED
Publisher_001,topicA,topicA-294,172.172.1.1:1883,1551650234763,PRODUCED
Publisher_001,topicA,topicA-295,172.172.1.1:1883,1551650234863,PRODUCED
Publisher_001,topicA,topicA-296,172.172.1.1:1883,1551650234963,PRODUCED
Publisher_001,topicA,topicA-297,172.172.1.1:1883,1551650235064,PRODUCED
Publisher_001,topicA,topicA-298,172.172.1.1:1883,1551650235166,PRODUCED
Publisher_001,topicA,topicA-299,172.172.1.1:1883,1551650235263,PRODUCED
Publisher_001,topicA,topicA-300,172.172.1.1:1883,1551650235364,PRODUCED
Publisher_001,topicA,topicA-301,172.172.1.1:1883,1551650235463,PRODUCED
Publisher_001,topicA,topicA-302,172.172.1.1:1883,1551650235564,PRODUCED
Publisher_001,topicA,topicA-303,172.172.1.1:1883,1551650235664,PRODUCED
Publisher_001,topicA,topicA-304,172.172.1.1:1883,1551650235764,PRODUCED
Publisher_001,topicA,topicA-305,172.172.1.1:1883,1551650235863,PRODUCED
Publisher_001,topicA,topicA-306,172.172.1.1:1883,1551650235963,PRODUCED
Publisher_001,topicA,topicA-307,172.172.1.1:1883,1551650236063,PRODUCED
Publisher_001,topicA,topicA-308,172.172.1.1:1883,1551650236168,PRODUCED
Publisher_001,topicA,topicA-309,172.172.1.1:1883,1551650236263,PRODUCED
Publisher_001,topicA,topicA-310,172.172.1.1:1883,1551650236363,PRODUCED
Publisher_001,topicA,topicA-311,172.172.1.1:1883,1551650236462,PRODUCED
Publisher_001,topicA,topicA-312,172.172.1.1:1883,1551650236568,PRODUCED
Publisher_001,topicA,topicA-313,172.172.1.1:1883,1551650236666,PRODUCED
Publisher_001,topicA,topicA-314,172.172.1.1:1883,1551650236765,PRODUCED
Publisher_001,topicA,topicA-315,172.172.1.1:1883,1551650236863,PRODUCED
Publisher_001,topicA,topicA-316,172.172.1.1:1883,1551650236963,PRODUCED
Publisher_001,topicA,topicA-317,172.172.1.1:1883,1551650237063,PRODUCED
Publisher_001,topicA,topicA-318,172.172.1.1:1883,1551650237164,PRODUCED
Publisher_001,topicA,topicA-319,172.172.1.1:1883,1551650237263,PRODUCED
Publisher_001,topicA,topicA-320,172.172.1.1:1883,1551650237363,PRODUCED
Publisher_001,topicA,topicA-321,172.172.1.1:1883,1551650237470,PRODUCED
Publisher_001,topicA,topicA-322,172.172.1.1:1883,1551650237563,PRODUCED
Publisher_001,topicA,topicA-323,172.172.1.1:1883,1551650237664,PRODUCED
Publisher_001,topicA,topicA-324,172.172.1.1:1883,1551650237763,PRODUCED
Publisher_001,topicA,topicA-325,172.172.1.1:1883,1551650237863,PRODUCED
Publisher_001,topicA,topicA-326,172.172.1.1:1883,1551650237964,PRODUCED
Publisher_001,topicA,topicA-327,172.172.1.1:1883,1551650238063,PRODUCED
Publisher_001,topicA,topicA-328,172.172.1.1:1883,1551650238163,PRODUCED
Publisher_001,topicA,topicA-329,172.172.1.1:1883,1551650238263,PRODUCED
Publisher_001,topicA,topicA-330,172.172.1.1:1883,1551650238363,PRODUCED
Publisher_001,topicA,topicA-331,172.172.1.1:1883,1551650238463,PRODUCED
Publisher_001,topicA,topicA-332,172.172.1.1:1883,1551650238563,PRODUCED
Publisher_001,topicA,topicA-333,172.172.1.1:1883,1551650238663,PRODUCED
Publisher_001,topicA,topicA-334,172.172.1.1:1883,1551650238767,PRODUCED
Publisher_001,topicA,topicA-335,172.172.1.1:1883,1551650238864,PRODUCED
Publisher_001,topicA,topicA-336,172.172.1.1:1883,1551650238966,PRODUCED
Publisher_001,topicA,topicA-337,172.172.1.1:1883,1551650239063,PRODUCED
Publisher_001,topicA,topicA-338,172.172.1.1:1883,1551650239163,PRODUCED
Publisher_001,topicA,topicA-339,172.172.1.1:1883,1551650239262,PRODUCED
Publisher_001,topicA,topicA-340,172.172.1.1:1883,1551650239363,PRODUCED
Publisher_001,topicA,topicA-341,172.172.1.1:1883,1551650239463,PRODUCED
Publisher_001,topicA,topicA-342,172.172.1.1:1883,1551650239564,PRODUCED
Publisher_001,topicA,topicA-343,172.172.1.1:1883,1551650239663,PRODUCED
Publisher_001,topicA,topicA-344,172.172.1.1:1883,1551650239764,PRODUCED
Publisher_001,topicA,topicA-345,172.172.1.1:1883,1551650239863,PRODUCED
Publisher_001,topicA,topicA-346,172.172.1.1:1883,1551650239963,PRODUCED
Publisher_001,topicA,topicA-347,172.172.1.1:1883,1551650240062,PRODUCED
Publisher_001,topicA,topicA-348,172.172.1.1:1883,1551650240167,PRODUCED
Publisher_001,topicA,topicA-349,172.172.1.1:1883,1551650240263,PRODUCED
Publisher_001,topicA,topicA-350,172.172.1.1:1883,1551650240368,PRODUCED
Publisher_001,topicA,topicA-351,172.172.1.1:1883,1551650240463,PRODUCED
Publisher_001,topicA,topicA-352,172.172.1.1:1883,1551650240563,PRODUCED
Publisher_001,topicA,topicA-353,172.172.1.1:1883,1551650240663,PRODUCED
Publisher_001,topicA,topicA-354,172.172.1.1:1883,1551650240763,PRODUCED
Publisher_001,topicA,topicA-355,172.172.1.1:1883,1551650240863,PRODUCED
Publisher_001,topicA,topicA-356,172.172.1.1:1883,1551650240963,PRODUCED
Publisher_001,topicA,topicA-357,172.172.1.1:1883,1551650241063,PRODUCED
Publisher_001,topicA,topicA-358,172.172.1.1:1883,1551650241163,PRODUCED
Publisher_001,topicA,topicA-359,172.172.1.1:1883,1551650241266,PRODUCED
Publisher_001,topicA,topicA-360,172.172.1.1:1883,1551650241366,PRODUCED
Publisher_001,topicA,topicA-361,172.172.1.1:1883,1551650241463,PRODUCED
Publisher_001,topicA,topicA-362,172.172.1.1:1883,1551650241563,PRODUCED
Publisher_001,topicA,topicA-363,172.172.1.1:1883,1551650241663,PRODUCED
Publisher_001,topicA,topicA-364,172.172.1.1:1883,1551650241764,PRODUCED
Publisher_001,topicA,topicA-365,172.172.1.1:1883,1551650241865,PRODUCED
Publisher_001,topicA,topicA-366,172.172.1.1:1883,1551650241968,PRODUCED
Publisher_001,topicA,topicA-367,172.172.1.1:1883,1551650242063,PRODUCED
Publisher_001,topicA,topicA-368,172.172.1.1:1883,1551650242162,PRODUCED
Publisher_001,topicA,topicA-369,172.172.1.1:1883,1551650242262,PRODUCED
Publisher_001,topicA,topicA-370,172.172.1.1:1883,1551650242366,PRODUCED
Publisher_001,topicA,topicA-371,172.172.1.1:1883,1551650242465,PRODUCED
Publisher_001,topicA,topicA-372,172.172.1.1:1883,1551650242564,PRODUCED
Publisher_001,topicA,topicA-373,172.172.1.1:1883,1551650242663,PRODUCED
Publisher_001,topicA,topicA-374,172.172.1.1:1883,1551650242763,PRODUCED
Publisher_001,topicA,topicA-375,172.172.1.1:1883,1551650242863,PRODUCED
Publisher_001,topicA,topicA-376,172.172.1.1:1883,1551650242962,PRODUCED
Publisher_001,topicA,topicA-377,172.172.1.1:1883,1551650243066,PRODUCED
Publisher_001,topicA,topicA-378,172.172.1.1:1883,1551650243162,PRODUCED
Publisher_001,topicA,topicA-379,172.172.1.1:1883,1551650243266,PRODUCED
Publisher_001,topicA,topicA-380,172.172.1.1:1883,1551650243367,PRODUCED
Publisher_001,topicA,topicA-381,172.172.1.1:1883,1551650243467,PRODUCED
Publisher_001,topicA,topicA-382,172.172.1.1:1883,1551650243564,PRODUCED
Publisher_001,topicA,topicA-383,172.172.1.1:1883,1551650243664,PRODUCED
Publisher_001,topicA,topicA-384,172.172.1.1:1883,1551650243764,PRODUCED
Publisher_001,topicA,topicA-385,172.172.1.1:1883,1551650243864,PRODUCED
Publisher_001,topicA,topicA-386,172.172.1.1:1883,1551650243963,PRODUCED
Publisher_001,topicA,topicA-387,172.172.1.1:1883,1551650244064,PRODUCED
Publisher_001,topicA,topicA-388,172.172.1.1:1883,1551650244164,PRODUCED
Publisher_001,topicA,topicA-389,172.172.1.1:1883,1551650244264,PRODUCED
Publisher_001,topicA,topicA-390,172.172.1.1:1883,1551650244364,PRODUCED
Publisher_001,topicA,topicA-391,172.172.1.1:1883,1551650244463,PRODUCED
Publisher_001,topicA,topicA-392,172.172.1.1:1883,1551650244566,PRODUCED
Publisher_001,topicA,topicA-393,172.172.1.1:1883,1551650244663,PRODUCED
Publisher_001,topicA,topicA-394,172.172.1.1:1883,1551650244763,PRODUCED
Publisher_001,topicA,topicA-395,172.172.1.1:1883,1551650244862,PRODUCED
Publisher_001,topicA,topicA-396,172.172.1.1:1883,1551650244962,PRODUCED
Publisher_001,topicA,topicA-397,172.172.1.1:1883,1551650245063,PRODUCED
Publisher_001,topicA,topicA-398,172.172.1.1:1883,1551650245162,PRODUCED
Publisher_001,topicA,topicA-399,172.172.1.1:1883,1551650245262,PRODUCED
Publisher_001,topicA,topicA-400,172.172.1.1:1883,1551650245370,PRODUCED
Publisher_001,topicA,topicA-401,172.172.1.1:1883,1551650245466,PRODUCED
Publisher_001,topicA,topicA-402,172.172.1.1:1883,1551650245563,PRODUCED
Publisher_001,topicA,topicA-403,172.172.1.1:1883,1551650245664,PRODUCED
Publisher_001,topicA,topicA-404,172.172.1.1:1883,1551650245767,PRODUCED
Publisher_001,topicA,topicA-405,172.172.1.1:1883,1551650245865,PRODUCED
Publisher_001,topicA,topicA-406,172.172.1.1:1883,1551650245963,PRODUCED
Publisher_001,topicA,topicA-407,172.172.1.1:1883,1551650246063,PRODUCED
Publisher_001,topicA,topicA-408,172.172.1.1:1883,1551650246163,PRODUCED
Publisher_001,topicA,topicA-409,172.172.1.1:1883,1551650246263,PRODUCED
Publisher_001,topicA,topicA-410,172.172.1.1:1883,1551650246363,PRODUCED
Publisher_001,topicA,topicA-411,172.172.1.1:1883,1551650246463,PRODUCED
Publisher_001,topicA,topicA-412,172.172.1.1:1883,1551650246562,PRODUCED
Publisher_001,topicA,topicA-413,172.172.1.1:1883,1551650246663,PRODUCED
Publisher_001,topicA,topicA-414,172.172.1.1:1883,1551650246763,PRODUCED
Publisher_001,topicA,topicA-415,172.172.1.1:1883,1551650246863,PRODUCED
Publisher_001,topicA,topicA-416,172.172.1.1:1883,1551650246963,PRODUCED
Publisher_001,topicA,topicA-417,172.172.1.1:1883,1551650247065,PRODUCED
Publisher_001,topicA,topicA-418,172.172.1.1:1883,1551650247163,PRODUCED
Publisher_001,topicA,topicA-419,172.172.1.1:1883,1551650247271,PRODUCED
Publisher_001,topicA,topicA-420,172.172.1.1:1883,1551650247363,PRODUCED
Publisher_001,topicA,topicA-421,172.172.1.1:1883,1551650247467,PRODUCED
Publisher_001,topicA,topicA-422,172.172.1.1:1883,1551650247563,PRODUCED
Publisher_001,topicA,topicA-423,172.172.1.1:1883,1551650247664,PRODUCED
Publisher_001,topicA,topicA-424,172.172.1.1:1883,1551650247764,PRODUCED
Publisher_001,topicA,topicA-425,172.172.1.1:1883,1551650247863,PRODUCED
Publisher_001,topicA,topicA-426,172.172.1.1:1883,1551650247965,PRODUCED
Publisher_001,topicA,topicA-427,172.172.1.1:1883,1551650248062,PRODUCED
Publisher_001,topicA,topicA-428,172.172.1.1:1883,1551650248167,PRODUCED
Publisher_001,topicA,topicA-429,172.172.1.1:1883,1551650248262,PRODUCED
Publisher_001,topicA,topicA-430,172.172.1.1:1883,1551650248363,PRODUCED
Publisher_001,topicA,topicA-431,172.172.1.1:1883,1551650248463,PRODUCED
Publisher_001,topicA,topicA-432,172.172.1.1:1883,1551650248566,PRODUCED
Publisher_001,topicA,topicA-433,172.172.1.1:1883,1551650248671,PRODUCED
Publisher_001,topicA,topicA-434,172.172.1.1:1883,1551650248766,PRODUCED
Publisher_001,topicA,topicA-435,172.172.1.1:1883,1551650248863,PRODUCED
Publisher_001,topicA,topicA-436,172.172.1.1:1883,1551650248963,PRODUCED
Publisher_001,topicA,topicA-437,172.172.1.1:1883,1551650249064,PRODUCED
Publisher_001,topicA,topicA-438,172.172.1.1:1883,1551650249166,PRODUCED
Publisher_001,topicA,topicA-439,172.172.1.1:1883,1551650249263,PRODUCED
Publisher_001,topicA,topicA-440,172.172.1.1:1883,1551650249364,PRODUCED
Publisher_001,topicA,topicA-441,172.172.1.1:1883,1551650249464,PRODUCED
Publisher_001,topicA,topicA-442,172.172.1.1:1883,1551650249562,PRODUCED
Publisher_001,topicA,topicA-443,172.172.1.1:1883,1551650249665,PRODUCED
Publisher_001,topicA,topicA-444,172.172.1.1:1883,1551650249762,PRODUCED
Publisher_001,topicA,topicA-445,172.172.1.1:1883,1551650249867,PRODUCED
Publisher_001,topicA,topicA-446,172.172.1.1:1883,1551650249962,PRODUCED
Publisher_001,topicA,topicA-447,172.172.1.1:1883,1551650250063,PRODUCED
Publisher_001,topicA,topicA-448,172.172.1.1:1883,1551650250163,PRODUCED
Publisher_001,topicA,topicA-449,172.172.1.1:1883,1551650250264,PRODUCED
Publisher_001,topicA,topicA-450,172.172.1.1:1883,1551650250363,PRODUCED
Publisher_001,topicA,topicA-451,172.172.1.1:1883,1551650250463,PRODUCED
Publisher_001,topicA,topicA-452,172.172.1.1:1883,1551650250563,PRODUCED
Publisher_001,topicA,topicA-453,172.172.1.1:1883,1551650250664,PRODUCED
Publisher_001,topicA,topicA-454,172.172.1.1:1883,1551650250766,PRODUCED
Publisher_001,topicA,topicA-455,172.172.1.1:1883,1551650250863,PRODUCED
Publisher_001,topicA,topicA-456,172.172.1.1:1883,1551650250963,PRODUCED
Publisher_001,topicA,topicA-457,172.172.1.1:1883,1551650251068,PRODUCED
Publisher_001,topicA,topicA-458,172.172.1.1:1883,1551650251162,PRODUCED
Publisher_001,topicA,topicA-459,172.172.1.1:1883,1551650251262,PRODUCED
Publisher_001,topicA,topicA-460,172.172.1.1:1883,1551650251363,PRODUCED
Publisher_001,topicA,topicA-461,172.172.1.1:1883,1551650251463,PRODUCED
Publisher_001,topicA,topicA-462,172.172.1.1:1883,1551650251563,PRODUCED
Publisher_001,topicA,topicA-463,172.172.1.1:1883,1551650251670,PRODUCED
Publisher_001,topicA,topicA-464,172.172.1.1:1883,1551650251764,PRODUCED
Publisher_001,topicA,topicA-465,172.172.1.1:1883,1551650251863,PRODUCED
Publisher_001,topicA,topicA-466,172.172.1.1:1883,1551650251962,PRODUCED
Publisher_001,topicA,topicA-467,172.172.1.1:1883,1551650252066,PRODUCED
Publisher_001,topicA,topicA-468,172.172.1.1:1883,1551650252165,PRODUCED
Publisher_001,topicA,topicA-469,172.172.1.1:1883,1551650252263,PRODUCED
Publisher_001,topicA,topicA-470,172.172.1.1:1883,1551650252366,PRODUCED
Publisher_001,topicA,topicA-471,172.172.1.1:1883,1551650252464,PRODUCED
Publisher_001,topicA,topicA-472,172.172.1.1:1883,1551650252566,PRODUCED
Publisher_001,topicA,topicA-473,172.172.1.1:1883,1551650252663,PRODUCED
Publisher_001,topicA,topicA-474,172.172.1.1:1883,1551650252763,PRODUCED
Publisher_001,topicA,topicA-475,172.172.1.1:1883,1551650252863,PRODUCED
Publisher_001,topicA,topicA-476,172.172.1.1:1883,1551650252962,PRODUCED
Publisher_001,topicA,topicA-477,172.172.1.1:1883,1551650253063,PRODUCED
Publisher_001,topicA,topicA-478,172.172.1.1:1883,1551650253163,PRODUCED
Publisher_001,topicA,topicA-479,172.172.1.1:1883,1551650253263,PRODUCED
Publisher_001,topicA,topicA-480,172.172.1.1:1883,1551650253362,PRODUCED
Publisher_001,topicA,topicA-481,172.172.1.1:1883,1551650253463,PRODUCED
Publisher_001,topicA,topicA-482,172.172.1.1:1883,1551650253568,PRODUCED
Publisher_001,topicA,topicA-483,172.172.1.1:1883,1551650253662,PRODUCED
Publisher_001,topicA,topicA-484,172.172.1.1:1883,1551650253762,PRODUCED
Publisher_001,topicA,topicA-485,172.172.1.1:1883,1551650253862,PRODUCED
Publisher_001,topicA,topicA-486,172.172.1.1:1883,1551650253962,PRODUCED
Publisher_001,topicA,topicA-487,172.172.1.1:1883,1551650254063,PRODUCED
Publisher_001,topicA,topicA-488,172.172.1.1:1883,1551650254162,PRODUCED
Publisher_001,topicA,topicA-489,172.172.1.1:1883,1551650254263,PRODUCED
Publisher_001,topicA,topicA-490,172.172.1.1:1883,1551650254364,PRODUCED
Publisher_001,topicA,topicA-491,172.172.1.1:1883,1551650254463,PRODUCED
Publisher_001,topicA,topicA-492,172.172.1.1:1883,1551650254564,PRODUCED
Publisher_001,topicA,topicA-493,172.172.1.1:1883,1551650254663,PRODUCED
Publisher_001,topicA,topicA-494,172.172.1.1:1883,1551650254762,PRODUCED
Publisher_001,topicA,topicA-495,172.172.1.1:1883,1551650254862,PRODUCED
Publisher_001,topicA,topicA-496,172.172.1.1:1883,1551650254970,PRODUCED
Publisher_001,topicA,topicA-497,172.172.1.1:1883,1551650255062,PRODUCED
Publisher_001,topicA,topicA-498,172.172.1.1:1883,1551650255163,PRODUCED
Publisher_001,topicA,topicA-499,172.172.1.1:1883,1551650255262,PRODUCED
Publisher_001,topicA,topicA-500,172.172.1.1:1883,1551650255364,PRODUCED
Publisher_001,topicA,topicA-501,172.172.1.1:1883,1551650255463,PRODUCED
Publisher_001,topicA,topicA-502,172.172.1.1:1883,1551650255571,PRODUCED
Publisher_001,topicA,topicA-503,172.172.1.1:1883,1551650255668,PRODUCED
Publisher_001,topicA,topicA-504,172.172.1.1:1883,1551650255770,PRODUCED
Publisher_001,topicA,topicA-505,172.172.1.1:1883,1551650255863,PRODUCED
Publisher_001,topicA,topicA-506,172.172.1.1:1883,1551650255963,PRODUCED
Publisher_001,topicA,topicA-507,172.172.1.1:1883,1551650256063,PRODUCED
Publisher_001,topicA,topicA-508,172.172.1.1:1883,1551650256163,PRODUCED
Publisher_001,topicA,topicA-509,172.172.1.1:1883,1551650256262,PRODUCED
Publisher_001,topicA,topicA-510,172.172.1.1:1883,1551650256362,PRODUCED
Publisher_001,topicA,topicA-511,172.172.1.1:1883,1551650256467,PRODUCED
Publisher_001,topicA,topicA-512,172.172.1.1:1883,1551650256567,PRODUCED
Publisher_001,topicA,topicA-513,172.172.1.1:1883,1551650256665,PRODUCED
Publisher_001,topicA,topicA-514,172.172.1.1:1883,1551650256763,PRODUCED
Publisher_001,topicA,topicA-515,172.172.1.1:1883,1551650256864,PRODUCED
Publisher_001,topicA,topicA-516,172.172.1.1:1883,1551650256965,PRODUCED
Publisher_001,topicA,topicA-517,172.172.1.1:1883,1551650257063,PRODUCED
Publisher_001,topicA,topicA-518,172.172.1.1:1883,1551650257162,PRODUCED
Publisher_001,topicA,topicA-519,172.172.1.1:1883,1551650257263,PRODUCED
Publisher_001,topicA,topicA-520,172.172.1.1:1883,1551650257363,PRODUCED
Publisher_001,topicA,topicA-521,172.172.1.1:1883,1551650257463,PRODUCED
Publisher_001,topicA,topicA-522,172.172.1.1:1883,1551650257565,PRODUCED
Publisher_001,topicA,topicA-523,172.172.1.1:1883,1551650257663,PRODUCED
Publisher_001,topicA,topicA-524,172.172.1.1:1883,1551650257763,PRODUCED
Publisher_001,topicA,topicA-525,172.172.1.1:1883,1551650257865,PRODUCED
Publisher_001,topicA,topicA-526,172.172.1.1:1883,1551650257963,PRODUCED
Publisher_001,topicA,topicA-527,172.172.1.1:1883,1551650258063,PRODUCED
Publisher_001,topicA,topicA-528,172.172.1.1:1883,1551650258164,PRODUCED
Publisher_001,topicA,topicA-529,172.172.1.1:1883,1551650258264,PRODUCED
Publisher_001,topicA,topicA-530,172.172.1.1:1883,1551650258363,PRODUCED
Publisher_001,topicA,topicA-531,172.172.1.1:1883,1551650258466,PRODUCED
Publisher_001,topicA,topicA-532,172.172.1.1:1883,1551650258563,PRODUCED
Publisher_001,topicA,topicA-533,172.172.1.1:1883,1551650258663,PRODUCED
Publisher_001,topicA,topicA-534,172.172.1.1:1883,1551650258765,PRODUCED
Publisher_001,topicA,topicA-535,172.172.1.1:1883,1551650258863,PRODUCED
Publisher_001,topicA,topicA-536,172.172.1.1:1883,1551650258963,PRODUCED
Publisher_001,topicA,topicA-537,172.172.1.1:1883,1551650259063,PRODUCED
Publisher_001,topicA,topicA-538,172.172.1.1:1883,1551650259166,PRODUCED
Publisher_001,topicA,topicA-539,172.172.1.1:1883,1551650259263,PRODUCED
Publisher_001,topicA,topicA-540,172.172.1.1:1883,1551650259367,PRODUCED
Publisher_001,topicA,topicA-541,172.172.1.1:1883,1551650259466,PRODUCED
Publisher_001,topicA,topicA-542,172.172.1.1:1883,1551650259564,PRODUCED
Publisher_001,topicA,topicA-543,172.172.1.1:1883,1551650259664,PRODUCED
Publisher_001,topicA,topicA-544,172.172.1.1:1883,1551650259763,PRODUCED
Publisher_001,topicA,topicA-545,172.172.1.1:1883,1551650259863,PRODUCED
Publisher_001,topicA,topicA-546,172.172.1.1:1883,1551650259963,PRODUCED
Publisher_001,topicA,topicA-547,172.172.1.1:1883,1551650260063,PRODUCED
Publisher_001,topicA,topicA-548,172.172.1.1:1883,1551650260164,PRODUCED
Publisher_001,topicA,topicA-549,172.172.1.1:1883,1551650260268,PRODUCED
Publisher_001,topicA,topicA-550,172.172.1.1:1883,1551650260363,PRODUCED
Publisher_001,topicA,topicA-551,172.172.1.1:1883,1551650260464,PRODUCED
Publisher_001,topicA,topicA-552,172.172.1.1:1883,1551650260564,PRODUCED
Publisher_001,topicA,topicA-553,172.172.1.1:1883,1551650260665,PRODUCED
Publisher_001,topicA,topicA-554,172.172.1.1:1883,1551650260763,PRODUCED
Publisher_001,topicA,topicA-555,172.172.1.1:1883,1551650260863,PRODUCED
Publisher_001,topicA,topicA-556,172.172.1.1:1883,1551650260967,PRODUCED
Publisher_001,topicA,topicA-557,172.172.1.1:1883,1551650261066,PRODUCED
Publisher_001,topicA,topicA-558,172.172.1.1:1883,1551650261166,PRODUCED
Publisher_001,topicA,topicA-559,172.172.1.1:1883,1551650261267,PRODUCED
Publisher_001,topicA,topicA-560,172.172.1.1:1883,1551650261366,PRODUCED
Publisher_001,topicA,topicA-561,172.172.1.1:1883,1551650261463,PRODUCED
Publisher_001,topicA,topicA-562,172.172.1.1:1883,1551650261562,PRODUCED
Publisher_001,topicA,topicA-563,172.172.1.1:1883,1551650261663,PRODUCED
Publisher_001,topicA,topicA-564,172.172.1.1:1883,1551650261766,PRODUCED
Publisher_001,topicA,topicA-565,172.172.1.1:1883,1551650261868,PRODUCED
Publisher_001,topicA,topicA-566,172.172.1.1:1883,1551650261965,PRODUCED
Publisher_001,topicA,topicA-567,172.172.1.1:1883,1551650262067,PRODUCED
Publisher_001,topicA,topicA-568,172.172.1.1:1883,1551650262163,PRODUCED
Publisher_001,topicA,topicA-569,172.172.1.1:1883,1551650262265,PRODUCED
Publisher_001,topicA,topicA-570,172.172.1.1:1883,1551650262371,PRODUCED
Publisher_001,topicA,topicA-571,172.172.1.1:1883,1551650262462,PRODUCED
Publisher_001,topicA,topicA-572,172.172.1.1:1883,1551650262563,PRODUCED
Publisher_001,topicA,topicA-573,172.172.1.1:1883,1551650262663,PRODUCED
Publisher_001,topicA,topicA-574,172.172.1.1:1883,1551650262762,PRODUCED
Publisher_001,topicA,topicA-575,172.172.1.1:1883,1551650262863,PRODUCED
Publisher_001,topicA,topicA-576,172.172.1.1:1883,1551650262965,PRODUCED
Publisher_001,topicA,topicA-577,172.172.1.1:1883,1551650263063,PRODUCED
Publisher_001,topicA,topicA-578,172.172.1.1:1883,1551650263163,PRODUCED
Publisher_001,topicA,topicA-579,172.172.1.1:1883,1551650263263,PRODUCED
Publisher_001,topicA,topicA-580,172.172.1.1:1883,1551650263364,PRODUCED
Publisher_001,topicA,topicA-581,172.172.1.1:1883,1551650263463,PRODUCED
Publisher_001,topicA,topicA-582,172.172.1.1:1883,1551650263563,PRODUCED
Publisher_001,topicA,topicA-583,172.172.1.1:1883,1551650263663,PRODUCED
Publisher_001,topicA,topicA-584,172.172.1.1:1883,1551650263765,PRODUCED
Publisher_001,topicA,topicA-585,172.172.1.1:1883,1551650263865,PRODUCED
Publisher_001,topicA,topicA-586,172.172.1.1:1883,1551650263963,PRODUCED
Publisher_001,topicA,topicA-587,172.172.1.1:1883,1551650264063,PRODUCED
Publisher_001,topicA,topicA-588,172.172.1.1:1883,1551650264167,PRODUCED
Publisher_001,topicA,topicA-589,172.172.1.1:1883,1551650264267,PRODUCED
Publisher_001,topicA,topicA-590,172.172.1.1:1883,1551650264364,PRODUCED
Publisher_001,topicA,topicA-591,172.172.1.1:1883,1551650264464,PRODUCED
Publisher_001,topicA,topicA-592,172.172.1.1:1883,1551650264563,PRODUCED
Publisher_001,topicA,topicA-593,172.172.1.1:1883,1551650264663,PRODUCED
Publisher_001,topicA,topicA-594,172.172.1.1:1883,1551650264762,PRODUCED
Publisher_001,topicA,topicA-595,172.172.1.1:1883,1551650264864,PRODUCED
Publisher_001,topicA,topicA-596,172.172.1.1:1883,1551650264962,PRODUCED
Publisher_001,topicA,topicA-597,172.172.1.1:1883,1551650265063,PRODUCED
Publisher_001,topicA,topicA-598,172.172.1.1:1883,1551650265164,PRODUCED
Publisher_001,topicA,topicA-599,172.172.1.1:1883,1551650265267,PRODUCED
Publisher_001,topicA,topicA-600,172.172.1.1:1883,1551650265363,PRODUCED
Publisher_001,topicA,topicA-601,172.172.1.1:1883,1551650265464,PRODUCED
Publisher_001,topicA,topicA-602,172.172.1.1:1883,1551650265564,PRODUCED
Publisher_001,topicA,topicA-603,172.172.1.1:1883,1551650265664,PRODUCED
Publisher_001,topicA,topicA-604,172.172.1.1:1883,1551650265766,PRODUCED
Publisher_001,topicA,topicA-605,172.172.1.1:1883,1551650265868,PRODUCED
Publisher_001,topicA,topicA-606,172.172.1.1:1883,1551650265963,PRODUCED
Publisher_001,topicA,topicA-607,172.172.1.1:1883,1551650266063,PRODUCED
Publisher_001,topicA,topicA-608,172.172.1.1:1883,1551650266169,PRODUCED
Publisher_001,topicA,topicA-609,172.172.1.1:1883,1551650266265,PRODUCED
Publisher_001,topicA,topicA-610,172.172.1.1:1883,1551650266362,PRODUCED
Publisher_001,topicA,topicA-611,172.172.1.1:1883,1551650266462,PRODUCED
Publisher_001,topicA,topicA-612,172.172.1.1:1883,1551650266565,PRODUCED
Publisher_001,topicA,topicA-613,172.172.1.1:1883,1551650266667,PRODUCED
Publisher_001,topicA,topicA-614,172.172.1.1:1883,1551650266763,PRODUCED
Publisher_001,topicA,topicA-615,172.172.1.1:1883,1551650266865,PRODUCED
Publisher_001,topicA,topicA-616,172.172.1.1:1883,1551650266962,PRODUCED
Publisher_001,topicA,topicA-617,172.172.1.1:1883,1551650267064,PRODUCED
Publisher_001,topicA,topicA-618,172.172.1.1:1883,1551650267163,PRODUCED
Publisher_001,topicA,topicA-619,172.172.1.1:1883,1551650267263,PRODUCED
Publisher_001,topicA,topicA-620,172.172.1.1:1883,1551650267362,PRODUCED
Publisher_001,topicA,topicA-621,172.172.1.1:1883,1551650267465,PRODUCED
Publisher_001,topicA,topicA-622,172.172.1.1:1883,1551650267563,PRODUCED
Publisher_001,topicA,topicA-623,172.172.1.1:1883,1551650267666,PRODUCED
Publisher_001,topicA,topicA-624,172.172.1.1:1883,1551650267766,PRODUCED
Publisher_001,topicA,topicA-625,172.172.1.1:1883,1551650267863,PRODUCED
Publisher_001,topicA,topicA-626,172.172.1.1:1883,1551650267967,PRODUCED
Publisher_001,topicA,topicA-627,172.172.1.1:1883,1551650268062,PRODUCED
Publisher_001,topicA,topicA-628,172.172.1.1:1883,1551650268162,PRODUCED
Publisher_001,topicA,topicA-629,172.172.1.1:1883,1551650268265,PRODUCED
Publisher_001,topicA,topicA-630,172.172.1.1:1883,1551650268365,PRODUCED
Publisher_001,topicA,topicA-631,172.172.1.1:1883,1551650268463,PRODUCED
Publisher_001,topicA,topicA-632,172.172.1.1:1883,1551650268569,PRODUCED
Publisher_001,topicA,topicA-633,172.172.1.1:1883,1551650268664,PRODUCED
Publisher_001,topicA,topicA-634,172.172.1.1:1883,1551650268765,PRODUCED
Publisher_001,topicA,topicA-635,172.172.1.1:1883,1551650268867,PRODUCED
Publisher_001,topicA,topicA-636,172.172.1.1:1883,1551650268963,PRODUCED
Publisher_001,topicA,topicA-637,172.172.1.1:1883,1551650269066,PRODUCED
Publisher_001,topicA,topicA-638,172.172.1.1:1883,1551650269164,PRODUCED
Publisher_001,topicA,topicA-639,172.172.1.1:1883,1551650269266,PRODUCED
Publisher_001,topicA,topicA-640,172.172.1.1:1883,1551650269363,PRODUCED
Publisher_001,topicA,topicA-641,172.172.1.1:1883,1551650269463,PRODUCED
Publisher_001,topicA,topicA-642,172.172.1.1:1883,1551650269563,PRODUCED
