clientId,topic,guid,broker,timestamp,type
Publisher_002,topicA,topicA-1,172.172.1.2:1883,1551656542355,PRODUCED
Publisher_002,topicA,topicA-2,172.172.1.2:1883,1551656542579,PRODUCED
Publisher_002,topicA,topicA-3,172.172.1.2:1883,1551656542583,PRODUCED
Publisher_002,topicA,topicA-4,172.172.1.2:1883,1551656542587,PRODUCED
Publisher_002,topicA,topicA-5,172.172.1.2:1883,1551656542591,PRODUCED
Publisher_002,topicA,topicA-6,172.172.1.2:1883,1551656542659,PRODUCED
Publisher_002,topicA,topicA-7,172.172.1.2:1883,1551656542759,PRODUCED
Publisher_002,topicA,topicA-8,172.172.1.2:1883,1551656542859,PRODUCED
Publisher_002,topicA,topicA-9,172.172.1.2:1883,1551656542960,PRODUCED
Publisher_002,topicA,topicA-10,172.172.1.2:1883,1551656543061,PRODUCED
Publisher_002,topicA,topicA-11,172.172.1.2:1883,1551656543159,PRODUCED
Publisher_002,topicA,topicA-12,172.172.1.2:1883,1551656543260,PRODUCED
Publisher_002,topicA,topicA-13,172.172.1.2:1883,1551656543363,PRODUCED
Publisher_002,topicA,topicA-14,172.172.1.2:1883,1551656543460,PRODUCED
Publisher_002,topicA,topicA-15,172.172.1.2:1883,1551656543560,PRODUCED
Publisher_002,topicA,topicA-16,172.172.1.2:1883,1551656543660,PRODUCED
Publisher_002,topicA,topicA-17,172.172.1.2:1883,1551656543761,PRODUCED
Publisher_002,topicA,topicA-18,172.172.1.2:1883,1551656543859,PRODUCED
Publisher_002,topicA,topicA-19,172.172.1.2:1883,1551656543964,PRODUCED
Publisher_002,topicA,topicA-20,172.172.1.2:1883,1551656544059,PRODUCED
Publisher_002,topicA,topicA-21,172.172.1.2:1883,1551656544159,PRODUCED
Publisher_002,topicA,topicA-22,172.172.1.2:1883,1551656544259,PRODUCED
Publisher_002,topicA,topicA-23,172.172.1.2:1883,1551656544359,PRODUCED
Publisher_002,topicA,topicA-24,172.172.1.2:1883,1551656544459,PRODUCED
Publisher_002,topicA,topicA-25,172.172.1.2:1883,1551656544563,PRODUCED
Publisher_002,topicA,topicA-26,172.172.1.2:1883,1551656544659,PRODUCED
Publisher_002,topicA,topicA-27,172.172.1.2:1883,1551656544759,PRODUCED
Publisher_002,topicA,topicA-28,172.172.1.2:1883,1551656544859,PRODUCED
Publisher_002,topicA,topicA-29,172.172.1.2:1883,1551656544959,PRODUCED
Publisher_002,topicA,topicA-30,172.172.1.2:1883,1551656545059,PRODUCED
Publisher_002,topicA,topicA-31,172.172.1.2:1883,1551656545159,PRODUCED
Publisher_002,topicA,topicA-32,172.172.1.2:1883,1551656545259,PRODUCED
Publisher_002,topicA,topicA-33,172.172.1.2:1883,1551656545359,PRODUCED
Publisher_002,topicA,topicA-34,172.172.1.2:1883,1551656545459,PRODUCED
Publisher_002,topicA,topicA-35,172.172.1.2:1883,1551656545559,PRODUCED
Publisher_002,topicA,topicA-36,172.172.1.2:1883,1551656545659,PRODUCED
Publisher_002,topicA,topicA-37,172.172.1.2:1883,1551656545759,PRODUCED
Publisher_002,topicA,topicA-38,172.172.1.2:1883,1551656545860,PRODUCED
Publisher_002,topicA,topicA-39,172.172.1.2:1883,1551656545959,PRODUCED
Publisher_002,topicA,topicA-40,172.172.1.2:1883,1551656546059,PRODUCED
Publisher_002,topicA,topicA-41,172.172.1.2:1883,1551656546159,PRODUCED
Publisher_002,topicA,topicA-42,172.172.1.2:1883,1551656546259,PRODUCED
Publisher_002,topicA,topicA-43,172.172.1.2:1883,1551656546359,PRODUCED
Publisher_002,topicA,topicA-44,172.172.1.2:1883,1551656546459,PRODUCED
Publisher_002,topicA,topicA-45,172.172.1.2:1883,1551656546559,PRODUCED
Publisher_002,topicA,topicA-46,172.172.1.2:1883,1551656546659,PRODUCED
Publisher_002,topicA,topicA-47,172.172.1.2:1883,1551656546759,PRODUCED
Publisher_002,topicA,topicA-48,172.172.1.2:1883,1551656546860,PRODUCED
Publisher_002,topicA,topicA-49,172.172.1.2:1883,1551656546959,PRODUCED
Publisher_002,topicA,topicA-50,172.172.1.2:1883,1551656547059,PRODUCED
Publisher_002,topicA,topicA-51,172.172.1.2:1883,1551656547159,PRODUCED
Publisher_002,topicA,topicA-52,172.172.1.2:1883,1551656547260,PRODUCED
Publisher_002,topicA,topicA-53,172.172.1.2:1883,1551656547359,PRODUCED
Publisher_002,topicA,topicA-54,172.172.1.2:1883,1551656547459,PRODUCED
Publisher_002,topicA,topicA-55,172.172.1.2:1883,1551656547559,PRODUCED
Publisher_002,topicA,topicA-56,172.172.1.2:1883,1551656547660,PRODUCED
Publisher_002,topicA,topicA-57,172.172.1.2:1883,1551656547759,PRODUCED
Publisher_002,topicA,topicA-58,172.172.1.2:1883,1551656547860,PRODUCED
Publisher_002,topicA,topicA-59,172.172.1.2:1883,1551656547961,PRODUCED
Publisher_002,topicA,topicA-60,172.172.1.2:1883,1551656548060,PRODUCED
Publisher_002,topicA,topicA-61,172.172.1.2:1883,1551656548160,PRODUCED
Publisher_002,topicA,topicA-62,172.172.1.2:1883,1551656548260,PRODUCED
Publisher_002,topicA,topicA-63,172.172.1.2:1883,1551656548360,PRODUCED
Publisher_002,topicA,topicA-64,172.172.1.2:1883,1551656548460,PRODUCED
Publisher_002,topicA,topicA-65,172.172.1.2:1883,1551656548560,PRODUCED
Publisher_002,topicA,topicA-66,172.172.1.2:1883,1551656548660,PRODUCED
Publisher_002,topicA,topicA-67,172.172.1.2:1883,1551656548760,PRODUCED
Publisher_002,topicA,topicA-68,172.172.1.2:1883,1551656548860,PRODUCED
Publisher_002,topicA,topicA-69,172.172.1.2:1883,1551656548959,PRODUCED
Publisher_002,topicA,topicA-70,172.172.1.2:1883,1551656549059,PRODUCED
Publisher_002,topicA,topicA-71,172.172.1.2:1883,1551656549161,PRODUCED
Publisher_002,topicA,topicA-72,172.172.1.2:1883,1551656549260,PRODUCED
Publisher_002,topicA,topicA-73,172.172.1.2:1883,1551656549359,PRODUCED
Publisher_002,topicA,topicA-74,172.172.1.2:1883,1551656549459,PRODUCED
Publisher_002,topicA,topicA-75,172.172.1.2:1883,1551656549559,PRODUCED
Publisher_002,topicA,topicA-76,172.172.1.2:1883,1551656549659,PRODUCED
Publisher_002,topicA,topicA-77,172.172.1.2:1883,1551656549760,PRODUCED
Publisher_002,topicA,topicA-78,172.172.1.2:1883,1551656549860,PRODUCED
Publisher_002,topicA,topicA-79,172.172.1.2:1883,1551656549960,PRODUCED
Publisher_002,topicA,topicA-80,172.172.1.2:1883,1551656550060,PRODUCED
Publisher_002,topicA,topicA-81,172.172.1.2:1883,1551656550159,PRODUCED
Publisher_002,topicA,topicA-82,172.172.1.2:1883,1551656550262,PRODUCED
Publisher_002,topicA,topicA-83,172.172.1.2:1883,1551656550359,PRODUCED
Publisher_002,topicA,topicA-84,172.172.1.2:1883,1551656550460,PRODUCED
Publisher_002,topicA,topicA-85,172.172.1.2:1883,1551656550561,PRODUCED
Publisher_002,topicA,topicA-86,172.172.1.2:1883,1551656550659,PRODUCED
Publisher_002,topicA,topicA-87,172.172.1.2:1883,1551656550759,PRODUCED
Publisher_002,topicA,topicA-88,172.172.1.2:1883,1551656550860,PRODUCED
Publisher_002,topicA,topicA-89,172.172.1.2:1883,1551656550961,PRODUCED
Publisher_002,topicA,topicA-90,172.172.1.2:1883,1551656551060,PRODUCED
Publisher_002,topicA,topicA-91,172.172.1.2:1883,1551656551159,PRODUCED
Publisher_002,topicA,topicA-92,172.172.1.2:1883,1551656551259,PRODUCED
Publisher_002,topicA,topicA-93,172.172.1.2:1883,1551656551360,PRODUCED
Publisher_002,topicA,topicA-94,172.172.1.2:1883,1551656551459,PRODUCED
Publisher_002,topicA,topicA-95,172.172.1.2:1883,1551656551559,PRODUCED
Publisher_002,topicA,topicA-96,172.172.1.2:1883,1551656551659,PRODUCED
Publisher_002,topicA,topicA-97,172.172.1.2:1883,1551656551759,PRODUCED
Publisher_002,topicA,topicA-98,172.172.1.2:1883,1551656551859,PRODUCED
Publisher_002,topicA,topicA-99,172.172.1.2:1883,1551656551959,PRODUCED
Publisher_002,topicA,topicA-100,172.172.1.2:1883,1551656552059,PRODUCED
Publisher_002,topicA,topicA-101,172.172.1.2:1883,1551656552159,PRODUCED
Publisher_002,topicA,topicA-102,172.172.1.2:1883,1551656552260,PRODUCED
Publisher_002,topicA,topicA-103,172.172.1.2:1883,1551656552359,PRODUCED
Publisher_002,topicA,topicA-104,172.172.1.2:1883,1551656552460,PRODUCED
Publisher_002,topicA,topicA-105,172.172.1.2:1883,1551656552559,PRODUCED
Publisher_002,topicA,topicA-106,172.172.1.2:1883,1551656552660,PRODUCED
Publisher_002,topicA,topicA-107,172.172.1.2:1883,1551656552759,PRODUCED
Publisher_002,topicA,topicA-108,172.172.1.2:1883,1551656552859,PRODUCED
Publisher_002,topicA,topicA-109,172.172.1.2:1883,1551656552959,PRODUCED
Publisher_002,topicA,topicA-110,172.172.1.2:1883,1551656553060,PRODUCED
Publisher_002,topicA,topicA-111,172.172.1.2:1883,1551656553160,PRODUCED
Publisher_002,topicA,topicA-112,172.172.1.2:1883,1551656553260,PRODUCED
Publisher_002,topicA,topicA-113,172.172.1.2:1883,1551656553360,PRODUCED
Publisher_002,topicA,topicA-114,172.172.1.2:1883,1551656553459,PRODUCED
Publisher_002,topicA,topicA-115,172.172.1.2:1883,1551656553559,PRODUCED
Publisher_002,topicA,topicA-116,172.172.1.2:1883,1551656553660,PRODUCED
Publisher_002,topicA,topicA-117,172.172.1.2:1883,1551656553759,PRODUCED
Publisher_002,topicA,topicA-118,172.172.1.2:1883,1551656553859,PRODUCED
Publisher_002,topicA,topicA-119,172.172.1.2:1883,1551656553961,PRODUCED
Publisher_002,topicA,topicA-120,172.172.1.2:1883,1551656554059,PRODUCED
Publisher_002,topicA,topicA-121,172.172.1.2:1883,1551656554159,PRODUCED
Publisher_002,topicA,topicA-122,172.172.1.2:1883,1551656554260,PRODUCED
Publisher_002,topicA,topicA-123,172.172.1.2:1883,1551656554359,PRODUCED
Publisher_002,topicA,topicA-124,172.172.1.2:1883,1551656554460,PRODUCED
Publisher_002,topicA,topicA-125,172.172.1.2:1883,1551656554560,PRODUCED
Publisher_002,topicA,topicA-126,172.172.1.2:1883,1551656554663,PRODUCED
Publisher_002,topicA,topicA-127,172.172.1.2:1883,1551656554760,PRODUCED
Publisher_002,topicA,topicA-128,172.172.1.2:1883,1551656554860,PRODUCED
Publisher_002,topicA,topicA-129,172.172.1.2:1883,1551656554959,PRODUCED
Publisher_002,topicA,topicA-130,172.172.1.2:1883,1551656555059,PRODUCED
Publisher_002,topicA,topicA-131,172.172.1.2:1883,1551656555159,PRODUCED
Publisher_002,topicA,topicA-132,172.172.1.2:1883,1551656555259,PRODUCED
Publisher_002,topicA,topicA-133,172.172.1.2:1883,1551656555359,PRODUCED
Publisher_002,topicA,topicA-134,172.172.1.2:1883,1551656555459,PRODUCED
Publisher_002,topicA,topicA-135,172.172.1.2:1883,1551656555559,PRODUCED
Publisher_002,topicA,topicA-136,172.172.1.2:1883,1551656555659,PRODUCED
Publisher_002,topicA,topicA-137,172.172.1.2:1883,1551656555759,PRODUCED
Publisher_002,topicA,topicA-138,172.172.1.2:1883,1551656555860,PRODUCED
Publisher_002,topicA,topicA-139,172.172.1.2:1883,1551656555959,PRODUCED
Publisher_002,topicA,topicA-140,172.172.1.2:1883,1551656556059,PRODUCED
Publisher_002,topicA,topicA-141,172.172.1.2:1883,1551656556159,PRODUCED
Publisher_002,topicA,topicA-142,172.172.1.2:1883,1551656556260,PRODUCED
Publisher_002,topicA,topicA-143,172.172.1.2:1883,1551656556361,PRODUCED
Publisher_002,topicA,topicA-144,172.172.1.2:1883,1551656556462,PRODUCED
Publisher_002,topicA,topicA-145,172.172.1.2:1883,1551656556559,PRODUCED
Publisher_002,topicA,topicA-146,172.172.1.2:1883,1551656556660,PRODUCED
Publisher_002,topicA,topicA-147,172.172.1.2:1883,1551656556761,PRODUCED
Publisher_002,topicA,topicA-148,172.172.1.2:1883,1551656556860,PRODUCED
Publisher_002,topicA,topicA-149,172.172.1.2:1883,1551656556960,PRODUCED
Publisher_002,topicA,topicA-150,172.172.1.2:1883,1551656557061,PRODUCED
Publisher_002,topicA,topicA-151,172.172.1.2:1883,1551656557159,PRODUCED
Publisher_002,topicA,topicA-152,172.172.1.2:1883,1551656557260,PRODUCED
Publisher_002,topicA,topicA-153,172.172.1.2:1883,1551656557360,PRODUCED
Publisher_002,topicA,topicA-154,172.172.1.2:1883,1551656557460,PRODUCED
Publisher_002,topicA,topicA-155,172.172.1.2:1883,1551656557559,PRODUCED
Publisher_002,topicA,topicA-156,172.172.1.2:1883,1551656557659,PRODUCED
Publisher_002,topicA,topicA-157,172.172.1.2:1883,1551656557759,PRODUCED
Publisher_002,topicA,topicA-158,172.172.1.2:1883,1551656557860,PRODUCED
Publisher_002,topicA,topicA-159,172.172.1.2:1883,1551656557959,PRODUCED
Publisher_002,topicA,topicA-160,172.172.1.2:1883,1551656558059,PRODUCED
Publisher_002,topicA,topicA-161,172.172.1.2:1883,1551656558159,PRODUCED
Publisher_002,topicA,topicA-162,172.172.1.2:1883,1551656558260,PRODUCED
Publisher_002,topicA,topicA-163,172.172.1.2:1883,1551656558359,PRODUCED
Publisher_002,topicA,topicA-164,172.172.1.2:1883,1551656558461,PRODUCED
Publisher_002,topicA,topicA-165,172.172.1.2:1883,1551656558560,PRODUCED
Publisher_002,topicA,topicA-166,172.172.1.2:1883,1551656558660,PRODUCED
Publisher_002,topicA,topicA-167,172.172.1.2:1883,1551656558759,PRODUCED
Publisher_002,topicA,topicA-168,172.172.1.2:1883,1551656558860,PRODUCED
Publisher_002,topicA,topicA-169,172.172.1.2:1883,1551656558960,PRODUCED
Publisher_002,topicA,topicA-170,172.172.1.2:1883,1551656559059,PRODUCED
Publisher_002,topicA,topicA-171,172.172.1.2:1883,1551656559159,PRODUCED
Publisher_002,topicA,topicA-172,172.172.1.2:1883,1551656559259,PRODUCED
Publisher_002,topicA,topicA-173,172.172.1.2:1883,1551656559359,PRODUCED
Publisher_002,topicA,topicA-174,172.172.1.2:1883,1551656559460,PRODUCED
Publisher_002,topicA,topicA-175,172.172.1.2:1883,1551656559560,PRODUCED
Publisher_002,topicA,topicA-176,172.172.1.2:1883,1551656559660,PRODUCED
Publisher_002,topicA,topicA-177,172.172.1.2:1883,1551656559760,PRODUCED
Publisher_002,topicA,topicA-178,172.172.1.2:1883,1551656559859,PRODUCED
Publisher_002,topicA,topicA-179,172.172.1.2:1883,1551656559959,PRODUCED
Publisher_002,topicA,topicA-180,172.172.1.2:1883,1551656560059,PRODUCED
Publisher_002,topicA,topicA-181,172.172.1.2:1883,1551656560161,PRODUCED
Publisher_002,topicA,topicA-182,172.172.1.2:1883,1551656560264,PRODUCED
Publisher_002,topicA,topicA-183,172.172.1.2:1883,1551656560359,PRODUCED
Publisher_002,topicA,topicA-184,172.172.1.2:1883,1551656560460,PRODUCED
Publisher_002,topicA,topicA-185,172.172.1.2:1883,1551656560560,PRODUCED
Publisher_002,topicA,topicA-186,172.172.1.2:1883,1551656560661,PRODUCED
Publisher_002,topicA,topicA-187,172.172.1.2:1883,1551656560759,PRODUCED
Publisher_002,topicA,topicA-188,172.172.1.2:1883,1551656560859,PRODUCED
Publisher_002,topicA,topicA-189,172.172.1.2:1883,1551656560959,PRODUCED
Publisher_002,topicA,topicA-190,172.172.1.2:1883,1551656561061,PRODUCED
Publisher_002,topicA,topicA-191,172.172.1.2:1883,1551656561159,PRODUCED
Publisher_002,topicA,topicA-192,172.172.1.2:1883,1551656561260,PRODUCED
Publisher_002,topicA,topicA-193,172.172.1.2:1883,1551656561365,PRODUCED
Publisher_002,topicA,topicA-194,172.172.1.2:1883,1551656561460,PRODUCED
Publisher_002,topicA,topicA-195,172.172.1.2:1883,1551656561560,PRODUCED
Publisher_002,topicA,topicA-196,172.172.1.2:1883,1551656561660,PRODUCED
Publisher_002,topicA,topicA-197,172.172.1.2:1883,1551656561759,PRODUCED
Publisher_002,topicA,topicA-198,172.172.1.2:1883,1551656561870,PRODUCED
Publisher_002,topicA,topicA-199,172.172.1.2:1883,1551656561959,PRODUCED
Publisher_002,topicA,topicA-200,172.172.1.2:1883,1551656562059,PRODUCED
Publisher_002,topicA,topicA-201,172.172.1.2:1883,1551656562159,PRODUCED
Publisher_002,topicA,topicA-202,172.172.1.2:1883,1551656562259,PRODUCED
Publisher_002,topicA,topicA-203,172.172.1.2:1883,1551656562359,PRODUCED
Publisher_002,topicA,topicA-204,172.172.1.2:1883,1551656562459,PRODUCED
Publisher_002,topicA,topicA-205,172.172.1.2:1883,1551656562559,PRODUCED
Publisher_002,topicA,topicA-206,172.172.1.2:1883,1551656562659,PRODUCED
Publisher_002,topicA,topicA-207,172.172.1.2:1883,1551656562760,PRODUCED
Publisher_002,topicA,topicA-208,172.172.1.2:1883,1551656562859,PRODUCED
Publisher_002,topicA,topicA-209,172.172.1.2:1883,1551656562960,PRODUCED
Publisher_002,topicA,topicA-210,172.172.1.2:1883,1551656563060,PRODUCED
Publisher_002,topicA,topicA-211,172.172.1.2:1883,1551656563159,PRODUCED
Publisher_002,topicA,topicA-212,172.172.1.2:1883,1551656563260,PRODUCED
Publisher_002,topicA,topicA-213,172.172.1.2:1883,1551656563360,PRODUCED
Publisher_002,topicA,topicA-214,172.172.1.2:1883,1551656563460,PRODUCED
Publisher_002,topicA,topicA-215,172.172.1.2:1883,1551656563560,PRODUCED
Publisher_002,topicA,topicA-216,172.172.1.2:1883,1551656563660,PRODUCED
Publisher_002,topicA,topicA-217,172.172.1.2:1883,1551656563759,PRODUCED
Publisher_002,topicA,topicA-218,172.172.1.2:1883,1551656563860,PRODUCED
Publisher_002,topicA,topicA-219,172.172.1.2:1883,1551656563959,PRODUCED
Publisher_002,topicA,topicA-220,172.172.1.2:1883,1551656564059,PRODUCED
Publisher_002,topicA,topicA-221,172.172.1.2:1883,1551656564159,PRODUCED
Publisher_002,topicA,topicA-222,172.172.1.2:1883,1551656564259,PRODUCED
Publisher_002,topicA,topicA-223,172.172.1.2:1883,1551656564359,PRODUCED
Publisher_002,topicA,topicA-224,172.172.1.2:1883,1551656564460,PRODUCED
Publisher_002,topicA,topicA-225,172.172.1.2:1883,1551656564560,PRODUCED
Publisher_002,topicA,topicA-226,172.172.1.2:1883,1551656564663,PRODUCED
Publisher_002,topicA,topicA-227,172.172.1.2:1883,1551656564761,PRODUCED
Publisher_002,topicA,topicA-228,172.172.1.2:1883,1551656564859,PRODUCED
Publisher_002,topicA,topicA-229,172.172.1.2:1883,1551656564963,PRODUCED
Publisher_002,topicA,topicA-230,172.172.1.2:1883,1551656565059,PRODUCED
Publisher_002,topicA,topicA-231,172.172.1.2:1883,1551656565159,PRODUCED
Publisher_002,topicA,topicA-232,172.172.1.2:1883,1551656565259,PRODUCED
Publisher_002,topicA,topicA-233,172.172.1.2:1883,1551656565359,PRODUCED
Publisher_002,topicA,topicA-234,172.172.1.2:1883,1551656565459,PRODUCED
Publisher_002,topicA,topicA-235,172.172.1.2:1883,1551656565561,PRODUCED
Publisher_002,topicA,topicA-236,172.172.1.2:1883,1551656565659,PRODUCED
Publisher_002,topicA,topicA-237,172.172.1.2:1883,1551656565760,PRODUCED
Publisher_002,topicA,topicA-238,172.172.1.2:1883,1551656565859,PRODUCED
Publisher_002,topicA,topicA-239,172.172.1.2:1883,1551656565967,PRODUCED
Publisher_002,topicA,topicA-240,172.172.1.2:1883,1551656566059,PRODUCED
Publisher_002,topicA,topicA-241,172.172.1.2:1883,1551656566159,PRODUCED
Publisher_002,topicA,topicA-242,172.172.1.2:1883,1551656566259,PRODUCED
Publisher_002,topicA,topicA-243,172.172.1.2:1883,1551656566360,PRODUCED
Publisher_002,topicA,topicA-244,172.172.1.2:1883,1551656566463,PRODUCED
Publisher_002,topicA,topicA-245,172.172.1.2:1883,1551656566559,PRODUCED
Publisher_002,topicA,topicA-246,172.172.1.2:1883,1551656566659,PRODUCED
Publisher_002,topicA,topicA-247,172.172.1.2:1883,1551656566760,PRODUCED
Publisher_002,topicA,topicA-248,172.172.1.2:1883,1551656566860,PRODUCED
Publisher_002,topicA,topicA-249,172.172.1.2:1883,1551656566960,PRODUCED
Publisher_002,topicA,topicA-250,172.172.1.2:1883,1551656567059,PRODUCED
Publisher_002,topicA,topicA-251,172.172.1.2:1883,1551656567159,PRODUCED
Publisher_002,topicA,topicA-252,172.172.1.2:1883,1551656567259,PRODUCED
Publisher_002,topicA,topicA-253,172.172.1.2:1883,1551656567359,PRODUCED
Publisher_002,topicA,topicA-254,172.172.1.2:1883,1551656567459,PRODUCED
Publisher_002,topicA,topicA-255,172.172.1.2:1883,1551656567573,PRODUCED
Publisher_002,topicA,topicA-256,172.172.1.2:1883,1551656567659,PRODUCED
Publisher_002,topicA,topicA-257,172.172.1.2:1883,1551656567759,PRODUCED
Publisher_002,topicA,topicA-258,172.172.1.2:1883,1551656567859,PRODUCED
Publisher_002,topicA,topicA-259,172.172.1.2:1883,1551656567959,PRODUCED
Publisher_002,topicA,topicA-260,172.172.1.2:1883,1551656568060,PRODUCED
Publisher_002,topicA,topicA-261,172.172.1.2:1883,1551656568160,PRODUCED
Publisher_002,topicA,topicA-262,172.172.1.2:1883,1551656568261,PRODUCED
Publisher_002,topicA,topicA-263,172.172.1.2:1883,1551656568359,PRODUCED
Publisher_002,topicA,topicA-264,172.172.1.2:1883,1551656568459,PRODUCED
Publisher_002,topicA,topicA-265,172.172.1.2:1883,1551656568560,PRODUCED
Publisher_002,topicA,topicA-266,172.172.1.2:1883,1551656568660,PRODUCED
Publisher_002,topicA,topicA-267,172.172.1.2:1883,1551656568759,PRODUCED
Publisher_002,topicA,topicA-268,172.172.1.2:1883,1551656568861,PRODUCED
Publisher_002,topicA,topicA-269,172.172.1.2:1883,1551656568960,PRODUCED
Publisher_002,topicA,topicA-270,172.172.1.2:1883,1551656569061,PRODUCED
Publisher_002,topicA,topicA-271,172.172.1.2:1883,1551656569160,PRODUCED
Publisher_002,topicA,topicA-272,172.172.1.2:1883,1551656569260,PRODUCED
Publisher_002,topicA,topicA-273,172.172.1.2:1883,1551656569360,PRODUCED
Publisher_002,topicA,topicA-274,172.172.1.2:1883,1551656569459,PRODUCED
Publisher_002,topicA,topicA-275,172.172.1.2:1883,1551656569559,PRODUCED
Publisher_002,topicA,topicA-276,172.172.1.2:1883,1551656569659,PRODUCED
Publisher_002,topicA,topicA-277,172.172.1.2:1883,1551656569759,PRODUCED
Publisher_002,topicA,topicA-278,172.172.1.2:1883,1551656569860,PRODUCED
Publisher_002,topicA,topicA-279,172.172.1.2:1883,1551656569959,PRODUCED
Publisher_002,topicA,topicA-280,172.172.1.2:1883,1551656570060,PRODUCED
Publisher_002,topicA,topicA-281,172.172.1.2:1883,1551656570159,PRODUCED
Publisher_002,topicA,topicA-282,172.172.1.2:1883,1551656570259,PRODUCED
Publisher_002,topicA,topicA-283,172.172.1.2:1883,1551656570360,PRODUCED
Publisher_002,topicA,topicA-284,172.172.1.2:1883,1551656570460,PRODUCED
Publisher_002,topicA,topicA-285,172.172.1.2:1883,1551656570559,PRODUCED
Publisher_002,topicA,topicA-286,172.172.1.2:1883,1551656570661,PRODUCED
Publisher_002,topicA,topicA-287,172.172.1.2:1883,1551656570759,PRODUCED
Publisher_002,topicA,topicA-288,172.172.1.2:1883,1551656570860,PRODUCED
Publisher_002,topicA,topicA-289,172.172.1.2:1883,1551656570960,PRODUCED
Publisher_002,topicA,topicA-290,172.172.1.2:1883,1551656571060,PRODUCED
Publisher_002,topicA,topicA-291,172.172.1.2:1883,1551656571160,PRODUCED
Publisher_002,topicA,topicA-292,172.172.1.2:1883,1551656571259,PRODUCED
Publisher_002,topicA,topicA-293,172.172.1.2:1883,1551656571360,PRODUCED
Publisher_002,topicA,topicA-294,172.172.1.2:1883,1551656571460,PRODUCED
Publisher_002,topicA,topicA-295,172.172.1.2:1883,1551656571560,PRODUCED
Publisher_002,topicA,topicA-296,172.172.1.2:1883,1551656571662,PRODUCED
Publisher_002,topicA,topicA-297,172.172.1.2:1883,1551656571759,PRODUCED
Publisher_002,topicA,topicA-298,172.172.1.2:1883,1551656571859,PRODUCED
Publisher_002,topicA,topicA-299,172.172.1.2:1883,1551656571959,PRODUCED
Publisher_002,topicA,topicA-300,172.172.1.2:1883,1551656572060,PRODUCED
Publisher_002,topicA,topicA-301,172.172.1.2:1883,1551656572159,PRODUCED
Publisher_002,topicA,topicA-302,172.172.1.2:1883,1551656572259,PRODUCED
Publisher_002,topicA,topicA-303,172.172.1.2:1883,1551656572360,PRODUCED
Publisher_002,topicA,topicA-304,172.172.1.2:1883,1551656572459,PRODUCED
Publisher_002,topicA,topicA-305,172.172.1.2:1883,1551656572560,PRODUCED
Publisher_002,topicA,topicA-306,172.172.1.2:1883,1551656572659,PRODUCED
Publisher_002,topicA,topicA-307,172.172.1.2:1883,1551656572759,PRODUCED
Publisher_002,topicA,topicA-308,172.172.1.2:1883,1551656572860,PRODUCED
Publisher_002,topicA,topicA-309,172.172.1.2:1883,1551656572960,PRODUCED
Publisher_002,topicA,topicA-310,172.172.1.2:1883,1551656573059,PRODUCED
Publisher_002,topicA,topicA-311,172.172.1.2:1883,1551656573163,PRODUCED
Publisher_002,topicA,topicA-312,172.172.1.2:1883,1551656573259,PRODUCED
Publisher_002,topicA,topicA-313,172.172.1.2:1883,1551656573360,PRODUCED
Publisher_002,topicA,topicA-314,172.172.1.2:1883,1551656573459,PRODUCED
Publisher_002,topicA,topicA-315,172.172.1.2:1883,1551656573560,PRODUCED
Publisher_002,topicA,topicA-316,172.172.1.2:1883,1551656573659,PRODUCED
Publisher_002,topicA,topicA-317,172.172.1.2:1883,1551656573760,PRODUCED
Publisher_002,topicA,topicA-318,172.172.1.2:1883,1551656573859,PRODUCED
Publisher_002,topicA,topicA-319,172.172.1.2:1883,1551656573965,PRODUCED
Publisher_002,topicA,topicA-320,172.172.1.2:1883,1551656574059,PRODUCED
Publisher_002,topicA,topicA-321,172.172.1.2:1883,1551656574159,PRODUCED
Publisher_002,topicA,topicA-322,172.172.1.2:1883,1551656574259,PRODUCED
Publisher_002,topicA,topicA-323,172.172.1.2:1883,1551656574360,PRODUCED
Publisher_002,topicA,topicA-324,172.172.1.2:1883,1551656574464,PRODUCED
Publisher_002,topicA,topicA-325,172.172.1.2:1883,1551656574559,PRODUCED
Publisher_002,topicA,topicA-326,172.172.1.2:1883,1551656574659,PRODUCED
Publisher_002,topicA,topicA-327,172.172.1.2:1883,1551656574760,PRODUCED
Publisher_002,topicA,topicA-328,172.172.1.2:1883,1551656574859,PRODUCED
Publisher_002,topicA,topicA-329,172.172.1.2:1883,1551656574960,PRODUCED
Publisher_002,topicA,topicA-330,172.172.1.2:1883,1551656575059,PRODUCED
Publisher_002,topicA,topicA-331,172.172.1.2:1883,1551656575159,PRODUCED
Publisher_002,topicA,topicA-332,172.172.1.2:1883,1551656575260,PRODUCED
Publisher_002,topicA,topicA-333,172.172.1.2:1883,1551656575359,PRODUCED
Publisher_002,topicA,topicA-334,172.172.1.2:1883,1551656575459,PRODUCED
Publisher_002,topicA,topicA-335,172.172.1.2:1883,1551656575561,PRODUCED
Publisher_002,topicA,topicA-336,172.172.1.2:1883,1551656575660,PRODUCED
Publisher_002,topicA,topicA-337,172.172.1.2:1883,1551656575760,PRODUCED
Publisher_002,topicA,topicA-338,172.172.1.2:1883,1551656575860,PRODUCED
Publisher_002,topicA,topicA-339,172.172.1.2:1883,1551656575960,PRODUCED
Publisher_002,topicA,topicA-340,172.172.1.2:1883,1551656576060,PRODUCED
Publisher_002,topicA,topicA-341,172.172.1.2:1883,1551656576161,PRODUCED
Publisher_002,topicA,topicA-342,172.172.1.2:1883,1551656576260,PRODUCED
Publisher_002,topicA,topicA-343,172.172.1.2:1883,1551656576360,PRODUCED
Publisher_002,topicA,topicA-344,172.172.1.2:1883,1551656576459,PRODUCED
Publisher_002,topicA,topicA-345,172.172.1.2:1883,1551656576559,PRODUCED
Publisher_002,topicA,topicA-346,172.172.1.2:1883,1551656576659,PRODUCED
Publisher_002,topicA,topicA-347,172.172.1.2:1883,1551656576759,PRODUCED
Publisher_002,topicA,topicA-348,172.172.1.2:1883,1551656576861,PRODUCED
Publisher_002,topicA,topicA-349,172.172.1.2:1883,1551656576960,PRODUCED
Publisher_002,topicA,topicA-350,172.172.1.2:1883,1551656577059,PRODUCED
Publisher_002,topicA,topicA-351,172.172.1.2:1883,1551656577161,PRODUCED
Publisher_002,topicA,topicA-352,172.172.1.2:1883,1551656577260,PRODUCED
Publisher_002,topicA,topicA-353,172.172.1.2:1883,1551656577360,PRODUCED
Publisher_002,topicA,topicA-354,172.172.1.2:1883,1551656577460,PRODUCED
Publisher_002,topicA,topicA-355,172.172.1.2:1883,1551656577560,PRODUCED
Publisher_002,topicA,topicA-356,172.172.1.2:1883,1551656577660,PRODUCED
Publisher_002,topicA,topicA-357,172.172.1.2:1883,1551656577759,PRODUCED
Publisher_002,topicA,topicA-358,172.172.1.2:1883,1551656577860,PRODUCED
Publisher_002,topicA,topicA-359,172.172.1.2:1883,1551656577959,PRODUCED
Publisher_002,topicA,topicA-360,172.172.1.2:1883,1551656578063,PRODUCED
Publisher_002,topicA,topicA-361,172.172.1.2:1883,1551656578159,PRODUCED
Publisher_002,topicA,topicA-362,172.172.1.2:1883,1551656578260,PRODUCED
Publisher_002,topicA,topicA-363,172.172.1.2:1883,1551656578359,PRODUCED
Publisher_002,topicA,topicA-364,172.172.1.2:1883,1551656578459,PRODUCED
Publisher_002,topicA,topicA-365,172.172.1.2:1883,1551656578559,PRODUCED
Publisher_002,topicA,topicA-366,172.172.1.2:1883,1551656578660,PRODUCED
Publisher_002,topicA,topicA-367,172.172.1.2:1883,1551656578765,PRODUCED
Publisher_002,topicA,topicA-368,172.172.1.2:1883,1551656578859,PRODUCED
Publisher_002,topicA,topicA-369,172.172.1.2:1883,1551656578960,PRODUCED
Publisher_002,topicA,topicA-370,172.172.1.2:1883,1551656579060,PRODUCED
Publisher_002,topicA,topicA-371,172.172.1.2:1883,1551656579159,PRODUCED
Publisher_002,topicA,topicA-372,172.172.1.2:1883,1551656579259,PRODUCED
Publisher_002,topicA,topicA-373,172.172.1.2:1883,1551656579359,PRODUCED
Publisher_002,topicA,topicA-374,172.172.1.2:1883,1551656579464,PRODUCED
Publisher_002,topicA,topicA-375,172.172.1.2:1883,1551656579560,PRODUCED
Publisher_002,topicA,topicA-376,172.172.1.2:1883,1551656579659,PRODUCED
Publisher_002,topicA,topicA-377,172.172.1.2:1883,1551656579759,PRODUCED
Publisher_002,topicA,topicA-378,172.172.1.2:1883,1551656579859,PRODUCED
Publisher_002,topicA,topicA-379,172.172.1.2:1883,1551656579960,PRODUCED
Publisher_002,topicA,topicA-380,172.172.1.2:1883,1551656580060,PRODUCED
Publisher_002,topicA,topicA-381,172.172.1.2:1883,1551656580160,PRODUCED
Publisher_002,topicA,topicA-382,172.172.1.2:1883,1551656580261,PRODUCED
Publisher_002,topicA,topicA-383,172.172.1.2:1883,1551656580365,PRODUCED
Publisher_002,topicA,topicA-384,172.172.1.2:1883,1551656580462,PRODUCED
Publisher_002,topicA,topicA-385,172.172.1.2:1883,1551656580559,PRODUCED
Publisher_002,topicA,topicA-386,172.172.1.2:1883,1551656580659,PRODUCED
Publisher_002,topicA,topicA-387,172.172.1.2:1883,1551656580759,PRODUCED
Publisher_002,topicA,topicA-388,172.172.1.2:1883,1551656580859,PRODUCED
Publisher_002,topicA,topicA-389,172.172.1.2:1883,1551656580959,PRODUCED
Publisher_002,topicA,topicA-390,172.172.1.2:1883,1551656581060,PRODUCED
Publisher_002,topicA,topicA-391,172.172.1.2:1883,1551656581160,PRODUCED
Publisher_002,topicA,topicA-392,172.172.1.2:1883,1551656581260,PRODUCED
Publisher_002,topicA,topicA-393,172.172.1.2:1883,1551656581360,PRODUCED
Publisher_002,topicA,topicA-394,172.172.1.2:1883,1551656581459,PRODUCED
Publisher_002,topicA,topicA-395,172.172.1.2:1883,1551656581559,PRODUCED
Publisher_002,topicA,topicA-396,172.172.1.2:1883,1551656581659,PRODUCED
Publisher_002,topicA,topicA-397,172.172.1.2:1883,1551656581759,PRODUCED
Publisher_002,topicA,topicA-398,172.172.1.2:1883,1551656581859,PRODUCED
Publisher_002,topicA,topicA-399,172.172.1.2:1883,1551656581966,PRODUCED
Publisher_002,topicA,topicA-400,172.172.1.2:1883,1551656582059,PRODUCED
Publisher_002,topicA,topicA-401,172.172.1.2:1883,1551656582159,PRODUCED
Publisher_002,topicA,topicA-402,172.172.1.2:1883,1551656582259,PRODUCED
Publisher_002,topicA,topicA-403,172.172.1.2:1883,1551656582359,PRODUCED
Publisher_002,topicA,topicA-404,172.172.1.2:1883,1551656582459,PRODUCED
Publisher_002,topicA,topicA-405,172.172.1.2:1883,1551656582559,PRODUCED
Publisher_002,topicA,topicA-406,172.172.1.2:1883,1551656582659,PRODUCED
Publisher_002,topicA,topicA-407,172.172.1.2:1883,1551656582759,PRODUCED
Publisher_002,topicA,topicA-408,172.172.1.2:1883,1551656582859,PRODUCED
Publisher_002,topicA,topicA-409,172.172.1.2:1883,1551656582959,PRODUCED
Publisher_002,topicA,topicA-410,172.172.1.2:1883,1551656583059,PRODUCED
Publisher_002,topicA,topicA-411,172.172.1.2:1883,1551656583159,PRODUCED
Publisher_002,topicA,topicA-412,172.172.1.2:1883,1551656583264,PRODUCED
Publisher_002,topicA,topicA-413,172.172.1.2:1883,1551656583359,PRODUCED
Publisher_002,topicA,topicA-414,172.172.1.2:1883,1551656583459,PRODUCED
Publisher_002,topicA,topicA-415,172.172.1.2:1883,1551656583559,PRODUCED
Publisher_002,topicA,topicA-416,172.172.1.2:1883,1551656583659,PRODUCED
Publisher_002,topicA,topicA-417,172.172.1.2:1883,1551656583759,PRODUCED
Publisher_002,topicA,topicA-418,172.172.1.2:1883,1551656583859,PRODUCED
Publisher_002,topicA,topicA-419,172.172.1.2:1883,1551656583959,PRODUCED
Publisher_002,topicA,topicA-420,172.172.1.2:1883,1551656584059,PRODUCED
Publisher_002,topicA,topicA-421,172.172.1.2:1883,1551656584159,PRODUCED
Publisher_002,topicA,topicA-422,172.172.1.2:1883,1551656584259,PRODUCED
Publisher_002,topicA,topicA-423,172.172.1.2:1883,1551656584359,PRODUCED
Publisher_002,topicA,topicA-424,172.172.1.2:1883,1551656584460,PRODUCED
Publisher_002,topicA,topicA-425,172.172.1.2:1883,1551656584559,PRODUCED
Publisher_002,topicA,topicA-426,172.172.1.2:1883,1551656584659,PRODUCED
Publisher_002,topicA,topicA-427,172.172.1.2:1883,1551656584759,PRODUCED
Publisher_002,topicA,topicA-428,172.172.1.2:1883,1551656584859,PRODUCED
Publisher_002,topicA,topicA-429,172.172.1.2:1883,1551656584959,PRODUCED
Publisher_002,topicA,topicA-430,172.172.1.2:1883,1551656585059,PRODUCED
Publisher_002,topicA,topicA-431,172.172.1.2:1883,1551656585159,PRODUCED
Publisher_002,topicA,topicA-432,172.172.1.2:1883,1551656585267,PRODUCED
Publisher_002,topicA,topicA-433,172.172.1.2:1883,1551656585360,PRODUCED
Publisher_002,topicA,topicA-434,172.172.1.2:1883,1551656585459,PRODUCED
Publisher_002,topicA,topicA-435,172.172.1.2:1883,1551656585559,PRODUCED
Publisher_002,topicA,topicA-436,172.172.1.2:1883,1551656585659,PRODUCED
Publisher_002,topicA,topicA-437,172.172.1.2:1883,1551656585760,PRODUCED
Publisher_002,topicA,topicA-438,172.172.1.2:1883,1551656585859,PRODUCED
Publisher_002,topicA,topicA-439,172.172.1.2:1883,1551656585960,PRODUCED
Publisher_002,topicA,topicA-440,172.172.1.2:1883,1551656586059,PRODUCED
Publisher_002,topicA,topicA-441,172.172.1.2:1883,1551656586159,PRODUCED
Publisher_002,topicA,topicA-442,172.172.1.2:1883,1551656586260,PRODUCED
Publisher_002,topicA,topicA-443,172.172.1.2:1883,1551656586362,PRODUCED
Publisher_002,topicA,topicA-444,172.172.1.2:1883,1551656586465,PRODUCED
Publisher_002,topicA,topicA-445,172.172.1.2:1883,1551656586560,PRODUCED
Publisher_002,topicA,topicA-446,172.172.1.2:1883,1551656586659,PRODUCED
Publisher_002,topicA,topicA-447,172.172.1.2:1883,1551656586759,PRODUCED
Publisher_002,topicA,topicA-448,172.172.1.2:1883,1551656586859,PRODUCED
Publisher_002,topicA,topicA-449,172.172.1.2:1883,1551656586959,PRODUCED
Publisher_002,topicA,topicA-450,172.172.1.2:1883,1551656587059,PRODUCED
Publisher_002,topicA,topicA-451,172.172.1.2:1883,1551656587159,PRODUCED
Publisher_002,topicA,topicA-452,172.172.1.2:1883,1551656587259,PRODUCED
Publisher_002,topicA,topicA-453,172.172.1.2:1883,1551656587359,PRODUCED
Publisher_002,topicA,topicA-454,172.172.1.2:1883,1551656587459,PRODUCED
Publisher_002,topicA,topicA-455,172.172.1.2:1883,1551656587566,PRODUCED
Publisher_002,topicA,topicA-456,172.172.1.2:1883,1551656587659,PRODUCED
Publisher_002,topicA,topicA-457,172.172.1.2:1883,1551656587759,PRODUCED
Publisher_002,topicA,topicA-458,172.172.1.2:1883,1551656587865,PRODUCED
Publisher_002,topicA,topicA-459,172.172.1.2:1883,1551656587959,PRODUCED
Publisher_002,topicA,topicA-460,172.172.1.2:1883,1551656588059,PRODUCED
Publisher_002,topicA,topicA-461,172.172.1.2:1883,1551656588159,PRODUCED
Publisher_002,topicA,topicA-462,172.172.1.2:1883,1551656588261,PRODUCED
Publisher_002,topicA,topicA-463,172.172.1.2:1883,1551656588359,PRODUCED
Publisher_002,topicA,topicA-464,172.172.1.2:1883,1551656588459,PRODUCED
Publisher_002,topicA,topicA-465,172.172.1.2:1883,1551656588559,PRODUCED
Publisher_002,topicA,topicA-466,172.172.1.2:1883,1551656588659,PRODUCED
Publisher_002,topicA,topicA-467,172.172.1.2:1883,1551656588759,PRODUCED
Publisher_002,topicA,topicA-468,172.172.1.2:1883,1551656588859,PRODUCED
Publisher_002,topicA,topicA-469,172.172.1.2:1883,1551656588959,PRODUCED
Publisher_002,topicA,topicA-470,172.172.1.2:1883,1551656589059,PRODUCED
Publisher_002,topicA,topicA-471,172.172.1.2:1883,1551656589158,PRODUCED
Publisher_002,topicA,topicA-472,172.172.1.2:1883,1551656589259,PRODUCED
Publisher_002,topicA,topicA-473,172.172.1.2:1883,1551656589358,PRODUCED
Publisher_002,topicA,topicA-474,172.172.1.2:1883,1551656589459,PRODUCED
Publisher_002,topicA,topicA-475,172.172.1.2:1883,1551656589559,PRODUCED
Publisher_002,topicA,topicA-476,172.172.1.2:1883,1551656589659,PRODUCED
Publisher_002,topicA,topicA-477,172.172.1.2:1883,1551656589761,PRODUCED
Publisher_002,topicA,topicA-478,172.172.1.2:1883,1551656589859,PRODUCED
Publisher_002,topicA,topicA-479,172.172.1.2:1883,1551656589959,PRODUCED
Publisher_002,topicA,topicA-480,172.172.1.2:1883,1551656590060,PRODUCED
Publisher_002,topicA,topicA-481,172.172.1.2:1883,1551656590159,PRODUCED
Publisher_002,topicA,topicA-482,172.172.1.2:1883,1551656590259,PRODUCED
Publisher_002,topicA,topicA-483,172.172.1.2:1883,1551656590359,PRODUCED
Publisher_002,topicA,topicA-484,172.172.1.2:1883,1551656590459,PRODUCED
Publisher_002,topicA,topicA-485,172.172.1.2:1883,1551656590560,PRODUCED
Publisher_002,topicA,topicA-486,172.172.1.2:1883,1551656590660,PRODUCED
Publisher_002,topicA,topicA-487,172.172.1.2:1883,1551656590759,PRODUCED
Publisher_002,topicA,topicA-488,172.172.1.2:1883,1551656590860,PRODUCED
Publisher_002,topicA,topicA-489,172.172.1.2:1883,1551656590968,PRODUCED
Publisher_002,topicA,topicA-490,172.172.1.2:1883,1551656591061,PRODUCED
Publisher_002,topicA,topicA-491,172.172.1.2:1883,1551656591159,PRODUCED
Publisher_002,topicA,topicA-492,172.172.1.2:1883,1551656591259,PRODUCED
Publisher_002,topicA,topicA-493,172.172.1.2:1883,1551656591359,PRODUCED
Publisher_002,topicA,topicA-494,172.172.1.2:1883,1551656591459,PRODUCED
Publisher_002,topicA,topicA-495,172.172.1.2:1883,1551656591559,PRODUCED
Publisher_002,topicA,topicA-496,172.172.1.2:1883,1551656591659,PRODUCED
Publisher_002,topicA,topicA-497,172.172.1.2:1883,1551656591759,PRODUCED
Publisher_002,topicA,topicA-498,172.172.1.2:1883,1551656591859,PRODUCED
Publisher_002,topicA,topicA-499,172.172.1.2:1883,1551656591960,PRODUCED
Publisher_002,topicA,topicA-500,172.172.1.2:1883,1551656592059,PRODUCED
Publisher_002,topicA,topicA-501,172.172.1.2:1883,1551656592159,PRODUCED
Publisher_002,topicA,topicA-502,172.172.1.2:1883,1551656592259,PRODUCED
Publisher_002,topicA,topicA-503,172.172.1.2:1883,1551656592360,PRODUCED
Publisher_002,topicA,topicA-504,172.172.1.2:1883,1551656592459,PRODUCED
Publisher_002,topicA,topicA-505,172.172.1.2:1883,1551656592559,PRODUCED
Publisher_002,topicA,topicA-506,172.172.1.2:1883,1551656592659,PRODUCED
Publisher_002,topicA,topicA-507,172.172.1.2:1883,1551656592759,PRODUCED
Publisher_002,topicA,topicA-508,172.172.1.2:1883,1551656592859,PRODUCED
Publisher_002,topicA,topicA-509,172.172.1.2:1883,1551656592959,PRODUCED
Publisher_002,topicA,topicA-510,172.172.1.2:1883,1551656593059,PRODUCED
Publisher_002,topicA,topicA-511,172.172.1.2:1883,1551656593159,PRODUCED
Publisher_002,topicA,topicA-512,172.172.1.2:1883,1551656593259,PRODUCED
Publisher_002,topicA,topicA-513,172.172.1.2:1883,1551656593360,PRODUCED
Publisher_002,topicA,topicA-514,172.172.1.2:1883,1551656593460,PRODUCED
Publisher_002,topicA,topicA-515,172.172.1.2:1883,1551656593560,PRODUCED
Publisher_002,topicA,topicA-516,172.172.1.2:1883,1551656593660,PRODUCED
Publisher_002,topicA,topicA-517,172.172.1.2:1883,1551656593760,PRODUCED
Publisher_002,topicA,topicA-518,172.172.1.2:1883,1551656593859,PRODUCED
Publisher_002,topicA,topicA-519,172.172.1.2:1883,1551656593960,PRODUCED
Publisher_002,topicA,topicA-520,172.172.1.2:1883,1551656594060,PRODUCED
Publisher_002,topicA,topicA-521,172.172.1.2:1883,1551656594160,PRODUCED
Publisher_002,topicA,topicA-522,172.172.1.2:1883,1551656594260,PRODUCED
Publisher_002,topicA,topicA-523,172.172.1.2:1883,1551656594360,PRODUCED
Publisher_002,topicA,topicA-524,172.172.1.2:1883,1551656594460,PRODUCED
Publisher_002,topicA,topicA-525,172.172.1.2:1883,1551656594559,PRODUCED
Publisher_002,topicA,topicA-526,172.172.1.2:1883,1551656594659,PRODUCED
Publisher_002,topicA,topicA-527,172.172.1.2:1883,1551656594759,PRODUCED
Publisher_002,topicA,topicA-528,172.172.1.2:1883,1551656594859,PRODUCED
Publisher_002,topicA,topicA-529,172.172.1.2:1883,1551656594959,PRODUCED
Publisher_002,topicA,topicA-530,172.172.1.2:1883,1551656595059,PRODUCED
Publisher_002,topicA,topicA-531,172.172.1.2:1883,1551656595159,PRODUCED
Publisher_002,topicA,topicA-532,172.172.1.2:1883,1551656595259,PRODUCED
Publisher_002,topicA,topicA-533,172.172.1.2:1883,1551656595360,PRODUCED
Publisher_002,topicA,topicA-534,172.172.1.2:1883,1551656595460,PRODUCED
Publisher_002,topicA,topicA-535,172.172.1.2:1883,1551656595559,PRODUCED
Publisher_002,topicA,topicA-536,172.172.1.2:1883,1551656595660,PRODUCED
Publisher_002,topicA,topicA-537,172.172.1.2:1883,1551656595760,PRODUCED
Publisher_002,topicA,topicA-538,172.172.1.2:1883,1551656595859,PRODUCED
Publisher_002,topicA,topicA-539,172.172.1.2:1883,1551656595959,PRODUCED
Publisher_002,topicA,topicA-540,172.172.1.2:1883,1551656596059,PRODUCED
Publisher_002,topicA,topicA-541,172.172.1.2:1883,1551656596160,PRODUCED
Publisher_002,topicA,topicA-542,172.172.1.2:1883,1551656596259,PRODUCED
Publisher_002,topicA,topicA-543,172.172.1.2:1883,1551656596359,PRODUCED
Publisher_002,topicA,topicA-544,172.172.1.2:1883,1551656596460,PRODUCED
Publisher_002,topicA,topicA-545,172.172.1.2:1883,1551656596563,PRODUCED
Publisher_002,topicA,topicA-546,172.172.1.2:1883,1551656596660,PRODUCED
Publisher_002,topicA,topicA-547,172.172.1.2:1883,1551656596759,PRODUCED
Publisher_002,topicA,topicA-548,172.172.1.2:1883,1551656596859,PRODUCED
Publisher_002,topicA,topicA-549,172.172.1.2:1883,1551656596959,PRODUCED
Publisher_002,topicA,topicA-550,172.172.1.2:1883,1551656597065,PRODUCED
Publisher_002,topicA,topicA-551,172.172.1.2:1883,1551656597159,PRODUCED
Publisher_002,topicA,topicA-552,172.172.1.2:1883,1551656597259,PRODUCED
Publisher_002,topicA,topicA-553,172.172.1.2:1883,1551656597361,PRODUCED
Publisher_002,topicA,topicA-554,172.172.1.2:1883,1551656597459,PRODUCED
Publisher_002,topicA,topicA-555,172.172.1.2:1883,1551656597559,PRODUCED
Publisher_002,topicA,topicA-556,172.172.1.2:1883,1551656597659,PRODUCED
Publisher_002,topicA,topicA-557,172.172.1.2:1883,1551656597760,PRODUCED
Publisher_002,topicA,topicA-558,172.172.1.2:1883,1551656597862,PRODUCED
Publisher_002,topicA,topicA-559,172.172.1.2:1883,1551656597960,PRODUCED
Publisher_002,topicA,topicA-560,172.172.1.2:1883,1551656598060,PRODUCED
Publisher_002,topicA,topicA-561,172.172.1.2:1883,1551656598160,PRODUCED
Publisher_002,topicA,topicA-562,172.172.1.2:1883,1551656598259,PRODUCED
Publisher_002,topicA,topicA-563,172.172.1.2:1883,1551656598360,PRODUCED
Publisher_002,topicA,topicA-564,172.172.1.2:1883,1551656598460,PRODUCED
Publisher_002,topicA,topicA-565,172.172.1.2:1883,1551656598559,PRODUCED
Publisher_002,topicA,topicA-566,172.172.1.2:1883,1551656598660,PRODUCED
Publisher_002,topicA,topicA-567,172.172.1.2:1883,1551656598759,PRODUCED
Publisher_002,topicA,topicA-568,172.172.1.2:1883,1551656598860,PRODUCED
Publisher_002,topicA,topicA-569,172.172.1.2:1883,1551656598960,PRODUCED
Publisher_002,topicA,topicA-570,172.172.1.2:1883,1551656599059,PRODUCED
Publisher_002,topicA,topicA-571,172.172.1.2:1883,1551656599160,PRODUCED
Publisher_002,topicA,topicA-572,172.172.1.2:1883,1551656599259,PRODUCED
Publisher_002,topicA,topicA-573,172.172.1.2:1883,1551656599362,PRODUCED
Publisher_002,topicA,topicA-574,172.172.1.2:1883,1551656599466,PRODUCED
Publisher_002,topicA,topicA-575,172.172.1.2:1883,1551656599559,PRODUCED
Publisher_002,topicA,topicA-576,172.172.1.2:1883,1551656599659,PRODUCED
Publisher_002,topicA,topicA-577,172.172.1.2:1883,1551656599759,PRODUCED
Publisher_002,topicA,topicA-578,172.172.1.2:1883,1551656599859,PRODUCED
Publisher_002,topicA,topicA-579,172.172.1.2:1883,1551656599959,PRODUCED
Publisher_002,topicA,topicA-580,172.172.1.2:1883,1551656600059,PRODUCED
Publisher_002,topicA,topicA-581,172.172.1.2:1883,1551656600159,PRODUCED
Publisher_002,topicA,topicA-582,172.172.1.2:1883,1551656600259,PRODUCED
Publisher_002,topicA,topicA-583,172.172.1.2:1883,1551656600359,PRODUCED
Publisher_002,topicA,topicA-584,172.172.1.2:1883,1551656600460,PRODUCED
Publisher_002,topicA,topicA-585,172.172.1.2:1883,1551656600559,PRODUCED
Publisher_002,topicA,topicA-586,172.172.1.2:1883,1551656600660,PRODUCED
Publisher_002,topicA,topicA-587,172.172.1.2:1883,1551656600759,PRODUCED
Publisher_002,topicA,topicA-588,172.172.1.2:1883,1551656600860,PRODUCED
Publisher_002,topicA,topicA-589,172.172.1.2:1883,1551656600960,PRODUCED
Publisher_002,topicA,topicA-590,172.172.1.2:1883,1551656601060,PRODUCED
Publisher_002,topicA,topicA-591,172.172.1.2:1883,1551656601159,PRODUCED
Publisher_002,topicA,topicA-592,172.172.1.2:1883,1551656601259,PRODUCED
Publisher_002,topicA,topicA-593,172.172.1.2:1883,1551656601359,PRODUCED
Publisher_002,topicA,topicA-594,172.172.1.2:1883,1551656601460,PRODUCED
Publisher_002,topicA,topicA-595,172.172.1.2:1883,1551656601559,PRODUCED
Publisher_002,topicA,topicA-596,172.172.1.2:1883,1551656601659,PRODUCED
Publisher_002,topicA,topicA-597,172.172.1.2:1883,1551656601759,PRODUCED
Publisher_002,topicA,topicA-598,172.172.1.2:1883,1551656601859,PRODUCED
Publisher_002,topicA,topicA-599,172.172.1.2:1883,1551656601959,PRODUCED
Publisher_002,topicA,topicA-600,172.172.1.2:1883,1551656602059,PRODUCED
Publisher_002,topicA,topicA-601,172.172.1.2:1883,1551656602159,PRODUCED
Publisher_002,topicA,topicA-602,172.172.1.2:1883,1551656602259,PRODUCED
Publisher_002,topicA,topicA-603,172.172.1.2:1883,1551656602360,PRODUCED
Publisher_002,topicA,topicA-604,172.172.1.2:1883,1551656602459,PRODUCED
Publisher_002,topicA,topicA-605,172.172.1.2:1883,1551656602560,PRODUCED
Publisher_002,topicA,topicA-606,172.172.1.2:1883,1551656602660,PRODUCED
Publisher_002,topicA,topicA-607,172.172.1.2:1883,1551656602759,PRODUCED
Publisher_002,topicA,topicA-608,172.172.1.2:1883,1551656602863,PRODUCED
Publisher_002,topicA,topicA-609,172.172.1.2:1883,1551656602959,PRODUCED
Publisher_002,topicA,topicA-610,172.172.1.2:1883,1551656603059,PRODUCED
Publisher_002,topicA,topicA-611,172.172.1.2:1883,1551656603160,PRODUCED
Publisher_002,topicA,topicA-612,172.172.1.2:1883,1551656603260,PRODUCED
Publisher_002,topicA,topicA-613,172.172.1.2:1883,1551656603359,PRODUCED
Publisher_002,topicA,topicA-614,172.172.1.2:1883,1551656603460,PRODUCED
Publisher_002,topicA,topicA-615,172.172.1.2:1883,1551656603560,PRODUCED
Publisher_002,topicA,topicA-616,172.172.1.2:1883,1551656603659,PRODUCED
Publisher_002,topicA,topicA-617,172.172.1.2:1883,1551656603759,PRODUCED
Publisher_002,topicA,topicA-618,172.172.1.2:1883,1551656603859,PRODUCED
Publisher_002,topicA,topicA-619,172.172.1.2:1883,1551656603959,PRODUCED
Publisher_002,topicA,topicA-620,172.172.1.2:1883,1551656604059,PRODUCED
Publisher_002,topicA,topicA-621,172.172.1.2:1883,1551656604160,PRODUCED
Publisher_002,topicA,topicA-622,172.172.1.2:1883,1551656604260,PRODUCED
Publisher_002,topicA,topicA-623,172.172.1.2:1883,1551656604360,PRODUCED
Publisher_002,topicA,topicA-624,172.172.1.2:1883,1551656604459,PRODUCED
Publisher_002,topicA,topicA-625,172.172.1.2:1883,1551656604560,PRODUCED
Publisher_002,topicA,topicA-626,172.172.1.2:1883,1551656604660,PRODUCED
Publisher_002,topicA,topicA-627,172.172.1.2:1883,1551656604760,PRODUCED
Publisher_002,topicA,topicA-628,172.172.1.2:1883,1551656604860,PRODUCED
Publisher_002,topicA,topicA-629,172.172.1.2:1883,1551656604960,PRODUCED
Publisher_002,topicA,topicA-630,172.172.1.2:1883,1551656605060,PRODUCED
Publisher_002,topicA,topicA-631,172.172.1.2:1883,1551656605160,PRODUCED
Publisher_002,topicA,topicA-632,172.172.1.2:1883,1551656605259,PRODUCED
Publisher_002,topicA,topicA-633,172.172.1.2:1883,1551656605366,PRODUCED
Publisher_002,topicA,topicA-634,172.172.1.2:1883,1551656605459,PRODUCED
Publisher_002,topicA,topicA-635,172.172.1.2:1883,1551656605560,PRODUCED
Publisher_002,topicA,topicA-636,172.172.1.2:1883,1551656605660,PRODUCED
Publisher_002,topicA,topicA-637,172.172.1.2:1883,1551656605759,PRODUCED
Publisher_002,topicA,topicA-638,172.172.1.2:1883,1551656605861,PRODUCED
Publisher_002,topicA,topicA-639,172.172.1.2:1883,1551656605959,PRODUCED
Publisher_002,topicA,topicA-640,172.172.1.2:1883,1551656606059,PRODUCED
Publisher_002,topicA,topicA-641,172.172.1.2:1883,1551656606159,PRODUCED
Publisher_002,topicA,topicA-642,172.172.1.2:1883,1551656606259,PRODUCED
Publisher_002,topicA,topicA-643,172.172.1.2:1883,1551656606358,PRODUCED
