timestamp,event,migrationId
1551656848259,INITIALIZED,0e8cd6ef-b3dd-40b8-8455-d536a13db0d9
1551656848261,topicA-INITIALIZED,0e8cd6ef-b3dd-40b8-8455-d536a13db0d9
1551656850368,topicA-FINISHED,0e8cd6ef-b3dd-40b8-8455-d536a13db0d9
1551656850372,FINISHED,0e8cd6ef-b3dd-40b8-8455-d536a13db0d9
