timestamp,event,migrationId
1551644122759,INITIALIZED,15998797-5875-47ce-96e0-85ce139b11f3
1551644122762,topicA-INITIALIZED,15998797-5875-47ce-96e0-85ce139b11f3
1551644122978,topicA-SYNCING,15998797-5875-47ce-96e0-85ce139b11f3
1551644122978,SYNCING,15998797-5875-47ce-96e0-85ce139b11f3
1551644122982,topicA-SYNCING_THIS,15998797-5875-47ce-96e0-85ce139b11f3
1551644123262,topicA-SYNCED,15998797-5875-47ce-96e0-85ce139b11f3
1551644123263,SYNCED,15998797-5875-47ce-96e0-85ce139b11f3
1551644123275,topicA-FINISHED,15998797-5875-47ce-96e0-85ce139b11f3
1551644123275,FINISHED,15998797-5875-47ce-96e0-85ce139b11f3
