timestamp,event,migrationId
1551642869908,INITIALIZED,2df373c8-6533-4073-bf00-6a41f3721327
1551642869924,topicC-INITIALIZED,2df373c8-6533-4073-bf00-6a41f3721327
1551642869965,topicD-INITIALIZED,2df373c8-6533-4073-bf00-6a41f3721327
1551642869966,topicA-INITIALIZED,2df373c8-6533-4073-bf00-6a41f3721327
1551642869969,topicB-INITIALIZED,2df373c8-6533-4073-bf00-6a41f3721327
1551642869970,topicE-INITIALIZED,2df373c8-6533-4073-bf00-6a41f3721327
1551642869971,topicF-INITIALIZED,2df373c8-6533-4073-bf00-6a41f3721327
1551642870186,topicC-SYNCING,2df373c8-6533-4073-bf00-6a41f3721327
1551642870186,topicD-SYNCING,2df373c8-6533-4073-bf00-6a41f3721327
1551642870192,topicA-SYNCING,2df373c8-6533-4073-bf00-6a41f3721327
1551642870194,topicB-SYNCING,2df373c8-6533-4073-bf00-6a41f3721327
1551642870194,topicE-SYNCING,2df373c8-6533-4073-bf00-6a41f3721327
1551642870197,topicF-SYNCING,2df373c8-6533-4073-bf00-6a41f3721327
1551642870197,SYNCING,2df373c8-6533-4073-bf00-6a41f3721327
1551642870201,topicC-SYNCING_OPPONENT,2df373c8-6533-4073-bf00-6a41f3721327
1551642870202,topicD-SYNCING_THIS,2df373c8-6533-4073-bf00-6a41f3721327
1551642870203,topicF-SYNCING_THIS,2df373c8-6533-4073-bf00-6a41f3721327
1551642870203,topicE-SYNCING_THIS,2df373c8-6533-4073-bf00-6a41f3721327
1551642870202,topicB-SYNCING_OPPONENT,2df373c8-6533-4073-bf00-6a41f3721327
1551642870202,topicA-SYNCED,2df373c8-6533-4073-bf00-6a41f3721327
1551642870202,topicA-SYNCING_THIS,2df373c8-6533-4073-bf00-6a41f3721327
1551642871463,topicD-SYNCED,2df373c8-6533-4073-bf00-6a41f3721327
1551642871465,topicE-SYNCED,2df373c8-6533-4073-bf00-6a41f3721327
1551642871468,topicF-SYNCED,2df373c8-6533-4073-bf00-6a41f3721327
1551642872249,topicC-SYNCED,2df373c8-6533-4073-bf00-6a41f3721327
1551642872249,topicB-SYNCED,2df373c8-6533-4073-bf00-6a41f3721327
1551642872250,SYNCED,2df373c8-6533-4073-bf00-6a41f3721327
1551642872257,topicC-FINISHED,2df373c8-6533-4073-bf00-6a41f3721327
1551642872259,topicD-FINISHED,2df373c8-6533-4073-bf00-6a41f3721327
1551642872266,topicA-FINISHED,2df373c8-6533-4073-bf00-6a41f3721327
1551642872267,topicB-FINISHED,2df373c8-6533-4073-bf00-6a41f3721327
1551642872274,topicE-FINISHED,2df373c8-6533-4073-bf00-6a41f3721327
1551642872276,FINISHED,2df373c8-6533-4073-bf00-6a41f3721327
1551642872275,topicF-FINISHED,2df373c8-6533-4073-bf00-6a41f3721327
