[1] "Duration B1: 2557"
[1] "Duration B2: 2276"
[1] "Duration MIGRATE: 272"
[1] "Duration MIGACK: 9"
[1] "addrow"
[1] "INITIALIZED"
  timestamp       event                          migrationId
1         0 INITIALIZED c25b8e3c-4f0e-4252-9ef4-afe915b0d9ab
[1] "addrow"
[1] "SYNCING"
  timestamp   event                          migrationId
6       561 SYNCING c25b8e3c-4f0e-4252-9ef4-afe915b0d9ab
[1] "addrow"
[1] "SYNCED"
   timestamp  event                          migrationId
11      2457 SYNCED c25b8e3c-4f0e-4252-9ef4-afe915b0d9ab
[1] "addrow"
[1] "FINISHED"
   timestamp    event                          migrationId
14      2557 FINISHED c25b8e3c-4f0e-4252-9ef4-afe915b0d9ab
[1] "addrow"
[1] "topicA-INITIALIZED"
  timestamp              event                          migrationId
3         8 topicA-INITIALIZED c25b8e3c-4f0e-4252-9ef4-afe915b0d9ab
[1] "addrow"
[1] "topicA-SYNCING"
[1] "addrow"
[1] "topicA-SYNCED"
  timestamp         event                          migrationId
5        13 topicA-SYNCED c25b8e3c-4f0e-4252-9ef4-afe915b0d9ab
[1] "addrow"
[1] "topicA-FINISHED"
   timestamp           event                          migrationId
13      2555 topicA-FINISHED c25b8e3c-4f0e-4252-9ef4-afe915b0d9ab
[1] "addrow"
[1] "topicB-INITIALIZED"
  timestamp              event                          migrationId
4         9 topicB-INITIALIZED c25b8e3c-4f0e-4252-9ef4-afe915b0d9ab
[1] "addrow"
[1] "topicB-SYNCING"
  timestamp          event                          migrationId
8       591 topicB-SYNCING c25b8e3c-4f0e-4252-9ef4-afe915b0d9ab
[1] "addrow"
[1] "topicB-SYNCED"
   timestamp         event                          migrationId
10      2454 topicB-SYNCED c25b8e3c-4f0e-4252-9ef4-afe915b0d9ab
[1] "addrow"
[1] "topicB-FINISHED"
   timestamp           event                          migrationId
15      2556 topicB-FINISHED c25b8e3c-4f0e-4252-9ef4-afe915b0d9ab
[1] "addrow"
[1] "topicC-INITIALIZED"
  timestamp              event                          migrationId
2         2 topicC-INITIALIZED c25b8e3c-4f0e-4252-9ef4-afe915b0d9ab
[1] "addrow"
[1] "topicC-SYNCING"
  timestamp          event                          migrationId
7       562 topicC-SYNCING c25b8e3c-4f0e-4252-9ef4-afe915b0d9ab
[1] "addrow"
[1] "topicC-SYNCED"
  timestamp         event                          migrationId
9      2446 topicC-SYNCED c25b8e3c-4f0e-4252-9ef4-afe915b0d9ab
[1] "addrow"
[1] "topicC-FINISHED"
   timestamp           event                          migrationId
12      2555 topicC-FINISHED c25b8e3c-4f0e-4252-9ef4-afe915b0d9ab
[1] "addrow"
[1] "INITIALIZED"
  timestamp       event                          migrationId
1         0 INITIALIZED c25b8e3c-4f0e-4252-9ef4-afe915b0d9ab
[1] "addrow"
[1] "SYNCING"
  timestamp   event                          migrationId
6       561 SYNCING c25b8e3c-4f0e-4252-9ef4-afe915b0d9ab
[1] "addrow"
[1] "SYNCED"
   timestamp  event                          migrationId
11      2457 SYNCED c25b8e3c-4f0e-4252-9ef4-afe915b0d9ab
[1] "addrow"
[1] "FINISHED"
   timestamp    event                          migrationId
14      2557 FINISHED c25b8e3c-4f0e-4252-9ef4-afe915b0d9ab
[1] "addrow"
[1] "topicA-INITIALIZED"
  timestamp              event                          migrationId
3         8 topicA-INITIALIZED c25b8e3c-4f0e-4252-9ef4-afe915b0d9ab
[1] "addrow"
[1] "topicA-SYNCING"
[1] "addrow"
[1] "topicA-SYNCED"
  timestamp         event                          migrationId
5        13 topicA-SYNCED c25b8e3c-4f0e-4252-9ef4-afe915b0d9ab
[1] "addrow"
[1] "topicA-FINISHED"
   timestamp           event                          migrationId
13      2555 topicA-FINISHED c25b8e3c-4f0e-4252-9ef4-afe915b0d9ab
[1] "addrow"
[1] "topicB-INITIALIZED"
  timestamp              event                          migrationId
4         9 topicB-INITIALIZED c25b8e3c-4f0e-4252-9ef4-afe915b0d9ab
[1] "addrow"
[1] "topicB-SYNCING"
  timestamp          event                          migrationId
8       591 topicB-SYNCING c25b8e3c-4f0e-4252-9ef4-afe915b0d9ab
[1] "addrow"
[1] "topicB-SYNCED"
   timestamp         event                          migrationId
10      2454 topicB-SYNCED c25b8e3c-4f0e-4252-9ef4-afe915b0d9ab
[1] "addrow"
[1] "topicB-FINISHED"
   timestamp           event                          migrationId
15      2556 topicB-FINISHED c25b8e3c-4f0e-4252-9ef4-afe915b0d9ab
[1] "addrow"
[1] "topicC-INITIALIZED"
  timestamp              event                          migrationId
2         2 topicC-INITIALIZED c25b8e3c-4f0e-4252-9ef4-afe915b0d9ab
[1] "addrow"
[1] "topicC-SYNCING"
  timestamp          event                          migrationId
7       562 topicC-SYNCING c25b8e3c-4f0e-4252-9ef4-afe915b0d9ab
[1] "addrow"
[1] "topicC-SYNCED"
  timestamp         event                          migrationId
9      2446 topicC-SYNCED c25b8e3c-4f0e-4252-9ef4-afe915b0d9ab
[1] "addrow"
[1] "topicC-FINISHED"
   timestamp           event                          migrationId
12      2555 topicC-FINISHED c25b8e3c-4f0e-4252-9ef4-afe915b0d9ab
pdf 
  2 
[1] "addrow"
[1] "INITIALIZED"
  timestamp       event                          migrationId
1         0 INITIALIZED c25b8e3c-4f0e-4252-9ef4-afe915b0d9ab
[1] "addrow"
[1] "SYNCING"
  timestamp   event                          migrationId
6       561 SYNCING c25b8e3c-4f0e-4252-9ef4-afe915b0d9ab
[1] "addrow"
[1] "SYNCED"
   timestamp  event                          migrationId
11      2457 SYNCED c25b8e3c-4f0e-4252-9ef4-afe915b0d9ab
[1] "addrow"
[1] "FINISHED"
   timestamp    event                          migrationId
14      2557 FINISHED c25b8e3c-4f0e-4252-9ef4-afe915b0d9ab
[1] "addrow"
[1] "topicA-INITIALIZED"
  timestamp              event                          migrationId
3         8 topicA-INITIALIZED c25b8e3c-4f0e-4252-9ef4-afe915b0d9ab
[1] "addrow"
[1] "topicA-SYNCING"
[1] "addrow"
[1] "topicA-SYNCED"
  timestamp         event                          migrationId
5        13 topicA-SYNCED c25b8e3c-4f0e-4252-9ef4-afe915b0d9ab
[1] "addrow"
[1] "topicA-FINISHED"
   timestamp           event                          migrationId
13      2555 topicA-FINISHED c25b8e3c-4f0e-4252-9ef4-afe915b0d9ab
[1] "addrow"
[1] "topicB-INITIALIZED"
  timestamp              event                          migrationId
4         9 topicB-INITIALIZED c25b8e3c-4f0e-4252-9ef4-afe915b0d9ab
[1] "addrow"
[1] "topicB-SYNCING"
  timestamp          event                          migrationId
8       591 topicB-SYNCING c25b8e3c-4f0e-4252-9ef4-afe915b0d9ab
[1] "addrow"
[1] "topicB-SYNCED"
   timestamp         event                          migrationId
10      2454 topicB-SYNCED c25b8e3c-4f0e-4252-9ef4-afe915b0d9ab
[1] "addrow"
[1] "topicB-FINISHED"
   timestamp           event                          migrationId
15      2556 topicB-FINISHED c25b8e3c-4f0e-4252-9ef4-afe915b0d9ab
[1] "addrow"
[1] "topicC-INITIALIZED"
  timestamp              event                          migrationId
2         2 topicC-INITIALIZED c25b8e3c-4f0e-4252-9ef4-afe915b0d9ab
[1] "addrow"
[1] "topicC-SYNCING"
  timestamp          event                          migrationId
7       562 topicC-SYNCING c25b8e3c-4f0e-4252-9ef4-afe915b0d9ab
[1] "addrow"
[1] "topicC-SYNCED"
  timestamp         event                          migrationId
9      2446 topicC-SYNCED c25b8e3c-4f0e-4252-9ef4-afe915b0d9ab
[1] "addrow"
[1] "topicC-FINISHED"
   timestamp           event                          migrationId
12      2555 topicC-FINISHED c25b8e3c-4f0e-4252-9ef4-afe915b0d9ab
pdf 
  2 
[1] "addrow"
[1] "INITIALIZED"
  timestamp       event                          migrationId
1       272 INITIALIZED c25b8e3c-4f0e-4252-9ef4-afe915b0d9ab
[1] "addrow"
[1] "SYNCING"
  timestamp   event                          migrationId
9       509 SYNCING c25b8e3c-4f0e-4252-9ef4-afe915b0d9ab
[1] "addrow"
[1] "SYNCED"
   timestamp  event                          migrationId
15      2515 SYNCED c25b8e3c-4f0e-4252-9ef4-afe915b0d9ab
[1] "addrow"
[1] "FINISHED"
   timestamp    event                          migrationId
19      2548 FINISHED c25b8e3c-4f0e-4252-9ef4-afe915b0d9ab
[1] "addrow"
[1] "topicA-INITIALIZED"
  timestamp              event                          migrationId
3       289 topicA-INITIALIZED c25b8e3c-4f0e-4252-9ef4-afe915b0d9ab
[1] "addrow"
[1] "topicA-SYNCING"
  timestamp          event                          migrationId
6       505 topicA-SYNCING c25b8e3c-4f0e-4252-9ef4-afe915b0d9ab
[1] "addrow"
[1] "topicA-SYNCED"
   timestamp         event                          migrationId
11       517 topicA-SYNCED c25b8e3c-4f0e-4252-9ef4-afe915b0d9ab
[1] "addrow"
[1] "topicA-FINISHED"
   timestamp           event                          migrationId
17      2546 topicA-FINISHED c25b8e3c-4f0e-4252-9ef4-afe915b0d9ab
[1] "addrow"
[1] "topicB-INITIALIZED"
  timestamp              event                          migrationId
4       289 topicB-INITIALIZED c25b8e3c-4f0e-4252-9ef4-afe915b0d9ab
[1] "addrow"
[1] "topicB-SYNCING"
  timestamp          event                          migrationId
7       505 topicB-SYNCING c25b8e3c-4f0e-4252-9ef4-afe915b0d9ab
[1] "addrow"
[1] "topicB-SYNCED"
   timestamp         event                          migrationId
14      2508 topicB-SYNCED c25b8e3c-4f0e-4252-9ef4-afe915b0d9ab
[1] "addrow"
[1] "topicB-FINISHED"
   timestamp           event                          migrationId
18      2547 topicB-FINISHED c25b8e3c-4f0e-4252-9ef4-afe915b0d9ab
[1] "addrow"
[1] "topicC-INITIALIZED"
  timestamp              event                          migrationId
2       279 topicC-INITIALIZED c25b8e3c-4f0e-4252-9ef4-afe915b0d9ab
[1] "addrow"
[1] "topicC-SYNCING"
  timestamp          event                          migrationId
5       504 topicC-SYNCING c25b8e3c-4f0e-4252-9ef4-afe915b0d9ab
[1] "addrow"
[1] "topicC-SYNCED"
   timestamp         event                          migrationId
13      2507 topicC-SYNCED c25b8e3c-4f0e-4252-9ef4-afe915b0d9ab
[1] "addrow"
[1] "topicC-FINISHED"
   timestamp           event                          migrationId
16      2542 topicC-FINISHED c25b8e3c-4f0e-4252-9ef4-afe915b0d9ab
pdf 
  2 
[1] "addrow"
[1] "INITIALIZED"
  timestamp       event                          migrationId
1       272 INITIALIZED c25b8e3c-4f0e-4252-9ef4-afe915b0d9ab
[1] "addrow"
[1] "SYNCING"
  timestamp   event                          migrationId
9       509 SYNCING c25b8e3c-4f0e-4252-9ef4-afe915b0d9ab
[1] "addrow"
[1] "SYNCED"
   timestamp  event                          migrationId
15      2515 SYNCED c25b8e3c-4f0e-4252-9ef4-afe915b0d9ab
[1] "addrow"
[1] "FINISHED"
   timestamp    event                          migrationId
19      2548 FINISHED c25b8e3c-4f0e-4252-9ef4-afe915b0d9ab
[1] "addrow"
[1] "topicA-INITIALIZED"
  timestamp              event                          migrationId
3       289 topicA-INITIALIZED c25b8e3c-4f0e-4252-9ef4-afe915b0d9ab
[1] "addrow"
[1] "topicA-SYNCING"
  timestamp          event                          migrationId
6       505 topicA-SYNCING c25b8e3c-4f0e-4252-9ef4-afe915b0d9ab
[1] "addrow"
[1] "topicA-SYNCED"
   timestamp         event                          migrationId
11       517 topicA-SYNCED c25b8e3c-4f0e-4252-9ef4-afe915b0d9ab
[1] "addrow"
[1] "topicA-FINISHED"
   timestamp           event                          migrationId
17      2546 topicA-FINISHED c25b8e3c-4f0e-4252-9ef4-afe915b0d9ab
[1] "addrow"
[1] "topicB-INITIALIZED"
  timestamp              event                          migrationId
4       289 topicB-INITIALIZED c25b8e3c-4f0e-4252-9ef4-afe915b0d9ab
[1] "addrow"
[1] "topicB-SYNCING"
  timestamp          event                          migrationId
7       505 topicB-SYNCING c25b8e3c-4f0e-4252-9ef4-afe915b0d9ab
[1] "addrow"
[1] "topicB-SYNCED"
   timestamp         event                          migrationId
14      2508 topicB-SYNCED c25b8e3c-4f0e-4252-9ef4-afe915b0d9ab
[1] "addrow"
[1] "topicB-FINISHED"
   timestamp           event                          migrationId
18      2547 topicB-FINISHED c25b8e3c-4f0e-4252-9ef4-afe915b0d9ab
[1] "addrow"
[1] "topicC-INITIALIZED"
  timestamp              event                          migrationId
2       279 topicC-INITIALIZED c25b8e3c-4f0e-4252-9ef4-afe915b0d9ab
[1] "addrow"
[1] "topicC-SYNCING"
  timestamp          event                          migrationId
5       504 topicC-SYNCING c25b8e3c-4f0e-4252-9ef4-afe915b0d9ab
[1] "addrow"
[1] "topicC-SYNCED"
   timestamp         event                          migrationId
13      2507 topicC-SYNCED c25b8e3c-4f0e-4252-9ef4-afe915b0d9ab
[1] "addrow"
[1] "topicC-FINISHED"
   timestamp           event                          migrationId
16      2542 topicC-FINISHED c25b8e3c-4f0e-4252-9ef4-afe915b0d9ab
pdf 
  2 
