---------------
Topic:  topicA - QoS 0
Dupl:   0
Loss:   0
Check:  Valid   topicA   QoS 0   Dupl: 0   Loss: 0
---------------
Topic:  topicB - QoS 1
Dupl:   9
Loss:   0
Check:  Valid   topicB   QoS 1   Dupl: 9   Loss: 0
---------------
Topic:  topicC - QoS 2
Dupl:   0
Loss:   0
Check:  Valid   topicC   QoS 2   Dupl: 0   Loss: 0
---------------
