clientId,topic,guid,broker,timestamp,type
Subscriber_001,topicA,topicA-55,172.172.1.1:1883,1551654091255,RECEIVED
Subscriber_001,topicA,topicA-56,172.172.1.1:1883,1551654091258,RECEIVED
Subscriber_001,topicA,topicA-57,172.172.1.1:1883,1551654091259,RECEIVED
Subscriber_001,topicA,topicA-58,172.172.1.1:1883,1551654091330,RECEIVED
Subscriber_001,topicA,topicA-59,172.172.1.1:1883,1551654091440,RECEIVED
Subscriber_001,topicA,topicA-60,172.172.1.1:1883,1551654091532,RECEIVED
Subscriber_001,topicA,topicA-61,172.172.1.1:1883,1551654091644,RECEIVED
Subscriber_001,topicA,topicA-62,172.172.1.1:1883,1551654091737,RECEIVED
Subscriber_001,topicA,topicA-63,172.172.1.1:1883,1551654091833,RECEIVED
Subscriber_001,topicA,topicA-64,172.172.1.1:1883,1551654091938,RECEIVED
Subscriber_001,topicA,topicA-65,172.172.1.1:1883,1551654092026,RECEIVED
Subscriber_001,topicA,topicA-66,172.172.1.1:1883,1551654092132,RECEIVED
Subscriber_001,topicA,topicA-67,172.172.1.1:1883,1551654092227,RECEIVED
Subscriber_001,topicA,topicA-68,172.172.1.1:1883,1551654092339,RECEIVED
Subscriber_001,topicA,topicA-69,172.172.1.1:1883,1551654092432,RECEIVED
Subscriber_001,topicA,topicA-70,172.172.1.1:1883,1551654092548,RECEIVED
Subscriber_001,topicA,topicA-71,172.172.1.1:1883,1551654092629,RECEIVED
Subscriber_001,topicA,topicA-72,172.172.1.1:1883,1551654092731,RECEIVED
Subscriber_001,topicA,topicA-73,172.172.1.1:1883,1551654092829,RECEIVED
Subscriber_001,topicA,topicA-74,172.172.1.1:1883,1551654092930,RECEIVED
Subscriber_001,topicA,topicA-75,172.172.1.1:1883,1551654093034,RECEIVED
Subscriber_001,topicA,topicA-76,172.172.1.1:1883,1551654093134,RECEIVED
Subscriber_001,topicA,topicA-77,172.172.1.1:1883,1551654093237,RECEIVED
Subscriber_001,topicA,topicA-78,172.172.1.1:1883,1551654093331,RECEIVED
Subscriber_001,topicA,topicA-79,172.172.1.1:1883,1551654093430,RECEIVED
Subscriber_001,topicA,topicA-80,172.172.1.1:1883,1551654093535,RECEIVED
Subscriber_001,topicA,topicA-81,172.172.1.1:1883,1551654093639,RECEIVED
Subscriber_001,topicA,topicA-82,172.172.1.1:1883,1551654093738,RECEIVED
Subscriber_001,topicA,topicA-83,172.172.1.1:1883,1551654093843,RECEIVED
Subscriber_001,topicA,topicA-84,172.172.1.1:1883,1551654093933,RECEIVED
Subscriber_001,topicA,topicA-85,172.172.1.1:1883,1551654094053,RECEIVED
Subscriber_001,topicA,topicA-86,172.172.1.1:1883,1551654094148,RECEIVED
Subscriber_001,topicA,topicA-87,172.172.1.1:1883,1551654094230,RECEIVED
Subscriber_001,topicA,topicA-88,172.172.1.1:1883,1551654094330,RECEIVED
Subscriber_001,topicA,topicA-89,172.172.1.1:1883,1551654094429,RECEIVED
Subscriber_001,topicA,topicA-90,172.172.1.1:1883,1551654094545,RECEIVED
Subscriber_001,topicA,topicA-91,172.172.1.1:1883,1551654094640,RECEIVED
Subscriber_001,topicA,topicA-92,172.172.1.1:1883,1551654094732,RECEIVED
Subscriber_001,topicA,topicA-93,172.172.1.1:1883,1551654094846,RECEIVED
Subscriber_001,topicA,topicA-94,172.172.1.1:1883,1551654094954,RECEIVED
Subscriber_001,topicA,topicA-95,172.172.1.1:1883,1551654095039,RECEIVED
Subscriber_001,topicA,topicA-96,172.172.1.1:1883,1551654095142,RECEIVED
Subscriber_001,topicA,topicA-97,172.172.1.1:1883,1551654095242,RECEIVED
Subscriber_001,topicA,topicA-98,172.172.1.1:1883,1551654095333,RECEIVED
Subscriber_001,topicA,topicA-99,172.172.1.1:1883,1551654095440,RECEIVED
Subscriber_001,topicA,topicA-100,172.172.1.1:1883,1551654095536,RECEIVED
Subscriber_001,topicA,topicA-101,172.172.1.1:1883,1551654095637,RECEIVED
Subscriber_001,topicA,topicA-102,172.172.1.1:1883,1551654095741,RECEIVED
Subscriber_001,topicA,topicA-103,172.172.1.1:1883,1551654095848,RECEIVED
Subscriber_001,topicA,topicA-104,172.172.1.1:1883,1551654095938,RECEIVED
Subscriber_001,topicA,topicA-105,172.172.1.1:1883,1551654096032,RECEIVED
Subscriber_001,topicA,topicA-106,172.172.1.1:1883,1551654096137,RECEIVED
Subscriber_001,topicA,topicA-107,172.172.1.1:1883,1551654096232,RECEIVED
Subscriber_001,topicA,topicA-108,172.172.1.1:1883,1551654096338,RECEIVED
Subscriber_001,topicA,topicA-109,172.172.1.1:1883,1551654096440,RECEIVED
Subscriber_001,topicA,topicA-110,172.172.1.1:1883,1551654096537,RECEIVED
Subscriber_001,topicA,topicA-111,172.172.1.1:1883,1551654096634,RECEIVED
Subscriber_001,topicA,topicA-112,172.172.1.1:1883,1551654096741,RECEIVED
Subscriber_001,topicA,topicA-113,172.172.1.1:1883,1551654096835,RECEIVED
Subscriber_001,topicA,topicA-114,172.172.1.1:1883,1551654096940,RECEIVED
Subscriber_001,topicA,topicA-115,172.172.1.1:1883,1551654097037,RECEIVED
Subscriber_001,topicA,topicA-116,172.172.1.1:1883,1551654097135,RECEIVED
Subscriber_001,topicA,topicA-117,172.172.1.1:1883,1551654097236,RECEIVED
Subscriber_001,topicA,topicA-118,172.172.1.1:1883,1551654097341,RECEIVED
Subscriber_001,topicA,topicA-119,172.172.1.1:1883,1551654097439,RECEIVED
Subscriber_001,topicA,topicA-120,172.172.1.1:1883,1551654097539,RECEIVED
Subscriber_001,topicA,topicA-121,172.172.1.1:1883,1551654097639,RECEIVED
Subscriber_001,topicA,topicA-122,172.172.1.1:1883,1551654097734,RECEIVED
Subscriber_001,topicA,topicA-123,172.172.1.1:1883,1551654097833,RECEIVED
Subscriber_001,topicA,topicA-124,172.172.1.1:1883,1551654097933,RECEIVED
Subscriber_001,topicA,topicA-125,172.172.1.1:1883,1551654098033,RECEIVED
Subscriber_001,topicA,topicA-126,172.172.1.1:1883,1551654098149,RECEIVED
Subscriber_001,topicA,topicA-127,172.172.1.1:1883,1551654098235,RECEIVED
Subscriber_001,topicA,topicA-128,172.172.1.1:1883,1551654098353,RECEIVED
Subscriber_001,topicA,topicA-129,172.172.1.1:1883,1551654098432,RECEIVED
Subscriber_001,topicA,topicA-130,172.172.1.1:1883,1551654098539,RECEIVED
Subscriber_001,topicA,topicA-131,172.172.1.1:1883,1551654098638,RECEIVED
Subscriber_001,topicA,topicA-132,172.172.1.1:1883,1551654098733,RECEIVED
Subscriber_001,topicA,topicA-133,172.172.1.1:1883,1551654098836,RECEIVED
Subscriber_001,topicA,topicA-134,172.172.1.1:1883,1551654098942,RECEIVED
Subscriber_001,topicA,topicA-135,172.172.1.1:1883,1551654099041,RECEIVED
Subscriber_001,topicA,topicA-136,172.172.1.1:1883,1551654099134,RECEIVED
Subscriber_001,topicA,topicA-137,172.172.1.1:1883,1551654099237,RECEIVED
Subscriber_001,topicA,topicA-138,172.172.1.1:1883,1551654099344,RECEIVED
Subscriber_001,topicA,topicA-139,172.172.1.1:1883,1551654099431,RECEIVED
Subscriber_001,topicA,topicA-140,172.172.1.1:1883,1551654099537,RECEIVED
Subscriber_001,topicA,topicA-141,172.172.1.1:1883,1551654099630,RECEIVED
Subscriber_001,topicA,topicA-142,172.172.1.1:1883,1551654099738,RECEIVED
Subscriber_001,topicA,topicA-143,172.172.1.1:1883,1551654099840,RECEIVED
Subscriber_001,topicA,topicA-144,172.172.1.1:1883,1551654099950,RECEIVED
Subscriber_001,topicA,topicA-145,172.172.1.1:1883,1551654100031,RECEIVED
Subscriber_001,topicA,topicA-146,172.172.1.1:1883,1551654100145,RECEIVED
Subscriber_001,topicA,topicA-147,172.172.1.1:1883,1551654100232,RECEIVED
Subscriber_001,topicA,topicA-148,172.172.1.1:1883,1551654100345,RECEIVED
Subscriber_001,topicA,topicA-149,172.172.1.1:1883,1551654100434,RECEIVED
Subscriber_001,topicA,topicA-150,172.172.1.1:1883,1551654100544,RECEIVED
Subscriber_001,topicA,topicA-151,172.172.1.1:1883,1551654100628,RECEIVED
Subscriber_001,topicA,topicA-152,172.172.1.1:1883,1551654100734,RECEIVED
Subscriber_001,topicA,topicA-153,172.172.1.1:1883,1551654100848,RECEIVED
Subscriber_001,topicA,topicA-154,172.172.1.1:1883,1551654100944,RECEIVED
Subscriber_001,topicA,topicA-155,172.172.1.1:1883,1551654101040,RECEIVED
Subscriber_001,topicA,topicA-156,172.172.1.1:1883,1551654101129,RECEIVED
Subscriber_001,topicA,topicA-157,172.172.1.1:1883,1551654101235,RECEIVED
Subscriber_001,topicA,topicA-158,172.172.1.1:1883,1551654101332,RECEIVED
Subscriber_001,topicA,topicA-159,172.172.1.1:1883,1551654101436,RECEIVED
Subscriber_001,topicA,topicA-160,172.172.1.1:1883,1551654101530,RECEIVED
Subscriber_001,topicA,topicA-161,172.172.1.1:1883,1551654101628,RECEIVED
Subscriber_001,topicA,topicA-162,172.172.1.1:1883,1551654101736,RECEIVED
Subscriber_001,topicA,topicA-163,172.172.1.1:1883,1551654101837,RECEIVED
Subscriber_001,topicA,topicA-164,172.172.1.1:1883,1551654101947,RECEIVED
Subscriber_001,topicA,topicA-165,172.172.1.1:1883,1551654102034,RECEIVED
Subscriber_001,topicA,topicA-166,172.172.1.1:1883,1551654102125,RECEIVED
Subscriber_001,topicA,topicA-167,172.172.1.1:1883,1551654102227,RECEIVED
Subscriber_001,topicA,topicA-168,172.172.1.1:1883,1551654102340,RECEIVED
Subscriber_001,topicA,topicA-169,172.172.1.1:1883,1551654102425,RECEIVED
Subscriber_001,topicA,topicA-170,172.172.1.1:1883,1551654102525,RECEIVED
Subscriber_001,topicA,topicA-171,172.172.1.1:1883,1551654102628,RECEIVED
Subscriber_001,topicA,topicA-172,172.172.1.1:1883,1551654102732,RECEIVED
Subscriber_001,topicA,topicA-173,172.172.1.1:1883,1551654102837,RECEIVED
Subscriber_001,topicA,topicA-174,172.172.1.1:1883,1551654102933,RECEIVED
Subscriber_001,topicA,topicA-175,172.172.1.1:1883,1551654103025,RECEIVED
Subscriber_001,topicA,topicA-176,172.172.1.1:1883,1551654103129,RECEIVED
Subscriber_001,topicA,topicA-177,172.172.1.1:1883,1551654103232,RECEIVED
Subscriber_001,topicA,topicA-178,172.172.1.1:1883,1551654103333,RECEIVED
Subscriber_001,topicA,topicA-179,172.172.1.1:1883,1551654103437,RECEIVED
Subscriber_001,topicA,topicA-180,172.172.1.1:1883,1551654103528,RECEIVED
Subscriber_001,topicA,topicA-181,172.172.1.1:1883,1551654103629,RECEIVED
Subscriber_001,topicA,topicA-182,172.172.1.1:1883,1551654103729,RECEIVED
Subscriber_001,topicA,topicA-183,172.172.1.1:1883,1551654103837,RECEIVED
Subscriber_001,topicA,topicA-184,172.172.1.1:1883,1551654103931,RECEIVED
Subscriber_001,topicA,topicA-185,172.172.1.1:1883,1551654104027,RECEIVED
Subscriber_001,topicA,topicA-186,172.172.1.1:1883,1551654104128,RECEIVED
Subscriber_001,topicA,topicA-187,172.172.1.1:1883,1551654104228,RECEIVED
Subscriber_001,topicA,topicA-188,172.172.1.1:1883,1551654104341,RECEIVED
Subscriber_001,topicA,topicA-189,172.172.1.1:1883,1551654104439,RECEIVED
Subscriber_001,topicA,topicA-190,172.172.1.1:1883,1551654104531,RECEIVED
Subscriber_001,topicA,topicA-191,172.172.1.1:1883,1551654104634,RECEIVED
Subscriber_001,topicA,topicA-192,172.172.1.1:1883,1551654104736,RECEIVED
Subscriber_001,topicA,topicA-193,172.172.1.1:1883,1551654104833,RECEIVED
Subscriber_001,topicA,topicA-194,172.172.1.1:1883,1551654104934,RECEIVED
Subscriber_001,topicA,topicA-195,172.172.1.1:1883,1551654105031,RECEIVED
Subscriber_001,topicA,topicA-196,172.172.1.1:1883,1551654105135,RECEIVED
Subscriber_001,topicA,topicA-197,172.172.1.1:1883,1551654105231,RECEIVED
Subscriber_001,topicA,topicA-198,172.172.1.1:1883,1551654105326,RECEIVED
Subscriber_001,topicA,topicA-199,172.172.1.1:1883,1551654105426,RECEIVED
Subscriber_001,topicA,topicA-200,172.172.1.1:1883,1551654105533,RECEIVED
Subscriber_001,topicA,topicA-201,172.172.1.1:1883,1551654105632,RECEIVED
Subscriber_001,topicA,topicA-202,172.172.1.1:1883,1551654105735,RECEIVED
Subscriber_001,topicA,topicA-203,172.172.1.1:1883,1551654105845,RECEIVED
Subscriber_001,topicA,topicA-204,172.172.1.1:1883,1551654105938,RECEIVED
Subscriber_001,topicA,topicA-205,172.172.1.1:1883,1551654106041,RECEIVED
Subscriber_001,topicA,topicA-206,172.172.1.1:1883,1551654106139,RECEIVED
Subscriber_001,topicA,topicA-207,172.172.1.1:1883,1551654106239,RECEIVED
Subscriber_001,topicA,topicA-208,172.172.1.1:1883,1551654106329,RECEIVED
Subscriber_001,topicA,topicA-209,172.172.1.1:1883,1551654106436,RECEIVED
Subscriber_001,topicA,topicA-210,172.172.1.1:1883,1551654106530,RECEIVED
Subscriber_001,topicA,topicA-211,172.172.1.1:1883,1551654106626,RECEIVED
Subscriber_001,topicA,topicA-212,172.172.1.1:1883,1551654106732,RECEIVED
Subscriber_001,topicA,topicA-213,172.172.1.1:1883,1551654106843,RECEIVED
Subscriber_001,topicA,topicA-214,172.172.1.1:1883,1551654106930,RECEIVED
Subscriber_001,topicA,topicA-215,172.172.1.1:1883,1551654107029,RECEIVED
Subscriber_001,topicA,topicA-216,172.172.1.1:1883,1551654107129,RECEIVED
Subscriber_001,topicA,topicA-217,172.172.1.1:1883,1551654107234,RECEIVED
Subscriber_001,topicA,topicA-218,172.172.1.1:1883,1551654107332,RECEIVED
Subscriber_001,topicA,topicA-219,172.172.1.1:1883,1551654107450,RECEIVED
Subscriber_001,topicA,topicA-220,172.172.1.1:1883,1551654107527,RECEIVED
Subscriber_001,topicA,topicA-221,172.172.1.1:1883,1551654107636,RECEIVED
Subscriber_001,topicA,topicA-222,172.172.1.1:1883,1551654107734,RECEIVED
Subscriber_001,topicA,topicA-223,172.172.1.1:1883,1551654107832,RECEIVED
Subscriber_001,topicA,topicA-224,172.172.1.1:1883,1551654107931,RECEIVED
Subscriber_001,topicA,topicA-225,172.172.1.1:1883,1551654108047,RECEIVED
Subscriber_001,topicA,topicA-226,172.172.1.1:1883,1551654108136,RECEIVED
Subscriber_001,topicA,topicA-227,172.172.1.1:1883,1551654108235,RECEIVED
Subscriber_001,topicA,topicA-228,172.172.1.1:1883,1551654108332,RECEIVED
Subscriber_001,topicA,topicA-229,172.172.1.1:1883,1551654108431,RECEIVED
Subscriber_001,topicA,topicA-230,172.172.1.1:1883,1551654108531,RECEIVED
Subscriber_001,topicA,topicA-231,172.172.1.1:1883,1551654108628,RECEIVED
Subscriber_001,topicA,topicA-232,172.172.1.1:1883,1551654108732,RECEIVED
Subscriber_001,topicA,topicA-233,172.172.1.1:1883,1551654108824,RECEIVED
Subscriber_001,topicA,topicA-234,172.172.1.1:1883,1551654108935,RECEIVED
Subscriber_001,topicA,topicA-235,172.172.1.1:1883,1551654109033,RECEIVED
Subscriber_001,topicA,topicA-236,172.172.1.1:1883,1551654109126,RECEIVED
Subscriber_001,topicA,topicA-237,172.172.1.1:1883,1551654109231,RECEIVED
Subscriber_001,topicA,topicA-238,172.172.1.1:1883,1551654109327,RECEIVED
Subscriber_001,topicA,topicA-239,172.172.1.1:1883,1551654109436,RECEIVED
Subscriber_001,topicA,topicA-240,172.172.1.1:1883,1551654109541,RECEIVED
Subscriber_001,topicA,topicA-241,172.172.1.1:1883,1551654109640,RECEIVED
Subscriber_001,topicA,topicA-242,172.172.1.1:1883,1551654109733,RECEIVED
Subscriber_001,topicA,topicA-243,172.172.1.1:1883,1551654109833,RECEIVED
Subscriber_001,topicA,topicA-244,172.172.1.1:1883,1551654109942,RECEIVED
Subscriber_001,topicA,topicA-245,172.172.1.1:1883,1551654110035,RECEIVED
Subscriber_001,topicA,topicA-246,172.172.1.1:1883,1551654110142,RECEIVED
Subscriber_001,topicA,topicA-247,172.172.1.1:1883,1551654110226,RECEIVED
Subscriber_001,topicA,topicA-248,172.172.1.1:1883,1551654110324,RECEIVED
Subscriber_001,topicA,topicA-249,172.172.1.1:1883,1551654110430,RECEIVED
Subscriber_001,topicA,topicA-250,172.172.1.2:1883,1551654111287,RECEIVED
Subscriber_001,topicA,topicA-251,172.172.1.2:1883,1551654111389,RECEIVED
Subscriber_001,topicA,topicA-252,172.172.1.2:1883,1551654111504,RECEIVED
Subscriber_001,topicA,topicA-253,172.172.1.2:1883,1551654111591,RECEIVED
Subscriber_001,topicA,topicA-254,172.172.1.2:1883,1551654111694,RECEIVED
Subscriber_001,topicA,topicA-255,172.172.1.2:1883,1551654111793,RECEIVED
Subscriber_001,topicA,topicA-256,172.172.1.2:1883,1551654111897,RECEIVED
Subscriber_001,topicA,topicA-257,172.172.1.2:1883,1551654112005,RECEIVED
Subscriber_001,topicA,topicA-258,172.172.1.2:1883,1551654112086,RECEIVED
Subscriber_001,topicA,topicA-259,172.172.1.2:1883,1551654112192,RECEIVED
Subscriber_001,topicA,topicA-260,172.172.1.2:1883,1551654112293,RECEIVED
Subscriber_001,topicA,topicA-261,172.172.1.2:1883,1551654112386,RECEIVED
Subscriber_001,topicA,topicA-262,172.172.1.2:1883,1551654112502,RECEIVED
Subscriber_001,topicA,topicA-263,172.172.1.2:1883,1551654112596,RECEIVED
Subscriber_001,topicA,topicA-264,172.172.1.2:1883,1551654112702,RECEIVED
Subscriber_001,topicA,topicA-265,172.172.1.2:1883,1551654112798,RECEIVED
Subscriber_001,topicA,topicA-266,172.172.1.2:1883,1551654112884,RECEIVED
Subscriber_001,topicA,topicA-267,172.172.1.2:1883,1551654112996,RECEIVED
Subscriber_001,topicA,topicA-268,172.172.1.2:1883,1551654113088,RECEIVED
Subscriber_001,topicA,topicA-269,172.172.1.2:1883,1551654113188,RECEIVED
Subscriber_001,topicA,topicA-270,172.172.1.2:1883,1551654113287,RECEIVED
Subscriber_001,topicA,topicA-271,172.172.1.2:1883,1551654113395,RECEIVED
Subscriber_001,topicA,topicA-272,172.172.1.2:1883,1551654113492,RECEIVED
Subscriber_001,topicA,topicA-273,172.172.1.2:1883,1551654113589,RECEIVED
Subscriber_001,topicA,topicA-274,172.172.1.2:1883,1551654113701,RECEIVED
Subscriber_001,topicA,topicA-275,172.172.1.2:1883,1551654113800,RECEIVED
Subscriber_001,topicA,topicA-276,172.172.1.2:1883,1551654113896,RECEIVED
Subscriber_001,topicA,topicA-277,172.172.1.2:1883,1551654114012,RECEIVED
Subscriber_001,topicA,topicA-278,172.172.1.2:1883,1551654114089,RECEIVED
Subscriber_001,topicA,topicA-279,172.172.1.2:1883,1551654114192,RECEIVED
Subscriber_001,topicA,topicA-280,172.172.1.2:1883,1551654114286,RECEIVED
Subscriber_001,topicA,topicA-281,172.172.1.2:1883,1551654114393,RECEIVED
Subscriber_001,topicA,topicA-282,172.172.1.2:1883,1551654114492,RECEIVED
Subscriber_001,topicA,topicA-283,172.172.1.2:1883,1551654114587,RECEIVED
Subscriber_001,topicA,topicA-284,172.172.1.2:1883,1551654114693,RECEIVED
Subscriber_001,topicA,topicA-285,172.172.1.2:1883,1551654114791,RECEIVED
Subscriber_001,topicA,topicA-286,172.172.1.2:1883,1551654114889,RECEIVED
Subscriber_001,topicA,topicA-287,172.172.1.2:1883,1551654115000,RECEIVED
Subscriber_001,topicA,topicA-288,172.172.1.2:1883,1551654115084,RECEIVED
Subscriber_001,topicA,topicA-289,172.172.1.2:1883,1551654115189,RECEIVED
Subscriber_001,topicA,topicA-290,172.172.1.2:1883,1551654115285,RECEIVED
Subscriber_001,topicA,topicA-291,172.172.1.2:1883,1551654115385,RECEIVED
Subscriber_001,topicA,topicA-292,172.172.1.2:1883,1551654115496,RECEIVED
Subscriber_001,topicA,topicA-293,172.172.1.2:1883,1551654115595,RECEIVED
Subscriber_001,topicA,topicA-294,172.172.1.2:1883,1551654115692,RECEIVED
Subscriber_001,topicA,topicA-295,172.172.1.2:1883,1551654115790,RECEIVED
Subscriber_001,topicA,topicA-296,172.172.1.2:1883,1551654115892,RECEIVED
Subscriber_001,topicA,topicA-297,172.172.1.2:1883,1551654115993,RECEIVED
Subscriber_001,topicA,topicA-298,172.172.1.2:1883,1551654116085,RECEIVED
Subscriber_001,topicA,topicA-299,172.172.1.2:1883,1551654116187,RECEIVED
Subscriber_001,topicA,topicA-300,172.172.1.2:1883,1551654116286,RECEIVED
Subscriber_001,topicA,topicA-301,172.172.1.2:1883,1551654116395,RECEIVED
Subscriber_001,topicA,topicA-302,172.172.1.2:1883,1551654116488,RECEIVED
Subscriber_001,topicA,topicA-303,172.172.1.2:1883,1551654116586,RECEIVED
Subscriber_001,topicA,topicA-304,172.172.1.2:1883,1551654116691,RECEIVED
Subscriber_001,topicA,topicA-305,172.172.1.2:1883,1551654116786,RECEIVED
Subscriber_001,topicA,topicA-306,172.172.1.2:1883,1551654116895,RECEIVED
Subscriber_001,topicA,topicA-307,172.172.1.2:1883,1551654116984,RECEIVED
Subscriber_001,topicA,topicA-308,172.172.1.2:1883,1551654117087,RECEIVED
Subscriber_001,topicA,topicA-309,172.172.1.2:1883,1551654117189,RECEIVED
Subscriber_001,topicA,topicA-310,172.172.1.2:1883,1551654117299,RECEIVED
Subscriber_001,topicA,topicA-311,172.172.1.2:1883,1551654117399,RECEIVED
Subscriber_001,topicA,topicA-312,172.172.1.2:1883,1551654117497,RECEIVED
Subscriber_001,topicA,topicA-313,172.172.1.2:1883,1551654117589,RECEIVED
Subscriber_001,topicA,topicA-314,172.172.1.2:1883,1551654117686,RECEIVED
Subscriber_001,topicA,topicA-315,172.172.1.2:1883,1551654117791,RECEIVED
Subscriber_001,topicA,topicA-316,172.172.1.2:1883,1551654117898,RECEIVED
Subscriber_001,topicA,topicA-317,172.172.1.2:1883,1551654117991,RECEIVED
Subscriber_001,topicA,topicA-318,172.172.1.2:1883,1551654118095,RECEIVED
Subscriber_001,topicA,topicA-319,172.172.1.2:1883,1551654118195,RECEIVED
Subscriber_001,topicA,topicA-320,172.172.1.2:1883,1551654118307,RECEIVED
Subscriber_001,topicA,topicA-321,172.172.1.2:1883,1551654118403,RECEIVED
Subscriber_001,topicA,topicA-322,172.172.1.2:1883,1551654118489,RECEIVED
Subscriber_001,topicA,topicA-323,172.172.1.2:1883,1551654118588,RECEIVED
Subscriber_001,topicA,topicA-324,172.172.1.2:1883,1551654118694,RECEIVED
Subscriber_001,topicA,topicA-325,172.172.1.2:1883,1551654118807,RECEIVED
Subscriber_001,topicA,topicA-326,172.172.1.2:1883,1551654118896,RECEIVED
Subscriber_001,topicA,topicA-327,172.172.1.2:1883,1551654118997,RECEIVED
Subscriber_001,topicA,topicA-328,172.172.1.2:1883,1551654119086,RECEIVED
Subscriber_001,topicA,topicA-329,172.172.1.2:1883,1551654119198,RECEIVED
Subscriber_001,topicA,topicA-330,172.172.1.2:1883,1551654119299,RECEIVED
Subscriber_001,topicA,topicA-331,172.172.1.2:1883,1551654119430,RECEIVED
Subscriber_001,topicA,topicA-332,172.172.1.2:1883,1551654119490,RECEIVED
Subscriber_001,topicA,topicA-333,172.172.1.2:1883,1551654119586,RECEIVED
Subscriber_001,topicA,topicA-334,172.172.1.2:1883,1551654119694,RECEIVED
Subscriber_001,topicA,topicA-335,172.172.1.2:1883,1551654119803,RECEIVED
Subscriber_001,topicA,topicA-336,172.172.1.2:1883,1551654119888,RECEIVED
Subscriber_001,topicA,topicA-337,172.172.1.2:1883,1551654120000,RECEIVED
Subscriber_001,topicA,topicA-338,172.172.1.2:1883,1551654120086,RECEIVED
Subscriber_001,topicA,topicA-339,172.172.1.2:1883,1551654120194,RECEIVED
Subscriber_001,topicA,topicA-340,172.172.1.2:1883,1551654120293,RECEIVED
Subscriber_001,topicA,topicA-341,172.172.1.2:1883,1551654120399,RECEIVED
Subscriber_001,topicA,topicA-342,172.172.1.2:1883,1551654120491,RECEIVED
Subscriber_001,topicA,topicA-343,172.172.1.2:1883,1551654120594,RECEIVED
Subscriber_001,topicA,topicA-344,172.172.1.2:1883,1551654120688,RECEIVED
Subscriber_001,topicA,topicA-345,172.172.1.2:1883,1551654120797,RECEIVED
Subscriber_001,topicA,topicA-346,172.172.1.2:1883,1551654120889,RECEIVED
Subscriber_001,topicA,topicA-347,172.172.1.2:1883,1551654121002,RECEIVED
Subscriber_001,topicA,topicA-348,172.172.1.2:1883,1551654121100,RECEIVED
Subscriber_001,topicA,topicA-349,172.172.1.2:1883,1551654121187,RECEIVED
Subscriber_001,topicA,topicA-350,172.172.1.2:1883,1551654121290,RECEIVED
Subscriber_001,topicA,topicA-351,172.172.1.2:1883,1551654121393,RECEIVED
Subscriber_001,topicA,topicA-352,172.172.1.2:1883,1551654121495,RECEIVED
Subscriber_001,topicA,topicA-353,172.172.1.2:1883,1551654121593,RECEIVED
Subscriber_001,topicA,topicA-354,172.172.1.2:1883,1551654121693,RECEIVED
Subscriber_001,topicA,topicA-355,172.172.1.2:1883,1551654121787,RECEIVED
Subscriber_001,topicA,topicA-356,172.172.1.2:1883,1551654121895,RECEIVED
Subscriber_001,topicA,topicA-357,172.172.1.2:1883,1551654121990,RECEIVED
Subscriber_001,topicA,topicA-358,172.172.1.2:1883,1551654122094,RECEIVED
Subscriber_001,topicA,topicA-359,172.172.1.2:1883,1551654122190,RECEIVED
Subscriber_001,topicA,topicA-360,172.172.1.2:1883,1551654122291,RECEIVED
Subscriber_001,topicA,topicA-361,172.172.1.2:1883,1551654122388,RECEIVED
Subscriber_001,topicA,topicA-362,172.172.1.2:1883,1551654122493,RECEIVED
Subscriber_001,topicA,topicA-363,172.172.1.2:1883,1551654122584,RECEIVED
Subscriber_001,topicA,topicA-364,172.172.1.2:1883,1551654122688,RECEIVED
Subscriber_001,topicA,topicA-365,172.172.1.2:1883,1551654122789,RECEIVED
Subscriber_001,topicA,topicA-366,172.172.1.2:1883,1551654122891,RECEIVED
Subscriber_001,topicA,topicA-367,172.172.1.2:1883,1551654122986,RECEIVED
Subscriber_001,topicA,topicA-368,172.172.1.2:1883,1551654123097,RECEIVED
Subscriber_001,topicA,topicA-369,172.172.1.2:1883,1551654123188,RECEIVED
Subscriber_001,topicA,topicA-370,172.172.1.2:1883,1551654123292,RECEIVED
Subscriber_001,topicA,topicA-371,172.172.1.2:1883,1551654123393,RECEIVED
Subscriber_001,topicA,topicA-372,172.172.1.2:1883,1551654123493,RECEIVED
Subscriber_001,topicA,topicA-373,172.172.1.2:1883,1551654123594,RECEIVED
Subscriber_001,topicA,topicA-374,172.172.1.2:1883,1551654123688,RECEIVED
Subscriber_001,topicA,topicA-375,172.172.1.2:1883,1551654123791,RECEIVED
Subscriber_001,topicA,topicA-376,172.172.1.2:1883,1551654123891,RECEIVED
Subscriber_001,topicA,topicA-377,172.172.1.2:1883,1551654123989,RECEIVED
Subscriber_001,topicA,topicA-378,172.172.1.2:1883,1551654124090,RECEIVED
Subscriber_001,topicA,topicA-379,172.172.1.2:1883,1551654124203,RECEIVED
Subscriber_001,topicA,topicA-380,172.172.1.2:1883,1551654124318,RECEIVED
Subscriber_001,topicA,topicA-381,172.172.1.2:1883,1551654124401,RECEIVED
Subscriber_001,topicA,topicA-382,172.172.1.2:1883,1551654124496,RECEIVED
Subscriber_001,topicA,topicA-383,172.172.1.2:1883,1551654124599,RECEIVED
Subscriber_001,topicA,topicA-384,172.172.1.2:1883,1551654124701,RECEIVED
Subscriber_001,topicA,topicA-385,172.172.1.2:1883,1551654124793,RECEIVED
Subscriber_001,topicA,topicA-386,172.172.1.2:1883,1551654124896,RECEIVED
Subscriber_001,topicA,topicA-387,172.172.1.2:1883,1551654124994,RECEIVED
Subscriber_001,topicA,topicA-388,172.172.1.2:1883,1551654125095,RECEIVED
Subscriber_001,topicA,topicA-389,172.172.1.2:1883,1551654125184,RECEIVED
Subscriber_001,topicA,topicA-390,172.172.1.2:1883,1551654125291,RECEIVED
Subscriber_001,topicA,topicA-391,172.172.1.2:1883,1551654125400,RECEIVED
Subscriber_001,topicA,topicA-392,172.172.1.2:1883,1551654125490,RECEIVED
Subscriber_001,topicA,topicA-393,172.172.1.2:1883,1551654125589,RECEIVED
Subscriber_001,topicA,topicA-394,172.172.1.2:1883,1551654125710,RECEIVED
Subscriber_001,topicA,topicA-395,172.172.1.2:1883,1551654125787,RECEIVED
Subscriber_001,topicA,topicA-396,172.172.1.2:1883,1551654125890,RECEIVED
Subscriber_001,topicA,topicA-397,172.172.1.2:1883,1551654126001,RECEIVED
Subscriber_001,topicA,topicA-398,172.172.1.2:1883,1551654126097,RECEIVED
Subscriber_001,topicA,topicA-399,172.172.1.2:1883,1551654126184,RECEIVED
Subscriber_001,topicA,topicA-400,172.172.1.2:1883,1551654126290,RECEIVED
Subscriber_001,topicA,topicA-401,172.172.1.2:1883,1551654126387,RECEIVED
Subscriber_001,topicA,topicA-402,172.172.1.2:1883,1551654126489,RECEIVED
Subscriber_001,topicA,topicA-403,172.172.1.2:1883,1551654126584,RECEIVED
Subscriber_001,topicA,topicA-404,172.172.1.2:1883,1551654126694,RECEIVED
Subscriber_001,topicA,topicA-405,172.172.1.2:1883,1551654126788,RECEIVED
Subscriber_001,topicA,topicA-406,172.172.1.2:1883,1551654126888,RECEIVED
Subscriber_001,topicA,topicA-407,172.172.1.2:1883,1551654126993,RECEIVED
Subscriber_001,topicA,topicA-408,172.172.1.2:1883,1551654127084,RECEIVED
Subscriber_001,topicA,topicA-409,172.172.1.2:1883,1551654127196,RECEIVED
Subscriber_001,topicA,topicA-410,172.172.1.2:1883,1551654127318,RECEIVED
Subscriber_001,topicA,topicA-411,172.172.1.2:1883,1551654127398,RECEIVED
Subscriber_001,topicA,topicA-412,172.172.1.2:1883,1551654127486,RECEIVED
Subscriber_001,topicA,topicA-413,172.172.1.2:1883,1551654127586,RECEIVED
Subscriber_001,topicA,topicA-414,172.172.1.2:1883,1551654127689,RECEIVED
Subscriber_001,topicA,topicA-415,172.172.1.2:1883,1551654127791,RECEIVED
Subscriber_001,topicA,topicA-416,172.172.1.2:1883,1551654127884,RECEIVED
Subscriber_001,topicA,topicA-417,172.172.1.2:1883,1551654127987,RECEIVED
Subscriber_001,topicA,topicA-418,172.172.1.2:1883,1551654128089,RECEIVED
Subscriber_001,topicA,topicA-419,172.172.1.2:1883,1551654128202,RECEIVED
Subscriber_001,topicA,topicA-420,172.172.1.2:1883,1551654128286,RECEIVED
Subscriber_001,topicA,topicA-421,172.172.1.2:1883,1551654128400,RECEIVED
Subscriber_001,topicA,topicA-422,172.172.1.2:1883,1551654128489,RECEIVED
Subscriber_001,topicA,topicA-423,172.172.1.2:1883,1551654128601,RECEIVED
Subscriber_001,topicA,topicA-424,172.172.1.2:1883,1551654128695,RECEIVED
Subscriber_001,topicA,topicA-425,172.172.1.2:1883,1551654128800,RECEIVED
Subscriber_001,topicA,topicA-426,172.172.1.2:1883,1551654128893,RECEIVED
Subscriber_001,topicA,topicA-427,172.172.1.2:1883,1551654128991,RECEIVED
Subscriber_001,topicA,topicA-428,172.172.1.2:1883,1551654129088,RECEIVED
Subscriber_001,topicA,topicA-429,172.172.1.2:1883,1551654129192,RECEIVED
Subscriber_001,topicA,topicA-430,172.172.1.2:1883,1551654129284,RECEIVED
Subscriber_001,topicA,topicA-431,172.172.1.2:1883,1551654129396,RECEIVED
Subscriber_001,topicA,topicA-432,172.172.1.2:1883,1551654129485,RECEIVED
Subscriber_001,topicA,topicA-433,172.172.1.2:1883,1551654129602,RECEIVED
Subscriber_001,topicA,topicA-434,172.172.1.2:1883,1551654129698,RECEIVED
Subscriber_001,topicA,topicA-435,172.172.1.2:1883,1551654129797,RECEIVED
Subscriber_001,topicA,topicA-436,172.172.1.2:1883,1551654129889,RECEIVED
Subscriber_001,topicA,topicA-437,172.172.1.2:1883,1551654130003,RECEIVED
Subscriber_001,topicA,topicA-438,172.172.1.2:1883,1551654130102,RECEIVED
Subscriber_001,topicA,topicA-439,172.172.1.2:1883,1551654130189,RECEIVED
Subscriber_001,topicA,topicA-440,172.172.1.2:1883,1551654130319,RECEIVED
Subscriber_001,topicA,topicA-441,172.172.1.2:1883,1551654130394,RECEIVED
Subscriber_001,topicA,topicA-442,172.172.1.2:1883,1551654130493,RECEIVED
Subscriber_001,topicA,topicA-443,172.172.1.2:1883,1551654130594,RECEIVED
Subscriber_001,topicA,topicA-444,172.172.1.2:1883,1551654130699,RECEIVED
Subscriber_001,topicA,topicA-445,172.172.1.2:1883,1551654130803,RECEIVED
Subscriber_001,topicA,topicA-446,172.172.1.2:1883,1551654130900,RECEIVED
Subscriber_001,topicA,topicA-447,172.172.1.2:1883,1551654130992,RECEIVED
Subscriber_001,topicA,topicA-448,172.172.1.2:1883,1551654131096,RECEIVED
Subscriber_001,topicA,topicA-449,172.172.1.2:1883,1551654131189,RECEIVED
Subscriber_001,topicA,topicA-450,172.172.1.2:1883,1551654131290,RECEIVED
Subscriber_001,topicA,topicA-451,172.172.1.2:1883,1551654131392,RECEIVED
Subscriber_001,topicA,topicA-452,172.172.1.2:1883,1551654131495,RECEIVED
Subscriber_001,topicA,topicA-453,172.172.1.2:1883,1551654131596,RECEIVED
Subscriber_001,topicA,topicA-454,172.172.1.2:1883,1551654131710,RECEIVED
Subscriber_001,topicA,topicA-455,172.172.1.2:1883,1551654131791,RECEIVED
Subscriber_001,topicA,topicA-456,172.172.1.2:1883,1551654131892,RECEIVED
Subscriber_001,topicA,topicA-457,172.172.1.2:1883,1551654131993,RECEIVED
Subscriber_001,topicA,topicA-458,172.172.1.2:1883,1551654132089,RECEIVED
Subscriber_001,topicA,topicA-459,172.172.1.2:1883,1551654132194,RECEIVED
Subscriber_001,topicA,topicA-460,172.172.1.2:1883,1551654132289,RECEIVED
Subscriber_001,topicA,topicA-461,172.172.1.2:1883,1551654132389,RECEIVED
Subscriber_001,topicA,topicA-462,172.172.1.2:1883,1551654132489,RECEIVED
Subscriber_001,topicA,topicA-463,172.172.1.2:1883,1551654132588,RECEIVED
Subscriber_001,topicA,topicA-464,172.172.1.2:1883,1551654132698,RECEIVED
Subscriber_001,topicA,topicA-465,172.172.1.2:1883,1551654132786,RECEIVED
Subscriber_001,topicA,topicA-466,172.172.1.2:1883,1551654132900,RECEIVED
Subscriber_001,topicA,topicA-467,172.172.1.2:1883,1551654133000,RECEIVED
Subscriber_001,topicA,topicA-468,172.172.1.2:1883,1551654133093,RECEIVED
Subscriber_001,topicA,topicA-469,172.172.1.2:1883,1551654133198,RECEIVED
Subscriber_001,topicA,topicA-470,172.172.1.2:1883,1551654133298,RECEIVED
Subscriber_001,topicA,topicA-471,172.172.1.2:1883,1551654133383,RECEIVED
Subscriber_001,topicA,topicA-472,172.172.1.2:1883,1551654133487,RECEIVED
Subscriber_001,topicA,topicA-473,172.172.1.2:1883,1551654133588,RECEIVED
Subscriber_001,topicA,topicA-474,172.172.1.2:1883,1551654133688,RECEIVED
Subscriber_001,topicA,topicA-475,172.172.1.2:1883,1551654133784,RECEIVED
Subscriber_001,topicA,topicA-476,172.172.1.2:1883,1551654133888,RECEIVED
Subscriber_001,topicA,topicA-477,172.172.1.2:1883,1551654133997,RECEIVED
Subscriber_001,topicA,topicA-478,172.172.1.2:1883,1551654134088,RECEIVED
Subscriber_001,topicA,topicA-479,172.172.1.2:1883,1551654134190,RECEIVED
Subscriber_001,topicA,topicA-480,172.172.1.2:1883,1551654134284,RECEIVED
Subscriber_001,topicA,topicA-481,172.172.1.2:1883,1551654134391,RECEIVED
Subscriber_001,topicA,topicA-482,172.172.1.2:1883,1551654134488,RECEIVED
Subscriber_001,topicA,topicA-483,172.172.1.2:1883,1551654134589,RECEIVED
Subscriber_001,topicA,topicA-484,172.172.1.2:1883,1551654134700,RECEIVED
Subscriber_001,topicA,topicA-485,172.172.1.2:1883,1551654134785,RECEIVED
Subscriber_001,topicA,topicA-486,172.172.1.2:1883,1551654134894,RECEIVED
Subscriber_001,topicA,topicA-487,172.172.1.2:1883,1551654134999,RECEIVED
Subscriber_001,topicA,topicA-488,172.172.1.2:1883,1551654135094,RECEIVED
Subscriber_001,topicA,topicA-489,172.172.1.2:1883,1551654135191,RECEIVED
Subscriber_001,topicA,topicA-490,172.172.1.2:1883,1551654135287,RECEIVED
Subscriber_001,topicA,topicA-491,172.172.1.2:1883,1551654135393,RECEIVED
Subscriber_001,topicA,topicA-492,172.172.1.2:1883,1551654135492,RECEIVED
Subscriber_001,topicA,topicA-493,172.172.1.2:1883,1551654135596,RECEIVED
Subscriber_001,topicA,topicA-494,172.172.1.2:1883,1551654135693,RECEIVED
Subscriber_001,topicA,topicA-495,172.172.1.2:1883,1551654135789,RECEIVED
Subscriber_001,topicA,topicA-496,172.172.1.2:1883,1551654135892,RECEIVED
Subscriber_001,topicA,topicA-497,172.172.1.2:1883,1551654135992,RECEIVED
Subscriber_001,topicA,topicA-498,172.172.1.2:1883,1551654136107,RECEIVED
Subscriber_001,topicA,topicA-499,172.172.1.2:1883,1551654136186,RECEIVED
Subscriber_001,topicA,topicA-500,172.172.1.2:1883,1551654136292,RECEIVED
Subscriber_001,topicA,topicA-501,172.172.1.2:1883,1551654136401,RECEIVED
Subscriber_001,topicA,topicA-502,172.172.1.2:1883,1551654136497,RECEIVED
Subscriber_001,topicA,topicA-503,172.172.1.2:1883,1551654136595,RECEIVED
Subscriber_001,topicA,topicA-504,172.172.1.2:1883,1551654136692,RECEIVED
Subscriber_001,topicA,topicA-505,172.172.1.2:1883,1551654136790,RECEIVED
Subscriber_001,topicA,topicA-506,172.172.1.2:1883,1551654136897,RECEIVED
Subscriber_001,topicA,topicA-507,172.172.1.2:1883,1551654136997,RECEIVED
Subscriber_001,topicA,topicA-508,172.172.1.2:1883,1551654137092,RECEIVED
Subscriber_001,topicA,topicA-509,172.172.1.2:1883,1551654137187,RECEIVED
Subscriber_001,topicA,topicA-510,172.172.1.2:1883,1551654137294,RECEIVED
Subscriber_001,topicA,topicA-511,172.172.1.2:1883,1551654137387,RECEIVED
Subscriber_001,topicA,topicA-512,172.172.1.2:1883,1551654137514,RECEIVED
Subscriber_001,topicA,topicA-513,172.172.1.2:1883,1551654137589,RECEIVED
Subscriber_001,topicA,topicA-514,172.172.1.2:1883,1551654137685,RECEIVED
Subscriber_001,topicA,topicA-515,172.172.1.2:1883,1551654137794,RECEIVED
Subscriber_001,topicA,topicA-516,172.172.1.2:1883,1551654137888,RECEIVED
Subscriber_001,topicA,topicA-517,172.172.1.2:1883,1551654137986,RECEIVED
Subscriber_001,topicA,topicA-518,172.172.1.2:1883,1551654138089,RECEIVED
Subscriber_001,topicA,topicA-519,172.172.1.2:1883,1551654138193,RECEIVED
Subscriber_001,topicA,topicA-520,172.172.1.2:1883,1551654138285,RECEIVED
Subscriber_001,topicA,topicA-521,172.172.1.2:1883,1551654138393,RECEIVED
Subscriber_001,topicA,topicA-522,172.172.1.2:1883,1551654138492,RECEIVED
Subscriber_001,topicA,topicA-523,172.172.1.2:1883,1551654138592,RECEIVED
Subscriber_001,topicA,topicA-524,172.172.1.2:1883,1551654138691,RECEIVED
Subscriber_001,topicA,topicA-525,172.172.1.2:1883,1551654138790,RECEIVED
Subscriber_001,topicA,topicA-526,172.172.1.2:1883,1551654138891,RECEIVED
Subscriber_001,topicA,topicA-527,172.172.1.2:1883,1551654138991,RECEIVED
Subscriber_001,topicA,topicA-528,172.172.1.2:1883,1551654139092,RECEIVED
Subscriber_001,topicA,topicA-529,172.172.1.2:1883,1551654139198,RECEIVED
Subscriber_001,topicA,topicA-530,172.172.1.2:1883,1551654139293,RECEIVED
Subscriber_001,topicA,topicA-531,172.172.1.2:1883,1551654139388,RECEIVED
Subscriber_001,topicA,topicA-532,172.172.1.2:1883,1551654139489,RECEIVED
Subscriber_001,topicA,topicA-533,172.172.1.2:1883,1551654139585,RECEIVED
Subscriber_001,topicA,topicA-534,172.172.1.2:1883,1551654139689,RECEIVED
Subscriber_001,topicA,topicA-535,172.172.1.2:1883,1551654139787,RECEIVED
Subscriber_001,topicA,topicA-536,172.172.1.2:1883,1551654139885,RECEIVED
Subscriber_001,topicA,topicA-537,172.172.1.2:1883,1551654139991,RECEIVED
Subscriber_001,topicA,topicA-538,172.172.1.2:1883,1551654140084,RECEIVED
Subscriber_001,topicA,topicA-539,172.172.1.2:1883,1551654140183,RECEIVED
Subscriber_001,topicA,topicA-540,172.172.1.2:1883,1551654140285,RECEIVED
Subscriber_001,topicA,topicA-541,172.172.1.2:1883,1551654140382,RECEIVED
Subscriber_001,topicA,topicA-542,172.172.1.2:1883,1551654140487,RECEIVED
Subscriber_001,topicA,topicA-543,172.172.1.2:1883,1551654140586,RECEIVED
Subscriber_001,topicA,topicA-544,172.172.1.2:1883,1551654140690,RECEIVED
Subscriber_001,topicA,topicA-545,172.172.1.2:1883,1551654140783,RECEIVED
Subscriber_001,topicA,topicA-546,172.172.1.2:1883,1551654140893,RECEIVED
Subscriber_001,topicA,topicA-547,172.172.1.2:1883,1551654140994,RECEIVED
Subscriber_001,topicA,topicA-548,172.172.1.2:1883,1551654141092,RECEIVED
Subscriber_001,topicA,topicA-549,172.172.1.2:1883,1551654141194,RECEIVED
Subscriber_001,topicA,topicA-550,172.172.1.2:1883,1551654141284,RECEIVED
Subscriber_001,topicA,topicA-551,172.172.1.2:1883,1551654141386,RECEIVED
Subscriber_001,topicA,topicA-552,172.172.1.2:1883,1551654141489,RECEIVED
Subscriber_001,topicA,topicA-553,172.172.1.2:1883,1551654141590,RECEIVED
Subscriber_001,topicA,topicA-554,172.172.1.2:1883,1551654141687,RECEIVED
Subscriber_001,topicA,topicA-555,172.172.1.2:1883,1551654141790,RECEIVED
Subscriber_001,topicA,topicA-556,172.172.1.2:1883,1551654141891,RECEIVED
Subscriber_001,topicA,topicA-557,172.172.1.2:1883,1551654141986,RECEIVED
Subscriber_001,topicA,topicA-558,172.172.1.2:1883,1551654142089,RECEIVED
Subscriber_001,topicA,topicA-559,172.172.1.2:1883,1551654142185,RECEIVED
Subscriber_001,topicA,topicA-560,172.172.1.2:1883,1551654142287,RECEIVED
Subscriber_001,topicA,topicA-561,172.172.1.2:1883,1551654142385,RECEIVED
Subscriber_001,topicA,topicA-562,172.172.1.2:1883,1551654142487,RECEIVED
Subscriber_001,topicA,topicA-563,172.172.1.2:1883,1551654142591,RECEIVED
Subscriber_001,topicA,topicA-564,172.172.1.2:1883,1551654142693,RECEIVED
Subscriber_001,topicA,topicA-565,172.172.1.2:1883,1551654142786,RECEIVED
Subscriber_001,topicA,topicA-566,172.172.1.2:1883,1551654142891,RECEIVED
Subscriber_001,topicA,topicA-567,172.172.1.2:1883,1551654142992,RECEIVED
Subscriber_001,topicA,topicA-568,172.172.1.2:1883,1551654143090,RECEIVED
Subscriber_001,topicA,topicA-569,172.172.1.2:1883,1551654143188,RECEIVED
Subscriber_001,topicA,topicA-570,172.172.1.2:1883,1551654143297,RECEIVED
Subscriber_001,topicA,topicA-571,172.172.1.2:1883,1551654143397,RECEIVED
Subscriber_001,topicA,topicA-572,172.172.1.2:1883,1551654143498,RECEIVED
Subscriber_001,topicA,topicA-573,172.172.1.2:1883,1551654143594,RECEIVED
Subscriber_001,topicA,topicA-574,172.172.1.2:1883,1551654143687,RECEIVED
Subscriber_001,topicA,topicA-575,172.172.1.2:1883,1551654143791,RECEIVED
Subscriber_001,topicA,topicA-576,172.172.1.2:1883,1551654143899,RECEIVED
Subscriber_001,topicA,topicA-577,172.172.1.2:1883,1551654143985,RECEIVED
Subscriber_001,topicA,topicA-578,172.172.1.2:1883,1551654144087,RECEIVED
Subscriber_001,topicA,topicA-579,172.172.1.2:1883,1551654144191,RECEIVED
Subscriber_001,topicA,topicA-580,172.172.1.2:1883,1551654144285,RECEIVED
Subscriber_001,topicA,topicA-581,172.172.1.2:1883,1551654144385,RECEIVED
Subscriber_001,topicA,topicA-582,172.172.1.2:1883,1551654144493,RECEIVED
Subscriber_001,topicA,topicA-583,172.172.1.2:1883,1551654144591,RECEIVED
Subscriber_001,topicA,topicA-584,172.172.1.2:1883,1551654144691,RECEIVED
Subscriber_001,topicA,topicA-585,172.172.1.2:1883,1551654144787,RECEIVED
Subscriber_001,topicA,topicA-586,172.172.1.2:1883,1551654144887,RECEIVED
Subscriber_001,topicA,topicA-587,172.172.1.2:1883,1551654144994,RECEIVED
Subscriber_001,topicA,topicA-588,172.172.1.2:1883,1551654145086,RECEIVED
Subscriber_001,topicA,topicA-589,172.172.1.2:1883,1551654145187,RECEIVED
Subscriber_001,topicA,topicA-590,172.172.1.2:1883,1551654145285,RECEIVED
Subscriber_001,topicA,topicA-591,172.172.1.2:1883,1551654145386,RECEIVED
Subscriber_001,topicA,topicA-592,172.172.1.2:1883,1551654145485,RECEIVED
Subscriber_001,topicA,topicA-593,172.172.1.2:1883,1551654145586,RECEIVED
Subscriber_001,topicA,topicA-594,172.172.1.2:1883,1551654145689,RECEIVED
Subscriber_001,topicA,topicA-595,172.172.1.2:1883,1551654145786,RECEIVED
Subscriber_001,topicA,topicA-596,172.172.1.2:1883,1551654145885,RECEIVED
Subscriber_001,topicA,topicA-597,172.172.1.2:1883,1551654145997,RECEIVED
Subscriber_001,topicA,topicA-598,172.172.1.2:1883,1551654146089,RECEIVED
Subscriber_001,topicA,topicA-599,172.172.1.2:1883,1551654146189,RECEIVED
Subscriber_001,topicA,topicA-600,172.172.1.2:1883,1551654146291,RECEIVED
Subscriber_001,topicA,topicA-601,172.172.1.2:1883,1551654146388,RECEIVED
Subscriber_001,topicA,topicA-602,172.172.1.2:1883,1551654146490,RECEIVED
Subscriber_001,topicA,topicA-603,172.172.1.2:1883,1551654146585,RECEIVED
Subscriber_001,topicA,topicA-604,172.172.1.2:1883,1551654146699,RECEIVED
Subscriber_001,topicA,topicA-605,172.172.1.2:1883,1551654146795,RECEIVED
Subscriber_001,topicA,topicA-606,172.172.1.2:1883,1551654146892,RECEIVED
Subscriber_001,topicA,topicA-607,172.172.1.2:1883,1551654146997,RECEIVED
Subscriber_001,topicA,topicA-608,172.172.1.2:1883,1551654147087,RECEIVED
Subscriber_001,topicA,topicA-609,172.172.1.2:1883,1551654147188,RECEIVED
Subscriber_001,topicA,topicA-610,172.172.1.2:1883,1551654147290,RECEIVED
Subscriber_001,topicA,topicA-611,172.172.1.2:1883,1551654147398,RECEIVED
Subscriber_001,topicA,topicA-612,172.172.1.2:1883,1551654147495,RECEIVED
Subscriber_001,topicA,topicA-613,172.172.1.2:1883,1551654147592,RECEIVED
Subscriber_001,topicA,topicA-614,172.172.1.2:1883,1551654147687,RECEIVED
Subscriber_001,topicA,topicA-615,172.172.1.2:1883,1551654147794,RECEIVED
Subscriber_001,topicA,topicA-616,172.172.1.2:1883,1551654147890,RECEIVED
Subscriber_001,topicA,topicA-617,172.172.1.2:1883,1551654147991,RECEIVED
Subscriber_001,topicA,topicA-618,172.172.1.2:1883,1551654148087,RECEIVED
Subscriber_001,topicA,topicA-619,172.172.1.2:1883,1551654148188,RECEIVED
Subscriber_001,topicA,topicA-620,172.172.1.2:1883,1551654148293,RECEIVED
Subscriber_001,topicA,topicA-621,172.172.1.2:1883,1551654148390,RECEIVED
Subscriber_001,topicA,topicA-622,172.172.1.2:1883,1551654148489,RECEIVED
Subscriber_001,topicA,topicA-623,172.172.1.2:1883,1551654148588,RECEIVED
Subscriber_001,topicA,topicA-624,172.172.1.2:1883,1551654148685,RECEIVED
Subscriber_001,topicA,topicA-625,172.172.1.2:1883,1551654148800,RECEIVED
Subscriber_001,topicA,topicA-626,172.172.1.2:1883,1551654148890,RECEIVED
Subscriber_001,topicA,topicA-627,172.172.1.2:1883,1551654149000,RECEIVED
Subscriber_001,topicA,topicA-628,172.172.1.2:1883,1551654149091,RECEIVED
Subscriber_001,topicA,topicA-629,172.172.1.2:1883,1551654149197,RECEIVED
Subscriber_001,topicA,topicA-630,172.172.1.2:1883,1551654149305,RECEIVED
Subscriber_001,topicA,topicA-631,172.172.1.2:1883,1551654149390,RECEIVED
Subscriber_001,topicA,topicA-632,172.172.1.2:1883,1551654149493,RECEIVED
Subscriber_001,topicA,topicA-633,172.172.1.2:1883,1551654149589,RECEIVED
Subscriber_001,topicA,topicA-634,172.172.1.2:1883,1551654149691,RECEIVED
Subscriber_001,topicA,topicA-635,172.172.1.2:1883,1551654149803,RECEIVED
Subscriber_001,topicA,topicA-636,172.172.1.2:1883,1551654149898,RECEIVED
Subscriber_001,topicA,topicA-637,172.172.1.2:1883,1551654149988,RECEIVED
Subscriber_001,topicA,topicA-638,172.172.1.2:1883,1551654150095,RECEIVED
Subscriber_001,topicA,topicA-639,172.172.1.2:1883,1551654150195,RECEIVED
Subscriber_001,topicA,topicA-640,172.172.1.2:1883,1551654150299,RECEIVED
Subscriber_001,topicA,topicA-641,172.172.1.2:1883,1551654150389,RECEIVED
Subscriber_001,topicA,topicA-642,172.172.1.2:1883,1551654150494,RECEIVED
Subscriber_001,topicA,topicA-643,172.172.1.2:1883,1551654150592,RECEIVED
Subscriber_001,topicA,topicA-644,172.172.1.2:1883,1551654150684,RECEIVED
Subscriber_001,topicA,topicA-645,172.172.1.2:1883,1551654150788,RECEIVED
Subscriber_001,topicA,topicA-646,172.172.1.2:1883,1551654150900,RECEIVED
Subscriber_001,topicA,topicA-647,172.172.1.2:1883,1551654150989,RECEIVED
Subscriber_001,topicA,topicA-648,172.172.1.2:1883,1551654151091,RECEIVED
Subscriber_001,topicA,topicA-649,172.172.1.2:1883,1551654151189,RECEIVED
Subscriber_001,topicA,topicA-650,172.172.1.2:1883,1551654151286,RECEIVED
Subscriber_001,topicA,topicA-651,172.172.1.2:1883,1551654151393,RECEIVED
Subscriber_001,topicA,topicA-652,172.172.1.2:1883,1551654151486,RECEIVED
Subscriber_001,topicA,topicA-653,172.172.1.2:1883,1551654151590,RECEIVED
Subscriber_001,topicA,topicA-654,172.172.1.2:1883,1551654151683,RECEIVED
Subscriber_001,topicA,topicA-655,172.172.1.2:1883,1551654151785,RECEIVED
Subscriber_001,topicA,topicA-656,172.172.1.2:1883,1551654151896,RECEIVED
