timestamp,event,migrationId
1551645913664,INITIALIZED,2e8b81ac-7627-49d8-8a39-b1dbc1d69421
1551645913666,topicA-INITIALIZED,2e8b81ac-7627-49d8-8a39-b1dbc1d69421
1551645914416,topicA-FINISHED,2e8b81ac-7627-49d8-8a39-b1dbc1d69421
1551645914422,FINISHED,2e8b81ac-7627-49d8-8a39-b1dbc1d69421
