clientId,topic,guid,broker,timestamp,type
Publisher_002,topicA,topicA-1,172.172.1.2:1883,1551645476237,PRODUCED
Publisher_002,topicA,topicA-2,172.172.1.2:1883,1551645476480,PRODUCED
Publisher_002,topicA,topicA-3,172.172.1.2:1883,1551645476485,PRODUCED
Publisher_002,topicA,topicA-4,172.172.1.2:1883,1551645476489,PRODUCED
Publisher_002,topicA,topicA-5,172.172.1.2:1883,1551645476494,PRODUCED
Publisher_002,topicA,topicA-6,172.172.1.2:1883,1551645476585,PRODUCED
Publisher_002,topicA,topicA-7,172.172.1.2:1883,1551645476685,PRODUCED
Publisher_002,topicA,topicA-8,172.172.1.2:1883,1551645476785,PRODUCED
Publisher_002,topicA,topicA-9,172.172.1.2:1883,1551645476885,PRODUCED
Publisher_002,topicA,topicA-10,172.172.1.2:1883,1551645476985,PRODUCED
Publisher_002,topicA,topicA-11,172.172.1.2:1883,1551645477085,PRODUCED
Publisher_002,topicA,topicA-12,172.172.1.2:1883,1551645477185,PRODUCED
Publisher_002,topicA,topicA-13,172.172.1.2:1883,1551645477285,PRODUCED
Publisher_002,topicA,topicA-14,172.172.1.2:1883,1551645477385,PRODUCED
Publisher_002,topicA,topicA-15,172.172.1.2:1883,1551645477485,PRODUCED
Publisher_002,topicA,topicA-16,172.172.1.2:1883,1551645477585,PRODUCED
Publisher_002,topicA,topicA-17,172.172.1.2:1883,1551645477685,PRODUCED
Publisher_002,topicA,topicA-18,172.172.1.2:1883,1551645477786,PRODUCED
Publisher_002,topicA,topicA-19,172.172.1.2:1883,1551645477885,PRODUCED
Publisher_002,topicA,topicA-20,172.172.1.2:1883,1551645477985,PRODUCED
Publisher_002,topicA,topicA-21,172.172.1.2:1883,1551645478085,PRODUCED
Publisher_002,topicA,topicA-22,172.172.1.2:1883,1551645478188,PRODUCED
Publisher_002,topicA,topicA-23,172.172.1.2:1883,1551645478285,PRODUCED
Publisher_002,topicA,topicA-24,172.172.1.2:1883,1551645478385,PRODUCED
Publisher_002,topicA,topicA-25,172.172.1.2:1883,1551645478485,PRODUCED
Publisher_002,topicA,topicA-26,172.172.1.2:1883,1551645478586,PRODUCED
Publisher_002,topicA,topicA-27,172.172.1.2:1883,1551645478685,PRODUCED
Publisher_002,topicA,topicA-28,172.172.1.2:1883,1551645478786,PRODUCED
Publisher_002,topicA,topicA-29,172.172.1.2:1883,1551645478885,PRODUCED
Publisher_002,topicA,topicA-30,172.172.1.2:1883,1551645478985,PRODUCED
Publisher_002,topicA,topicA-31,172.172.1.2:1883,1551645479085,PRODUCED
Publisher_002,topicA,topicA-32,172.172.1.2:1883,1551645479185,PRODUCED
Publisher_002,topicA,topicA-33,172.172.1.2:1883,1551645479285,PRODUCED
Publisher_002,topicA,topicA-34,172.172.1.2:1883,1551645479389,PRODUCED
Publisher_002,topicA,topicA-35,172.172.1.2:1883,1551645479485,PRODUCED
Publisher_002,topicA,topicA-36,172.172.1.2:1883,1551645479589,PRODUCED
Publisher_002,topicA,topicA-37,172.172.1.2:1883,1551645479684,PRODUCED
Publisher_002,topicA,topicA-38,172.172.1.2:1883,1551645479785,PRODUCED
Publisher_002,topicA,topicA-39,172.172.1.2:1883,1551645479884,PRODUCED
Publisher_002,topicA,topicA-40,172.172.1.2:1883,1551645479984,PRODUCED
Publisher_002,topicA,topicA-41,172.172.1.2:1883,1551645480085,PRODUCED
Publisher_002,topicA,topicA-42,172.172.1.2:1883,1551645480185,PRODUCED
Publisher_002,topicA,topicA-43,172.172.1.2:1883,1551645480285,PRODUCED
Publisher_002,topicA,topicA-44,172.172.1.2:1883,1551645480385,PRODUCED
Publisher_002,topicA,topicA-45,172.172.1.2:1883,1551645480487,PRODUCED
Publisher_002,topicA,topicA-46,172.172.1.2:1883,1551645480585,PRODUCED
Publisher_002,topicA,topicA-47,172.172.1.2:1883,1551645480686,PRODUCED
Publisher_002,topicA,topicA-48,172.172.1.2:1883,1551645480785,PRODUCED
Publisher_002,topicA,topicA-49,172.172.1.2:1883,1551645480885,PRODUCED
Publisher_002,topicA,topicA-50,172.172.1.2:1883,1551645480985,PRODUCED
Publisher_002,topicA,topicA-51,172.172.1.2:1883,1551645481090,PRODUCED
Publisher_002,topicA,topicA-52,172.172.1.2:1883,1551645481186,PRODUCED
Publisher_002,topicA,topicA-53,172.172.1.2:1883,1551645481284,PRODUCED
Publisher_002,topicA,topicA-54,172.172.1.2:1883,1551645481386,PRODUCED
Publisher_002,topicA,topicA-55,172.172.1.2:1883,1551645481485,PRODUCED
Publisher_002,topicA,topicA-56,172.172.1.2:1883,1551645481589,PRODUCED
Publisher_002,topicA,topicA-57,172.172.1.2:1883,1551645481685,PRODUCED
Publisher_002,topicA,topicA-58,172.172.1.2:1883,1551645481784,PRODUCED
Publisher_002,topicA,topicA-59,172.172.1.2:1883,1551645481886,PRODUCED
Publisher_002,topicA,topicA-60,172.172.1.2:1883,1551645481991,PRODUCED
Publisher_002,topicA,topicA-61,172.172.1.2:1883,1551645482087,PRODUCED
Publisher_002,topicA,topicA-62,172.172.1.2:1883,1551645482186,PRODUCED
Publisher_002,topicA,topicA-63,172.172.1.2:1883,1551645482291,PRODUCED
Publisher_002,topicA,topicA-64,172.172.1.2:1883,1551645482385,PRODUCED
Publisher_002,topicA,topicA-65,172.172.1.2:1883,1551645482488,PRODUCED
Publisher_002,topicA,topicA-66,172.172.1.2:1883,1551645482586,PRODUCED
Publisher_002,topicA,topicA-67,172.172.1.2:1883,1551645482685,PRODUCED
Publisher_002,topicA,topicA-68,172.172.1.2:1883,1551645482785,PRODUCED
Publisher_002,topicA,topicA-69,172.172.1.2:1883,1551645482885,PRODUCED
Publisher_002,topicA,topicA-70,172.172.1.2:1883,1551645482985,PRODUCED
Publisher_002,topicA,topicA-71,172.172.1.2:1883,1551645483085,PRODUCED
Publisher_002,topicA,topicA-72,172.172.1.2:1883,1551645483185,PRODUCED
Publisher_002,topicA,topicA-73,172.172.1.2:1883,1551645483286,PRODUCED
Publisher_002,topicA,topicA-74,172.172.1.2:1883,1551645483386,PRODUCED
Publisher_002,topicA,topicA-75,172.172.1.2:1883,1551645483485,PRODUCED
Publisher_002,topicA,topicA-76,172.172.1.2:1883,1551645483585,PRODUCED
Publisher_002,topicA,topicA-77,172.172.1.2:1883,1551645483686,PRODUCED
Publisher_002,topicA,topicA-78,172.172.1.2:1883,1551645483785,PRODUCED
Publisher_002,topicA,topicA-79,172.172.1.2:1883,1551645483885,PRODUCED
Publisher_002,topicA,topicA-80,172.172.1.2:1883,1551645483991,PRODUCED
Publisher_002,topicA,topicA-81,172.172.1.2:1883,1551645484088,PRODUCED
Publisher_002,topicA,topicA-82,172.172.1.2:1883,1551645484185,PRODUCED
Publisher_002,topicA,topicA-83,172.172.1.2:1883,1551645484285,PRODUCED
Publisher_002,topicA,topicA-84,172.172.1.2:1883,1551645484385,PRODUCED
Publisher_002,topicA,topicA-85,172.172.1.2:1883,1551645484485,PRODUCED
Publisher_002,topicA,topicA-86,172.172.1.2:1883,1551645484585,PRODUCED
Publisher_002,topicA,topicA-87,172.172.1.2:1883,1551645484685,PRODUCED
Publisher_002,topicA,topicA-88,172.172.1.2:1883,1551645484784,PRODUCED
Publisher_002,topicA,topicA-89,172.172.1.2:1883,1551645484884,PRODUCED
Publisher_002,topicA,topicA-90,172.172.1.2:1883,1551645484989,PRODUCED
Publisher_002,topicA,topicA-91,172.172.1.2:1883,1551645485091,PRODUCED
Publisher_002,topicA,topicA-92,172.172.1.2:1883,1551645485185,PRODUCED
Publisher_002,topicA,topicA-93,172.172.1.2:1883,1551645485286,PRODUCED
Publisher_002,topicA,topicA-94,172.172.1.2:1883,1551645485386,PRODUCED
Publisher_002,topicA,topicA-95,172.172.1.2:1883,1551645485486,PRODUCED
Publisher_002,topicA,topicA-96,172.172.1.2:1883,1551645485586,PRODUCED
Publisher_002,topicA,topicA-97,172.172.1.2:1883,1551645485688,PRODUCED
Publisher_002,topicA,topicA-98,172.172.1.2:1883,1551645485786,PRODUCED
Publisher_002,topicA,topicA-99,172.172.1.2:1883,1551645485886,PRODUCED
Publisher_002,topicA,topicA-100,172.172.1.2:1883,1551645485985,PRODUCED
Publisher_002,topicA,topicA-101,172.172.1.2:1883,1551645486086,PRODUCED
Publisher_002,topicA,topicA-102,172.172.1.2:1883,1551645486192,PRODUCED
Publisher_002,topicA,topicA-103,172.172.1.2:1883,1551645486287,PRODUCED
Publisher_002,topicA,topicA-104,172.172.1.2:1883,1551645486384,PRODUCED
Publisher_002,topicA,topicA-105,172.172.1.2:1883,1551645486488,PRODUCED
Publisher_002,topicA,topicA-106,172.172.1.2:1883,1551645486587,PRODUCED
Publisher_002,topicA,topicA-107,172.172.1.2:1883,1551645486685,PRODUCED
Publisher_002,topicA,topicA-108,172.172.1.2:1883,1551645486786,PRODUCED
Publisher_002,topicA,topicA-109,172.172.1.2:1883,1551645486885,PRODUCED
Publisher_002,topicA,topicA-110,172.172.1.2:1883,1551645486985,PRODUCED
Publisher_002,topicA,topicA-111,172.172.1.2:1883,1551645487092,PRODUCED
Publisher_002,topicA,topicA-112,172.172.1.2:1883,1551645487186,PRODUCED
Publisher_002,topicA,topicA-113,172.172.1.2:1883,1551645487285,PRODUCED
Publisher_002,topicA,topicA-114,172.172.1.2:1883,1551645487390,PRODUCED
Publisher_002,topicA,topicA-115,172.172.1.2:1883,1551645487486,PRODUCED
Publisher_002,topicA,topicA-116,172.172.1.2:1883,1551645487586,PRODUCED
Publisher_002,topicA,topicA-117,172.172.1.2:1883,1551645487685,PRODUCED
Publisher_002,topicA,topicA-118,172.172.1.2:1883,1551645487785,PRODUCED
Publisher_002,topicA,topicA-119,172.172.1.2:1883,1551645487885,PRODUCED
Publisher_002,topicA,topicA-120,172.172.1.2:1883,1551645487985,PRODUCED
Publisher_002,topicA,topicA-121,172.172.1.2:1883,1551645488085,PRODUCED
Publisher_002,topicA,topicA-122,172.172.1.2:1883,1551645488191,PRODUCED
Publisher_002,topicA,topicA-123,172.172.1.2:1883,1551645488287,PRODUCED
Publisher_002,topicA,topicA-124,172.172.1.2:1883,1551645488386,PRODUCED
Publisher_002,topicA,topicA-125,172.172.1.2:1883,1551645488485,PRODUCED
Publisher_002,topicA,topicA-126,172.172.1.2:1883,1551645488585,PRODUCED
Publisher_002,topicA,topicA-127,172.172.1.2:1883,1551645488688,PRODUCED
Publisher_002,topicA,topicA-128,172.172.1.2:1883,1551645488786,PRODUCED
Publisher_002,topicA,topicA-129,172.172.1.2:1883,1551645488886,PRODUCED
Publisher_002,topicA,topicA-130,172.172.1.2:1883,1551645488985,PRODUCED
Publisher_002,topicA,topicA-131,172.172.1.2:1883,1551645489085,PRODUCED
Publisher_002,topicA,topicA-132,172.172.1.2:1883,1551645489185,PRODUCED
Publisher_002,topicA,topicA-133,172.172.1.2:1883,1551645489288,PRODUCED
Publisher_002,topicA,topicA-134,172.172.1.2:1883,1551645489390,PRODUCED
Publisher_002,topicA,topicA-135,172.172.1.2:1883,1551645489492,PRODUCED
Publisher_002,topicA,topicA-136,172.172.1.2:1883,1551645489585,PRODUCED
Publisher_002,topicA,topicA-137,172.172.1.2:1883,1551645489685,PRODUCED
Publisher_002,topicA,topicA-138,172.172.1.2:1883,1551645489785,PRODUCED
Publisher_002,topicA,topicA-139,172.172.1.2:1883,1551645489885,PRODUCED
Publisher_002,topicA,topicA-140,172.172.1.2:1883,1551645489991,PRODUCED
Publisher_002,topicA,topicA-141,172.172.1.2:1883,1551645490085,PRODUCED
Publisher_002,topicA,topicA-142,172.172.1.2:1883,1551645490187,PRODUCED
Publisher_002,topicA,topicA-143,172.172.1.2:1883,1551645490287,PRODUCED
Publisher_002,topicA,topicA-144,172.172.1.2:1883,1551645490385,PRODUCED
Publisher_002,topicA,topicA-145,172.172.1.2:1883,1551645490486,PRODUCED
Publisher_002,topicA,topicA-146,172.172.1.2:1883,1551645490585,PRODUCED
Publisher_002,topicA,topicA-147,172.172.1.2:1883,1551645490687,PRODUCED
Publisher_002,topicA,topicA-148,172.172.1.2:1883,1551645490786,PRODUCED
Publisher_002,topicA,topicA-149,172.172.1.2:1883,1551645490892,PRODUCED
Publisher_002,topicA,topicA-150,172.172.1.2:1883,1551645490991,PRODUCED
Publisher_002,topicA,topicA-151,172.172.1.2:1883,1551645491085,PRODUCED
Publisher_002,topicA,topicA-152,172.172.1.2:1883,1551645491185,PRODUCED
Publisher_002,topicA,topicA-153,172.172.1.2:1883,1551645491287,PRODUCED
Publisher_002,topicA,topicA-154,172.172.1.2:1883,1551645491385,PRODUCED
Publisher_002,topicA,topicA-155,172.172.1.2:1883,1551645491485,PRODUCED
Publisher_002,topicA,topicA-156,172.172.1.2:1883,1551645491588,PRODUCED
Publisher_002,topicA,topicA-157,172.172.1.2:1883,1551645491685,PRODUCED
Publisher_002,topicA,topicA-158,172.172.1.2:1883,1551645491785,PRODUCED
Publisher_002,topicA,topicA-159,172.172.1.2:1883,1551645491891,PRODUCED
Publisher_002,topicA,topicA-160,172.172.1.2:1883,1551645491985,PRODUCED
Publisher_002,topicA,topicA-161,172.172.1.2:1883,1551645492087,PRODUCED
Publisher_002,topicA,topicA-162,172.172.1.2:1883,1551645492185,PRODUCED
Publisher_002,topicA,topicA-163,172.172.1.2:1883,1551645492285,PRODUCED
Publisher_002,topicA,topicA-164,172.172.1.2:1883,1551645492388,PRODUCED
Publisher_002,topicA,topicA-165,172.172.1.2:1883,1551645492485,PRODUCED
Publisher_002,topicA,topicA-166,172.172.1.2:1883,1551645492585,PRODUCED
Publisher_002,topicA,topicA-167,172.172.1.2:1883,1551645492685,PRODUCED
Publisher_002,topicA,topicA-168,172.172.1.2:1883,1551645492785,PRODUCED
Publisher_002,topicA,topicA-169,172.172.1.2:1883,1551645492885,PRODUCED
Publisher_002,topicA,topicA-170,172.172.1.2:1883,1551645492985,PRODUCED
Publisher_002,topicA,topicA-171,172.172.1.2:1883,1551645493085,PRODUCED
Publisher_002,topicA,topicA-172,172.172.1.2:1883,1551645493186,PRODUCED
Publisher_002,topicA,topicA-173,172.172.1.2:1883,1551645493291,PRODUCED
Publisher_002,topicA,topicA-174,172.172.1.2:1883,1551645493385,PRODUCED
Publisher_002,topicA,topicA-175,172.172.1.2:1883,1551645493490,PRODUCED
Publisher_002,topicA,topicA-176,172.172.1.2:1883,1551645493585,PRODUCED
Publisher_002,topicA,topicA-177,172.172.1.2:1883,1551645493691,PRODUCED
Publisher_002,topicA,topicA-178,172.172.1.2:1883,1551645493785,PRODUCED
Publisher_002,topicA,topicA-179,172.172.1.2:1883,1551645493886,PRODUCED
Publisher_002,topicA,topicA-180,172.172.1.2:1883,1551645493990,PRODUCED
Publisher_002,topicA,topicA-181,172.172.1.2:1883,1551645494085,PRODUCED
Publisher_002,topicA,topicA-182,172.172.1.2:1883,1551645494185,PRODUCED
Publisher_002,topicA,topicA-183,172.172.1.2:1883,1551645494285,PRODUCED
Publisher_002,topicA,topicA-184,172.172.1.2:1883,1551645494385,PRODUCED
Publisher_002,topicA,topicA-185,172.172.1.2:1883,1551645494485,PRODUCED
Publisher_002,topicA,topicA-186,172.172.1.2:1883,1551645494592,PRODUCED
Publisher_002,topicA,topicA-187,172.172.1.2:1883,1551645494685,PRODUCED
Publisher_002,topicA,topicA-188,172.172.1.2:1883,1551645494786,PRODUCED
Publisher_002,topicA,topicA-189,172.172.1.2:1883,1551645494892,PRODUCED
Publisher_002,topicA,topicA-190,172.172.1.2:1883,1551645494986,PRODUCED
Publisher_002,topicA,topicA-191,172.172.1.2:1883,1551645495086,PRODUCED
Publisher_002,topicA,topicA-192,172.172.1.2:1883,1551645495186,PRODUCED
Publisher_002,topicA,topicA-193,172.172.1.2:1883,1551645495285,PRODUCED
Publisher_002,topicA,topicA-194,172.172.1.2:1883,1551645495386,PRODUCED
Publisher_002,topicA,topicA-195,172.172.1.2:1883,1551645495485,PRODUCED
Publisher_002,topicA,topicA-196,172.172.1.2:1883,1551645495585,PRODUCED
Publisher_002,topicA,topicA-197,172.172.1.2:1883,1551645495685,PRODUCED
Publisher_002,topicA,topicA-198,172.172.1.2:1883,1551645495785,PRODUCED
Publisher_002,topicA,topicA-199,172.172.1.2:1883,1551645495885,PRODUCED
Publisher_002,topicA,topicA-200,172.172.1.2:1883,1551645495984,PRODUCED
Publisher_002,topicA,topicA-201,172.172.1.2:1883,1551645496085,PRODUCED
Publisher_002,topicA,topicA-202,172.172.1.2:1883,1551645496185,PRODUCED
Publisher_002,topicA,topicA-203,172.172.1.2:1883,1551645496285,PRODUCED
Publisher_002,topicA,topicA-204,172.172.1.2:1883,1551645496387,PRODUCED
Publisher_002,topicA,topicA-205,172.172.1.2:1883,1551645496485,PRODUCED
Publisher_002,topicA,topicA-206,172.172.1.2:1883,1551645496586,PRODUCED
Publisher_002,topicA,topicA-207,172.172.1.2:1883,1551645496685,PRODUCED
Publisher_002,topicA,topicA-208,172.172.1.2:1883,1551645496786,PRODUCED
Publisher_002,topicA,topicA-209,172.172.1.2:1883,1551645496885,PRODUCED
Publisher_002,topicA,topicA-210,172.172.1.2:1883,1551645496985,PRODUCED
Publisher_002,topicA,topicA-211,172.172.1.2:1883,1551645497091,PRODUCED
Publisher_002,topicA,topicA-212,172.172.1.2:1883,1551645497186,PRODUCED
Publisher_002,topicA,topicA-213,172.172.1.2:1883,1551645497285,PRODUCED
Publisher_002,topicA,topicA-214,172.172.1.2:1883,1551645497385,PRODUCED
Publisher_002,topicA,topicA-215,172.172.1.2:1883,1551645497485,PRODUCED
Publisher_002,topicA,topicA-216,172.172.1.2:1883,1551645497585,PRODUCED
Publisher_002,topicA,topicA-217,172.172.1.2:1883,1551645497685,PRODUCED
Publisher_002,topicA,topicA-218,172.172.1.2:1883,1551645497789,PRODUCED
Publisher_002,topicA,topicA-219,172.172.1.2:1883,1551645497885,PRODUCED
Publisher_002,topicA,topicA-220,172.172.1.2:1883,1551645497988,PRODUCED
Publisher_002,topicA,topicA-221,172.172.1.2:1883,1551645498085,PRODUCED
Publisher_002,topicA,topicA-222,172.172.1.2:1883,1551645498188,PRODUCED
Publisher_002,topicA,topicA-223,172.172.1.2:1883,1551645498285,PRODUCED
Publisher_002,topicA,topicA-224,172.172.1.2:1883,1551645498391,PRODUCED
Publisher_002,topicA,topicA-225,172.172.1.2:1883,1551645498485,PRODUCED
Publisher_002,topicA,topicA-226,172.172.1.2:1883,1551645498585,PRODUCED
Publisher_002,topicA,topicA-227,172.172.1.2:1883,1551645498685,PRODUCED
Publisher_002,topicA,topicA-228,172.172.1.2:1883,1551645498785,PRODUCED
Publisher_002,topicA,topicA-229,172.172.1.2:1883,1551645498886,PRODUCED
Publisher_002,topicA,topicA-230,172.172.1.2:1883,1551645498984,PRODUCED
Publisher_002,topicA,topicA-231,172.172.1.2:1883,1551645499084,PRODUCED
Publisher_002,topicA,topicA-232,172.172.1.2:1883,1551645499186,PRODUCED
Publisher_002,topicA,topicA-233,172.172.1.2:1883,1551645499288,PRODUCED
Publisher_002,topicA,topicA-234,172.172.1.2:1883,1551645499386,PRODUCED
Publisher_002,topicA,topicA-235,172.172.1.2:1883,1551645499486,PRODUCED
Publisher_002,topicA,topicA-236,172.172.1.2:1883,1551645499585,PRODUCED
Publisher_002,topicA,topicA-237,172.172.1.2:1883,1551645499684,PRODUCED
Publisher_002,topicA,topicA-238,172.172.1.2:1883,1551645499785,PRODUCED
Publisher_002,topicA,topicA-239,172.172.1.2:1883,1551645499885,PRODUCED
Publisher_002,topicA,topicA-240,172.172.1.2:1883,1551645499985,PRODUCED
Publisher_002,topicA,topicA-241,172.172.1.2:1883,1551645500085,PRODUCED
Publisher_002,topicA,topicA-242,172.172.1.2:1883,1551645500185,PRODUCED
Publisher_002,topicA,topicA-243,172.172.1.2:1883,1551645500285,PRODUCED
Publisher_002,topicA,topicA-244,172.172.1.2:1883,1551645500385,PRODUCED
Publisher_002,topicA,topicA-245,172.172.1.2:1883,1551645500486,PRODUCED
Publisher_002,topicA,topicA-246,172.172.1.2:1883,1551645500585,PRODUCED
Publisher_002,topicA,topicA-247,172.172.1.2:1883,1551645500684,PRODUCED
Publisher_002,topicA,topicA-248,172.172.1.2:1883,1551645500785,PRODUCED
Publisher_002,topicA,topicA-249,172.172.1.2:1883,1551645500885,PRODUCED
Publisher_002,topicA,topicA-250,172.172.1.2:1883,1551645500985,PRODUCED
Publisher_002,topicA,topicA-251,172.172.1.2:1883,1551645501085,PRODUCED
Publisher_002,topicA,topicA-252,172.172.1.2:1883,1551645501185,PRODUCED
Publisher_002,topicA,topicA-253,172.172.1.2:1883,1551645501286,PRODUCED
Publisher_002,topicA,topicA-254,172.172.1.2:1883,1551645501390,PRODUCED
Publisher_002,topicA,topicA-255,172.172.1.2:1883,1551645501486,PRODUCED
Publisher_002,topicA,topicA-256,172.172.1.2:1883,1551645501585,PRODUCED
Publisher_002,topicA,topicA-257,172.172.1.2:1883,1551645501685,PRODUCED
Publisher_002,topicA,topicA-258,172.172.1.2:1883,1551645501785,PRODUCED
Publisher_002,topicA,topicA-259,172.172.1.2:1883,1551645501886,PRODUCED
Publisher_002,topicA,topicA-260,172.172.1.2:1883,1551645501986,PRODUCED
Publisher_002,topicA,topicA-261,172.172.1.2:1883,1551645502085,PRODUCED
Publisher_002,topicA,topicA-262,172.172.1.2:1883,1551645502185,PRODUCED
Publisher_002,topicA,topicA-263,172.172.1.2:1883,1551645502284,PRODUCED
Publisher_002,topicA,topicA-264,172.172.1.2:1883,1551645502385,PRODUCED
Publisher_002,topicA,topicA-265,172.172.1.2:1883,1551645502484,PRODUCED
Publisher_002,topicA,topicA-266,172.172.1.2:1883,1551645502585,PRODUCED
Publisher_002,topicA,topicA-267,172.172.1.2:1883,1551645502685,PRODUCED
Publisher_002,topicA,topicA-268,172.172.1.2:1883,1551645502785,PRODUCED
Publisher_002,topicA,topicA-269,172.172.1.2:1883,1551645502885,PRODUCED
Publisher_002,topicA,topicA-270,172.172.1.2:1883,1551645502985,PRODUCED
Publisher_002,topicA,topicA-271,172.172.1.2:1883,1551645503085,PRODUCED
Publisher_002,topicA,topicA-272,172.172.1.2:1883,1551645503185,PRODUCED
Publisher_002,topicA,topicA-273,172.172.1.2:1883,1551645503285,PRODUCED
Publisher_002,topicA,topicA-274,172.172.1.2:1883,1551645503385,PRODUCED
Publisher_002,topicA,topicA-275,172.172.1.2:1883,1551645503485,PRODUCED
Publisher_002,topicA,topicA-276,172.172.1.2:1883,1551645503585,PRODUCED
Publisher_002,topicA,topicA-277,172.172.1.2:1883,1551645503685,PRODUCED
Publisher_002,topicA,topicA-278,172.172.1.2:1883,1551645503785,PRODUCED
Publisher_002,topicA,topicA-279,172.172.1.2:1883,1551645503885,PRODUCED
Publisher_002,topicA,topicA-280,172.172.1.2:1883,1551645503987,PRODUCED
Publisher_002,topicA,topicA-281,172.172.1.2:1883,1551645504085,PRODUCED
Publisher_002,topicA,topicA-282,172.172.1.2:1883,1551645504185,PRODUCED
Publisher_002,topicA,topicA-283,172.172.1.2:1883,1551645504285,PRODUCED
Publisher_002,topicA,topicA-284,172.172.1.2:1883,1551645504385,PRODUCED
Publisher_002,topicA,topicA-285,172.172.1.2:1883,1551645504486,PRODUCED
Publisher_002,topicA,topicA-286,172.172.1.2:1883,1551645504586,PRODUCED
Publisher_002,topicA,topicA-287,172.172.1.2:1883,1551645504688,PRODUCED
Publisher_002,topicA,topicA-288,172.172.1.2:1883,1551645504785,PRODUCED
Publisher_002,topicA,topicA-289,172.172.1.2:1883,1551645504887,PRODUCED
Publisher_002,topicA,topicA-290,172.172.1.2:1883,1551645504986,PRODUCED
Publisher_002,topicA,topicA-291,172.172.1.2:1883,1551645505085,PRODUCED
Publisher_002,topicA,topicA-292,172.172.1.2:1883,1551645505185,PRODUCED
Publisher_002,topicA,topicA-293,172.172.1.2:1883,1551645505285,PRODUCED
Publisher_002,topicA,topicA-294,172.172.1.2:1883,1551645505385,PRODUCED
Publisher_002,topicA,topicA-295,172.172.1.2:1883,1551645505486,PRODUCED
Publisher_002,topicA,topicA-296,172.172.1.2:1883,1551645505585,PRODUCED
Publisher_002,topicA,topicA-297,172.172.1.2:1883,1551645505685,PRODUCED
Publisher_002,topicA,topicA-298,172.172.1.2:1883,1551645505785,PRODUCED
Publisher_002,topicA,topicA-299,172.172.1.2:1883,1551645505885,PRODUCED
Publisher_002,topicA,topicA-300,172.172.1.2:1883,1551645505985,PRODUCED
Publisher_002,topicA,topicA-301,172.172.1.2:1883,1551645506085,PRODUCED
Publisher_002,topicA,topicA-302,172.172.1.2:1883,1551645506186,PRODUCED
Publisher_002,topicA,topicA-303,172.172.1.2:1883,1551645506285,PRODUCED
Publisher_002,topicA,topicA-304,172.172.1.2:1883,1551645506386,PRODUCED
Publisher_002,topicA,topicA-305,172.172.1.2:1883,1551645506484,PRODUCED
Publisher_002,topicA,topicA-306,172.172.1.2:1883,1551645506586,PRODUCED
Publisher_002,topicA,topicA-307,172.172.1.2:1883,1551645506685,PRODUCED
Publisher_002,topicA,topicA-308,172.172.1.2:1883,1551645506790,PRODUCED
Publisher_002,topicA,topicA-309,172.172.1.2:1883,1551645506885,PRODUCED
Publisher_002,topicA,topicA-310,172.172.1.2:1883,1551645506985,PRODUCED
Publisher_002,topicA,topicA-311,172.172.1.2:1883,1551645507087,PRODUCED
Publisher_002,topicA,topicA-312,172.172.1.2:1883,1551645507190,PRODUCED
Publisher_002,topicA,topicA-313,172.172.1.2:1883,1551645507285,PRODUCED
Publisher_002,topicA,topicA-314,172.172.1.2:1883,1551645507385,PRODUCED
Publisher_002,topicA,topicA-315,172.172.1.2:1883,1551645507485,PRODUCED
Publisher_002,topicA,topicA-316,172.172.1.2:1883,1551645507585,PRODUCED
Publisher_002,topicA,topicA-317,172.172.1.2:1883,1551645507688,PRODUCED
Publisher_002,topicA,topicA-318,172.172.1.2:1883,1551645507785,PRODUCED
Publisher_002,topicA,topicA-319,172.172.1.2:1883,1551645507886,PRODUCED
Publisher_002,topicA,topicA-320,172.172.1.2:1883,1551645507985,PRODUCED
Publisher_002,topicA,topicA-321,172.172.1.2:1883,1551645508085,PRODUCED
Publisher_002,topicA,topicA-322,172.172.1.2:1883,1551645508188,PRODUCED
Publisher_002,topicA,topicA-323,172.172.1.2:1883,1551645508287,PRODUCED
Publisher_002,topicA,topicA-324,172.172.1.2:1883,1551645508385,PRODUCED
Publisher_002,topicA,topicA-325,172.172.1.2:1883,1551645508492,PRODUCED
Publisher_002,topicA,topicA-326,172.172.1.2:1883,1551645508586,PRODUCED
Publisher_002,topicA,topicA-327,172.172.1.2:1883,1551645508687,PRODUCED
Publisher_002,topicA,topicA-328,172.172.1.2:1883,1551645508785,PRODUCED
Publisher_002,topicA,topicA-329,172.172.1.2:1883,1551645508892,PRODUCED
Publisher_002,topicA,topicA-330,172.172.1.2:1883,1551645508985,PRODUCED
Publisher_002,topicA,topicA-331,172.172.1.2:1883,1551645509085,PRODUCED
Publisher_002,topicA,topicA-332,172.172.1.2:1883,1551645509185,PRODUCED
Publisher_002,topicA,topicA-333,172.172.1.2:1883,1551645509286,PRODUCED
Publisher_002,topicA,topicA-334,172.172.1.2:1883,1551645509386,PRODUCED
Publisher_002,topicA,topicA-335,172.172.1.2:1883,1551645509486,PRODUCED
Publisher_002,topicA,topicA-336,172.172.1.2:1883,1551645509585,PRODUCED
Publisher_002,topicA,topicA-337,172.172.1.2:1883,1551645509685,PRODUCED
Publisher_002,topicA,topicA-338,172.172.1.2:1883,1551645509786,PRODUCED
Publisher_002,topicA,topicA-339,172.172.1.2:1883,1551645509889,PRODUCED
Publisher_002,topicA,topicA-340,172.172.1.2:1883,1551645509986,PRODUCED
Publisher_002,topicA,topicA-341,172.172.1.2:1883,1551645510087,PRODUCED
Publisher_002,topicA,topicA-342,172.172.1.2:1883,1551645510185,PRODUCED
Publisher_002,topicA,topicA-343,172.172.1.2:1883,1551645510287,PRODUCED
Publisher_002,topicA,topicA-344,172.172.1.2:1883,1551645510385,PRODUCED
Publisher_002,topicA,topicA-345,172.172.1.2:1883,1551645510486,PRODUCED
Publisher_002,topicA,topicA-346,172.172.1.2:1883,1551645510588,PRODUCED
Publisher_002,topicA,topicA-347,172.172.1.2:1883,1551645510685,PRODUCED
Publisher_002,topicA,topicA-348,172.172.1.2:1883,1551645510786,PRODUCED
Publisher_002,topicA,topicA-349,172.172.1.2:1883,1551645510885,PRODUCED
Publisher_002,topicA,topicA-350,172.172.1.2:1883,1551645510985,PRODUCED
Publisher_002,topicA,topicA-351,172.172.1.2:1883,1551645511086,PRODUCED
Publisher_002,topicA,topicA-352,172.172.1.2:1883,1551645511188,PRODUCED
Publisher_002,topicA,topicA-353,172.172.1.2:1883,1551645511285,PRODUCED
Publisher_002,topicA,topicA-354,172.172.1.2:1883,1551645511385,PRODUCED
Publisher_002,topicA,topicA-355,172.172.1.2:1883,1551645511486,PRODUCED
Publisher_002,topicA,topicA-356,172.172.1.2:1883,1551645511585,PRODUCED
Publisher_002,topicA,topicA-357,172.172.1.2:1883,1551645511688,PRODUCED
Publisher_002,topicA,topicA-358,172.172.1.2:1883,1551645511785,PRODUCED
Publisher_002,topicA,topicA-359,172.172.1.2:1883,1551645511886,PRODUCED
Publisher_002,topicA,topicA-360,172.172.1.2:1883,1551645511986,PRODUCED
Publisher_002,topicA,topicA-361,172.172.1.2:1883,1551645512085,PRODUCED
Publisher_002,topicA,topicA-362,172.172.1.2:1883,1551645512184,PRODUCED
Publisher_002,topicA,topicA-363,172.172.1.2:1883,1551645512291,PRODUCED
Publisher_002,topicA,topicA-364,172.172.1.2:1883,1551645512384,PRODUCED
Publisher_002,topicA,topicA-365,172.172.1.2:1883,1551645512487,PRODUCED
Publisher_002,topicA,topicA-366,172.172.1.2:1883,1551645512586,PRODUCED
Publisher_002,topicA,topicA-367,172.172.1.2:1883,1551645512685,PRODUCED
Publisher_002,topicA,topicA-368,172.172.1.2:1883,1551645512785,PRODUCED
Publisher_002,topicA,topicA-369,172.172.1.2:1883,1551645512886,PRODUCED
Publisher_002,topicA,topicA-370,172.172.1.2:1883,1551645512986,PRODUCED
Publisher_002,topicA,topicA-371,172.172.1.2:1883,1551645513086,PRODUCED
Publisher_002,topicA,topicA-372,172.172.1.2:1883,1551645513185,PRODUCED
Publisher_002,topicA,topicA-373,172.172.1.2:1883,1551645513285,PRODUCED
Publisher_002,topicA,topicA-374,172.172.1.2:1883,1551645513387,PRODUCED
Publisher_002,topicA,topicA-375,172.172.1.2:1883,1551645513485,PRODUCED
Publisher_002,topicA,topicA-376,172.172.1.2:1883,1551645513586,PRODUCED
Publisher_002,topicA,topicA-377,172.172.1.2:1883,1551645513685,PRODUCED
Publisher_002,topicA,topicA-378,172.172.1.2:1883,1551645513787,PRODUCED
Publisher_002,topicA,topicA-379,172.172.1.2:1883,1551645513887,PRODUCED
Publisher_002,topicA,topicA-380,172.172.1.2:1883,1551645513985,PRODUCED
Publisher_002,topicA,topicA-381,172.172.1.2:1883,1551645514085,PRODUCED
Publisher_002,topicA,topicA-382,172.172.1.2:1883,1551645514185,PRODUCED
Publisher_002,topicA,topicA-383,172.172.1.2:1883,1551645514285,PRODUCED
Publisher_002,topicA,topicA-384,172.172.1.2:1883,1551645514385,PRODUCED
Publisher_002,topicA,topicA-385,172.172.1.2:1883,1551645514485,PRODUCED
Publisher_002,topicA,topicA-386,172.172.1.2:1883,1551645514585,PRODUCED
Publisher_002,topicA,topicA-387,172.172.1.2:1883,1551645514685,PRODUCED
Publisher_002,topicA,topicA-388,172.172.1.2:1883,1551645514785,PRODUCED
Publisher_002,topicA,topicA-389,172.172.1.2:1883,1551645514885,PRODUCED
Publisher_002,topicA,topicA-390,172.172.1.2:1883,1551645514985,PRODUCED
Publisher_002,topicA,topicA-391,172.172.1.2:1883,1551645515085,PRODUCED
Publisher_002,topicA,topicA-392,172.172.1.2:1883,1551645515187,PRODUCED
Publisher_002,topicA,topicA-393,172.172.1.2:1883,1551645515291,PRODUCED
Publisher_002,topicA,topicA-394,172.172.1.2:1883,1551645515385,PRODUCED
Publisher_002,topicA,topicA-395,172.172.1.2:1883,1551645515485,PRODUCED
Publisher_002,topicA,topicA-396,172.172.1.2:1883,1551645515585,PRODUCED
Publisher_002,topicA,topicA-397,172.172.1.2:1883,1551645515685,PRODUCED
Publisher_002,topicA,topicA-398,172.172.1.2:1883,1551645515785,PRODUCED
Publisher_002,topicA,topicA-399,172.172.1.2:1883,1551645515885,PRODUCED
Publisher_002,topicA,topicA-400,172.172.1.2:1883,1551645515989,PRODUCED
Publisher_002,topicA,topicA-401,172.172.1.2:1883,1551645516088,PRODUCED
Publisher_002,topicA,topicA-402,172.172.1.2:1883,1551645516185,PRODUCED
Publisher_002,topicA,topicA-403,172.172.1.2:1883,1551645516284,PRODUCED
Publisher_002,topicA,topicA-404,172.172.1.2:1883,1551645516385,PRODUCED
Publisher_002,topicA,topicA-405,172.172.1.2:1883,1551645516484,PRODUCED
Publisher_002,topicA,topicA-406,172.172.1.2:1883,1551645516587,PRODUCED
Publisher_002,topicA,topicA-407,172.172.1.2:1883,1551645516689,PRODUCED
Publisher_002,topicA,topicA-408,172.172.1.2:1883,1551645516785,PRODUCED
Publisher_002,topicA,topicA-409,172.172.1.2:1883,1551645516884,PRODUCED
Publisher_002,topicA,topicA-410,172.172.1.2:1883,1551645516989,PRODUCED
Publisher_002,topicA,topicA-411,172.172.1.2:1883,1551645517088,PRODUCED
Publisher_002,topicA,topicA-412,172.172.1.2:1883,1551645517184,PRODUCED
Publisher_002,topicA,topicA-413,172.172.1.2:1883,1551645517287,PRODUCED
Publisher_002,topicA,topicA-414,172.172.1.2:1883,1551645517385,PRODUCED
Publisher_002,topicA,topicA-415,172.172.1.2:1883,1551645517484,PRODUCED
Publisher_002,topicA,topicA-416,172.172.1.2:1883,1551645517585,PRODUCED
Publisher_002,topicA,topicA-417,172.172.1.2:1883,1551645517684,PRODUCED
Publisher_002,topicA,topicA-418,172.172.1.2:1883,1551645517785,PRODUCED
Publisher_002,topicA,topicA-419,172.172.1.2:1883,1551645517884,PRODUCED
Publisher_002,topicA,topicA-420,172.172.1.2:1883,1551645517984,PRODUCED
Publisher_002,topicA,topicA-421,172.172.1.2:1883,1551645518085,PRODUCED
Publisher_002,topicA,topicA-422,172.172.1.2:1883,1551645518184,PRODUCED
Publisher_002,topicA,topicA-423,172.172.1.2:1883,1551645518288,PRODUCED
Publisher_002,topicA,topicA-424,172.172.1.2:1883,1551645518385,PRODUCED
Publisher_002,topicA,topicA-425,172.172.1.2:1883,1551645518485,PRODUCED
Publisher_002,topicA,topicA-426,172.172.1.2:1883,1551645518584,PRODUCED
Publisher_002,topicA,topicA-427,172.172.1.2:1883,1551645518685,PRODUCED
Publisher_002,topicA,topicA-428,172.172.1.2:1883,1551645518785,PRODUCED
Publisher_002,topicA,topicA-429,172.172.1.2:1883,1551645518885,PRODUCED
Publisher_002,topicA,topicA-430,172.172.1.2:1883,1551645518985,PRODUCED
Publisher_002,topicA,topicA-431,172.172.1.2:1883,1551645519085,PRODUCED
Publisher_002,topicA,topicA-432,172.172.1.2:1883,1551645519185,PRODUCED
Publisher_002,topicA,topicA-433,172.172.1.2:1883,1551645519285,PRODUCED
Publisher_002,topicA,topicA-434,172.172.1.2:1883,1551645519385,PRODUCED
Publisher_002,topicA,topicA-435,172.172.1.2:1883,1551645519485,PRODUCED
Publisher_002,topicA,topicA-436,172.172.1.2:1883,1551645519584,PRODUCED
Publisher_002,topicA,topicA-437,172.172.1.2:1883,1551645519684,PRODUCED
Publisher_002,topicA,topicA-438,172.172.1.2:1883,1551645519785,PRODUCED
Publisher_002,topicA,topicA-439,172.172.1.2:1883,1551645519892,PRODUCED
Publisher_002,topicA,topicA-440,172.172.1.2:1883,1551645519991,PRODUCED
Publisher_002,topicA,topicA-441,172.172.1.2:1883,1551645520087,PRODUCED
Publisher_002,topicA,topicA-442,172.172.1.2:1883,1551645520185,PRODUCED
Publisher_002,topicA,topicA-443,172.172.1.2:1883,1551645520287,PRODUCED
Publisher_002,topicA,topicA-444,172.172.1.2:1883,1551645520386,PRODUCED
Publisher_002,topicA,topicA-445,172.172.1.2:1883,1551645520485,PRODUCED
Publisher_002,topicA,topicA-446,172.172.1.2:1883,1551645520585,PRODUCED
Publisher_002,topicA,topicA-447,172.172.1.2:1883,1551645520685,PRODUCED
Publisher_002,topicA,topicA-448,172.172.1.2:1883,1551645520785,PRODUCED
Publisher_002,topicA,topicA-449,172.172.1.2:1883,1551645520888,PRODUCED
Publisher_002,topicA,topicA-450,172.172.1.2:1883,1551645520985,PRODUCED
Publisher_002,topicA,topicA-451,172.172.1.2:1883,1551645521085,PRODUCED
Publisher_002,topicA,topicA-452,172.172.1.2:1883,1551645521185,PRODUCED
Publisher_002,topicA,topicA-453,172.172.1.2:1883,1551645521290,PRODUCED
Publisher_002,topicA,topicA-454,172.172.1.2:1883,1551645521385,PRODUCED
Publisher_002,topicA,topicA-455,172.172.1.2:1883,1551645521485,PRODUCED
Publisher_002,topicA,topicA-456,172.172.1.2:1883,1551645521586,PRODUCED
Publisher_002,topicA,topicA-457,172.172.1.2:1883,1551645521685,PRODUCED
Publisher_002,topicA,topicA-458,172.172.1.2:1883,1551645521788,PRODUCED
Publisher_002,topicA,topicA-459,172.172.1.2:1883,1551645521888,PRODUCED
Publisher_002,topicA,topicA-460,172.172.1.2:1883,1551645521985,PRODUCED
Publisher_002,topicA,topicA-461,172.172.1.2:1883,1551645522085,PRODUCED
Publisher_002,topicA,topicA-462,172.172.1.2:1883,1551645522185,PRODUCED
Publisher_002,topicA,topicA-463,172.172.1.2:1883,1551645522291,PRODUCED
Publisher_002,topicA,topicA-464,172.172.1.2:1883,1551645522386,PRODUCED
Publisher_002,topicA,topicA-465,172.172.1.2:1883,1551645522485,PRODUCED
Publisher_002,topicA,topicA-466,172.172.1.2:1883,1551645522585,PRODUCED
Publisher_002,topicA,topicA-467,172.172.1.2:1883,1551645522687,PRODUCED
Publisher_002,topicA,topicA-468,172.172.1.2:1883,1551645522785,PRODUCED
Publisher_002,topicA,topicA-469,172.172.1.2:1883,1551645522885,PRODUCED
Publisher_002,topicA,topicA-470,172.172.1.2:1883,1551645522990,PRODUCED
Publisher_002,topicA,topicA-471,172.172.1.2:1883,1551645523091,PRODUCED
Publisher_002,topicA,topicA-472,172.172.1.2:1883,1551645523187,PRODUCED
Publisher_002,topicA,topicA-473,172.172.1.2:1883,1551645523287,PRODUCED
Publisher_002,topicA,topicA-474,172.172.1.2:1883,1551645523385,PRODUCED
Publisher_002,topicA,topicA-475,172.172.1.2:1883,1551645523486,PRODUCED
Publisher_002,topicA,topicA-476,172.172.1.2:1883,1551645523586,PRODUCED
Publisher_002,topicA,topicA-477,172.172.1.2:1883,1551645523685,PRODUCED
Publisher_002,topicA,topicA-478,172.172.1.2:1883,1551645523788,PRODUCED
Publisher_002,topicA,topicA-479,172.172.1.2:1883,1551645523885,PRODUCED
Publisher_002,topicA,topicA-480,172.172.1.2:1883,1551645523985,PRODUCED
Publisher_002,topicA,topicA-481,172.172.1.2:1883,1551645524085,PRODUCED
Publisher_002,topicA,topicA-482,172.172.1.2:1883,1551645524185,PRODUCED
Publisher_002,topicA,topicA-483,172.172.1.2:1883,1551645524285,PRODUCED
Publisher_002,topicA,topicA-484,172.172.1.2:1883,1551645524386,PRODUCED
Publisher_002,topicA,topicA-485,172.172.1.2:1883,1551645524485,PRODUCED
Publisher_002,topicA,topicA-486,172.172.1.2:1883,1551645524584,PRODUCED
Publisher_002,topicA,topicA-487,172.172.1.2:1883,1551645524686,PRODUCED
Publisher_002,topicA,topicA-488,172.172.1.2:1883,1551645524786,PRODUCED
Publisher_002,topicA,topicA-489,172.172.1.2:1883,1551645524885,PRODUCED
Publisher_002,topicA,topicA-490,172.172.1.2:1883,1551645524985,PRODUCED
Publisher_002,topicA,topicA-491,172.172.1.2:1883,1551645525090,PRODUCED
Publisher_002,topicA,topicA-492,172.172.1.2:1883,1551645525186,PRODUCED
Publisher_002,topicA,topicA-493,172.172.1.2:1883,1551645525289,PRODUCED
Publisher_002,topicA,topicA-494,172.172.1.2:1883,1551645525385,PRODUCED
Publisher_002,topicA,topicA-495,172.172.1.2:1883,1551645525485,PRODUCED
Publisher_002,topicA,topicA-496,172.172.1.2:1883,1551645525585,PRODUCED
Publisher_002,topicA,topicA-497,172.172.1.2:1883,1551645525689,PRODUCED
Publisher_002,topicA,topicA-498,172.172.1.2:1883,1551645525789,PRODUCED
Publisher_002,topicA,topicA-499,172.172.1.2:1883,1551645525885,PRODUCED
Publisher_002,topicA,topicA-500,172.172.1.2:1883,1551645525986,PRODUCED
Publisher_002,topicA,topicA-501,172.172.1.2:1883,1551645526087,PRODUCED
Publisher_002,topicA,topicA-502,172.172.1.2:1883,1551645526185,PRODUCED
Publisher_002,topicA,topicA-503,172.172.1.2:1883,1551645526285,PRODUCED
Publisher_002,topicA,topicA-504,172.172.1.2:1883,1551645526385,PRODUCED
Publisher_002,topicA,topicA-505,172.172.1.2:1883,1551645526487,PRODUCED
Publisher_002,topicA,topicA-506,172.172.1.2:1883,1551645526585,PRODUCED
Publisher_002,topicA,topicA-507,172.172.1.2:1883,1551645526685,PRODUCED
Publisher_002,topicA,topicA-508,172.172.1.2:1883,1551645526784,PRODUCED
Publisher_002,topicA,topicA-509,172.172.1.2:1883,1551645526885,PRODUCED
Publisher_002,topicA,topicA-510,172.172.1.2:1883,1551645526985,PRODUCED
Publisher_002,topicA,topicA-511,172.172.1.2:1883,1551645527087,PRODUCED
Publisher_002,topicA,topicA-512,172.172.1.2:1883,1551645527192,PRODUCED
Publisher_002,topicA,topicA-513,172.172.1.2:1883,1551645527285,PRODUCED
Publisher_002,topicA,topicA-514,172.172.1.2:1883,1551645527385,PRODUCED
Publisher_002,topicA,topicA-515,172.172.1.2:1883,1551645527485,PRODUCED
Publisher_002,topicA,topicA-516,172.172.1.2:1883,1551645527585,PRODUCED
Publisher_002,topicA,topicA-517,172.172.1.2:1883,1551645527685,PRODUCED
Publisher_002,topicA,topicA-518,172.172.1.2:1883,1551645527785,PRODUCED
Publisher_002,topicA,topicA-519,172.172.1.2:1883,1551645527885,PRODUCED
Publisher_002,topicA,topicA-520,172.172.1.2:1883,1551645527985,PRODUCED
Publisher_002,topicA,topicA-521,172.172.1.2:1883,1551645528087,PRODUCED
Publisher_002,topicA,topicA-522,172.172.1.2:1883,1551645528185,PRODUCED
Publisher_002,topicA,topicA-523,172.172.1.2:1883,1551645528290,PRODUCED
Publisher_002,topicA,topicA-524,172.172.1.2:1883,1551645528385,PRODUCED
Publisher_002,topicA,topicA-525,172.172.1.2:1883,1551645528488,PRODUCED
Publisher_002,topicA,topicA-526,172.172.1.2:1883,1551645528585,PRODUCED
Publisher_002,topicA,topicA-527,172.172.1.2:1883,1551645528687,PRODUCED
Publisher_002,topicA,topicA-528,172.172.1.2:1883,1551645528785,PRODUCED
Publisher_002,topicA,topicA-529,172.172.1.2:1883,1551645528885,PRODUCED
Publisher_002,topicA,topicA-530,172.172.1.2:1883,1551645528985,PRODUCED
Publisher_002,topicA,topicA-531,172.172.1.2:1883,1551645529085,PRODUCED
Publisher_002,topicA,topicA-532,172.172.1.2:1883,1551645529185,PRODUCED
Publisher_002,topicA,topicA-533,172.172.1.2:1883,1551645529285,PRODUCED
Publisher_002,topicA,topicA-534,172.172.1.2:1883,1551645529386,PRODUCED
Publisher_002,topicA,topicA-535,172.172.1.2:1883,1551645529486,PRODUCED
Publisher_002,topicA,topicA-536,172.172.1.2:1883,1551645529589,PRODUCED
Publisher_002,topicA,topicA-537,172.172.1.2:1883,1551645529686,PRODUCED
Publisher_002,topicA,topicA-538,172.172.1.2:1883,1551645529786,PRODUCED
Publisher_002,topicA,topicA-539,172.172.1.2:1883,1551645529885,PRODUCED
Publisher_002,topicA,topicA-540,172.172.1.2:1883,1551645529985,PRODUCED
Publisher_002,topicA,topicA-541,172.172.1.2:1883,1551645530085,PRODUCED
Publisher_002,topicA,topicA-542,172.172.1.2:1883,1551645530185,PRODUCED
Publisher_002,topicA,topicA-543,172.172.1.2:1883,1551645530290,PRODUCED
Publisher_002,topicA,topicA-544,172.172.1.2:1883,1551645530385,PRODUCED
Publisher_002,topicA,topicA-545,172.172.1.2:1883,1551645530485,PRODUCED
Publisher_002,topicA,topicA-546,172.172.1.2:1883,1551645530585,PRODUCED
Publisher_002,topicA,topicA-547,172.172.1.2:1883,1551645530685,PRODUCED
Publisher_002,topicA,topicA-548,172.172.1.2:1883,1551645530785,PRODUCED
Publisher_002,topicA,topicA-549,172.172.1.2:1883,1551645530885,PRODUCED
Publisher_002,topicA,topicA-550,172.172.1.2:1883,1551645530985,PRODUCED
Publisher_002,topicA,topicA-551,172.172.1.2:1883,1551645531086,PRODUCED
Publisher_002,topicA,topicA-552,172.172.1.2:1883,1551645531185,PRODUCED
Publisher_002,topicA,topicA-553,172.172.1.2:1883,1551645531285,PRODUCED
Publisher_002,topicA,topicA-554,172.172.1.2:1883,1551645531385,PRODUCED
Publisher_002,topicA,topicA-555,172.172.1.2:1883,1551645531485,PRODUCED
Publisher_002,topicA,topicA-556,172.172.1.2:1883,1551645531585,PRODUCED
Publisher_002,topicA,topicA-557,172.172.1.2:1883,1551645531685,PRODUCED
Publisher_002,topicA,topicA-558,172.172.1.2:1883,1551645531785,PRODUCED
Publisher_002,topicA,topicA-559,172.172.1.2:1883,1551645531886,PRODUCED
Publisher_002,topicA,topicA-560,172.172.1.2:1883,1551645531985,PRODUCED
Publisher_002,topicA,topicA-561,172.172.1.2:1883,1551645532085,PRODUCED
Publisher_002,topicA,topicA-562,172.172.1.2:1883,1551645532185,PRODUCED
Publisher_002,topicA,topicA-563,172.172.1.2:1883,1551645532287,PRODUCED
Publisher_002,topicA,topicA-564,172.172.1.2:1883,1551645532385,PRODUCED
Publisher_002,topicA,topicA-565,172.172.1.2:1883,1551645532485,PRODUCED
Publisher_002,topicA,topicA-566,172.172.1.2:1883,1551645532585,PRODUCED
Publisher_002,topicA,topicA-567,172.172.1.2:1883,1551645532685,PRODUCED
Publisher_002,topicA,topicA-568,172.172.1.2:1883,1551645532785,PRODUCED
Publisher_002,topicA,topicA-569,172.172.1.2:1883,1551645532885,PRODUCED
Publisher_002,topicA,topicA-570,172.172.1.2:1883,1551645532985,PRODUCED
Publisher_002,topicA,topicA-571,172.172.1.2:1883,1551645533091,PRODUCED
Publisher_002,topicA,topicA-572,172.172.1.2:1883,1551645533186,PRODUCED
Publisher_002,topicA,topicA-573,172.172.1.2:1883,1551645533288,PRODUCED
Publisher_002,topicA,topicA-574,172.172.1.2:1883,1551645533390,PRODUCED
Publisher_002,topicA,topicA-575,172.172.1.2:1883,1551645533485,PRODUCED
Publisher_002,topicA,topicA-576,172.172.1.2:1883,1551645533585,PRODUCED
Publisher_002,topicA,topicA-577,172.172.1.2:1883,1551645533685,PRODUCED
Publisher_002,topicA,topicA-578,172.172.1.2:1883,1551645533785,PRODUCED
Publisher_002,topicA,topicA-579,172.172.1.2:1883,1551645533886,PRODUCED
Publisher_002,topicA,topicA-580,172.172.1.2:1883,1551645533985,PRODUCED
Publisher_002,topicA,topicA-581,172.172.1.2:1883,1551645534085,PRODUCED
Publisher_002,topicA,topicA-582,172.172.1.2:1883,1551645534185,PRODUCED
Publisher_002,topicA,topicA-583,172.172.1.2:1883,1551645534286,PRODUCED
Publisher_002,topicA,topicA-584,172.172.1.2:1883,1551645534387,PRODUCED
Publisher_002,topicA,topicA-585,172.172.1.2:1883,1551645534488,PRODUCED
Publisher_002,topicA,topicA-586,172.172.1.2:1883,1551645534585,PRODUCED
Publisher_002,topicA,topicA-587,172.172.1.2:1883,1551645534685,PRODUCED
Publisher_002,topicA,topicA-588,172.172.1.2:1883,1551645534785,PRODUCED
Publisher_002,topicA,topicA-589,172.172.1.2:1883,1551645534887,PRODUCED
Publisher_002,topicA,topicA-590,172.172.1.2:1883,1551645534985,PRODUCED
Publisher_002,topicA,topicA-591,172.172.1.2:1883,1551645535086,PRODUCED
Publisher_002,topicA,topicA-592,172.172.1.2:1883,1551645535185,PRODUCED
Publisher_002,topicA,topicA-593,172.172.1.2:1883,1551645535285,PRODUCED
Publisher_002,topicA,topicA-594,172.172.1.2:1883,1551645535385,PRODUCED
Publisher_002,topicA,topicA-595,172.172.1.2:1883,1551645535485,PRODUCED
Publisher_002,topicA,topicA-596,172.172.1.2:1883,1551645535585,PRODUCED
Publisher_002,topicA,topicA-597,172.172.1.2:1883,1551645535685,PRODUCED
Publisher_002,topicA,topicA-598,172.172.1.2:1883,1551645535785,PRODUCED
Publisher_002,topicA,topicA-599,172.172.1.2:1883,1551645535887,PRODUCED
Publisher_002,topicA,topicA-600,172.172.1.2:1883,1551645535987,PRODUCED
Publisher_002,topicA,topicA-601,172.172.1.2:1883,1551645536085,PRODUCED
Publisher_002,topicA,topicA-602,172.172.1.2:1883,1551645536185,PRODUCED
Publisher_002,topicA,topicA-603,172.172.1.2:1883,1551645536285,PRODUCED
Publisher_002,topicA,topicA-604,172.172.1.2:1883,1551645536385,PRODUCED
Publisher_002,topicA,topicA-605,172.172.1.2:1883,1551645536485,PRODUCED
Publisher_002,topicA,topicA-606,172.172.1.2:1883,1551645536585,PRODUCED
Publisher_002,topicA,topicA-607,172.172.1.2:1883,1551645536685,PRODUCED
Publisher_002,topicA,topicA-608,172.172.1.2:1883,1551645536786,PRODUCED
Publisher_002,topicA,topicA-609,172.172.1.2:1883,1551645536885,PRODUCED
Publisher_002,topicA,topicA-610,172.172.1.2:1883,1551645536987,PRODUCED
Publisher_002,topicA,topicA-611,172.172.1.2:1883,1551645537085,PRODUCED
Publisher_002,topicA,topicA-612,172.172.1.2:1883,1551645537185,PRODUCED
Publisher_002,topicA,topicA-613,172.172.1.2:1883,1551645537286,PRODUCED
Publisher_002,topicA,topicA-614,172.172.1.2:1883,1551645537385,PRODUCED
Publisher_002,topicA,topicA-615,172.172.1.2:1883,1551645537485,PRODUCED
Publisher_002,topicA,topicA-616,172.172.1.2:1883,1551645537585,PRODUCED
Publisher_002,topicA,topicA-617,172.172.1.2:1883,1551645537687,PRODUCED
Publisher_002,topicA,topicA-618,172.172.1.2:1883,1551645537785,PRODUCED
Publisher_002,topicA,topicA-619,172.172.1.2:1883,1551645537886,PRODUCED
Publisher_002,topicA,topicA-620,172.172.1.2:1883,1551645537985,PRODUCED
Publisher_002,topicA,topicA-621,172.172.1.2:1883,1551645538086,PRODUCED
Publisher_002,topicA,topicA-622,172.172.1.2:1883,1551645538187,PRODUCED
Publisher_002,topicA,topicA-623,172.172.1.2:1883,1551645538285,PRODUCED
Publisher_002,topicA,topicA-624,172.172.1.2:1883,1551645538385,PRODUCED
Publisher_002,topicA,topicA-625,172.172.1.2:1883,1551645538485,PRODUCED
Publisher_002,topicA,topicA-626,172.172.1.2:1883,1551645538587,PRODUCED
Publisher_002,topicA,topicA-627,172.172.1.2:1883,1551645538688,PRODUCED
Publisher_002,topicA,topicA-628,172.172.1.2:1883,1551645538786,PRODUCED
Publisher_002,topicA,topicA-629,172.172.1.2:1883,1551645538886,PRODUCED
Publisher_002,topicA,topicA-630,172.172.1.2:1883,1551645538985,PRODUCED
Publisher_002,topicA,topicA-631,172.172.1.2:1883,1551645539084,PRODUCED
Publisher_002,topicA,topicA-632,172.172.1.2:1883,1551645539185,PRODUCED
Publisher_002,topicA,topicA-633,172.172.1.2:1883,1551645539285,PRODUCED
Publisher_002,topicA,topicA-634,172.172.1.2:1883,1551645539385,PRODUCED
Publisher_002,topicA,topicA-635,172.172.1.2:1883,1551645539485,PRODUCED
Publisher_002,topicA,topicA-636,172.172.1.2:1883,1551645539584,PRODUCED
Publisher_002,topicA,topicA-637,172.172.1.2:1883,1551645539685,PRODUCED
Publisher_002,topicA,topicA-638,172.172.1.2:1883,1551645539786,PRODUCED
Publisher_002,topicA,topicA-639,172.172.1.2:1883,1551645539887,PRODUCED
Publisher_002,topicA,topicA-640,172.172.1.2:1883,1551645539985,PRODUCED
Publisher_002,topicA,topicA-641,172.172.1.2:1883,1551645540090,PRODUCED
Publisher_002,topicA,topicA-642,172.172.1.2:1883,1551645540184,PRODUCED
Publisher_002,topicA,topicA-643,172.172.1.2:1883,1551645540285,PRODUCED
Publisher_002,topicA,topicA-644,172.172.1.2:1883,1551645540384,PRODUCED
Publisher_002,topicA,topicA-645,172.172.1.2:1883,1551645540484,PRODUCED
Publisher_002,topicA,topicA-646,172.172.1.2:1883,1551645540584,PRODUCED
Publisher_002,topicA,topicA-647,172.172.1.2:1883,1551645540685,PRODUCED
Publisher_002,topicA,topicA-648,172.172.1.2:1883,1551645540784,PRODUCED
Publisher_002,topicA,topicA-649,172.172.1.2:1883,1551645540885,PRODUCED
Publisher_002,topicA,topicA-650,172.172.1.2:1883,1551645540985,PRODUCED
Publisher_002,topicA,topicA-651,172.172.1.2:1883,1551645541085,PRODUCED
Publisher_002,topicA,topicA-652,172.172.1.2:1883,1551645541184,PRODUCED
