timestamp,event,migrationId
1551656564986,INITIALIZED,5e759542-ea98-4c3e-8f3b-5561cd5983bf
1551656564988,topicA-INITIALIZED,5e759542-ea98-4c3e-8f3b-5561cd5983bf
1551656564995,topicA-SYNCED,5e759542-ea98-4c3e-8f3b-5561cd5983bf
1551656567029,topicA-FINISHED,5e759542-ea98-4c3e-8f3b-5561cd5983bf
1551656567029,FINISHED,5e759542-ea98-4c3e-8f3b-5561cd5983bf
