clientId,topic,guid,broker,timestamp,type
Subscriber_001,topicA,topicA-55,172.172.1.1:1883,1551659236204,RECEIVED
Subscriber_001,topicA,topicA-56,172.172.1.1:1883,1551659236206,RECEIVED
Subscriber_001,topicA,topicA-57,172.172.1.1:1883,1551659236208,RECEIVED
Subscriber_001,topicA,topicA-58,172.172.1.1:1883,1551659236277,RECEIVED
Subscriber_001,topicA,topicA-59,172.172.1.1:1883,1551659236381,RECEIVED
Subscriber_001,topicA,topicA-60,172.172.1.1:1883,1551659236483,RECEIVED
Subscriber_001,topicA,topicA-61,172.172.1.1:1883,1551659236577,RECEIVED
Subscriber_001,topicA,topicA-62,172.172.1.1:1883,1551659236681,RECEIVED
Subscriber_001,topicA,topicA-63,172.172.1.1:1883,1551659236786,RECEIVED
Subscriber_001,topicA,topicA-64,172.172.1.1:1883,1551659236884,RECEIVED
Subscriber_001,topicA,topicA-65,172.172.1.1:1883,1551659236979,RECEIVED
Subscriber_001,topicA,topicA-66,172.172.1.1:1883,1551659237076,RECEIVED
Subscriber_001,topicA,topicA-67,172.172.1.1:1883,1551659237186,RECEIVED
Subscriber_001,topicA,topicA-68,172.172.1.1:1883,1551659237286,RECEIVED
Subscriber_001,topicA,topicA-69,172.172.1.1:1883,1551659237384,RECEIVED
Subscriber_001,topicA,topicA-70,172.172.1.1:1883,1551659237492,RECEIVED
Subscriber_001,topicA,topicA-71,172.172.1.1:1883,1551659237583,RECEIVED
Subscriber_001,topicA,topicA-72,172.172.1.1:1883,1551659237680,RECEIVED
Subscriber_001,topicA,topicA-73,172.172.1.1:1883,1551659237786,RECEIVED
Subscriber_001,topicA,topicA-74,172.172.1.1:1883,1551659237884,RECEIVED
Subscriber_001,topicA,topicA-75,172.172.1.1:1883,1551659237978,RECEIVED
Subscriber_001,topicA,topicA-76,172.172.1.1:1883,1551659238090,RECEIVED
Subscriber_001,topicA,topicA-77,172.172.1.1:1883,1551659238185,RECEIVED
Subscriber_001,topicA,topicA-78,172.172.1.1:1883,1551659238285,RECEIVED
Subscriber_001,topicA,topicA-79,172.172.1.1:1883,1551659238376,RECEIVED
Subscriber_001,topicA,topicA-80,172.172.1.1:1883,1551659238483,RECEIVED
Subscriber_001,topicA,topicA-81,172.172.1.1:1883,1551659238584,RECEIVED
Subscriber_001,topicA,topicA-82,172.172.1.1:1883,1551659238684,RECEIVED
Subscriber_001,topicA,topicA-83,172.172.1.1:1883,1551659238779,RECEIVED
Subscriber_001,topicA,topicA-84,172.172.1.1:1883,1551659238885,RECEIVED
Subscriber_001,topicA,topicA-85,172.172.1.1:1883,1551659238980,RECEIVED
Subscriber_001,topicA,topicA-86,172.172.1.1:1883,1551659239092,RECEIVED
Subscriber_001,topicA,topicA-87,172.172.1.1:1883,1551659239178,RECEIVED
Subscriber_001,topicA,topicA-88,172.172.1.1:1883,1551659239277,RECEIVED
Subscriber_001,topicA,topicA-89,172.172.1.1:1883,1551659239374,RECEIVED
Subscriber_001,topicA,topicA-90,172.172.1.1:1883,1551659239491,RECEIVED
Subscriber_001,topicA,topicA-91,172.172.1.1:1883,1551659239596,RECEIVED
Subscriber_001,topicA,topicA-92,172.172.1.1:1883,1551659239685,RECEIVED
Subscriber_001,topicA,topicA-93,172.172.1.1:1883,1551659239795,RECEIVED
Subscriber_001,topicA,topicA-94,172.172.1.1:1883,1551659239886,RECEIVED
Subscriber_001,topicA,topicA-95,172.172.1.1:1883,1551659239983,RECEIVED
Subscriber_001,topicA,topicA-96,172.172.1.1:1883,1551659240080,RECEIVED
Subscriber_001,topicA,topicA-97,172.172.1.1:1883,1551659240182,RECEIVED
Subscriber_001,topicA,topicA-98,172.172.1.1:1883,1551659240276,RECEIVED
Subscriber_001,topicA,topicA-99,172.172.1.1:1883,1551659240383,RECEIVED
Subscriber_001,topicA,topicA-100,172.172.1.1:1883,1551659240478,RECEIVED
Subscriber_001,topicA,topicA-101,172.172.1.1:1883,1551659240582,RECEIVED
Subscriber_001,topicA,topicA-102,172.172.1.1:1883,1551659240683,RECEIVED
Subscriber_001,topicA,topicA-103,172.172.1.1:1883,1551659240781,RECEIVED
Subscriber_001,topicA,topicA-104,172.172.1.1:1883,1551659240887,RECEIVED
Subscriber_001,topicA,topicA-105,172.172.1.1:1883,1551659240983,RECEIVED
Subscriber_001,topicA,topicA-106,172.172.1.1:1883,1551659241089,RECEIVED
Subscriber_001,topicA,topicA-107,172.172.1.1:1883,1551659241192,RECEIVED
Subscriber_001,topicA,topicA-108,172.172.1.1:1883,1551659241288,RECEIVED
Subscriber_001,topicA,topicA-109,172.172.1.1:1883,1551659241384,RECEIVED
Subscriber_001,topicA,topicA-110,172.172.1.1:1883,1551659241488,RECEIVED
Subscriber_001,topicA,topicA-111,172.172.1.1:1883,1551659241596,RECEIVED
Subscriber_001,topicA,topicA-112,172.172.1.1:1883,1551659241685,RECEIVED
Subscriber_001,topicA,topicA-113,172.172.1.1:1883,1551659241784,RECEIVED
Subscriber_001,topicA,topicA-114,172.172.1.1:1883,1551659241886,RECEIVED
Subscriber_001,topicA,topicA-115,172.172.1.1:1883,1551659241995,RECEIVED
Subscriber_001,topicA,topicA-116,172.172.1.1:1883,1551659242079,RECEIVED
Subscriber_001,topicA,topicA-117,172.172.1.1:1883,1551659242190,RECEIVED
Subscriber_001,topicA,topicA-118,172.172.1.1:1883,1551659242275,RECEIVED
Subscriber_001,topicA,topicA-119,172.172.1.1:1883,1551659242381,RECEIVED
Subscriber_001,topicA,topicA-120,172.172.1.1:1883,1551659242478,RECEIVED
Subscriber_001,topicA,topicA-121,172.172.1.1:1883,1551659242574,RECEIVED
Subscriber_001,topicA,topicA-122,172.172.1.1:1883,1551659242680,RECEIVED
Subscriber_001,topicA,topicA-123,172.172.1.1:1883,1551659242783,RECEIVED
Subscriber_001,topicA,topicA-124,172.172.1.1:1883,1551659242883,RECEIVED
Subscriber_001,topicA,topicA-125,172.172.1.1:1883,1551659242980,RECEIVED
Subscriber_001,topicA,topicA-126,172.172.1.1:1883,1551659243083,RECEIVED
Subscriber_001,topicA,topicA-127,172.172.1.1:1883,1551659243180,RECEIVED
Subscriber_001,topicA,topicA-128,172.172.1.1:1883,1551659243280,RECEIVED
Subscriber_001,topicA,topicA-129,172.172.1.1:1883,1551659243385,RECEIVED
Subscriber_001,topicA,topicA-130,172.172.1.1:1883,1551659243477,RECEIVED
Subscriber_001,topicA,topicA-131,172.172.1.1:1883,1551659243582,RECEIVED
Subscriber_001,topicA,topicA-132,172.172.1.1:1883,1551659243683,RECEIVED
Subscriber_001,topicA,topicA-133,172.172.1.1:1883,1551659243777,RECEIVED
Subscriber_001,topicA,topicA-134,172.172.1.1:1883,1551659243873,RECEIVED
Subscriber_001,topicA,topicA-135,172.172.1.1:1883,1551659243983,RECEIVED
Subscriber_001,topicA,topicA-136,172.172.1.1:1883,1551659244076,RECEIVED
Subscriber_001,topicA,topicA-137,172.172.1.1:1883,1551659244183,RECEIVED
Subscriber_001,topicA,topicA-138,172.172.1.1:1883,1551659244283,RECEIVED
Subscriber_001,topicA,topicA-139,172.172.1.1:1883,1551659244373,RECEIVED
Subscriber_001,topicA,topicA-140,172.172.1.1:1883,1551659244477,RECEIVED
Subscriber_001,topicA,topicA-141,172.172.1.1:1883,1551659244576,RECEIVED
Subscriber_001,topicA,topicA-142,172.172.1.1:1883,1551659244675,RECEIVED
Subscriber_001,topicA,topicA-143,172.172.1.1:1883,1551659244783,RECEIVED
Subscriber_001,topicA,topicA-144,172.172.1.1:1883,1551659244887,RECEIVED
Subscriber_001,topicA,topicA-145,172.172.1.1:1883,1551659244982,RECEIVED
Subscriber_001,topicA,topicA-146,172.172.1.1:1883,1551659245076,RECEIVED
Subscriber_001,topicA,topicA-147,172.172.1.1:1883,1551659245181,RECEIVED
Subscriber_001,topicA,topicA-148,172.172.1.1:1883,1551659245294,RECEIVED
Subscriber_001,topicA,topicA-149,172.172.1.1:1883,1551659245384,RECEIVED
Subscriber_001,topicA,topicA-150,172.172.1.1:1883,1551659245475,RECEIVED
Subscriber_001,topicA,topicA-151,172.172.1.1:1883,1551659245582,RECEIVED
Subscriber_001,topicA,topicA-152,172.172.1.1:1883,1551659245682,RECEIVED
Subscriber_001,topicA,topicA-153,172.172.1.1:1883,1551659245774,RECEIVED
Subscriber_001,topicA,topicA-154,172.172.1.1:1883,1551659245880,RECEIVED
Subscriber_001,topicA,topicA-155,172.172.1.1:1883,1551659245978,RECEIVED
Subscriber_001,topicA,topicA-156,172.172.1.1:1883,1551659246081,RECEIVED
Subscriber_001,topicA,topicA-157,172.172.1.1:1883,1551659246193,RECEIVED
Subscriber_001,topicA,topicA-158,172.172.1.1:1883,1551659246282,RECEIVED
Subscriber_001,topicA,topicA-159,172.172.1.1:1883,1551659246384,RECEIVED
Subscriber_001,topicA,topicA-160,172.172.1.1:1883,1551659246491,RECEIVED
Subscriber_001,topicA,topicA-161,172.172.1.1:1883,1551659246588,RECEIVED
Subscriber_001,topicA,topicA-162,172.172.1.1:1883,1551659246681,RECEIVED
Subscriber_001,topicA,topicA-163,172.172.1.1:1883,1551659246797,RECEIVED
Subscriber_001,topicA,topicA-164,172.172.1.1:1883,1551659246890,RECEIVED
Subscriber_001,topicA,topicA-165,172.172.1.1:1883,1551659246982,RECEIVED
Subscriber_001,topicA,topicA-166,172.172.1.1:1883,1551659247091,RECEIVED
Subscriber_001,topicA,topicA-167,172.172.1.1:1883,1551659247175,RECEIVED
Subscriber_001,topicA,topicA-168,172.172.1.1:1883,1551659247279,RECEIVED
Subscriber_001,topicA,topicA-169,172.172.1.1:1883,1551659247380,RECEIVED
Subscriber_001,topicA,topicA-170,172.172.1.1:1883,1551659247481,RECEIVED
Subscriber_001,topicA,topicA-171,172.172.1.1:1883,1551659247583,RECEIVED
Subscriber_001,topicA,topicA-172,172.172.1.1:1883,1551659247682,RECEIVED
Subscriber_001,topicA,topicA-173,172.172.1.1:1883,1551659247783,RECEIVED
Subscriber_001,topicA,topicA-174,172.172.1.1:1883,1551659247878,RECEIVED
Subscriber_001,topicA,topicA-175,172.172.1.1:1883,1551659247982,RECEIVED
Subscriber_001,topicA,topicA-176,172.172.1.1:1883,1551659248082,RECEIVED
Subscriber_001,topicA,topicA-177,172.172.1.1:1883,1551659248179,RECEIVED
Subscriber_001,topicA,topicA-178,172.172.1.1:1883,1551659248285,RECEIVED
Subscriber_001,topicA,topicA-179,172.172.1.1:1883,1551659248388,RECEIVED
Subscriber_001,topicA,topicA-180,172.172.1.1:1883,1551659248488,RECEIVED
Subscriber_001,topicA,topicA-181,172.172.1.1:1883,1551659248588,RECEIVED
Subscriber_001,topicA,topicA-182,172.172.1.1:1883,1551659248680,RECEIVED
Subscriber_001,topicA,topicA-183,172.172.1.1:1883,1551659248795,RECEIVED
Subscriber_001,topicA,topicA-184,172.172.1.1:1883,1551659248881,RECEIVED
Subscriber_001,topicA,topicA-185,172.172.1.1:1883,1551659248988,RECEIVED
Subscriber_001,topicA,topicA-186,172.172.1.1:1883,1551659249085,RECEIVED
Subscriber_001,topicA,topicA-187,172.172.1.1:1883,1551659249194,RECEIVED
Subscriber_001,topicA,topicA-188,172.172.1.1:1883,1551659249286,RECEIVED
Subscriber_001,topicA,topicA-189,172.172.1.1:1883,1551659249387,RECEIVED
Subscriber_001,topicA,topicA-190,172.172.1.1:1883,1551659249485,RECEIVED
Subscriber_001,topicA,topicA-191,172.172.1.1:1883,1551659249592,RECEIVED
Subscriber_001,topicA,topicA-192,172.172.1.1:1883,1551659249693,RECEIVED
Subscriber_001,topicA,topicA-193,172.172.1.1:1883,1551659249784,RECEIVED
Subscriber_001,topicA,topicA-194,172.172.1.1:1883,1551659249893,RECEIVED
Subscriber_001,topicA,topicA-195,172.172.1.1:1883,1551659249984,RECEIVED
Subscriber_001,topicA,topicA-196,172.172.1.1:1883,1551659250083,RECEIVED
Subscriber_001,topicA,topicA-197,172.172.1.1:1883,1551659250181,RECEIVED
Subscriber_001,topicA,topicA-198,172.172.1.1:1883,1551659250282,RECEIVED
Subscriber_001,topicA,topicA-199,172.172.1.1:1883,1551659250381,RECEIVED
Subscriber_001,topicA,topicA-200,172.172.1.1:1883,1551659250482,RECEIVED
Subscriber_001,topicA,topicA-201,172.172.1.1:1883,1551659250579,RECEIVED
Subscriber_001,topicA,topicA-202,172.172.1.1:1883,1551659250689,RECEIVED
Subscriber_001,topicA,topicA-203,172.172.1.1:1883,1551659250784,RECEIVED
Subscriber_001,topicA,topicA-204,172.172.1.1:1883,1551659250876,RECEIVED
Subscriber_001,topicA,topicA-205,172.172.1.1:1883,1551659250984,RECEIVED
Subscriber_001,topicA,topicA-206,172.172.1.1:1883,1551659251084,RECEIVED
Subscriber_001,topicA,topicA-207,172.172.1.1:1883,1551659251184,RECEIVED
Subscriber_001,topicA,topicA-208,172.172.1.1:1883,1551659251280,RECEIVED
Subscriber_001,topicA,topicA-209,172.172.1.1:1883,1551659251388,RECEIVED
Subscriber_001,topicA,topicA-210,172.172.1.1:1883,1551659251481,RECEIVED
Subscriber_001,topicA,topicA-211,172.172.1.1:1883,1551659251577,RECEIVED
Subscriber_001,topicA,topicA-212,172.172.1.1:1883,1551659251683,RECEIVED
Subscriber_001,topicA,topicA-213,172.172.1.1:1883,1551659251782,RECEIVED
Subscriber_001,topicA,topicA-214,172.172.1.1:1883,1551659251881,RECEIVED
Subscriber_001,topicA,topicA-215,172.172.1.1:1883,1551659251979,RECEIVED
Subscriber_001,topicA,topicA-216,172.172.1.1:1883,1551659252076,RECEIVED
Subscriber_001,topicA,topicA-217,172.172.1.1:1883,1551659252176,RECEIVED
Subscriber_001,topicA,topicA-218,172.172.1.1:1883,1551659252273,RECEIVED
Subscriber_001,topicA,topicA-219,172.172.1.1:1883,1551659252381,RECEIVED
Subscriber_001,topicA,topicA-220,172.172.1.1:1883,1551659252484,RECEIVED
Subscriber_001,topicA,topicA-221,172.172.1.1:1883,1551659252585,RECEIVED
Subscriber_001,topicA,topicA-222,172.172.1.1:1883,1551659252695,RECEIVED
Subscriber_001,topicA,topicA-223,172.172.1.1:1883,1551659252783,RECEIVED
Subscriber_001,topicA,topicA-224,172.172.1.1:1883,1551659252893,RECEIVED
Subscriber_001,topicA,topicA-225,172.172.1.1:1883,1551659252978,RECEIVED
Subscriber_001,topicA,topicA-226,172.172.1.1:1883,1551659253076,RECEIVED
Subscriber_001,topicA,topicA-227,172.172.1.1:1883,1551659253176,RECEIVED
Subscriber_001,topicA,topicA-228,172.172.1.1:1883,1551659253274,RECEIVED
Subscriber_001,topicA,topicA-229,172.172.1.1:1883,1551659253379,RECEIVED
Subscriber_001,topicA,topicA-230,172.172.1.1:1883,1551659253489,RECEIVED
Subscriber_001,topicA,topicA-231,172.172.1.1:1883,1551659253580,RECEIVED
Subscriber_001,topicA,topicA-232,172.172.1.1:1883,1551659253685,RECEIVED
Subscriber_001,topicA,topicA-233,172.172.1.1:1883,1551659253778,RECEIVED
Subscriber_001,topicA,topicA-234,172.172.1.1:1883,1551659253879,RECEIVED
Subscriber_001,topicA,topicA-235,172.172.1.1:1883,1551659253984,RECEIVED
Subscriber_001,topicA,topicA-236,172.172.1.1:1883,1551659254080,RECEIVED
Subscriber_001,topicA,topicA-237,172.172.1.1:1883,1551659254176,RECEIVED
Subscriber_001,topicA,topicA-238,172.172.1.1:1883,1551659254284,RECEIVED
Subscriber_001,topicA,topicA-239,172.172.1.1:1883,1551659254378,RECEIVED
Subscriber_001,topicA,topicA-240,172.172.1.1:1883,1551659254492,RECEIVED
Subscriber_001,topicA,topicA-241,172.172.1.1:1883,1551659254582,RECEIVED
Subscriber_001,topicA,topicA-242,172.172.1.1:1883,1551659254680,RECEIVED
Subscriber_001,topicA,topicA-243,172.172.1.1:1883,1551659254784,RECEIVED
Subscriber_001,topicA,topicA-244,172.172.1.1:1883,1551659254885,RECEIVED
Subscriber_001,topicA,topicA-245,172.172.1.1:1883,1551659254976,RECEIVED
Subscriber_001,topicA,topicA-246,172.172.1.1:1883,1551659255083,RECEIVED
Subscriber_001,topicA,topicA-247,172.172.1.1:1883,1551659255183,RECEIVED
Subscriber_001,topicA,topicA-248,172.172.1.1:1883,1551659255272,RECEIVED
Subscriber_001,topicA,topicA-249,172.172.1.2:1883,1551659257334,RECEIVED
Subscriber_001,topicA,topicA-250,172.172.1.2:1883,1551659257437,RECEIVED
Subscriber_001,topicA,topicA-251,172.172.1.2:1883,1551659257543,RECEIVED
Subscriber_001,topicA,topicA-252,172.172.1.2:1883,1551659257638,RECEIVED
Subscriber_001,topicA,topicA-253,172.172.1.2:1883,1551659257734,RECEIVED
Subscriber_001,topicA,topicA-254,172.172.1.2:1883,1551659257837,RECEIVED
Subscriber_001,topicA,topicA-255,172.172.1.2:1883,1551659257946,RECEIVED
Subscriber_001,topicA,topicA-256,172.172.1.2:1883,1551659258044,RECEIVED
Subscriber_001,topicA,topicA-257,172.172.1.2:1883,1551659258139,RECEIVED
Subscriber_001,topicA,topicA-258,172.172.1.2:1883,1551659258233,RECEIVED
Subscriber_001,topicA,topicA-259,172.172.1.2:1883,1551659258334,RECEIVED
Subscriber_001,topicA,topicA-260,172.172.1.2:1883,1551659258444,RECEIVED
Subscriber_001,topicA,topicA-261,172.172.1.2:1883,1551659258543,RECEIVED
Subscriber_001,topicA,topicA-262,172.172.1.2:1883,1551659258643,RECEIVED
Subscriber_001,topicA,topicA-263,172.172.1.2:1883,1551659258750,RECEIVED
Subscriber_001,topicA,topicA-264,172.172.1.2:1883,1551659258843,RECEIVED
Subscriber_001,topicA,topicA-265,172.172.1.2:1883,1551659258940,RECEIVED
Subscriber_001,topicA,topicA-266,172.172.1.2:1883,1551659259043,RECEIVED
Subscriber_001,topicA,topicA-267,172.172.1.2:1883,1551659259144,RECEIVED
Subscriber_001,topicA,topicA-268,172.172.1.2:1883,1551659259248,RECEIVED
Subscriber_001,topicA,topicA-269,172.172.1.2:1883,1551659259337,RECEIVED
Subscriber_001,topicA,topicA-270,172.172.1.2:1883,1551659259446,RECEIVED
Subscriber_001,topicA,topicA-271,172.172.1.2:1883,1551659259535,RECEIVED
Subscriber_001,topicA,topicA-272,172.172.1.2:1883,1551659259636,RECEIVED
Subscriber_001,topicA,topicA-273,172.172.1.2:1883,1551659259737,RECEIVED
Subscriber_001,topicA,topicA-274,172.172.1.2:1883,1551659259843,RECEIVED
Subscriber_001,topicA,topicA-275,172.172.1.2:1883,1551659259931,RECEIVED
Subscriber_001,topicA,topicA-276,172.172.1.2:1883,1551659260048,RECEIVED
Subscriber_001,topicA,topicA-277,172.172.1.2:1883,1551659260141,RECEIVED
Subscriber_001,topicA,topicA-278,172.172.1.2:1883,1551659260236,RECEIVED
Subscriber_001,topicA,topicA-279,172.172.1.2:1883,1551659260343,RECEIVED
Subscriber_001,topicA,topicA-280,172.172.1.2:1883,1551659260443,RECEIVED
Subscriber_001,topicA,topicA-281,172.172.1.2:1883,1551659260541,RECEIVED
Subscriber_001,topicA,topicA-282,172.172.1.2:1883,1551659260640,RECEIVED
Subscriber_001,topicA,topicA-283,172.172.1.2:1883,1551659260743,RECEIVED
Subscriber_001,topicA,topicA-284,172.172.1.2:1883,1551659260834,RECEIVED
Subscriber_001,topicA,topicA-285,172.172.1.2:1883,1551659260944,RECEIVED
Subscriber_001,topicA,topicA-286,172.172.1.2:1883,1551659261043,RECEIVED
Subscriber_001,topicA,topicA-287,172.172.1.2:1883,1551659261140,RECEIVED
Subscriber_001,topicA,topicA-288,172.172.1.2:1883,1551659261243,RECEIVED
Subscriber_001,topicA,topicA-289,172.172.1.2:1883,1551659261346,RECEIVED
Subscriber_001,topicA,topicA-290,172.172.1.2:1883,1551659261435,RECEIVED
Subscriber_001,topicA,topicA-291,172.172.1.2:1883,1551659261545,RECEIVED
Subscriber_001,topicA,topicA-292,172.172.1.2:1883,1551659261634,RECEIVED
Subscriber_001,topicA,topicA-293,172.172.1.2:1883,1551659261731,RECEIVED
Subscriber_001,topicA,topicA-294,172.172.1.2:1883,1551659261857,RECEIVED
Subscriber_001,topicA,topicA-295,172.172.1.2:1883,1551659261943,RECEIVED
Subscriber_001,topicA,topicA-296,172.172.1.2:1883,1551659262036,RECEIVED
Subscriber_001,topicA,topicA-297,172.172.1.2:1883,1551659262143,RECEIVED
Subscriber_001,topicA,topicA-298,172.172.1.2:1883,1551659262239,RECEIVED
Subscriber_001,topicA,topicA-299,172.172.1.2:1883,1551659262345,RECEIVED
Subscriber_001,topicA,topicA-300,172.172.1.2:1883,1551659262446,RECEIVED
Subscriber_001,topicA,topicA-301,172.172.1.2:1883,1551659262545,RECEIVED
Subscriber_001,topicA,topicA-302,172.172.1.2:1883,1551659262639,RECEIVED
Subscriber_001,topicA,topicA-303,172.172.1.2:1883,1551659262741,RECEIVED
Subscriber_001,topicA,topicA-304,172.172.1.2:1883,1551659262837,RECEIVED
Subscriber_001,topicA,topicA-305,172.172.1.2:1883,1551659262938,RECEIVED
Subscriber_001,topicA,topicA-306,172.172.1.2:1883,1551659263039,RECEIVED
Subscriber_001,topicA,topicA-307,172.172.1.2:1883,1551659263143,RECEIVED
Subscriber_001,topicA,topicA-308,172.172.1.2:1883,1551659263233,RECEIVED
Subscriber_001,topicA,topicA-309,172.172.1.2:1883,1551659263344,RECEIVED
Subscriber_001,topicA,topicA-310,172.172.1.2:1883,1551659263433,RECEIVED
Subscriber_001,topicA,topicA-311,172.172.1.2:1883,1551659263540,RECEIVED
Subscriber_001,topicA,topicA-312,172.172.1.2:1883,1551659263639,RECEIVED
Subscriber_001,topicA,topicA-313,172.172.1.2:1883,1551659263732,RECEIVED
Subscriber_001,topicA,topicA-314,172.172.1.2:1883,1551659263834,RECEIVED
Subscriber_001,topicA,topicA-315,172.172.1.2:1883,1551659263934,RECEIVED
Subscriber_001,topicA,topicA-316,172.172.1.2:1883,1551659264040,RECEIVED
Subscriber_001,topicA,topicA-317,172.172.1.2:1883,1551659264137,RECEIVED
Subscriber_001,topicA,topicA-318,172.172.1.2:1883,1551659264241,RECEIVED
Subscriber_001,topicA,topicA-319,172.172.1.2:1883,1551659264340,RECEIVED
Subscriber_001,topicA,topicA-320,172.172.1.2:1883,1551659264439,RECEIVED
Subscriber_001,topicA,topicA-321,172.172.1.2:1883,1551659264542,RECEIVED
Subscriber_001,topicA,topicA-322,172.172.1.2:1883,1551659264639,RECEIVED
Subscriber_001,topicA,topicA-323,172.172.1.2:1883,1551659264738,RECEIVED
Subscriber_001,topicA,topicA-324,172.172.1.2:1883,1551659264845,RECEIVED
Subscriber_001,topicA,topicA-325,172.172.1.2:1883,1551659264947,RECEIVED
Subscriber_001,topicA,topicA-326,172.172.1.2:1883,1551659265039,RECEIVED
Subscriber_001,topicA,topicA-327,172.172.1.2:1883,1551659265142,RECEIVED
Subscriber_001,topicA,topicA-328,172.172.1.2:1883,1551659265244,RECEIVED
Subscriber_001,topicA,topicA-329,172.172.1.2:1883,1551659265347,RECEIVED
Subscriber_001,topicA,topicA-330,172.172.1.2:1883,1551659265442,RECEIVED
Subscriber_001,topicA,topicA-331,172.172.1.2:1883,1551659265564,RECEIVED
Subscriber_001,topicA,topicA-332,172.172.1.2:1883,1551659265648,RECEIVED
Subscriber_001,topicA,topicA-333,172.172.1.2:1883,1551659265735,RECEIVED
Subscriber_001,topicA,topicA-334,172.172.1.2:1883,1551659265836,RECEIVED
Subscriber_001,topicA,topicA-335,172.172.1.2:1883,1551659265946,RECEIVED
Subscriber_001,topicA,topicA-336,172.172.1.2:1883,1551659266048,RECEIVED
Subscriber_001,topicA,topicA-337,172.172.1.2:1883,1551659266148,RECEIVED
Subscriber_001,topicA,topicA-338,172.172.1.2:1883,1551659266242,RECEIVED
Subscriber_001,topicA,topicA-339,172.172.1.2:1883,1551659266342,RECEIVED
Subscriber_001,topicA,topicA-340,172.172.1.2:1883,1551659266446,RECEIVED
Subscriber_001,topicA,topicA-341,172.172.1.2:1883,1551659266543,RECEIVED
Subscriber_001,topicA,topicA-342,172.172.1.2:1883,1551659266641,RECEIVED
Subscriber_001,topicA,topicA-343,172.172.1.2:1883,1551659266739,RECEIVED
Subscriber_001,topicA,topicA-344,172.172.1.2:1883,1551659266845,RECEIVED
Subscriber_001,topicA,topicA-345,172.172.1.2:1883,1551659266947,RECEIVED
Subscriber_001,topicA,topicA-346,172.172.1.2:1883,1551659267036,RECEIVED
Subscriber_001,topicA,topicA-347,172.172.1.2:1883,1551659267129,RECEIVED
Subscriber_001,topicA,topicA-348,172.172.1.2:1883,1551659267233,RECEIVED
Subscriber_001,topicA,topicA-349,172.172.1.2:1883,1551659267341,RECEIVED
Subscriber_001,topicA,topicA-350,172.172.1.2:1883,1551659267430,RECEIVED
Subscriber_001,topicA,topicA-351,172.172.1.2:1883,1551659267530,RECEIVED
Subscriber_001,topicA,topicA-352,172.172.1.2:1883,1551659267633,RECEIVED
Subscriber_001,topicA,topicA-353,172.172.1.2:1883,1551659267736,RECEIVED
Subscriber_001,topicA,topicA-354,172.172.1.2:1883,1551659267846,RECEIVED
Subscriber_001,topicA,topicA-355,172.172.1.2:1883,1551659267931,RECEIVED
Subscriber_001,topicA,topicA-356,172.172.1.2:1883,1551659268048,RECEIVED
Subscriber_001,topicA,topicA-357,172.172.1.2:1883,1551659268152,RECEIVED
Subscriber_001,topicA,topicA-358,172.172.1.2:1883,1551659268243,RECEIVED
Subscriber_001,topicA,topicA-359,172.172.1.2:1883,1551659268340,RECEIVED
Subscriber_001,topicA,topicA-360,172.172.1.2:1883,1551659268442,RECEIVED
Subscriber_001,topicA,topicA-361,172.172.1.2:1883,1551659268538,RECEIVED
Subscriber_001,topicA,topicA-362,172.172.1.2:1883,1551659268639,RECEIVED
Subscriber_001,topicA,topicA-363,172.172.1.2:1883,1551659268743,RECEIVED
Subscriber_001,topicA,topicA-364,172.172.1.2:1883,1551659268842,RECEIVED
Subscriber_001,topicA,topicA-365,172.172.1.2:1883,1551659268930,RECEIVED
Subscriber_001,topicA,topicA-366,172.172.1.2:1883,1551659269034,RECEIVED
Subscriber_001,topicA,topicA-367,172.172.1.2:1883,1551659269132,RECEIVED
Subscriber_001,topicA,topicA-368,172.172.1.2:1883,1551659269235,RECEIVED
Subscriber_001,topicA,topicA-369,172.172.1.2:1883,1551659269334,RECEIVED
Subscriber_001,topicA,topicA-370,172.172.1.2:1883,1551659269438,RECEIVED
Subscriber_001,topicA,topicA-371,172.172.1.2:1883,1551659269539,RECEIVED
Subscriber_001,topicA,topicA-372,172.172.1.2:1883,1551659269631,RECEIVED
Subscriber_001,topicA,topicA-373,172.172.1.2:1883,1551659269739,RECEIVED
Subscriber_001,topicA,topicA-374,172.172.1.2:1883,1551659269842,RECEIVED
Subscriber_001,topicA,topicA-375,172.172.1.2:1883,1551659269937,RECEIVED
Subscriber_001,topicA,topicA-376,172.172.1.2:1883,1551659270030,RECEIVED
Subscriber_001,topicA,topicA-377,172.172.1.2:1883,1551659270135,RECEIVED
Subscriber_001,topicA,topicA-378,172.172.1.2:1883,1551659270241,RECEIVED
Subscriber_001,topicA,topicA-379,172.172.1.2:1883,1551659270341,RECEIVED
Subscriber_001,topicA,topicA-380,172.172.1.2:1883,1551659270435,RECEIVED
Subscriber_001,topicA,topicA-381,172.172.1.2:1883,1551659270537,RECEIVED
Subscriber_001,topicA,topicA-382,172.172.1.2:1883,1551659270644,RECEIVED
Subscriber_001,topicA,topicA-383,172.172.1.2:1883,1551659270744,RECEIVED
Subscriber_001,topicA,topicA-384,172.172.1.2:1883,1551659270862,RECEIVED
Subscriber_001,topicA,topicA-385,172.172.1.2:1883,1551659270937,RECEIVED
Subscriber_001,topicA,topicA-386,172.172.1.2:1883,1551659271030,RECEIVED
Subscriber_001,topicA,topicA-387,172.172.1.2:1883,1551659271139,RECEIVED
Subscriber_001,topicA,topicA-388,172.172.1.2:1883,1551659271239,RECEIVED
Subscriber_001,topicA,topicA-389,172.172.1.2:1883,1551659271332,RECEIVED
Subscriber_001,topicA,topicA-390,172.172.1.2:1883,1551659271439,RECEIVED
Subscriber_001,topicA,topicA-391,172.172.1.2:1883,1551659271535,RECEIVED
Subscriber_001,topicA,topicA-392,172.172.1.2:1883,1551659271636,RECEIVED
Subscriber_001,topicA,topicA-393,172.172.1.2:1883,1551659271737,RECEIVED
Subscriber_001,topicA,topicA-394,172.172.1.2:1883,1551659271838,RECEIVED
Subscriber_001,topicA,topicA-395,172.172.1.2:1883,1551659271941,RECEIVED
Subscriber_001,topicA,topicA-396,172.172.1.2:1883,1551659272030,RECEIVED
Subscriber_001,topicA,topicA-397,172.172.1.2:1883,1551659272139,RECEIVED
Subscriber_001,topicA,topicA-398,172.172.1.2:1883,1551659272245,RECEIVED
Subscriber_001,topicA,topicA-399,172.172.1.2:1883,1551659272344,RECEIVED
Subscriber_001,topicA,topicA-400,172.172.1.2:1883,1551659272445,RECEIVED
Subscriber_001,topicA,topicA-401,172.172.1.2:1883,1551659272542,RECEIVED
Subscriber_001,topicA,topicA-402,172.172.1.2:1883,1551659272641,RECEIVED
Subscriber_001,topicA,topicA-403,172.172.1.2:1883,1551659272746,RECEIVED
Subscriber_001,topicA,topicA-404,172.172.1.2:1883,1551659272845,RECEIVED
Subscriber_001,topicA,topicA-405,172.172.1.2:1883,1551659272940,RECEIVED
Subscriber_001,topicA,topicA-406,172.172.1.2:1883,1551659273043,RECEIVED
Subscriber_001,topicA,topicA-407,172.172.1.2:1883,1551659273136,RECEIVED
Subscriber_001,topicA,topicA-408,172.172.1.2:1883,1551659273242,RECEIVED
Subscriber_001,topicA,topicA-409,172.172.1.2:1883,1551659273337,RECEIVED
Subscriber_001,topicA,topicA-410,172.172.1.2:1883,1551659273441,RECEIVED
Subscriber_001,topicA,topicA-411,172.172.1.2:1883,1551659273535,RECEIVED
Subscriber_001,topicA,topicA-412,172.172.1.2:1883,1551659273642,RECEIVED
Subscriber_001,topicA,topicA-413,172.172.1.2:1883,1551659273735,RECEIVED
Subscriber_001,topicA,topicA-414,172.172.1.2:1883,1551659273841,RECEIVED
Subscriber_001,topicA,topicA-415,172.172.1.2:1883,1551659273943,RECEIVED
Subscriber_001,topicA,topicA-416,172.172.1.2:1883,1551659274047,RECEIVED
Subscriber_001,topicA,topicA-417,172.172.1.2:1883,1551659274140,RECEIVED
Subscriber_001,topicA,topicA-418,172.172.1.2:1883,1551659274236,RECEIVED
Subscriber_001,topicA,topicA-419,172.172.1.2:1883,1551659274343,RECEIVED
Subscriber_001,topicA,topicA-420,172.172.1.2:1883,1551659274437,RECEIVED
Subscriber_001,topicA,topicA-421,172.172.1.2:1883,1551659274539,RECEIVED
Subscriber_001,topicA,topicA-422,172.172.1.2:1883,1551659274640,RECEIVED
Subscriber_001,topicA,topicA-423,172.172.1.2:1883,1551659274753,RECEIVED
Subscriber_001,topicA,topicA-424,172.172.1.2:1883,1551659274846,RECEIVED
Subscriber_001,topicA,topicA-425,172.172.1.2:1883,1551659274937,RECEIVED
Subscriber_001,topicA,topicA-426,172.172.1.2:1883,1551659275042,RECEIVED
Subscriber_001,topicA,topicA-427,172.172.1.2:1883,1551659275144,RECEIVED
Subscriber_001,topicA,topicA-428,172.172.1.2:1883,1551659275234,RECEIVED
Subscriber_001,topicA,topicA-429,172.172.1.2:1883,1551659275333,RECEIVED
Subscriber_001,topicA,topicA-430,172.172.1.2:1883,1551659275436,RECEIVED
Subscriber_001,topicA,topicA-431,172.172.1.2:1883,1551659275535,RECEIVED
Subscriber_001,topicA,topicA-432,172.172.1.2:1883,1551659275632,RECEIVED
Subscriber_001,topicA,topicA-433,172.172.1.2:1883,1551659275729,RECEIVED
Subscriber_001,topicA,topicA-434,172.172.1.2:1883,1551659275840,RECEIVED
Subscriber_001,topicA,topicA-435,172.172.1.2:1883,1551659275937,RECEIVED
Subscriber_001,topicA,topicA-436,172.172.1.2:1883,1551659276044,RECEIVED
Subscriber_001,topicA,topicA-437,172.172.1.2:1883,1551659276132,RECEIVED
Subscriber_001,topicA,topicA-438,172.172.1.2:1883,1551659276240,RECEIVED
Subscriber_001,topicA,topicA-439,172.172.1.2:1883,1551659276344,RECEIVED
Subscriber_001,topicA,topicA-440,172.172.1.2:1883,1551659276444,RECEIVED
Subscriber_001,topicA,topicA-441,172.172.1.2:1883,1551659276542,RECEIVED
Subscriber_001,topicA,topicA-442,172.172.1.2:1883,1551659276633,RECEIVED
Subscriber_001,topicA,topicA-443,172.172.1.2:1883,1551659276736,RECEIVED
Subscriber_001,topicA,topicA-444,172.172.1.2:1883,1551659276844,RECEIVED
Subscriber_001,topicA,topicA-445,172.172.1.2:1883,1551659276939,RECEIVED
Subscriber_001,topicA,topicA-446,172.172.1.2:1883,1551659277041,RECEIVED
Subscriber_001,topicA,topicA-447,172.172.1.2:1883,1551659277141,RECEIVED
Subscriber_001,topicA,topicA-448,172.172.1.2:1883,1551659277237,RECEIVED
Subscriber_001,topicA,topicA-449,172.172.1.2:1883,1551659277337,RECEIVED
Subscriber_001,topicA,topicA-450,172.172.1.2:1883,1551659277437,RECEIVED
Subscriber_001,topicA,topicA-451,172.172.1.2:1883,1551659277548,RECEIVED
Subscriber_001,topicA,topicA-452,172.172.1.2:1883,1551659277639,RECEIVED
Subscriber_001,topicA,topicA-453,172.172.1.2:1883,1551659277740,RECEIVED
Subscriber_001,topicA,topicA-454,172.172.1.2:1883,1551659277846,RECEIVED
Subscriber_001,topicA,topicA-455,172.172.1.2:1883,1551659277940,RECEIVED
Subscriber_001,topicA,topicA-456,172.172.1.2:1883,1551659278031,RECEIVED
Subscriber_001,topicA,topicA-457,172.172.1.2:1883,1551659278139,RECEIVED
Subscriber_001,topicA,topicA-458,172.172.1.2:1883,1551659278235,RECEIVED
Subscriber_001,topicA,topicA-459,172.172.1.2:1883,1551659278344,RECEIVED
Subscriber_001,topicA,topicA-460,172.172.1.2:1883,1551659278440,RECEIVED
Subscriber_001,topicA,topicA-461,172.172.1.2:1883,1551659278536,RECEIVED
Subscriber_001,topicA,topicA-462,172.172.1.2:1883,1551659278634,RECEIVED
Subscriber_001,topicA,topicA-463,172.172.1.2:1883,1551659278740,RECEIVED
Subscriber_001,topicA,topicA-464,172.172.1.2:1883,1551659278836,RECEIVED
Subscriber_001,topicA,topicA-465,172.172.1.2:1883,1551659278937,RECEIVED
Subscriber_001,topicA,topicA-466,172.172.1.2:1883,1551659279037,RECEIVED
Subscriber_001,topicA,topicA-467,172.172.1.2:1883,1551659279135,RECEIVED
Subscriber_001,topicA,topicA-468,172.172.1.2:1883,1551659279239,RECEIVED
Subscriber_001,topicA,topicA-469,172.172.1.2:1883,1551659279334,RECEIVED
Subscriber_001,topicA,topicA-470,172.172.1.2:1883,1551659279438,RECEIVED
Subscriber_001,topicA,topicA-471,172.172.1.2:1883,1551659279540,RECEIVED
Subscriber_001,topicA,topicA-472,172.172.1.2:1883,1551659279634,RECEIVED
Subscriber_001,topicA,topicA-473,172.172.1.2:1883,1551659279743,RECEIVED
Subscriber_001,topicA,topicA-474,172.172.1.2:1883,1551659279839,RECEIVED
Subscriber_001,topicA,topicA-475,172.172.1.2:1883,1551659279935,RECEIVED
Subscriber_001,topicA,topicA-476,172.172.1.2:1883,1551659280044,RECEIVED
Subscriber_001,topicA,topicA-477,172.172.1.2:1883,1551659280131,RECEIVED
Subscriber_001,topicA,topicA-478,172.172.1.2:1883,1551659280234,RECEIVED
Subscriber_001,topicA,topicA-479,172.172.1.2:1883,1551659280340,RECEIVED
Subscriber_001,topicA,topicA-480,172.172.1.2:1883,1551659280432,RECEIVED
Subscriber_001,topicA,topicA-481,172.172.1.2:1883,1551659280541,RECEIVED
Subscriber_001,topicA,topicA-482,172.172.1.2:1883,1551659280636,RECEIVED
Subscriber_001,topicA,topicA-483,172.172.1.2:1883,1551659280734,RECEIVED
Subscriber_001,topicA,topicA-484,172.172.1.2:1883,1551659280840,RECEIVED
Subscriber_001,topicA,topicA-485,172.172.1.2:1883,1551659280942,RECEIVED
Subscriber_001,topicA,topicA-486,172.172.1.2:1883,1551659281034,RECEIVED
Subscriber_001,topicA,topicA-487,172.172.1.2:1883,1551659281155,RECEIVED
Subscriber_001,topicA,topicA-488,172.172.1.2:1883,1551659281242,RECEIVED
Subscriber_001,topicA,topicA-489,172.172.1.2:1883,1551659281333,RECEIVED
Subscriber_001,topicA,topicA-490,172.172.1.2:1883,1551659281435,RECEIVED
Subscriber_001,topicA,topicA-491,172.172.1.2:1883,1551659281537,RECEIVED
Subscriber_001,topicA,topicA-492,172.172.1.2:1883,1551659281633,RECEIVED
Subscriber_001,topicA,topicA-493,172.172.1.2:1883,1551659281736,RECEIVED
Subscriber_001,topicA,topicA-494,172.172.1.2:1883,1551659281836,RECEIVED
Subscriber_001,topicA,topicA-495,172.172.1.2:1883,1551659281930,RECEIVED
Subscriber_001,topicA,topicA-496,172.172.1.2:1883,1551659282038,RECEIVED
Subscriber_001,topicA,topicA-497,172.172.1.2:1883,1551659282132,RECEIVED
Subscriber_001,topicA,topicA-498,172.172.1.2:1883,1551659282242,RECEIVED
Subscriber_001,topicA,topicA-499,172.172.1.2:1883,1551659282342,RECEIVED
Subscriber_001,topicA,topicA-500,172.172.1.2:1883,1551659282441,RECEIVED
Subscriber_001,topicA,topicA-501,172.172.1.2:1883,1551659282557,RECEIVED
Subscriber_001,topicA,topicA-502,172.172.1.2:1883,1551659282643,RECEIVED
Subscriber_001,topicA,topicA-503,172.172.1.2:1883,1551659282753,RECEIVED
Subscriber_001,topicA,topicA-504,172.172.1.2:1883,1551659282843,RECEIVED
Subscriber_001,topicA,topicA-505,172.172.1.2:1883,1551659282943,RECEIVED
Subscriber_001,topicA,topicA-506,172.172.1.2:1883,1551659283036,RECEIVED
Subscriber_001,topicA,topicA-507,172.172.1.2:1883,1551659283134,RECEIVED
Subscriber_001,topicA,topicA-508,172.172.1.2:1883,1551659283232,RECEIVED
Subscriber_001,topicA,topicA-509,172.172.1.2:1883,1551659283342,RECEIVED
Subscriber_001,topicA,topicA-510,172.172.1.2:1883,1551659283442,RECEIVED
Subscriber_001,topicA,topicA-511,172.172.1.2:1883,1551659283539,RECEIVED
Subscriber_001,topicA,topicA-512,172.172.1.2:1883,1551659283636,RECEIVED
Subscriber_001,topicA,topicA-513,172.172.1.2:1883,1551659283738,RECEIVED
Subscriber_001,topicA,topicA-514,172.172.1.2:1883,1551659283839,RECEIVED
Subscriber_001,topicA,topicA-515,172.172.1.2:1883,1551659283932,RECEIVED
Subscriber_001,topicA,topicA-516,172.172.1.2:1883,1551659284032,RECEIVED
Subscriber_001,topicA,topicA-517,172.172.1.2:1883,1551659284132,RECEIVED
Subscriber_001,topicA,topicA-518,172.172.1.2:1883,1551659284246,RECEIVED
Subscriber_001,topicA,topicA-519,172.172.1.2:1883,1551659284342,RECEIVED
Subscriber_001,topicA,topicA-520,172.172.1.2:1883,1551659284441,RECEIVED
Subscriber_001,topicA,topicA-521,172.172.1.2:1883,1551659284542,RECEIVED
Subscriber_001,topicA,topicA-522,172.172.1.2:1883,1551659284639,RECEIVED
Subscriber_001,topicA,topicA-523,172.172.1.2:1883,1551659284731,RECEIVED
Subscriber_001,topicA,topicA-524,172.172.1.2:1883,1551659284839,RECEIVED
Subscriber_001,topicA,topicA-525,172.172.1.2:1883,1551659284940,RECEIVED
Subscriber_001,topicA,topicA-526,172.172.1.2:1883,1551659285043,RECEIVED
Subscriber_001,topicA,topicA-527,172.172.1.2:1883,1551659285143,RECEIVED
Subscriber_001,topicA,topicA-528,172.172.1.2:1883,1551659285236,RECEIVED
Subscriber_001,topicA,topicA-529,172.172.1.2:1883,1551659285339,RECEIVED
Subscriber_001,topicA,topicA-530,172.172.1.2:1883,1551659285444,RECEIVED
Subscriber_001,topicA,topicA-531,172.172.1.2:1883,1551659285544,RECEIVED
Subscriber_001,topicA,topicA-532,172.172.1.2:1883,1551659285642,RECEIVED
Subscriber_001,topicA,topicA-533,172.172.1.2:1883,1551659285744,RECEIVED
Subscriber_001,topicA,topicA-534,172.172.1.2:1883,1551659285844,RECEIVED
Subscriber_001,topicA,topicA-535,172.172.1.2:1883,1551659285943,RECEIVED
Subscriber_001,topicA,topicA-536,172.172.1.2:1883,1551659286043,RECEIVED
Subscriber_001,topicA,topicA-537,172.172.1.2:1883,1551659286144,RECEIVED
Subscriber_001,topicA,topicA-538,172.172.1.2:1883,1551659286238,RECEIVED
Subscriber_001,topicA,topicA-539,172.172.1.2:1883,1551659286342,RECEIVED
Subscriber_001,topicA,topicA-540,172.172.1.2:1883,1551659286445,RECEIVED
Subscriber_001,topicA,topicA-541,172.172.1.2:1883,1551659286540,RECEIVED
Subscriber_001,topicA,topicA-542,172.172.1.2:1883,1551659286652,RECEIVED
Subscriber_001,topicA,topicA-543,172.172.1.2:1883,1551659286749,RECEIVED
Subscriber_001,topicA,topicA-544,172.172.1.2:1883,1551659286851,RECEIVED
Subscriber_001,topicA,topicA-545,172.172.1.2:1883,1551659286938,RECEIVED
Subscriber_001,topicA,topicA-546,172.172.1.2:1883,1551659287042,RECEIVED
Subscriber_001,topicA,topicA-547,172.172.1.2:1883,1551659287144,RECEIVED
Subscriber_001,topicA,topicA-548,172.172.1.2:1883,1551659287240,RECEIVED
Subscriber_001,topicA,topicA-549,172.172.1.2:1883,1551659287336,RECEIVED
Subscriber_001,topicA,topicA-550,172.172.1.2:1883,1551659287440,RECEIVED
Subscriber_001,topicA,topicA-551,172.172.1.2:1883,1551659287538,RECEIVED
Subscriber_001,topicA,topicA-552,172.172.1.2:1883,1551659287656,RECEIVED
Subscriber_001,topicA,topicA-553,172.172.1.2:1883,1551659287731,RECEIVED
Subscriber_001,topicA,topicA-554,172.172.1.2:1883,1551659287832,RECEIVED
Subscriber_001,topicA,topicA-555,172.172.1.2:1883,1551659287936,RECEIVED
Subscriber_001,topicA,topicA-556,172.172.1.2:1883,1551659288046,RECEIVED
Subscriber_001,topicA,topicA-557,172.172.1.2:1883,1551659288142,RECEIVED
Subscriber_001,topicA,topicA-558,172.172.1.2:1883,1551659288235,RECEIVED
Subscriber_001,topicA,topicA-559,172.172.1.2:1883,1551659288343,RECEIVED
Subscriber_001,topicA,topicA-560,172.172.1.2:1883,1551659288441,RECEIVED
Subscriber_001,topicA,topicA-561,172.172.1.2:1883,1551659288541,RECEIVED
Subscriber_001,topicA,topicA-562,172.172.1.2:1883,1551659288634,RECEIVED
Subscriber_001,topicA,topicA-563,172.172.1.2:1883,1551659288747,RECEIVED
Subscriber_001,topicA,topicA-564,172.172.1.2:1883,1551659288836,RECEIVED
Subscriber_001,topicA,topicA-565,172.172.1.2:1883,1551659288940,RECEIVED
Subscriber_001,topicA,topicA-566,172.172.1.2:1883,1551659289043,RECEIVED
Subscriber_001,topicA,topicA-567,172.172.1.2:1883,1551659289146,RECEIVED
Subscriber_001,topicA,topicA-568,172.172.1.2:1883,1551659289240,RECEIVED
Subscriber_001,topicA,topicA-569,172.172.1.2:1883,1551659289341,RECEIVED
Subscriber_001,topicA,topicA-570,172.172.1.2:1883,1551659289440,RECEIVED
Subscriber_001,topicA,topicA-571,172.172.1.2:1883,1551659289543,RECEIVED
Subscriber_001,topicA,topicA-572,172.172.1.2:1883,1551659289641,RECEIVED
Subscriber_001,topicA,topicA-573,172.172.1.2:1883,1551659289735,RECEIVED
Subscriber_001,topicA,topicA-574,172.172.1.2:1883,1551659289845,RECEIVED
Subscriber_001,topicA,topicA-575,172.172.1.2:1883,1551659289936,RECEIVED
Subscriber_001,topicA,topicA-576,172.172.1.2:1883,1551659290030,RECEIVED
Subscriber_001,topicA,topicA-577,172.172.1.2:1883,1551659290138,RECEIVED
Subscriber_001,topicA,topicA-578,172.172.1.2:1883,1551659290232,RECEIVED
Subscriber_001,topicA,topicA-579,172.172.1.2:1883,1551659290332,RECEIVED
Subscriber_001,topicA,topicA-580,172.172.1.2:1883,1551659290479,RECEIVED
Subscriber_001,topicA,topicA-581,172.172.1.2:1883,1551659290536,RECEIVED
Subscriber_001,topicA,topicA-582,172.172.1.2:1883,1551659290635,RECEIVED
Subscriber_001,topicA,topicA-583,172.172.1.2:1883,1551659290730,RECEIVED
Subscriber_001,topicA,topicA-584,172.172.1.2:1883,1551659290835,RECEIVED
Subscriber_001,topicA,topicA-585,172.172.1.2:1883,1551659290941,RECEIVED
Subscriber_001,topicA,topicA-586,172.172.1.2:1883,1551659291033,RECEIVED
Subscriber_001,topicA,topicA-587,172.172.1.2:1883,1551659291136,RECEIVED
Subscriber_001,topicA,topicA-588,172.172.1.2:1883,1551659291239,RECEIVED
Subscriber_001,topicA,topicA-589,172.172.1.2:1883,1551659291339,RECEIVED
Subscriber_001,topicA,topicA-590,172.172.1.2:1883,1551659291437,RECEIVED
Subscriber_001,topicA,topicA-591,172.172.1.2:1883,1551659291534,RECEIVED
Subscriber_001,topicA,topicA-592,172.172.1.2:1883,1551659291635,RECEIVED
Subscriber_001,topicA,topicA-593,172.172.1.2:1883,1551659291735,RECEIVED
Subscriber_001,topicA,topicA-594,172.172.1.2:1883,1551659291832,RECEIVED
Subscriber_001,topicA,topicA-595,172.172.1.2:1883,1551659291943,RECEIVED
Subscriber_001,topicA,topicA-596,172.172.1.2:1883,1551659292035,RECEIVED
Subscriber_001,topicA,topicA-597,172.172.1.2:1883,1551659292137,RECEIVED
Subscriber_001,topicA,topicA-598,172.172.1.2:1883,1551659292232,RECEIVED
Subscriber_001,topicA,topicA-599,172.172.1.2:1883,1551659292335,RECEIVED
Subscriber_001,topicA,topicA-600,172.172.1.2:1883,1551659292436,RECEIVED
Subscriber_001,topicA,topicA-601,172.172.1.2:1883,1551659292539,RECEIVED
Subscriber_001,topicA,topicA-602,172.172.1.2:1883,1551659292642,RECEIVED
Subscriber_001,topicA,topicA-603,172.172.1.2:1883,1551659292741,RECEIVED
Subscriber_001,topicA,topicA-604,172.172.1.2:1883,1551659292836,RECEIVED
Subscriber_001,topicA,topicA-605,172.172.1.2:1883,1551659292937,RECEIVED
Subscriber_001,topicA,topicA-606,172.172.1.2:1883,1551659293041,RECEIVED
Subscriber_001,topicA,topicA-607,172.172.1.2:1883,1551659293153,RECEIVED
Subscriber_001,topicA,topicA-608,172.172.1.2:1883,1551659293236,RECEIVED
Subscriber_001,topicA,topicA-609,172.172.1.2:1883,1551659293340,RECEIVED
Subscriber_001,topicA,topicA-610,172.172.1.2:1883,1551659293434,RECEIVED
Subscriber_001,topicA,topicA-611,172.172.1.2:1883,1551659293535,RECEIVED
Subscriber_001,topicA,topicA-612,172.172.1.2:1883,1551659293639,RECEIVED
Subscriber_001,topicA,topicA-613,172.172.1.2:1883,1551659293732,RECEIVED
Subscriber_001,topicA,topicA-614,172.172.1.2:1883,1551659293858,RECEIVED
Subscriber_001,topicA,topicA-615,172.172.1.2:1883,1551659293945,RECEIVED
Subscriber_001,topicA,topicA-616,172.172.1.2:1883,1551659294043,RECEIVED
Subscriber_001,topicA,topicA-617,172.172.1.2:1883,1551659294158,RECEIVED
Subscriber_001,topicA,topicA-618,172.172.1.2:1883,1551659294235,RECEIVED
Subscriber_001,topicA,topicA-619,172.172.1.2:1883,1551659294335,RECEIVED
Subscriber_001,topicA,topicA-620,172.172.1.2:1883,1551659294431,RECEIVED
Subscriber_001,topicA,topicA-621,172.172.1.2:1883,1551659294539,RECEIVED
Subscriber_001,topicA,topicA-622,172.172.1.2:1883,1551659294640,RECEIVED
Subscriber_001,topicA,topicA-623,172.172.1.2:1883,1551659294738,RECEIVED
Subscriber_001,topicA,topicA-624,172.172.1.2:1883,1551659294841,RECEIVED
Subscriber_001,topicA,topicA-625,172.172.1.2:1883,1551659294934,RECEIVED
Subscriber_001,topicA,topicA-626,172.172.1.2:1883,1551659295040,RECEIVED
Subscriber_001,topicA,topicA-627,172.172.1.2:1883,1551659295134,RECEIVED
Subscriber_001,topicA,topicA-628,172.172.1.2:1883,1551659295230,RECEIVED
Subscriber_001,topicA,topicA-629,172.172.1.2:1883,1551659295337,RECEIVED
Subscriber_001,topicA,topicA-630,172.172.1.2:1883,1551659295440,RECEIVED
Subscriber_001,topicA,topicA-631,172.172.1.2:1883,1551659295540,RECEIVED
Subscriber_001,topicA,topicA-632,172.172.1.2:1883,1551659295634,RECEIVED
Subscriber_001,topicA,topicA-633,172.172.1.2:1883,1551659295733,RECEIVED
Subscriber_001,topicA,topicA-634,172.172.1.2:1883,1551659295833,RECEIVED
Subscriber_001,topicA,topicA-635,172.172.1.2:1883,1551659295940,RECEIVED
Subscriber_001,topicA,topicA-636,172.172.1.2:1883,1551659296029,RECEIVED
Subscriber_001,topicA,topicA-637,172.172.1.2:1883,1551659296134,RECEIVED
Subscriber_001,topicA,topicA-638,172.172.1.2:1883,1551659296240,RECEIVED
Subscriber_001,topicA,topicA-639,172.172.1.2:1883,1551659296331,RECEIVED
Subscriber_001,topicA,topicA-640,172.172.1.2:1883,1551659296442,RECEIVED
Subscriber_001,topicA,topicA-641,172.172.1.2:1883,1551659296534,RECEIVED
