timestamp,event,migrationId
1551650935439,INITIALIZED,034259e5-3f88-4f7a-89eb-c0a3ff20b846
1551650935443,topicA-INITIALIZED,034259e5-3f88-4f7a-89eb-c0a3ff20b846
1551650935957,SYNCING,034259e5-3f88-4f7a-89eb-c0a3ff20b846
1551650935964,topicA-SYNCING,034259e5-3f88-4f7a-89eb-c0a3ff20b846
1551650937852,topicA-SYNCED,034259e5-3f88-4f7a-89eb-c0a3ff20b846
1551650937853,SYNCED,034259e5-3f88-4f7a-89eb-c0a3ff20b846
1551650937918,topicA-FINISHED,034259e5-3f88-4f7a-89eb-c0a3ff20b846
1551650937919,FINISHED,034259e5-3f88-4f7a-89eb-c0a3ff20b846
