clientId,topic,guid,broker,timestamp,type
Publisher_002,topicA,topicA-1,172.172.1.2:1883,1551645201722,PRODUCED
Publisher_002,topicA,topicA-2,172.172.1.2:1883,1551645201967,PRODUCED
Publisher_002,topicA,topicA-3,172.172.1.2:1883,1551645201972,PRODUCED
Publisher_002,topicA,topicA-4,172.172.1.2:1883,1551645201977,PRODUCED
Publisher_002,topicA,topicA-5,172.172.1.2:1883,1551645201985,PRODUCED
Publisher_002,topicA,topicA-6,172.172.1.2:1883,1551645202057,PRODUCED
Publisher_002,topicA,topicA-7,172.172.1.2:1883,1551645202157,PRODUCED
Publisher_002,topicA,topicA-8,172.172.1.2:1883,1551645202257,PRODUCED
Publisher_002,topicA,topicA-9,172.172.1.2:1883,1551645202357,PRODUCED
Publisher_002,topicA,topicA-10,172.172.1.2:1883,1551645202457,PRODUCED
Publisher_002,topicA,topicA-11,172.172.1.2:1883,1551645202557,PRODUCED
Publisher_002,topicA,topicA-12,172.172.1.2:1883,1551645202657,PRODUCED
Publisher_002,topicA,topicA-13,172.172.1.2:1883,1551645202757,PRODUCED
Publisher_002,topicA,topicA-14,172.172.1.2:1883,1551645202857,PRODUCED
Publisher_002,topicA,topicA-15,172.172.1.2:1883,1551645202957,PRODUCED
Publisher_002,topicA,topicA-16,172.172.1.2:1883,1551645203057,PRODUCED
Publisher_002,topicA,topicA-17,172.172.1.2:1883,1551645203158,PRODUCED
Publisher_002,topicA,topicA-18,172.172.1.2:1883,1551645203257,PRODUCED
Publisher_002,topicA,topicA-19,172.172.1.2:1883,1551645203357,PRODUCED
Publisher_002,topicA,topicA-20,172.172.1.2:1883,1551645203457,PRODUCED
Publisher_002,topicA,topicA-21,172.172.1.2:1883,1551645203557,PRODUCED
Publisher_002,topicA,topicA-22,172.172.1.2:1883,1551645203660,PRODUCED
Publisher_002,topicA,topicA-23,172.172.1.2:1883,1551645203758,PRODUCED
Publisher_002,topicA,topicA-24,172.172.1.2:1883,1551645203859,PRODUCED
Publisher_002,topicA,topicA-25,172.172.1.2:1883,1551645203959,PRODUCED
Publisher_002,topicA,topicA-26,172.172.1.2:1883,1551645204058,PRODUCED
Publisher_002,topicA,topicA-27,172.172.1.2:1883,1551645204158,PRODUCED
Publisher_002,topicA,topicA-28,172.172.1.2:1883,1551645204258,PRODUCED
Publisher_002,topicA,topicA-29,172.172.1.2:1883,1551645204357,PRODUCED
Publisher_002,topicA,topicA-30,172.172.1.2:1883,1551645204457,PRODUCED
Publisher_002,topicA,topicA-31,172.172.1.2:1883,1551645204558,PRODUCED
Publisher_002,topicA,topicA-32,172.172.1.2:1883,1551645204658,PRODUCED
Publisher_002,topicA,topicA-33,172.172.1.2:1883,1551645204758,PRODUCED
Publisher_002,topicA,topicA-34,172.172.1.2:1883,1551645204858,PRODUCED
Publisher_002,topicA,topicA-35,172.172.1.2:1883,1551645204958,PRODUCED
Publisher_002,topicA,topicA-36,172.172.1.2:1883,1551645205058,PRODUCED
Publisher_002,topicA,topicA-37,172.172.1.2:1883,1551645205157,PRODUCED
Publisher_002,topicA,topicA-38,172.172.1.2:1883,1551645205257,PRODUCED
Publisher_002,topicA,topicA-39,172.172.1.2:1883,1551645205357,PRODUCED
Publisher_002,topicA,topicA-40,172.172.1.2:1883,1551645205457,PRODUCED
Publisher_002,topicA,topicA-41,172.172.1.2:1883,1551645205557,PRODUCED
Publisher_002,topicA,topicA-42,172.172.1.2:1883,1551645205658,PRODUCED
Publisher_002,topicA,topicA-43,172.172.1.2:1883,1551645205757,PRODUCED
Publisher_002,topicA,topicA-44,172.172.1.2:1883,1551645205857,PRODUCED
Publisher_002,topicA,topicA-45,172.172.1.2:1883,1551645205962,PRODUCED
Publisher_002,topicA,topicA-46,172.172.1.2:1883,1551645206057,PRODUCED
Publisher_002,topicA,topicA-47,172.172.1.2:1883,1551645206160,PRODUCED
Publisher_002,topicA,topicA-48,172.172.1.2:1883,1551645206258,PRODUCED
Publisher_002,topicA,topicA-49,172.172.1.2:1883,1551645206360,PRODUCED
Publisher_002,topicA,topicA-50,172.172.1.2:1883,1551645206457,PRODUCED
Publisher_002,topicA,topicA-51,172.172.1.2:1883,1551645206557,PRODUCED
Publisher_002,topicA,topicA-52,172.172.1.2:1883,1551645206657,PRODUCED
Publisher_002,topicA,topicA-53,172.172.1.2:1883,1551645206757,PRODUCED
Publisher_002,topicA,topicA-54,172.172.1.2:1883,1551645206858,PRODUCED
Publisher_002,topicA,topicA-55,172.172.1.2:1883,1551645206957,PRODUCED
Publisher_002,topicA,topicA-56,172.172.1.2:1883,1551645207061,PRODUCED
Publisher_002,topicA,topicA-57,172.172.1.2:1883,1551645207157,PRODUCED
Publisher_002,topicA,topicA-58,172.172.1.2:1883,1551645207257,PRODUCED
Publisher_002,topicA,topicA-59,172.172.1.2:1883,1551645207358,PRODUCED
Publisher_002,topicA,topicA-60,172.172.1.2:1883,1551645207457,PRODUCED
Publisher_002,topicA,topicA-61,172.172.1.2:1883,1551645207558,PRODUCED
Publisher_002,topicA,topicA-62,172.172.1.2:1883,1551645207658,PRODUCED
Publisher_002,topicA,topicA-63,172.172.1.2:1883,1551645207758,PRODUCED
Publisher_002,topicA,topicA-64,172.172.1.2:1883,1551645207858,PRODUCED
Publisher_002,topicA,topicA-65,172.172.1.2:1883,1551645207958,PRODUCED
Publisher_002,topicA,topicA-66,172.172.1.2:1883,1551645208063,PRODUCED
Publisher_002,topicA,topicA-67,172.172.1.2:1883,1551645208158,PRODUCED
Publisher_002,topicA,topicA-68,172.172.1.2:1883,1551645208258,PRODUCED
Publisher_002,topicA,topicA-69,172.172.1.2:1883,1551645208358,PRODUCED
Publisher_002,topicA,topicA-70,172.172.1.2:1883,1551645208465,PRODUCED
Publisher_002,topicA,topicA-71,172.172.1.2:1883,1551645208557,PRODUCED
Publisher_002,topicA,topicA-72,172.172.1.2:1883,1551645208659,PRODUCED
Publisher_002,topicA,topicA-73,172.172.1.2:1883,1551645208758,PRODUCED
Publisher_002,topicA,topicA-74,172.172.1.2:1883,1551645208857,PRODUCED
Publisher_002,topicA,topicA-75,172.172.1.2:1883,1551645208964,PRODUCED
Publisher_002,topicA,topicA-76,172.172.1.2:1883,1551645209058,PRODUCED
Publisher_002,topicA,topicA-77,172.172.1.2:1883,1551645209160,PRODUCED
Publisher_002,topicA,topicA-78,172.172.1.2:1883,1551645209257,PRODUCED
Publisher_002,topicA,topicA-79,172.172.1.2:1883,1551645209357,PRODUCED
Publisher_002,topicA,topicA-80,172.172.1.2:1883,1551645209457,PRODUCED
Publisher_002,topicA,topicA-81,172.172.1.2:1883,1551645209557,PRODUCED
Publisher_002,topicA,topicA-82,172.172.1.2:1883,1551645209659,PRODUCED
Publisher_002,topicA,topicA-83,172.172.1.2:1883,1551645209757,PRODUCED
Publisher_002,topicA,topicA-84,172.172.1.2:1883,1551645209857,PRODUCED
Publisher_002,topicA,topicA-85,172.172.1.2:1883,1551645209957,PRODUCED
Publisher_002,topicA,topicA-86,172.172.1.2:1883,1551645210058,PRODUCED
Publisher_002,topicA,topicA-87,172.172.1.2:1883,1551645210157,PRODUCED
Publisher_002,topicA,topicA-88,172.172.1.2:1883,1551645210257,PRODUCED
Publisher_002,topicA,topicA-89,172.172.1.2:1883,1551645210358,PRODUCED
Publisher_002,topicA,topicA-90,172.172.1.2:1883,1551645210458,PRODUCED
Publisher_002,topicA,topicA-91,172.172.1.2:1883,1551645210557,PRODUCED
Publisher_002,topicA,topicA-92,172.172.1.2:1883,1551645210658,PRODUCED
Publisher_002,topicA,topicA-93,172.172.1.2:1883,1551645210757,PRODUCED
Publisher_002,topicA,topicA-94,172.172.1.2:1883,1551645210857,PRODUCED
Publisher_002,topicA,topicA-95,172.172.1.2:1883,1551645210958,PRODUCED
Publisher_002,topicA,topicA-96,172.172.1.2:1883,1551645211057,PRODUCED
Publisher_002,topicA,topicA-97,172.172.1.2:1883,1551645211157,PRODUCED
Publisher_002,topicA,topicA-98,172.172.1.2:1883,1551645211260,PRODUCED
Publisher_002,topicA,topicA-99,172.172.1.2:1883,1551645211357,PRODUCED
Publisher_002,topicA,topicA-100,172.172.1.2:1883,1551645211458,PRODUCED
Publisher_002,topicA,topicA-101,172.172.1.2:1883,1551645211564,PRODUCED
Publisher_002,topicA,topicA-102,172.172.1.2:1883,1551645211659,PRODUCED
Publisher_002,topicA,topicA-103,172.172.1.2:1883,1551645211759,PRODUCED
Publisher_002,topicA,topicA-104,172.172.1.2:1883,1551645211859,PRODUCED
Publisher_002,topicA,topicA-105,172.172.1.2:1883,1551645211958,PRODUCED
Publisher_002,topicA,topicA-106,172.172.1.2:1883,1551645212059,PRODUCED
Publisher_002,topicA,topicA-107,172.172.1.2:1883,1551645212157,PRODUCED
Publisher_002,topicA,topicA-108,172.172.1.2:1883,1551645212258,PRODUCED
Publisher_002,topicA,topicA-109,172.172.1.2:1883,1551645212359,PRODUCED
Publisher_002,topicA,topicA-110,172.172.1.2:1883,1551645212457,PRODUCED
Publisher_002,topicA,topicA-111,172.172.1.2:1883,1551645212557,PRODUCED
Publisher_002,topicA,topicA-112,172.172.1.2:1883,1551645212657,PRODUCED
Publisher_002,topicA,topicA-113,172.172.1.2:1883,1551645212758,PRODUCED
Publisher_002,topicA,topicA-114,172.172.1.2:1883,1551645212858,PRODUCED
Publisher_002,topicA,topicA-115,172.172.1.2:1883,1551645212958,PRODUCED
Publisher_002,topicA,topicA-116,172.172.1.2:1883,1551645213058,PRODUCED
Publisher_002,topicA,topicA-117,172.172.1.2:1883,1551645213159,PRODUCED
Publisher_002,topicA,topicA-118,172.172.1.2:1883,1551645213257,PRODUCED
Publisher_002,topicA,topicA-119,172.172.1.2:1883,1551645213358,PRODUCED
Publisher_002,topicA,topicA-120,172.172.1.2:1883,1551645213463,PRODUCED
Publisher_002,topicA,topicA-121,172.172.1.2:1883,1551645213558,PRODUCED
Publisher_002,topicA,topicA-122,172.172.1.2:1883,1551645213658,PRODUCED
Publisher_002,topicA,topicA-123,172.172.1.2:1883,1551645213764,PRODUCED
Publisher_002,topicA,topicA-124,172.172.1.2:1883,1551645213858,PRODUCED
Publisher_002,topicA,topicA-125,172.172.1.2:1883,1551645213957,PRODUCED
Publisher_002,topicA,topicA-126,172.172.1.2:1883,1551645214057,PRODUCED
Publisher_002,topicA,topicA-127,172.172.1.2:1883,1551645214157,PRODUCED
Publisher_002,topicA,topicA-128,172.172.1.2:1883,1551645214258,PRODUCED
Publisher_002,topicA,topicA-129,172.172.1.2:1883,1551645214357,PRODUCED
Publisher_002,topicA,topicA-130,172.172.1.2:1883,1551645214458,PRODUCED
Publisher_002,topicA,topicA-131,172.172.1.2:1883,1551645214557,PRODUCED
Publisher_002,topicA,topicA-132,172.172.1.2:1883,1551645214657,PRODUCED
Publisher_002,topicA,topicA-133,172.172.1.2:1883,1551645214757,PRODUCED
Publisher_002,topicA,topicA-134,172.172.1.2:1883,1551645214857,PRODUCED
Publisher_002,topicA,topicA-135,172.172.1.2:1883,1551645214958,PRODUCED
Publisher_002,topicA,topicA-136,172.172.1.2:1883,1551645215058,PRODUCED
Publisher_002,topicA,topicA-137,172.172.1.2:1883,1551645215159,PRODUCED
Publisher_002,topicA,topicA-138,172.172.1.2:1883,1551645215258,PRODUCED
Publisher_002,topicA,topicA-139,172.172.1.2:1883,1551645215357,PRODUCED
Publisher_002,topicA,topicA-140,172.172.1.2:1883,1551645215458,PRODUCED
Publisher_002,topicA,topicA-141,172.172.1.2:1883,1551645215558,PRODUCED
Publisher_002,topicA,topicA-142,172.172.1.2:1883,1551645215658,PRODUCED
Publisher_002,topicA,topicA-143,172.172.1.2:1883,1551645215758,PRODUCED
Publisher_002,topicA,topicA-144,172.172.1.2:1883,1551645215859,PRODUCED
Publisher_002,topicA,topicA-145,172.172.1.2:1883,1551645215958,PRODUCED
Publisher_002,topicA,topicA-146,172.172.1.2:1883,1551645216058,PRODUCED
Publisher_002,topicA,topicA-147,172.172.1.2:1883,1551645216158,PRODUCED
Publisher_002,topicA,topicA-148,172.172.1.2:1883,1551645216260,PRODUCED
Publisher_002,topicA,topicA-149,172.172.1.2:1883,1551645216357,PRODUCED
Publisher_002,topicA,topicA-150,172.172.1.2:1883,1551645216458,PRODUCED
Publisher_002,topicA,topicA-151,172.172.1.2:1883,1551645216557,PRODUCED
Publisher_002,topicA,topicA-152,172.172.1.2:1883,1551645216657,PRODUCED
Publisher_002,topicA,topicA-153,172.172.1.2:1883,1551645216758,PRODUCED
Publisher_002,topicA,topicA-154,172.172.1.2:1883,1551645216857,PRODUCED
Publisher_002,topicA,topicA-155,172.172.1.2:1883,1551645216958,PRODUCED
Publisher_002,topicA,topicA-156,172.172.1.2:1883,1551645217057,PRODUCED
Publisher_002,topicA,topicA-157,172.172.1.2:1883,1551645217158,PRODUCED
Publisher_002,topicA,topicA-158,172.172.1.2:1883,1551645217257,PRODUCED
Publisher_002,topicA,topicA-159,172.172.1.2:1883,1551645217358,PRODUCED
Publisher_002,topicA,topicA-160,172.172.1.2:1883,1551645217457,PRODUCED
Publisher_002,topicA,topicA-161,172.172.1.2:1883,1551645217560,PRODUCED
Publisher_002,topicA,topicA-162,172.172.1.2:1883,1551645217657,PRODUCED
Publisher_002,topicA,topicA-163,172.172.1.2:1883,1551645217757,PRODUCED
Publisher_002,topicA,topicA-164,172.172.1.2:1883,1551645217857,PRODUCED
Publisher_002,topicA,topicA-165,172.172.1.2:1883,1551645217960,PRODUCED
Publisher_002,topicA,topicA-166,172.172.1.2:1883,1551645218057,PRODUCED
Publisher_002,topicA,topicA-167,172.172.1.2:1883,1551645218158,PRODUCED
Publisher_002,topicA,topicA-168,172.172.1.2:1883,1551645218258,PRODUCED
Publisher_002,topicA,topicA-169,172.172.1.2:1883,1551645218357,PRODUCED
Publisher_002,topicA,topicA-170,172.172.1.2:1883,1551645218457,PRODUCED
Publisher_002,topicA,topicA-171,172.172.1.2:1883,1551645218557,PRODUCED
Publisher_002,topicA,topicA-172,172.172.1.2:1883,1551645218658,PRODUCED
Publisher_002,topicA,topicA-173,172.172.1.2:1883,1551645218758,PRODUCED
Publisher_002,topicA,topicA-174,172.172.1.2:1883,1551645218858,PRODUCED
Publisher_002,topicA,topicA-175,172.172.1.2:1883,1551645218958,PRODUCED
Publisher_002,topicA,topicA-176,172.172.1.2:1883,1551645219058,PRODUCED
Publisher_002,topicA,topicA-177,172.172.1.2:1883,1551645219157,PRODUCED
Publisher_002,topicA,topicA-178,172.172.1.2:1883,1551645219259,PRODUCED
Publisher_002,topicA,topicA-179,172.172.1.2:1883,1551645219358,PRODUCED
Publisher_002,topicA,topicA-180,172.172.1.2:1883,1551645219458,PRODUCED
Publisher_002,topicA,topicA-181,172.172.1.2:1883,1551645219557,PRODUCED
Publisher_002,topicA,topicA-182,172.172.1.2:1883,1551645219657,PRODUCED
Publisher_002,topicA,topicA-183,172.172.1.2:1883,1551645219757,PRODUCED
Publisher_002,topicA,topicA-184,172.172.1.2:1883,1551645219857,PRODUCED
Publisher_002,topicA,topicA-185,172.172.1.2:1883,1551645219965,PRODUCED
Publisher_002,topicA,topicA-186,172.172.1.2:1883,1551645220057,PRODUCED
Publisher_002,topicA,topicA-187,172.172.1.2:1883,1551645220157,PRODUCED
Publisher_002,topicA,topicA-188,172.172.1.2:1883,1551645220257,PRODUCED
Publisher_002,topicA,topicA-189,172.172.1.2:1883,1551645220357,PRODUCED
Publisher_002,topicA,topicA-190,172.172.1.2:1883,1551645220462,PRODUCED
Publisher_002,topicA,topicA-191,172.172.1.2:1883,1551645220559,PRODUCED
Publisher_002,topicA,topicA-192,172.172.1.2:1883,1551645220662,PRODUCED
Publisher_002,topicA,topicA-193,172.172.1.2:1883,1551645220758,PRODUCED
Publisher_002,topicA,topicA-194,172.172.1.2:1883,1551645220859,PRODUCED
Publisher_002,topicA,topicA-195,172.172.1.2:1883,1551645220958,PRODUCED
Publisher_002,topicA,topicA-196,172.172.1.2:1883,1551645221057,PRODUCED
Publisher_002,topicA,topicA-197,172.172.1.2:1883,1551645221157,PRODUCED
Publisher_002,topicA,topicA-198,172.172.1.2:1883,1551645221258,PRODUCED
Publisher_002,topicA,topicA-199,172.172.1.2:1883,1551645221357,PRODUCED
Publisher_002,topicA,topicA-200,172.172.1.2:1883,1551645221457,PRODUCED
Publisher_002,topicA,topicA-201,172.172.1.2:1883,1551645221557,PRODUCED
Publisher_002,topicA,topicA-202,172.172.1.2:1883,1551645221657,PRODUCED
Publisher_002,topicA,topicA-203,172.172.1.2:1883,1551645221757,PRODUCED
Publisher_002,topicA,topicA-204,172.172.1.2:1883,1551645221857,PRODUCED
Publisher_002,topicA,topicA-205,172.172.1.2:1883,1551645221957,PRODUCED
Publisher_002,topicA,topicA-206,172.172.1.2:1883,1551645222058,PRODUCED
Publisher_002,topicA,topicA-207,172.172.1.2:1883,1551645222160,PRODUCED
Publisher_002,topicA,topicA-208,172.172.1.2:1883,1551645222258,PRODUCED
Publisher_002,topicA,topicA-209,172.172.1.2:1883,1551645222357,PRODUCED
Publisher_002,topicA,topicA-210,172.172.1.2:1883,1551645222457,PRODUCED
Publisher_002,topicA,topicA-211,172.172.1.2:1883,1551645222558,PRODUCED
Publisher_002,topicA,topicA-212,172.172.1.2:1883,1551645222658,PRODUCED
Publisher_002,topicA,topicA-213,172.172.1.2:1883,1551645222757,PRODUCED
Publisher_002,topicA,topicA-214,172.172.1.2:1883,1551645222859,PRODUCED
Publisher_002,topicA,topicA-215,172.172.1.2:1883,1551645222957,PRODUCED
Publisher_002,topicA,topicA-216,172.172.1.2:1883,1551645223057,PRODUCED
Publisher_002,topicA,topicA-217,172.172.1.2:1883,1551645223157,PRODUCED
Publisher_002,topicA,topicA-218,172.172.1.2:1883,1551645223257,PRODUCED
Publisher_002,topicA,topicA-219,172.172.1.2:1883,1551645223357,PRODUCED
Publisher_002,topicA,topicA-220,172.172.1.2:1883,1551645223458,PRODUCED
Publisher_002,topicA,topicA-221,172.172.1.2:1883,1551645223557,PRODUCED
Publisher_002,topicA,topicA-222,172.172.1.2:1883,1551645223658,PRODUCED
Publisher_002,topicA,topicA-223,172.172.1.2:1883,1551645223758,PRODUCED
Publisher_002,topicA,topicA-224,172.172.1.2:1883,1551645223858,PRODUCED
Publisher_002,topicA,topicA-225,172.172.1.2:1883,1551645223959,PRODUCED
Publisher_002,topicA,topicA-226,172.172.1.2:1883,1551645224058,PRODUCED
Publisher_002,topicA,topicA-227,172.172.1.2:1883,1551645224158,PRODUCED
Publisher_002,topicA,topicA-228,172.172.1.2:1883,1551645224258,PRODUCED
Publisher_002,topicA,topicA-229,172.172.1.2:1883,1551645224365,PRODUCED
Publisher_002,topicA,topicA-230,172.172.1.2:1883,1551645224458,PRODUCED
Publisher_002,topicA,topicA-231,172.172.1.2:1883,1551645224559,PRODUCED
Publisher_002,topicA,topicA-232,172.172.1.2:1883,1551645224659,PRODUCED
Publisher_002,topicA,topicA-233,172.172.1.2:1883,1551645224758,PRODUCED
Publisher_002,topicA,topicA-234,172.172.1.2:1883,1551645224857,PRODUCED
Publisher_002,topicA,topicA-235,172.172.1.2:1883,1551645224957,PRODUCED
Publisher_002,topicA,topicA-236,172.172.1.2:1883,1551645225058,PRODUCED
Publisher_002,topicA,topicA-237,172.172.1.2:1883,1551645225158,PRODUCED
Publisher_002,topicA,topicA-238,172.172.1.2:1883,1551645225258,PRODUCED
Publisher_002,topicA,topicA-239,172.172.1.2:1883,1551645225357,PRODUCED
Publisher_002,topicA,topicA-240,172.172.1.2:1883,1551645225457,PRODUCED
Publisher_002,topicA,topicA-241,172.172.1.2:1883,1551645225557,PRODUCED
Publisher_002,topicA,topicA-242,172.172.1.2:1883,1551645225660,PRODUCED
Publisher_002,topicA,topicA-243,172.172.1.2:1883,1551645225757,PRODUCED
Publisher_002,topicA,topicA-244,172.172.1.2:1883,1551645225857,PRODUCED
Publisher_002,topicA,topicA-245,172.172.1.2:1883,1551645225957,PRODUCED
Publisher_002,topicA,topicA-246,172.172.1.2:1883,1551645226058,PRODUCED
Publisher_002,topicA,topicA-247,172.172.1.2:1883,1551645226160,PRODUCED
Publisher_002,topicA,topicA-248,172.172.1.2:1883,1551645226263,PRODUCED
Publisher_002,topicA,topicA-249,172.172.1.2:1883,1551645226357,PRODUCED
Publisher_002,topicA,topicA-250,172.172.1.2:1883,1551645226457,PRODUCED
Publisher_002,topicA,topicA-251,172.172.1.2:1883,1551645226559,PRODUCED
Publisher_002,topicA,topicA-252,172.172.1.2:1883,1551645226657,PRODUCED
Publisher_002,topicA,topicA-253,172.172.1.2:1883,1551645226757,PRODUCED
Publisher_002,topicA,topicA-254,172.172.1.2:1883,1551645226857,PRODUCED
Publisher_002,topicA,topicA-255,172.172.1.2:1883,1551645226958,PRODUCED
Publisher_002,topicA,topicA-256,172.172.1.2:1883,1551645227057,PRODUCED
Publisher_002,topicA,topicA-257,172.172.1.2:1883,1551645227157,PRODUCED
Publisher_002,topicA,topicA-258,172.172.1.2:1883,1551645227257,PRODUCED
Publisher_002,topicA,topicA-259,172.172.1.2:1883,1551645227358,PRODUCED
Publisher_002,topicA,topicA-260,172.172.1.2:1883,1551645227458,PRODUCED
Publisher_002,topicA,topicA-261,172.172.1.2:1883,1551645227558,PRODUCED
Publisher_002,topicA,topicA-262,172.172.1.2:1883,1551645227659,PRODUCED
Publisher_002,topicA,topicA-263,172.172.1.2:1883,1551645227758,PRODUCED
Publisher_002,topicA,topicA-264,172.172.1.2:1883,1551645227858,PRODUCED
Publisher_002,topicA,topicA-265,172.172.1.2:1883,1551645227958,PRODUCED
Publisher_002,topicA,topicA-266,172.172.1.2:1883,1551645228057,PRODUCED
Publisher_002,topicA,topicA-267,172.172.1.2:1883,1551645228158,PRODUCED
Publisher_002,topicA,topicA-268,172.172.1.2:1883,1551645228258,PRODUCED
Publisher_002,topicA,topicA-269,172.172.1.2:1883,1551645228366,PRODUCED
Publisher_002,topicA,topicA-270,172.172.1.2:1883,1551645228458,PRODUCED
Publisher_002,topicA,topicA-271,172.172.1.2:1883,1551645228558,PRODUCED
Publisher_002,topicA,topicA-272,172.172.1.2:1883,1551645228657,PRODUCED
Publisher_002,topicA,topicA-273,172.172.1.2:1883,1551645228757,PRODUCED
Publisher_002,topicA,topicA-274,172.172.1.2:1883,1551645228858,PRODUCED
Publisher_002,topicA,topicA-275,172.172.1.2:1883,1551645228958,PRODUCED
Publisher_002,topicA,topicA-276,172.172.1.2:1883,1551645229059,PRODUCED
Publisher_002,topicA,topicA-277,172.172.1.2:1883,1551645229161,PRODUCED
Publisher_002,topicA,topicA-278,172.172.1.2:1883,1551645229257,PRODUCED
Publisher_002,topicA,topicA-279,172.172.1.2:1883,1551645229358,PRODUCED
Publisher_002,topicA,topicA-280,172.172.1.2:1883,1551645229458,PRODUCED
Publisher_002,topicA,topicA-281,172.172.1.2:1883,1551645229558,PRODUCED
Publisher_002,topicA,topicA-282,172.172.1.2:1883,1551645229658,PRODUCED
Publisher_002,topicA,topicA-283,172.172.1.2:1883,1551645229761,PRODUCED
Publisher_002,topicA,topicA-284,172.172.1.2:1883,1551645229860,PRODUCED
Publisher_002,topicA,topicA-285,172.172.1.2:1883,1551645229958,PRODUCED
Publisher_002,topicA,topicA-286,172.172.1.2:1883,1551645230059,PRODUCED
Publisher_002,topicA,topicA-287,172.172.1.2:1883,1551645230158,PRODUCED
Publisher_002,topicA,topicA-288,172.172.1.2:1883,1551645230258,PRODUCED
Publisher_002,topicA,topicA-289,172.172.1.2:1883,1551645230357,PRODUCED
Publisher_002,topicA,topicA-290,172.172.1.2:1883,1551645230457,PRODUCED
Publisher_002,topicA,topicA-291,172.172.1.2:1883,1551645230558,PRODUCED
Publisher_002,topicA,topicA-292,172.172.1.2:1883,1551645230659,PRODUCED
Publisher_002,topicA,topicA-293,172.172.1.2:1883,1551645230757,PRODUCED
Publisher_002,topicA,topicA-294,172.172.1.2:1883,1551645230857,PRODUCED
Publisher_002,topicA,topicA-295,172.172.1.2:1883,1551645230957,PRODUCED
Publisher_002,topicA,topicA-296,172.172.1.2:1883,1551645231061,PRODUCED
Publisher_002,topicA,topicA-297,172.172.1.2:1883,1551645231159,PRODUCED
Publisher_002,topicA,topicA-298,172.172.1.2:1883,1551645231258,PRODUCED
Publisher_002,topicA,topicA-299,172.172.1.2:1883,1551645231358,PRODUCED
Publisher_002,topicA,topicA-300,172.172.1.2:1883,1551645231458,PRODUCED
Publisher_002,topicA,topicA-301,172.172.1.2:1883,1551645231557,PRODUCED
Publisher_002,topicA,topicA-302,172.172.1.2:1883,1551645231658,PRODUCED
Publisher_002,topicA,topicA-303,172.172.1.2:1883,1551645231757,PRODUCED
Publisher_002,topicA,topicA-304,172.172.1.2:1883,1551645231858,PRODUCED
Publisher_002,topicA,topicA-305,172.172.1.2:1883,1551645231958,PRODUCED
Publisher_002,topicA,topicA-306,172.172.1.2:1883,1551645232057,PRODUCED
Publisher_002,topicA,topicA-307,172.172.1.2:1883,1551645232157,PRODUCED
Publisher_002,topicA,topicA-308,172.172.1.2:1883,1551645232262,PRODUCED
Publisher_002,topicA,topicA-309,172.172.1.2:1883,1551645232357,PRODUCED
Publisher_002,topicA,topicA-310,172.172.1.2:1883,1551645232458,PRODUCED
Publisher_002,topicA,topicA-311,172.172.1.2:1883,1551645232560,PRODUCED
Publisher_002,topicA,topicA-312,172.172.1.2:1883,1551645232659,PRODUCED
Publisher_002,topicA,topicA-313,172.172.1.2:1883,1551645232758,PRODUCED
Publisher_002,topicA,topicA-314,172.172.1.2:1883,1551645232857,PRODUCED
Publisher_002,topicA,topicA-315,172.172.1.2:1883,1551645232958,PRODUCED
Publisher_002,topicA,topicA-316,172.172.1.2:1883,1551645233057,PRODUCED
Publisher_002,topicA,topicA-317,172.172.1.2:1883,1551645233164,PRODUCED
Publisher_002,topicA,topicA-318,172.172.1.2:1883,1551645233259,PRODUCED
Publisher_002,topicA,topicA-319,172.172.1.2:1883,1551645233363,PRODUCED
Publisher_002,topicA,topicA-320,172.172.1.2:1883,1551645233458,PRODUCED
Publisher_002,topicA,topicA-321,172.172.1.2:1883,1551645233557,PRODUCED
Publisher_002,topicA,topicA-322,172.172.1.2:1883,1551645233657,PRODUCED
Publisher_002,topicA,topicA-323,172.172.1.2:1883,1551645233758,PRODUCED
Publisher_002,topicA,topicA-324,172.172.1.2:1883,1551645233858,PRODUCED
Publisher_002,topicA,topicA-325,172.172.1.2:1883,1551645233958,PRODUCED
Publisher_002,topicA,topicA-326,172.172.1.2:1883,1551645234057,PRODUCED
Publisher_002,topicA,topicA-327,172.172.1.2:1883,1551645234158,PRODUCED
Publisher_002,topicA,topicA-328,172.172.1.2:1883,1551645234257,PRODUCED
Publisher_002,topicA,topicA-329,172.172.1.2:1883,1551645234358,PRODUCED
Publisher_002,topicA,topicA-330,172.172.1.2:1883,1551645234458,PRODUCED
Publisher_002,topicA,topicA-331,172.172.1.2:1883,1551645234559,PRODUCED
Publisher_002,topicA,topicA-332,172.172.1.2:1883,1551645234658,PRODUCED
Publisher_002,topicA,topicA-333,172.172.1.2:1883,1551645234757,PRODUCED
Publisher_002,topicA,topicA-334,172.172.1.2:1883,1551645234857,PRODUCED
Publisher_002,topicA,topicA-335,172.172.1.2:1883,1551645234957,PRODUCED
Publisher_002,topicA,topicA-336,172.172.1.2:1883,1551645235060,PRODUCED
Publisher_002,topicA,topicA-337,172.172.1.2:1883,1551645235158,PRODUCED
Publisher_002,topicA,topicA-338,172.172.1.2:1883,1551645235257,PRODUCED
Publisher_002,topicA,topicA-339,172.172.1.2:1883,1551645235357,PRODUCED
Publisher_002,topicA,topicA-340,172.172.1.2:1883,1551645235465,PRODUCED
Publisher_002,topicA,topicA-341,172.172.1.2:1883,1551645235558,PRODUCED
Publisher_002,topicA,topicA-342,172.172.1.2:1883,1551645235657,PRODUCED
Publisher_002,topicA,topicA-343,172.172.1.2:1883,1551645235757,PRODUCED
Publisher_002,topicA,topicA-344,172.172.1.2:1883,1551645235858,PRODUCED
Publisher_002,topicA,topicA-345,172.172.1.2:1883,1551645235957,PRODUCED
Publisher_002,topicA,topicA-346,172.172.1.2:1883,1551645236057,PRODUCED
Publisher_002,topicA,topicA-347,172.172.1.2:1883,1551645236157,PRODUCED
Publisher_002,topicA,topicA-348,172.172.1.2:1883,1551645236257,PRODUCED
Publisher_002,topicA,topicA-349,172.172.1.2:1883,1551645236359,PRODUCED
Publisher_002,topicA,topicA-350,172.172.1.2:1883,1551645236457,PRODUCED
Publisher_002,topicA,topicA-351,172.172.1.2:1883,1551645236557,PRODUCED
Publisher_002,topicA,topicA-352,172.172.1.2:1883,1551645236657,PRODUCED
Publisher_002,topicA,topicA-353,172.172.1.2:1883,1551645236757,PRODUCED
Publisher_002,topicA,topicA-354,172.172.1.2:1883,1551645236858,PRODUCED
Publisher_002,topicA,topicA-355,172.172.1.2:1883,1551645236957,PRODUCED
Publisher_002,topicA,topicA-356,172.172.1.2:1883,1551645237057,PRODUCED
Publisher_002,topicA,topicA-357,172.172.1.2:1883,1551645237158,PRODUCED
Publisher_002,topicA,topicA-358,172.172.1.2:1883,1551645237257,PRODUCED
Publisher_002,topicA,topicA-359,172.172.1.2:1883,1551645237357,PRODUCED
Publisher_002,topicA,topicA-360,172.172.1.2:1883,1551645237457,PRODUCED
Publisher_002,topicA,topicA-361,172.172.1.2:1883,1551645237557,PRODUCED
Publisher_002,topicA,topicA-362,172.172.1.2:1883,1551645237657,PRODUCED
Publisher_002,topicA,topicA-363,172.172.1.2:1883,1551645237758,PRODUCED
Publisher_002,topicA,topicA-364,172.172.1.2:1883,1551645237857,PRODUCED
Publisher_002,topicA,topicA-365,172.172.1.2:1883,1551645237958,PRODUCED
Publisher_002,topicA,topicA-366,172.172.1.2:1883,1551645238057,PRODUCED
Publisher_002,topicA,topicA-367,172.172.1.2:1883,1551645238157,PRODUCED
Publisher_002,topicA,topicA-368,172.172.1.2:1883,1551645238257,PRODUCED
Publisher_002,topicA,topicA-369,172.172.1.2:1883,1551645238358,PRODUCED
Publisher_002,topicA,topicA-370,172.172.1.2:1883,1551645238457,PRODUCED
Publisher_002,topicA,topicA-371,172.172.1.2:1883,1551645238557,PRODUCED
Publisher_002,topicA,topicA-372,172.172.1.2:1883,1551645238663,PRODUCED
Publisher_002,topicA,topicA-373,172.172.1.2:1883,1551645238757,PRODUCED
Publisher_002,topicA,topicA-374,172.172.1.2:1883,1551645238858,PRODUCED
Publisher_002,topicA,topicA-375,172.172.1.2:1883,1551645238958,PRODUCED
Publisher_002,topicA,topicA-376,172.172.1.2:1883,1551645239060,PRODUCED
Publisher_002,topicA,topicA-377,172.172.1.2:1883,1551645239157,PRODUCED
Publisher_002,topicA,topicA-378,172.172.1.2:1883,1551645239257,PRODUCED
Publisher_002,topicA,topicA-379,172.172.1.2:1883,1551645239358,PRODUCED
Publisher_002,topicA,topicA-380,172.172.1.2:1883,1551645239457,PRODUCED
Publisher_002,topicA,topicA-381,172.172.1.2:1883,1551645239558,PRODUCED
Publisher_002,topicA,topicA-382,172.172.1.2:1883,1551645239657,PRODUCED
Publisher_002,topicA,topicA-383,172.172.1.2:1883,1551645239757,PRODUCED
Publisher_002,topicA,topicA-384,172.172.1.2:1883,1551645239858,PRODUCED
Publisher_002,topicA,topicA-385,172.172.1.2:1883,1551645239957,PRODUCED
Publisher_002,topicA,topicA-386,172.172.1.2:1883,1551645240057,PRODUCED
Publisher_002,topicA,topicA-387,172.172.1.2:1883,1551645240158,PRODUCED
Publisher_002,topicA,topicA-388,172.172.1.2:1883,1551645240257,PRODUCED
Publisher_002,topicA,topicA-389,172.172.1.2:1883,1551645240357,PRODUCED
Publisher_002,topicA,topicA-390,172.172.1.2:1883,1551645240457,PRODUCED
Publisher_002,topicA,topicA-391,172.172.1.2:1883,1551645240558,PRODUCED
Publisher_002,topicA,topicA-392,172.172.1.2:1883,1551645240659,PRODUCED
Publisher_002,topicA,topicA-393,172.172.1.2:1883,1551645240763,PRODUCED
Publisher_002,topicA,topicA-394,172.172.1.2:1883,1551645240860,PRODUCED
Publisher_002,topicA,topicA-395,172.172.1.2:1883,1551645240957,PRODUCED
Publisher_002,topicA,topicA-396,172.172.1.2:1883,1551645241058,PRODUCED
Publisher_002,topicA,topicA-397,172.172.1.2:1883,1551645241157,PRODUCED
Publisher_002,topicA,topicA-398,172.172.1.2:1883,1551645241258,PRODUCED
Publisher_002,topicA,topicA-399,172.172.1.2:1883,1551645241357,PRODUCED
Publisher_002,topicA,topicA-400,172.172.1.2:1883,1551645241457,PRODUCED
Publisher_002,topicA,topicA-401,172.172.1.2:1883,1551645241558,PRODUCED
Publisher_002,topicA,topicA-402,172.172.1.2:1883,1551645241657,PRODUCED
Publisher_002,topicA,topicA-403,172.172.1.2:1883,1551645241763,PRODUCED
Publisher_002,topicA,topicA-404,172.172.1.2:1883,1551645241858,PRODUCED
Publisher_002,topicA,topicA-405,172.172.1.2:1883,1551645241973,PRODUCED
Publisher_002,topicA,topicA-406,172.172.1.2:1883,1551645242060,PRODUCED
Publisher_002,topicA,topicA-407,172.172.1.2:1883,1551645242158,PRODUCED
Publisher_002,topicA,topicA-408,172.172.1.2:1883,1551645242257,PRODUCED
Publisher_002,topicA,topicA-409,172.172.1.2:1883,1551645242358,PRODUCED
Publisher_002,topicA,topicA-410,172.172.1.2:1883,1551645242462,PRODUCED
Publisher_002,topicA,topicA-411,172.172.1.2:1883,1551645242557,PRODUCED
Publisher_002,topicA,topicA-412,172.172.1.2:1883,1551645242657,PRODUCED
Publisher_002,topicA,topicA-413,172.172.1.2:1883,1551645242757,PRODUCED
Publisher_002,topicA,topicA-414,172.172.1.2:1883,1551645242857,PRODUCED
Publisher_002,topicA,topicA-415,172.172.1.2:1883,1551645242959,PRODUCED
Publisher_002,topicA,topicA-416,172.172.1.2:1883,1551645243058,PRODUCED
Publisher_002,topicA,topicA-417,172.172.1.2:1883,1551645243157,PRODUCED
Publisher_002,topicA,topicA-418,172.172.1.2:1883,1551645243258,PRODUCED
Publisher_002,topicA,topicA-419,172.172.1.2:1883,1551645243357,PRODUCED
Publisher_002,topicA,topicA-420,172.172.1.2:1883,1551645243461,PRODUCED
Publisher_002,topicA,topicA-421,172.172.1.2:1883,1551645243557,PRODUCED
Publisher_002,topicA,topicA-422,172.172.1.2:1883,1551645243657,PRODUCED
Publisher_002,topicA,topicA-423,172.172.1.2:1883,1551645243758,PRODUCED
Publisher_002,topicA,topicA-424,172.172.1.2:1883,1551645243863,PRODUCED
Publisher_002,topicA,topicA-425,172.172.1.2:1883,1551645243957,PRODUCED
Publisher_002,topicA,topicA-426,172.172.1.2:1883,1551645244058,PRODUCED
Publisher_002,topicA,topicA-427,172.172.1.2:1883,1551645244157,PRODUCED
Publisher_002,topicA,topicA-428,172.172.1.2:1883,1551645244260,PRODUCED
Publisher_002,topicA,topicA-429,172.172.1.2:1883,1551645244363,PRODUCED
Publisher_002,topicA,topicA-430,172.172.1.2:1883,1551645244457,PRODUCED
Publisher_002,topicA,topicA-431,172.172.1.2:1883,1551645244557,PRODUCED
Publisher_002,topicA,topicA-432,172.172.1.2:1883,1551645244657,PRODUCED
Publisher_002,topicA,topicA-433,172.172.1.2:1883,1551645244760,PRODUCED
Publisher_002,topicA,topicA-434,172.172.1.2:1883,1551645244857,PRODUCED
Publisher_002,topicA,topicA-435,172.172.1.2:1883,1551645244957,PRODUCED
Publisher_002,topicA,topicA-436,172.172.1.2:1883,1551645245057,PRODUCED
Publisher_002,topicA,topicA-437,172.172.1.2:1883,1551645245157,PRODUCED
Publisher_002,topicA,topicA-438,172.172.1.2:1883,1551645245257,PRODUCED
Publisher_002,topicA,topicA-439,172.172.1.2:1883,1551645245357,PRODUCED
Publisher_002,topicA,topicA-440,172.172.1.2:1883,1551645245457,PRODUCED
Publisher_002,topicA,topicA-441,172.172.1.2:1883,1551645245557,PRODUCED
Publisher_002,topicA,topicA-442,172.172.1.2:1883,1551645245657,PRODUCED
Publisher_002,topicA,topicA-443,172.172.1.2:1883,1551645245757,PRODUCED
Publisher_002,topicA,topicA-444,172.172.1.2:1883,1551645245857,PRODUCED
Publisher_002,topicA,topicA-445,172.172.1.2:1883,1551645245958,PRODUCED
Publisher_002,topicA,topicA-446,172.172.1.2:1883,1551645246057,PRODUCED
Publisher_002,topicA,topicA-447,172.172.1.2:1883,1551645246157,PRODUCED
Publisher_002,topicA,topicA-448,172.172.1.2:1883,1551645246258,PRODUCED
Publisher_002,topicA,topicA-449,172.172.1.2:1883,1551645246357,PRODUCED
Publisher_002,topicA,topicA-450,172.172.1.2:1883,1551645246457,PRODUCED
Publisher_002,topicA,topicA-451,172.172.1.2:1883,1551645246557,PRODUCED
Publisher_002,topicA,topicA-452,172.172.1.2:1883,1551645246658,PRODUCED
Publisher_002,topicA,topicA-453,172.172.1.2:1883,1551645246757,PRODUCED
Publisher_002,topicA,topicA-454,172.172.1.2:1883,1551645246857,PRODUCED
Publisher_002,topicA,topicA-455,172.172.1.2:1883,1551645246957,PRODUCED
Publisher_002,topicA,topicA-456,172.172.1.2:1883,1551645247057,PRODUCED
Publisher_002,topicA,topicA-457,172.172.1.2:1883,1551645247158,PRODUCED
Publisher_002,topicA,topicA-458,172.172.1.2:1883,1551645247261,PRODUCED
Publisher_002,topicA,topicA-459,172.172.1.2:1883,1551645247357,PRODUCED
Publisher_002,topicA,topicA-460,172.172.1.2:1883,1551645247462,PRODUCED
Publisher_002,topicA,topicA-461,172.172.1.2:1883,1551645247557,PRODUCED
Publisher_002,topicA,topicA-462,172.172.1.2:1883,1551645247657,PRODUCED
Publisher_002,topicA,topicA-463,172.172.1.2:1883,1551645247757,PRODUCED
Publisher_002,topicA,topicA-464,172.172.1.2:1883,1551645247857,PRODUCED
Publisher_002,topicA,topicA-465,172.172.1.2:1883,1551645247957,PRODUCED
Publisher_002,topicA,topicA-466,172.172.1.2:1883,1551645248057,PRODUCED
Publisher_002,topicA,topicA-467,172.172.1.2:1883,1551645248157,PRODUCED
Publisher_002,topicA,topicA-468,172.172.1.2:1883,1551645248257,PRODUCED
Publisher_002,topicA,topicA-469,172.172.1.2:1883,1551645248357,PRODUCED
Publisher_002,topicA,topicA-470,172.172.1.2:1883,1551645248457,PRODUCED
Publisher_002,topicA,topicA-471,172.172.1.2:1883,1551645248557,PRODUCED
Publisher_002,topicA,topicA-472,172.172.1.2:1883,1551645248658,PRODUCED
Publisher_002,topicA,topicA-473,172.172.1.2:1883,1551645248757,PRODUCED
Publisher_002,topicA,topicA-474,172.172.1.2:1883,1551645248857,PRODUCED
Publisher_002,topicA,topicA-475,172.172.1.2:1883,1551645248957,PRODUCED
Publisher_002,topicA,topicA-476,172.172.1.2:1883,1551645249057,PRODUCED
Publisher_002,topicA,topicA-477,172.172.1.2:1883,1551645249157,PRODUCED
Publisher_002,topicA,topicA-478,172.172.1.2:1883,1551645249257,PRODUCED
Publisher_002,topicA,topicA-479,172.172.1.2:1883,1551645249358,PRODUCED
Publisher_002,topicA,topicA-480,172.172.1.2:1883,1551645249457,PRODUCED
Publisher_002,topicA,topicA-481,172.172.1.2:1883,1551645249557,PRODUCED
Publisher_002,topicA,topicA-482,172.172.1.2:1883,1551645249657,PRODUCED
Publisher_002,topicA,topicA-483,172.172.1.2:1883,1551645249757,PRODUCED
Publisher_002,topicA,topicA-484,172.172.1.2:1883,1551645249856,PRODUCED
Publisher_002,topicA,topicA-485,172.172.1.2:1883,1551645249957,PRODUCED
Publisher_002,topicA,topicA-486,172.172.1.2:1883,1551645250058,PRODUCED
Publisher_002,topicA,topicA-487,172.172.1.2:1883,1551645250157,PRODUCED
Publisher_002,topicA,topicA-488,172.172.1.2:1883,1551645250257,PRODUCED
Publisher_002,topicA,topicA-489,172.172.1.2:1883,1551645250357,PRODUCED
Publisher_002,topicA,topicA-490,172.172.1.2:1883,1551645250458,PRODUCED
Publisher_002,topicA,topicA-491,172.172.1.2:1883,1551645250557,PRODUCED
Publisher_002,topicA,topicA-492,172.172.1.2:1883,1551645250658,PRODUCED
Publisher_002,topicA,topicA-493,172.172.1.2:1883,1551645250757,PRODUCED
Publisher_002,topicA,topicA-494,172.172.1.2:1883,1551645250857,PRODUCED
Publisher_002,topicA,topicA-495,172.172.1.2:1883,1551645250957,PRODUCED
Publisher_002,topicA,topicA-496,172.172.1.2:1883,1551645251058,PRODUCED
Publisher_002,topicA,topicA-497,172.172.1.2:1883,1551645251157,PRODUCED
Publisher_002,topicA,topicA-498,172.172.1.2:1883,1551645251257,PRODUCED
Publisher_002,topicA,topicA-499,172.172.1.2:1883,1551645251357,PRODUCED
Publisher_002,topicA,topicA-500,172.172.1.2:1883,1551645251457,PRODUCED
Publisher_002,topicA,topicA-501,172.172.1.2:1883,1551645251557,PRODUCED
Publisher_002,topicA,topicA-502,172.172.1.2:1883,1551645251657,PRODUCED
Publisher_002,topicA,topicA-503,172.172.1.2:1883,1551645251764,PRODUCED
Publisher_002,topicA,topicA-504,172.172.1.2:1883,1551645251857,PRODUCED
Publisher_002,topicA,topicA-505,172.172.1.2:1883,1551645251957,PRODUCED
Publisher_002,topicA,topicA-506,172.172.1.2:1883,1551645252057,PRODUCED
Publisher_002,topicA,topicA-507,172.172.1.2:1883,1551645252158,PRODUCED
Publisher_002,topicA,topicA-508,172.172.1.2:1883,1551645252258,PRODUCED
Publisher_002,topicA,topicA-509,172.172.1.2:1883,1551645252356,PRODUCED
Publisher_002,topicA,topicA-510,172.172.1.2:1883,1551645252459,PRODUCED
Publisher_002,topicA,topicA-511,172.172.1.2:1883,1551645252561,PRODUCED
Publisher_002,topicA,topicA-512,172.172.1.2:1883,1551645252659,PRODUCED
Publisher_002,topicA,topicA-513,172.172.1.2:1883,1551645252757,PRODUCED
Publisher_002,topicA,topicA-514,172.172.1.2:1883,1551645252857,PRODUCED
Publisher_002,topicA,topicA-515,172.172.1.2:1883,1551645252957,PRODUCED
Publisher_002,topicA,topicA-516,172.172.1.2:1883,1551645253057,PRODUCED
Publisher_002,topicA,topicA-517,172.172.1.2:1883,1551645253158,PRODUCED
Publisher_002,topicA,topicA-518,172.172.1.2:1883,1551645253257,PRODUCED
Publisher_002,topicA,topicA-519,172.172.1.2:1883,1551645253357,PRODUCED
Publisher_002,topicA,topicA-520,172.172.1.2:1883,1551645253457,PRODUCED
Publisher_002,topicA,topicA-521,172.172.1.2:1883,1551645253558,PRODUCED
Publisher_002,topicA,topicA-522,172.172.1.2:1883,1551645253657,PRODUCED
Publisher_002,topicA,topicA-523,172.172.1.2:1883,1551645253758,PRODUCED
Publisher_002,topicA,topicA-524,172.172.1.2:1883,1551645253865,PRODUCED
Publisher_002,topicA,topicA-525,172.172.1.2:1883,1551645253957,PRODUCED
Publisher_002,topicA,topicA-526,172.172.1.2:1883,1551645254057,PRODUCED
Publisher_002,topicA,topicA-527,172.172.1.2:1883,1551645254157,PRODUCED
Publisher_002,topicA,topicA-528,172.172.1.2:1883,1551645254257,PRODUCED
Publisher_002,topicA,topicA-529,172.172.1.2:1883,1551645254357,PRODUCED
Publisher_002,topicA,topicA-530,172.172.1.2:1883,1551645254459,PRODUCED
Publisher_002,topicA,topicA-531,172.172.1.2:1883,1551645254557,PRODUCED
Publisher_002,topicA,topicA-532,172.172.1.2:1883,1551645254657,PRODUCED
Publisher_002,topicA,topicA-533,172.172.1.2:1883,1551645254757,PRODUCED
Publisher_002,topicA,topicA-534,172.172.1.2:1883,1551645254857,PRODUCED
Publisher_002,topicA,topicA-535,172.172.1.2:1883,1551645254957,PRODUCED
Publisher_002,topicA,topicA-536,172.172.1.2:1883,1551645255060,PRODUCED
Publisher_002,topicA,topicA-537,172.172.1.2:1883,1551645255157,PRODUCED
Publisher_002,topicA,topicA-538,172.172.1.2:1883,1551645255257,PRODUCED
Publisher_002,topicA,topicA-539,172.172.1.2:1883,1551645255357,PRODUCED
Publisher_002,topicA,topicA-540,172.172.1.2:1883,1551645255458,PRODUCED
Publisher_002,topicA,topicA-541,172.172.1.2:1883,1551645255561,PRODUCED
Publisher_002,topicA,topicA-542,172.172.1.2:1883,1551645255657,PRODUCED
Publisher_002,topicA,topicA-543,172.172.1.2:1883,1551645255757,PRODUCED
Publisher_002,topicA,topicA-544,172.172.1.2:1883,1551645255859,PRODUCED
Publisher_002,topicA,topicA-545,172.172.1.2:1883,1551645255957,PRODUCED
Publisher_002,topicA,topicA-546,172.172.1.2:1883,1551645256057,PRODUCED
Publisher_002,topicA,topicA-547,172.172.1.2:1883,1551645256157,PRODUCED
Publisher_002,topicA,topicA-548,172.172.1.2:1883,1551645256257,PRODUCED
Publisher_002,topicA,topicA-549,172.172.1.2:1883,1551645256357,PRODUCED
Publisher_002,topicA,topicA-550,172.172.1.2:1883,1551645256457,PRODUCED
Publisher_002,topicA,topicA-551,172.172.1.2:1883,1551645256557,PRODUCED
Publisher_002,topicA,topicA-552,172.172.1.2:1883,1551645256657,PRODUCED
Publisher_002,topicA,topicA-553,172.172.1.2:1883,1551645256757,PRODUCED
Publisher_002,topicA,topicA-554,172.172.1.2:1883,1551645256860,PRODUCED
Publisher_002,topicA,topicA-555,172.172.1.2:1883,1551645256957,PRODUCED
Publisher_002,topicA,topicA-556,172.172.1.2:1883,1551645257065,PRODUCED
Publisher_002,topicA,topicA-557,172.172.1.2:1883,1551645257157,PRODUCED
Publisher_002,topicA,topicA-558,172.172.1.2:1883,1551645257258,PRODUCED
Publisher_002,topicA,topicA-559,172.172.1.2:1883,1551645257357,PRODUCED
Publisher_002,topicA,topicA-560,172.172.1.2:1883,1551645257457,PRODUCED
Publisher_002,topicA,topicA-561,172.172.1.2:1883,1551645257557,PRODUCED
Publisher_002,topicA,topicA-562,172.172.1.2:1883,1551645257657,PRODUCED
Publisher_002,topicA,topicA-563,172.172.1.2:1883,1551645257758,PRODUCED
Publisher_002,topicA,topicA-564,172.172.1.2:1883,1551645257857,PRODUCED
Publisher_002,topicA,topicA-565,172.172.1.2:1883,1551645257958,PRODUCED
Publisher_002,topicA,topicA-566,172.172.1.2:1883,1551645258057,PRODUCED
Publisher_002,topicA,topicA-567,172.172.1.2:1883,1551645258157,PRODUCED
Publisher_002,topicA,topicA-568,172.172.1.2:1883,1551645258257,PRODUCED
Publisher_002,topicA,topicA-569,172.172.1.2:1883,1551645258357,PRODUCED
Publisher_002,topicA,topicA-570,172.172.1.2:1883,1551645258457,PRODUCED
Publisher_002,topicA,topicA-571,172.172.1.2:1883,1551645258558,PRODUCED
Publisher_002,topicA,topicA-572,172.172.1.2:1883,1551645258658,PRODUCED
Publisher_002,topicA,topicA-573,172.172.1.2:1883,1551645258758,PRODUCED
Publisher_002,topicA,topicA-574,172.172.1.2:1883,1551645258857,PRODUCED
Publisher_002,topicA,topicA-575,172.172.1.2:1883,1551645258957,PRODUCED
Publisher_002,topicA,topicA-576,172.172.1.2:1883,1551645259058,PRODUCED
Publisher_002,topicA,topicA-577,172.172.1.2:1883,1551645259157,PRODUCED
Publisher_002,topicA,topicA-578,172.172.1.2:1883,1551645259257,PRODUCED
Publisher_002,topicA,topicA-579,172.172.1.2:1883,1551645259357,PRODUCED
Publisher_002,topicA,topicA-580,172.172.1.2:1883,1551645259457,PRODUCED
Publisher_002,topicA,topicA-581,172.172.1.2:1883,1551645259557,PRODUCED
Publisher_002,topicA,topicA-582,172.172.1.2:1883,1551645259657,PRODUCED
Publisher_002,topicA,topicA-583,172.172.1.2:1883,1551645259757,PRODUCED
Publisher_002,topicA,topicA-584,172.172.1.2:1883,1551645259857,PRODUCED
Publisher_002,topicA,topicA-585,172.172.1.2:1883,1551645259960,PRODUCED
Publisher_002,topicA,topicA-586,172.172.1.2:1883,1551645260057,PRODUCED
Publisher_002,topicA,topicA-587,172.172.1.2:1883,1551645260157,PRODUCED
Publisher_002,topicA,topicA-588,172.172.1.2:1883,1551645260257,PRODUCED
Publisher_002,topicA,topicA-589,172.172.1.2:1883,1551645260360,PRODUCED
Publisher_002,topicA,topicA-590,172.172.1.2:1883,1551645260457,PRODUCED
Publisher_002,topicA,topicA-591,172.172.1.2:1883,1551645260557,PRODUCED
Publisher_002,topicA,topicA-592,172.172.1.2:1883,1551645260658,PRODUCED
Publisher_002,topicA,topicA-593,172.172.1.2:1883,1551645260758,PRODUCED
Publisher_002,topicA,topicA-594,172.172.1.2:1883,1551645260857,PRODUCED
Publisher_002,topicA,topicA-595,172.172.1.2:1883,1551645260959,PRODUCED
Publisher_002,topicA,topicA-596,172.172.1.2:1883,1551645261057,PRODUCED
Publisher_002,topicA,topicA-597,172.172.1.2:1883,1551645261157,PRODUCED
Publisher_002,topicA,topicA-598,172.172.1.2:1883,1551645261257,PRODUCED
Publisher_002,topicA,topicA-599,172.172.1.2:1883,1551645261357,PRODUCED
Publisher_002,topicA,topicA-600,172.172.1.2:1883,1551645261457,PRODUCED
Publisher_002,topicA,topicA-601,172.172.1.2:1883,1551645261557,PRODUCED
Publisher_002,topicA,topicA-602,172.172.1.2:1883,1551645261657,PRODUCED
Publisher_002,topicA,topicA-603,172.172.1.2:1883,1551645261757,PRODUCED
Publisher_002,topicA,topicA-604,172.172.1.2:1883,1551645261858,PRODUCED
Publisher_002,topicA,topicA-605,172.172.1.2:1883,1551645261957,PRODUCED
Publisher_002,topicA,topicA-606,172.172.1.2:1883,1551645262061,PRODUCED
Publisher_002,topicA,topicA-607,172.172.1.2:1883,1551645262157,PRODUCED
Publisher_002,topicA,topicA-608,172.172.1.2:1883,1551645262258,PRODUCED
Publisher_002,topicA,topicA-609,172.172.1.2:1883,1551645262357,PRODUCED
Publisher_002,topicA,topicA-610,172.172.1.2:1883,1551645262457,PRODUCED
Publisher_002,topicA,topicA-611,172.172.1.2:1883,1551645262557,PRODUCED
Publisher_002,topicA,topicA-612,172.172.1.2:1883,1551645262657,PRODUCED
Publisher_002,topicA,topicA-613,172.172.1.2:1883,1551645262757,PRODUCED
Publisher_002,topicA,topicA-614,172.172.1.2:1883,1551645262857,PRODUCED
Publisher_002,topicA,topicA-615,172.172.1.2:1883,1551645262957,PRODUCED
Publisher_002,topicA,topicA-616,172.172.1.2:1883,1551645263058,PRODUCED
Publisher_002,topicA,topicA-617,172.172.1.2:1883,1551645263157,PRODUCED
Publisher_002,topicA,topicA-618,172.172.1.2:1883,1551645263257,PRODUCED
Publisher_002,topicA,topicA-619,172.172.1.2:1883,1551645263357,PRODUCED
Publisher_002,topicA,topicA-620,172.172.1.2:1883,1551645263457,PRODUCED
Publisher_002,topicA,topicA-621,172.172.1.2:1883,1551645263557,PRODUCED
Publisher_002,topicA,topicA-622,172.172.1.2:1883,1551645263657,PRODUCED
Publisher_002,topicA,topicA-623,172.172.1.2:1883,1551645263757,PRODUCED
Publisher_002,topicA,topicA-624,172.172.1.2:1883,1551645263857,PRODUCED
Publisher_002,topicA,topicA-625,172.172.1.2:1883,1551645263957,PRODUCED
Publisher_002,topicA,topicA-626,172.172.1.2:1883,1551645264061,PRODUCED
Publisher_002,topicA,topicA-627,172.172.1.2:1883,1551645264157,PRODUCED
Publisher_002,topicA,topicA-628,172.172.1.2:1883,1551645264257,PRODUCED
Publisher_002,topicA,topicA-629,172.172.1.2:1883,1551645264357,PRODUCED
Publisher_002,topicA,topicA-630,172.172.1.2:1883,1551645264457,PRODUCED
Publisher_002,topicA,topicA-631,172.172.1.2:1883,1551645264557,PRODUCED
Publisher_002,topicA,topicA-632,172.172.1.2:1883,1551645264660,PRODUCED
Publisher_002,topicA,topicA-633,172.172.1.2:1883,1551645264760,PRODUCED
Publisher_002,topicA,topicA-634,172.172.1.2:1883,1551645264857,PRODUCED
Publisher_002,topicA,topicA-635,172.172.1.2:1883,1551645264960,PRODUCED
Publisher_002,topicA,topicA-636,172.172.1.2:1883,1551645265060,PRODUCED
Publisher_002,topicA,topicA-637,172.172.1.2:1883,1551645265158,PRODUCED
Publisher_002,topicA,topicA-638,172.172.1.2:1883,1551645265258,PRODUCED
Publisher_002,topicA,topicA-639,172.172.1.2:1883,1551645265358,PRODUCED
Publisher_002,topicA,topicA-640,172.172.1.2:1883,1551645265457,PRODUCED
Publisher_002,topicA,topicA-641,172.172.1.2:1883,1551645265557,PRODUCED
Publisher_002,topicA,topicA-642,172.172.1.2:1883,1551645265657,PRODUCED
Publisher_002,topicA,topicA-643,172.172.1.2:1883,1551645265757,PRODUCED
Publisher_002,topicA,topicA-644,172.172.1.2:1883,1551645265857,PRODUCED
Publisher_002,topicA,topicA-645,172.172.1.2:1883,1551645265956,PRODUCED
Publisher_002,topicA,topicA-646,172.172.1.2:1883,1551645266056,PRODUCED
Publisher_002,topicA,topicA-647,172.172.1.2:1883,1551645266156,PRODUCED
Publisher_002,topicA,topicA-648,172.172.1.2:1883,1551645266257,PRODUCED
Publisher_002,topicA,topicA-649,172.172.1.2:1883,1551645266357,PRODUCED
Publisher_002,topicA,topicA-650,172.172.1.2:1883,1551645266458,PRODUCED
Publisher_002,topicA,topicA-651,172.172.1.2:1883,1551645266557,PRODUCED
Publisher_002,topicA,topicA-652,172.172.1.2:1883,1551645266657,PRODUCED
Publisher_002,topicA,topicA-653,172.172.1.2:1883,1551645266757,PRODUCED
