[1] "Duration B1: 793"
[1] "Duration B2: 498"
[1] "Duration MIGRATE: 276"
[1] "Duration MIGACK: 19"
[1] "addrow"
[1] "INITIALIZED"
  timestamp       event                          migrationId
1         0 INITIALIZED 99ae0206-4a08-4187-9a99-5a629ca1c923
[1] "addrow"
[1] "SYNCING"
[1] "addrow"
[1] "SYNCED"
[1] "addrow"
[1] "FINISHED"
  timestamp    event                          migrationId
9       793 FINISHED 99ae0206-4a08-4187-9a99-5a629ca1c923
[1] "addrow"
[1] "topicA-INITIALIZED"
  timestamp              event                          migrationId
3        12 topicA-INITIALIZED 99ae0206-4a08-4187-9a99-5a629ca1c923
[1] "addrow"
[1] "topicA-SYNCING"
[1] "addrow"
[1] "topicA-SYNCED"
  timestamp         event                          migrationId
5        20 topicA-SYNCED 99ae0206-4a08-4187-9a99-5a629ca1c923
[1] "addrow"
[1] "topicA-FINISHED"
  timestamp           event                          migrationId
7       758 topicA-FINISHED 99ae0206-4a08-4187-9a99-5a629ca1c923
[1] "addrow"
[1] "topicB-INITIALIZED"
  timestamp              event                          migrationId
4        13 topicB-INITIALIZED 99ae0206-4a08-4187-9a99-5a629ca1c923
[1] "addrow"
[1] "topicB-SYNCING"
[1] "addrow"
[1] "topicB-SYNCED"
[1] "addrow"
[1] "topicB-FINISHED"
  timestamp           event                          migrationId
8       758 topicB-FINISHED 99ae0206-4a08-4187-9a99-5a629ca1c923
[1] "addrow"
[1] "topicC-INITIALIZED"
  timestamp              event                          migrationId
2         2 topicC-INITIALIZED 99ae0206-4a08-4187-9a99-5a629ca1c923
[1] "addrow"
[1] "topicC-SYNCING"
[1] "addrow"
[1] "topicC-SYNCED"
[1] "addrow"
[1] "topicC-FINISHED"
  timestamp           event                          migrationId
6       757 topicC-FINISHED 99ae0206-4a08-4187-9a99-5a629ca1c923
