clientId,topic,guid,broker,timestamp,type
Publisher_002,topicA,topicA-1,172.172.1.2:1883,1551659373758,PRODUCED
Publisher_002,topicA,topicA-2,172.172.1.2:1883,1551659373980,PRODUCED
Publisher_002,topicA,topicA-3,172.172.1.2:1883,1551659373985,PRODUCED
Publisher_002,topicA,topicA-4,172.172.1.2:1883,1551659373989,PRODUCED
Publisher_002,topicA,topicA-5,172.172.1.2:1883,1551659374003,PRODUCED
Publisher_002,topicA,topicA-6,172.172.1.2:1883,1551659374103,PRODUCED
Publisher_002,topicA,topicA-7,172.172.1.2:1883,1551659374203,PRODUCED
Publisher_002,topicA,topicA-8,172.172.1.2:1883,1551659374303,PRODUCED
Publisher_002,topicA,topicA-9,172.172.1.2:1883,1551659374403,PRODUCED
Publisher_002,topicA,topicA-10,172.172.1.2:1883,1551659374505,PRODUCED
Publisher_002,topicA,topicA-11,172.172.1.2:1883,1551659374611,PRODUCED
Publisher_002,topicA,topicA-12,172.172.1.2:1883,1551659374705,PRODUCED
Publisher_002,topicA,topicA-13,172.172.1.2:1883,1551659374804,PRODUCED
Publisher_002,topicA,topicA-14,172.172.1.2:1883,1551659374903,PRODUCED
Publisher_002,topicA,topicA-15,172.172.1.2:1883,1551659375003,PRODUCED
Publisher_002,topicA,topicA-16,172.172.1.2:1883,1551659375106,PRODUCED
Publisher_002,topicA,topicA-17,172.172.1.2:1883,1551659375203,PRODUCED
Publisher_002,topicA,topicA-18,172.172.1.2:1883,1551659375304,PRODUCED
Publisher_002,topicA,topicA-19,172.172.1.2:1883,1551659375407,PRODUCED
Publisher_002,topicA,topicA-20,172.172.1.2:1883,1551659375504,PRODUCED
Publisher_002,topicA,topicA-21,172.172.1.2:1883,1551659375605,PRODUCED
Publisher_002,topicA,topicA-22,172.172.1.2:1883,1551659375704,PRODUCED
Publisher_002,topicA,topicA-23,172.172.1.2:1883,1551659375804,PRODUCED
Publisher_002,topicA,topicA-24,172.172.1.2:1883,1551659375906,PRODUCED
Publisher_002,topicA,topicA-25,172.172.1.2:1883,1551659376005,PRODUCED
Publisher_002,topicA,topicA-26,172.172.1.2:1883,1551659376104,PRODUCED
Publisher_002,topicA,topicA-27,172.172.1.2:1883,1551659376203,PRODUCED
Publisher_002,topicA,topicA-28,172.172.1.2:1883,1551659376303,PRODUCED
Publisher_002,topicA,topicA-29,172.172.1.2:1883,1551659376403,PRODUCED
Publisher_002,topicA,topicA-30,172.172.1.2:1883,1551659376504,PRODUCED
Publisher_002,topicA,topicA-31,172.172.1.2:1883,1551659376603,PRODUCED
Publisher_002,topicA,topicA-32,172.172.1.2:1883,1551659376703,PRODUCED
Publisher_002,topicA,topicA-33,172.172.1.2:1883,1551659376803,PRODUCED
Publisher_002,topicA,topicA-34,172.172.1.2:1883,1551659376903,PRODUCED
Publisher_002,topicA,topicA-35,172.172.1.2:1883,1551659377008,PRODUCED
Publisher_002,topicA,topicA-36,172.172.1.2:1883,1551659377103,PRODUCED
Publisher_002,topicA,topicA-37,172.172.1.2:1883,1551659377203,PRODUCED
Publisher_002,topicA,topicA-38,172.172.1.2:1883,1551659377303,PRODUCED
Publisher_002,topicA,topicA-39,172.172.1.2:1883,1551659377407,PRODUCED
Publisher_002,topicA,topicA-40,172.172.1.2:1883,1551659377504,PRODUCED
Publisher_002,topicA,topicA-41,172.172.1.2:1883,1551659377604,PRODUCED
Publisher_002,topicA,topicA-42,172.172.1.2:1883,1551659377710,PRODUCED
Publisher_002,topicA,topicA-43,172.172.1.2:1883,1551659377803,PRODUCED
Publisher_002,topicA,topicA-44,172.172.1.2:1883,1551659377903,PRODUCED
Publisher_002,topicA,topicA-45,172.172.1.2:1883,1551659378004,PRODUCED
Publisher_002,topicA,topicA-46,172.172.1.2:1883,1551659378104,PRODUCED
Publisher_002,topicA,topicA-47,172.172.1.2:1883,1551659378204,PRODUCED
Publisher_002,topicA,topicA-48,172.172.1.2:1883,1551659378309,PRODUCED
Publisher_002,topicA,topicA-49,172.172.1.2:1883,1551659378404,PRODUCED
Publisher_002,topicA,topicA-50,172.172.1.2:1883,1551659378503,PRODUCED
Publisher_002,topicA,topicA-51,172.172.1.2:1883,1551659378603,PRODUCED
Publisher_002,topicA,topicA-52,172.172.1.2:1883,1551659378703,PRODUCED
Publisher_002,topicA,topicA-53,172.172.1.2:1883,1551659378804,PRODUCED
Publisher_002,topicA,topicA-54,172.172.1.2:1883,1551659378903,PRODUCED
Publisher_002,topicA,topicA-55,172.172.1.2:1883,1551659379009,PRODUCED
Publisher_002,topicA,topicA-56,172.172.1.2:1883,1551659379104,PRODUCED
Publisher_002,topicA,topicA-57,172.172.1.2:1883,1551659379206,PRODUCED
Publisher_002,topicA,topicA-58,172.172.1.2:1883,1551659379304,PRODUCED
Publisher_002,topicA,topicA-59,172.172.1.2:1883,1551659379403,PRODUCED
Publisher_002,topicA,topicA-60,172.172.1.2:1883,1551659379505,PRODUCED
Publisher_002,topicA,topicA-61,172.172.1.2:1883,1551659379606,PRODUCED
Publisher_002,topicA,topicA-62,172.172.1.2:1883,1551659379704,PRODUCED
Publisher_002,topicA,topicA-63,172.172.1.2:1883,1551659379803,PRODUCED
Publisher_002,topicA,topicA-64,172.172.1.2:1883,1551659379904,PRODUCED
Publisher_002,topicA,topicA-65,172.172.1.2:1883,1551659380005,PRODUCED
Publisher_002,topicA,topicA-66,172.172.1.2:1883,1551659380104,PRODUCED
Publisher_002,topicA,topicA-67,172.172.1.2:1883,1551659380203,PRODUCED
Publisher_002,topicA,topicA-68,172.172.1.2:1883,1551659380303,PRODUCED
Publisher_002,topicA,topicA-69,172.172.1.2:1883,1551659380404,PRODUCED
Publisher_002,topicA,topicA-70,172.172.1.2:1883,1551659380506,PRODUCED
Publisher_002,topicA,topicA-71,172.172.1.2:1883,1551659380603,PRODUCED
Publisher_002,topicA,topicA-72,172.172.1.2:1883,1551659380711,PRODUCED
Publisher_002,topicA,topicA-73,172.172.1.2:1883,1551659380804,PRODUCED
Publisher_002,topicA,topicA-74,172.172.1.2:1883,1551659380903,PRODUCED
Publisher_002,topicA,topicA-75,172.172.1.2:1883,1551659381004,PRODUCED
Publisher_002,topicA,topicA-76,172.172.1.2:1883,1551659381106,PRODUCED
Publisher_002,topicA,topicA-77,172.172.1.2:1883,1551659381203,PRODUCED
Publisher_002,topicA,topicA-78,172.172.1.2:1883,1551659381305,PRODUCED
Publisher_002,topicA,topicA-79,172.172.1.2:1883,1551659381403,PRODUCED
Publisher_002,topicA,topicA-80,172.172.1.2:1883,1551659381503,PRODUCED
Publisher_002,topicA,topicA-81,172.172.1.2:1883,1551659381605,PRODUCED
Publisher_002,topicA,topicA-82,172.172.1.2:1883,1551659381704,PRODUCED
Publisher_002,topicA,topicA-83,172.172.1.2:1883,1551659381804,PRODUCED
Publisher_002,topicA,topicA-84,172.172.1.2:1883,1551659381905,PRODUCED
Publisher_002,topicA,topicA-85,172.172.1.2:1883,1551659382003,PRODUCED
Publisher_002,topicA,topicA-86,172.172.1.2:1883,1551659382104,PRODUCED
Publisher_002,topicA,topicA-87,172.172.1.2:1883,1551659382207,PRODUCED
Publisher_002,topicA,topicA-88,172.172.1.2:1883,1551659382304,PRODUCED
Publisher_002,topicA,topicA-89,172.172.1.2:1883,1551659382405,PRODUCED
Publisher_002,topicA,topicA-90,172.172.1.2:1883,1551659382504,PRODUCED
Publisher_002,topicA,topicA-91,172.172.1.2:1883,1551659382604,PRODUCED
Publisher_002,topicA,topicA-92,172.172.1.2:1883,1551659382705,PRODUCED
Publisher_002,topicA,topicA-93,172.172.1.2:1883,1551659382804,PRODUCED
Publisher_002,topicA,topicA-94,172.172.1.2:1883,1551659382905,PRODUCED
Publisher_002,topicA,topicA-95,172.172.1.2:1883,1551659383003,PRODUCED
Publisher_002,topicA,topicA-96,172.172.1.2:1883,1551659383103,PRODUCED
Publisher_002,topicA,topicA-97,172.172.1.2:1883,1551659383204,PRODUCED
Publisher_002,topicA,topicA-98,172.172.1.2:1883,1551659383304,PRODUCED
Publisher_002,topicA,topicA-99,172.172.1.2:1883,1551659383405,PRODUCED
Publisher_002,topicA,topicA-100,172.172.1.2:1883,1551659383504,PRODUCED
Publisher_002,topicA,topicA-101,172.172.1.2:1883,1551659383604,PRODUCED
Publisher_002,topicA,topicA-102,172.172.1.2:1883,1551659383715,PRODUCED
Publisher_002,topicA,topicA-103,172.172.1.2:1883,1551659383805,PRODUCED
Publisher_002,topicA,topicA-104,172.172.1.2:1883,1551659383904,PRODUCED
Publisher_002,topicA,topicA-105,172.172.1.2:1883,1551659384003,PRODUCED
Publisher_002,topicA,topicA-106,172.172.1.2:1883,1551659384104,PRODUCED
Publisher_002,topicA,topicA-107,172.172.1.2:1883,1551659384204,PRODUCED
Publisher_002,topicA,topicA-108,172.172.1.2:1883,1551659384304,PRODUCED
Publisher_002,topicA,topicA-109,172.172.1.2:1883,1551659384403,PRODUCED
Publisher_002,topicA,topicA-110,172.172.1.2:1883,1551659384503,PRODUCED
Publisher_002,topicA,topicA-111,172.172.1.2:1883,1551659384604,PRODUCED
Publisher_002,topicA,topicA-112,172.172.1.2:1883,1551659384703,PRODUCED
Publisher_002,topicA,topicA-113,172.172.1.2:1883,1551659384803,PRODUCED
Publisher_002,topicA,topicA-114,172.172.1.2:1883,1551659384906,PRODUCED
Publisher_002,topicA,topicA-115,172.172.1.2:1883,1551659385011,PRODUCED
Publisher_002,topicA,topicA-116,172.172.1.2:1883,1551659385104,PRODUCED
Publisher_002,topicA,topicA-117,172.172.1.2:1883,1551659385211,PRODUCED
Publisher_002,topicA,topicA-118,172.172.1.2:1883,1551659385308,PRODUCED
Publisher_002,topicA,topicA-119,172.172.1.2:1883,1551659385403,PRODUCED
Publisher_002,topicA,topicA-120,172.172.1.2:1883,1551659385503,PRODUCED
Publisher_002,topicA,topicA-121,172.172.1.2:1883,1551659385604,PRODUCED
Publisher_002,topicA,topicA-122,172.172.1.2:1883,1551659385705,PRODUCED
Publisher_002,topicA,topicA-123,172.172.1.2:1883,1551659385804,PRODUCED
Publisher_002,topicA,topicA-124,172.172.1.2:1883,1551659385905,PRODUCED
Publisher_002,topicA,topicA-125,172.172.1.2:1883,1551659386006,PRODUCED
Publisher_002,topicA,topicA-126,172.172.1.2:1883,1551659386104,PRODUCED
Publisher_002,topicA,topicA-127,172.172.1.2:1883,1551659386206,PRODUCED
Publisher_002,topicA,topicA-128,172.172.1.2:1883,1551659386303,PRODUCED
Publisher_002,topicA,topicA-129,172.172.1.2:1883,1551659386405,PRODUCED
Publisher_002,topicA,topicA-130,172.172.1.2:1883,1551659386504,PRODUCED
Publisher_002,topicA,topicA-131,172.172.1.2:1883,1551659386605,PRODUCED
Publisher_002,topicA,topicA-132,172.172.1.2:1883,1551659386703,PRODUCED
Publisher_002,topicA,topicA-133,172.172.1.2:1883,1551659386804,PRODUCED
Publisher_002,topicA,topicA-134,172.172.1.2:1883,1551659386903,PRODUCED
Publisher_002,topicA,topicA-135,172.172.1.2:1883,1551659387003,PRODUCED
Publisher_002,topicA,topicA-136,172.172.1.2:1883,1551659387107,PRODUCED
Publisher_002,topicA,topicA-137,172.172.1.2:1883,1551659387203,PRODUCED
Publisher_002,topicA,topicA-138,172.172.1.2:1883,1551659387303,PRODUCED
Publisher_002,topicA,topicA-139,172.172.1.2:1883,1551659387404,PRODUCED
Publisher_002,topicA,topicA-140,172.172.1.2:1883,1551659387504,PRODUCED
Publisher_002,topicA,topicA-141,172.172.1.2:1883,1551659387605,PRODUCED
Publisher_002,topicA,topicA-142,172.172.1.2:1883,1551659387705,PRODUCED
Publisher_002,topicA,topicA-143,172.172.1.2:1883,1551659387807,PRODUCED
Publisher_002,topicA,topicA-144,172.172.1.2:1883,1551659387908,PRODUCED
Publisher_002,topicA,topicA-145,172.172.1.2:1883,1551659388011,PRODUCED
Publisher_002,topicA,topicA-146,172.172.1.2:1883,1551659388103,PRODUCED
Publisher_002,topicA,topicA-147,172.172.1.2:1883,1551659388203,PRODUCED
Publisher_002,topicA,topicA-148,172.172.1.2:1883,1551659388305,PRODUCED
Publisher_002,topicA,topicA-149,172.172.1.2:1883,1551659388405,PRODUCED
Publisher_002,topicA,topicA-150,172.172.1.2:1883,1551659388504,PRODUCED
Publisher_002,topicA,topicA-151,172.172.1.2:1883,1551659388604,PRODUCED
Publisher_002,topicA,topicA-152,172.172.1.2:1883,1551659388704,PRODUCED
Publisher_002,topicA,topicA-153,172.172.1.2:1883,1551659388804,PRODUCED
Publisher_002,topicA,topicA-154,172.172.1.2:1883,1551659388904,PRODUCED
Publisher_002,topicA,topicA-155,172.172.1.2:1883,1551659389003,PRODUCED
Publisher_002,topicA,topicA-156,172.172.1.2:1883,1551659389104,PRODUCED
Publisher_002,topicA,topicA-157,172.172.1.2:1883,1551659389203,PRODUCED
Publisher_002,topicA,topicA-158,172.172.1.2:1883,1551659389306,PRODUCED
Publisher_002,topicA,topicA-159,172.172.1.2:1883,1551659389403,PRODUCED
Publisher_002,topicA,topicA-160,172.172.1.2:1883,1551659389504,PRODUCED
Publisher_002,topicA,topicA-161,172.172.1.2:1883,1551659389605,PRODUCED
Publisher_002,topicA,topicA-162,172.172.1.2:1883,1551659389703,PRODUCED
Publisher_002,topicA,topicA-163,172.172.1.2:1883,1551659389805,PRODUCED
Publisher_002,topicA,topicA-164,172.172.1.2:1883,1551659389904,PRODUCED
Publisher_002,topicA,topicA-165,172.172.1.2:1883,1551659390007,PRODUCED
Publisher_002,topicA,topicA-166,172.172.1.2:1883,1551659390103,PRODUCED
Publisher_002,topicA,topicA-167,172.172.1.2:1883,1551659390206,PRODUCED
Publisher_002,topicA,topicA-168,172.172.1.2:1883,1551659390303,PRODUCED
Publisher_002,topicA,topicA-169,172.172.1.2:1883,1551659390403,PRODUCED
Publisher_002,topicA,topicA-170,172.172.1.2:1883,1551659390503,PRODUCED
Publisher_002,topicA,topicA-171,172.172.1.2:1883,1551659390603,PRODUCED
Publisher_002,topicA,topicA-172,172.172.1.2:1883,1551659390703,PRODUCED
Publisher_002,topicA,topicA-173,172.172.1.2:1883,1551659390803,PRODUCED
Publisher_002,topicA,topicA-174,172.172.1.2:1883,1551659390903,PRODUCED
Publisher_002,topicA,topicA-175,172.172.1.2:1883,1551659391005,PRODUCED
Publisher_002,topicA,topicA-176,172.172.1.2:1883,1551659391103,PRODUCED
Publisher_002,topicA,topicA-177,172.172.1.2:1883,1551659391204,PRODUCED
Publisher_002,topicA,topicA-178,172.172.1.2:1883,1551659391304,PRODUCED
Publisher_002,topicA,topicA-179,172.172.1.2:1883,1551659391404,PRODUCED
Publisher_002,topicA,topicA-180,172.172.1.2:1883,1551659391503,PRODUCED
Publisher_002,topicA,topicA-181,172.172.1.2:1883,1551659391605,PRODUCED
Publisher_002,topicA,topicA-182,172.172.1.2:1883,1551659391704,PRODUCED
Publisher_002,topicA,topicA-183,172.172.1.2:1883,1551659391804,PRODUCED
Publisher_002,topicA,topicA-184,172.172.1.2:1883,1551659391903,PRODUCED
Publisher_002,topicA,topicA-185,172.172.1.2:1883,1551659392005,PRODUCED
Publisher_002,topicA,topicA-186,172.172.1.2:1883,1551659392104,PRODUCED
Publisher_002,topicA,topicA-187,172.172.1.2:1883,1551659392203,PRODUCED
Publisher_002,topicA,topicA-188,172.172.1.2:1883,1551659392303,PRODUCED
Publisher_002,topicA,topicA-189,172.172.1.2:1883,1551659392405,PRODUCED
Publisher_002,topicA,topicA-190,172.172.1.2:1883,1551659392506,PRODUCED
Publisher_002,topicA,topicA-191,172.172.1.2:1883,1551659392607,PRODUCED
Publisher_002,topicA,topicA-192,172.172.1.2:1883,1551659392704,PRODUCED
Publisher_002,topicA,topicA-193,172.172.1.2:1883,1551659392803,PRODUCED
Publisher_002,topicA,topicA-194,172.172.1.2:1883,1551659392903,PRODUCED
Publisher_002,topicA,topicA-195,172.172.1.2:1883,1551659393003,PRODUCED
Publisher_002,topicA,topicA-196,172.172.1.2:1883,1551659393103,PRODUCED
Publisher_002,topicA,topicA-197,172.172.1.2:1883,1551659393203,PRODUCED
Publisher_002,topicA,topicA-198,172.172.1.2:1883,1551659393303,PRODUCED
Publisher_002,topicA,topicA-199,172.172.1.2:1883,1551659393403,PRODUCED
Publisher_002,topicA,topicA-200,172.172.1.2:1883,1551659393503,PRODUCED
Publisher_002,topicA,topicA-201,172.172.1.2:1883,1551659393604,PRODUCED
Publisher_002,topicA,topicA-202,172.172.1.2:1883,1551659393704,PRODUCED
Publisher_002,topicA,topicA-203,172.172.1.2:1883,1551659393807,PRODUCED
Publisher_002,topicA,topicA-204,172.172.1.2:1883,1551659393904,PRODUCED
Publisher_002,topicA,topicA-205,172.172.1.2:1883,1551659394003,PRODUCED
Publisher_002,topicA,topicA-206,172.172.1.2:1883,1551659394103,PRODUCED
Publisher_002,topicA,topicA-207,172.172.1.2:1883,1551659394203,PRODUCED
Publisher_002,topicA,topicA-208,172.172.1.2:1883,1551659394304,PRODUCED
Publisher_002,topicA,topicA-209,172.172.1.2:1883,1551659394404,PRODUCED
Publisher_002,topicA,topicA-210,172.172.1.2:1883,1551659394504,PRODUCED
Publisher_002,topicA,topicA-211,172.172.1.2:1883,1551659394604,PRODUCED
Publisher_002,topicA,topicA-212,172.172.1.2:1883,1551659394704,PRODUCED
Publisher_002,topicA,topicA-213,172.172.1.2:1883,1551659394803,PRODUCED
Publisher_002,topicA,topicA-214,172.172.1.2:1883,1551659394903,PRODUCED
Publisher_002,topicA,topicA-215,172.172.1.2:1883,1551659395003,PRODUCED
Publisher_002,topicA,topicA-216,172.172.1.2:1883,1551659395103,PRODUCED
Publisher_002,topicA,topicA-217,172.172.1.2:1883,1551659395203,PRODUCED
Publisher_002,topicA,topicA-218,172.172.1.2:1883,1551659395303,PRODUCED
Publisher_002,topicA,topicA-219,172.172.1.2:1883,1551659395403,PRODUCED
Publisher_002,topicA,topicA-220,172.172.1.2:1883,1551659395503,PRODUCED
Publisher_002,topicA,topicA-221,172.172.1.2:1883,1551659395603,PRODUCED
Publisher_002,topicA,topicA-222,172.172.1.2:1883,1551659395703,PRODUCED
Publisher_002,topicA,topicA-223,172.172.1.2:1883,1551659395808,PRODUCED
Publisher_002,topicA,topicA-224,172.172.1.2:1883,1551659395904,PRODUCED
Publisher_002,topicA,topicA-225,172.172.1.2:1883,1551659396007,PRODUCED
Publisher_002,topicA,topicA-226,172.172.1.2:1883,1551659396103,PRODUCED
Publisher_002,topicA,topicA-227,172.172.1.2:1883,1551659396204,PRODUCED
Publisher_002,topicA,topicA-228,172.172.1.2:1883,1551659396303,PRODUCED
Publisher_002,topicA,topicA-229,172.172.1.2:1883,1551659396411,PRODUCED
Publisher_002,topicA,topicA-230,172.172.1.2:1883,1551659396503,PRODUCED
Publisher_002,topicA,topicA-231,172.172.1.2:1883,1551659396604,PRODUCED
Publisher_002,topicA,topicA-232,172.172.1.2:1883,1551659396703,PRODUCED
Publisher_002,topicA,topicA-233,172.172.1.2:1883,1551659396807,PRODUCED
Publisher_002,topicA,topicA-234,172.172.1.2:1883,1551659396903,PRODUCED
Publisher_002,topicA,topicA-235,172.172.1.2:1883,1551659397003,PRODUCED
Publisher_002,topicA,topicA-236,172.172.1.2:1883,1551659397103,PRODUCED
Publisher_002,topicA,topicA-237,172.172.1.2:1883,1551659397204,PRODUCED
Publisher_002,topicA,topicA-238,172.172.1.2:1883,1551659397303,PRODUCED
Publisher_002,topicA,topicA-239,172.172.1.2:1883,1551659397404,PRODUCED
Publisher_002,topicA,topicA-240,172.172.1.2:1883,1551659397503,PRODUCED
Publisher_002,topicA,topicA-241,172.172.1.2:1883,1551659397603,PRODUCED
Publisher_002,topicA,topicA-242,172.172.1.2:1883,1551659397710,PRODUCED
Publisher_002,topicA,topicA-243,172.172.1.2:1883,1551659397803,PRODUCED
Publisher_002,topicA,topicA-244,172.172.1.2:1883,1551659397905,PRODUCED
Publisher_002,topicA,topicA-245,172.172.1.2:1883,1551659398003,PRODUCED
Publisher_002,topicA,topicA-246,172.172.1.2:1883,1551659398105,PRODUCED
Publisher_002,topicA,topicA-247,172.172.1.2:1883,1551659398203,PRODUCED
Publisher_002,topicA,topicA-248,172.172.1.2:1883,1551659398309,PRODUCED
Publisher_002,topicA,topicA-249,172.172.1.2:1883,1551659398403,PRODUCED
Publisher_002,topicA,topicA-250,172.172.1.2:1883,1551659398503,PRODUCED
Publisher_002,topicA,topicA-251,172.172.1.2:1883,1551659398603,PRODUCED
Publisher_002,topicA,topicA-252,172.172.1.2:1883,1551659398704,PRODUCED
Publisher_002,topicA,topicA-253,172.172.1.2:1883,1551659398807,PRODUCED
Publisher_002,topicA,topicA-254,172.172.1.2:1883,1551659398905,PRODUCED
Publisher_002,topicA,topicA-255,172.172.1.2:1883,1551659399003,PRODUCED
Publisher_002,topicA,topicA-256,172.172.1.2:1883,1551659399103,PRODUCED
Publisher_002,topicA,topicA-257,172.172.1.2:1883,1551659399205,PRODUCED
Publisher_002,topicA,topicA-258,172.172.1.2:1883,1551659399303,PRODUCED
Publisher_002,topicA,topicA-259,172.172.1.2:1883,1551659399403,PRODUCED
Publisher_002,topicA,topicA-260,172.172.1.2:1883,1551659399503,PRODUCED
Publisher_002,topicA,topicA-261,172.172.1.2:1883,1551659399603,PRODUCED
Publisher_002,topicA,topicA-262,172.172.1.2:1883,1551659399703,PRODUCED
Publisher_002,topicA,topicA-263,172.172.1.2:1883,1551659399803,PRODUCED
Publisher_002,topicA,topicA-264,172.172.1.2:1883,1551659399903,PRODUCED
Publisher_002,topicA,topicA-265,172.172.1.2:1883,1551659400003,PRODUCED
Publisher_002,topicA,topicA-266,172.172.1.2:1883,1551659400105,PRODUCED
Publisher_002,topicA,topicA-267,172.172.1.2:1883,1551659400204,PRODUCED
Publisher_002,topicA,topicA-268,172.172.1.2:1883,1551659400303,PRODUCED
Publisher_002,topicA,topicA-269,172.172.1.2:1883,1551659400404,PRODUCED
Publisher_002,topicA,topicA-270,172.172.1.2:1883,1551659400504,PRODUCED
Publisher_002,topicA,topicA-271,172.172.1.2:1883,1551659400603,PRODUCED
Publisher_002,topicA,topicA-272,172.172.1.2:1883,1551659400704,PRODUCED
Publisher_002,topicA,topicA-273,172.172.1.2:1883,1551659400804,PRODUCED
Publisher_002,topicA,topicA-274,172.172.1.2:1883,1551659400903,PRODUCED
Publisher_002,topicA,topicA-275,172.172.1.2:1883,1551659401003,PRODUCED
Publisher_002,topicA,topicA-276,172.172.1.2:1883,1551659401104,PRODUCED
Publisher_002,topicA,topicA-277,172.172.1.2:1883,1551659401204,PRODUCED
Publisher_002,topicA,topicA-278,172.172.1.2:1883,1551659401305,PRODUCED
Publisher_002,topicA,topicA-279,172.172.1.2:1883,1551659401404,PRODUCED
Publisher_002,topicA,topicA-280,172.172.1.2:1883,1551659401504,PRODUCED
Publisher_002,topicA,topicA-281,172.172.1.2:1883,1551659401607,PRODUCED
Publisher_002,topicA,topicA-282,172.172.1.2:1883,1551659401703,PRODUCED
Publisher_002,topicA,topicA-283,172.172.1.2:1883,1551659401803,PRODUCED
Publisher_002,topicA,topicA-284,172.172.1.2:1883,1551659401904,PRODUCED
Publisher_002,topicA,topicA-285,172.172.1.2:1883,1551659402003,PRODUCED
Publisher_002,topicA,topicA-286,172.172.1.2:1883,1551659402104,PRODUCED
Publisher_002,topicA,topicA-287,172.172.1.2:1883,1551659402203,PRODUCED
Publisher_002,topicA,topicA-288,172.172.1.2:1883,1551659402305,PRODUCED
Publisher_002,topicA,topicA-289,172.172.1.2:1883,1551659402404,PRODUCED
Publisher_002,topicA,topicA-290,172.172.1.2:1883,1551659402503,PRODUCED
Publisher_002,topicA,topicA-291,172.172.1.2:1883,1551659402603,PRODUCED
Publisher_002,topicA,topicA-292,172.172.1.2:1883,1551659402703,PRODUCED
Publisher_002,topicA,topicA-293,172.172.1.2:1883,1551659402804,PRODUCED
Publisher_002,topicA,topicA-294,172.172.1.2:1883,1551659402904,PRODUCED
Publisher_002,topicA,topicA-295,172.172.1.2:1883,1551659403004,PRODUCED
Publisher_002,topicA,topicA-296,172.172.1.2:1883,1551659403103,PRODUCED
Publisher_002,topicA,topicA-297,172.172.1.2:1883,1551659403203,PRODUCED
Publisher_002,topicA,topicA-298,172.172.1.2:1883,1551659403303,PRODUCED
Publisher_002,topicA,topicA-299,172.172.1.2:1883,1551659403403,PRODUCED
Publisher_002,topicA,topicA-300,172.172.1.2:1883,1551659403504,PRODUCED
Publisher_002,topicA,topicA-301,172.172.1.2:1883,1551659403603,PRODUCED
Publisher_002,topicA,topicA-302,172.172.1.2:1883,1551659403703,PRODUCED
Publisher_002,topicA,topicA-303,172.172.1.2:1883,1551659403803,PRODUCED
Publisher_002,topicA,topicA-304,172.172.1.2:1883,1551659403903,PRODUCED
Publisher_002,topicA,topicA-305,172.172.1.2:1883,1551659404003,PRODUCED
Publisher_002,topicA,topicA-306,172.172.1.2:1883,1551659404103,PRODUCED
Publisher_002,topicA,topicA-307,172.172.1.2:1883,1551659404203,PRODUCED
Publisher_002,topicA,topicA-308,172.172.1.2:1883,1551659404303,PRODUCED
Publisher_002,topicA,topicA-309,172.172.1.2:1883,1551659404403,PRODUCED
Publisher_002,topicA,topicA-310,172.172.1.2:1883,1551659404503,PRODUCED
Publisher_002,topicA,topicA-311,172.172.1.2:1883,1551659404603,PRODUCED
Publisher_002,topicA,topicA-312,172.172.1.2:1883,1551659404705,PRODUCED
Publisher_002,topicA,topicA-313,172.172.1.2:1883,1551659404807,PRODUCED
Publisher_002,topicA,topicA-314,172.172.1.2:1883,1551659404903,PRODUCED
Publisher_002,topicA,topicA-315,172.172.1.2:1883,1551659405008,PRODUCED
Publisher_002,topicA,topicA-316,172.172.1.2:1883,1551659405104,PRODUCED
Publisher_002,topicA,topicA-317,172.172.1.2:1883,1551659405203,PRODUCED
Publisher_002,topicA,topicA-318,172.172.1.2:1883,1551659405304,PRODUCED
Publisher_002,topicA,topicA-319,172.172.1.2:1883,1551659405405,PRODUCED
Publisher_002,topicA,topicA-320,172.172.1.2:1883,1551659405503,PRODUCED
Publisher_002,topicA,topicA-321,172.172.1.2:1883,1551659405605,PRODUCED
Publisher_002,topicA,topicA-322,172.172.1.2:1883,1551659405704,PRODUCED
Publisher_002,topicA,topicA-323,172.172.1.2:1883,1551659405804,PRODUCED
Publisher_002,topicA,topicA-324,172.172.1.2:1883,1551659405903,PRODUCED
Publisher_002,topicA,topicA-325,172.172.1.2:1883,1551659406009,PRODUCED
Publisher_002,topicA,topicA-326,172.172.1.2:1883,1551659406107,PRODUCED
Publisher_002,topicA,topicA-327,172.172.1.2:1883,1551659406204,PRODUCED
Publisher_002,topicA,topicA-328,172.172.1.2:1883,1551659406304,PRODUCED
Publisher_002,topicA,topicA-329,172.172.1.2:1883,1551659406404,PRODUCED
Publisher_002,topicA,topicA-330,172.172.1.2:1883,1551659406511,PRODUCED
Publisher_002,topicA,topicA-331,172.172.1.2:1883,1551659406604,PRODUCED
Publisher_002,topicA,topicA-332,172.172.1.2:1883,1551659406703,PRODUCED
Publisher_002,topicA,topicA-333,172.172.1.2:1883,1551659406803,PRODUCED
Publisher_002,topicA,topicA-334,172.172.1.2:1883,1551659406905,PRODUCED
Publisher_002,topicA,topicA-335,172.172.1.2:1883,1551659407004,PRODUCED
Publisher_002,topicA,topicA-336,172.172.1.2:1883,1551659407104,PRODUCED
Publisher_002,topicA,topicA-337,172.172.1.2:1883,1551659407205,PRODUCED
Publisher_002,topicA,topicA-338,172.172.1.2:1883,1551659407304,PRODUCED
Publisher_002,topicA,topicA-339,172.172.1.2:1883,1551659407405,PRODUCED
Publisher_002,topicA,topicA-340,172.172.1.2:1883,1551659407503,PRODUCED
Publisher_002,topicA,topicA-341,172.172.1.2:1883,1551659407604,PRODUCED
Publisher_002,topicA,topicA-342,172.172.1.2:1883,1551659407705,PRODUCED
Publisher_002,topicA,topicA-343,172.172.1.2:1883,1551659407803,PRODUCED
Publisher_002,topicA,topicA-344,172.172.1.2:1883,1551659407904,PRODUCED
Publisher_002,topicA,topicA-345,172.172.1.2:1883,1551659408005,PRODUCED
Publisher_002,topicA,topicA-346,172.172.1.2:1883,1551659408104,PRODUCED
Publisher_002,topicA,topicA-347,172.172.1.2:1883,1551659408203,PRODUCED
Publisher_002,topicA,topicA-348,172.172.1.2:1883,1551659408303,PRODUCED
Publisher_002,topicA,topicA-349,172.172.1.2:1883,1551659408403,PRODUCED
Publisher_002,topicA,topicA-350,172.172.1.2:1883,1551659408506,PRODUCED
Publisher_002,topicA,topicA-351,172.172.1.2:1883,1551659408608,PRODUCED
Publisher_002,topicA,topicA-352,172.172.1.2:1883,1551659408703,PRODUCED
Publisher_002,topicA,topicA-353,172.172.1.2:1883,1551659408804,PRODUCED
Publisher_002,topicA,topicA-354,172.172.1.2:1883,1551659408905,PRODUCED
Publisher_002,topicA,topicA-355,172.172.1.2:1883,1551659409003,PRODUCED
Publisher_002,topicA,topicA-356,172.172.1.2:1883,1551659409104,PRODUCED
Publisher_002,topicA,topicA-357,172.172.1.2:1883,1551659409204,PRODUCED
Publisher_002,topicA,topicA-358,172.172.1.2:1883,1551659409303,PRODUCED
Publisher_002,topicA,topicA-359,172.172.1.2:1883,1551659409404,PRODUCED
Publisher_002,topicA,topicA-360,172.172.1.2:1883,1551659409505,PRODUCED
Publisher_002,topicA,topicA-361,172.172.1.2:1883,1551659409604,PRODUCED
Publisher_002,topicA,topicA-362,172.172.1.2:1883,1551659409704,PRODUCED
Publisher_002,topicA,topicA-363,172.172.1.2:1883,1551659409810,PRODUCED
Publisher_002,topicA,topicA-364,172.172.1.2:1883,1551659409903,PRODUCED
Publisher_002,topicA,topicA-365,172.172.1.2:1883,1551659410003,PRODUCED
Publisher_002,topicA,topicA-366,172.172.1.2:1883,1551659410103,PRODUCED
Publisher_002,topicA,topicA-367,172.172.1.2:1883,1551659410203,PRODUCED
Publisher_002,topicA,topicA-368,172.172.1.2:1883,1551659410303,PRODUCED
Publisher_002,topicA,topicA-369,172.172.1.2:1883,1551659410403,PRODUCED
Publisher_002,topicA,topicA-370,172.172.1.2:1883,1551659410503,PRODUCED
Publisher_002,topicA,topicA-371,172.172.1.2:1883,1551659410605,PRODUCED
Publisher_002,topicA,topicA-372,172.172.1.2:1883,1551659410704,PRODUCED
Publisher_002,topicA,topicA-373,172.172.1.2:1883,1551659410807,PRODUCED
Publisher_002,topicA,topicA-374,172.172.1.2:1883,1551659410904,PRODUCED
Publisher_002,topicA,topicA-375,172.172.1.2:1883,1551659411014,PRODUCED
Publisher_002,topicA,topicA-376,172.172.1.2:1883,1551659411104,PRODUCED
Publisher_002,topicA,topicA-377,172.172.1.2:1883,1551659411204,PRODUCED
Publisher_002,topicA,topicA-378,172.172.1.2:1883,1551659411303,PRODUCED
Publisher_002,topicA,topicA-379,172.172.1.2:1883,1551659411403,PRODUCED
Publisher_002,topicA,topicA-380,172.172.1.2:1883,1551659411503,PRODUCED
Publisher_002,topicA,topicA-381,172.172.1.2:1883,1551659411603,PRODUCED
Publisher_002,topicA,topicA-382,172.172.1.2:1883,1551659411703,PRODUCED
Publisher_002,topicA,topicA-383,172.172.1.2:1883,1551659411806,PRODUCED
Publisher_002,topicA,topicA-384,172.172.1.2:1883,1551659411903,PRODUCED
Publisher_002,topicA,topicA-385,172.172.1.2:1883,1551659412003,PRODUCED
Publisher_002,topicA,topicA-386,172.172.1.2:1883,1551659412108,PRODUCED
Publisher_002,topicA,topicA-387,172.172.1.2:1883,1551659412207,PRODUCED
Publisher_002,topicA,topicA-388,172.172.1.2:1883,1551659412303,PRODUCED
Publisher_002,topicA,topicA-389,172.172.1.2:1883,1551659412403,PRODUCED
Publisher_002,topicA,topicA-390,172.172.1.2:1883,1551659412503,PRODUCED
Publisher_002,topicA,topicA-391,172.172.1.2:1883,1551659412605,PRODUCED
Publisher_002,topicA,topicA-392,172.172.1.2:1883,1551659412703,PRODUCED
Publisher_002,topicA,topicA-393,172.172.1.2:1883,1551659412804,PRODUCED
Publisher_002,topicA,topicA-394,172.172.1.2:1883,1551659412903,PRODUCED
Publisher_002,topicA,topicA-395,172.172.1.2:1883,1551659413004,PRODUCED
Publisher_002,topicA,topicA-396,172.172.1.2:1883,1551659413103,PRODUCED
Publisher_002,topicA,topicA-397,172.172.1.2:1883,1551659413203,PRODUCED
Publisher_002,topicA,topicA-398,172.172.1.2:1883,1551659413304,PRODUCED
Publisher_002,topicA,topicA-399,172.172.1.2:1883,1551659413403,PRODUCED
Publisher_002,topicA,topicA-400,172.172.1.2:1883,1551659413503,PRODUCED
Publisher_002,topicA,topicA-401,172.172.1.2:1883,1551659413603,PRODUCED
Publisher_002,topicA,topicA-402,172.172.1.2:1883,1551659413703,PRODUCED
Publisher_002,topicA,topicA-403,172.172.1.2:1883,1551659413804,PRODUCED
Publisher_002,topicA,topicA-404,172.172.1.2:1883,1551659413904,PRODUCED
Publisher_002,topicA,topicA-405,172.172.1.2:1883,1551659414004,PRODUCED
Publisher_002,topicA,topicA-406,172.172.1.2:1883,1551659414104,PRODUCED
Publisher_002,topicA,topicA-407,172.172.1.2:1883,1551659414203,PRODUCED
Publisher_002,topicA,topicA-408,172.172.1.2:1883,1551659414308,PRODUCED
Publisher_002,topicA,topicA-409,172.172.1.2:1883,1551659414405,PRODUCED
Publisher_002,topicA,topicA-410,172.172.1.2:1883,1551659414503,PRODUCED
Publisher_002,topicA,topicA-411,172.172.1.2:1883,1551659414604,PRODUCED
Publisher_002,topicA,topicA-412,172.172.1.2:1883,1551659414706,PRODUCED
Publisher_002,topicA,topicA-413,172.172.1.2:1883,1551659414804,PRODUCED
Publisher_002,topicA,topicA-414,172.172.1.2:1883,1551659414903,PRODUCED
Publisher_002,topicA,topicA-415,172.172.1.2:1883,1551659415007,PRODUCED
Publisher_002,topicA,topicA-416,172.172.1.2:1883,1551659415104,PRODUCED
Publisher_002,topicA,topicA-417,172.172.1.2:1883,1551659415204,PRODUCED
Publisher_002,topicA,topicA-418,172.172.1.2:1883,1551659415307,PRODUCED
Publisher_002,topicA,topicA-419,172.172.1.2:1883,1551659415404,PRODUCED
Publisher_002,topicA,topicA-420,172.172.1.2:1883,1551659415505,PRODUCED
Publisher_002,topicA,topicA-421,172.172.1.2:1883,1551659415604,PRODUCED
Publisher_002,topicA,topicA-422,172.172.1.2:1883,1551659415703,PRODUCED
Publisher_002,topicA,topicA-423,172.172.1.2:1883,1551659415803,PRODUCED
Publisher_002,topicA,topicA-424,172.172.1.2:1883,1551659415903,PRODUCED
Publisher_002,topicA,topicA-425,172.172.1.2:1883,1551659416004,PRODUCED
Publisher_002,topicA,topicA-426,172.172.1.2:1883,1551659416103,PRODUCED
Publisher_002,topicA,topicA-427,172.172.1.2:1883,1551659416204,PRODUCED
Publisher_002,topicA,topicA-428,172.172.1.2:1883,1551659416303,PRODUCED
Publisher_002,topicA,topicA-429,172.172.1.2:1883,1551659416403,PRODUCED
Publisher_002,topicA,topicA-430,172.172.1.2:1883,1551659416504,PRODUCED
Publisher_002,topicA,topicA-431,172.172.1.2:1883,1551659416604,PRODUCED
Publisher_002,topicA,topicA-432,172.172.1.2:1883,1551659416704,PRODUCED
Publisher_002,topicA,topicA-433,172.172.1.2:1883,1551659416804,PRODUCED
Publisher_002,topicA,topicA-434,172.172.1.2:1883,1551659416906,PRODUCED
Publisher_002,topicA,topicA-435,172.172.1.2:1883,1551659417004,PRODUCED
Publisher_002,topicA,topicA-436,172.172.1.2:1883,1551659417104,PRODUCED
Publisher_002,topicA,topicA-437,172.172.1.2:1883,1551659417204,PRODUCED
Publisher_002,topicA,topicA-438,172.172.1.2:1883,1551659417304,PRODUCED
Publisher_002,topicA,topicA-439,172.172.1.2:1883,1551659417403,PRODUCED
Publisher_002,topicA,topicA-440,172.172.1.2:1883,1551659417503,PRODUCED
Publisher_002,topicA,topicA-441,172.172.1.2:1883,1551659417604,PRODUCED
Publisher_002,topicA,topicA-442,172.172.1.2:1883,1551659417703,PRODUCED
Publisher_002,topicA,topicA-443,172.172.1.2:1883,1551659417805,PRODUCED
Publisher_002,topicA,topicA-444,172.172.1.2:1883,1551659417904,PRODUCED
Publisher_002,topicA,topicA-445,172.172.1.2:1883,1551659418004,PRODUCED
Publisher_002,topicA,topicA-446,172.172.1.2:1883,1551659418104,PRODUCED
Publisher_002,topicA,topicA-447,172.172.1.2:1883,1551659418204,PRODUCED
Publisher_002,topicA,topicA-448,172.172.1.2:1883,1551659418304,PRODUCED
Publisher_002,topicA,topicA-449,172.172.1.2:1883,1551659418405,PRODUCED
Publisher_002,topicA,topicA-450,172.172.1.2:1883,1551659418503,PRODUCED
Publisher_002,topicA,topicA-451,172.172.1.2:1883,1551659418605,PRODUCED
Publisher_002,topicA,topicA-452,172.172.1.2:1883,1551659418704,PRODUCED
Publisher_002,topicA,topicA-453,172.172.1.2:1883,1551659418804,PRODUCED
Publisher_002,topicA,topicA-454,172.172.1.2:1883,1551659418904,PRODUCED
Publisher_002,topicA,topicA-455,172.172.1.2:1883,1551659419004,PRODUCED
Publisher_002,topicA,topicA-456,172.172.1.2:1883,1551659419103,PRODUCED
Publisher_002,topicA,topicA-457,172.172.1.2:1883,1551659419203,PRODUCED
Publisher_002,topicA,topicA-458,172.172.1.2:1883,1551659419304,PRODUCED
Publisher_002,topicA,topicA-459,172.172.1.2:1883,1551659419405,PRODUCED
Publisher_002,topicA,topicA-460,172.172.1.2:1883,1551659419504,PRODUCED
Publisher_002,topicA,topicA-461,172.172.1.2:1883,1551659419603,PRODUCED
Publisher_002,topicA,topicA-462,172.172.1.2:1883,1551659419705,PRODUCED
Publisher_002,topicA,topicA-463,172.172.1.2:1883,1551659419803,PRODUCED
Publisher_002,topicA,topicA-464,172.172.1.2:1883,1551659419904,PRODUCED
Publisher_002,topicA,topicA-465,172.172.1.2:1883,1551659420005,PRODUCED
Publisher_002,topicA,topicA-466,172.172.1.2:1883,1551659420103,PRODUCED
Publisher_002,topicA,topicA-467,172.172.1.2:1883,1551659420203,PRODUCED
Publisher_002,topicA,topicA-468,172.172.1.2:1883,1551659420303,PRODUCED
Publisher_002,topicA,topicA-469,172.172.1.2:1883,1551659420403,PRODUCED
Publisher_002,topicA,topicA-470,172.172.1.2:1883,1551659420503,PRODUCED
Publisher_002,topicA,topicA-471,172.172.1.2:1883,1551659420603,PRODUCED
Publisher_002,topicA,topicA-472,172.172.1.2:1883,1551659420703,PRODUCED
Publisher_002,topicA,topicA-473,172.172.1.2:1883,1551659420804,PRODUCED
Publisher_002,topicA,topicA-474,172.172.1.2:1883,1551659420903,PRODUCED
Publisher_002,topicA,topicA-475,172.172.1.2:1883,1551659421007,PRODUCED
Publisher_002,topicA,topicA-476,172.172.1.2:1883,1551659421105,PRODUCED
Publisher_002,topicA,topicA-477,172.172.1.2:1883,1551659421204,PRODUCED
Publisher_002,topicA,topicA-478,172.172.1.2:1883,1551659421304,PRODUCED
Publisher_002,topicA,topicA-479,172.172.1.2:1883,1551659421404,PRODUCED
Publisher_002,topicA,topicA-480,172.172.1.2:1883,1551659421504,PRODUCED
Publisher_002,topicA,topicA-481,172.172.1.2:1883,1551659421604,PRODUCED
Publisher_002,topicA,topicA-482,172.172.1.2:1883,1551659421703,PRODUCED
Publisher_002,topicA,topicA-483,172.172.1.2:1883,1551659421803,PRODUCED
Publisher_002,topicA,topicA-484,172.172.1.2:1883,1551659421905,PRODUCED
Publisher_002,topicA,topicA-485,172.172.1.2:1883,1551659422007,PRODUCED
Publisher_002,topicA,topicA-486,172.172.1.2:1883,1551659422103,PRODUCED
Publisher_002,topicA,topicA-487,172.172.1.2:1883,1551659422203,PRODUCED
Publisher_002,topicA,topicA-488,172.172.1.2:1883,1551659422304,PRODUCED
Publisher_002,topicA,topicA-489,172.172.1.2:1883,1551659422403,PRODUCED
Publisher_002,topicA,topicA-490,172.172.1.2:1883,1551659422503,PRODUCED
Publisher_002,topicA,topicA-491,172.172.1.2:1883,1551659422603,PRODUCED
Publisher_002,topicA,topicA-492,172.172.1.2:1883,1551659422704,PRODUCED
Publisher_002,topicA,topicA-493,172.172.1.2:1883,1551659422804,PRODUCED
Publisher_002,topicA,topicA-494,172.172.1.2:1883,1551659422903,PRODUCED
Publisher_002,topicA,topicA-495,172.172.1.2:1883,1551659423004,PRODUCED
Publisher_002,topicA,topicA-496,172.172.1.2:1883,1551659423105,PRODUCED
Publisher_002,topicA,topicA-497,172.172.1.2:1883,1551659423203,PRODUCED
Publisher_002,topicA,topicA-498,172.172.1.2:1883,1551659423303,PRODUCED
Publisher_002,topicA,topicA-499,172.172.1.2:1883,1551659423403,PRODUCED
Publisher_002,topicA,topicA-500,172.172.1.2:1883,1551659423505,PRODUCED
Publisher_002,topicA,topicA-501,172.172.1.2:1883,1551659423603,PRODUCED
Publisher_002,topicA,topicA-502,172.172.1.2:1883,1551659423705,PRODUCED
Publisher_002,topicA,topicA-503,172.172.1.2:1883,1551659423803,PRODUCED
Publisher_002,topicA,topicA-504,172.172.1.2:1883,1551659423904,PRODUCED
Publisher_002,topicA,topicA-505,172.172.1.2:1883,1551659424003,PRODUCED
Publisher_002,topicA,topicA-506,172.172.1.2:1883,1551659424103,PRODUCED
Publisher_002,topicA,topicA-507,172.172.1.2:1883,1551659424204,PRODUCED
Publisher_002,topicA,topicA-508,172.172.1.2:1883,1551659424303,PRODUCED
Publisher_002,topicA,topicA-509,172.172.1.2:1883,1551659424403,PRODUCED
Publisher_002,topicA,topicA-510,172.172.1.2:1883,1551659424503,PRODUCED
Publisher_002,topicA,topicA-511,172.172.1.2:1883,1551659424605,PRODUCED
Publisher_002,topicA,topicA-512,172.172.1.2:1883,1551659424704,PRODUCED
Publisher_002,topicA,topicA-513,172.172.1.2:1883,1551659424805,PRODUCED
Publisher_002,topicA,topicA-514,172.172.1.2:1883,1551659424903,PRODUCED
Publisher_002,topicA,topicA-515,172.172.1.2:1883,1551659425003,PRODUCED
Publisher_002,topicA,topicA-516,172.172.1.2:1883,1551659425103,PRODUCED
Publisher_002,topicA,topicA-517,172.172.1.2:1883,1551659425203,PRODUCED
Publisher_002,topicA,topicA-518,172.172.1.2:1883,1551659425303,PRODUCED
Publisher_002,topicA,topicA-519,172.172.1.2:1883,1551659425403,PRODUCED
Publisher_002,topicA,topicA-520,172.172.1.2:1883,1551659425504,PRODUCED
Publisher_002,topicA,topicA-521,172.172.1.2:1883,1551659425604,PRODUCED
Publisher_002,topicA,topicA-522,172.172.1.2:1883,1551659425705,PRODUCED
Publisher_002,topicA,topicA-523,172.172.1.2:1883,1551659425804,PRODUCED
Publisher_002,topicA,topicA-524,172.172.1.2:1883,1551659425904,PRODUCED
Publisher_002,topicA,topicA-525,172.172.1.2:1883,1551659426009,PRODUCED
Publisher_002,topicA,topicA-526,172.172.1.2:1883,1551659426104,PRODUCED
Publisher_002,topicA,topicA-527,172.172.1.2:1883,1551659426205,PRODUCED
Publisher_002,topicA,topicA-528,172.172.1.2:1883,1551659426303,PRODUCED
Publisher_002,topicA,topicA-529,172.172.1.2:1883,1551659426405,PRODUCED
Publisher_002,topicA,topicA-530,172.172.1.2:1883,1551659426504,PRODUCED
Publisher_002,topicA,topicA-531,172.172.1.2:1883,1551659426603,PRODUCED
Publisher_002,topicA,topicA-532,172.172.1.2:1883,1551659426704,PRODUCED
Publisher_002,topicA,topicA-533,172.172.1.2:1883,1551659426804,PRODUCED
Publisher_002,topicA,topicA-534,172.172.1.2:1883,1551659426905,PRODUCED
Publisher_002,topicA,topicA-535,172.172.1.2:1883,1551659427004,PRODUCED
Publisher_002,topicA,topicA-536,172.172.1.2:1883,1551659427104,PRODUCED
Publisher_002,topicA,topicA-537,172.172.1.2:1883,1551659427203,PRODUCED
Publisher_002,topicA,topicA-538,172.172.1.2:1883,1551659427306,PRODUCED
Publisher_002,topicA,topicA-539,172.172.1.2:1883,1551659427404,PRODUCED
Publisher_002,topicA,topicA-540,172.172.1.2:1883,1551659427504,PRODUCED
Publisher_002,topicA,topicA-541,172.172.1.2:1883,1551659427603,PRODUCED
Publisher_002,topicA,topicA-542,172.172.1.2:1883,1551659427704,PRODUCED
Publisher_002,topicA,topicA-543,172.172.1.2:1883,1551659427803,PRODUCED
Publisher_002,topicA,topicA-544,172.172.1.2:1883,1551659427903,PRODUCED
Publisher_002,topicA,topicA-545,172.172.1.2:1883,1551659428004,PRODUCED
Publisher_002,topicA,topicA-546,172.172.1.2:1883,1551659428104,PRODUCED
Publisher_002,topicA,topicA-547,172.172.1.2:1883,1551659428205,PRODUCED
Publisher_002,topicA,topicA-548,172.172.1.2:1883,1551659428304,PRODUCED
Publisher_002,topicA,topicA-549,172.172.1.2:1883,1551659428411,PRODUCED
Publisher_002,topicA,topicA-550,172.172.1.2:1883,1551659428503,PRODUCED
Publisher_002,topicA,topicA-551,172.172.1.2:1883,1551659428603,PRODUCED
Publisher_002,topicA,topicA-552,172.172.1.2:1883,1551659428704,PRODUCED
Publisher_002,topicA,topicA-553,172.172.1.2:1883,1551659428804,PRODUCED
Publisher_002,topicA,topicA-554,172.172.1.2:1883,1551659428904,PRODUCED
Publisher_002,topicA,topicA-555,172.172.1.2:1883,1551659429003,PRODUCED
Publisher_002,topicA,topicA-556,172.172.1.2:1883,1551659429104,PRODUCED
Publisher_002,topicA,topicA-557,172.172.1.2:1883,1551659429205,PRODUCED
Publisher_002,topicA,topicA-558,172.172.1.2:1883,1551659429303,PRODUCED
Publisher_002,topicA,topicA-559,172.172.1.2:1883,1551659429404,PRODUCED
Publisher_002,topicA,topicA-560,172.172.1.2:1883,1551659429503,PRODUCED
Publisher_002,topicA,topicA-561,172.172.1.2:1883,1551659429603,PRODUCED
Publisher_002,topicA,topicA-562,172.172.1.2:1883,1551659429708,PRODUCED
Publisher_002,topicA,topicA-563,172.172.1.2:1883,1551659429803,PRODUCED
Publisher_002,topicA,topicA-564,172.172.1.2:1883,1551659429910,PRODUCED
Publisher_002,topicA,topicA-565,172.172.1.2:1883,1551659430005,PRODUCED
Publisher_002,topicA,topicA-566,172.172.1.2:1883,1551659430105,PRODUCED
Publisher_002,topicA,topicA-567,172.172.1.2:1883,1551659430205,PRODUCED
Publisher_002,topicA,topicA-568,172.172.1.2:1883,1551659430304,PRODUCED
Publisher_002,topicA,topicA-569,172.172.1.2:1883,1551659430408,PRODUCED
Publisher_002,topicA,topicA-570,172.172.1.2:1883,1551659430503,PRODUCED
Publisher_002,topicA,topicA-571,172.172.1.2:1883,1551659430604,PRODUCED
Publisher_002,topicA,topicA-572,172.172.1.2:1883,1551659430704,PRODUCED
Publisher_002,topicA,topicA-573,172.172.1.2:1883,1551659430805,PRODUCED
Publisher_002,topicA,topicA-574,172.172.1.2:1883,1551659430903,PRODUCED
Publisher_002,topicA,topicA-575,172.172.1.2:1883,1551659431005,PRODUCED
Publisher_002,topicA,topicA-576,172.172.1.2:1883,1551659431103,PRODUCED
Publisher_002,topicA,topicA-577,172.172.1.2:1883,1551659431204,PRODUCED
Publisher_002,topicA,topicA-578,172.172.1.2:1883,1551659431303,PRODUCED
Publisher_002,topicA,topicA-579,172.172.1.2:1883,1551659431406,PRODUCED
Publisher_002,topicA,topicA-580,172.172.1.2:1883,1551659431503,PRODUCED
Publisher_002,topicA,topicA-581,172.172.1.2:1883,1551659431603,PRODUCED
Publisher_002,topicA,topicA-582,172.172.1.2:1883,1551659431703,PRODUCED
Publisher_002,topicA,topicA-583,172.172.1.2:1883,1551659431803,PRODUCED
Publisher_002,topicA,topicA-584,172.172.1.2:1883,1551659431904,PRODUCED
Publisher_002,topicA,topicA-585,172.172.1.2:1883,1551659432005,PRODUCED
Publisher_002,topicA,topicA-586,172.172.1.2:1883,1551659432104,PRODUCED
Publisher_002,topicA,topicA-587,172.172.1.2:1883,1551659432204,PRODUCED
Publisher_002,topicA,topicA-588,172.172.1.2:1883,1551659432303,PRODUCED
Publisher_002,topicA,topicA-589,172.172.1.2:1883,1551659432403,PRODUCED
Publisher_002,topicA,topicA-590,172.172.1.2:1883,1551659432504,PRODUCED
Publisher_002,topicA,topicA-591,172.172.1.2:1883,1551659432603,PRODUCED
Publisher_002,topicA,topicA-592,172.172.1.2:1883,1551659432704,PRODUCED
Publisher_002,topicA,topicA-593,172.172.1.2:1883,1551659432803,PRODUCED
Publisher_002,topicA,topicA-594,172.172.1.2:1883,1551659432906,PRODUCED
Publisher_002,topicA,topicA-595,172.172.1.2:1883,1551659433004,PRODUCED
Publisher_002,topicA,topicA-596,172.172.1.2:1883,1551659433103,PRODUCED
Publisher_002,topicA,topicA-597,172.172.1.2:1883,1551659433204,PRODUCED
Publisher_002,topicA,topicA-598,172.172.1.2:1883,1551659433304,PRODUCED
Publisher_002,topicA,topicA-599,172.172.1.2:1883,1551659433403,PRODUCED
Publisher_002,topicA,topicA-600,172.172.1.2:1883,1551659433504,PRODUCED
Publisher_002,topicA,topicA-601,172.172.1.2:1883,1551659433604,PRODUCED
Publisher_002,topicA,topicA-602,172.172.1.2:1883,1551659433705,PRODUCED
Publisher_002,topicA,topicA-603,172.172.1.2:1883,1551659433804,PRODUCED
Publisher_002,topicA,topicA-604,172.172.1.2:1883,1551659433904,PRODUCED
Publisher_002,topicA,topicA-605,172.172.1.2:1883,1551659434003,PRODUCED
Publisher_002,topicA,topicA-606,172.172.1.2:1883,1551659434103,PRODUCED
Publisher_002,topicA,topicA-607,172.172.1.2:1883,1551659434203,PRODUCED
Publisher_002,topicA,topicA-608,172.172.1.2:1883,1551659434306,PRODUCED
Publisher_002,topicA,topicA-609,172.172.1.2:1883,1551659434403,PRODUCED
Publisher_002,topicA,topicA-610,172.172.1.2:1883,1551659434503,PRODUCED
Publisher_002,topicA,topicA-611,172.172.1.2:1883,1551659434604,PRODUCED
Publisher_002,topicA,topicA-612,172.172.1.2:1883,1551659434707,PRODUCED
Publisher_002,topicA,topicA-613,172.172.1.2:1883,1551659434805,PRODUCED
Publisher_002,topicA,topicA-614,172.172.1.2:1883,1551659434905,PRODUCED
Publisher_002,topicA,topicA-615,172.172.1.2:1883,1551659435003,PRODUCED
Publisher_002,topicA,topicA-616,172.172.1.2:1883,1551659435103,PRODUCED
Publisher_002,topicA,topicA-617,172.172.1.2:1883,1551659435203,PRODUCED
Publisher_002,topicA,topicA-618,172.172.1.2:1883,1551659435303,PRODUCED
Publisher_002,topicA,topicA-619,172.172.1.2:1883,1551659435404,PRODUCED
Publisher_002,topicA,topicA-620,172.172.1.2:1883,1551659435503,PRODUCED
Publisher_002,topicA,topicA-621,172.172.1.2:1883,1551659435603,PRODUCED
Publisher_002,topicA,topicA-622,172.172.1.2:1883,1551659435704,PRODUCED
Publisher_002,topicA,topicA-623,172.172.1.2:1883,1551659435803,PRODUCED
Publisher_002,topicA,topicA-624,172.172.1.2:1883,1551659435903,PRODUCED
Publisher_002,topicA,topicA-625,172.172.1.2:1883,1551659436003,PRODUCED
Publisher_002,topicA,topicA-626,172.172.1.2:1883,1551659436103,PRODUCED
Publisher_002,topicA,topicA-627,172.172.1.2:1883,1551659436204,PRODUCED
Publisher_002,topicA,topicA-628,172.172.1.2:1883,1551659436303,PRODUCED
Publisher_002,topicA,topicA-629,172.172.1.2:1883,1551659436403,PRODUCED
Publisher_002,topicA,topicA-630,172.172.1.2:1883,1551659436507,PRODUCED
Publisher_002,topicA,topicA-631,172.172.1.2:1883,1551659436603,PRODUCED
Publisher_002,topicA,topicA-632,172.172.1.2:1883,1551659436706,PRODUCED
Publisher_002,topicA,topicA-633,172.172.1.2:1883,1551659436806,PRODUCED
Publisher_002,topicA,topicA-634,172.172.1.2:1883,1551659436903,PRODUCED
Publisher_002,topicA,topicA-635,172.172.1.2:1883,1551659437007,PRODUCED
Publisher_002,topicA,topicA-636,172.172.1.2:1883,1551659437103,PRODUCED
Publisher_002,topicA,topicA-637,172.172.1.2:1883,1551659437203,PRODUCED
Publisher_002,topicA,topicA-638,172.172.1.2:1883,1551659437303,PRODUCED
Publisher_002,topicA,topicA-639,172.172.1.2:1883,1551659437404,PRODUCED
Publisher_002,topicA,topicA-640,172.172.1.2:1883,1551659437503,PRODUCED
Publisher_002,topicA,topicA-641,172.172.1.2:1883,1551659437603,PRODUCED
Publisher_002,topicA,topicA-642,172.172.1.2:1883,1551659437703,PRODUCED
