clientId,topic,guid,broker,timestamp,type
Subscriber_001,topicA,topicA-55,172.172.1.1:1883,1551658387113,RECEIVED
Subscriber_001,topicA,topicA-56,172.172.1.1:1883,1551658387116,RECEIVED
Subscriber_001,topicA,topicA-57,172.172.1.1:1883,1551658387117,RECEIVED
Subscriber_001,topicA,topicA-58,172.172.1.1:1883,1551658387204,RECEIVED
Subscriber_001,topicA,topicA-59,172.172.1.1:1883,1551658387298,RECEIVED
Subscriber_001,topicA,topicA-60,172.172.1.1:1883,1551658387396,RECEIVED
Subscriber_001,topicA,topicA-61,172.172.1.1:1883,1551658387497,RECEIVED
Subscriber_001,topicA,topicA-62,172.172.1.1:1883,1551658387594,RECEIVED
Subscriber_001,topicA,topicA-63,172.172.1.1:1883,1551658387696,RECEIVED
Subscriber_001,topicA,topicA-64,172.172.1.1:1883,1551658387804,RECEIVED
Subscriber_001,topicA,topicA-65,172.172.1.1:1883,1551658387892,RECEIVED
Subscriber_001,topicA,topicA-66,172.172.1.1:1883,1551658387992,RECEIVED
Subscriber_001,topicA,topicA-67,172.172.1.1:1883,1551658388091,RECEIVED
Subscriber_001,topicA,topicA-68,172.172.1.1:1883,1551658388194,RECEIVED
Subscriber_001,topicA,topicA-69,172.172.1.1:1883,1551658388294,RECEIVED
Subscriber_001,topicA,topicA-70,172.172.1.1:1883,1551658388401,RECEIVED
Subscriber_001,topicA,topicA-71,172.172.1.1:1883,1551658388505,RECEIVED
Subscriber_001,topicA,topicA-72,172.172.1.1:1883,1551658388600,RECEIVED
Subscriber_001,topicA,topicA-73,172.172.1.1:1883,1551658388695,RECEIVED
Subscriber_001,topicA,topicA-74,172.172.1.1:1883,1551658388792,RECEIVED
Subscriber_001,topicA,topicA-75,172.172.1.1:1883,1551658388893,RECEIVED
Subscriber_001,topicA,topicA-76,172.172.1.1:1883,1551658388990,RECEIVED
Subscriber_001,topicA,topicA-77,172.172.1.1:1883,1551658389106,RECEIVED
Subscriber_001,topicA,topicA-78,172.172.1.1:1883,1551658389192,RECEIVED
Subscriber_001,topicA,topicA-79,172.172.1.1:1883,1551658389305,RECEIVED
Subscriber_001,topicA,topicA-80,172.172.1.1:1883,1551658389406,RECEIVED
Subscriber_001,topicA,topicA-81,172.172.1.1:1883,1551658389509,RECEIVED
Subscriber_001,topicA,topicA-82,172.172.1.1:1883,1551658389603,RECEIVED
Subscriber_001,topicA,topicA-83,172.172.1.1:1883,1551658389705,RECEIVED
Subscriber_001,topicA,topicA-84,172.172.1.1:1883,1551658389801,RECEIVED
Subscriber_001,topicA,topicA-85,172.172.1.1:1883,1551658389900,RECEIVED
Subscriber_001,topicA,topicA-86,172.172.1.1:1883,1551658389997,RECEIVED
Subscriber_001,topicA,topicA-87,172.172.1.1:1883,1551658390096,RECEIVED
Subscriber_001,topicA,topicA-88,172.172.1.1:1883,1551658390195,RECEIVED
Subscriber_001,topicA,topicA-89,172.172.1.1:1883,1551658390301,RECEIVED
Subscriber_001,topicA,topicA-90,172.172.1.1:1883,1551658390393,RECEIVED
Subscriber_001,topicA,topicA-91,172.172.1.1:1883,1551658390506,RECEIVED
Subscriber_001,topicA,topicA-92,172.172.1.1:1883,1551658390610,RECEIVED
Subscriber_001,topicA,topicA-93,172.172.1.1:1883,1551658390703,RECEIVED
Subscriber_001,topicA,topicA-94,172.172.1.1:1883,1551658390806,RECEIVED
Subscriber_001,topicA,topicA-95,172.172.1.1:1883,1551658390902,RECEIVED
Subscriber_001,topicA,topicA-96,172.172.1.1:1883,1551658391011,RECEIVED
Subscriber_001,topicA,topicA-97,172.172.1.1:1883,1551658391104,RECEIVED
Subscriber_001,topicA,topicA-98,172.172.1.1:1883,1551658391194,RECEIVED
Subscriber_001,topicA,topicA-99,172.172.1.1:1883,1551658391306,RECEIVED
Subscriber_001,topicA,topicA-100,172.172.1.1:1883,1551658391398,RECEIVED
Subscriber_001,topicA,topicA-101,172.172.1.1:1883,1551658391494,RECEIVED
Subscriber_001,topicA,topicA-102,172.172.1.1:1883,1551658391595,RECEIVED
Subscriber_001,topicA,topicA-103,172.172.1.1:1883,1551658391697,RECEIVED
Subscriber_001,topicA,topicA-104,172.172.1.1:1883,1551658391796,RECEIVED
Subscriber_001,topicA,topicA-105,172.172.1.1:1883,1551658391898,RECEIVED
Subscriber_001,topicA,topicA-106,172.172.1.1:1883,1551658391989,RECEIVED
Subscriber_001,topicA,topicA-107,172.172.1.1:1883,1551658392102,RECEIVED
Subscriber_001,topicA,topicA-108,172.172.1.1:1883,1551658392199,RECEIVED
Subscriber_001,topicA,topicA-109,172.172.1.1:1883,1551658392288,RECEIVED
Subscriber_001,topicA,topicA-110,172.172.1.1:1883,1551658392391,RECEIVED
Subscriber_001,topicA,topicA-111,172.172.1.1:1883,1551658392499,RECEIVED
Subscriber_001,topicA,topicA-112,172.172.1.1:1883,1551658392590,RECEIVED
Subscriber_001,topicA,topicA-113,172.172.1.1:1883,1551658392695,RECEIVED
Subscriber_001,topicA,topicA-114,172.172.1.1:1883,1551658392811,RECEIVED
Subscriber_001,topicA,topicA-115,172.172.1.1:1883,1551658392897,RECEIVED
Subscriber_001,topicA,topicA-116,172.172.1.1:1883,1551658393004,RECEIVED
Subscriber_001,topicA,topicA-117,172.172.1.1:1883,1551658393101,RECEIVED
Subscriber_001,topicA,topicA-118,172.172.1.1:1883,1551658393195,RECEIVED
Subscriber_001,topicA,topicA-119,172.172.1.1:1883,1551658393291,RECEIVED
Subscriber_001,topicA,topicA-120,172.172.1.1:1883,1551658393402,RECEIVED
Subscriber_001,topicA,topicA-121,172.172.1.1:1883,1551658393498,RECEIVED
Subscriber_001,topicA,topicA-122,172.172.1.1:1883,1551658393593,RECEIVED
Subscriber_001,topicA,topicA-123,172.172.1.1:1883,1551658393705,RECEIVED
Subscriber_001,topicA,topicA-124,172.172.1.1:1883,1551658393803,RECEIVED
Subscriber_001,topicA,topicA-125,172.172.1.1:1883,1551658393895,RECEIVED
Subscriber_001,topicA,topicA-126,172.172.1.1:1883,1551658393995,RECEIVED
Subscriber_001,topicA,topicA-127,172.172.1.1:1883,1551658394104,RECEIVED
Subscriber_001,topicA,topicA-128,172.172.1.1:1883,1551658394210,RECEIVED
Subscriber_001,topicA,topicA-129,172.172.1.1:1883,1551658394308,RECEIVED
Subscriber_001,topicA,topicA-130,172.172.1.1:1883,1551658394403,RECEIVED
Subscriber_001,topicA,topicA-131,172.172.1.1:1883,1551658394503,RECEIVED
Subscriber_001,topicA,topicA-132,172.172.1.1:1883,1551658394607,RECEIVED
Subscriber_001,topicA,topicA-133,172.172.1.1:1883,1551658394696,RECEIVED
Subscriber_001,topicA,topicA-134,172.172.1.1:1883,1551658394799,RECEIVED
Subscriber_001,topicA,topicA-135,172.172.1.1:1883,1551658394897,RECEIVED
Subscriber_001,topicA,topicA-136,172.172.1.1:1883,1551658394991,RECEIVED
Subscriber_001,topicA,topicA-137,172.172.1.1:1883,1551658395102,RECEIVED
Subscriber_001,topicA,topicA-138,172.172.1.1:1883,1551658395194,RECEIVED
Subscriber_001,topicA,topicA-139,172.172.1.1:1883,1551658395298,RECEIVED
Subscriber_001,topicA,topicA-140,172.172.1.1:1883,1551658395393,RECEIVED
Subscriber_001,topicA,topicA-141,172.172.1.1:1883,1551658395492,RECEIVED
Subscriber_001,topicA,topicA-142,172.172.1.1:1883,1551658395603,RECEIVED
Subscriber_001,topicA,topicA-143,172.172.1.1:1883,1551658395704,RECEIVED
Subscriber_001,topicA,topicA-144,172.172.1.1:1883,1551658395799,RECEIVED
Subscriber_001,topicA,topicA-145,172.172.1.1:1883,1551658395893,RECEIVED
Subscriber_001,topicA,topicA-146,172.172.1.1:1883,1551658395990,RECEIVED
Subscriber_001,topicA,topicA-147,172.172.1.1:1883,1551658396094,RECEIVED
Subscriber_001,topicA,topicA-148,172.172.1.1:1883,1551658396201,RECEIVED
Subscriber_001,topicA,topicA-149,172.172.1.1:1883,1551658396303,RECEIVED
Subscriber_001,topicA,topicA-150,172.172.1.1:1883,1551658396393,RECEIVED
Subscriber_001,topicA,topicA-151,172.172.1.1:1883,1551658396490,RECEIVED
Subscriber_001,topicA,topicA-152,172.172.1.1:1883,1551658396596,RECEIVED
Subscriber_001,topicA,topicA-153,172.172.1.1:1883,1551658396692,RECEIVED
Subscriber_001,topicA,topicA-154,172.172.1.1:1883,1551658396802,RECEIVED
Subscriber_001,topicA,topicA-155,172.172.1.1:1883,1551658396903,RECEIVED
Subscriber_001,topicA,topicA-156,172.172.1.1:1883,1551658397000,RECEIVED
Subscriber_001,topicA,topicA-157,172.172.1.1:1883,1551658397096,RECEIVED
Subscriber_001,topicA,topicA-158,172.172.1.1:1883,1551658397213,RECEIVED
Subscriber_001,topicA,topicA-159,172.172.1.1:1883,1551658397302,RECEIVED
Subscriber_001,topicA,topicA-160,172.172.1.1:1883,1551658397395,RECEIVED
Subscriber_001,topicA,topicA-161,172.172.1.1:1883,1551658397492,RECEIVED
Subscriber_001,topicA,topicA-162,172.172.1.1:1883,1551658397596,RECEIVED
Subscriber_001,topicA,topicA-163,172.172.1.1:1883,1551658397700,RECEIVED
Subscriber_001,topicA,topicA-164,172.172.1.1:1883,1551658397806,RECEIVED
Subscriber_001,topicA,topicA-165,172.172.1.1:1883,1551658397905,RECEIVED
Subscriber_001,topicA,topicA-166,172.172.1.1:1883,1551658397999,RECEIVED
Subscriber_001,topicA,topicA-167,172.172.1.1:1883,1551658398104,RECEIVED
Subscriber_001,topicA,topicA-168,172.172.1.1:1883,1551658398199,RECEIVED
Subscriber_001,topicA,topicA-169,172.172.1.1:1883,1551658398301,RECEIVED
Subscriber_001,topicA,topicA-170,172.172.1.1:1883,1551658398407,RECEIVED
Subscriber_001,topicA,topicA-171,172.172.1.1:1883,1551658398510,RECEIVED
Subscriber_001,topicA,topicA-172,172.172.1.1:1883,1551658398599,RECEIVED
Subscriber_001,topicA,topicA-173,172.172.1.1:1883,1551658398722,RECEIVED
Subscriber_001,topicA,topicA-174,172.172.1.1:1883,1551658398801,RECEIVED
Subscriber_001,topicA,topicA-175,172.172.1.1:1883,1551658398906,RECEIVED
Subscriber_001,topicA,topicA-176,172.172.1.1:1883,1551658398995,RECEIVED
Subscriber_001,topicA,topicA-177,172.172.1.1:1883,1551658399103,RECEIVED
Subscriber_001,topicA,topicA-178,172.172.1.1:1883,1551658399204,RECEIVED
Subscriber_001,topicA,topicA-179,172.172.1.1:1883,1551658399302,RECEIVED
Subscriber_001,topicA,topicA-180,172.172.1.1:1883,1551658399395,RECEIVED
Subscriber_001,topicA,topicA-181,172.172.1.1:1883,1551658399496,RECEIVED
Subscriber_001,topicA,topicA-182,172.172.1.1:1883,1551658399603,RECEIVED
Subscriber_001,topicA,topicA-183,172.172.1.1:1883,1551658399693,RECEIVED
Subscriber_001,topicA,topicA-184,172.172.1.1:1883,1551658399797,RECEIVED
Subscriber_001,topicA,topicA-185,172.172.1.1:1883,1551658399896,RECEIVED
Subscriber_001,topicA,topicA-186,172.172.1.1:1883,1551658399989,RECEIVED
Subscriber_001,topicA,topicA-187,172.172.1.1:1883,1551658400097,RECEIVED
Subscriber_001,topicA,topicA-188,172.172.1.1:1883,1551658400201,RECEIVED
Subscriber_001,topicA,topicA-189,172.172.1.1:1883,1551658400295,RECEIVED
Subscriber_001,topicA,topicA-190,172.172.1.1:1883,1551658400393,RECEIVED
Subscriber_001,topicA,topicA-191,172.172.1.1:1883,1551658400494,RECEIVED
Subscriber_001,topicA,topicA-192,172.172.1.1:1883,1551658400600,RECEIVED
Subscriber_001,topicA,topicA-193,172.172.1.1:1883,1551658400692,RECEIVED
Subscriber_001,topicA,topicA-194,172.172.1.1:1883,1551658400798,RECEIVED
Subscriber_001,topicA,topicA-195,172.172.1.1:1883,1551658400897,RECEIVED
Subscriber_001,topicA,topicA-196,172.172.1.1:1883,1551658400999,RECEIVED
Subscriber_001,topicA,topicA-197,172.172.1.1:1883,1551658401094,RECEIVED
Subscriber_001,topicA,topicA-198,172.172.1.1:1883,1551658401198,RECEIVED
Subscriber_001,topicA,topicA-199,172.172.1.1:1883,1551658401304,RECEIVED
Subscriber_001,topicA,topicA-200,172.172.1.1:1883,1551658401405,RECEIVED
Subscriber_001,topicA,topicA-201,172.172.1.1:1883,1551658401495,RECEIVED
Subscriber_001,topicA,topicA-202,172.172.1.1:1883,1551658401596,RECEIVED
Subscriber_001,topicA,topicA-203,172.172.1.1:1883,1551658401694,RECEIVED
Subscriber_001,topicA,topicA-204,172.172.1.1:1883,1551658401799,RECEIVED
Subscriber_001,topicA,topicA-205,172.172.1.1:1883,1551658401895,RECEIVED
Subscriber_001,topicA,topicA-206,172.172.1.1:1883,1551658401992,RECEIVED
Subscriber_001,topicA,topicA-207,172.172.1.1:1883,1551658402094,RECEIVED
Subscriber_001,topicA,topicA-208,172.172.1.1:1883,1551658402189,RECEIVED
Subscriber_001,topicA,topicA-209,172.172.1.1:1883,1551658402303,RECEIVED
Subscriber_001,topicA,topicA-210,172.172.1.1:1883,1551658402390,RECEIVED
Subscriber_001,topicA,topicA-211,172.172.1.1:1883,1551658402493,RECEIVED
Subscriber_001,topicA,topicA-212,172.172.1.1:1883,1551658402592,RECEIVED
Subscriber_001,topicA,topicA-213,172.172.1.1:1883,1551658402690,RECEIVED
Subscriber_001,topicA,topicA-214,172.172.1.1:1883,1551658402802,RECEIVED
Subscriber_001,topicA,topicA-215,172.172.1.1:1883,1551658402898,RECEIVED
Subscriber_001,topicA,topicA-216,172.172.1.1:1883,1551658402993,RECEIVED
Subscriber_001,topicA,topicA-217,172.172.1.1:1883,1551658403097,RECEIVED
Subscriber_001,topicA,topicA-218,172.172.1.1:1883,1551658403192,RECEIVED
Subscriber_001,topicA,topicA-219,172.172.1.1:1883,1551658403290,RECEIVED
Subscriber_001,topicA,topicA-220,172.172.1.1:1883,1551658403396,RECEIVED
Subscriber_001,topicA,topicA-221,172.172.1.1:1883,1551658403495,RECEIVED
Subscriber_001,topicA,topicA-222,172.172.1.1:1883,1551658403598,RECEIVED
Subscriber_001,topicA,topicA-223,172.172.1.1:1883,1551658403693,RECEIVED
Subscriber_001,topicA,topicA-224,172.172.1.1:1883,1551658403792,RECEIVED
Subscriber_001,topicA,topicA-225,172.172.1.1:1883,1551658403896,RECEIVED
Subscriber_001,topicA,topicA-226,172.172.1.1:1883,1551658404001,RECEIVED
Subscriber_001,topicA,topicA-227,172.172.1.1:1883,1551658404094,RECEIVED
Subscriber_001,topicA,topicA-228,172.172.1.1:1883,1551658404191,RECEIVED
Subscriber_001,topicA,topicA-229,172.172.1.1:1883,1551658404302,RECEIVED
Subscriber_001,topicA,topicA-230,172.172.1.1:1883,1551658404389,RECEIVED
Subscriber_001,topicA,topicA-231,172.172.1.1:1883,1551658404487,RECEIVED
Subscriber_001,topicA,topicA-232,172.172.1.1:1883,1551658404591,RECEIVED
Subscriber_001,topicA,topicA-233,172.172.1.1:1883,1551658404691,RECEIVED
Subscriber_001,topicA,topicA-234,172.172.1.1:1883,1551658404793,RECEIVED
Subscriber_001,topicA,topicA-235,172.172.1.1:1883,1551658404896,RECEIVED
Subscriber_001,topicA,topicA-236,172.172.1.1:1883,1551658404996,RECEIVED
Subscriber_001,topicA,topicA-237,172.172.1.1:1883,1551658405105,RECEIVED
Subscriber_001,topicA,topicA-238,172.172.1.1:1883,1551658405193,RECEIVED
Subscriber_001,topicA,topicA-239,172.172.1.1:1883,1551658405300,RECEIVED
Subscriber_001,topicA,topicA-240,172.172.1.1:1883,1551658405404,RECEIVED
Subscriber_001,topicA,topicA-241,172.172.1.1:1883,1551658405506,RECEIVED
Subscriber_001,topicA,topicA-242,172.172.1.1:1883,1551658405600,RECEIVED
Subscriber_001,topicA,topicA-243,172.172.1.1:1883,1551658405700,RECEIVED
Subscriber_001,topicA,topicA-244,172.172.1.1:1883,1551658405803,RECEIVED
Subscriber_001,topicA,topicA-245,172.172.1.1:1883,1551658405901,RECEIVED
Subscriber_001,topicA,topicA-246,172.172.1.1:1883,1551658406005,RECEIVED
Subscriber_001,topicA,topicA-247,172.172.1.1:1883,1551658406090,RECEIVED
Subscriber_001,topicA,topicA-248,172.172.1.1:1883,1551658406194,RECEIVED
Subscriber_001,topicA,topicA-249,172.172.1.1:1883,1551658406297,RECEIVED
Subscriber_001,topicA,topicA-250,172.172.1.2:1883,1551658408368,RECEIVED
Subscriber_001,topicA,topicA-251,172.172.1.2:1883,1551658408483,RECEIVED
Subscriber_001,topicA,topicA-252,172.172.1.2:1883,1551658408574,RECEIVED
Subscriber_001,topicA,topicA-253,172.172.1.2:1883,1551658408677,RECEIVED
Subscriber_001,topicA,topicA-254,172.172.1.2:1883,1551658408775,RECEIVED
Subscriber_001,topicA,topicA-255,172.172.1.2:1883,1551658408876,RECEIVED
Subscriber_001,topicA,topicA-256,172.172.1.2:1883,1551658408982,RECEIVED
Subscriber_001,topicA,topicA-257,172.172.1.2:1883,1551658409083,RECEIVED
Subscriber_001,topicA,topicA-258,172.172.1.2:1883,1551658409175,RECEIVED
Subscriber_001,topicA,topicA-259,172.172.1.2:1883,1551658409275,RECEIVED
Subscriber_001,topicA,topicA-260,172.172.1.2:1883,1551658409374,RECEIVED
Subscriber_001,topicA,topicA-261,172.172.1.2:1883,1551658409469,RECEIVED
Subscriber_001,topicA,topicA-262,172.172.1.2:1883,1551658409574,RECEIVED
Subscriber_001,topicA,topicA-263,172.172.1.2:1883,1551658409674,RECEIVED
Subscriber_001,topicA,topicA-264,172.172.1.2:1883,1551658409773,RECEIVED
Subscriber_001,topicA,topicA-265,172.172.1.2:1883,1551658409876,RECEIVED
Subscriber_001,topicA,topicA-266,172.172.1.2:1883,1551658409976,RECEIVED
Subscriber_001,topicA,topicA-267,172.172.1.2:1883,1551658410066,RECEIVED
Subscriber_001,topicA,topicA-268,172.172.1.2:1883,1551658410174,RECEIVED
Subscriber_001,topicA,topicA-269,172.172.1.2:1883,1551658410268,RECEIVED
Subscriber_001,topicA,topicA-270,172.172.1.2:1883,1551658410381,RECEIVED
Subscriber_001,topicA,topicA-271,172.172.1.2:1883,1551658410480,RECEIVED
Subscriber_001,topicA,topicA-272,172.172.1.2:1883,1551658410570,RECEIVED
Subscriber_001,topicA,topicA-273,172.172.1.2:1883,1551658410697,RECEIVED
Subscriber_001,topicA,topicA-274,172.172.1.2:1883,1551658410775,RECEIVED
Subscriber_001,topicA,topicA-275,172.172.1.2:1883,1551658410875,RECEIVED
Subscriber_001,topicA,topicA-276,172.172.1.2:1883,1551658410970,RECEIVED
Subscriber_001,topicA,topicA-277,172.172.1.2:1883,1551658411082,RECEIVED
Subscriber_001,topicA,topicA-278,172.172.1.2:1883,1551658411185,RECEIVED
Subscriber_001,topicA,topicA-279,172.172.1.2:1883,1551658411266,RECEIVED
Subscriber_001,topicA,topicA-280,172.172.1.2:1883,1551658411380,RECEIVED
Subscriber_001,topicA,topicA-281,172.172.1.2:1883,1551658411485,RECEIVED
Subscriber_001,topicA,topicA-282,172.172.1.2:1883,1551658411585,RECEIVED
Subscriber_001,topicA,topicA-283,172.172.1.2:1883,1551658411677,RECEIVED
Subscriber_001,topicA,topicA-284,172.172.1.2:1883,1551658411795,RECEIVED
Subscriber_001,topicA,topicA-285,172.172.1.2:1883,1551658411868,RECEIVED
Subscriber_001,topicA,topicA-286,172.172.1.2:1883,1551658411981,RECEIVED
Subscriber_001,topicA,topicA-287,172.172.1.2:1883,1551658412080,RECEIVED
Subscriber_001,topicA,topicA-288,172.172.1.2:1883,1551658412176,RECEIVED
Subscriber_001,topicA,topicA-289,172.172.1.2:1883,1551658412279,RECEIVED
Subscriber_001,topicA,topicA-290,172.172.1.2:1883,1551658412387,RECEIVED
Subscriber_001,topicA,topicA-291,172.172.1.2:1883,1551658412495,RECEIVED
Subscriber_001,topicA,topicA-292,172.172.1.2:1883,1551658412578,RECEIVED
Subscriber_001,topicA,topicA-293,172.172.1.2:1883,1551658412674,RECEIVED
Subscriber_001,topicA,topicA-294,172.172.1.2:1883,1551658412781,RECEIVED
Subscriber_001,topicA,topicA-295,172.172.1.2:1883,1551658412874,RECEIVED
Subscriber_001,topicA,topicA-296,172.172.1.2:1883,1551658412970,RECEIVED
Subscriber_001,topicA,topicA-297,172.172.1.2:1883,1551658413065,RECEIVED
Subscriber_001,topicA,topicA-298,172.172.1.2:1883,1551658413186,RECEIVED
Subscriber_001,topicA,topicA-299,172.172.1.2:1883,1551658413285,RECEIVED
Subscriber_001,topicA,topicA-300,172.172.1.2:1883,1551658413376,RECEIVED
Subscriber_001,topicA,topicA-301,172.172.1.2:1883,1551658413478,RECEIVED
Subscriber_001,topicA,topicA-302,172.172.1.2:1883,1551658413578,RECEIVED
Subscriber_001,topicA,topicA-303,172.172.1.2:1883,1551658413680,RECEIVED
Subscriber_001,topicA,topicA-304,172.172.1.2:1883,1551658413769,RECEIVED
Subscriber_001,topicA,topicA-305,172.172.1.2:1883,1551658413870,RECEIVED
Subscriber_001,topicA,topicA-306,172.172.1.2:1883,1551658413978,RECEIVED
Subscriber_001,topicA,topicA-307,172.172.1.2:1883,1551658414082,RECEIVED
Subscriber_001,topicA,topicA-308,172.172.1.2:1883,1551658414179,RECEIVED
Subscriber_001,topicA,topicA-309,172.172.1.2:1883,1551658414293,RECEIVED
Subscriber_001,topicA,topicA-310,172.172.1.2:1883,1551658414380,RECEIVED
Subscriber_001,topicA,topicA-311,172.172.1.2:1883,1551658414477,RECEIVED
Subscriber_001,topicA,topicA-312,172.172.1.2:1883,1551658414573,RECEIVED
Subscriber_001,topicA,topicA-313,172.172.1.2:1883,1551658414680,RECEIVED
Subscriber_001,topicA,topicA-314,172.172.1.2:1883,1551658414777,RECEIVED
Subscriber_001,topicA,topicA-315,172.172.1.2:1883,1551658414878,RECEIVED
Subscriber_001,topicA,topicA-316,172.172.1.2:1883,1551658414974,RECEIVED
Subscriber_001,topicA,topicA-317,172.172.1.2:1883,1551658415073,RECEIVED
Subscriber_001,topicA,topicA-318,172.172.1.2:1883,1551658415173,RECEIVED
Subscriber_001,topicA,topicA-319,172.172.1.2:1883,1551658415275,RECEIVED
Subscriber_001,topicA,topicA-320,172.172.1.2:1883,1551658415375,RECEIVED
Subscriber_001,topicA,topicA-321,172.172.1.2:1883,1551658415473,RECEIVED
Subscriber_001,topicA,topicA-322,172.172.1.2:1883,1551658415570,RECEIVED
Subscriber_001,topicA,topicA-323,172.172.1.2:1883,1551658415679,RECEIVED
Subscriber_001,topicA,topicA-324,172.172.1.2:1883,1551658415774,RECEIVED
Subscriber_001,topicA,topicA-325,172.172.1.2:1883,1551658415883,RECEIVED
Subscriber_001,topicA,topicA-326,172.172.1.2:1883,1551658415978,RECEIVED
Subscriber_001,topicA,topicA-327,172.172.1.2:1883,1551658416082,RECEIVED
Subscriber_001,topicA,topicA-328,172.172.1.2:1883,1551658416177,RECEIVED
Subscriber_001,topicA,topicA-329,172.172.1.2:1883,1551658416275,RECEIVED
Subscriber_001,topicA,topicA-330,172.172.1.2:1883,1551658416372,RECEIVED
Subscriber_001,topicA,topicA-331,172.172.1.2:1883,1551658416471,RECEIVED
Subscriber_001,topicA,topicA-332,172.172.1.2:1883,1551658416575,RECEIVED
Subscriber_001,topicA,topicA-333,172.172.1.2:1883,1551658416674,RECEIVED
Subscriber_001,topicA,topicA-334,172.172.1.2:1883,1551658416772,RECEIVED
Subscriber_001,topicA,topicA-335,172.172.1.2:1883,1551658416878,RECEIVED
Subscriber_001,topicA,topicA-336,172.172.1.2:1883,1551658416971,RECEIVED
Subscriber_001,topicA,topicA-337,172.172.1.2:1883,1551658417077,RECEIVED
Subscriber_001,topicA,topicA-338,172.172.1.2:1883,1551658417174,RECEIVED
Subscriber_001,topicA,topicA-339,172.172.1.2:1883,1551658417272,RECEIVED
Subscriber_001,topicA,topicA-340,172.172.1.2:1883,1551658417373,RECEIVED
Subscriber_001,topicA,topicA-341,172.172.1.2:1883,1551658417476,RECEIVED
Subscriber_001,topicA,topicA-342,172.172.1.2:1883,1551658417580,RECEIVED
Subscriber_001,topicA,topicA-343,172.172.1.2:1883,1551658417671,RECEIVED
Subscriber_001,topicA,topicA-344,172.172.1.2:1883,1551658417767,RECEIVED
Subscriber_001,topicA,topicA-345,172.172.1.2:1883,1551658417874,RECEIVED
Subscriber_001,topicA,topicA-346,172.172.1.2:1883,1551658417975,RECEIVED
Subscriber_001,topicA,topicA-347,172.172.1.2:1883,1551658418083,RECEIVED
Subscriber_001,topicA,topicA-348,172.172.1.2:1883,1551658418175,RECEIVED
Subscriber_001,topicA,topicA-349,172.172.1.2:1883,1551658418274,RECEIVED
Subscriber_001,topicA,topicA-350,172.172.1.2:1883,1551658418373,RECEIVED
Subscriber_001,topicA,topicA-351,172.172.1.2:1883,1551658418470,RECEIVED
Subscriber_001,topicA,topicA-352,172.172.1.2:1883,1551658418574,RECEIVED
Subscriber_001,topicA,topicA-353,172.172.1.2:1883,1551658418669,RECEIVED
Subscriber_001,topicA,topicA-354,172.172.1.2:1883,1551658418774,RECEIVED
Subscriber_001,topicA,topicA-355,172.172.1.2:1883,1551658418880,RECEIVED
Subscriber_001,topicA,topicA-356,172.172.1.2:1883,1551658418978,RECEIVED
Subscriber_001,topicA,topicA-357,172.172.1.2:1883,1551658419074,RECEIVED
Subscriber_001,topicA,topicA-358,172.172.1.2:1883,1551658419168,RECEIVED
Subscriber_001,topicA,topicA-359,172.172.1.2:1883,1551658419277,RECEIVED
Subscriber_001,topicA,topicA-360,172.172.1.2:1883,1551658419385,RECEIVED
Subscriber_001,topicA,topicA-361,172.172.1.2:1883,1551658419474,RECEIVED
Subscriber_001,topicA,topicA-362,172.172.1.2:1883,1551658419576,RECEIVED
Subscriber_001,topicA,topicA-363,172.172.1.2:1883,1551658419683,RECEIVED
Subscriber_001,topicA,topicA-364,172.172.1.2:1883,1551658419772,RECEIVED
Subscriber_001,topicA,topicA-365,172.172.1.2:1883,1551658419876,RECEIVED
Subscriber_001,topicA,topicA-366,172.172.1.2:1883,1551658419969,RECEIVED
Subscriber_001,topicA,topicA-367,172.172.1.2:1883,1551658420077,RECEIVED
Subscriber_001,topicA,topicA-368,172.172.1.2:1883,1551658420167,RECEIVED
Subscriber_001,topicA,topicA-369,172.172.1.2:1883,1551658420272,RECEIVED
Subscriber_001,topicA,topicA-370,172.172.1.2:1883,1551658420375,RECEIVED
Subscriber_001,topicA,topicA-371,172.172.1.2:1883,1551658420478,RECEIVED
Subscriber_001,topicA,topicA-372,172.172.1.2:1883,1551658420582,RECEIVED
Subscriber_001,topicA,topicA-373,172.172.1.2:1883,1551658420676,RECEIVED
Subscriber_001,topicA,topicA-374,172.172.1.2:1883,1551658420780,RECEIVED
Subscriber_001,topicA,topicA-375,172.172.1.2:1883,1551658420875,RECEIVED
Subscriber_001,topicA,topicA-376,172.172.1.2:1883,1551658420974,RECEIVED
Subscriber_001,topicA,topicA-377,172.172.1.2:1883,1551658421078,RECEIVED
Subscriber_001,topicA,topicA-378,172.172.1.2:1883,1551658421176,RECEIVED
Subscriber_001,topicA,topicA-379,172.172.1.2:1883,1551658421273,RECEIVED
Subscriber_001,topicA,topicA-380,172.172.1.2:1883,1551658421373,RECEIVED
Subscriber_001,topicA,topicA-381,172.172.1.2:1883,1551658421466,RECEIVED
Subscriber_001,topicA,topicA-382,172.172.1.2:1883,1551658421579,RECEIVED
Subscriber_001,topicA,topicA-383,172.172.1.2:1883,1551658421675,RECEIVED
Subscriber_001,topicA,topicA-384,172.172.1.2:1883,1551658421773,RECEIVED
Subscriber_001,topicA,topicA-385,172.172.1.2:1883,1551658421883,RECEIVED
Subscriber_001,topicA,topicA-386,172.172.1.2:1883,1551658421967,RECEIVED
Subscriber_001,topicA,topicA-387,172.172.1.2:1883,1551658422074,RECEIVED
Subscriber_001,topicA,topicA-388,172.172.1.2:1883,1551658422175,RECEIVED
Subscriber_001,topicA,topicA-389,172.172.1.2:1883,1551658422277,RECEIVED
Subscriber_001,topicA,topicA-390,172.172.1.2:1883,1551658422371,RECEIVED
Subscriber_001,topicA,topicA-391,172.172.1.2:1883,1551658422478,RECEIVED
Subscriber_001,topicA,topicA-392,172.172.1.2:1883,1551658422578,RECEIVED
Subscriber_001,topicA,topicA-393,172.172.1.2:1883,1551658422680,RECEIVED
Subscriber_001,topicA,topicA-394,172.172.1.2:1883,1551658422778,RECEIVED
Subscriber_001,topicA,topicA-395,172.172.1.2:1883,1551658422877,RECEIVED
Subscriber_001,topicA,topicA-396,172.172.1.2:1883,1551658422975,RECEIVED
Subscriber_001,topicA,topicA-397,172.172.1.2:1883,1551658423080,RECEIVED
Subscriber_001,topicA,topicA-398,172.172.1.2:1883,1551658423173,RECEIVED
Subscriber_001,topicA,topicA-399,172.172.1.2:1883,1551658423279,RECEIVED
Subscriber_001,topicA,topicA-400,172.172.1.2:1883,1551658423384,RECEIVED
Subscriber_001,topicA,topicA-401,172.172.1.2:1883,1551658423476,RECEIVED
Subscriber_001,topicA,topicA-402,172.172.1.2:1883,1551658423577,RECEIVED
Subscriber_001,topicA,topicA-403,172.172.1.2:1883,1551658423673,RECEIVED
Subscriber_001,topicA,topicA-404,172.172.1.2:1883,1551658423775,RECEIVED
Subscriber_001,topicA,topicA-405,172.172.1.2:1883,1551658423878,RECEIVED
Subscriber_001,topicA,topicA-406,172.172.1.2:1883,1551658423978,RECEIVED
Subscriber_001,topicA,topicA-407,172.172.1.2:1883,1551658424069,RECEIVED
Subscriber_001,topicA,topicA-408,172.172.1.2:1883,1551658424175,RECEIVED
Subscriber_001,topicA,topicA-409,172.172.1.2:1883,1551658424271,RECEIVED
Subscriber_001,topicA,topicA-410,172.172.1.2:1883,1551658424393,RECEIVED
Subscriber_001,topicA,topicA-411,172.172.1.2:1883,1551658424471,RECEIVED
Subscriber_001,topicA,topicA-412,172.172.1.2:1883,1551658424570,RECEIVED
Subscriber_001,topicA,topicA-413,172.172.1.2:1883,1551658424673,RECEIVED
Subscriber_001,topicA,topicA-414,172.172.1.2:1883,1551658424778,RECEIVED
Subscriber_001,topicA,topicA-415,172.172.1.2:1883,1551658424879,RECEIVED
Subscriber_001,topicA,topicA-416,172.172.1.2:1883,1551658424973,RECEIVED
Subscriber_001,topicA,topicA-417,172.172.1.2:1883,1551658425080,RECEIVED
Subscriber_001,topicA,topicA-418,172.172.1.2:1883,1551658425183,RECEIVED
Subscriber_001,topicA,topicA-419,172.172.1.2:1883,1551658425266,RECEIVED
Subscriber_001,topicA,topicA-420,172.172.1.2:1883,1551658425381,RECEIVED
Subscriber_001,topicA,topicA-421,172.172.1.2:1883,1551658425471,RECEIVED
Subscriber_001,topicA,topicA-422,172.172.1.2:1883,1551658425574,RECEIVED
Subscriber_001,topicA,topicA-423,172.172.1.2:1883,1551658425667,RECEIVED
Subscriber_001,topicA,topicA-424,172.172.1.2:1883,1551658425771,RECEIVED
Subscriber_001,topicA,topicA-425,172.172.1.2:1883,1551658425881,RECEIVED
Subscriber_001,topicA,topicA-426,172.172.1.2:1883,1551658425975,RECEIVED
Subscriber_001,topicA,topicA-427,172.172.1.2:1883,1551658426074,RECEIVED
Subscriber_001,topicA,topicA-428,172.172.1.2:1883,1551658426175,RECEIVED
Subscriber_001,topicA,topicA-429,172.172.1.2:1883,1551658426279,RECEIVED
Subscriber_001,topicA,topicA-430,172.172.1.2:1883,1551658426372,RECEIVED
Subscriber_001,topicA,topicA-431,172.172.1.2:1883,1551658426476,RECEIVED
Subscriber_001,topicA,topicA-432,172.172.1.2:1883,1551658426581,RECEIVED
Subscriber_001,topicA,topicA-433,172.172.1.2:1883,1551658426673,RECEIVED
Subscriber_001,topicA,topicA-434,172.172.1.2:1883,1551658426773,RECEIVED
Subscriber_001,topicA,topicA-435,172.172.1.2:1883,1551658426890,RECEIVED
Subscriber_001,topicA,topicA-436,172.172.1.2:1883,1551658426985,RECEIVED
Subscriber_001,topicA,topicA-437,172.172.1.2:1883,1551658427082,RECEIVED
Subscriber_001,topicA,topicA-438,172.172.1.2:1883,1551658427187,RECEIVED
Subscriber_001,topicA,topicA-439,172.172.1.2:1883,1551658427274,RECEIVED
Subscriber_001,topicA,topicA-440,172.172.1.2:1883,1551658427373,RECEIVED
Subscriber_001,topicA,topicA-441,172.172.1.2:1883,1551658427463,RECEIVED
Subscriber_001,topicA,topicA-442,172.172.1.2:1883,1551658427584,RECEIVED
Subscriber_001,topicA,topicA-443,172.172.1.2:1883,1551658427676,RECEIVED
Subscriber_001,topicA,topicA-444,172.172.1.2:1883,1551658427770,RECEIVED
Subscriber_001,topicA,topicA-445,172.172.1.2:1883,1551658427872,RECEIVED
Subscriber_001,topicA,topicA-446,172.172.1.2:1883,1551658427972,RECEIVED
Subscriber_001,topicA,topicA-447,172.172.1.2:1883,1551658428072,RECEIVED
Subscriber_001,topicA,topicA-448,172.172.1.2:1883,1551658428175,RECEIVED
Subscriber_001,topicA,topicA-449,172.172.1.2:1883,1551658428272,RECEIVED
Subscriber_001,topicA,topicA-450,172.172.1.2:1883,1551658428374,RECEIVED
Subscriber_001,topicA,topicA-451,172.172.1.2:1883,1551658428474,RECEIVED
Subscriber_001,topicA,topicA-452,172.172.1.2:1883,1551658428573,RECEIVED
Subscriber_001,topicA,topicA-453,172.172.1.2:1883,1551658428675,RECEIVED
Subscriber_001,topicA,topicA-454,172.172.1.2:1883,1551658428775,RECEIVED
Subscriber_001,topicA,topicA-455,172.172.1.2:1883,1551658428872,RECEIVED
Subscriber_001,topicA,topicA-456,172.172.1.2:1883,1551658428976,RECEIVED
Subscriber_001,topicA,topicA-457,172.172.1.2:1883,1551658429076,RECEIVED
Subscriber_001,topicA,topicA-458,172.172.1.2:1883,1551658429174,RECEIVED
Subscriber_001,topicA,topicA-459,172.172.1.2:1883,1551658429290,RECEIVED
Subscriber_001,topicA,topicA-460,172.172.1.2:1883,1551658429371,RECEIVED
Subscriber_001,topicA,topicA-461,172.172.1.2:1883,1551658429467,RECEIVED
Subscriber_001,topicA,topicA-462,172.172.1.2:1883,1551658429574,RECEIVED
Subscriber_001,topicA,topicA-463,172.172.1.2:1883,1551658429677,RECEIVED
Subscriber_001,topicA,topicA-464,172.172.1.2:1883,1551658429775,RECEIVED
Subscriber_001,topicA,topicA-465,172.172.1.2:1883,1551658429895,RECEIVED
Subscriber_001,topicA,topicA-466,172.172.1.2:1883,1551658429976,RECEIVED
Subscriber_001,topicA,topicA-467,172.172.1.2:1883,1551658430081,RECEIVED
Subscriber_001,topicA,topicA-468,172.172.1.2:1883,1551658430167,RECEIVED
Subscriber_001,topicA,topicA-469,172.172.1.2:1883,1551658430285,RECEIVED
Subscriber_001,topicA,topicA-470,172.172.1.2:1883,1551658430375,RECEIVED
Subscriber_001,topicA,topicA-471,172.172.1.2:1883,1551658430482,RECEIVED
Subscriber_001,topicA,topicA-472,172.172.1.2:1883,1551658430574,RECEIVED
Subscriber_001,topicA,topicA-473,172.172.1.2:1883,1551658430676,RECEIVED
Subscriber_001,topicA,topicA-474,172.172.1.2:1883,1551658430774,RECEIVED
Subscriber_001,topicA,topicA-475,172.172.1.2:1883,1551658430882,RECEIVED
Subscriber_001,topicA,topicA-476,172.172.1.2:1883,1551658430974,RECEIVED
Subscriber_001,topicA,topicA-477,172.172.1.2:1883,1551658431077,RECEIVED
Subscriber_001,topicA,topicA-478,172.172.1.2:1883,1551658431170,RECEIVED
Subscriber_001,topicA,topicA-479,172.172.1.2:1883,1551658431276,RECEIVED
Subscriber_001,topicA,topicA-480,172.172.1.2:1883,1551658431378,RECEIVED
Subscriber_001,topicA,topicA-481,172.172.1.2:1883,1551658431476,RECEIVED
Subscriber_001,topicA,topicA-482,172.172.1.2:1883,1551658431578,RECEIVED
Subscriber_001,topicA,topicA-483,172.172.1.2:1883,1551658431678,RECEIVED
Subscriber_001,topicA,topicA-484,172.172.1.2:1883,1551658431777,RECEIVED
Subscriber_001,topicA,topicA-485,172.172.1.2:1883,1551658431874,RECEIVED
Subscriber_001,topicA,topicA-486,172.172.1.2:1883,1551658431977,RECEIVED
Subscriber_001,topicA,topicA-487,172.172.1.2:1883,1551658432084,RECEIVED
Subscriber_001,topicA,topicA-488,172.172.1.2:1883,1551658432165,RECEIVED
Subscriber_001,topicA,topicA-489,172.172.1.2:1883,1551658432264,RECEIVED
Subscriber_001,topicA,topicA-490,172.172.1.2:1883,1551658432375,RECEIVED
Subscriber_001,topicA,topicA-491,172.172.1.2:1883,1551658432479,RECEIVED
Subscriber_001,topicA,topicA-492,172.172.1.2:1883,1551658432578,RECEIVED
Subscriber_001,topicA,topicA-493,172.172.1.2:1883,1551658432681,RECEIVED
Subscriber_001,topicA,topicA-494,172.172.1.2:1883,1551658432775,RECEIVED
Subscriber_001,topicA,topicA-495,172.172.1.2:1883,1551658432875,RECEIVED
Subscriber_001,topicA,topicA-496,172.172.1.2:1883,1551658432972,RECEIVED
Subscriber_001,topicA,topicA-497,172.172.1.2:1883,1551658433075,RECEIVED
Subscriber_001,topicA,topicA-498,172.172.1.2:1883,1551658433175,RECEIVED
Subscriber_001,topicA,topicA-499,172.172.1.2:1883,1551658433268,RECEIVED
Subscriber_001,topicA,topicA-500,172.172.1.2:1883,1551658433381,RECEIVED
Subscriber_001,topicA,topicA-501,172.172.1.2:1883,1551658433470,RECEIVED
Subscriber_001,topicA,topicA-502,172.172.1.2:1883,1551658433585,RECEIVED
Subscriber_001,topicA,topicA-503,172.172.1.2:1883,1551658433679,RECEIVED
Subscriber_001,topicA,topicA-504,172.172.1.2:1883,1551658433778,RECEIVED
Subscriber_001,topicA,topicA-505,172.172.1.2:1883,1551658433867,RECEIVED
Subscriber_001,topicA,topicA-506,172.172.1.2:1883,1551658433983,RECEIVED
Subscriber_001,topicA,topicA-507,172.172.1.2:1883,1551658434070,RECEIVED
Subscriber_001,topicA,topicA-508,172.172.1.2:1883,1551658434171,RECEIVED
Subscriber_001,topicA,topicA-509,172.172.1.2:1883,1551658434278,RECEIVED
Subscriber_001,topicA,topicA-510,172.172.1.2:1883,1551658434373,RECEIVED
Subscriber_001,topicA,topicA-511,172.172.1.2:1883,1551658434483,RECEIVED
Subscriber_001,topicA,topicA-512,172.172.1.2:1883,1551658434578,RECEIVED
Subscriber_001,topicA,topicA-513,172.172.1.2:1883,1551658434668,RECEIVED
Subscriber_001,topicA,topicA-514,172.172.1.2:1883,1551658434775,RECEIVED
Subscriber_001,topicA,topicA-515,172.172.1.2:1883,1551658434872,RECEIVED
Subscriber_001,topicA,topicA-516,172.172.1.2:1883,1551658434973,RECEIVED
Subscriber_001,topicA,topicA-517,172.172.1.2:1883,1551658435072,RECEIVED
Subscriber_001,topicA,topicA-518,172.172.1.2:1883,1551658435169,RECEIVED
Subscriber_001,topicA,topicA-519,172.172.1.2:1883,1551658435266,RECEIVED
Subscriber_001,topicA,topicA-520,172.172.1.2:1883,1551658435368,RECEIVED
Subscriber_001,topicA,topicA-521,172.172.1.2:1883,1551658435464,RECEIVED
Subscriber_001,topicA,topicA-522,172.172.1.2:1883,1551658435566,RECEIVED
Subscriber_001,topicA,topicA-523,172.172.1.2:1883,1551658435669,RECEIVED
Subscriber_001,topicA,topicA-524,172.172.1.2:1883,1551658435766,RECEIVED
Subscriber_001,topicA,topicA-525,172.172.1.2:1883,1551658435876,RECEIVED
Subscriber_001,topicA,topicA-526,172.172.1.2:1883,1551658435971,RECEIVED
Subscriber_001,topicA,topicA-527,172.172.1.2:1883,1551658436070,RECEIVED
Subscriber_001,topicA,topicA-528,172.172.1.2:1883,1551658436173,RECEIVED
Subscriber_001,topicA,topicA-529,172.172.1.2:1883,1551658436275,RECEIVED
Subscriber_001,topicA,topicA-530,172.172.1.2:1883,1551658436380,RECEIVED
Subscriber_001,topicA,topicA-531,172.172.1.2:1883,1551658436481,RECEIVED
Subscriber_001,topicA,topicA-532,172.172.1.2:1883,1551658436578,RECEIVED
Subscriber_001,topicA,topicA-533,172.172.1.2:1883,1551658436674,RECEIVED
Subscriber_001,topicA,topicA-534,172.172.1.2:1883,1551658436777,RECEIVED
Subscriber_001,topicA,topicA-535,172.172.1.2:1883,1551658436872,RECEIVED
Subscriber_001,topicA,topicA-536,172.172.1.2:1883,1551658436974,RECEIVED
Subscriber_001,topicA,topicA-537,172.172.1.2:1883,1551658437083,RECEIVED
Subscriber_001,topicA,topicA-538,172.172.1.2:1883,1551658437181,RECEIVED
Subscriber_001,topicA,topicA-539,172.172.1.2:1883,1551658437275,RECEIVED
Subscriber_001,topicA,topicA-540,172.172.1.2:1883,1551658437379,RECEIVED
Subscriber_001,topicA,topicA-541,172.172.1.2:1883,1551658437481,RECEIVED
Subscriber_001,topicA,topicA-542,172.172.1.2:1883,1551658437585,RECEIVED
Subscriber_001,topicA,topicA-543,172.172.1.2:1883,1551658437674,RECEIVED
Subscriber_001,topicA,topicA-544,172.172.1.2:1883,1551658437775,RECEIVED
Subscriber_001,topicA,topicA-545,172.172.1.2:1883,1551658437868,RECEIVED
Subscriber_001,topicA,topicA-546,172.172.1.2:1883,1551658437965,RECEIVED
Subscriber_001,topicA,topicA-547,172.172.1.2:1883,1551658438073,RECEIVED
Subscriber_001,topicA,topicA-548,172.172.1.2:1883,1551658438174,RECEIVED
Subscriber_001,topicA,topicA-549,172.172.1.2:1883,1551658438279,RECEIVED
Subscriber_001,topicA,topicA-550,172.172.1.2:1883,1551658438373,RECEIVED
Subscriber_001,topicA,topicA-551,172.172.1.2:1883,1551658438477,RECEIVED
Subscriber_001,topicA,topicA-552,172.172.1.2:1883,1551658438577,RECEIVED
Subscriber_001,topicA,topicA-553,172.172.1.2:1883,1551658438664,RECEIVED
Subscriber_001,topicA,topicA-554,172.172.1.2:1883,1551658438771,RECEIVED
Subscriber_001,topicA,topicA-555,172.172.1.2:1883,1551658438870,RECEIVED
Subscriber_001,topicA,topicA-556,172.172.1.2:1883,1551658438967,RECEIVED
Subscriber_001,topicA,topicA-557,172.172.1.2:1883,1551658439069,RECEIVED
Subscriber_001,topicA,topicA-558,172.172.1.2:1883,1551658439175,RECEIVED
Subscriber_001,topicA,topicA-559,172.172.1.2:1883,1551658439278,RECEIVED
Subscriber_001,topicA,topicA-560,172.172.1.2:1883,1551658439375,RECEIVED
Subscriber_001,topicA,topicA-561,172.172.1.2:1883,1551658439476,RECEIVED
Subscriber_001,topicA,topicA-562,172.172.1.2:1883,1551658439572,RECEIVED
Subscriber_001,topicA,topicA-563,172.172.1.2:1883,1551658439679,RECEIVED
Subscriber_001,topicA,topicA-564,172.172.1.2:1883,1551658439774,RECEIVED
Subscriber_001,topicA,topicA-565,172.172.1.2:1883,1551658439886,RECEIVED
Subscriber_001,topicA,topicA-566,172.172.1.2:1883,1551658439970,RECEIVED
Subscriber_001,topicA,topicA-567,172.172.1.2:1883,1551658440079,RECEIVED
Subscriber_001,topicA,topicA-568,172.172.1.2:1883,1551658440179,RECEIVED
Subscriber_001,topicA,topicA-569,172.172.1.2:1883,1551658440265,RECEIVED
Subscriber_001,topicA,topicA-570,172.172.1.2:1883,1551658440374,RECEIVED
Subscriber_001,topicA,topicA-571,172.172.1.2:1883,1551658440472,RECEIVED
Subscriber_001,topicA,topicA-572,172.172.1.2:1883,1551658440570,RECEIVED
Subscriber_001,topicA,topicA-573,172.172.1.2:1883,1551658440679,RECEIVED
Subscriber_001,topicA,topicA-574,172.172.1.2:1883,1551658440774,RECEIVED
Subscriber_001,topicA,topicA-575,172.172.1.2:1883,1551658440882,RECEIVED
Subscriber_001,topicA,topicA-576,172.172.1.2:1883,1551658440971,RECEIVED
Subscriber_001,topicA,topicA-577,172.172.1.2:1883,1551658441080,RECEIVED
Subscriber_001,topicA,topicA-578,172.172.1.2:1883,1551658441170,RECEIVED
Subscriber_001,topicA,topicA-579,172.172.1.2:1883,1551658441278,RECEIVED
Subscriber_001,topicA,topicA-580,172.172.1.2:1883,1551658441367,RECEIVED
Subscriber_001,topicA,topicA-581,172.172.1.2:1883,1551658441469,RECEIVED
Subscriber_001,topicA,topicA-582,172.172.1.2:1883,1551658441567,RECEIVED
Subscriber_001,topicA,topicA-583,172.172.1.2:1883,1551658441672,RECEIVED
Subscriber_001,topicA,topicA-584,172.172.1.2:1883,1551658441772,RECEIVED
Subscriber_001,topicA,topicA-585,172.172.1.2:1883,1551658441878,RECEIVED
Subscriber_001,topicA,topicA-586,172.172.1.2:1883,1551658441973,RECEIVED
Subscriber_001,topicA,topicA-587,172.172.1.2:1883,1551658442078,RECEIVED
Subscriber_001,topicA,topicA-588,172.172.1.2:1883,1551658442174,RECEIVED
Subscriber_001,topicA,topicA-589,172.172.1.2:1883,1551658442292,RECEIVED
Subscriber_001,topicA,topicA-590,172.172.1.2:1883,1551658442373,RECEIVED
Subscriber_001,topicA,topicA-591,172.172.1.2:1883,1551658442467,RECEIVED
Subscriber_001,topicA,topicA-592,172.172.1.2:1883,1551658442572,RECEIVED
Subscriber_001,topicA,topicA-593,172.172.1.2:1883,1551658442676,RECEIVED
Subscriber_001,topicA,topicA-594,172.172.1.2:1883,1551658442768,RECEIVED
Subscriber_001,topicA,topicA-595,172.172.1.2:1883,1551658442884,RECEIVED
Subscriber_001,topicA,topicA-596,172.172.1.2:1883,1551658442978,RECEIVED
Subscriber_001,topicA,topicA-597,172.172.1.2:1883,1551658443073,RECEIVED
Subscriber_001,topicA,topicA-598,172.172.1.2:1883,1551658443167,RECEIVED
Subscriber_001,topicA,topicA-599,172.172.1.2:1883,1551658443272,RECEIVED
Subscriber_001,topicA,topicA-600,172.172.1.2:1883,1551658443369,RECEIVED
Subscriber_001,topicA,topicA-601,172.172.1.2:1883,1551658443468,RECEIVED
Subscriber_001,topicA,topicA-602,172.172.1.2:1883,1551658443572,RECEIVED
Subscriber_001,topicA,topicA-603,172.172.1.2:1883,1551658443671,RECEIVED
Subscriber_001,topicA,topicA-604,172.172.1.2:1883,1551658443773,RECEIVED
Subscriber_001,topicA,topicA-605,172.172.1.2:1883,1551658443874,RECEIVED
Subscriber_001,topicA,topicA-606,172.172.1.2:1883,1551658443977,RECEIVED
Subscriber_001,topicA,topicA-607,172.172.1.2:1883,1551658444077,RECEIVED
Subscriber_001,topicA,topicA-608,172.172.1.2:1883,1551658444174,RECEIVED
Subscriber_001,topicA,topicA-609,172.172.1.2:1883,1551658444271,RECEIVED
Subscriber_001,topicA,topicA-610,172.172.1.2:1883,1551658444379,RECEIVED
Subscriber_001,topicA,topicA-611,172.172.1.2:1883,1551658444473,RECEIVED
Subscriber_001,topicA,topicA-612,172.172.1.2:1883,1551658444572,RECEIVED
Subscriber_001,topicA,topicA-613,172.172.1.2:1883,1551658444679,RECEIVED
Subscriber_001,topicA,topicA-614,172.172.1.2:1883,1551658444778,RECEIVED
Subscriber_001,topicA,topicA-615,172.172.1.2:1883,1551658444878,RECEIVED
Subscriber_001,topicA,topicA-616,172.172.1.2:1883,1551658444980,RECEIVED
Subscriber_001,topicA,topicA-617,172.172.1.2:1883,1551658445093,RECEIVED
Subscriber_001,topicA,topicA-618,172.172.1.2:1883,1551658445182,RECEIVED
Subscriber_001,topicA,topicA-619,172.172.1.2:1883,1551658445267,RECEIVED
Subscriber_001,topicA,topicA-620,172.172.1.2:1883,1551658445377,RECEIVED
Subscriber_001,topicA,topicA-621,172.172.1.2:1883,1551658445471,RECEIVED
Subscriber_001,topicA,topicA-622,172.172.1.2:1883,1551658445572,RECEIVED
Subscriber_001,topicA,topicA-623,172.172.1.2:1883,1551658445670,RECEIVED
Subscriber_001,topicA,topicA-624,172.172.1.2:1883,1551658445779,RECEIVED
Subscriber_001,topicA,topicA-625,172.172.1.2:1883,1551658445874,RECEIVED
Subscriber_001,topicA,topicA-626,172.172.1.2:1883,1551658445973,RECEIVED
Subscriber_001,topicA,topicA-627,172.172.1.2:1883,1551658446080,RECEIVED
Subscriber_001,topicA,topicA-628,172.172.1.2:1883,1551658446177,RECEIVED
Subscriber_001,topicA,topicA-629,172.172.1.2:1883,1551658446272,RECEIVED
Subscriber_001,topicA,topicA-630,172.172.1.2:1883,1551658446367,RECEIVED
Subscriber_001,topicA,topicA-631,172.172.1.2:1883,1551658446474,RECEIVED
Subscriber_001,topicA,topicA-632,172.172.1.2:1883,1551658446568,RECEIVED
Subscriber_001,topicA,topicA-633,172.172.1.2:1883,1551658446668,RECEIVED
Subscriber_001,topicA,topicA-634,172.172.1.2:1883,1551658446769,RECEIVED
Subscriber_001,topicA,topicA-635,172.172.1.2:1883,1551658446867,RECEIVED
Subscriber_001,topicA,topicA-636,172.172.1.2:1883,1551658446969,RECEIVED
Subscriber_001,topicA,topicA-637,172.172.1.2:1883,1551658447070,RECEIVED
Subscriber_001,topicA,topicA-638,172.172.1.2:1883,1551658447172,RECEIVED
Subscriber_001,topicA,topicA-639,172.172.1.2:1883,1551658447267,RECEIVED
Subscriber_001,topicA,topicA-640,172.172.1.2:1883,1551658447367,RECEIVED
Subscriber_001,topicA,topicA-641,172.172.1.2:1883,1551658447472,RECEIVED
Subscriber_001,topicA,topicA-642,172.172.1.2:1883,1551658447577,RECEIVED
Subscriber_001,topicA,topicA-643,172.172.1.2:1883,1551658447667,RECEIVED
