timestamp,event,migrationId
1551651362821,INITIALIZED,9a580560-311c-4e72-88f7-bd78fe0de377
1551651362824,topicA-INITIALIZED,9a580560-311c-4e72-88f7-bd78fe0de377
1551651363030,topicA-SYNCING,9a580560-311c-4e72-88f7-bd78fe0de377
1551651363031,SYNCING,9a580560-311c-4e72-88f7-bd78fe0de377
1551651363033,topicA-SYNCING_OPPONENT,9a580560-311c-4e72-88f7-bd78fe0de377
1551651364970,topicA-SYNCED,9a580560-311c-4e72-88f7-bd78fe0de377
1551651364978,topicA-FINISHED,9a580560-311c-4e72-88f7-bd78fe0de377
1551651364971,SYNCED,9a580560-311c-4e72-88f7-bd78fe0de377
1551651364980,FINISHED,9a580560-311c-4e72-88f7-bd78fe0de377
