clientId,topic,guid,broker,timestamp,type
Publisher_001,topicA,topicA-1,172.172.1.1:1883,1551657531379,PRODUCED
Publisher_001,topicA,topicA-2,172.172.1.1:1883,1551657531640,PRODUCED
Publisher_001,topicA,topicA-3,172.172.1.1:1883,1551657531648,PRODUCED
Publisher_001,topicA,topicA-4,172.172.1.1:1883,1551657531655,PRODUCED
Publisher_001,topicA,topicA-5,172.172.1.1:1883,1551657531660,PRODUCED
Publisher_001,topicA,topicA-6,172.172.1.1:1883,1551657531711,PRODUCED
Publisher_001,topicA,topicA-7,172.172.1.1:1883,1551657531810,PRODUCED
Publisher_001,topicA,topicA-8,172.172.1.1:1883,1551657531912,PRODUCED
Publisher_001,topicA,topicA-9,172.172.1.1:1883,1551657532010,PRODUCED
Publisher_001,topicA,topicA-10,172.172.1.1:1883,1551657532110,PRODUCED
Publisher_001,topicA,topicA-11,172.172.1.1:1883,1551657532211,PRODUCED
Publisher_001,topicA,topicA-12,172.172.1.1:1883,1551657532313,PRODUCED
Publisher_001,topicA,topicA-13,172.172.1.1:1883,1551657532414,PRODUCED
Publisher_001,topicA,topicA-14,172.172.1.1:1883,1551657532512,PRODUCED
Publisher_001,topicA,topicA-15,172.172.1.1:1883,1551657532614,PRODUCED
Publisher_001,topicA,topicA-16,172.172.1.1:1883,1551657532716,PRODUCED
Publisher_001,topicA,topicA-17,172.172.1.1:1883,1551657532811,PRODUCED
Publisher_001,topicA,topicA-18,172.172.1.1:1883,1551657532911,PRODUCED
Publisher_001,topicA,topicA-19,172.172.1.1:1883,1551657533011,PRODUCED
Publisher_001,topicA,topicA-20,172.172.1.1:1883,1551657533111,PRODUCED
Publisher_001,topicA,topicA-21,172.172.1.1:1883,1551657533211,PRODUCED
Publisher_001,topicA,topicA-22,172.172.1.1:1883,1551657533310,PRODUCED
Publisher_001,topicA,topicA-23,172.172.1.1:1883,1551657533410,PRODUCED
Publisher_001,topicA,topicA-24,172.172.1.1:1883,1551657533511,PRODUCED
Publisher_001,topicA,topicA-25,172.172.1.1:1883,1551657533610,PRODUCED
Publisher_001,topicA,topicA-26,172.172.1.1:1883,1551657533710,PRODUCED
Publisher_001,topicA,topicA-27,172.172.1.1:1883,1551657533810,PRODUCED
Publisher_001,topicA,topicA-28,172.172.1.1:1883,1551657533910,PRODUCED
Publisher_001,topicA,topicA-29,172.172.1.1:1883,1551657534010,PRODUCED
Publisher_001,topicA,topicA-30,172.172.1.1:1883,1551657534110,PRODUCED
Publisher_001,topicA,topicA-31,172.172.1.1:1883,1551657534210,PRODUCED
Publisher_001,topicA,topicA-32,172.172.1.1:1883,1551657534310,PRODUCED
Publisher_001,topicA,topicA-33,172.172.1.1:1883,1551657534410,PRODUCED
Publisher_001,topicA,topicA-34,172.172.1.1:1883,1551657534511,PRODUCED
Publisher_001,topicA,topicA-35,172.172.1.1:1883,1551657534611,PRODUCED
Publisher_001,topicA,topicA-36,172.172.1.1:1883,1551657534713,PRODUCED
Publisher_001,topicA,topicA-37,172.172.1.1:1883,1551657534811,PRODUCED
Publisher_001,topicA,topicA-38,172.172.1.1:1883,1551657534910,PRODUCED
Publisher_001,topicA,topicA-39,172.172.1.1:1883,1551657535010,PRODUCED
Publisher_001,topicA,topicA-40,172.172.1.1:1883,1551657535110,PRODUCED
Publisher_001,topicA,topicA-41,172.172.1.1:1883,1551657535211,PRODUCED
Publisher_001,topicA,topicA-42,172.172.1.1:1883,1551657535315,PRODUCED
Publisher_001,topicA,topicA-43,172.172.1.1:1883,1551657535411,PRODUCED
Publisher_001,topicA,topicA-44,172.172.1.1:1883,1551657535511,PRODUCED
Publisher_001,topicA,topicA-45,172.172.1.1:1883,1551657535610,PRODUCED
Publisher_001,topicA,topicA-46,172.172.1.1:1883,1551657535711,PRODUCED
Publisher_001,topicA,topicA-47,172.172.1.1:1883,1551657535810,PRODUCED
Publisher_001,topicA,topicA-48,172.172.1.1:1883,1551657535910,PRODUCED
Publisher_001,topicA,topicA-49,172.172.1.1:1883,1551657536010,PRODUCED
Publisher_001,topicA,topicA-50,172.172.1.1:1883,1551657536110,PRODUCED
Publisher_001,topicA,topicA-51,172.172.1.1:1883,1551657536210,PRODUCED
Publisher_001,topicA,topicA-52,172.172.1.1:1883,1551657536311,PRODUCED
Publisher_001,topicA,topicA-53,172.172.1.1:1883,1551657536411,PRODUCED
Publisher_001,topicA,topicA-54,172.172.1.1:1883,1551657536511,PRODUCED
Publisher_001,topicA,topicA-55,172.172.1.1:1883,1551657536613,PRODUCED
Publisher_001,topicA,topicA-56,172.172.1.1:1883,1551657536710,PRODUCED
Publisher_001,topicA,topicA-57,172.172.1.1:1883,1551657536810,PRODUCED
Publisher_001,topicA,topicA-58,172.172.1.1:1883,1551657536911,PRODUCED
Publisher_001,topicA,topicA-59,172.172.1.1:1883,1551657537010,PRODUCED
Publisher_001,topicA,topicA-60,172.172.1.1:1883,1551657537111,PRODUCED
Publisher_001,topicA,topicA-61,172.172.1.1:1883,1551657537212,PRODUCED
Publisher_001,topicA,topicA-62,172.172.1.1:1883,1551657537311,PRODUCED
Publisher_001,topicA,topicA-63,172.172.1.1:1883,1551657537411,PRODUCED
Publisher_001,topicA,topicA-64,172.172.1.1:1883,1551657537511,PRODUCED
Publisher_001,topicA,topicA-65,172.172.1.1:1883,1551657537612,PRODUCED
Publisher_001,topicA,topicA-66,172.172.1.1:1883,1551657537712,PRODUCED
Publisher_001,topicA,topicA-67,172.172.1.1:1883,1551657537815,PRODUCED
Publisher_001,topicA,topicA-68,172.172.1.1:1883,1551657537911,PRODUCED
Publisher_001,topicA,topicA-69,172.172.1.1:1883,1551657538011,PRODUCED
Publisher_001,topicA,topicA-70,172.172.1.1:1883,1551657538111,PRODUCED
Publisher_001,topicA,topicA-71,172.172.1.1:1883,1551657538210,PRODUCED
Publisher_001,topicA,topicA-72,172.172.1.1:1883,1551657538314,PRODUCED
Publisher_001,topicA,topicA-73,172.172.1.1:1883,1551657538411,PRODUCED
Publisher_001,topicA,topicA-74,172.172.1.1:1883,1551657538510,PRODUCED
Publisher_001,topicA,topicA-75,172.172.1.1:1883,1551657538611,PRODUCED
Publisher_001,topicA,topicA-76,172.172.1.1:1883,1551657538712,PRODUCED
Publisher_001,topicA,topicA-77,172.172.1.1:1883,1551657538811,PRODUCED
Publisher_001,topicA,topicA-78,172.172.1.1:1883,1551657538911,PRODUCED
Publisher_001,topicA,topicA-79,172.172.1.1:1883,1551657539011,PRODUCED
Publisher_001,topicA,topicA-80,172.172.1.1:1883,1551657539112,PRODUCED
Publisher_001,topicA,topicA-81,172.172.1.1:1883,1551657539212,PRODUCED
Publisher_001,topicA,topicA-82,172.172.1.1:1883,1551657539311,PRODUCED
Publisher_001,topicA,topicA-83,172.172.1.1:1883,1551657539411,PRODUCED
Publisher_001,topicA,topicA-84,172.172.1.1:1883,1551657539510,PRODUCED
Publisher_001,topicA,topicA-85,172.172.1.1:1883,1551657539611,PRODUCED
Publisher_001,topicA,topicA-86,172.172.1.1:1883,1551657539710,PRODUCED
Publisher_001,topicA,topicA-87,172.172.1.1:1883,1551657539811,PRODUCED
Publisher_001,topicA,topicA-88,172.172.1.1:1883,1551657539911,PRODUCED
Publisher_001,topicA,topicA-89,172.172.1.1:1883,1551657540010,PRODUCED
Publisher_001,topicA,topicA-90,172.172.1.1:1883,1551657540111,PRODUCED
Publisher_001,topicA,topicA-91,172.172.1.1:1883,1551657540211,PRODUCED
Publisher_001,topicA,topicA-92,172.172.1.1:1883,1551657540310,PRODUCED
Publisher_001,topicA,topicA-93,172.172.1.1:1883,1551657540410,PRODUCED
Publisher_001,topicA,topicA-94,172.172.1.1:1883,1551657540511,PRODUCED
Publisher_001,topicA,topicA-95,172.172.1.1:1883,1551657540611,PRODUCED
Publisher_001,topicA,topicA-96,172.172.1.1:1883,1551657540710,PRODUCED
Publisher_001,topicA,topicA-97,172.172.1.1:1883,1551657540811,PRODUCED
Publisher_001,topicA,topicA-98,172.172.1.1:1883,1551657540910,PRODUCED
Publisher_001,topicA,topicA-99,172.172.1.1:1883,1551657541010,PRODUCED
Publisher_001,topicA,topicA-100,172.172.1.1:1883,1551657541110,PRODUCED
Publisher_001,topicA,topicA-101,172.172.1.1:1883,1551657541210,PRODUCED
Publisher_001,topicA,topicA-102,172.172.1.1:1883,1551657541311,PRODUCED
Publisher_001,topicA,topicA-103,172.172.1.1:1883,1551657541411,PRODUCED
Publisher_001,topicA,topicA-104,172.172.1.1:1883,1551657541512,PRODUCED
Publisher_001,topicA,topicA-105,172.172.1.1:1883,1551657541611,PRODUCED
Publisher_001,topicA,topicA-106,172.172.1.1:1883,1551657541711,PRODUCED
Publisher_001,topicA,topicA-107,172.172.1.1:1883,1551657541811,PRODUCED
Publisher_001,topicA,topicA-108,172.172.1.1:1883,1551657541911,PRODUCED
Publisher_001,topicA,topicA-109,172.172.1.1:1883,1551657542012,PRODUCED
Publisher_001,topicA,topicA-110,172.172.1.1:1883,1551657542111,PRODUCED
Publisher_001,topicA,topicA-111,172.172.1.1:1883,1551657542210,PRODUCED
Publisher_001,topicA,topicA-112,172.172.1.1:1883,1551657542310,PRODUCED
Publisher_001,topicA,topicA-113,172.172.1.1:1883,1551657542411,PRODUCED
Publisher_001,topicA,topicA-114,172.172.1.1:1883,1551657542511,PRODUCED
Publisher_001,topicA,topicA-115,172.172.1.1:1883,1551657542610,PRODUCED
Publisher_001,topicA,topicA-116,172.172.1.1:1883,1551657542710,PRODUCED
Publisher_001,topicA,topicA-117,172.172.1.1:1883,1551657542810,PRODUCED
Publisher_001,topicA,topicA-118,172.172.1.1:1883,1551657542910,PRODUCED
Publisher_001,topicA,topicA-119,172.172.1.1:1883,1551657543010,PRODUCED
Publisher_001,topicA,topicA-120,172.172.1.1:1883,1551657543111,PRODUCED
Publisher_001,topicA,topicA-121,172.172.1.1:1883,1551657543210,PRODUCED
Publisher_001,topicA,topicA-122,172.172.1.1:1883,1551657543310,PRODUCED
Publisher_001,topicA,topicA-123,172.172.1.1:1883,1551657543411,PRODUCED
Publisher_001,topicA,topicA-124,172.172.1.1:1883,1551657543510,PRODUCED
Publisher_001,topicA,topicA-125,172.172.1.1:1883,1551657543611,PRODUCED
Publisher_001,topicA,topicA-126,172.172.1.1:1883,1551657543712,PRODUCED
Publisher_001,topicA,topicA-127,172.172.1.1:1883,1551657543811,PRODUCED
Publisher_001,topicA,topicA-128,172.172.1.1:1883,1551657543912,PRODUCED
Publisher_001,topicA,topicA-129,172.172.1.1:1883,1551657544011,PRODUCED
Publisher_001,topicA,topicA-130,172.172.1.1:1883,1551657544112,PRODUCED
Publisher_001,topicA,topicA-131,172.172.1.1:1883,1551657544215,PRODUCED
Publisher_001,topicA,topicA-132,172.172.1.1:1883,1551657544310,PRODUCED
Publisher_001,topicA,topicA-133,172.172.1.1:1883,1551657544411,PRODUCED
Publisher_001,topicA,topicA-134,172.172.1.1:1883,1551657544511,PRODUCED
Publisher_001,topicA,topicA-135,172.172.1.1:1883,1551657544610,PRODUCED
Publisher_001,topicA,topicA-136,172.172.1.1:1883,1551657544711,PRODUCED
Publisher_001,topicA,topicA-137,172.172.1.1:1883,1551657544814,PRODUCED
Publisher_001,topicA,topicA-138,172.172.1.1:1883,1551657544911,PRODUCED
Publisher_001,topicA,topicA-139,172.172.1.1:1883,1551657545017,PRODUCED
Publisher_001,topicA,topicA-140,172.172.1.1:1883,1551657545110,PRODUCED
Publisher_001,topicA,topicA-141,172.172.1.1:1883,1551657545211,PRODUCED
Publisher_001,topicA,topicA-142,172.172.1.1:1883,1551657545310,PRODUCED
Publisher_001,topicA,topicA-143,172.172.1.1:1883,1551657545410,PRODUCED
Publisher_001,topicA,topicA-144,172.172.1.1:1883,1551657545510,PRODUCED
Publisher_001,topicA,topicA-145,172.172.1.1:1883,1551657545611,PRODUCED
Publisher_001,topicA,topicA-146,172.172.1.1:1883,1551657545711,PRODUCED
Publisher_001,topicA,topicA-147,172.172.1.1:1883,1551657545812,PRODUCED
Publisher_001,topicA,topicA-148,172.172.1.1:1883,1551657545912,PRODUCED
Publisher_001,topicA,topicA-149,172.172.1.1:1883,1551657546011,PRODUCED
Publisher_001,topicA,topicA-150,172.172.1.1:1883,1551657546116,PRODUCED
Publisher_001,topicA,topicA-151,172.172.1.1:1883,1551657546211,PRODUCED
Publisher_001,topicA,topicA-152,172.172.1.1:1883,1551657546311,PRODUCED
Publisher_001,topicA,topicA-153,172.172.1.1:1883,1551657546411,PRODUCED
Publisher_001,topicA,topicA-154,172.172.1.1:1883,1551657546511,PRODUCED
Publisher_001,topicA,topicA-155,172.172.1.1:1883,1551657546611,PRODUCED
Publisher_001,topicA,topicA-156,172.172.1.1:1883,1551657546710,PRODUCED
Publisher_001,topicA,topicA-157,172.172.1.1:1883,1551657546810,PRODUCED
Publisher_001,topicA,topicA-158,172.172.1.1:1883,1551657546910,PRODUCED
Publisher_001,topicA,topicA-159,172.172.1.1:1883,1551657547010,PRODUCED
Publisher_001,topicA,topicA-160,172.172.1.1:1883,1551657547111,PRODUCED
Publisher_001,topicA,topicA-161,172.172.1.1:1883,1551657547210,PRODUCED
Publisher_001,topicA,topicA-162,172.172.1.1:1883,1551657547310,PRODUCED
Publisher_001,topicA,topicA-163,172.172.1.1:1883,1551657547412,PRODUCED
Publisher_001,topicA,topicA-164,172.172.1.1:1883,1551657547510,PRODUCED
Publisher_001,topicA,topicA-165,172.172.1.1:1883,1551657547610,PRODUCED
Publisher_001,topicA,topicA-166,172.172.1.1:1883,1551657547710,PRODUCED
Publisher_001,topicA,topicA-167,172.172.1.1:1883,1551657547812,PRODUCED
Publisher_001,topicA,topicA-168,172.172.1.1:1883,1551657547911,PRODUCED
Publisher_001,topicA,topicA-169,172.172.1.1:1883,1551657548010,PRODUCED
Publisher_001,topicA,topicA-170,172.172.1.1:1883,1551657548110,PRODUCED
Publisher_001,topicA,topicA-171,172.172.1.1:1883,1551657548211,PRODUCED
Publisher_001,topicA,topicA-172,172.172.1.1:1883,1551657548310,PRODUCED
Publisher_001,topicA,topicA-173,172.172.1.1:1883,1551657548410,PRODUCED
Publisher_001,topicA,topicA-174,172.172.1.1:1883,1551657548511,PRODUCED
Publisher_001,topicA,topicA-175,172.172.1.1:1883,1551657548612,PRODUCED
Publisher_001,topicA,topicA-176,172.172.1.1:1883,1551657548713,PRODUCED
Publisher_001,topicA,topicA-177,172.172.1.1:1883,1551657548811,PRODUCED
Publisher_001,topicA,topicA-178,172.172.1.1:1883,1551657548911,PRODUCED
Publisher_001,topicA,topicA-179,172.172.1.1:1883,1551657549011,PRODUCED
Publisher_001,topicA,topicA-180,172.172.1.1:1883,1551657549112,PRODUCED
Publisher_001,topicA,topicA-181,172.172.1.1:1883,1551657549210,PRODUCED
Publisher_001,topicA,topicA-182,172.172.1.1:1883,1551657549310,PRODUCED
Publisher_001,topicA,topicA-183,172.172.1.1:1883,1551657549411,PRODUCED
Publisher_001,topicA,topicA-184,172.172.1.1:1883,1551657549510,PRODUCED
Publisher_001,topicA,topicA-185,172.172.1.1:1883,1551657549610,PRODUCED
Publisher_001,topicA,topicA-186,172.172.1.1:1883,1551657549710,PRODUCED
Publisher_001,topicA,topicA-187,172.172.1.1:1883,1551657549810,PRODUCED
Publisher_001,topicA,topicA-188,172.172.1.1:1883,1551657549910,PRODUCED
Publisher_001,topicA,topicA-189,172.172.1.1:1883,1551657550010,PRODUCED
Publisher_001,topicA,topicA-190,172.172.1.1:1883,1551657550110,PRODUCED
Publisher_001,topicA,topicA-191,172.172.1.1:1883,1551657550210,PRODUCED
Publisher_001,topicA,topicA-192,172.172.1.1:1883,1551657550311,PRODUCED
Publisher_001,topicA,topicA-193,172.172.1.1:1883,1551657550410,PRODUCED
Publisher_001,topicA,topicA-194,172.172.1.1:1883,1551657550510,PRODUCED
Publisher_001,topicA,topicA-195,172.172.1.1:1883,1551657550610,PRODUCED
Publisher_001,topicA,topicA-196,172.172.1.1:1883,1551657550710,PRODUCED
Publisher_001,topicA,topicA-197,172.172.1.1:1883,1551657550810,PRODUCED
Publisher_001,topicA,topicA-198,172.172.1.1:1883,1551657550912,PRODUCED
Publisher_001,topicA,topicA-199,172.172.1.1:1883,1551657551010,PRODUCED
Publisher_001,topicA,topicA-200,172.172.1.1:1883,1551657551111,PRODUCED
Publisher_001,topicA,topicA-201,172.172.1.1:1883,1551657551220,PRODUCED
Publisher_001,topicA,topicA-202,172.172.1.1:1883,1551657551310,PRODUCED
Publisher_001,topicA,topicA-203,172.172.1.1:1883,1551657551410,PRODUCED
Publisher_001,topicA,topicA-204,172.172.1.1:1883,1551657551510,PRODUCED
Publisher_001,topicA,topicA-205,172.172.1.1:1883,1551657551610,PRODUCED
Publisher_001,topicA,topicA-206,172.172.1.1:1883,1551657551710,PRODUCED
Publisher_001,topicA,topicA-207,172.172.1.1:1883,1551657551810,PRODUCED
Publisher_001,topicA,topicA-208,172.172.1.1:1883,1551657551912,PRODUCED
Publisher_001,topicA,topicA-209,172.172.1.1:1883,1551657552011,PRODUCED
Publisher_001,topicA,topicA-210,172.172.1.1:1883,1551657552110,PRODUCED
Publisher_001,topicA,topicA-211,172.172.1.1:1883,1551657552210,PRODUCED
Publisher_001,topicA,topicA-212,172.172.1.1:1883,1551657552311,PRODUCED
Publisher_001,topicA,topicA-213,172.172.1.1:1883,1551657552411,PRODUCED
Publisher_001,topicA,topicA-214,172.172.1.1:1883,1551657552511,PRODUCED
Publisher_001,topicA,topicA-215,172.172.1.1:1883,1551657552612,PRODUCED
Publisher_001,topicA,topicA-216,172.172.1.1:1883,1551657552710,PRODUCED
Publisher_001,topicA,topicA-217,172.172.1.1:1883,1551657552812,PRODUCED
Publisher_001,topicA,topicA-218,172.172.1.1:1883,1551657552910,PRODUCED
Publisher_001,topicA,topicA-219,172.172.1.1:1883,1551657553014,PRODUCED
Publisher_001,topicA,topicA-220,172.172.1.1:1883,1551657553110,PRODUCED
Publisher_001,topicA,topicA-221,172.172.1.1:1883,1551657553213,PRODUCED
Publisher_001,topicA,topicA-222,172.172.1.1:1883,1551657553310,PRODUCED
Publisher_001,topicA,topicA-223,172.172.1.1:1883,1551657553410,PRODUCED
Publisher_001,topicA,topicA-224,172.172.1.1:1883,1551657553512,PRODUCED
Publisher_001,topicA,topicA-225,172.172.1.1:1883,1551657553613,PRODUCED
Publisher_001,topicA,topicA-226,172.172.1.1:1883,1551657553711,PRODUCED
Publisher_001,topicA,topicA-227,172.172.1.1:1883,1551657553810,PRODUCED
Publisher_001,topicA,topicA-228,172.172.1.1:1883,1551657553910,PRODUCED
Publisher_001,topicA,topicA-229,172.172.1.1:1883,1551657554010,PRODUCED
Publisher_001,topicA,topicA-230,172.172.1.1:1883,1551657554111,PRODUCED
Publisher_001,topicA,topicA-231,172.172.1.1:1883,1551657554213,PRODUCED
Publisher_001,topicA,topicA-232,172.172.1.1:1883,1551657554311,PRODUCED
Publisher_001,topicA,topicA-233,172.172.1.1:1883,1551657554410,PRODUCED
Publisher_001,topicA,topicA-234,172.172.1.1:1883,1551657554510,PRODUCED
Publisher_001,topicA,topicA-235,172.172.1.1:1883,1551657554611,PRODUCED
Publisher_001,topicA,topicA-236,172.172.1.1:1883,1551657554712,PRODUCED
Publisher_001,topicA,topicA-237,172.172.1.1:1883,1551657554811,PRODUCED
Publisher_001,topicA,topicA-238,172.172.1.1:1883,1551657554911,PRODUCED
Publisher_001,topicA,topicA-239,172.172.1.1:1883,1551657555010,PRODUCED
Publisher_001,topicA,topicA-240,172.172.1.1:1883,1551657555114,PRODUCED
Publisher_001,topicA,topicA-241,172.172.1.1:1883,1551657555211,PRODUCED
Publisher_001,topicA,topicA-242,172.172.1.1:1883,1551657555311,PRODUCED
Publisher_001,topicA,topicA-243,172.172.1.1:1883,1551657555411,PRODUCED
Publisher_001,topicA,topicA-244,172.172.1.1:1883,1551657555510,PRODUCED
Publisher_001,topicA,topicA-245,172.172.1.1:1883,1551657555610,PRODUCED
Publisher_001,topicA,topicA-246,172.172.1.1:1883,1551657555712,PRODUCED
Publisher_001,topicA,topicA-247,172.172.1.1:1883,1551657555810,PRODUCED
Publisher_001,topicA,topicA-248,172.172.1.1:1883,1551657555910,PRODUCED
Publisher_001,topicA,topicA-249,172.172.1.1:1883,1551657556010,PRODUCED
Publisher_001,topicA,topicA-250,172.172.1.1:1883,1551657556110,PRODUCED
Publisher_001,topicA,topicA-251,172.172.1.1:1883,1551657556210,PRODUCED
Publisher_001,topicA,topicA-252,172.172.1.1:1883,1551657556311,PRODUCED
Publisher_001,topicA,topicA-253,172.172.1.1:1883,1551657556410,PRODUCED
Publisher_001,topicA,topicA-254,172.172.1.1:1883,1551657556511,PRODUCED
Publisher_001,topicA,topicA-255,172.172.1.1:1883,1551657556611,PRODUCED
Publisher_001,topicA,topicA-256,172.172.1.1:1883,1551657556714,PRODUCED
Publisher_001,topicA,topicA-257,172.172.1.1:1883,1551657556810,PRODUCED
Publisher_001,topicA,topicA-258,172.172.1.1:1883,1551657556910,PRODUCED
Publisher_001,topicA,topicA-259,172.172.1.1:1883,1551657557011,PRODUCED
Publisher_001,topicA,topicA-260,172.172.1.1:1883,1551657557110,PRODUCED
Publisher_001,topicA,topicA-261,172.172.1.1:1883,1551657557211,PRODUCED
Publisher_001,topicA,topicA-262,172.172.1.1:1883,1551657557310,PRODUCED
Publisher_001,topicA,topicA-263,172.172.1.1:1883,1551657557410,PRODUCED
Publisher_001,topicA,topicA-264,172.172.1.1:1883,1551657557510,PRODUCED
Publisher_001,topicA,topicA-265,172.172.1.1:1883,1551657557610,PRODUCED
Publisher_001,topicA,topicA-266,172.172.1.1:1883,1551657557711,PRODUCED
Publisher_001,topicA,topicA-267,172.172.1.1:1883,1551657557811,PRODUCED
Publisher_001,topicA,topicA-268,172.172.1.1:1883,1551657557912,PRODUCED
Publisher_001,topicA,topicA-269,172.172.1.1:1883,1551657558012,PRODUCED
Publisher_001,topicA,topicA-270,172.172.1.1:1883,1551657558110,PRODUCED
Publisher_001,topicA,topicA-271,172.172.1.1:1883,1551657558211,PRODUCED
Publisher_001,topicA,topicA-272,172.172.1.1:1883,1551657558311,PRODUCED
Publisher_001,topicA,topicA-273,172.172.1.1:1883,1551657558410,PRODUCED
Publisher_001,topicA,topicA-274,172.172.1.1:1883,1551657558513,PRODUCED
Publisher_001,topicA,topicA-275,172.172.1.1:1883,1551657558611,PRODUCED
Publisher_001,topicA,topicA-276,172.172.1.1:1883,1551657558720,PRODUCED
Publisher_001,topicA,topicA-277,172.172.1.1:1883,1551657558810,PRODUCED
Publisher_001,topicA,topicA-278,172.172.1.1:1883,1551657558910,PRODUCED
Publisher_001,topicA,topicA-279,172.172.1.1:1883,1551657559010,PRODUCED
Publisher_001,topicA,topicA-280,172.172.1.1:1883,1551657559110,PRODUCED
Publisher_001,topicA,topicA-281,172.172.1.1:1883,1551657559210,PRODUCED
Publisher_001,topicA,topicA-282,172.172.1.1:1883,1551657559310,PRODUCED
Publisher_001,topicA,topicA-283,172.172.1.1:1883,1551657559410,PRODUCED
Publisher_001,topicA,topicA-284,172.172.1.1:1883,1551657559510,PRODUCED
Publisher_001,topicA,topicA-285,172.172.1.1:1883,1551657559610,PRODUCED
Publisher_001,topicA,topicA-286,172.172.1.1:1883,1551657559710,PRODUCED
Publisher_001,topicA,topicA-287,172.172.1.1:1883,1551657559810,PRODUCED
Publisher_001,topicA,topicA-288,172.172.1.1:1883,1551657559919,PRODUCED
Publisher_001,topicA,topicA-289,172.172.1.1:1883,1551657560010,PRODUCED
Publisher_001,topicA,topicA-290,172.172.1.1:1883,1551657560110,PRODUCED
Publisher_001,topicA,topicA-291,172.172.1.1:1883,1551657560210,PRODUCED
Publisher_001,topicA,topicA-292,172.172.1.1:1883,1551657560310,PRODUCED
Publisher_001,topicA,topicA-293,172.172.1.1:1883,1551657560410,PRODUCED
Publisher_001,topicA,topicA-294,172.172.1.1:1883,1551657560510,PRODUCED
Publisher_001,topicA,topicA-295,172.172.1.1:1883,1551657560610,PRODUCED
Publisher_001,topicA,topicA-296,172.172.1.1:1883,1551657560710,PRODUCED
Publisher_001,topicA,topicA-297,172.172.1.1:1883,1551657560810,PRODUCED
Publisher_001,topicA,topicA-298,172.172.1.1:1883,1551657560910,PRODUCED
Publisher_001,topicA,topicA-299,172.172.1.1:1883,1551657561010,PRODUCED
Publisher_001,topicA,topicA-300,172.172.1.1:1883,1551657561110,PRODUCED
Publisher_001,topicA,topicA-301,172.172.1.1:1883,1551657561210,PRODUCED
Publisher_001,topicA,topicA-302,172.172.1.1:1883,1551657561310,PRODUCED
Publisher_001,topicA,topicA-303,172.172.1.1:1883,1551657561410,PRODUCED
Publisher_001,topicA,topicA-304,172.172.1.1:1883,1551657561510,PRODUCED
Publisher_001,topicA,topicA-305,172.172.1.1:1883,1551657561610,PRODUCED
Publisher_001,topicA,topicA-306,172.172.1.1:1883,1551657561710,PRODUCED
Publisher_001,topicA,topicA-307,172.172.1.1:1883,1551657561810,PRODUCED
Publisher_001,topicA,topicA-308,172.172.1.1:1883,1551657561910,PRODUCED
Publisher_001,topicA,topicA-309,172.172.1.1:1883,1551657562010,PRODUCED
Publisher_001,topicA,topicA-310,172.172.1.1:1883,1551657562110,PRODUCED
Publisher_001,topicA,topicA-311,172.172.1.1:1883,1551657562210,PRODUCED
Publisher_001,topicA,topicA-312,172.172.1.1:1883,1551657562310,PRODUCED
Publisher_001,topicA,topicA-313,172.172.1.1:1883,1551657562410,PRODUCED
Publisher_001,topicA,topicA-314,172.172.1.1:1883,1551657562510,PRODUCED
Publisher_001,topicA,topicA-315,172.172.1.1:1883,1551657562610,PRODUCED
Publisher_001,topicA,topicA-316,172.172.1.1:1883,1551657562710,PRODUCED
Publisher_001,topicA,topicA-317,172.172.1.1:1883,1551657562810,PRODUCED
Publisher_001,topicA,topicA-318,172.172.1.1:1883,1551657562910,PRODUCED
Publisher_001,topicA,topicA-319,172.172.1.1:1883,1551657563010,PRODUCED
Publisher_001,topicA,topicA-320,172.172.1.1:1883,1551657563110,PRODUCED
Publisher_001,topicA,topicA-321,172.172.1.1:1883,1551657563210,PRODUCED
Publisher_001,topicA,topicA-322,172.172.1.1:1883,1551657563310,PRODUCED
Publisher_001,topicA,topicA-323,172.172.1.1:1883,1551657563410,PRODUCED
Publisher_001,topicA,topicA-324,172.172.1.1:1883,1551657563510,PRODUCED
Publisher_001,topicA,topicA-325,172.172.1.1:1883,1551657563610,PRODUCED
Publisher_001,topicA,topicA-326,172.172.1.1:1883,1551657563710,PRODUCED
Publisher_001,topicA,topicA-327,172.172.1.1:1883,1551657563810,PRODUCED
Publisher_001,topicA,topicA-328,172.172.1.1:1883,1551657563910,PRODUCED
Publisher_001,topicA,topicA-329,172.172.1.1:1883,1551657564010,PRODUCED
Publisher_001,topicA,topicA-330,172.172.1.1:1883,1551657564110,PRODUCED
Publisher_001,topicA,topicA-331,172.172.1.1:1883,1551657564210,PRODUCED
Publisher_001,topicA,topicA-332,172.172.1.1:1883,1551657564310,PRODUCED
Publisher_001,topicA,topicA-333,172.172.1.1:1883,1551657564410,PRODUCED
Publisher_001,topicA,topicA-334,172.172.1.1:1883,1551657564510,PRODUCED
Publisher_001,topicA,topicA-335,172.172.1.1:1883,1551657564610,PRODUCED
Publisher_001,topicA,topicA-336,172.172.1.1:1883,1551657564710,PRODUCED
Publisher_001,topicA,topicA-337,172.172.1.1:1883,1551657564810,PRODUCED
Publisher_001,topicA,topicA-338,172.172.1.1:1883,1551657564911,PRODUCED
Publisher_001,topicA,topicA-339,172.172.1.1:1883,1551657565010,PRODUCED
Publisher_001,topicA,topicA-340,172.172.1.1:1883,1551657565110,PRODUCED
Publisher_001,topicA,topicA-341,172.172.1.1:1883,1551657565210,PRODUCED
Publisher_001,topicA,topicA-342,172.172.1.1:1883,1551657565310,PRODUCED
Publisher_001,topicA,topicA-343,172.172.1.1:1883,1551657565410,PRODUCED
Publisher_001,topicA,topicA-344,172.172.1.1:1883,1551657565510,PRODUCED
Publisher_001,topicA,topicA-345,172.172.1.1:1883,1551657565610,PRODUCED
Publisher_001,topicA,topicA-346,172.172.1.1:1883,1551657565710,PRODUCED
Publisher_001,topicA,topicA-347,172.172.1.1:1883,1551657565810,PRODUCED
Publisher_001,topicA,topicA-348,172.172.1.1:1883,1551657565910,PRODUCED
Publisher_001,topicA,topicA-349,172.172.1.1:1883,1551657566010,PRODUCED
Publisher_001,topicA,topicA-350,172.172.1.1:1883,1551657566110,PRODUCED
Publisher_001,topicA,topicA-351,172.172.1.1:1883,1551657566210,PRODUCED
Publisher_001,topicA,topicA-352,172.172.1.1:1883,1551657566310,PRODUCED
Publisher_001,topicA,topicA-353,172.172.1.1:1883,1551657566410,PRODUCED
Publisher_001,topicA,topicA-354,172.172.1.1:1883,1551657566510,PRODUCED
Publisher_001,topicA,topicA-355,172.172.1.1:1883,1551657566610,PRODUCED
Publisher_001,topicA,topicA-356,172.172.1.1:1883,1551657566710,PRODUCED
Publisher_001,topicA,topicA-357,172.172.1.1:1883,1551657566810,PRODUCED
Publisher_001,topicA,topicA-358,172.172.1.1:1883,1551657566910,PRODUCED
Publisher_001,topicA,topicA-359,172.172.1.1:1883,1551657567010,PRODUCED
Publisher_001,topicA,topicA-360,172.172.1.1:1883,1551657567111,PRODUCED
Publisher_001,topicA,topicA-361,172.172.1.1:1883,1551657567210,PRODUCED
Publisher_001,topicA,topicA-362,172.172.1.1:1883,1551657567312,PRODUCED
Publisher_001,topicA,topicA-363,172.172.1.1:1883,1551657567410,PRODUCED
Publisher_001,topicA,topicA-364,172.172.1.1:1883,1551657567510,PRODUCED
Publisher_001,topicA,topicA-365,172.172.1.1:1883,1551657567610,PRODUCED
Publisher_001,topicA,topicA-366,172.172.1.1:1883,1551657567710,PRODUCED
Publisher_001,topicA,topicA-367,172.172.1.1:1883,1551657567810,PRODUCED
Publisher_001,topicA,topicA-368,172.172.1.1:1883,1551657567910,PRODUCED
Publisher_001,topicA,topicA-369,172.172.1.1:1883,1551657568010,PRODUCED
Publisher_001,topicA,topicA-370,172.172.1.1:1883,1551657568110,PRODUCED
Publisher_001,topicA,topicA-371,172.172.1.1:1883,1551657568210,PRODUCED
Publisher_001,topicA,topicA-372,172.172.1.1:1883,1551657568310,PRODUCED
Publisher_001,topicA,topicA-373,172.172.1.1:1883,1551657568410,PRODUCED
Publisher_001,topicA,topicA-374,172.172.1.1:1883,1551657568513,PRODUCED
Publisher_001,topicA,topicA-375,172.172.1.1:1883,1551657568610,PRODUCED
Publisher_001,topicA,topicA-376,172.172.1.1:1883,1551657568710,PRODUCED
Publisher_001,topicA,topicA-377,172.172.1.1:1883,1551657568810,PRODUCED
Publisher_001,topicA,topicA-378,172.172.1.1:1883,1551657568910,PRODUCED
Publisher_001,topicA,topicA-379,172.172.1.1:1883,1551657569010,PRODUCED
Publisher_001,topicA,topicA-380,172.172.1.1:1883,1551657569110,PRODUCED
Publisher_001,topicA,topicA-381,172.172.1.1:1883,1551657569211,PRODUCED
Publisher_001,topicA,topicA-382,172.172.1.1:1883,1551657569310,PRODUCED
Publisher_001,topicA,topicA-383,172.172.1.1:1883,1551657569411,PRODUCED
Publisher_001,topicA,topicA-384,172.172.1.1:1883,1551657569512,PRODUCED
Publisher_001,topicA,topicA-385,172.172.1.1:1883,1551657569610,PRODUCED
Publisher_001,topicA,topicA-386,172.172.1.1:1883,1551657569710,PRODUCED
Publisher_001,topicA,topicA-387,172.172.1.1:1883,1551657569810,PRODUCED
Publisher_001,topicA,topicA-388,172.172.1.1:1883,1551657569910,PRODUCED
Publisher_001,topicA,topicA-389,172.172.1.1:1883,1551657570011,PRODUCED
Publisher_001,topicA,topicA-390,172.172.1.1:1883,1551657570110,PRODUCED
Publisher_001,topicA,topicA-391,172.172.1.1:1883,1551657570210,PRODUCED
Publisher_001,topicA,topicA-392,172.172.1.1:1883,1551657570310,PRODUCED
Publisher_001,topicA,topicA-393,172.172.1.1:1883,1551657570410,PRODUCED
Publisher_001,topicA,topicA-394,172.172.1.1:1883,1551657570510,PRODUCED
Publisher_001,topicA,topicA-395,172.172.1.1:1883,1551657570610,PRODUCED
Publisher_001,topicA,topicA-396,172.172.1.1:1883,1551657570710,PRODUCED
Publisher_001,topicA,topicA-397,172.172.1.1:1883,1551657570816,PRODUCED
Publisher_001,topicA,topicA-398,172.172.1.1:1883,1551657570910,PRODUCED
Publisher_001,topicA,topicA-399,172.172.1.1:1883,1551657571010,PRODUCED
Publisher_001,topicA,topicA-400,172.172.1.1:1883,1551657571110,PRODUCED
Publisher_001,topicA,topicA-401,172.172.1.1:1883,1551657571210,PRODUCED
Publisher_001,topicA,topicA-402,172.172.1.1:1883,1551657571310,PRODUCED
Publisher_001,topicA,topicA-403,172.172.1.1:1883,1551657571410,PRODUCED
Publisher_001,topicA,topicA-404,172.172.1.1:1883,1551657571510,PRODUCED
Publisher_001,topicA,topicA-405,172.172.1.1:1883,1551657571610,PRODUCED
Publisher_001,topicA,topicA-406,172.172.1.1:1883,1551657571710,PRODUCED
Publisher_001,topicA,topicA-407,172.172.1.1:1883,1551657571810,PRODUCED
Publisher_001,topicA,topicA-408,172.172.1.1:1883,1551657571910,PRODUCED
Publisher_001,topicA,topicA-409,172.172.1.1:1883,1551657572010,PRODUCED
Publisher_001,topicA,topicA-410,172.172.1.1:1883,1551657572110,PRODUCED
Publisher_001,topicA,topicA-411,172.172.1.1:1883,1551657572210,PRODUCED
Publisher_001,topicA,topicA-412,172.172.1.1:1883,1551657572310,PRODUCED
Publisher_001,topicA,topicA-413,172.172.1.1:1883,1551657572410,PRODUCED
Publisher_001,topicA,topicA-414,172.172.1.1:1883,1551657572523,PRODUCED
Publisher_001,topicA,topicA-415,172.172.1.1:1883,1551657572610,PRODUCED
Publisher_001,topicA,topicA-416,172.172.1.1:1883,1551657572710,PRODUCED
Publisher_001,topicA,topicA-417,172.172.1.1:1883,1551657572810,PRODUCED
Publisher_001,topicA,topicA-418,172.172.1.1:1883,1551657572910,PRODUCED
Publisher_001,topicA,topicA-419,172.172.1.1:1883,1551657573010,PRODUCED
Publisher_001,topicA,topicA-420,172.172.1.1:1883,1551657573121,PRODUCED
Publisher_001,topicA,topicA-421,172.172.1.1:1883,1551657573210,PRODUCED
Publisher_001,topicA,topicA-422,172.172.1.1:1883,1551657573310,PRODUCED
Publisher_001,topicA,topicA-423,172.172.1.1:1883,1551657573410,PRODUCED
Publisher_001,topicA,topicA-424,172.172.1.1:1883,1551657573510,PRODUCED
Publisher_001,topicA,topicA-425,172.172.1.1:1883,1551657573610,PRODUCED
Publisher_001,topicA,topicA-426,172.172.1.1:1883,1551657573710,PRODUCED
Publisher_001,topicA,topicA-427,172.172.1.1:1883,1551657573810,PRODUCED
Publisher_001,topicA,topicA-428,172.172.1.1:1883,1551657573910,PRODUCED
Publisher_001,topicA,topicA-429,172.172.1.1:1883,1551657574010,PRODUCED
Publisher_001,topicA,topicA-430,172.172.1.1:1883,1551657574110,PRODUCED
Publisher_001,topicA,topicA-431,172.172.1.1:1883,1551657574212,PRODUCED
Publisher_001,topicA,topicA-432,172.172.1.1:1883,1551657574310,PRODUCED
Publisher_001,topicA,topicA-433,172.172.1.1:1883,1551657574410,PRODUCED
Publisher_001,topicA,topicA-434,172.172.1.1:1883,1551657574510,PRODUCED
Publisher_001,topicA,topicA-435,172.172.1.1:1883,1551657574610,PRODUCED
Publisher_001,topicA,topicA-436,172.172.1.1:1883,1551657574710,PRODUCED
Publisher_001,topicA,topicA-437,172.172.1.1:1883,1551657574810,PRODUCED
Publisher_001,topicA,topicA-438,172.172.1.1:1883,1551657574910,PRODUCED
Publisher_001,topicA,topicA-439,172.172.1.1:1883,1551657575010,PRODUCED
Publisher_001,topicA,topicA-440,172.172.1.1:1883,1551657575110,PRODUCED
Publisher_001,topicA,topicA-441,172.172.1.1:1883,1551657575210,PRODUCED
Publisher_001,topicA,topicA-442,172.172.1.1:1883,1551657575310,PRODUCED
Publisher_001,topicA,topicA-443,172.172.1.1:1883,1551657575410,PRODUCED
Publisher_001,topicA,topicA-444,172.172.1.1:1883,1551657575510,PRODUCED
Publisher_001,topicA,topicA-445,172.172.1.1:1883,1551657575610,PRODUCED
Publisher_001,topicA,topicA-446,172.172.1.1:1883,1551657575710,PRODUCED
Publisher_001,topicA,topicA-447,172.172.1.1:1883,1551657575810,PRODUCED
Publisher_001,topicA,topicA-448,172.172.1.1:1883,1551657575910,PRODUCED
Publisher_001,topicA,topicA-449,172.172.1.1:1883,1551657576010,PRODUCED
Publisher_001,topicA,topicA-450,172.172.1.1:1883,1551657576110,PRODUCED
Publisher_001,topicA,topicA-451,172.172.1.1:1883,1551657576210,PRODUCED
Publisher_001,topicA,topicA-452,172.172.1.1:1883,1551657576310,PRODUCED
Publisher_001,topicA,topicA-453,172.172.1.1:1883,1551657576410,PRODUCED
Publisher_001,topicA,topicA-454,172.172.1.1:1883,1551657576510,PRODUCED
Publisher_001,topicA,topicA-455,172.172.1.1:1883,1551657576610,PRODUCED
Publisher_001,topicA,topicA-456,172.172.1.1:1883,1551657576710,PRODUCED
Publisher_001,topicA,topicA-457,172.172.1.1:1883,1551657576810,PRODUCED
Publisher_001,topicA,topicA-458,172.172.1.1:1883,1551657576910,PRODUCED
Publisher_001,topicA,topicA-459,172.172.1.1:1883,1551657577010,PRODUCED
Publisher_001,topicA,topicA-460,172.172.1.1:1883,1551657577110,PRODUCED
Publisher_001,topicA,topicA-461,172.172.1.1:1883,1551657577210,PRODUCED
Publisher_001,topicA,topicA-462,172.172.1.1:1883,1551657577310,PRODUCED
Publisher_001,topicA,topicA-463,172.172.1.1:1883,1551657577410,PRODUCED
Publisher_001,topicA,topicA-464,172.172.1.1:1883,1551657577510,PRODUCED
Publisher_001,topicA,topicA-465,172.172.1.1:1883,1551657577610,PRODUCED
Publisher_001,topicA,topicA-466,172.172.1.1:1883,1551657577710,PRODUCED
Publisher_001,topicA,topicA-467,172.172.1.1:1883,1551657577810,PRODUCED
Publisher_001,topicA,topicA-468,172.172.1.1:1883,1551657577910,PRODUCED
Publisher_001,topicA,topicA-469,172.172.1.1:1883,1551657578010,PRODUCED
Publisher_001,topicA,topicA-470,172.172.1.1:1883,1551657578110,PRODUCED
Publisher_001,topicA,topicA-471,172.172.1.1:1883,1551657578210,PRODUCED
Publisher_001,topicA,topicA-472,172.172.1.1:1883,1551657578310,PRODUCED
Publisher_001,topicA,topicA-473,172.172.1.1:1883,1551657578410,PRODUCED
Publisher_001,topicA,topicA-474,172.172.1.1:1883,1551657578510,PRODUCED
Publisher_001,topicA,topicA-475,172.172.1.1:1883,1551657578610,PRODUCED
Publisher_001,topicA,topicA-476,172.172.1.1:1883,1551657578710,PRODUCED
Publisher_001,topicA,topicA-477,172.172.1.1:1883,1551657578810,PRODUCED
Publisher_001,topicA,topicA-478,172.172.1.1:1883,1551657578910,PRODUCED
Publisher_001,topicA,topicA-479,172.172.1.1:1883,1551657579010,PRODUCED
Publisher_001,topicA,topicA-480,172.172.1.1:1883,1551657579110,PRODUCED
Publisher_001,topicA,topicA-481,172.172.1.1:1883,1551657579210,PRODUCED
Publisher_001,topicA,topicA-482,172.172.1.1:1883,1551657579310,PRODUCED
Publisher_001,topicA,topicA-483,172.172.1.1:1883,1551657579410,PRODUCED
Publisher_001,topicA,topicA-484,172.172.1.1:1883,1551657579510,PRODUCED
Publisher_001,topicA,topicA-485,172.172.1.1:1883,1551657579610,PRODUCED
Publisher_001,topicA,topicA-486,172.172.1.1:1883,1551657579710,PRODUCED
Publisher_001,topicA,topicA-487,172.172.1.1:1883,1551657579810,PRODUCED
Publisher_001,topicA,topicA-488,172.172.1.1:1883,1551657579910,PRODUCED
Publisher_001,topicA,topicA-489,172.172.1.1:1883,1551657580010,PRODUCED
Publisher_001,topicA,topicA-490,172.172.1.1:1883,1551657580110,PRODUCED
Publisher_001,topicA,topicA-491,172.172.1.1:1883,1551657580210,PRODUCED
Publisher_001,topicA,topicA-492,172.172.1.1:1883,1551657580310,PRODUCED
Publisher_001,topicA,topicA-493,172.172.1.1:1883,1551657580410,PRODUCED
Publisher_001,topicA,topicA-494,172.172.1.1:1883,1551657580510,PRODUCED
Publisher_001,topicA,topicA-495,172.172.1.1:1883,1551657580610,PRODUCED
Publisher_001,topicA,topicA-496,172.172.1.1:1883,1551657580710,PRODUCED
Publisher_001,topicA,topicA-497,172.172.1.1:1883,1551657580810,PRODUCED
Publisher_001,topicA,topicA-498,172.172.1.1:1883,1551657580910,PRODUCED
Publisher_001,topicA,topicA-499,172.172.1.1:1883,1551657581010,PRODUCED
Publisher_001,topicA,topicA-500,172.172.1.1:1883,1551657581110,PRODUCED
Publisher_001,topicA,topicA-501,172.172.1.1:1883,1551657581210,PRODUCED
Publisher_001,topicA,topicA-502,172.172.1.1:1883,1551657581310,PRODUCED
Publisher_001,topicA,topicA-503,172.172.1.1:1883,1551657581426,PRODUCED
Publisher_001,topicA,topicA-504,172.172.1.1:1883,1551657581510,PRODUCED
Publisher_001,topicA,topicA-505,172.172.1.1:1883,1551657581610,PRODUCED
Publisher_001,topicA,topicA-506,172.172.1.1:1883,1551657581710,PRODUCED
Publisher_001,topicA,topicA-507,172.172.1.1:1883,1551657581810,PRODUCED
Publisher_001,topicA,topicA-508,172.172.1.1:1883,1551657581910,PRODUCED
Publisher_001,topicA,topicA-509,172.172.1.1:1883,1551657582010,PRODUCED
Publisher_001,topicA,topicA-510,172.172.1.1:1883,1551657582110,PRODUCED
Publisher_001,topicA,topicA-511,172.172.1.1:1883,1551657582210,PRODUCED
Publisher_001,topicA,topicA-512,172.172.1.1:1883,1551657582310,PRODUCED
Publisher_001,topicA,topicA-513,172.172.1.1:1883,1551657582410,PRODUCED
Publisher_001,topicA,topicA-514,172.172.1.1:1883,1551657582510,PRODUCED
Publisher_001,topicA,topicA-515,172.172.1.1:1883,1551657582610,PRODUCED
Publisher_001,topicA,topicA-516,172.172.1.1:1883,1551657582710,PRODUCED
Publisher_001,topicA,topicA-517,172.172.1.1:1883,1551657582810,PRODUCED
Publisher_001,topicA,topicA-518,172.172.1.1:1883,1551657582910,PRODUCED
Publisher_001,topicA,topicA-519,172.172.1.1:1883,1551657583010,PRODUCED
Publisher_001,topicA,topicA-520,172.172.1.1:1883,1551657583110,PRODUCED
Publisher_001,topicA,topicA-521,172.172.1.1:1883,1551657583210,PRODUCED
Publisher_001,topicA,topicA-522,172.172.1.1:1883,1551657583310,PRODUCED
Publisher_001,topicA,topicA-523,172.172.1.1:1883,1551657583410,PRODUCED
Publisher_001,topicA,topicA-524,172.172.1.1:1883,1551657583510,PRODUCED
Publisher_001,topicA,topicA-525,172.172.1.1:1883,1551657583610,PRODUCED
Publisher_001,topicA,topicA-526,172.172.1.1:1883,1551657583710,PRODUCED
Publisher_001,topicA,topicA-527,172.172.1.1:1883,1551657583810,PRODUCED
Publisher_001,topicA,topicA-528,172.172.1.1:1883,1551657583910,PRODUCED
Publisher_001,topicA,topicA-529,172.172.1.1:1883,1551657584010,PRODUCED
Publisher_001,topicA,topicA-530,172.172.1.1:1883,1551657584110,PRODUCED
Publisher_001,topicA,topicA-531,172.172.1.1:1883,1551657584210,PRODUCED
Publisher_001,topicA,topicA-532,172.172.1.1:1883,1551657584310,PRODUCED
Publisher_001,topicA,topicA-533,172.172.1.1:1883,1551657584410,PRODUCED
Publisher_001,topicA,topicA-534,172.172.1.1:1883,1551657584510,PRODUCED
Publisher_001,topicA,topicA-535,172.172.1.1:1883,1551657584610,PRODUCED
Publisher_001,topicA,topicA-536,172.172.1.1:1883,1551657584710,PRODUCED
Publisher_001,topicA,topicA-537,172.172.1.1:1883,1551657584810,PRODUCED
Publisher_001,topicA,topicA-538,172.172.1.1:1883,1551657584910,PRODUCED
Publisher_001,topicA,topicA-539,172.172.1.1:1883,1551657585010,PRODUCED
Publisher_001,topicA,topicA-540,172.172.1.1:1883,1551657585110,PRODUCED
Publisher_001,topicA,topicA-541,172.172.1.1:1883,1551657585210,PRODUCED
Publisher_001,topicA,topicA-542,172.172.1.1:1883,1551657585310,PRODUCED
Publisher_001,topicA,topicA-543,172.172.1.1:1883,1551657585410,PRODUCED
Publisher_001,topicA,topicA-544,172.172.1.1:1883,1551657585510,PRODUCED
Publisher_001,topicA,topicA-545,172.172.1.1:1883,1551657585610,PRODUCED
Publisher_001,topicA,topicA-546,172.172.1.1:1883,1551657585710,PRODUCED
Publisher_001,topicA,topicA-547,172.172.1.1:1883,1551657585810,PRODUCED
Publisher_001,topicA,topicA-548,172.172.1.1:1883,1551657585910,PRODUCED
Publisher_001,topicA,topicA-549,172.172.1.1:1883,1551657586010,PRODUCED
Publisher_001,topicA,topicA-550,172.172.1.1:1883,1551657586110,PRODUCED
Publisher_001,topicA,topicA-551,172.172.1.1:1883,1551657586213,PRODUCED
Publisher_001,topicA,topicA-552,172.172.1.1:1883,1551657586310,PRODUCED
Publisher_001,topicA,topicA-553,172.172.1.1:1883,1551657586410,PRODUCED
Publisher_001,topicA,topicA-554,172.172.1.1:1883,1551657586510,PRODUCED
Publisher_001,topicA,topicA-555,172.172.1.1:1883,1551657586610,PRODUCED
Publisher_001,topicA,topicA-556,172.172.1.1:1883,1551657586710,PRODUCED
Publisher_001,topicA,topicA-557,172.172.1.1:1883,1551657586810,PRODUCED
Publisher_001,topicA,topicA-558,172.172.1.1:1883,1551657586910,PRODUCED
Publisher_001,topicA,topicA-559,172.172.1.1:1883,1551657587010,PRODUCED
Publisher_001,topicA,topicA-560,172.172.1.1:1883,1551657587110,PRODUCED
Publisher_001,topicA,topicA-561,172.172.1.1:1883,1551657587210,PRODUCED
Publisher_001,topicA,topicA-562,172.172.1.1:1883,1551657587310,PRODUCED
Publisher_001,topicA,topicA-563,172.172.1.1:1883,1551657587410,PRODUCED
Publisher_001,topicA,topicA-564,172.172.1.1:1883,1551657587510,PRODUCED
Publisher_001,topicA,topicA-565,172.172.1.1:1883,1551657587610,PRODUCED
Publisher_001,topicA,topicA-566,172.172.1.1:1883,1551657587710,PRODUCED
Publisher_001,topicA,topicA-567,172.172.1.1:1883,1551657587810,PRODUCED
Publisher_001,topicA,topicA-568,172.172.1.1:1883,1551657587910,PRODUCED
Publisher_001,topicA,topicA-569,172.172.1.1:1883,1551657588010,PRODUCED
Publisher_001,topicA,topicA-570,172.172.1.1:1883,1551657588110,PRODUCED
Publisher_001,topicA,topicA-571,172.172.1.1:1883,1551657588210,PRODUCED
Publisher_001,topicA,topicA-572,172.172.1.1:1883,1551657588313,PRODUCED
Publisher_001,topicA,topicA-573,172.172.1.1:1883,1551657588410,PRODUCED
Publisher_001,topicA,topicA-574,172.172.1.1:1883,1551657588510,PRODUCED
Publisher_001,topicA,topicA-575,172.172.1.1:1883,1551657588610,PRODUCED
Publisher_001,topicA,topicA-576,172.172.1.1:1883,1551657588710,PRODUCED
Publisher_001,topicA,topicA-577,172.172.1.1:1883,1551657588810,PRODUCED
Publisher_001,topicA,topicA-578,172.172.1.1:1883,1551657588910,PRODUCED
Publisher_001,topicA,topicA-579,172.172.1.1:1883,1551657589010,PRODUCED
Publisher_001,topicA,topicA-580,172.172.1.1:1883,1551657589110,PRODUCED
Publisher_001,topicA,topicA-581,172.172.1.1:1883,1551657589210,PRODUCED
Publisher_001,topicA,topicA-582,172.172.1.1:1883,1551657589310,PRODUCED
Publisher_001,topicA,topicA-583,172.172.1.1:1883,1551657589410,PRODUCED
Publisher_001,topicA,topicA-584,172.172.1.1:1883,1551657589510,PRODUCED
Publisher_001,topicA,topicA-585,172.172.1.1:1883,1551657589610,PRODUCED
Publisher_001,topicA,topicA-586,172.172.1.1:1883,1551657589710,PRODUCED
Publisher_001,topicA,topicA-587,172.172.1.1:1883,1551657589810,PRODUCED
Publisher_001,topicA,topicA-588,172.172.1.1:1883,1551657589910,PRODUCED
Publisher_001,topicA,topicA-589,172.172.1.1:1883,1551657590010,PRODUCED
Publisher_001,topicA,topicA-590,172.172.1.1:1883,1551657590110,PRODUCED
Publisher_001,topicA,topicA-591,172.172.1.1:1883,1551657590210,PRODUCED
Publisher_001,topicA,topicA-592,172.172.1.1:1883,1551657590310,PRODUCED
Publisher_001,topicA,topicA-593,172.172.1.1:1883,1551657590410,PRODUCED
Publisher_001,topicA,topicA-594,172.172.1.1:1883,1551657590510,PRODUCED
Publisher_001,topicA,topicA-595,172.172.1.1:1883,1551657590610,PRODUCED
Publisher_001,topicA,topicA-596,172.172.1.1:1883,1551657590710,PRODUCED
Publisher_001,topicA,topicA-597,172.172.1.1:1883,1551657590810,PRODUCED
Publisher_001,topicA,topicA-598,172.172.1.1:1883,1551657590910,PRODUCED
Publisher_001,topicA,topicA-599,172.172.1.1:1883,1551657591010,PRODUCED
Publisher_001,topicA,topicA-600,172.172.1.1:1883,1551657591110,PRODUCED
Publisher_001,topicA,topicA-601,172.172.1.1:1883,1551657591210,PRODUCED
Publisher_001,topicA,topicA-602,172.172.1.1:1883,1551657591310,PRODUCED
Publisher_001,topicA,topicA-603,172.172.1.1:1883,1551657591410,PRODUCED
Publisher_001,topicA,topicA-604,172.172.1.1:1883,1551657591510,PRODUCED
Publisher_001,topicA,topicA-605,172.172.1.1:1883,1551657591611,PRODUCED
Publisher_001,topicA,topicA-606,172.172.1.1:1883,1551657591710,PRODUCED
Publisher_001,topicA,topicA-607,172.172.1.1:1883,1551657591810,PRODUCED
Publisher_001,topicA,topicA-608,172.172.1.1:1883,1551657591910,PRODUCED
Publisher_001,topicA,topicA-609,172.172.1.1:1883,1551657592010,PRODUCED
Publisher_001,topicA,topicA-610,172.172.1.1:1883,1551657592110,PRODUCED
Publisher_001,topicA,topicA-611,172.172.1.1:1883,1551657592210,PRODUCED
Publisher_001,topicA,topicA-612,172.172.1.1:1883,1551657592310,PRODUCED
Publisher_001,topicA,topicA-613,172.172.1.1:1883,1551657592410,PRODUCED
Publisher_001,topicA,topicA-614,172.172.1.1:1883,1551657592510,PRODUCED
Publisher_001,topicA,topicA-615,172.172.1.1:1883,1551657592610,PRODUCED
Publisher_001,topicA,topicA-616,172.172.1.1:1883,1551657592710,PRODUCED
Publisher_001,topicA,topicA-617,172.172.1.1:1883,1551657592810,PRODUCED
Publisher_001,topicA,topicA-618,172.172.1.1:1883,1551657592910,PRODUCED
Publisher_001,topicA,topicA-619,172.172.1.1:1883,1551657593010,PRODUCED
Publisher_001,topicA,topicA-620,172.172.1.1:1883,1551657593110,PRODUCED
Publisher_001,topicA,topicA-621,172.172.1.1:1883,1551657593210,PRODUCED
Publisher_001,topicA,topicA-622,172.172.1.1:1883,1551657593310,PRODUCED
Publisher_001,topicA,topicA-623,172.172.1.1:1883,1551657593410,PRODUCED
Publisher_001,topicA,topicA-624,172.172.1.1:1883,1551657593510,PRODUCED
Publisher_001,topicA,topicA-625,172.172.1.1:1883,1551657593610,PRODUCED
Publisher_001,topicA,topicA-626,172.172.1.1:1883,1551657593710,PRODUCED
Publisher_001,topicA,topicA-627,172.172.1.1:1883,1551657593810,PRODUCED
Publisher_001,topicA,topicA-628,172.172.1.1:1883,1551657593910,PRODUCED
Publisher_001,topicA,topicA-629,172.172.1.1:1883,1551657594010,PRODUCED
Publisher_001,topicA,topicA-630,172.172.1.1:1883,1551657594110,PRODUCED
Publisher_001,topicA,topicA-631,172.172.1.1:1883,1551657594210,PRODUCED
Publisher_001,topicA,topicA-632,172.172.1.1:1883,1551657594310,PRODUCED
Publisher_001,topicA,topicA-633,172.172.1.1:1883,1551657594410,PRODUCED
Publisher_001,topicA,topicA-634,172.172.1.1:1883,1551657594510,PRODUCED
Publisher_001,topicA,topicA-635,172.172.1.1:1883,1551657594610,PRODUCED
Publisher_001,topicA,topicA-636,172.172.1.1:1883,1551657594710,PRODUCED
Publisher_001,topicA,topicA-637,172.172.1.1:1883,1551657594810,PRODUCED
Publisher_001,topicA,topicA-638,172.172.1.1:1883,1551657594910,PRODUCED
Publisher_001,topicA,topicA-639,172.172.1.1:1883,1551657595010,PRODUCED
Publisher_001,topicA,topicA-640,172.172.1.1:1883,1551657595110,PRODUCED
Publisher_001,topicA,topicA-641,172.172.1.1:1883,1551657595210,PRODUCED
Publisher_001,topicA,topicA-642,172.172.1.1:1883,1551657595310,PRODUCED
Publisher_001,topicA,topicA-643,172.172.1.1:1883,1551657595410,PRODUCED
Publisher_001,topicA,topicA-644,172.172.1.1:1883,1551657595510,PRODUCED
Publisher_001,topicA,topicA-645,172.172.1.1:1883,1551657595610,PRODUCED
Publisher_001,topicA,topicA-646,172.172.1.1:1883,1551657595710,PRODUCED
Publisher_001,topicA,topicA-647,172.172.1.1:1883,1551657595810,PRODUCED
Publisher_001,topicA,topicA-648,172.172.1.1:1883,1551657595910,PRODUCED
Publisher_001,topicA,topicA-649,172.172.1.1:1883,1551657596010,PRODUCED
Publisher_001,topicA,topicA-650,172.172.1.1:1883,1551657596110,PRODUCED
Publisher_001,topicA,topicA-651,172.172.1.1:1883,1551657596210,PRODUCED
Publisher_001,topicA,topicA-652,172.172.1.1:1883,1551657596310,PRODUCED
Publisher_001,topicA,topicA-653,172.172.1.1:1883,1551657596410,PRODUCED
Publisher_001,topicA,topicA-654,172.172.1.1:1883,1551657596510,PRODUCED
Publisher_001,topicA,topicA-655,172.172.1.1:1883,1551657596610,PRODUCED
Publisher_001,topicA,topicA-656,172.172.1.1:1883,1551657596710,PRODUCED
Publisher_001,topicA,topicA-657,172.172.1.1:1883,1551657596810,PRODUCED
Publisher_001,topicA,topicA-658,172.172.1.1:1883,1551657596910,PRODUCED
Publisher_001,topicA,topicA-659,172.172.1.1:1883,1551657597010,PRODUCED
Publisher_001,topicA,topicA-660,172.172.1.1:1883,1551657597110,PRODUCED
Publisher_001,topicA,topicA-661,172.172.1.1:1883,1551657597210,PRODUCED
Publisher_001,topicA,topicA-662,172.172.1.1:1883,1551657597310,PRODUCED
Publisher_001,topicA,topicA-663,172.172.1.1:1883,1551657597410,PRODUCED
Publisher_001,topicA,topicA-664,172.172.1.1:1883,1551657597510,PRODUCED
Publisher_001,topicA,topicA-665,172.172.1.1:1883,1551657597610,PRODUCED
