timestamp,event,migrationId
1551654950040,INITIALIZED,4deb4e13-e04f-42e4-ac4a-52d50565d6db
1551654950042,topicA-INITIALIZED,4deb4e13-e04f-42e4-ac4a-52d50565d6db
1551654950814,topicA-FINISHED,4deb4e13-e04f-42e4-ac4a-52d50565d6db
1551654950825,FINISHED,4deb4e13-e04f-42e4-ac4a-52d50565d6db
