[1] "Duration B1: 799"
[1] "Duration B2: 481"
[1] "Duration MIGRATE: 302"
[1] "Duration MIGACK: 16"
[1] "addrow"
[1] "INITIALIZED"
  timestamp       event                          migrationId
1         0 INITIALIZED a880b48f-79e3-4576-b1a2-b002257e3502
[1] "addrow"
[1] "SYNCING"
[1] "addrow"
[1] "SYNCED"
[1] "addrow"
[1] "FINISHED"
  timestamp    event                          migrationId
9       799 FINISHED a880b48f-79e3-4576-b1a2-b002257e3502
[1] "addrow"
[1] "topicA-INITIALIZED"
  timestamp              event                          migrationId
3         6 topicA-INITIALIZED a880b48f-79e3-4576-b1a2-b002257e3502
[1] "addrow"
[1] "topicA-SYNCING"
[1] "addrow"
[1] "topicA-SYNCED"
  timestamp         event                          migrationId
4        10 topicA-SYNCED a880b48f-79e3-4576-b1a2-b002257e3502
[1] "addrow"
[1] "topicA-FINISHED"
  timestamp           event                          migrationId
7       771 topicA-FINISHED a880b48f-79e3-4576-b1a2-b002257e3502
[1] "addrow"
[1] "topicB-INITIALIZED"
  timestamp              event                          migrationId
5        14 topicB-INITIALIZED a880b48f-79e3-4576-b1a2-b002257e3502
[1] "addrow"
[1] "topicB-SYNCING"
[1] "addrow"
[1] "topicB-SYNCED"
[1] "addrow"
[1] "topicB-FINISHED"
  timestamp           event                          migrationId
8       776 topicB-FINISHED a880b48f-79e3-4576-b1a2-b002257e3502
[1] "addrow"
[1] "topicC-INITIALIZED"
  timestamp              event                          migrationId
2         2 topicC-INITIALIZED a880b48f-79e3-4576-b1a2-b002257e3502
[1] "addrow"
[1] "topicC-SYNCING"
[1] "addrow"
[1] "topicC-SYNCED"
[1] "addrow"
[1] "topicC-FINISHED"
  timestamp           event                          migrationId
6       771 topicC-FINISHED a880b48f-79e3-4576-b1a2-b002257e3502
