timestamp,event,migrationId
1551652221409,INITIALIZED,983369a1-9d8d-4b92-b8f6-a7b3fb9806a2
1551652221413,topicA-SYNCED,983369a1-9d8d-4b92-b8f6-a7b3fb9806a2
1551652221411,topicB-INITIALIZED,983369a1-9d8d-4b92-b8f6-a7b3fb9806a2
1551652221411,topicA-INITIALIZED,983369a1-9d8d-4b92-b8f6-a7b3fb9806a2
1551652221409,topicC-INITIALIZED,983369a1-9d8d-4b92-b8f6-a7b3fb9806a2
1551652222049,SYNCING,983369a1-9d8d-4b92-b8f6-a7b3fb9806a2
1551652222050,topicC-SYNCING,983369a1-9d8d-4b92-b8f6-a7b3fb9806a2
1551652222061,topicB-SYNCING,983369a1-9d8d-4b92-b8f6-a7b3fb9806a2
1551652223875,topicC-SYNCED,983369a1-9d8d-4b92-b8f6-a7b3fb9806a2
1551652223877,topicB-SYNCED,983369a1-9d8d-4b92-b8f6-a7b3fb9806a2
1551652223878,SYNCED,983369a1-9d8d-4b92-b8f6-a7b3fb9806a2
1551652223979,topicC-FINISHED,983369a1-9d8d-4b92-b8f6-a7b3fb9806a2
1551652223980,topicA-FINISHED,983369a1-9d8d-4b92-b8f6-a7b3fb9806a2
1551652223981,topicB-FINISHED,983369a1-9d8d-4b92-b8f6-a7b3fb9806a2
1551652223981,FINISHED,983369a1-9d8d-4b92-b8f6-a7b3fb9806a2
