[1] "Duration B1: 778"
[1] "Duration B2: 500"
[1] "Duration MIGRATE: 252"
[1] "Duration MIGACK: 26"
[1] "addrow"
[1] "INITIALIZED"
  timestamp       event                          migrationId
1         0 INITIALIZED 92d64bbf-fb28-4373-bbea-5fe883a53963
[1] "addrow"
[1] "SYNCING"
[1] "addrow"
[1] "SYNCED"
[1] "addrow"
[1] "FINISHED"
  timestamp    event                          migrationId
4       778 FINISHED 92d64bbf-fb28-4373-bbea-5fe883a53963
[1] "addrow"
[1] "topicA-INITIALIZED"
  timestamp              event                          migrationId
2         6 topicA-INITIALIZED 92d64bbf-fb28-4373-bbea-5fe883a53963
[1] "addrow"
[1] "topicA-SYNCING"
[1] "addrow"
[1] "topicA-SYNCED"
[1] "addrow"
[1] "topicA-FINISHED"
  timestamp           event                          migrationId
3       777 topicA-FINISHED 92d64bbf-fb28-4373-bbea-5fe883a53963
