timestamp,event,migrationId
1551659825305,INITIALIZED,d9654322-2f8d-4347-9cf8-f1514e102a79
1551659825308,topicC-INITIALIZED,d9654322-2f8d-4347-9cf8-f1514e102a79
1551659825313,topicA-INITIALIZED,d9654322-2f8d-4347-9cf8-f1514e102a79
1551659825313,topicB-INITIALIZED,d9654322-2f8d-4347-9cf8-f1514e102a79
1551659825329,topicA-SYNCED,d9654322-2f8d-4347-9cf8-f1514e102a79
1551659827477,topicC-FINISHED,d9654322-2f8d-4347-9cf8-f1514e102a79
1551659827477,topicA-FINISHED,d9654322-2f8d-4347-9cf8-f1514e102a79
1551659827480,topicB-FINISHED,d9654322-2f8d-4347-9cf8-f1514e102a79
1551659827481,FINISHED,d9654322-2f8d-4347-9cf8-f1514e102a79
