timestamp,event,migrationId
1551643848096,INITIALIZED,e1386928-c644-43bb-a032-2862eed7d3ae
1551643848098,topicA-INITIALIZED,e1386928-c644-43bb-a032-2862eed7d3ae
1551643848102,topicA-SYNCED,e1386928-c644-43bb-a032-2862eed7d3ae
1551643848846,topicA-FINISHED,e1386928-c644-43bb-a032-2862eed7d3ae
1551643848846,FINISHED,e1386928-c644-43bb-a032-2862eed7d3ae
