timestamp,event,migrationId
1551652221710,INITIALIZED,983369a1-9d8d-4b92-b8f6-a7b3fb9806a2
1551652221710,topicC-INITIALIZED,983369a1-9d8d-4b92-b8f6-a7b3fb9806a2
1551652221713,topicA-INITIALIZED,983369a1-9d8d-4b92-b8f6-a7b3fb9806a2
1551652221713,topicB-INITIALIZED,983369a1-9d8d-4b92-b8f6-a7b3fb9806a2
1551652221952,topicC-SYNCING,983369a1-9d8d-4b92-b8f6-a7b3fb9806a2
1551652221953,topicA-SYNCING,983369a1-9d8d-4b92-b8f6-a7b3fb9806a2
1551652221955,topicB-SYNCING,983369a1-9d8d-4b92-b8f6-a7b3fb9806a2
1551652221956,SYNCING,983369a1-9d8d-4b92-b8f6-a7b3fb9806a2
1551652221965,topicC-SYNCING_OPPONENT,983369a1-9d8d-4b92-b8f6-a7b3fb9806a2
1551652221996,topicA-SYNCING_THIS,983369a1-9d8d-4b92-b8f6-a7b3fb9806a2
1551652221997,topicB-SYNCING_OPPONENT,983369a1-9d8d-4b92-b8f6-a7b3fb9806a2
1551652221997,topicA-SYNCED,983369a1-9d8d-4b92-b8f6-a7b3fb9806a2
1551652223929,topicC-SYNCED,983369a1-9d8d-4b92-b8f6-a7b3fb9806a2
1551652223930,topicB-SYNCED,983369a1-9d8d-4b92-b8f6-a7b3fb9806a2
1551652223948,SYNCED,983369a1-9d8d-4b92-b8f6-a7b3fb9806a2
1551652223958,topicC-FINISHED,983369a1-9d8d-4b92-b8f6-a7b3fb9806a2
1551652223959,topicA-FINISHED,983369a1-9d8d-4b92-b8f6-a7b3fb9806a2
1551652223966,topicB-FINISHED,983369a1-9d8d-4b92-b8f6-a7b3fb9806a2
1551652223968,FINISHED,983369a1-9d8d-4b92-b8f6-a7b3fb9806a2
