timestamp,event,migrationId
1551641813364,INITIALIZED,192f0c7d-58aa-48ce-bb7e-17f6c8b336ac
1551641813366,topicC-INITIALIZED,192f0c7d-58aa-48ce-bb7e-17f6c8b336ac
1551641813370,topicD-INITIALIZED,192f0c7d-58aa-48ce-bb7e-17f6c8b336ac
1551641813385,topicA-INITIALIZED,192f0c7d-58aa-48ce-bb7e-17f6c8b336ac
1551641813386,topicB-INITIALIZED,192f0c7d-58aa-48ce-bb7e-17f6c8b336ac
1551641813392,topicE-INITIALIZED,192f0c7d-58aa-48ce-bb7e-17f6c8b336ac
1551641813393,topicF-INITIALIZED,192f0c7d-58aa-48ce-bb7e-17f6c8b336ac
1551641813410,topicD-SYNCED,192f0c7d-58aa-48ce-bb7e-17f6c8b336ac
1551641813421,topicA-SYNCED,192f0c7d-58aa-48ce-bb7e-17f6c8b336ac
1551641814044,SYNCING,192f0c7d-58aa-48ce-bb7e-17f6c8b336ac
1551641814045,topicC-SYNCING,192f0c7d-58aa-48ce-bb7e-17f6c8b336ac
1551641814058,topicB-SYNCING,192f0c7d-58aa-48ce-bb7e-17f6c8b336ac
1551641815906,topicB-SYNCED,192f0c7d-58aa-48ce-bb7e-17f6c8b336ac
1551641815908,topicC-SYNCED,192f0c7d-58aa-48ce-bb7e-17f6c8b336ac
1551641815915,SYNCED,192f0c7d-58aa-48ce-bb7e-17f6c8b336ac
1551641815979,topicC-FINISHED,192f0c7d-58aa-48ce-bb7e-17f6c8b336ac
1551641815985,topicD-FINISHED,192f0c7d-58aa-48ce-bb7e-17f6c8b336ac
1551641815986,topicA-FINISHED,192f0c7d-58aa-48ce-bb7e-17f6c8b336ac
1551641815997,topicB-FINISHED,192f0c7d-58aa-48ce-bb7e-17f6c8b336ac
1551641815998,topicE-FINISHED,192f0c7d-58aa-48ce-bb7e-17f6c8b336ac
1551641816002,topicF-FINISHED,192f0c7d-58aa-48ce-bb7e-17f6c8b336ac
1551641816004,FINISHED,192f0c7d-58aa-48ce-bb7e-17f6c8b336ac
