clientId,topic,guid,broker,timestamp,type
Publisher_001,topicA,topicA-1,172.172.1.1:1883,1551654085750,PRODUCED
Publisher_001,topicA,topicA-2,172.172.1.1:1883,1551654085972,PRODUCED
Publisher_001,topicA,topicA-3,172.172.1.1:1883,1551654085976,PRODUCED
Publisher_001,topicA,topicA-4,172.172.1.1:1883,1551654085980,PRODUCED
Publisher_001,topicA,topicA-5,172.172.1.1:1883,1551654085986,PRODUCED
Publisher_001,topicA,topicA-6,172.172.1.1:1883,1551654086089,PRODUCED
Publisher_001,topicA,topicA-7,172.172.1.1:1883,1551654086185,PRODUCED
Publisher_001,topicA,topicA-8,172.172.1.1:1883,1551654086285,PRODUCED
Publisher_001,topicA,topicA-9,172.172.1.1:1883,1551654086386,PRODUCED
Publisher_001,topicA,topicA-10,172.172.1.1:1883,1551654086485,PRODUCED
Publisher_001,topicA,topicA-11,172.172.1.1:1883,1551654086585,PRODUCED
Publisher_001,topicA,topicA-12,172.172.1.1:1883,1551654086685,PRODUCED
Publisher_001,topicA,topicA-13,172.172.1.1:1883,1551654086785,PRODUCED
Publisher_001,topicA,topicA-14,172.172.1.1:1883,1551654086885,PRODUCED
Publisher_001,topicA,topicA-15,172.172.1.1:1883,1551654086985,PRODUCED
Publisher_001,topicA,topicA-16,172.172.1.1:1883,1551654087085,PRODUCED
Publisher_001,topicA,topicA-17,172.172.1.1:1883,1551654087185,PRODUCED
Publisher_001,topicA,topicA-18,172.172.1.1:1883,1551654087289,PRODUCED
Publisher_001,topicA,topicA-19,172.172.1.1:1883,1551654087385,PRODUCED
Publisher_001,topicA,topicA-20,172.172.1.1:1883,1551654087485,PRODUCED
Publisher_001,topicA,topicA-21,172.172.1.1:1883,1551654087585,PRODUCED
Publisher_001,topicA,topicA-22,172.172.1.1:1883,1551654087685,PRODUCED
Publisher_001,topicA,topicA-23,172.172.1.1:1883,1551654087785,PRODUCED
Publisher_001,topicA,topicA-24,172.172.1.1:1883,1551654087886,PRODUCED
Publisher_001,topicA,topicA-25,172.172.1.1:1883,1551654087986,PRODUCED
Publisher_001,topicA,topicA-26,172.172.1.1:1883,1551654088085,PRODUCED
Publisher_001,topicA,topicA-27,172.172.1.1:1883,1551654088186,PRODUCED
Publisher_001,topicA,topicA-28,172.172.1.1:1883,1551654088286,PRODUCED
Publisher_001,topicA,topicA-29,172.172.1.1:1883,1551654088385,PRODUCED
Publisher_001,topicA,topicA-30,172.172.1.1:1883,1551654088486,PRODUCED
Publisher_001,topicA,topicA-31,172.172.1.1:1883,1551654088591,PRODUCED
Publisher_001,topicA,topicA-32,172.172.1.1:1883,1551654088687,PRODUCED
Publisher_001,topicA,topicA-33,172.172.1.1:1883,1551654088788,PRODUCED
Publisher_001,topicA,topicA-34,172.172.1.1:1883,1551654088886,PRODUCED
Publisher_001,topicA,topicA-35,172.172.1.1:1883,1551654088986,PRODUCED
Publisher_001,topicA,topicA-36,172.172.1.1:1883,1551654089085,PRODUCED
Publisher_001,topicA,topicA-37,172.172.1.1:1883,1551654089185,PRODUCED
Publisher_001,topicA,topicA-38,172.172.1.1:1883,1551654089285,PRODUCED
Publisher_001,topicA,topicA-39,172.172.1.1:1883,1551654089385,PRODUCED
Publisher_001,topicA,topicA-40,172.172.1.1:1883,1551654089487,PRODUCED
Publisher_001,topicA,topicA-41,172.172.1.1:1883,1551654089586,PRODUCED
Publisher_001,topicA,topicA-42,172.172.1.1:1883,1551654089687,PRODUCED
Publisher_001,topicA,topicA-43,172.172.1.1:1883,1551654089785,PRODUCED
Publisher_001,topicA,topicA-44,172.172.1.1:1883,1551654089885,PRODUCED
Publisher_001,topicA,topicA-45,172.172.1.1:1883,1551654089985,PRODUCED
Publisher_001,topicA,topicA-46,172.172.1.1:1883,1551654090085,PRODUCED
Publisher_001,topicA,topicA-47,172.172.1.1:1883,1551654090186,PRODUCED
Publisher_001,topicA,topicA-48,172.172.1.1:1883,1551654090285,PRODUCED
Publisher_001,topicA,topicA-49,172.172.1.1:1883,1551654090385,PRODUCED
Publisher_001,topicA,topicA-50,172.172.1.1:1883,1551654090485,PRODUCED
Publisher_001,topicA,topicA-51,172.172.1.1:1883,1551654090585,PRODUCED
Publisher_001,topicA,topicA-52,172.172.1.1:1883,1551654090685,PRODUCED
Publisher_001,topicA,topicA-53,172.172.1.1:1883,1551654090790,PRODUCED
Publisher_001,topicA,topicA-54,172.172.1.1:1883,1551654090885,PRODUCED
Publisher_001,topicA,topicA-55,172.172.1.1:1883,1551654090985,PRODUCED
Publisher_001,topicA,topicA-56,172.172.1.1:1883,1551654091085,PRODUCED
Publisher_001,topicA,topicA-57,172.172.1.1:1883,1551654091185,PRODUCED
Publisher_001,topicA,topicA-58,172.172.1.1:1883,1551654091285,PRODUCED
Publisher_001,topicA,topicA-59,172.172.1.1:1883,1551654091389,PRODUCED
Publisher_001,topicA,topicA-60,172.172.1.1:1883,1551654091485,PRODUCED
Publisher_001,topicA,topicA-61,172.172.1.1:1883,1551654091586,PRODUCED
Publisher_001,topicA,topicA-62,172.172.1.1:1883,1551654091685,PRODUCED
Publisher_001,topicA,topicA-63,172.172.1.1:1883,1551654091790,PRODUCED
Publisher_001,topicA,topicA-64,172.172.1.1:1883,1551654091885,PRODUCED
Publisher_001,topicA,topicA-65,172.172.1.1:1883,1551654091986,PRODUCED
Publisher_001,topicA,topicA-66,172.172.1.1:1883,1551654092085,PRODUCED
Publisher_001,topicA,topicA-67,172.172.1.1:1883,1551654092185,PRODUCED
Publisher_001,topicA,topicA-68,172.172.1.1:1883,1551654092290,PRODUCED
Publisher_001,topicA,topicA-69,172.172.1.1:1883,1551654092385,PRODUCED
Publisher_001,topicA,topicA-70,172.172.1.1:1883,1551654092485,PRODUCED
Publisher_001,topicA,topicA-71,172.172.1.1:1883,1551654092585,PRODUCED
Publisher_001,topicA,topicA-72,172.172.1.1:1883,1551654092686,PRODUCED
Publisher_001,topicA,topicA-73,172.172.1.1:1883,1551654092786,PRODUCED
Publisher_001,topicA,topicA-74,172.172.1.1:1883,1551654092887,PRODUCED
Publisher_001,topicA,topicA-75,172.172.1.1:1883,1551654092985,PRODUCED
Publisher_001,topicA,topicA-76,172.172.1.1:1883,1551654093085,PRODUCED
Publisher_001,topicA,topicA-77,172.172.1.1:1883,1551654093186,PRODUCED
Publisher_001,topicA,topicA-78,172.172.1.1:1883,1551654093285,PRODUCED
Publisher_001,topicA,topicA-79,172.172.1.1:1883,1551654093386,PRODUCED
Publisher_001,topicA,topicA-80,172.172.1.1:1883,1551654093485,PRODUCED
Publisher_001,topicA,topicA-81,172.172.1.1:1883,1551654093585,PRODUCED
Publisher_001,topicA,topicA-82,172.172.1.1:1883,1551654093685,PRODUCED
Publisher_001,topicA,topicA-83,172.172.1.1:1883,1551654093786,PRODUCED
Publisher_001,topicA,topicA-84,172.172.1.1:1883,1551654093886,PRODUCED
Publisher_001,topicA,topicA-85,172.172.1.1:1883,1551654093991,PRODUCED
Publisher_001,topicA,topicA-86,172.172.1.1:1883,1551654094088,PRODUCED
Publisher_001,topicA,topicA-87,172.172.1.1:1883,1551654094185,PRODUCED
Publisher_001,topicA,topicA-88,172.172.1.1:1883,1551654094285,PRODUCED
Publisher_001,topicA,topicA-89,172.172.1.1:1883,1551654094385,PRODUCED
Publisher_001,topicA,topicA-90,172.172.1.1:1883,1551654094489,PRODUCED
Publisher_001,topicA,topicA-91,172.172.1.1:1883,1551654094586,PRODUCED
Publisher_001,topicA,topicA-92,172.172.1.1:1883,1551654094686,PRODUCED
Publisher_001,topicA,topicA-93,172.172.1.1:1883,1551654094786,PRODUCED
Publisher_001,topicA,topicA-94,172.172.1.1:1883,1551654094885,PRODUCED
Publisher_001,topicA,topicA-95,172.172.1.1:1883,1551654094985,PRODUCED
Publisher_001,topicA,topicA-96,172.172.1.1:1883,1551654095085,PRODUCED
Publisher_001,topicA,topicA-97,172.172.1.1:1883,1551654095186,PRODUCED
Publisher_001,topicA,topicA-98,172.172.1.1:1883,1551654095285,PRODUCED
Publisher_001,topicA,topicA-99,172.172.1.1:1883,1551654095385,PRODUCED
Publisher_001,topicA,topicA-100,172.172.1.1:1883,1551654095486,PRODUCED
Publisher_001,topicA,topicA-101,172.172.1.1:1883,1551654095586,PRODUCED
Publisher_001,topicA,topicA-102,172.172.1.1:1883,1551654095689,PRODUCED
Publisher_001,topicA,topicA-103,172.172.1.1:1883,1551654095788,PRODUCED
Publisher_001,topicA,topicA-104,172.172.1.1:1883,1551654095885,PRODUCED
Publisher_001,topicA,topicA-105,172.172.1.1:1883,1551654095985,PRODUCED
Publisher_001,topicA,topicA-106,172.172.1.1:1883,1551654096085,PRODUCED
Publisher_001,topicA,topicA-107,172.172.1.1:1883,1551654096185,PRODUCED
Publisher_001,topicA,topicA-108,172.172.1.1:1883,1551654096288,PRODUCED
Publisher_001,topicA,topicA-109,172.172.1.1:1883,1551654096386,PRODUCED
Publisher_001,topicA,topicA-110,172.172.1.1:1883,1551654096485,PRODUCED
Publisher_001,topicA,topicA-111,172.172.1.1:1883,1551654096587,PRODUCED
Publisher_001,topicA,topicA-112,172.172.1.1:1883,1551654096685,PRODUCED
Publisher_001,topicA,topicA-113,172.172.1.1:1883,1551654096785,PRODUCED
Publisher_001,topicA,topicA-114,172.172.1.1:1883,1551654096885,PRODUCED
Publisher_001,topicA,topicA-115,172.172.1.1:1883,1551654096986,PRODUCED
Publisher_001,topicA,topicA-116,172.172.1.1:1883,1551654097086,PRODUCED
Publisher_001,topicA,topicA-117,172.172.1.1:1883,1551654097185,PRODUCED
Publisher_001,topicA,topicA-118,172.172.1.1:1883,1551654097286,PRODUCED
Publisher_001,topicA,topicA-119,172.172.1.1:1883,1551654097386,PRODUCED
Publisher_001,topicA,topicA-120,172.172.1.1:1883,1551654097485,PRODUCED
Publisher_001,topicA,topicA-121,172.172.1.1:1883,1551654097587,PRODUCED
Publisher_001,topicA,topicA-122,172.172.1.1:1883,1551654097686,PRODUCED
Publisher_001,topicA,topicA-123,172.172.1.1:1883,1551654097785,PRODUCED
Publisher_001,topicA,topicA-124,172.172.1.1:1883,1551654097885,PRODUCED
Publisher_001,topicA,topicA-125,172.172.1.1:1883,1551654097986,PRODUCED
Publisher_001,topicA,topicA-126,172.172.1.1:1883,1551654098086,PRODUCED
Publisher_001,topicA,topicA-127,172.172.1.1:1883,1551654098186,PRODUCED
Publisher_001,topicA,topicA-128,172.172.1.1:1883,1551654098286,PRODUCED
Publisher_001,topicA,topicA-129,172.172.1.1:1883,1551654098385,PRODUCED
Publisher_001,topicA,topicA-130,172.172.1.1:1883,1551654098486,PRODUCED
Publisher_001,topicA,topicA-131,172.172.1.1:1883,1551654098587,PRODUCED
Publisher_001,topicA,topicA-132,172.172.1.1:1883,1551654098686,PRODUCED
Publisher_001,topicA,topicA-133,172.172.1.1:1883,1551654098786,PRODUCED
Publisher_001,topicA,topicA-134,172.172.1.1:1883,1551654098886,PRODUCED
Publisher_001,topicA,topicA-135,172.172.1.1:1883,1551654098987,PRODUCED
Publisher_001,topicA,topicA-136,172.172.1.1:1883,1551654099085,PRODUCED
Publisher_001,topicA,topicA-137,172.172.1.1:1883,1551654099186,PRODUCED
Publisher_001,topicA,topicA-138,172.172.1.1:1883,1551654099286,PRODUCED
Publisher_001,topicA,topicA-139,172.172.1.1:1883,1551654099385,PRODUCED
Publisher_001,topicA,topicA-140,172.172.1.1:1883,1551654099485,PRODUCED
Publisher_001,topicA,topicA-141,172.172.1.1:1883,1551654099585,PRODUCED
Publisher_001,topicA,topicA-142,172.172.1.1:1883,1551654099686,PRODUCED
Publisher_001,topicA,topicA-143,172.172.1.1:1883,1551654099786,PRODUCED
Publisher_001,topicA,topicA-144,172.172.1.1:1883,1551654099886,PRODUCED
Publisher_001,topicA,topicA-145,172.172.1.1:1883,1551654099986,PRODUCED
Publisher_001,topicA,topicA-146,172.172.1.1:1883,1551654100086,PRODUCED
Publisher_001,topicA,topicA-147,172.172.1.1:1883,1551654100185,PRODUCED
Publisher_001,topicA,topicA-148,172.172.1.1:1883,1551654100288,PRODUCED
Publisher_001,topicA,topicA-149,172.172.1.1:1883,1551654100385,PRODUCED
Publisher_001,topicA,topicA-150,172.172.1.1:1883,1551654100486,PRODUCED
Publisher_001,topicA,topicA-151,172.172.1.1:1883,1551654100585,PRODUCED
Publisher_001,topicA,topicA-152,172.172.1.1:1883,1551654100686,PRODUCED
Publisher_001,topicA,topicA-153,172.172.1.1:1883,1551654100786,PRODUCED
Publisher_001,topicA,topicA-154,172.172.1.1:1883,1551654100886,PRODUCED
Publisher_001,topicA,topicA-155,172.172.1.1:1883,1551654100985,PRODUCED
Publisher_001,topicA,topicA-156,172.172.1.1:1883,1551654101085,PRODUCED
Publisher_001,topicA,topicA-157,172.172.1.1:1883,1551654101185,PRODUCED
Publisher_001,topicA,topicA-158,172.172.1.1:1883,1551654101285,PRODUCED
Publisher_001,topicA,topicA-159,172.172.1.1:1883,1551654101389,PRODUCED
Publisher_001,topicA,topicA-160,172.172.1.1:1883,1551654101485,PRODUCED
Publisher_001,topicA,topicA-161,172.172.1.1:1883,1551654101587,PRODUCED
Publisher_001,topicA,topicA-162,172.172.1.1:1883,1551654101685,PRODUCED
Publisher_001,topicA,topicA-163,172.172.1.1:1883,1551654101786,PRODUCED
Publisher_001,topicA,topicA-164,172.172.1.1:1883,1551654101886,PRODUCED
Publisher_001,topicA,topicA-165,172.172.1.1:1883,1551654101985,PRODUCED
Publisher_001,topicA,topicA-166,172.172.1.1:1883,1551654102085,PRODUCED
Publisher_001,topicA,topicA-167,172.172.1.1:1883,1551654102185,PRODUCED
Publisher_001,topicA,topicA-168,172.172.1.1:1883,1551654102285,PRODUCED
Publisher_001,topicA,topicA-169,172.172.1.1:1883,1551654102385,PRODUCED
Publisher_001,topicA,topicA-170,172.172.1.1:1883,1551654102485,PRODUCED
Publisher_001,topicA,topicA-171,172.172.1.1:1883,1551654102585,PRODUCED
Publisher_001,topicA,topicA-172,172.172.1.1:1883,1551654102685,PRODUCED
Publisher_001,topicA,topicA-173,172.172.1.1:1883,1551654102785,PRODUCED
Publisher_001,topicA,topicA-174,172.172.1.1:1883,1551654102885,PRODUCED
Publisher_001,topicA,topicA-175,172.172.1.1:1883,1551654102985,PRODUCED
Publisher_001,topicA,topicA-176,172.172.1.1:1883,1551654103085,PRODUCED
Publisher_001,topicA,topicA-177,172.172.1.1:1883,1551654103185,PRODUCED
Publisher_001,topicA,topicA-178,172.172.1.1:1883,1551654103285,PRODUCED
Publisher_001,topicA,topicA-179,172.172.1.1:1883,1551654103385,PRODUCED
Publisher_001,topicA,topicA-180,172.172.1.1:1883,1551654103485,PRODUCED
Publisher_001,topicA,topicA-181,172.172.1.1:1883,1551654103585,PRODUCED
Publisher_001,topicA,topicA-182,172.172.1.1:1883,1551654103688,PRODUCED
Publisher_001,topicA,topicA-183,172.172.1.1:1883,1551654103785,PRODUCED
Publisher_001,topicA,topicA-184,172.172.1.1:1883,1551654103885,PRODUCED
Publisher_001,topicA,topicA-185,172.172.1.1:1883,1551654103985,PRODUCED
Publisher_001,topicA,topicA-186,172.172.1.1:1883,1551654104085,PRODUCED
Publisher_001,topicA,topicA-187,172.172.1.1:1883,1551654104185,PRODUCED
Publisher_001,topicA,topicA-188,172.172.1.1:1883,1551654104285,PRODUCED
Publisher_001,topicA,topicA-189,172.172.1.1:1883,1551654104386,PRODUCED
Publisher_001,topicA,topicA-190,172.172.1.1:1883,1551654104486,PRODUCED
Publisher_001,topicA,topicA-191,172.172.1.1:1883,1551654104585,PRODUCED
Publisher_001,topicA,topicA-192,172.172.1.1:1883,1551654104686,PRODUCED
Publisher_001,topicA,topicA-193,172.172.1.1:1883,1551654104785,PRODUCED
Publisher_001,topicA,topicA-194,172.172.1.1:1883,1551654104887,PRODUCED
Publisher_001,topicA,topicA-195,172.172.1.1:1883,1551654104985,PRODUCED
Publisher_001,topicA,topicA-196,172.172.1.1:1883,1551654105086,PRODUCED
Publisher_001,topicA,topicA-197,172.172.1.1:1883,1551654105186,PRODUCED
Publisher_001,topicA,topicA-198,172.172.1.1:1883,1551654105285,PRODUCED
Publisher_001,topicA,topicA-199,172.172.1.1:1883,1551654105385,PRODUCED
Publisher_001,topicA,topicA-200,172.172.1.1:1883,1551654105485,PRODUCED
Publisher_001,topicA,topicA-201,172.172.1.1:1883,1551654105585,PRODUCED
Publisher_001,topicA,topicA-202,172.172.1.1:1883,1551654105686,PRODUCED
Publisher_001,topicA,topicA-203,172.172.1.1:1883,1551654105786,PRODUCED
Publisher_001,topicA,topicA-204,172.172.1.1:1883,1551654105889,PRODUCED
Publisher_001,topicA,topicA-205,172.172.1.1:1883,1551654105987,PRODUCED
Publisher_001,topicA,topicA-206,172.172.1.1:1883,1551654106090,PRODUCED
Publisher_001,topicA,topicA-207,172.172.1.1:1883,1551654106185,PRODUCED
Publisher_001,topicA,topicA-208,172.172.1.1:1883,1551654106285,PRODUCED
Publisher_001,topicA,topicA-209,172.172.1.1:1883,1551654106386,PRODUCED
Publisher_001,topicA,topicA-210,172.172.1.1:1883,1551654106485,PRODUCED
Publisher_001,topicA,topicA-211,172.172.1.1:1883,1551654106585,PRODUCED
Publisher_001,topicA,topicA-212,172.172.1.1:1883,1551654106685,PRODUCED
Publisher_001,topicA,topicA-213,172.172.1.1:1883,1551654106786,PRODUCED
Publisher_001,topicA,topicA-214,172.172.1.1:1883,1551654106886,PRODUCED
Publisher_001,topicA,topicA-215,172.172.1.1:1883,1551654106985,PRODUCED
Publisher_001,topicA,topicA-216,172.172.1.1:1883,1551654107086,PRODUCED
Publisher_001,topicA,topicA-217,172.172.1.1:1883,1551654107185,PRODUCED
Publisher_001,topicA,topicA-218,172.172.1.1:1883,1551654107285,PRODUCED
Publisher_001,topicA,topicA-219,172.172.1.1:1883,1551654107403,PRODUCED
Publisher_001,topicA,topicA-220,172.172.1.1:1883,1551654107485,PRODUCED
Publisher_001,topicA,topicA-221,172.172.1.1:1883,1551654107589,PRODUCED
Publisher_001,topicA,topicA-222,172.172.1.1:1883,1551654107685,PRODUCED
Publisher_001,topicA,topicA-223,172.172.1.1:1883,1551654107785,PRODUCED
Publisher_001,topicA,topicA-224,172.172.1.1:1883,1551654107885,PRODUCED
Publisher_001,topicA,topicA-225,172.172.1.1:1883,1551654107986,PRODUCED
Publisher_001,topicA,topicA-226,172.172.1.1:1883,1551654108085,PRODUCED
Publisher_001,topicA,topicA-227,172.172.1.1:1883,1551654108185,PRODUCED
Publisher_001,topicA,topicA-228,172.172.1.1:1883,1551654108285,PRODUCED
Publisher_001,topicA,topicA-229,172.172.1.1:1883,1551654108386,PRODUCED
Publisher_001,topicA,topicA-230,172.172.1.1:1883,1551654108485,PRODUCED
Publisher_001,topicA,topicA-231,172.172.1.1:1883,1551654108585,PRODUCED
Publisher_001,topicA,topicA-232,172.172.1.1:1883,1551654108686,PRODUCED
Publisher_001,topicA,topicA-233,172.172.1.1:1883,1551654108785,PRODUCED
Publisher_001,topicA,topicA-234,172.172.1.1:1883,1551654108885,PRODUCED
Publisher_001,topicA,topicA-235,172.172.1.1:1883,1551654108987,PRODUCED
Publisher_001,topicA,topicA-236,172.172.1.1:1883,1551654109085,PRODUCED
Publisher_001,topicA,topicA-237,172.172.1.1:1883,1551654109185,PRODUCED
Publisher_001,topicA,topicA-238,172.172.1.1:1883,1551654109285,PRODUCED
Publisher_001,topicA,topicA-239,172.172.1.1:1883,1551654109387,PRODUCED
Publisher_001,topicA,topicA-240,172.172.1.1:1883,1551654109486,PRODUCED
Publisher_001,topicA,topicA-241,172.172.1.1:1883,1551654109585,PRODUCED
Publisher_001,topicA,topicA-242,172.172.1.1:1883,1551654109686,PRODUCED
Publisher_001,topicA,topicA-243,172.172.1.1:1883,1551654109786,PRODUCED
Publisher_001,topicA,topicA-244,172.172.1.1:1883,1551654109886,PRODUCED
Publisher_001,topicA,topicA-245,172.172.1.1:1883,1551654109985,PRODUCED
Publisher_001,topicA,topicA-246,172.172.1.1:1883,1551654110088,PRODUCED
Publisher_001,topicA,topicA-247,172.172.1.1:1883,1551654110185,PRODUCED
Publisher_001,topicA,topicA-248,172.172.1.1:1883,1551654110285,PRODUCED
Publisher_001,topicA,topicA-249,172.172.1.1:1883,1551654110386,PRODUCED
Publisher_001,topicA,topicA-250,172.172.1.1:1883,1551654110485,PRODUCED
Publisher_001,topicA,topicA-251,172.172.1.1:1883,1551654110585,PRODUCED
Publisher_001,topicA,topicA-252,172.172.1.1:1883,1551654110685,PRODUCED
Publisher_001,topicA,topicA-253,172.172.1.1:1883,1551654110785,PRODUCED
Publisher_001,topicA,topicA-254,172.172.1.1:1883,1551654110885,PRODUCED
Publisher_001,topicA,topicA-255,172.172.1.1:1883,1551654110987,PRODUCED
Publisher_001,topicA,topicA-256,172.172.1.1:1883,1551654111086,PRODUCED
Publisher_001,topicA,topicA-257,172.172.1.1:1883,1551654111185,PRODUCED
Publisher_001,topicA,topicA-258,172.172.1.1:1883,1551654111285,PRODUCED
Publisher_001,topicA,topicA-259,172.172.1.1:1883,1551654111385,PRODUCED
Publisher_001,topicA,topicA-260,172.172.1.1:1883,1551654111485,PRODUCED
Publisher_001,topicA,topicA-261,172.172.1.1:1883,1551654111585,PRODUCED
Publisher_001,topicA,topicA-262,172.172.1.1:1883,1551654111685,PRODUCED
Publisher_001,topicA,topicA-263,172.172.1.1:1883,1551654111785,PRODUCED
Publisher_001,topicA,topicA-264,172.172.1.1:1883,1551654111885,PRODUCED
Publisher_001,topicA,topicA-265,172.172.1.1:1883,1551654111985,PRODUCED
Publisher_001,topicA,topicA-266,172.172.1.1:1883,1551654112085,PRODUCED
Publisher_001,topicA,topicA-267,172.172.1.1:1883,1551654112185,PRODUCED
Publisher_001,topicA,topicA-268,172.172.1.1:1883,1551654112285,PRODUCED
Publisher_001,topicA,topicA-269,172.172.1.1:1883,1551654112385,PRODUCED
Publisher_001,topicA,topicA-270,172.172.1.1:1883,1551654112486,PRODUCED
Publisher_001,topicA,topicA-271,172.172.1.1:1883,1551654112586,PRODUCED
Publisher_001,topicA,topicA-272,172.172.1.1:1883,1551654112686,PRODUCED
Publisher_001,topicA,topicA-273,172.172.1.1:1883,1551654112786,PRODUCED
Publisher_001,topicA,topicA-274,172.172.1.1:1883,1551654112885,PRODUCED
Publisher_001,topicA,topicA-275,172.172.1.1:1883,1551654112988,PRODUCED
Publisher_001,topicA,topicA-276,172.172.1.1:1883,1551654113085,PRODUCED
Publisher_001,topicA,topicA-277,172.172.1.1:1883,1551654113185,PRODUCED
Publisher_001,topicA,topicA-278,172.172.1.1:1883,1551654113285,PRODUCED
Publisher_001,topicA,topicA-279,172.172.1.1:1883,1551654113385,PRODUCED
Publisher_001,topicA,topicA-280,172.172.1.1:1883,1551654113485,PRODUCED
Publisher_001,topicA,topicA-281,172.172.1.1:1883,1551654113585,PRODUCED
Publisher_001,topicA,topicA-282,172.172.1.1:1883,1551654113685,PRODUCED
Publisher_001,topicA,topicA-283,172.172.1.1:1883,1551654113785,PRODUCED
Publisher_001,topicA,topicA-284,172.172.1.1:1883,1551654113885,PRODUCED
Publisher_001,topicA,topicA-285,172.172.1.1:1883,1551654113986,PRODUCED
Publisher_001,topicA,topicA-286,172.172.1.1:1883,1551654114085,PRODUCED
Publisher_001,topicA,topicA-287,172.172.1.1:1883,1551654114185,PRODUCED
Publisher_001,topicA,topicA-288,172.172.1.1:1883,1551654114286,PRODUCED
Publisher_001,topicA,topicA-289,172.172.1.1:1883,1551654114385,PRODUCED
Publisher_001,topicA,topicA-290,172.172.1.1:1883,1551654114485,PRODUCED
Publisher_001,topicA,topicA-291,172.172.1.1:1883,1551654114585,PRODUCED
Publisher_001,topicA,topicA-292,172.172.1.1:1883,1551654114685,PRODUCED
Publisher_001,topicA,topicA-293,172.172.1.1:1883,1551654114785,PRODUCED
Publisher_001,topicA,topicA-294,172.172.1.1:1883,1551654114885,PRODUCED
Publisher_001,topicA,topicA-295,172.172.1.1:1883,1551654114985,PRODUCED
Publisher_001,topicA,topicA-296,172.172.1.1:1883,1551654115085,PRODUCED
Publisher_001,topicA,topicA-297,172.172.1.1:1883,1551654115186,PRODUCED
Publisher_001,topicA,topicA-298,172.172.1.1:1883,1551654115285,PRODUCED
Publisher_001,topicA,topicA-299,172.172.1.1:1883,1551654115385,PRODUCED
Publisher_001,topicA,topicA-300,172.172.1.1:1883,1551654115486,PRODUCED
Publisher_001,topicA,topicA-301,172.172.1.1:1883,1551654115585,PRODUCED
Publisher_001,topicA,topicA-302,172.172.1.1:1883,1551654115685,PRODUCED
Publisher_001,topicA,topicA-303,172.172.1.1:1883,1551654115786,PRODUCED
Publisher_001,topicA,topicA-304,172.172.1.1:1883,1551654115885,PRODUCED
Publisher_001,topicA,topicA-305,172.172.1.1:1883,1551654115985,PRODUCED
Publisher_001,topicA,topicA-306,172.172.1.1:1883,1551654116085,PRODUCED
Publisher_001,topicA,topicA-307,172.172.1.1:1883,1551654116185,PRODUCED
Publisher_001,topicA,topicA-308,172.172.1.1:1883,1551654116286,PRODUCED
Publisher_001,topicA,topicA-309,172.172.1.1:1883,1551654116385,PRODUCED
Publisher_001,topicA,topicA-310,172.172.1.1:1883,1551654116485,PRODUCED
Publisher_001,topicA,topicA-311,172.172.1.1:1883,1551654116585,PRODUCED
Publisher_001,topicA,topicA-312,172.172.1.1:1883,1551654116685,PRODUCED
Publisher_001,topicA,topicA-313,172.172.1.1:1883,1551654116785,PRODUCED
Publisher_001,topicA,topicA-314,172.172.1.1:1883,1551654116887,PRODUCED
Publisher_001,topicA,topicA-315,172.172.1.1:1883,1551654116985,PRODUCED
Publisher_001,topicA,topicA-316,172.172.1.1:1883,1551654117085,PRODUCED
Publisher_001,topicA,topicA-317,172.172.1.1:1883,1551654117185,PRODUCED
Publisher_001,topicA,topicA-318,172.172.1.1:1883,1551654117285,PRODUCED
Publisher_001,topicA,topicA-319,172.172.1.1:1883,1551654117386,PRODUCED
Publisher_001,topicA,topicA-320,172.172.1.1:1883,1551654117486,PRODUCED
Publisher_001,topicA,topicA-321,172.172.1.1:1883,1551654117585,PRODUCED
Publisher_001,topicA,topicA-322,172.172.1.1:1883,1551654117685,PRODUCED
Publisher_001,topicA,topicA-323,172.172.1.1:1883,1551654117785,PRODUCED
Publisher_001,topicA,topicA-324,172.172.1.1:1883,1551654117885,PRODUCED
Publisher_001,topicA,topicA-325,172.172.1.1:1883,1551654117985,PRODUCED
Publisher_001,topicA,topicA-326,172.172.1.1:1883,1551654118086,PRODUCED
Publisher_001,topicA,topicA-327,172.172.1.1:1883,1551654118186,PRODUCED
Publisher_001,topicA,topicA-328,172.172.1.1:1883,1551654118292,PRODUCED
Publisher_001,topicA,topicA-329,172.172.1.1:1883,1551654118385,PRODUCED
Publisher_001,topicA,topicA-330,172.172.1.1:1883,1551654118486,PRODUCED
Publisher_001,topicA,topicA-331,172.172.1.1:1883,1551654118585,PRODUCED
Publisher_001,topicA,topicA-332,172.172.1.1:1883,1551654118685,PRODUCED
Publisher_001,topicA,topicA-333,172.172.1.1:1883,1551654118785,PRODUCED
Publisher_001,topicA,topicA-334,172.172.1.1:1883,1551654118886,PRODUCED
Publisher_001,topicA,topicA-335,172.172.1.1:1883,1551654118985,PRODUCED
Publisher_001,topicA,topicA-336,172.172.1.1:1883,1551654119085,PRODUCED
Publisher_001,topicA,topicA-337,172.172.1.1:1883,1551654119185,PRODUCED
Publisher_001,topicA,topicA-338,172.172.1.1:1883,1551654119285,PRODUCED
Publisher_001,topicA,topicA-339,172.172.1.1:1883,1551654119387,PRODUCED
Publisher_001,topicA,topicA-340,172.172.1.1:1883,1551654119490,PRODUCED
Publisher_001,topicA,topicA-341,172.172.1.1:1883,1551654119585,PRODUCED
Publisher_001,topicA,topicA-342,172.172.1.1:1883,1551654119686,PRODUCED
Publisher_001,topicA,topicA-343,172.172.1.1:1883,1551654119786,PRODUCED
Publisher_001,topicA,topicA-344,172.172.1.1:1883,1551654119886,PRODUCED
Publisher_001,topicA,topicA-345,172.172.1.1:1883,1551654119985,PRODUCED
Publisher_001,topicA,topicA-346,172.172.1.1:1883,1551654120085,PRODUCED
Publisher_001,topicA,topicA-347,172.172.1.1:1883,1551654120185,PRODUCED
Publisher_001,topicA,topicA-348,172.172.1.1:1883,1551654120294,PRODUCED
Publisher_001,topicA,topicA-349,172.172.1.1:1883,1551654120385,PRODUCED
Publisher_001,topicA,topicA-350,172.172.1.1:1883,1551654120485,PRODUCED
Publisher_001,topicA,topicA-351,172.172.1.1:1883,1551654120585,PRODUCED
Publisher_001,topicA,topicA-352,172.172.1.1:1883,1551654120685,PRODUCED
Publisher_001,topicA,topicA-353,172.172.1.1:1883,1551654120787,PRODUCED
Publisher_001,topicA,topicA-354,172.172.1.1:1883,1551654120888,PRODUCED
Publisher_001,topicA,topicA-355,172.172.1.1:1883,1551654120986,PRODUCED
Publisher_001,topicA,topicA-356,172.172.1.1:1883,1551654121085,PRODUCED
Publisher_001,topicA,topicA-357,172.172.1.1:1883,1551654121186,PRODUCED
Publisher_001,topicA,topicA-358,172.172.1.1:1883,1551654121286,PRODUCED
Publisher_001,topicA,topicA-359,172.172.1.1:1883,1551654121387,PRODUCED
Publisher_001,topicA,topicA-360,172.172.1.1:1883,1551654121492,PRODUCED
Publisher_001,topicA,topicA-361,172.172.1.1:1883,1551654121585,PRODUCED
Publisher_001,topicA,topicA-362,172.172.1.1:1883,1551654121685,PRODUCED
Publisher_001,topicA,topicA-363,172.172.1.1:1883,1551654121785,PRODUCED
Publisher_001,topicA,topicA-364,172.172.1.1:1883,1551654121888,PRODUCED
Publisher_001,topicA,topicA-365,172.172.1.1:1883,1551654121985,PRODUCED
Publisher_001,topicA,topicA-366,172.172.1.1:1883,1551654122085,PRODUCED
Publisher_001,topicA,topicA-367,172.172.1.1:1883,1551654122185,PRODUCED
Publisher_001,topicA,topicA-368,172.172.1.1:1883,1551654122285,PRODUCED
Publisher_001,topicA,topicA-369,172.172.1.1:1883,1551654122385,PRODUCED
Publisher_001,topicA,topicA-370,172.172.1.1:1883,1551654122492,PRODUCED
Publisher_001,topicA,topicA-371,172.172.1.1:1883,1551654122585,PRODUCED
Publisher_001,topicA,topicA-372,172.172.1.1:1883,1551654122685,PRODUCED
Publisher_001,topicA,topicA-373,172.172.1.1:1883,1551654122785,PRODUCED
Publisher_001,topicA,topicA-374,172.172.1.1:1883,1551654122885,PRODUCED
Publisher_001,topicA,topicA-375,172.172.1.1:1883,1551654122985,PRODUCED
Publisher_001,topicA,topicA-376,172.172.1.1:1883,1551654123086,PRODUCED
Publisher_001,topicA,topicA-377,172.172.1.1:1883,1551654123186,PRODUCED
Publisher_001,topicA,topicA-378,172.172.1.1:1883,1551654123285,PRODUCED
Publisher_001,topicA,topicA-379,172.172.1.1:1883,1551654123391,PRODUCED
Publisher_001,topicA,topicA-380,172.172.1.1:1883,1551654123485,PRODUCED
Publisher_001,topicA,topicA-381,172.172.1.1:1883,1551654123586,PRODUCED
Publisher_001,topicA,topicA-382,172.172.1.1:1883,1551654123688,PRODUCED
Publisher_001,topicA,topicA-383,172.172.1.1:1883,1551654123785,PRODUCED
Publisher_001,topicA,topicA-384,172.172.1.1:1883,1551654123890,PRODUCED
Publisher_001,topicA,topicA-385,172.172.1.1:1883,1551654123986,PRODUCED
Publisher_001,topicA,topicA-386,172.172.1.1:1883,1551654124088,PRODUCED
Publisher_001,topicA,topicA-387,172.172.1.1:1883,1551654124186,PRODUCED
Publisher_001,topicA,topicA-388,172.172.1.1:1883,1551654124292,PRODUCED
Publisher_001,topicA,topicA-389,172.172.1.1:1883,1551654124385,PRODUCED
Publisher_001,topicA,topicA-390,172.172.1.1:1883,1551654124485,PRODUCED
Publisher_001,topicA,topicA-391,172.172.1.1:1883,1551654124585,PRODUCED
Publisher_001,topicA,topicA-392,172.172.1.1:1883,1551654124685,PRODUCED
Publisher_001,topicA,topicA-393,172.172.1.1:1883,1551654124786,PRODUCED
Publisher_001,topicA,topicA-394,172.172.1.1:1883,1551654124886,PRODUCED
Publisher_001,topicA,topicA-395,172.172.1.1:1883,1551654124988,PRODUCED
Publisher_001,topicA,topicA-396,172.172.1.1:1883,1551654125085,PRODUCED
Publisher_001,topicA,topicA-397,172.172.1.1:1883,1551654125185,PRODUCED
Publisher_001,topicA,topicA-398,172.172.1.1:1883,1551654125285,PRODUCED
Publisher_001,topicA,topicA-399,172.172.1.1:1883,1551654125385,PRODUCED
Publisher_001,topicA,topicA-400,172.172.1.1:1883,1551654125486,PRODUCED
Publisher_001,topicA,topicA-401,172.172.1.1:1883,1551654125587,PRODUCED
Publisher_001,topicA,topicA-402,172.172.1.1:1883,1551654125687,PRODUCED
Publisher_001,topicA,topicA-403,172.172.1.1:1883,1551654125785,PRODUCED
Publisher_001,topicA,topicA-404,172.172.1.1:1883,1551654125889,PRODUCED
Publisher_001,topicA,topicA-405,172.172.1.1:1883,1551654125986,PRODUCED
Publisher_001,topicA,topicA-406,172.172.1.1:1883,1551654126086,PRODUCED
Publisher_001,topicA,topicA-407,172.172.1.1:1883,1551654126185,PRODUCED
Publisher_001,topicA,topicA-408,172.172.1.1:1883,1551654126285,PRODUCED
Publisher_001,topicA,topicA-409,172.172.1.1:1883,1551654126385,PRODUCED
Publisher_001,topicA,topicA-410,172.172.1.1:1883,1551654126486,PRODUCED
Publisher_001,topicA,topicA-411,172.172.1.1:1883,1551654126585,PRODUCED
Publisher_001,topicA,topicA-412,172.172.1.1:1883,1551654126685,PRODUCED
Publisher_001,topicA,topicA-413,172.172.1.1:1883,1551654126785,PRODUCED
Publisher_001,topicA,topicA-414,172.172.1.1:1883,1551654126887,PRODUCED
Publisher_001,topicA,topicA-415,172.172.1.1:1883,1551654126985,PRODUCED
Publisher_001,topicA,topicA-416,172.172.1.1:1883,1551654127085,PRODUCED
Publisher_001,topicA,topicA-417,172.172.1.1:1883,1551654127185,PRODUCED
Publisher_001,topicA,topicA-418,172.172.1.1:1883,1551654127293,PRODUCED
Publisher_001,topicA,topicA-419,172.172.1.1:1883,1551654127387,PRODUCED
Publisher_001,topicA,topicA-420,172.172.1.1:1883,1551654127485,PRODUCED
Publisher_001,topicA,topicA-421,172.172.1.1:1883,1551654127585,PRODUCED
Publisher_001,topicA,topicA-422,172.172.1.1:1883,1551654127686,PRODUCED
Publisher_001,topicA,topicA-423,172.172.1.1:1883,1551654127786,PRODUCED
Publisher_001,topicA,topicA-424,172.172.1.1:1883,1551654127885,PRODUCED
Publisher_001,topicA,topicA-425,172.172.1.1:1883,1551654127987,PRODUCED
Publisher_001,topicA,topicA-426,172.172.1.1:1883,1551654128085,PRODUCED
Publisher_001,topicA,topicA-427,172.172.1.1:1883,1551654128186,PRODUCED
Publisher_001,topicA,topicA-428,172.172.1.1:1883,1551654128286,PRODUCED
Publisher_001,topicA,topicA-429,172.172.1.1:1883,1551654128385,PRODUCED
Publisher_001,topicA,topicA-430,172.172.1.1:1883,1551654128486,PRODUCED
Publisher_001,topicA,topicA-431,172.172.1.1:1883,1551654128586,PRODUCED
Publisher_001,topicA,topicA-432,172.172.1.1:1883,1551654128686,PRODUCED
Publisher_001,topicA,topicA-433,172.172.1.1:1883,1551654128786,PRODUCED
Publisher_001,topicA,topicA-434,172.172.1.1:1883,1551654128886,PRODUCED
Publisher_001,topicA,topicA-435,172.172.1.1:1883,1551654128985,PRODUCED
Publisher_001,topicA,topicA-436,172.172.1.1:1883,1551654129085,PRODUCED
Publisher_001,topicA,topicA-437,172.172.1.1:1883,1551654129185,PRODUCED
Publisher_001,topicA,topicA-438,172.172.1.1:1883,1551654129287,PRODUCED
Publisher_001,topicA,topicA-439,172.172.1.1:1883,1551654129385,PRODUCED
Publisher_001,topicA,topicA-440,172.172.1.1:1883,1551654129486,PRODUCED
Publisher_001,topicA,topicA-441,172.172.1.1:1883,1551654129585,PRODUCED
Publisher_001,topicA,topicA-442,172.172.1.1:1883,1551654129685,PRODUCED
Publisher_001,topicA,topicA-443,172.172.1.1:1883,1551654129786,PRODUCED
Publisher_001,topicA,topicA-444,172.172.1.1:1883,1551654129885,PRODUCED
Publisher_001,topicA,topicA-445,172.172.1.1:1883,1551654129989,PRODUCED
Publisher_001,topicA,topicA-446,172.172.1.1:1883,1551654130085,PRODUCED
Publisher_001,topicA,topicA-447,172.172.1.1:1883,1551654130185,PRODUCED
Publisher_001,topicA,topicA-448,172.172.1.1:1883,1551654130287,PRODUCED
Publisher_001,topicA,topicA-449,172.172.1.1:1883,1551654130386,PRODUCED
Publisher_001,topicA,topicA-450,172.172.1.1:1883,1551654130485,PRODUCED
Publisher_001,topicA,topicA-451,172.172.1.1:1883,1551654130585,PRODUCED
Publisher_001,topicA,topicA-452,172.172.1.1:1883,1551654130686,PRODUCED
Publisher_001,topicA,topicA-453,172.172.1.1:1883,1551654130785,PRODUCED
Publisher_001,topicA,topicA-454,172.172.1.1:1883,1551654130885,PRODUCED
Publisher_001,topicA,topicA-455,172.172.1.1:1883,1551654130986,PRODUCED
Publisher_001,topicA,topicA-456,172.172.1.1:1883,1551654131086,PRODUCED
Publisher_001,topicA,topicA-457,172.172.1.1:1883,1551654131185,PRODUCED
Publisher_001,topicA,topicA-458,172.172.1.1:1883,1551654131285,PRODUCED
Publisher_001,topicA,topicA-459,172.172.1.1:1883,1551654131386,PRODUCED
Publisher_001,topicA,topicA-460,172.172.1.1:1883,1551654131485,PRODUCED
Publisher_001,topicA,topicA-461,172.172.1.1:1883,1551654131585,PRODUCED
Publisher_001,topicA,topicA-462,172.172.1.1:1883,1551654131685,PRODUCED
Publisher_001,topicA,topicA-463,172.172.1.1:1883,1551654131786,PRODUCED
Publisher_001,topicA,topicA-464,172.172.1.1:1883,1551654131887,PRODUCED
Publisher_001,topicA,topicA-465,172.172.1.1:1883,1551654131985,PRODUCED
Publisher_001,topicA,topicA-466,172.172.1.1:1883,1551654132085,PRODUCED
Publisher_001,topicA,topicA-467,172.172.1.1:1883,1551654132185,PRODUCED
Publisher_001,topicA,topicA-468,172.172.1.1:1883,1551654132286,PRODUCED
Publisher_001,topicA,topicA-469,172.172.1.1:1883,1551654132389,PRODUCED
Publisher_001,topicA,topicA-470,172.172.1.1:1883,1551654132485,PRODUCED
Publisher_001,topicA,topicA-471,172.172.1.1:1883,1551654132585,PRODUCED
Publisher_001,topicA,topicA-472,172.172.1.1:1883,1551654132685,PRODUCED
Publisher_001,topicA,topicA-473,172.172.1.1:1883,1551654132785,PRODUCED
Publisher_001,topicA,topicA-474,172.172.1.1:1883,1551654132885,PRODUCED
Publisher_001,topicA,topicA-475,172.172.1.1:1883,1551654132985,PRODUCED
Publisher_001,topicA,topicA-476,172.172.1.1:1883,1551654133086,PRODUCED
Publisher_001,topicA,topicA-477,172.172.1.1:1883,1551654133186,PRODUCED
Publisher_001,topicA,topicA-478,172.172.1.1:1883,1551654133285,PRODUCED
Publisher_001,topicA,topicA-479,172.172.1.1:1883,1551654133385,PRODUCED
Publisher_001,topicA,topicA-480,172.172.1.1:1883,1551654133485,PRODUCED
Publisher_001,topicA,topicA-481,172.172.1.1:1883,1551654133585,PRODUCED
Publisher_001,topicA,topicA-482,172.172.1.1:1883,1551654133685,PRODUCED
Publisher_001,topicA,topicA-483,172.172.1.1:1883,1551654133785,PRODUCED
Publisher_001,topicA,topicA-484,172.172.1.1:1883,1551654133885,PRODUCED
Publisher_001,topicA,topicA-485,172.172.1.1:1883,1551654133985,PRODUCED
Publisher_001,topicA,topicA-486,172.172.1.1:1883,1551654134085,PRODUCED
Publisher_001,topicA,topicA-487,172.172.1.1:1883,1551654134186,PRODUCED
Publisher_001,topicA,topicA-488,172.172.1.1:1883,1551654134285,PRODUCED
Publisher_001,topicA,topicA-489,172.172.1.1:1883,1551654134385,PRODUCED
Publisher_001,topicA,topicA-490,172.172.1.1:1883,1551654134485,PRODUCED
Publisher_001,topicA,topicA-491,172.172.1.1:1883,1551654134585,PRODUCED
Publisher_001,topicA,topicA-492,172.172.1.1:1883,1551654134686,PRODUCED
Publisher_001,topicA,topicA-493,172.172.1.1:1883,1551654134785,PRODUCED
Publisher_001,topicA,topicA-494,172.172.1.1:1883,1551654134885,PRODUCED
Publisher_001,topicA,topicA-495,172.172.1.1:1883,1551654134985,PRODUCED
Publisher_001,topicA,topicA-496,172.172.1.1:1883,1551654135086,PRODUCED
Publisher_001,topicA,topicA-497,172.172.1.1:1883,1551654135185,PRODUCED
Publisher_001,topicA,topicA-498,172.172.1.1:1883,1551654135286,PRODUCED
Publisher_001,topicA,topicA-499,172.172.1.1:1883,1551654135385,PRODUCED
Publisher_001,topicA,topicA-500,172.172.1.1:1883,1551654135486,PRODUCED
Publisher_001,topicA,topicA-501,172.172.1.1:1883,1551654135586,PRODUCED
Publisher_001,topicA,topicA-502,172.172.1.1:1883,1551654135685,PRODUCED
Publisher_001,topicA,topicA-503,172.172.1.1:1883,1551654135786,PRODUCED
Publisher_001,topicA,topicA-504,172.172.1.1:1883,1551654135885,PRODUCED
Publisher_001,topicA,topicA-505,172.172.1.1:1883,1551654135988,PRODUCED
Publisher_001,topicA,topicA-506,172.172.1.1:1883,1551654136089,PRODUCED
Publisher_001,topicA,topicA-507,172.172.1.1:1883,1551654136185,PRODUCED
Publisher_001,topicA,topicA-508,172.172.1.1:1883,1551654136292,PRODUCED
Publisher_001,topicA,topicA-509,172.172.1.1:1883,1551654136385,PRODUCED
Publisher_001,topicA,topicA-510,172.172.1.1:1883,1551654136489,PRODUCED
Publisher_001,topicA,topicA-511,172.172.1.1:1883,1551654136586,PRODUCED
Publisher_001,topicA,topicA-512,172.172.1.1:1883,1551654136685,PRODUCED
Publisher_001,topicA,topicA-513,172.172.1.1:1883,1551654136785,PRODUCED
Publisher_001,topicA,topicA-514,172.172.1.1:1883,1551654136886,PRODUCED
Publisher_001,topicA,topicA-515,172.172.1.1:1883,1551654136988,PRODUCED
Publisher_001,topicA,topicA-516,172.172.1.1:1883,1551654137087,PRODUCED
Publisher_001,topicA,topicA-517,172.172.1.1:1883,1551654137185,PRODUCED
Publisher_001,topicA,topicA-518,172.172.1.1:1883,1551654137288,PRODUCED
Publisher_001,topicA,topicA-519,172.172.1.1:1883,1551654137385,PRODUCED
Publisher_001,topicA,topicA-520,172.172.1.1:1883,1551654137491,PRODUCED
Publisher_001,topicA,topicA-521,172.172.1.1:1883,1551654137587,PRODUCED
Publisher_001,topicA,topicA-522,172.172.1.1:1883,1551654137685,PRODUCED
Publisher_001,topicA,topicA-523,172.172.1.1:1883,1551654137785,PRODUCED
Publisher_001,topicA,topicA-524,172.172.1.1:1883,1551654137885,PRODUCED
Publisher_001,topicA,topicA-525,172.172.1.1:1883,1551654137985,PRODUCED
Publisher_001,topicA,topicA-526,172.172.1.1:1883,1551654138089,PRODUCED
Publisher_001,topicA,topicA-527,172.172.1.1:1883,1551654138185,PRODUCED
Publisher_001,topicA,topicA-528,172.172.1.1:1883,1551654138285,PRODUCED
Publisher_001,topicA,topicA-529,172.172.1.1:1883,1551654138386,PRODUCED
Publisher_001,topicA,topicA-530,172.172.1.1:1883,1551654138485,PRODUCED
Publisher_001,topicA,topicA-531,172.172.1.1:1883,1551654138588,PRODUCED
Publisher_001,topicA,topicA-532,172.172.1.1:1883,1551654138685,PRODUCED
Publisher_001,topicA,topicA-533,172.172.1.1:1883,1551654138786,PRODUCED
Publisher_001,topicA,topicA-534,172.172.1.1:1883,1551654138886,PRODUCED
Publisher_001,topicA,topicA-535,172.172.1.1:1883,1551654138985,PRODUCED
Publisher_001,topicA,topicA-536,172.172.1.1:1883,1551654139085,PRODUCED
Publisher_001,topicA,topicA-537,172.172.1.1:1883,1551654139189,PRODUCED
Publisher_001,topicA,topicA-538,172.172.1.1:1883,1551654139285,PRODUCED
Publisher_001,topicA,topicA-539,172.172.1.1:1883,1551654139385,PRODUCED
Publisher_001,topicA,topicA-540,172.172.1.1:1883,1551654139485,PRODUCED
Publisher_001,topicA,topicA-541,172.172.1.1:1883,1551654139585,PRODUCED
Publisher_001,topicA,topicA-542,172.172.1.1:1883,1551654139688,PRODUCED
Publisher_001,topicA,topicA-543,172.172.1.1:1883,1551654139785,PRODUCED
Publisher_001,topicA,topicA-544,172.172.1.1:1883,1551654139885,PRODUCED
Publisher_001,topicA,topicA-545,172.172.1.1:1883,1551654139985,PRODUCED
Publisher_001,topicA,topicA-546,172.172.1.1:1883,1551654140085,PRODUCED
Publisher_001,topicA,topicA-547,172.172.1.1:1883,1551654140185,PRODUCED
Publisher_001,topicA,topicA-548,172.172.1.1:1883,1551654140285,PRODUCED
Publisher_001,topicA,topicA-549,172.172.1.1:1883,1551654140385,PRODUCED
Publisher_001,topicA,topicA-550,172.172.1.1:1883,1551654140486,PRODUCED
Publisher_001,topicA,topicA-551,172.172.1.1:1883,1551654140585,PRODUCED
Publisher_001,topicA,topicA-552,172.172.1.1:1883,1551654140686,PRODUCED
Publisher_001,topicA,topicA-553,172.172.1.1:1883,1551654140785,PRODUCED
Publisher_001,topicA,topicA-554,172.172.1.1:1883,1551654140885,PRODUCED
Publisher_001,topicA,topicA-555,172.172.1.1:1883,1551654140985,PRODUCED
Publisher_001,topicA,topicA-556,172.172.1.1:1883,1551654141086,PRODUCED
Publisher_001,topicA,topicA-557,172.172.1.1:1883,1551654141185,PRODUCED
Publisher_001,topicA,topicA-558,172.172.1.1:1883,1551654141285,PRODUCED
Publisher_001,topicA,topicA-559,172.172.1.1:1883,1551654141386,PRODUCED
Publisher_001,topicA,topicA-560,172.172.1.1:1883,1551654141488,PRODUCED
Publisher_001,topicA,topicA-561,172.172.1.1:1883,1551654141590,PRODUCED
Publisher_001,topicA,topicA-562,172.172.1.1:1883,1551654141685,PRODUCED
Publisher_001,topicA,topicA-563,172.172.1.1:1883,1551654141790,PRODUCED
Publisher_001,topicA,topicA-564,172.172.1.1:1883,1551654141885,PRODUCED
Publisher_001,topicA,topicA-565,172.172.1.1:1883,1551654141986,PRODUCED
Publisher_001,topicA,topicA-566,172.172.1.1:1883,1551654142085,PRODUCED
Publisher_001,topicA,topicA-567,172.172.1.1:1883,1551654142186,PRODUCED
Publisher_001,topicA,topicA-568,172.172.1.1:1883,1551654142285,PRODUCED
Publisher_001,topicA,topicA-569,172.172.1.1:1883,1551654142385,PRODUCED
Publisher_001,topicA,topicA-570,172.172.1.1:1883,1551654142485,PRODUCED
Publisher_001,topicA,topicA-571,172.172.1.1:1883,1551654142585,PRODUCED
Publisher_001,topicA,topicA-572,172.172.1.1:1883,1551654142685,PRODUCED
Publisher_001,topicA,topicA-573,172.172.1.1:1883,1551654142786,PRODUCED
Publisher_001,topicA,topicA-574,172.172.1.1:1883,1551654142885,PRODUCED
Publisher_001,topicA,topicA-575,172.172.1.1:1883,1551654142985,PRODUCED
Publisher_001,topicA,topicA-576,172.172.1.1:1883,1551654143085,PRODUCED
Publisher_001,topicA,topicA-577,172.172.1.1:1883,1551654143185,PRODUCED
Publisher_001,topicA,topicA-578,172.172.1.1:1883,1551654143286,PRODUCED
Publisher_001,topicA,topicA-579,172.172.1.1:1883,1551654143385,PRODUCED
Publisher_001,topicA,topicA-580,172.172.1.1:1883,1551654143485,PRODUCED
Publisher_001,topicA,topicA-581,172.172.1.1:1883,1551654143585,PRODUCED
Publisher_001,topicA,topicA-582,172.172.1.1:1883,1551654143686,PRODUCED
Publisher_001,topicA,topicA-583,172.172.1.1:1883,1551654143785,PRODUCED
Publisher_001,topicA,topicA-584,172.172.1.1:1883,1551654143885,PRODUCED
Publisher_001,topicA,topicA-585,172.172.1.1:1883,1551654143985,PRODUCED
Publisher_001,topicA,topicA-586,172.172.1.1:1883,1551654144086,PRODUCED
Publisher_001,topicA,topicA-587,172.172.1.1:1883,1551654144185,PRODUCED
Publisher_001,topicA,topicA-588,172.172.1.1:1883,1551654144285,PRODUCED
Publisher_001,topicA,topicA-589,172.172.1.1:1883,1551654144385,PRODUCED
Publisher_001,topicA,topicA-590,172.172.1.1:1883,1551654144485,PRODUCED
Publisher_001,topicA,topicA-591,172.172.1.1:1883,1551654144585,PRODUCED
Publisher_001,topicA,topicA-592,172.172.1.1:1883,1551654144685,PRODUCED
Publisher_001,topicA,topicA-593,172.172.1.1:1883,1551654144786,PRODUCED
Publisher_001,topicA,topicA-594,172.172.1.1:1883,1551654144886,PRODUCED
Publisher_001,topicA,topicA-595,172.172.1.1:1883,1551654144985,PRODUCED
Publisher_001,topicA,topicA-596,172.172.1.1:1883,1551654145086,PRODUCED
Publisher_001,topicA,topicA-597,172.172.1.1:1883,1551654145185,PRODUCED
Publisher_001,topicA,topicA-598,172.172.1.1:1883,1551654145285,PRODUCED
Publisher_001,topicA,topicA-599,172.172.1.1:1883,1551654145385,PRODUCED
Publisher_001,topicA,topicA-600,172.172.1.1:1883,1551654145485,PRODUCED
Publisher_001,topicA,topicA-601,172.172.1.1:1883,1551654145585,PRODUCED
Publisher_001,topicA,topicA-602,172.172.1.1:1883,1551654145685,PRODUCED
Publisher_001,topicA,topicA-603,172.172.1.1:1883,1551654145785,PRODUCED
Publisher_001,topicA,topicA-604,172.172.1.1:1883,1551654145885,PRODUCED
Publisher_001,topicA,topicA-605,172.172.1.1:1883,1551654145985,PRODUCED
Publisher_001,topicA,topicA-606,172.172.1.1:1883,1551654146085,PRODUCED
Publisher_001,topicA,topicA-607,172.172.1.1:1883,1551654146188,PRODUCED
Publisher_001,topicA,topicA-608,172.172.1.1:1883,1551654146285,PRODUCED
Publisher_001,topicA,topicA-609,172.172.1.1:1883,1551654146385,PRODUCED
Publisher_001,topicA,topicA-610,172.172.1.1:1883,1551654146485,PRODUCED
Publisher_001,topicA,topicA-611,172.172.1.1:1883,1551654146585,PRODUCED
Publisher_001,topicA,topicA-612,172.172.1.1:1883,1551654146685,PRODUCED
Publisher_001,topicA,topicA-613,172.172.1.1:1883,1551654146787,PRODUCED
Publisher_001,topicA,topicA-614,172.172.1.1:1883,1551654146885,PRODUCED
Publisher_001,topicA,topicA-615,172.172.1.1:1883,1551654146985,PRODUCED
Publisher_001,topicA,topicA-616,172.172.1.1:1883,1551654147085,PRODUCED
Publisher_001,topicA,topicA-617,172.172.1.1:1883,1551654147186,PRODUCED
Publisher_001,topicA,topicA-618,172.172.1.1:1883,1551654147285,PRODUCED
Publisher_001,topicA,topicA-619,172.172.1.1:1883,1551654147385,PRODUCED
Publisher_001,topicA,topicA-620,172.172.1.1:1883,1551654147485,PRODUCED
Publisher_001,topicA,topicA-621,172.172.1.1:1883,1551654147585,PRODUCED
Publisher_001,topicA,topicA-622,172.172.1.1:1883,1551654147685,PRODUCED
Publisher_001,topicA,topicA-623,172.172.1.1:1883,1551654147785,PRODUCED
Publisher_001,topicA,topicA-624,172.172.1.1:1883,1551654147885,PRODUCED
Publisher_001,topicA,topicA-625,172.172.1.1:1883,1551654147986,PRODUCED
Publisher_001,topicA,topicA-626,172.172.1.1:1883,1551654148086,PRODUCED
Publisher_001,topicA,topicA-627,172.172.1.1:1883,1551654148185,PRODUCED
Publisher_001,topicA,topicA-628,172.172.1.1:1883,1551654148285,PRODUCED
Publisher_001,topicA,topicA-629,172.172.1.1:1883,1551654148385,PRODUCED
Publisher_001,topicA,topicA-630,172.172.1.1:1883,1551654148485,PRODUCED
Publisher_001,topicA,topicA-631,172.172.1.1:1883,1551654148585,PRODUCED
Publisher_001,topicA,topicA-632,172.172.1.1:1883,1551654148686,PRODUCED
Publisher_001,topicA,topicA-633,172.172.1.1:1883,1551654148785,PRODUCED
Publisher_001,topicA,topicA-634,172.172.1.1:1883,1551654148885,PRODUCED
Publisher_001,topicA,topicA-635,172.172.1.1:1883,1551654148986,PRODUCED
Publisher_001,topicA,topicA-636,172.172.1.1:1883,1551654149089,PRODUCED
Publisher_001,topicA,topicA-637,172.172.1.1:1883,1551654149186,PRODUCED
Publisher_001,topicA,topicA-638,172.172.1.1:1883,1551654149285,PRODUCED
Publisher_001,topicA,topicA-639,172.172.1.1:1883,1551654149390,PRODUCED
Publisher_001,topicA,topicA-640,172.172.1.1:1883,1551654149486,PRODUCED
Publisher_001,topicA,topicA-641,172.172.1.1:1883,1551654149585,PRODUCED
Publisher_001,topicA,topicA-642,172.172.1.1:1883,1551654149685,PRODUCED
Publisher_001,topicA,topicA-643,172.172.1.1:1883,1551654149785,PRODUCED
Publisher_001,topicA,topicA-644,172.172.1.1:1883,1551654149885,PRODUCED
Publisher_001,topicA,topicA-645,172.172.1.1:1883,1551654149985,PRODUCED
Publisher_001,topicA,topicA-646,172.172.1.1:1883,1551654150085,PRODUCED
Publisher_001,topicA,topicA-647,172.172.1.1:1883,1551654150185,PRODUCED
Publisher_001,topicA,topicA-648,172.172.1.1:1883,1551654150285,PRODUCED
Publisher_001,topicA,topicA-649,172.172.1.1:1883,1551654150385,PRODUCED
Publisher_001,topicA,topicA-650,172.172.1.1:1883,1551654150485,PRODUCED
Publisher_001,topicA,topicA-651,172.172.1.1:1883,1551654150585,PRODUCED
Publisher_001,topicA,topicA-652,172.172.1.1:1883,1551654150685,PRODUCED
Publisher_001,topicA,topicA-653,172.172.1.1:1883,1551654150785,PRODUCED
Publisher_001,topicA,topicA-654,172.172.1.1:1883,1551654150886,PRODUCED
Publisher_001,topicA,topicA-655,172.172.1.1:1883,1551654150985,PRODUCED
Publisher_001,topicA,topicA-656,172.172.1.1:1883,1551654151085,PRODUCED
Publisher_001,topicA,topicA-657,172.172.1.1:1883,1551654151185,PRODUCED
Publisher_001,topicA,topicA-658,172.172.1.1:1883,1551654151285,PRODUCED
Publisher_001,topicA,topicA-659,172.172.1.1:1883,1551654151385,PRODUCED
Publisher_001,topicA,topicA-660,172.172.1.1:1883,1551654151485,PRODUCED
Publisher_001,topicA,topicA-661,172.172.1.1:1883,1551654151585,PRODUCED
Publisher_001,topicA,topicA-662,172.172.1.1:1883,1551654151685,PRODUCED
Publisher_001,topicA,topicA-663,172.172.1.1:1883,1551654151785,PRODUCED
Publisher_001,topicA,topicA-664,172.172.1.1:1883,1551654151885,PRODUCED
