timestamp,event,migrationId
1551645775346,INITIALIZED,629a3b1d-c3de-4e7d-9893-47221e4c2609
1551645775348,topicA-INITIALIZED,629a3b1d-c3de-4e7d-9893-47221e4c2609
1551645776025,topicA-FINISHED,629a3b1d-c3de-4e7d-9893-47221e4c2609
1551645776028,FINISHED,629a3b1d-c3de-4e7d-9893-47221e4c2609
