timestamp,event,migrationId
1551645362776,INITIALIZED,92d64bbf-fb28-4373-bbea-5fe883a53963
1551645362782,topicA-INITIALIZED,92d64bbf-fb28-4373-bbea-5fe883a53963
1551645363553,topicA-FINISHED,92d64bbf-fb28-4373-bbea-5fe883a53963
1551645363554,FINISHED,92d64bbf-fb28-4373-bbea-5fe883a53963
