timestamp,event,migrationId
1551650087752,INITIALIZED,d903fdbe-6630-4c13-97aa-d44a31fdd86f
1551650087754,topicA-INITIALIZED,d903fdbe-6630-4c13-97aa-d44a31fdd86f
1551650088349,SYNCING,d903fdbe-6630-4c13-97aa-d44a31fdd86f
1551650088360,topicA-SYNCING,d903fdbe-6630-4c13-97aa-d44a31fdd86f
1551650090312,topicA-SYNCED,d903fdbe-6630-4c13-97aa-d44a31fdd86f
1551650090313,SYNCED,d903fdbe-6630-4c13-97aa-d44a31fdd86f
1551650090392,topicA-FINISHED,d903fdbe-6630-4c13-97aa-d44a31fdd86f
1551650090392,FINISHED,d903fdbe-6630-4c13-97aa-d44a31fdd86f
