timestamp,event,migrationId
1551643573740,INITIALIZED,6f4ad95a-c607-4799-bfeb-863ff81f6f2a
1551643573742,topicA-INITIALIZED,6f4ad95a-c607-4799-bfeb-863ff81f6f2a
1551643573937,topicA-SYNCING,6f4ad95a-c607-4799-bfeb-863ff81f6f2a
1551643573938,SYNCING,6f4ad95a-c607-4799-bfeb-863ff81f6f2a
1551643573940,topicA-SYNCING_THIS,6f4ad95a-c607-4799-bfeb-863ff81f6f2a
1551643574239,topicA-SYNCED,6f4ad95a-c607-4799-bfeb-863ff81f6f2a
1551643574243,SYNCED,6f4ad95a-c607-4799-bfeb-863ff81f6f2a
1551643574257,topicA-FINISHED,6f4ad95a-c607-4799-bfeb-863ff81f6f2a
1551643574259,FINISHED,6f4ad95a-c607-4799-bfeb-863ff81f6f2a
