[1] "Duration B1: 2013"
[1] "Duration B2: 1691"
[1] "Duration MIGRATE: 282"
[1] "Duration MIGACK: 40"
[1] "addrow"
[1] "INITIALIZED"
  timestamp       event                          migrationId
1         0 INITIALIZED 646e2e72-dd7e-4767-b332-7b3e05b7be24
[1] "addrow"
[1] "SYNCING"
[1] "addrow"
[1] "SYNCED"
[1] "addrow"
[1] "FINISHED"
  timestamp    event                          migrationId
4      2013 FINISHED 646e2e72-dd7e-4767-b332-7b3e05b7be24
[1] "addrow"
[1] "topicA-INITIALIZED"
  timestamp              event                          migrationId
2         4 topicA-INITIALIZED 646e2e72-dd7e-4767-b332-7b3e05b7be24
[1] "addrow"
[1] "topicA-SYNCING"
[1] "addrow"
[1] "topicA-SYNCED"
[1] "addrow"
[1] "topicA-FINISHED"
  timestamp           event                          migrationId
3      2002 topicA-FINISHED 646e2e72-dd7e-4767-b332-7b3e05b7be24
