timestamp,event,migrationId
1551655435874,INITIALIZED,bff3d5fa-fdcd-42ea-8358-20c50ad8c0f9
1551655435877,topicA-INITIALIZED,bff3d5fa-fdcd-42ea-8358-20c50ad8c0f9
1551655435880,topicA-SYNCED,bff3d5fa-fdcd-42ea-8358-20c50ad8c0f9
1551655437987,topicA-FINISHED,bff3d5fa-fdcd-42ea-8358-20c50ad8c0f9
1551655437987,FINISHED,bff3d5fa-fdcd-42ea-8358-20c50ad8c0f9
