clientId,topic,guid,broker,timestamp,type
Publisher_001,topicA,topicA-1,172.172.1.1:1883,1551654644956,PRODUCED
Publisher_001,topicA,topicA-2,172.172.1.1:1883,1551654645208,PRODUCED
Publisher_001,topicA,topicA-3,172.172.1.1:1883,1551654645214,PRODUCED
Publisher_001,topicA,topicA-4,172.172.1.1:1883,1551654645220,PRODUCED
Publisher_001,topicA,topicA-5,172.172.1.1:1883,1551654645225,PRODUCED
Publisher_001,topicA,topicA-6,172.172.1.1:1883,1551654645273,PRODUCED
Publisher_001,topicA,topicA-7,172.172.1.1:1883,1551654645372,PRODUCED
Publisher_001,topicA,topicA-8,172.172.1.1:1883,1551654645473,PRODUCED
Publisher_001,topicA,topicA-9,172.172.1.1:1883,1551654645572,PRODUCED
Publisher_001,topicA,topicA-10,172.172.1.1:1883,1551654645672,PRODUCED
Publisher_001,topicA,topicA-11,172.172.1.1:1883,1551654645772,PRODUCED
Publisher_001,topicA,topicA-12,172.172.1.1:1883,1551654645872,PRODUCED
Publisher_001,topicA,topicA-13,172.172.1.1:1883,1551654645972,PRODUCED
Publisher_001,topicA,topicA-14,172.172.1.1:1883,1551654646072,PRODUCED
Publisher_001,topicA,topicA-15,172.172.1.1:1883,1551654646172,PRODUCED
Publisher_001,topicA,topicA-16,172.172.1.1:1883,1551654646273,PRODUCED
Publisher_001,topicA,topicA-17,172.172.1.1:1883,1551654646372,PRODUCED
Publisher_001,topicA,topicA-18,172.172.1.1:1883,1551654646473,PRODUCED
Publisher_001,topicA,topicA-19,172.172.1.1:1883,1551654646572,PRODUCED
Publisher_001,topicA,topicA-20,172.172.1.1:1883,1551654646672,PRODUCED
Publisher_001,topicA,topicA-21,172.172.1.1:1883,1551654646772,PRODUCED
Publisher_001,topicA,topicA-22,172.172.1.1:1883,1551654646872,PRODUCED
Publisher_001,topicA,topicA-23,172.172.1.1:1883,1551654646972,PRODUCED
Publisher_001,topicA,topicA-24,172.172.1.1:1883,1551654647072,PRODUCED
Publisher_001,topicA,topicA-25,172.172.1.1:1883,1551654647173,PRODUCED
Publisher_001,topicA,topicA-26,172.172.1.1:1883,1551654647273,PRODUCED
Publisher_001,topicA,topicA-27,172.172.1.1:1883,1551654647372,PRODUCED
Publisher_001,topicA,topicA-28,172.172.1.1:1883,1551654647472,PRODUCED
Publisher_001,topicA,topicA-29,172.172.1.1:1883,1551654647572,PRODUCED
Publisher_001,topicA,topicA-30,172.172.1.1:1883,1551654647672,PRODUCED
Publisher_001,topicA,topicA-31,172.172.1.1:1883,1551654647772,PRODUCED
Publisher_001,topicA,topicA-32,172.172.1.1:1883,1551654647873,PRODUCED
Publisher_001,topicA,topicA-33,172.172.1.1:1883,1551654647972,PRODUCED
Publisher_001,topicA,topicA-34,172.172.1.1:1883,1551654648073,PRODUCED
Publisher_001,topicA,topicA-35,172.172.1.1:1883,1551654648172,PRODUCED
Publisher_001,topicA,topicA-36,172.172.1.1:1883,1551654648272,PRODUCED
Publisher_001,topicA,topicA-37,172.172.1.1:1883,1551654648372,PRODUCED
Publisher_001,topicA,topicA-38,172.172.1.1:1883,1551654648472,PRODUCED
Publisher_001,topicA,topicA-39,172.172.1.1:1883,1551654648573,PRODUCED
Publisher_001,topicA,topicA-40,172.172.1.1:1883,1551654648674,PRODUCED
Publisher_001,topicA,topicA-41,172.172.1.1:1883,1551654648772,PRODUCED
Publisher_001,topicA,topicA-42,172.172.1.1:1883,1551654648872,PRODUCED
Publisher_001,topicA,topicA-43,172.172.1.1:1883,1551654648973,PRODUCED
Publisher_001,topicA,topicA-44,172.172.1.1:1883,1551654649073,PRODUCED
Publisher_001,topicA,topicA-45,172.172.1.1:1883,1551654649172,PRODUCED
Publisher_001,topicA,topicA-46,172.172.1.1:1883,1551654649273,PRODUCED
Publisher_001,topicA,topicA-47,172.172.1.1:1883,1551654649372,PRODUCED
Publisher_001,topicA,topicA-48,172.172.1.1:1883,1551654649472,PRODUCED
Publisher_001,topicA,topicA-49,172.172.1.1:1883,1551654649572,PRODUCED
Publisher_001,topicA,topicA-50,172.172.1.1:1883,1551654649672,PRODUCED
Publisher_001,topicA,topicA-51,172.172.1.1:1883,1551654649772,PRODUCED
Publisher_001,topicA,topicA-52,172.172.1.1:1883,1551654649872,PRODUCED
Publisher_001,topicA,topicA-53,172.172.1.1:1883,1551654649972,PRODUCED
Publisher_001,topicA,topicA-54,172.172.1.1:1883,1551654650072,PRODUCED
Publisher_001,topicA,topicA-55,172.172.1.1:1883,1551654650172,PRODUCED
Publisher_001,topicA,topicA-56,172.172.1.1:1883,1551654650272,PRODUCED
Publisher_001,topicA,topicA-57,172.172.1.1:1883,1551654650372,PRODUCED
Publisher_001,topicA,topicA-58,172.172.1.1:1883,1551654650472,PRODUCED
Publisher_001,topicA,topicA-59,172.172.1.1:1883,1551654650573,PRODUCED
Publisher_001,topicA,topicA-60,172.172.1.1:1883,1551654650673,PRODUCED
Publisher_001,topicA,topicA-61,172.172.1.1:1883,1551654650773,PRODUCED
Publisher_001,topicA,topicA-62,172.172.1.1:1883,1551654650873,PRODUCED
Publisher_001,topicA,topicA-63,172.172.1.1:1883,1551654650973,PRODUCED
Publisher_001,topicA,topicA-64,172.172.1.1:1883,1551654651073,PRODUCED
Publisher_001,topicA,topicA-65,172.172.1.1:1883,1551654651172,PRODUCED
Publisher_001,topicA,topicA-66,172.172.1.1:1883,1551654651274,PRODUCED
Publisher_001,topicA,topicA-67,172.172.1.1:1883,1551654651372,PRODUCED
Publisher_001,topicA,topicA-68,172.172.1.1:1883,1551654651473,PRODUCED
Publisher_001,topicA,topicA-69,172.172.1.1:1883,1551654651574,PRODUCED
Publisher_001,topicA,topicA-70,172.172.1.1:1883,1551654651673,PRODUCED
Publisher_001,topicA,topicA-71,172.172.1.1:1883,1551654651773,PRODUCED
Publisher_001,topicA,topicA-72,172.172.1.1:1883,1551654651874,PRODUCED
Publisher_001,topicA,topicA-73,172.172.1.1:1883,1551654651973,PRODUCED
Publisher_001,topicA,topicA-74,172.172.1.1:1883,1551654652074,PRODUCED
Publisher_001,topicA,topicA-75,172.172.1.1:1883,1551654652172,PRODUCED
Publisher_001,topicA,topicA-76,172.172.1.1:1883,1551654652273,PRODUCED
Publisher_001,topicA,topicA-77,172.172.1.1:1883,1551654652372,PRODUCED
Publisher_001,topicA,topicA-78,172.172.1.1:1883,1551654652473,PRODUCED
Publisher_001,topicA,topicA-79,172.172.1.1:1883,1551654652575,PRODUCED
Publisher_001,topicA,topicA-80,172.172.1.1:1883,1551654652673,PRODUCED
Publisher_001,topicA,topicA-81,172.172.1.1:1883,1551654652772,PRODUCED
Publisher_001,topicA,topicA-82,172.172.1.1:1883,1551654652875,PRODUCED
Publisher_001,topicA,topicA-83,172.172.1.1:1883,1551654652972,PRODUCED
Publisher_001,topicA,topicA-84,172.172.1.1:1883,1551654653074,PRODUCED
Publisher_001,topicA,topicA-85,172.172.1.1:1883,1551654653173,PRODUCED
Publisher_001,topicA,topicA-86,172.172.1.1:1883,1551654653272,PRODUCED
Publisher_001,topicA,topicA-87,172.172.1.1:1883,1551654653373,PRODUCED
Publisher_001,topicA,topicA-88,172.172.1.1:1883,1551654653473,PRODUCED
Publisher_001,topicA,topicA-89,172.172.1.1:1883,1551654653572,PRODUCED
Publisher_001,topicA,topicA-90,172.172.1.1:1883,1551654653677,PRODUCED
Publisher_001,topicA,topicA-91,172.172.1.1:1883,1551654653772,PRODUCED
Publisher_001,topicA,topicA-92,172.172.1.1:1883,1551654653872,PRODUCED
Publisher_001,topicA,topicA-93,172.172.1.1:1883,1551654653973,PRODUCED
Publisher_001,topicA,topicA-94,172.172.1.1:1883,1551654654073,PRODUCED
Publisher_001,topicA,topicA-95,172.172.1.1:1883,1551654654172,PRODUCED
Publisher_001,topicA,topicA-96,172.172.1.1:1883,1551654654273,PRODUCED
Publisher_001,topicA,topicA-97,172.172.1.1:1883,1551654654374,PRODUCED
Publisher_001,topicA,topicA-98,172.172.1.1:1883,1551654654473,PRODUCED
Publisher_001,topicA,topicA-99,172.172.1.1:1883,1551654654573,PRODUCED
Publisher_001,topicA,topicA-100,172.172.1.1:1883,1551654654675,PRODUCED
Publisher_001,topicA,topicA-101,172.172.1.1:1883,1551654654774,PRODUCED
Publisher_001,topicA,topicA-102,172.172.1.1:1883,1551654654876,PRODUCED
Publisher_001,topicA,topicA-103,172.172.1.1:1883,1551654654973,PRODUCED
Publisher_001,topicA,topicA-104,172.172.1.1:1883,1551654655073,PRODUCED
Publisher_001,topicA,topicA-105,172.172.1.1:1883,1551654655174,PRODUCED
Publisher_001,topicA,topicA-106,172.172.1.1:1883,1551654655273,PRODUCED
Publisher_001,topicA,topicA-107,172.172.1.1:1883,1551654655372,PRODUCED
Publisher_001,topicA,topicA-108,172.172.1.1:1883,1551654655477,PRODUCED
Publisher_001,topicA,topicA-109,172.172.1.1:1883,1551654655573,PRODUCED
Publisher_001,topicA,topicA-110,172.172.1.1:1883,1551654655672,PRODUCED
Publisher_001,topicA,topicA-111,172.172.1.1:1883,1551654655772,PRODUCED
Publisher_001,topicA,topicA-112,172.172.1.1:1883,1551654655873,PRODUCED
Publisher_001,topicA,topicA-113,172.172.1.1:1883,1551654655973,PRODUCED
Publisher_001,topicA,topicA-114,172.172.1.1:1883,1551654656072,PRODUCED
Publisher_001,topicA,topicA-115,172.172.1.1:1883,1551654656175,PRODUCED
Publisher_001,topicA,topicA-116,172.172.1.1:1883,1551654656272,PRODUCED
Publisher_001,topicA,topicA-117,172.172.1.1:1883,1551654656372,PRODUCED
Publisher_001,topicA,topicA-118,172.172.1.1:1883,1551654656472,PRODUCED
Publisher_001,topicA,topicA-119,172.172.1.1:1883,1551654656577,PRODUCED
Publisher_001,topicA,topicA-120,172.172.1.1:1883,1551654656673,PRODUCED
Publisher_001,topicA,topicA-121,172.172.1.1:1883,1551654656772,PRODUCED
Publisher_001,topicA,topicA-122,172.172.1.1:1883,1551654656872,PRODUCED
Publisher_001,topicA,topicA-123,172.172.1.1:1883,1551654656973,PRODUCED
Publisher_001,topicA,topicA-124,172.172.1.1:1883,1551654657072,PRODUCED
Publisher_001,topicA,topicA-125,172.172.1.1:1883,1551654657177,PRODUCED
Publisher_001,topicA,topicA-126,172.172.1.1:1883,1551654657273,PRODUCED
Publisher_001,topicA,topicA-127,172.172.1.1:1883,1551654657376,PRODUCED
Publisher_001,topicA,topicA-128,172.172.1.1:1883,1551654657472,PRODUCED
Publisher_001,topicA,topicA-129,172.172.1.1:1883,1551654657572,PRODUCED
Publisher_001,topicA,topicA-130,172.172.1.1:1883,1551654657673,PRODUCED
Publisher_001,topicA,topicA-131,172.172.1.1:1883,1551654657773,PRODUCED
Publisher_001,topicA,topicA-132,172.172.1.1:1883,1551654657873,PRODUCED
Publisher_001,topicA,topicA-133,172.172.1.1:1883,1551654657973,PRODUCED
Publisher_001,topicA,topicA-134,172.172.1.1:1883,1551654658078,PRODUCED
Publisher_001,topicA,topicA-135,172.172.1.1:1883,1551654658176,PRODUCED
Publisher_001,topicA,topicA-136,172.172.1.1:1883,1551654658272,PRODUCED
Publisher_001,topicA,topicA-137,172.172.1.1:1883,1551654658373,PRODUCED
Publisher_001,topicA,topicA-138,172.172.1.1:1883,1551654658472,PRODUCED
Publisher_001,topicA,topicA-139,172.172.1.1:1883,1551654658572,PRODUCED
Publisher_001,topicA,topicA-140,172.172.1.1:1883,1551654658672,PRODUCED
Publisher_001,topicA,topicA-141,172.172.1.1:1883,1551654658772,PRODUCED
Publisher_001,topicA,topicA-142,172.172.1.1:1883,1551654658872,PRODUCED
Publisher_001,topicA,topicA-143,172.172.1.1:1883,1551654658972,PRODUCED
Publisher_001,topicA,topicA-144,172.172.1.1:1883,1551654659072,PRODUCED
Publisher_001,topicA,topicA-145,172.172.1.1:1883,1551654659172,PRODUCED
Publisher_001,topicA,topicA-146,172.172.1.1:1883,1551654659272,PRODUCED
Publisher_001,topicA,topicA-147,172.172.1.1:1883,1551654659372,PRODUCED
Publisher_001,topicA,topicA-148,172.172.1.1:1883,1551654659473,PRODUCED
Publisher_001,topicA,topicA-149,172.172.1.1:1883,1551654659573,PRODUCED
Publisher_001,topicA,topicA-150,172.172.1.1:1883,1551654659672,PRODUCED
Publisher_001,topicA,topicA-151,172.172.1.1:1883,1551654659772,PRODUCED
Publisher_001,topicA,topicA-152,172.172.1.1:1883,1551654659872,PRODUCED
Publisher_001,topicA,topicA-153,172.172.1.1:1883,1551654659972,PRODUCED
Publisher_001,topicA,topicA-154,172.172.1.1:1883,1551654660072,PRODUCED
Publisher_001,topicA,topicA-155,172.172.1.1:1883,1551654660179,PRODUCED
Publisher_001,topicA,topicA-156,172.172.1.1:1883,1551654660272,PRODUCED
Publisher_001,topicA,topicA-157,172.172.1.1:1883,1551654660378,PRODUCED
Publisher_001,topicA,topicA-158,172.172.1.1:1883,1551654660472,PRODUCED
Publisher_001,topicA,topicA-159,172.172.1.1:1883,1551654660572,PRODUCED
Publisher_001,topicA,topicA-160,172.172.1.1:1883,1551654660672,PRODUCED
Publisher_001,topicA,topicA-161,172.172.1.1:1883,1551654660772,PRODUCED
Publisher_001,topicA,topicA-162,172.172.1.1:1883,1551654660872,PRODUCED
Publisher_001,topicA,topicA-163,172.172.1.1:1883,1551654660972,PRODUCED
Publisher_001,topicA,topicA-164,172.172.1.1:1883,1551654661072,PRODUCED
Publisher_001,topicA,topicA-165,172.172.1.1:1883,1551654661172,PRODUCED
Publisher_001,topicA,topicA-166,172.172.1.1:1883,1551654661275,PRODUCED
Publisher_001,topicA,topicA-167,172.172.1.1:1883,1551654661374,PRODUCED
Publisher_001,topicA,topicA-168,172.172.1.1:1883,1551654661473,PRODUCED
Publisher_001,topicA,topicA-169,172.172.1.1:1883,1551654661577,PRODUCED
Publisher_001,topicA,topicA-170,172.172.1.1:1883,1551654661673,PRODUCED
Publisher_001,topicA,topicA-171,172.172.1.1:1883,1551654661773,PRODUCED
Publisher_001,topicA,topicA-172,172.172.1.1:1883,1551654661873,PRODUCED
Publisher_001,topicA,topicA-173,172.172.1.1:1883,1551654661972,PRODUCED
Publisher_001,topicA,topicA-174,172.172.1.1:1883,1551654662073,PRODUCED
Publisher_001,topicA,topicA-175,172.172.1.1:1883,1551654662173,PRODUCED
Publisher_001,topicA,topicA-176,172.172.1.1:1883,1551654662272,PRODUCED
Publisher_001,topicA,topicA-177,172.172.1.1:1883,1551654662373,PRODUCED
Publisher_001,topicA,topicA-178,172.172.1.1:1883,1551654662473,PRODUCED
Publisher_001,topicA,topicA-179,172.172.1.1:1883,1551654662572,PRODUCED
Publisher_001,topicA,topicA-180,172.172.1.1:1883,1551654662673,PRODUCED
Publisher_001,topicA,topicA-181,172.172.1.1:1883,1551654662772,PRODUCED
Publisher_001,topicA,topicA-182,172.172.1.1:1883,1551654662873,PRODUCED
Publisher_001,topicA,topicA-183,172.172.1.1:1883,1551654662975,PRODUCED
Publisher_001,topicA,topicA-184,172.172.1.1:1883,1551654663074,PRODUCED
Publisher_001,topicA,topicA-185,172.172.1.1:1883,1551654663173,PRODUCED
Publisher_001,topicA,topicA-186,172.172.1.1:1883,1551654663273,PRODUCED
Publisher_001,topicA,topicA-187,172.172.1.1:1883,1551654663373,PRODUCED
Publisher_001,topicA,topicA-188,172.172.1.1:1883,1551654663473,PRODUCED
Publisher_001,topicA,topicA-189,172.172.1.1:1883,1551654663573,PRODUCED
Publisher_001,topicA,topicA-190,172.172.1.1:1883,1551654663672,PRODUCED
Publisher_001,topicA,topicA-191,172.172.1.1:1883,1551654663773,PRODUCED
Publisher_001,topicA,topicA-192,172.172.1.1:1883,1551654663873,PRODUCED
Publisher_001,topicA,topicA-193,172.172.1.1:1883,1551654663972,PRODUCED
Publisher_001,topicA,topicA-194,172.172.1.1:1883,1551654664072,PRODUCED
Publisher_001,topicA,topicA-195,172.172.1.1:1883,1551654664173,PRODUCED
Publisher_001,topicA,topicA-196,172.172.1.1:1883,1551654664273,PRODUCED
Publisher_001,topicA,topicA-197,172.172.1.1:1883,1551654664374,PRODUCED
Publisher_001,topicA,topicA-198,172.172.1.1:1883,1551654664479,PRODUCED
Publisher_001,topicA,topicA-199,172.172.1.1:1883,1551654664573,PRODUCED
Publisher_001,topicA,topicA-200,172.172.1.1:1883,1551654664672,PRODUCED
Publisher_001,topicA,topicA-201,172.172.1.1:1883,1551654664772,PRODUCED
Publisher_001,topicA,topicA-202,172.172.1.1:1883,1551654664873,PRODUCED
Publisher_001,topicA,topicA-203,172.172.1.1:1883,1551654664972,PRODUCED
Publisher_001,topicA,topicA-204,172.172.1.1:1883,1551654665073,PRODUCED
Publisher_001,topicA,topicA-205,172.172.1.1:1883,1551654665172,PRODUCED
Publisher_001,topicA,topicA-206,172.172.1.1:1883,1551654665272,PRODUCED
Publisher_001,topicA,topicA-207,172.172.1.1:1883,1551654665373,PRODUCED
Publisher_001,topicA,topicA-208,172.172.1.1:1883,1551654665473,PRODUCED
Publisher_001,topicA,topicA-209,172.172.1.1:1883,1551654665573,PRODUCED
Publisher_001,topicA,topicA-210,172.172.1.1:1883,1551654665674,PRODUCED
Publisher_001,topicA,topicA-211,172.172.1.1:1883,1551654665772,PRODUCED
Publisher_001,topicA,topicA-212,172.172.1.1:1883,1551654665873,PRODUCED
Publisher_001,topicA,topicA-213,172.172.1.1:1883,1551654665973,PRODUCED
Publisher_001,topicA,topicA-214,172.172.1.1:1883,1551654666073,PRODUCED
Publisher_001,topicA,topicA-215,172.172.1.1:1883,1551654666173,PRODUCED
Publisher_001,topicA,topicA-216,172.172.1.1:1883,1551654666273,PRODUCED
Publisher_001,topicA,topicA-217,172.172.1.1:1883,1551654666376,PRODUCED
Publisher_001,topicA,topicA-218,172.172.1.1:1883,1551654666472,PRODUCED
Publisher_001,topicA,topicA-219,172.172.1.1:1883,1551654666572,PRODUCED
Publisher_001,topicA,topicA-220,172.172.1.1:1883,1551654666673,PRODUCED
Publisher_001,topicA,topicA-221,172.172.1.1:1883,1551654666775,PRODUCED
Publisher_001,topicA,topicA-222,172.172.1.1:1883,1551654666873,PRODUCED
Publisher_001,topicA,topicA-223,172.172.1.1:1883,1551654666973,PRODUCED
Publisher_001,topicA,topicA-224,172.172.1.1:1883,1551654667073,PRODUCED
Publisher_001,topicA,topicA-225,172.172.1.1:1883,1551654667172,PRODUCED
Publisher_001,topicA,topicA-226,172.172.1.1:1883,1551654667273,PRODUCED
Publisher_001,topicA,topicA-227,172.172.1.1:1883,1551654667374,PRODUCED
Publisher_001,topicA,topicA-228,172.172.1.1:1883,1551654667472,PRODUCED
Publisher_001,topicA,topicA-229,172.172.1.1:1883,1551654667572,PRODUCED
Publisher_001,topicA,topicA-230,172.172.1.1:1883,1551654667673,PRODUCED
Publisher_001,topicA,topicA-231,172.172.1.1:1883,1551654667773,PRODUCED
Publisher_001,topicA,topicA-232,172.172.1.1:1883,1551654667874,PRODUCED
Publisher_001,topicA,topicA-233,172.172.1.1:1883,1551654667972,PRODUCED
Publisher_001,topicA,topicA-234,172.172.1.1:1883,1551654668072,PRODUCED
Publisher_001,topicA,topicA-235,172.172.1.1:1883,1551654668172,PRODUCED
Publisher_001,topicA,topicA-236,172.172.1.1:1883,1551654668275,PRODUCED
Publisher_001,topicA,topicA-237,172.172.1.1:1883,1551654668372,PRODUCED
Publisher_001,topicA,topicA-238,172.172.1.1:1883,1551654668473,PRODUCED
Publisher_001,topicA,topicA-239,172.172.1.1:1883,1551654668573,PRODUCED
Publisher_001,topicA,topicA-240,172.172.1.1:1883,1551654668672,PRODUCED
Publisher_001,topicA,topicA-241,172.172.1.1:1883,1551654668773,PRODUCED
Publisher_001,topicA,topicA-242,172.172.1.1:1883,1551654668873,PRODUCED
Publisher_001,topicA,topicA-243,172.172.1.1:1883,1551654668973,PRODUCED
Publisher_001,topicA,topicA-244,172.172.1.1:1883,1551654669074,PRODUCED
Publisher_001,topicA,topicA-245,172.172.1.1:1883,1551654669172,PRODUCED
Publisher_001,topicA,topicA-246,172.172.1.1:1883,1551654669273,PRODUCED
Publisher_001,topicA,topicA-247,172.172.1.1:1883,1551654669373,PRODUCED
Publisher_001,topicA,topicA-248,172.172.1.1:1883,1551654669473,PRODUCED
Publisher_001,topicA,topicA-249,172.172.1.1:1883,1551654669572,PRODUCED
Publisher_001,topicA,topicA-250,172.172.1.1:1883,1551654669672,PRODUCED
Publisher_001,topicA,topicA-251,172.172.1.1:1883,1551654669772,PRODUCED
Publisher_001,topicA,topicA-252,172.172.1.1:1883,1551654669872,PRODUCED
Publisher_001,topicA,topicA-253,172.172.1.1:1883,1551654669972,PRODUCED
Publisher_001,topicA,topicA-254,172.172.1.1:1883,1551654670072,PRODUCED
Publisher_001,topicA,topicA-255,172.172.1.1:1883,1551654670172,PRODUCED
Publisher_001,topicA,topicA-256,172.172.1.1:1883,1551654670272,PRODUCED
Publisher_001,topicA,topicA-257,172.172.1.1:1883,1551654670373,PRODUCED
Publisher_001,topicA,topicA-258,172.172.1.1:1883,1551654670472,PRODUCED
Publisher_001,topicA,topicA-259,172.172.1.1:1883,1551654670572,PRODUCED
Publisher_001,topicA,topicA-260,172.172.1.1:1883,1551654670672,PRODUCED
Publisher_001,topicA,topicA-261,172.172.1.1:1883,1551654670772,PRODUCED
Publisher_001,topicA,topicA-262,172.172.1.1:1883,1551654670875,PRODUCED
Publisher_001,topicA,topicA-263,172.172.1.1:1883,1551654670973,PRODUCED
Publisher_001,topicA,topicA-264,172.172.1.1:1883,1551654671072,PRODUCED
Publisher_001,topicA,topicA-265,172.172.1.1:1883,1551654671172,PRODUCED
Publisher_001,topicA,topicA-266,172.172.1.1:1883,1551654671275,PRODUCED
Publisher_001,topicA,topicA-267,172.172.1.1:1883,1551654671372,PRODUCED
Publisher_001,topicA,topicA-268,172.172.1.1:1883,1551654671472,PRODUCED
Publisher_001,topicA,topicA-269,172.172.1.1:1883,1551654671573,PRODUCED
Publisher_001,topicA,topicA-270,172.172.1.1:1883,1551654671672,PRODUCED
Publisher_001,topicA,topicA-271,172.172.1.1:1883,1551654671772,PRODUCED
Publisher_001,topicA,topicA-272,172.172.1.1:1883,1551654671875,PRODUCED
Publisher_001,topicA,topicA-273,172.172.1.1:1883,1551654671973,PRODUCED
Publisher_001,topicA,topicA-274,172.172.1.1:1883,1551654672075,PRODUCED
Publisher_001,topicA,topicA-275,172.172.1.1:1883,1551654672172,PRODUCED
Publisher_001,topicA,topicA-276,172.172.1.1:1883,1551654672273,PRODUCED
Publisher_001,topicA,topicA-277,172.172.1.1:1883,1551654672372,PRODUCED
Publisher_001,topicA,topicA-278,172.172.1.1:1883,1551654672472,PRODUCED
Publisher_001,topicA,topicA-279,172.172.1.1:1883,1551654672572,PRODUCED
Publisher_001,topicA,topicA-280,172.172.1.1:1883,1551654672675,PRODUCED
Publisher_001,topicA,topicA-281,172.172.1.1:1883,1551654672772,PRODUCED
Publisher_001,topicA,topicA-282,172.172.1.1:1883,1551654672873,PRODUCED
Publisher_001,topicA,topicA-283,172.172.1.1:1883,1551654672973,PRODUCED
Publisher_001,topicA,topicA-284,172.172.1.1:1883,1551654673072,PRODUCED
Publisher_001,topicA,topicA-285,172.172.1.1:1883,1551654673172,PRODUCED
Publisher_001,topicA,topicA-286,172.172.1.1:1883,1551654673272,PRODUCED
Publisher_001,topicA,topicA-287,172.172.1.1:1883,1551654673373,PRODUCED
Publisher_001,topicA,topicA-288,172.172.1.1:1883,1551654673472,PRODUCED
Publisher_001,topicA,topicA-289,172.172.1.1:1883,1551654673572,PRODUCED
Publisher_001,topicA,topicA-290,172.172.1.1:1883,1551654673675,PRODUCED
Publisher_001,topicA,topicA-291,172.172.1.1:1883,1551654673772,PRODUCED
Publisher_001,topicA,topicA-292,172.172.1.1:1883,1551654673872,PRODUCED
Publisher_001,topicA,topicA-293,172.172.1.1:1883,1551654673972,PRODUCED
Publisher_001,topicA,topicA-294,172.172.1.1:1883,1551654674072,PRODUCED
Publisher_001,topicA,topicA-295,172.172.1.1:1883,1551654674172,PRODUCED
Publisher_001,topicA,topicA-296,172.172.1.1:1883,1551654674273,PRODUCED
Publisher_001,topicA,topicA-297,172.172.1.1:1883,1551654674372,PRODUCED
Publisher_001,topicA,topicA-298,172.172.1.1:1883,1551654674472,PRODUCED
Publisher_001,topicA,topicA-299,172.172.1.1:1883,1551654674573,PRODUCED
Publisher_001,topicA,topicA-300,172.172.1.1:1883,1551654674672,PRODUCED
Publisher_001,topicA,topicA-301,172.172.1.1:1883,1551654674772,PRODUCED
Publisher_001,topicA,topicA-302,172.172.1.1:1883,1551654674874,PRODUCED
Publisher_001,topicA,topicA-303,172.172.1.1:1883,1551654674974,PRODUCED
Publisher_001,topicA,topicA-304,172.172.1.1:1883,1551654675073,PRODUCED
Publisher_001,topicA,topicA-305,172.172.1.1:1883,1551654675172,PRODUCED
Publisher_001,topicA,topicA-306,172.172.1.1:1883,1551654675272,PRODUCED
Publisher_001,topicA,topicA-307,172.172.1.1:1883,1551654675373,PRODUCED
Publisher_001,topicA,topicA-308,172.172.1.1:1883,1551654675477,PRODUCED
Publisher_001,topicA,topicA-309,172.172.1.1:1883,1551654675572,PRODUCED
Publisher_001,topicA,topicA-310,172.172.1.1:1883,1551654675673,PRODUCED
Publisher_001,topicA,topicA-311,172.172.1.1:1883,1551654675772,PRODUCED
Publisher_001,topicA,topicA-312,172.172.1.1:1883,1551654675876,PRODUCED
Publisher_001,topicA,topicA-313,172.172.1.1:1883,1551654675972,PRODUCED
Publisher_001,topicA,topicA-314,172.172.1.1:1883,1551654676072,PRODUCED
Publisher_001,topicA,topicA-315,172.172.1.1:1883,1551654676172,PRODUCED
Publisher_001,topicA,topicA-316,172.172.1.1:1883,1551654676273,PRODUCED
Publisher_001,topicA,topicA-317,172.172.1.1:1883,1551654676373,PRODUCED
Publisher_001,topicA,topicA-318,172.172.1.1:1883,1551654676472,PRODUCED
Publisher_001,topicA,topicA-319,172.172.1.1:1883,1551654676572,PRODUCED
Publisher_001,topicA,topicA-320,172.172.1.1:1883,1551654676672,PRODUCED
Publisher_001,topicA,topicA-321,172.172.1.1:1883,1551654676773,PRODUCED
Publisher_001,topicA,topicA-322,172.172.1.1:1883,1551654676872,PRODUCED
Publisher_001,topicA,topicA-323,172.172.1.1:1883,1551654676973,PRODUCED
Publisher_001,topicA,topicA-324,172.172.1.1:1883,1551654677073,PRODUCED
Publisher_001,topicA,topicA-325,172.172.1.1:1883,1551654677172,PRODUCED
Publisher_001,topicA,topicA-326,172.172.1.1:1883,1551654677272,PRODUCED
Publisher_001,topicA,topicA-327,172.172.1.1:1883,1551654677374,PRODUCED
Publisher_001,topicA,topicA-328,172.172.1.1:1883,1551654677473,PRODUCED
Publisher_001,topicA,topicA-329,172.172.1.1:1883,1551654677572,PRODUCED
Publisher_001,topicA,topicA-330,172.172.1.1:1883,1551654677674,PRODUCED
Publisher_001,topicA,topicA-331,172.172.1.1:1883,1551654677772,PRODUCED
Publisher_001,topicA,topicA-332,172.172.1.1:1883,1551654677873,PRODUCED
Publisher_001,topicA,topicA-333,172.172.1.1:1883,1551654677972,PRODUCED
Publisher_001,topicA,topicA-334,172.172.1.1:1883,1551654678073,PRODUCED
Publisher_001,topicA,topicA-335,172.172.1.1:1883,1551654678172,PRODUCED
Publisher_001,topicA,topicA-336,172.172.1.1:1883,1551654678272,PRODUCED
Publisher_001,topicA,topicA-337,172.172.1.1:1883,1551654678372,PRODUCED
Publisher_001,topicA,topicA-338,172.172.1.1:1883,1551654678472,PRODUCED
Publisher_001,topicA,topicA-339,172.172.1.1:1883,1551654678572,PRODUCED
Publisher_001,topicA,topicA-340,172.172.1.1:1883,1551654678672,PRODUCED
Publisher_001,topicA,topicA-341,172.172.1.1:1883,1551654678772,PRODUCED
Publisher_001,topicA,topicA-342,172.172.1.1:1883,1551654678872,PRODUCED
Publisher_001,topicA,topicA-343,172.172.1.1:1883,1551654678972,PRODUCED
Publisher_001,topicA,topicA-344,172.172.1.1:1883,1551654679073,PRODUCED
Publisher_001,topicA,topicA-345,172.172.1.1:1883,1551654679173,PRODUCED
Publisher_001,topicA,topicA-346,172.172.1.1:1883,1551654679273,PRODUCED
Publisher_001,topicA,topicA-347,172.172.1.1:1883,1551654679376,PRODUCED
Publisher_001,topicA,topicA-348,172.172.1.1:1883,1551654679473,PRODUCED
Publisher_001,topicA,topicA-349,172.172.1.1:1883,1551654679573,PRODUCED
Publisher_001,topicA,topicA-350,172.172.1.1:1883,1551654679673,PRODUCED
Publisher_001,topicA,topicA-351,172.172.1.1:1883,1551654679773,PRODUCED
Publisher_001,topicA,topicA-352,172.172.1.1:1883,1551654679872,PRODUCED
Publisher_001,topicA,topicA-353,172.172.1.1:1883,1551654679972,PRODUCED
Publisher_001,topicA,topicA-354,172.172.1.1:1883,1551654680073,PRODUCED
Publisher_001,topicA,topicA-355,172.172.1.1:1883,1551654680172,PRODUCED
Publisher_001,topicA,topicA-356,172.172.1.1:1883,1551654680272,PRODUCED
Publisher_001,topicA,topicA-357,172.172.1.1:1883,1551654680373,PRODUCED
Publisher_001,topicA,topicA-358,172.172.1.1:1883,1551654680472,PRODUCED
Publisher_001,topicA,topicA-359,172.172.1.1:1883,1551654680572,PRODUCED
Publisher_001,topicA,topicA-360,172.172.1.1:1883,1551654680672,PRODUCED
Publisher_001,topicA,topicA-361,172.172.1.1:1883,1551654680772,PRODUCED
Publisher_001,topicA,topicA-362,172.172.1.1:1883,1551654680872,PRODUCED
Publisher_001,topicA,topicA-363,172.172.1.1:1883,1551654680972,PRODUCED
Publisher_001,topicA,topicA-364,172.172.1.1:1883,1551654681072,PRODUCED
Publisher_001,topicA,topicA-365,172.172.1.1:1883,1551654681172,PRODUCED
Publisher_001,topicA,topicA-366,172.172.1.1:1883,1551654681272,PRODUCED
Publisher_001,topicA,topicA-367,172.172.1.1:1883,1551654681373,PRODUCED
Publisher_001,topicA,topicA-368,172.172.1.1:1883,1551654681478,PRODUCED
Publisher_001,topicA,topicA-369,172.172.1.1:1883,1551654681572,PRODUCED
Publisher_001,topicA,topicA-370,172.172.1.1:1883,1551654681674,PRODUCED
Publisher_001,topicA,topicA-371,172.172.1.1:1883,1551654681772,PRODUCED
Publisher_001,topicA,topicA-372,172.172.1.1:1883,1551654681872,PRODUCED
Publisher_001,topicA,topicA-373,172.172.1.1:1883,1551654681972,PRODUCED
Publisher_001,topicA,topicA-374,172.172.1.1:1883,1551654682072,PRODUCED
Publisher_001,topicA,topicA-375,172.172.1.1:1883,1551654682172,PRODUCED
Publisher_001,topicA,topicA-376,172.172.1.1:1883,1551654682272,PRODUCED
Publisher_001,topicA,topicA-377,172.172.1.1:1883,1551654682372,PRODUCED
Publisher_001,topicA,topicA-378,172.172.1.1:1883,1551654682474,PRODUCED
Publisher_001,topicA,topicA-379,172.172.1.1:1883,1551654682572,PRODUCED
Publisher_001,topicA,topicA-380,172.172.1.1:1883,1551654682672,PRODUCED
Publisher_001,topicA,topicA-381,172.172.1.1:1883,1551654682772,PRODUCED
Publisher_001,topicA,topicA-382,172.172.1.1:1883,1551654682873,PRODUCED
Publisher_001,topicA,topicA-383,172.172.1.1:1883,1551654682974,PRODUCED
Publisher_001,topicA,topicA-384,172.172.1.1:1883,1551654683073,PRODUCED
Publisher_001,topicA,topicA-385,172.172.1.1:1883,1551654683172,PRODUCED
Publisher_001,topicA,topicA-386,172.172.1.1:1883,1551654683273,PRODUCED
Publisher_001,topicA,topicA-387,172.172.1.1:1883,1551654683372,PRODUCED
Publisher_001,topicA,topicA-388,172.172.1.1:1883,1551654683472,PRODUCED
Publisher_001,topicA,topicA-389,172.172.1.1:1883,1551654683572,PRODUCED
Publisher_001,topicA,topicA-390,172.172.1.1:1883,1551654683673,PRODUCED
Publisher_001,topicA,topicA-391,172.172.1.1:1883,1551654683773,PRODUCED
Publisher_001,topicA,topicA-392,172.172.1.1:1883,1551654683872,PRODUCED
Publisher_001,topicA,topicA-393,172.172.1.1:1883,1551654683973,PRODUCED
Publisher_001,topicA,topicA-394,172.172.1.1:1883,1551654684072,PRODUCED
Publisher_001,topicA,topicA-395,172.172.1.1:1883,1551654684172,PRODUCED
Publisher_001,topicA,topicA-396,172.172.1.1:1883,1551654684272,PRODUCED
Publisher_001,topicA,topicA-397,172.172.1.1:1883,1551654684372,PRODUCED
Publisher_001,topicA,topicA-398,172.172.1.1:1883,1551654684472,PRODUCED
Publisher_001,topicA,topicA-399,172.172.1.1:1883,1551654684572,PRODUCED
Publisher_001,topicA,topicA-400,172.172.1.1:1883,1551654684672,PRODUCED
Publisher_001,topicA,topicA-401,172.172.1.1:1883,1551654684777,PRODUCED
Publisher_001,topicA,topicA-402,172.172.1.1:1883,1551654684872,PRODUCED
Publisher_001,topicA,topicA-403,172.172.1.1:1883,1551654684972,PRODUCED
Publisher_001,topicA,topicA-404,172.172.1.1:1883,1551654685072,PRODUCED
Publisher_001,topicA,topicA-405,172.172.1.1:1883,1551654685172,PRODUCED
Publisher_001,topicA,topicA-406,172.172.1.1:1883,1551654685272,PRODUCED
Publisher_001,topicA,topicA-407,172.172.1.1:1883,1551654685372,PRODUCED
Publisher_001,topicA,topicA-408,172.172.1.1:1883,1551654685472,PRODUCED
Publisher_001,topicA,topicA-409,172.172.1.1:1883,1551654685573,PRODUCED
Publisher_001,topicA,topicA-410,172.172.1.1:1883,1551654685674,PRODUCED
Publisher_001,topicA,topicA-411,172.172.1.1:1883,1551654685773,PRODUCED
Publisher_001,topicA,topicA-412,172.172.1.1:1883,1551654685873,PRODUCED
Publisher_001,topicA,topicA-413,172.172.1.1:1883,1551654685973,PRODUCED
Publisher_001,topicA,topicA-414,172.172.1.1:1883,1551654686073,PRODUCED
Publisher_001,topicA,topicA-415,172.172.1.1:1883,1551654686172,PRODUCED
Publisher_001,topicA,topicA-416,172.172.1.1:1883,1551654686272,PRODUCED
Publisher_001,topicA,topicA-417,172.172.1.1:1883,1551654686387,PRODUCED
Publisher_001,topicA,topicA-418,172.172.1.1:1883,1551654686473,PRODUCED
Publisher_001,topicA,topicA-419,172.172.1.1:1883,1551654686573,PRODUCED
Publisher_001,topicA,topicA-420,172.172.1.1:1883,1551654686673,PRODUCED
Publisher_001,topicA,topicA-421,172.172.1.1:1883,1551654686772,PRODUCED
Publisher_001,topicA,topicA-422,172.172.1.1:1883,1551654686873,PRODUCED
Publisher_001,topicA,topicA-423,172.172.1.1:1883,1551654686973,PRODUCED
Publisher_001,topicA,topicA-424,172.172.1.1:1883,1551654687073,PRODUCED
Publisher_001,topicA,topicA-425,172.172.1.1:1883,1551654687172,PRODUCED
Publisher_001,topicA,topicA-426,172.172.1.1:1883,1551654687272,PRODUCED
Publisher_001,topicA,topicA-427,172.172.1.1:1883,1551654687373,PRODUCED
Publisher_001,topicA,topicA-428,172.172.1.1:1883,1551654687473,PRODUCED
Publisher_001,topicA,topicA-429,172.172.1.1:1883,1551654687572,PRODUCED
Publisher_001,topicA,topicA-430,172.172.1.1:1883,1551654687673,PRODUCED
Publisher_001,topicA,topicA-431,172.172.1.1:1883,1551654687780,PRODUCED
Publisher_001,topicA,topicA-432,172.172.1.1:1883,1551654687872,PRODUCED
Publisher_001,topicA,topicA-433,172.172.1.1:1883,1551654687972,PRODUCED
Publisher_001,topicA,topicA-434,172.172.1.1:1883,1551654688072,PRODUCED
Publisher_001,topicA,topicA-435,172.172.1.1:1883,1551654688172,PRODUCED
Publisher_001,topicA,topicA-436,172.172.1.1:1883,1551654688272,PRODUCED
Publisher_001,topicA,topicA-437,172.172.1.1:1883,1551654688372,PRODUCED
Publisher_001,topicA,topicA-438,172.172.1.1:1883,1551654688473,PRODUCED
Publisher_001,topicA,topicA-439,172.172.1.1:1883,1551654688572,PRODUCED
Publisher_001,topicA,topicA-440,172.172.1.1:1883,1551654688673,PRODUCED
Publisher_001,topicA,topicA-441,172.172.1.1:1883,1551654688774,PRODUCED
Publisher_001,topicA,topicA-442,172.172.1.1:1883,1551654688873,PRODUCED
Publisher_001,topicA,topicA-443,172.172.1.1:1883,1551654688973,PRODUCED
Publisher_001,topicA,topicA-444,172.172.1.1:1883,1551654689073,PRODUCED
Publisher_001,topicA,topicA-445,172.172.1.1:1883,1551654689172,PRODUCED
Publisher_001,topicA,topicA-446,172.172.1.1:1883,1551654689272,PRODUCED
Publisher_001,topicA,topicA-447,172.172.1.1:1883,1551654689372,PRODUCED
Publisher_001,topicA,topicA-448,172.172.1.1:1883,1551654689472,PRODUCED
Publisher_001,topicA,topicA-449,172.172.1.1:1883,1551654689575,PRODUCED
Publisher_001,topicA,topicA-450,172.172.1.1:1883,1551654689672,PRODUCED
Publisher_001,topicA,topicA-451,172.172.1.1:1883,1551654689772,PRODUCED
Publisher_001,topicA,topicA-452,172.172.1.1:1883,1551654689872,PRODUCED
Publisher_001,topicA,topicA-453,172.172.1.1:1883,1551654689972,PRODUCED
Publisher_001,topicA,topicA-454,172.172.1.1:1883,1551654690073,PRODUCED
Publisher_001,topicA,topicA-455,172.172.1.1:1883,1551654690172,PRODUCED
Publisher_001,topicA,topicA-456,172.172.1.1:1883,1551654690273,PRODUCED
Publisher_001,topicA,topicA-457,172.172.1.1:1883,1551654690372,PRODUCED
Publisher_001,topicA,topicA-458,172.172.1.1:1883,1551654690473,PRODUCED
Publisher_001,topicA,topicA-459,172.172.1.1:1883,1551654690573,PRODUCED
Publisher_001,topicA,topicA-460,172.172.1.1:1883,1551654690672,PRODUCED
Publisher_001,topicA,topicA-461,172.172.1.1:1883,1551654690772,PRODUCED
Publisher_001,topicA,topicA-462,172.172.1.1:1883,1551654690873,PRODUCED
Publisher_001,topicA,topicA-463,172.172.1.1:1883,1551654690973,PRODUCED
Publisher_001,topicA,topicA-464,172.172.1.1:1883,1551654691072,PRODUCED
Publisher_001,topicA,topicA-465,172.172.1.1:1883,1551654691172,PRODUCED
Publisher_001,topicA,topicA-466,172.172.1.1:1883,1551654691272,PRODUCED
Publisher_001,topicA,topicA-467,172.172.1.1:1883,1551654691373,PRODUCED
Publisher_001,topicA,topicA-468,172.172.1.1:1883,1551654691473,PRODUCED
Publisher_001,topicA,topicA-469,172.172.1.1:1883,1551654691580,PRODUCED
Publisher_001,topicA,topicA-470,172.172.1.1:1883,1551654691672,PRODUCED
Publisher_001,topicA,topicA-471,172.172.1.1:1883,1551654691773,PRODUCED
Publisher_001,topicA,topicA-472,172.172.1.1:1883,1551654691872,PRODUCED
Publisher_001,topicA,topicA-473,172.172.1.1:1883,1551654691972,PRODUCED
Publisher_001,topicA,topicA-474,172.172.1.1:1883,1551654692073,PRODUCED
Publisher_001,topicA,topicA-475,172.172.1.1:1883,1551654692172,PRODUCED
Publisher_001,topicA,topicA-476,172.172.1.1:1883,1551654692272,PRODUCED
Publisher_001,topicA,topicA-477,172.172.1.1:1883,1551654692378,PRODUCED
Publisher_001,topicA,topicA-478,172.172.1.1:1883,1551654692473,PRODUCED
Publisher_001,topicA,topicA-479,172.172.1.1:1883,1551654692573,PRODUCED
Publisher_001,topicA,topicA-480,172.172.1.1:1883,1551654692672,PRODUCED
Publisher_001,topicA,topicA-481,172.172.1.1:1883,1551654692773,PRODUCED
Publisher_001,topicA,topicA-482,172.172.1.1:1883,1551654692872,PRODUCED
Publisher_001,topicA,topicA-483,172.172.1.1:1883,1551654692972,PRODUCED
Publisher_001,topicA,topicA-484,172.172.1.1:1883,1551654693073,PRODUCED
Publisher_001,topicA,topicA-485,172.172.1.1:1883,1551654693174,PRODUCED
Publisher_001,topicA,topicA-486,172.172.1.1:1883,1551654693272,PRODUCED
Publisher_001,topicA,topicA-487,172.172.1.1:1883,1551654693372,PRODUCED
Publisher_001,topicA,topicA-488,172.172.1.1:1883,1551654693473,PRODUCED
Publisher_001,topicA,topicA-489,172.172.1.1:1883,1551654693572,PRODUCED
Publisher_001,topicA,topicA-490,172.172.1.1:1883,1551654693673,PRODUCED
Publisher_001,topicA,topicA-491,172.172.1.1:1883,1551654693772,PRODUCED
Publisher_001,topicA,topicA-492,172.172.1.1:1883,1551654693872,PRODUCED
Publisher_001,topicA,topicA-493,172.172.1.1:1883,1551654693973,PRODUCED
Publisher_001,topicA,topicA-494,172.172.1.1:1883,1551654694073,PRODUCED
Publisher_001,topicA,topicA-495,172.172.1.1:1883,1551654694172,PRODUCED
Publisher_001,topicA,topicA-496,172.172.1.1:1883,1551654694275,PRODUCED
Publisher_001,topicA,topicA-497,172.172.1.1:1883,1551654694372,PRODUCED
Publisher_001,topicA,topicA-498,172.172.1.1:1883,1551654694473,PRODUCED
Publisher_001,topicA,topicA-499,172.172.1.1:1883,1551654694572,PRODUCED
Publisher_001,topicA,topicA-500,172.172.1.1:1883,1551654694672,PRODUCED
Publisher_001,topicA,topicA-501,172.172.1.1:1883,1551654694774,PRODUCED
Publisher_001,topicA,topicA-502,172.172.1.1:1883,1551654694872,PRODUCED
Publisher_001,topicA,topicA-503,172.172.1.1:1883,1551654694972,PRODUCED
Publisher_001,topicA,topicA-504,172.172.1.1:1883,1551654695072,PRODUCED
Publisher_001,topicA,topicA-505,172.172.1.1:1883,1551654695173,PRODUCED
Publisher_001,topicA,topicA-506,172.172.1.1:1883,1551654695272,PRODUCED
Publisher_001,topicA,topicA-507,172.172.1.1:1883,1551654695372,PRODUCED
Publisher_001,topicA,topicA-508,172.172.1.1:1883,1551654695478,PRODUCED
Publisher_001,topicA,topicA-509,172.172.1.1:1883,1551654695572,PRODUCED
Publisher_001,topicA,topicA-510,172.172.1.1:1883,1551654695673,PRODUCED
Publisher_001,topicA,topicA-511,172.172.1.1:1883,1551654695773,PRODUCED
Publisher_001,topicA,topicA-512,172.172.1.1:1883,1551654695876,PRODUCED
Publisher_001,topicA,topicA-513,172.172.1.1:1883,1551654695972,PRODUCED
Publisher_001,topicA,topicA-514,172.172.1.1:1883,1551654696072,PRODUCED
Publisher_001,topicA,topicA-515,172.172.1.1:1883,1551654696172,PRODUCED
Publisher_001,topicA,topicA-516,172.172.1.1:1883,1551654696273,PRODUCED
Publisher_001,topicA,topicA-517,172.172.1.1:1883,1551654696372,PRODUCED
Publisher_001,topicA,topicA-518,172.172.1.1:1883,1551654696473,PRODUCED
Publisher_001,topicA,topicA-519,172.172.1.1:1883,1551654696572,PRODUCED
Publisher_001,topicA,topicA-520,172.172.1.1:1883,1551654696674,PRODUCED
Publisher_001,topicA,topicA-521,172.172.1.1:1883,1551654696772,PRODUCED
Publisher_001,topicA,topicA-522,172.172.1.1:1883,1551654696874,PRODUCED
Publisher_001,topicA,topicA-523,172.172.1.1:1883,1551654696973,PRODUCED
Publisher_001,topicA,topicA-524,172.172.1.1:1883,1551654697072,PRODUCED
Publisher_001,topicA,topicA-525,172.172.1.1:1883,1551654697172,PRODUCED
Publisher_001,topicA,topicA-526,172.172.1.1:1883,1551654697272,PRODUCED
Publisher_001,topicA,topicA-527,172.172.1.1:1883,1551654697372,PRODUCED
Publisher_001,topicA,topicA-528,172.172.1.1:1883,1551654697472,PRODUCED
Publisher_001,topicA,topicA-529,172.172.1.1:1883,1551654697572,PRODUCED
Publisher_001,topicA,topicA-530,172.172.1.1:1883,1551654697672,PRODUCED
Publisher_001,topicA,topicA-531,172.172.1.1:1883,1551654697772,PRODUCED
Publisher_001,topicA,topicA-532,172.172.1.1:1883,1551654697873,PRODUCED
Publisher_001,topicA,topicA-533,172.172.1.1:1883,1551654697973,PRODUCED
Publisher_001,topicA,topicA-534,172.172.1.1:1883,1551654698073,PRODUCED
Publisher_001,topicA,topicA-535,172.172.1.1:1883,1551654698172,PRODUCED
Publisher_001,topicA,topicA-536,172.172.1.1:1883,1551654698272,PRODUCED
Publisher_001,topicA,topicA-537,172.172.1.1:1883,1551654698372,PRODUCED
Publisher_001,topicA,topicA-538,172.172.1.1:1883,1551654698473,PRODUCED
Publisher_001,topicA,topicA-539,172.172.1.1:1883,1551654698572,PRODUCED
Publisher_001,topicA,topicA-540,172.172.1.1:1883,1551654698674,PRODUCED
Publisher_001,topicA,topicA-541,172.172.1.1:1883,1551654698772,PRODUCED
Publisher_001,topicA,topicA-542,172.172.1.1:1883,1551654698872,PRODUCED
Publisher_001,topicA,topicA-543,172.172.1.1:1883,1551654698972,PRODUCED
Publisher_001,topicA,topicA-544,172.172.1.1:1883,1551654699072,PRODUCED
Publisher_001,topicA,topicA-545,172.172.1.1:1883,1551654699172,PRODUCED
Publisher_001,topicA,topicA-546,172.172.1.1:1883,1551654699272,PRODUCED
Publisher_001,topicA,topicA-547,172.172.1.1:1883,1551654699373,PRODUCED
Publisher_001,topicA,topicA-548,172.172.1.1:1883,1551654699472,PRODUCED
Publisher_001,topicA,topicA-549,172.172.1.1:1883,1551654699573,PRODUCED
Publisher_001,topicA,topicA-550,172.172.1.1:1883,1551654699672,PRODUCED
Publisher_001,topicA,topicA-551,172.172.1.1:1883,1551654699772,PRODUCED
Publisher_001,topicA,topicA-552,172.172.1.1:1883,1551654699872,PRODUCED
Publisher_001,topicA,topicA-553,172.172.1.1:1883,1551654699972,PRODUCED
Publisher_001,topicA,topicA-554,172.172.1.1:1883,1551654700073,PRODUCED
Publisher_001,topicA,topicA-555,172.172.1.1:1883,1551654700174,PRODUCED
Publisher_001,topicA,topicA-556,172.172.1.1:1883,1551654700272,PRODUCED
Publisher_001,topicA,topicA-557,172.172.1.1:1883,1551654700377,PRODUCED
Publisher_001,topicA,topicA-558,172.172.1.1:1883,1551654700472,PRODUCED
Publisher_001,topicA,topicA-559,172.172.1.1:1883,1551654700572,PRODUCED
Publisher_001,topicA,topicA-560,172.172.1.1:1883,1551654700672,PRODUCED
Publisher_001,topicA,topicA-561,172.172.1.1:1883,1551654700772,PRODUCED
Publisher_001,topicA,topicA-562,172.172.1.1:1883,1551654700872,PRODUCED
Publisher_001,topicA,topicA-563,172.172.1.1:1883,1551654700972,PRODUCED
Publisher_001,topicA,topicA-564,172.172.1.1:1883,1551654701073,PRODUCED
Publisher_001,topicA,topicA-565,172.172.1.1:1883,1551654701172,PRODUCED
Publisher_001,topicA,topicA-566,172.172.1.1:1883,1551654701272,PRODUCED
Publisher_001,topicA,topicA-567,172.172.1.1:1883,1551654701373,PRODUCED
Publisher_001,topicA,topicA-568,172.172.1.1:1883,1551654701472,PRODUCED
Publisher_001,topicA,topicA-569,172.172.1.1:1883,1551654701573,PRODUCED
Publisher_001,topicA,topicA-570,172.172.1.1:1883,1551654701672,PRODUCED
Publisher_001,topicA,topicA-571,172.172.1.1:1883,1551654701773,PRODUCED
Publisher_001,topicA,topicA-572,172.172.1.1:1883,1551654701872,PRODUCED
Publisher_001,topicA,topicA-573,172.172.1.1:1883,1551654701972,PRODUCED
Publisher_001,topicA,topicA-574,172.172.1.1:1883,1551654702072,PRODUCED
Publisher_001,topicA,topicA-575,172.172.1.1:1883,1551654702174,PRODUCED
Publisher_001,topicA,topicA-576,172.172.1.1:1883,1551654702272,PRODUCED
Publisher_001,topicA,topicA-577,172.172.1.1:1883,1551654702373,PRODUCED
Publisher_001,topicA,topicA-578,172.172.1.1:1883,1551654702472,PRODUCED
Publisher_001,topicA,topicA-579,172.172.1.1:1883,1551654702572,PRODUCED
Publisher_001,topicA,topicA-580,172.172.1.1:1883,1551654702672,PRODUCED
Publisher_001,topicA,topicA-581,172.172.1.1:1883,1551654702772,PRODUCED
Publisher_001,topicA,topicA-582,172.172.1.1:1883,1551654702872,PRODUCED
Publisher_001,topicA,topicA-583,172.172.1.1:1883,1551654702972,PRODUCED
Publisher_001,topicA,topicA-584,172.172.1.1:1883,1551654703073,PRODUCED
Publisher_001,topicA,topicA-585,172.172.1.1:1883,1551654703172,PRODUCED
Publisher_001,topicA,topicA-586,172.172.1.1:1883,1551654703272,PRODUCED
Publisher_001,topicA,topicA-587,172.172.1.1:1883,1551654703373,PRODUCED
Publisher_001,topicA,topicA-588,172.172.1.1:1883,1551654703472,PRODUCED
Publisher_001,topicA,topicA-589,172.172.1.1:1883,1551654703572,PRODUCED
Publisher_001,topicA,topicA-590,172.172.1.1:1883,1551654703673,PRODUCED
Publisher_001,topicA,topicA-591,172.172.1.1:1883,1551654703772,PRODUCED
Publisher_001,topicA,topicA-592,172.172.1.1:1883,1551654703872,PRODUCED
Publisher_001,topicA,topicA-593,172.172.1.1:1883,1551654703972,PRODUCED
Publisher_001,topicA,topicA-594,172.172.1.1:1883,1551654704073,PRODUCED
Publisher_001,topicA,topicA-595,172.172.1.1:1883,1551654704172,PRODUCED
Publisher_001,topicA,topicA-596,172.172.1.1:1883,1551654704277,PRODUCED
Publisher_001,topicA,topicA-597,172.172.1.1:1883,1551654704373,PRODUCED
Publisher_001,topicA,topicA-598,172.172.1.1:1883,1551654704472,PRODUCED
Publisher_001,topicA,topicA-599,172.172.1.1:1883,1551654704572,PRODUCED
Publisher_001,topicA,topicA-600,172.172.1.1:1883,1551654704672,PRODUCED
Publisher_001,topicA,topicA-601,172.172.1.1:1883,1551654704772,PRODUCED
Publisher_001,topicA,topicA-602,172.172.1.1:1883,1551654704872,PRODUCED
Publisher_001,topicA,topicA-603,172.172.1.1:1883,1551654704972,PRODUCED
Publisher_001,topicA,topicA-604,172.172.1.1:1883,1551654705073,PRODUCED
Publisher_001,topicA,topicA-605,172.172.1.1:1883,1551654705172,PRODUCED
Publisher_001,topicA,topicA-606,172.172.1.1:1883,1551654705273,PRODUCED
Publisher_001,topicA,topicA-607,172.172.1.1:1883,1551654705377,PRODUCED
Publisher_001,topicA,topicA-608,172.172.1.1:1883,1551654705472,PRODUCED
Publisher_001,topicA,topicA-609,172.172.1.1:1883,1551654705572,PRODUCED
Publisher_001,topicA,topicA-610,172.172.1.1:1883,1551654705672,PRODUCED
Publisher_001,topicA,topicA-611,172.172.1.1:1883,1551654705773,PRODUCED
Publisher_001,topicA,topicA-612,172.172.1.1:1883,1551654705872,PRODUCED
Publisher_001,topicA,topicA-613,172.172.1.1:1883,1551654705975,PRODUCED
Publisher_001,topicA,topicA-614,172.172.1.1:1883,1551654706075,PRODUCED
Publisher_001,topicA,topicA-615,172.172.1.1:1883,1551654706172,PRODUCED
Publisher_001,topicA,topicA-616,172.172.1.1:1883,1551654706272,PRODUCED
Publisher_001,topicA,topicA-617,172.172.1.1:1883,1551654706372,PRODUCED
Publisher_001,topicA,topicA-618,172.172.1.1:1883,1551654706472,PRODUCED
Publisher_001,topicA,topicA-619,172.172.1.1:1883,1551654706578,PRODUCED
Publisher_001,topicA,topicA-620,172.172.1.1:1883,1551654706672,PRODUCED
Publisher_001,topicA,topicA-621,172.172.1.1:1883,1551654706773,PRODUCED
Publisher_001,topicA,topicA-622,172.172.1.1:1883,1551654706872,PRODUCED
Publisher_001,topicA,topicA-623,172.172.1.1:1883,1551654706972,PRODUCED
Publisher_001,topicA,topicA-624,172.172.1.1:1883,1551654707072,PRODUCED
Publisher_001,topicA,topicA-625,172.172.1.1:1883,1551654707172,PRODUCED
Publisher_001,topicA,topicA-626,172.172.1.1:1883,1551654707272,PRODUCED
Publisher_001,topicA,topicA-627,172.172.1.1:1883,1551654707372,PRODUCED
Publisher_001,topicA,topicA-628,172.172.1.1:1883,1551654707475,PRODUCED
Publisher_001,topicA,topicA-629,172.172.1.1:1883,1551654707575,PRODUCED
Publisher_001,topicA,topicA-630,172.172.1.1:1883,1551654707672,PRODUCED
Publisher_001,topicA,topicA-631,172.172.1.1:1883,1551654707773,PRODUCED
Publisher_001,topicA,topicA-632,172.172.1.1:1883,1551654707872,PRODUCED
Publisher_001,topicA,topicA-633,172.172.1.1:1883,1551654707972,PRODUCED
Publisher_001,topicA,topicA-634,172.172.1.1:1883,1551654708073,PRODUCED
Publisher_001,topicA,topicA-635,172.172.1.1:1883,1551654708172,PRODUCED
Publisher_001,topicA,topicA-636,172.172.1.1:1883,1551654708273,PRODUCED
Publisher_001,topicA,topicA-637,172.172.1.1:1883,1551654708372,PRODUCED
Publisher_001,topicA,topicA-638,172.172.1.1:1883,1551654708472,PRODUCED
Publisher_001,topicA,topicA-639,172.172.1.1:1883,1551654708572,PRODUCED
Publisher_001,topicA,topicA-640,172.172.1.1:1883,1551654708672,PRODUCED
Publisher_001,topicA,topicA-641,172.172.1.1:1883,1551654708773,PRODUCED
Publisher_001,topicA,topicA-642,172.172.1.1:1883,1551654708872,PRODUCED
Publisher_001,topicA,topicA-643,172.172.1.1:1883,1551654708975,PRODUCED
Publisher_001,topicA,topicA-644,172.172.1.1:1883,1551654709072,PRODUCED
Publisher_001,topicA,topicA-645,172.172.1.1:1883,1551654709172,PRODUCED
Publisher_001,topicA,topicA-646,172.172.1.1:1883,1551654709277,PRODUCED
Publisher_001,topicA,topicA-647,172.172.1.1:1883,1551654709372,PRODUCED
Publisher_001,topicA,topicA-648,172.172.1.1:1883,1551654709472,PRODUCED
Publisher_001,topicA,topicA-649,172.172.1.1:1883,1551654709573,PRODUCED
Publisher_001,topicA,topicA-650,172.172.1.1:1883,1551654709672,PRODUCED
Publisher_001,topicA,topicA-651,172.172.1.1:1883,1551654709773,PRODUCED
Publisher_001,topicA,topicA-652,172.172.1.1:1883,1551654709872,PRODUCED
Publisher_001,topicA,topicA-653,172.172.1.1:1883,1551654709974,PRODUCED
Publisher_001,topicA,topicA-654,172.172.1.1:1883,1551654710072,PRODUCED
Publisher_001,topicA,topicA-655,172.172.1.1:1883,1551654710174,PRODUCED
Publisher_001,topicA,topicA-656,172.172.1.1:1883,1551654710272,PRODUCED
Publisher_001,topicA,topicA-657,172.172.1.1:1883,1551654710372,PRODUCED
Publisher_001,topicA,topicA-658,172.172.1.1:1883,1551654710473,PRODUCED
Publisher_001,topicA,topicA-659,172.172.1.1:1883,1551654710575,PRODUCED
Publisher_001,topicA,topicA-660,172.172.1.1:1883,1551654710672,PRODUCED
Publisher_001,topicA,topicA-661,172.172.1.1:1883,1551654710772,PRODUCED
Publisher_001,topicA,topicA-662,172.172.1.1:1883,1551654710872,PRODUCED
Publisher_001,topicA,topicA-663,172.172.1.1:1883,1551654710972,PRODUCED
