[1] "Duration B1: 530"
[1] "Duration B2: 226"
[1] "Duration MIGRATE: 274"
[1] "Duration MIGACK: 30"
[1] "addrow"
[1] "INITIALIZED"
  timestamp       event                          migrationId
1         0 INITIALIZED e6927169-3077-4654-a36f-443004c4eb73
[1] "addrow"
[1] "SYNCING"
[1] "addrow"
[1] "SYNCED"
[1] "addrow"
[1] "FINISHED"
  timestamp    event                          migrationId
5       530 FINISHED e6927169-3077-4654-a36f-443004c4eb73
[1] "addrow"
[1] "topicA-INITIALIZED"
  timestamp              event                          migrationId
2         3 topicA-INITIALIZED e6927169-3077-4654-a36f-443004c4eb73
[1] "addrow"
[1] "topicA-SYNCING"
[1] "addrow"
[1] "topicA-SYNCED"
  timestamp         event                          migrationId
3        10 topicA-SYNCED e6927169-3077-4654-a36f-443004c4eb73
[1] "addrow"
[1] "topicA-FINISHED"
  timestamp           event                          migrationId
4       529 topicA-FINISHED e6927169-3077-4654-a36f-443004c4eb73
