clientId,topic,guid,broker,timestamp,type
Publisher_001,topicA,topicA-1,172.172.1.1:1883,1551649367340,PRODUCED
Publisher_001,topicA,topicA-2,172.172.1.1:1883,1551649367573,PRODUCED
Publisher_001,topicA,topicA-3,172.172.1.1:1883,1551649367587,PRODUCED
Publisher_001,topicA,topicA-4,172.172.1.1:1883,1551649367593,PRODUCED
Publisher_001,topicA,topicA-5,172.172.1.1:1883,1551649367599,PRODUCED
Publisher_001,topicA,topicA-6,172.172.1.1:1883,1551649367648,PRODUCED
Publisher_001,topicA,topicA-7,172.172.1.1:1883,1551649367748,PRODUCED
Publisher_001,topicA,topicA-8,172.172.1.1:1883,1551649367849,PRODUCED
Publisher_001,topicA,topicA-9,172.172.1.1:1883,1551649367948,PRODUCED
Publisher_001,topicA,topicA-10,172.172.1.1:1883,1551649368049,PRODUCED
Publisher_001,topicA,topicA-11,172.172.1.1:1883,1551649368153,PRODUCED
Publisher_001,topicA,topicA-12,172.172.1.1:1883,1551649368249,PRODUCED
Publisher_001,topicA,topicA-13,172.172.1.1:1883,1551649368348,PRODUCED
Publisher_001,topicA,topicA-14,172.172.1.1:1883,1551649368449,PRODUCED
Publisher_001,topicA,topicA-15,172.172.1.1:1883,1551649368551,PRODUCED
Publisher_001,topicA,topicA-16,172.172.1.1:1883,1551649368649,PRODUCED
Publisher_001,topicA,topicA-17,172.172.1.1:1883,1551649368752,PRODUCED
Publisher_001,topicA,topicA-18,172.172.1.1:1883,1551649368849,PRODUCED
Publisher_001,topicA,topicA-19,172.172.1.1:1883,1551649368948,PRODUCED
Publisher_001,topicA,topicA-20,172.172.1.1:1883,1551649369049,PRODUCED
Publisher_001,topicA,topicA-21,172.172.1.1:1883,1551649369154,PRODUCED
Publisher_001,topicA,topicA-22,172.172.1.1:1883,1551649369250,PRODUCED
Publisher_001,topicA,topicA-23,172.172.1.1:1883,1551649369348,PRODUCED
Publisher_001,topicA,topicA-24,172.172.1.1:1883,1551649369448,PRODUCED
Publisher_001,topicA,topicA-25,172.172.1.1:1883,1551649369549,PRODUCED
Publisher_001,topicA,topicA-26,172.172.1.1:1883,1551649369648,PRODUCED
Publisher_001,topicA,topicA-27,172.172.1.1:1883,1551649369748,PRODUCED
Publisher_001,topicA,topicA-28,172.172.1.1:1883,1551649369848,PRODUCED
Publisher_001,topicA,topicA-29,172.172.1.1:1883,1551649369948,PRODUCED
Publisher_001,topicA,topicA-30,172.172.1.1:1883,1551649370048,PRODUCED
Publisher_001,topicA,topicA-31,172.172.1.1:1883,1551649370148,PRODUCED
Publisher_001,topicA,topicA-32,172.172.1.1:1883,1551649370248,PRODUCED
Publisher_001,topicA,topicA-33,172.172.1.1:1883,1551649370348,PRODUCED
Publisher_001,topicA,topicA-34,172.172.1.1:1883,1551649370448,PRODUCED
Publisher_001,topicA,topicA-35,172.172.1.1:1883,1551649370549,PRODUCED
Publisher_001,topicA,topicA-36,172.172.1.1:1883,1551649370648,PRODUCED
Publisher_001,topicA,topicA-37,172.172.1.1:1883,1551649370748,PRODUCED
Publisher_001,topicA,topicA-38,172.172.1.1:1883,1551649370848,PRODUCED
Publisher_001,topicA,topicA-39,172.172.1.1:1883,1551649370949,PRODUCED
Publisher_001,topicA,topicA-40,172.172.1.1:1883,1551649371048,PRODUCED
Publisher_001,topicA,topicA-41,172.172.1.1:1883,1551649371148,PRODUCED
Publisher_001,topicA,topicA-42,172.172.1.1:1883,1551649371253,PRODUCED
Publisher_001,topicA,topicA-43,172.172.1.1:1883,1551649371349,PRODUCED
Publisher_001,topicA,topicA-44,172.172.1.1:1883,1551649371450,PRODUCED
Publisher_001,topicA,topicA-45,172.172.1.1:1883,1551649371554,PRODUCED
Publisher_001,topicA,topicA-46,172.172.1.1:1883,1551649371655,PRODUCED
Publisher_001,topicA,topicA-47,172.172.1.1:1883,1551649371749,PRODUCED
Publisher_001,topicA,topicA-48,172.172.1.1:1883,1551649371849,PRODUCED
Publisher_001,topicA,topicA-49,172.172.1.1:1883,1551649371948,PRODUCED
Publisher_001,topicA,topicA-50,172.172.1.1:1883,1551649372048,PRODUCED
Publisher_001,topicA,topicA-51,172.172.1.1:1883,1551649372148,PRODUCED
Publisher_001,topicA,topicA-52,172.172.1.1:1883,1551649372249,PRODUCED
Publisher_001,topicA,topicA-53,172.172.1.1:1883,1551649372351,PRODUCED
Publisher_001,topicA,topicA-54,172.172.1.1:1883,1551649372449,PRODUCED
Publisher_001,topicA,topicA-55,172.172.1.1:1883,1551649372549,PRODUCED
Publisher_001,topicA,topicA-56,172.172.1.1:1883,1551649372649,PRODUCED
Publisher_001,topicA,topicA-57,172.172.1.1:1883,1551649372750,PRODUCED
Publisher_001,topicA,topicA-58,172.172.1.1:1883,1551649372849,PRODUCED
Publisher_001,topicA,topicA-59,172.172.1.1:1883,1551649372948,PRODUCED
Publisher_001,topicA,topicA-60,172.172.1.1:1883,1551649373048,PRODUCED
Publisher_001,topicA,topicA-61,172.172.1.1:1883,1551649373150,PRODUCED
Publisher_001,topicA,topicA-62,172.172.1.1:1883,1551649373250,PRODUCED
Publisher_001,topicA,topicA-63,172.172.1.1:1883,1551649373349,PRODUCED
Publisher_001,topicA,topicA-64,172.172.1.1:1883,1551649373453,PRODUCED
Publisher_001,topicA,topicA-65,172.172.1.1:1883,1551649373549,PRODUCED
Publisher_001,topicA,topicA-66,172.172.1.1:1883,1551649373653,PRODUCED
Publisher_001,topicA,topicA-67,172.172.1.1:1883,1551649373755,PRODUCED
Publisher_001,topicA,topicA-68,172.172.1.1:1883,1551649373852,PRODUCED
Publisher_001,topicA,topicA-69,172.172.1.1:1883,1551649373949,PRODUCED
Publisher_001,topicA,topicA-70,172.172.1.1:1883,1551649374050,PRODUCED
Publisher_001,topicA,topicA-71,172.172.1.1:1883,1551649374149,PRODUCED
Publisher_001,topicA,topicA-72,172.172.1.1:1883,1551649374248,PRODUCED
Publisher_001,topicA,topicA-73,172.172.1.1:1883,1551649374348,PRODUCED
Publisher_001,topicA,topicA-74,172.172.1.1:1883,1551649374448,PRODUCED
Publisher_001,topicA,topicA-75,172.172.1.1:1883,1551649374549,PRODUCED
Publisher_001,topicA,topicA-76,172.172.1.1:1883,1551649374648,PRODUCED
Publisher_001,topicA,topicA-77,172.172.1.1:1883,1551649374749,PRODUCED
Publisher_001,topicA,topicA-78,172.172.1.1:1883,1551649374850,PRODUCED
Publisher_001,topicA,topicA-79,172.172.1.1:1883,1551649374951,PRODUCED
Publisher_001,topicA,topicA-80,172.172.1.1:1883,1551649375050,PRODUCED
Publisher_001,topicA,topicA-81,172.172.1.1:1883,1551649375148,PRODUCED
Publisher_001,topicA,topicA-82,172.172.1.1:1883,1551649375250,PRODUCED
Publisher_001,topicA,topicA-83,172.172.1.1:1883,1551649375348,PRODUCED
Publisher_001,topicA,topicA-84,172.172.1.1:1883,1551649375449,PRODUCED
Publisher_001,topicA,topicA-85,172.172.1.1:1883,1551649375556,PRODUCED
Publisher_001,topicA,topicA-86,172.172.1.1:1883,1551649375648,PRODUCED
Publisher_001,topicA,topicA-87,172.172.1.1:1883,1551649375748,PRODUCED
Publisher_001,topicA,topicA-88,172.172.1.1:1883,1551649375848,PRODUCED
Publisher_001,topicA,topicA-89,172.172.1.1:1883,1551649375949,PRODUCED
Publisher_001,topicA,topicA-90,172.172.1.1:1883,1551649376048,PRODUCED
Publisher_001,topicA,topicA-91,172.172.1.1:1883,1551649376148,PRODUCED
Publisher_001,topicA,topicA-92,172.172.1.1:1883,1551649376251,PRODUCED
Publisher_001,topicA,topicA-93,172.172.1.1:1883,1551649376348,PRODUCED
Publisher_001,topicA,topicA-94,172.172.1.1:1883,1551649376448,PRODUCED
Publisher_001,topicA,topicA-95,172.172.1.1:1883,1551649376549,PRODUCED
Publisher_001,topicA,topicA-96,172.172.1.1:1883,1551649376649,PRODUCED
Publisher_001,topicA,topicA-97,172.172.1.1:1883,1551649376748,PRODUCED
Publisher_001,topicA,topicA-98,172.172.1.1:1883,1551649376848,PRODUCED
Publisher_001,topicA,topicA-99,172.172.1.1:1883,1551649376948,PRODUCED
Publisher_001,topicA,topicA-100,172.172.1.1:1883,1551649377049,PRODUCED
Publisher_001,topicA,topicA-101,172.172.1.1:1883,1551649377149,PRODUCED
Publisher_001,topicA,topicA-102,172.172.1.1:1883,1551649377253,PRODUCED
Publisher_001,topicA,topicA-103,172.172.1.1:1883,1551649377348,PRODUCED
Publisher_001,topicA,topicA-104,172.172.1.1:1883,1551649377448,PRODUCED
Publisher_001,topicA,topicA-105,172.172.1.1:1883,1551649377548,PRODUCED
Publisher_001,topicA,topicA-106,172.172.1.1:1883,1551649377648,PRODUCED
Publisher_001,topicA,topicA-107,172.172.1.1:1883,1551649377749,PRODUCED
Publisher_001,topicA,topicA-108,172.172.1.1:1883,1551649377849,PRODUCED
Publisher_001,topicA,topicA-109,172.172.1.1:1883,1551649377949,PRODUCED
Publisher_001,topicA,topicA-110,172.172.1.1:1883,1551649378049,PRODUCED
Publisher_001,topicA,topicA-111,172.172.1.1:1883,1551649378150,PRODUCED
Publisher_001,topicA,topicA-112,172.172.1.1:1883,1551649378248,PRODUCED
Publisher_001,topicA,topicA-113,172.172.1.1:1883,1551649378349,PRODUCED
Publisher_001,topicA,topicA-114,172.172.1.1:1883,1551649378448,PRODUCED
Publisher_001,topicA,topicA-115,172.172.1.1:1883,1551649378548,PRODUCED
Publisher_001,topicA,topicA-116,172.172.1.1:1883,1551649378649,PRODUCED
Publisher_001,topicA,topicA-117,172.172.1.1:1883,1551649378749,PRODUCED
Publisher_001,topicA,topicA-118,172.172.1.1:1883,1551649378848,PRODUCED
Publisher_001,topicA,topicA-119,172.172.1.1:1883,1551649378948,PRODUCED
Publisher_001,topicA,topicA-120,172.172.1.1:1883,1551649379050,PRODUCED
Publisher_001,topicA,topicA-121,172.172.1.1:1883,1551649379154,PRODUCED
Publisher_001,topicA,topicA-122,172.172.1.1:1883,1551649379249,PRODUCED
Publisher_001,topicA,topicA-123,172.172.1.1:1883,1551649379349,PRODUCED
Publisher_001,topicA,topicA-124,172.172.1.1:1883,1551649379448,PRODUCED
Publisher_001,topicA,topicA-125,172.172.1.1:1883,1551649379549,PRODUCED
Publisher_001,topicA,topicA-126,172.172.1.1:1883,1551649379649,PRODUCED
Publisher_001,topicA,topicA-127,172.172.1.1:1883,1551649379748,PRODUCED
Publisher_001,topicA,topicA-128,172.172.1.1:1883,1551649379849,PRODUCED
Publisher_001,topicA,topicA-129,172.172.1.1:1883,1551649379949,PRODUCED
Publisher_001,topicA,topicA-130,172.172.1.1:1883,1551649380049,PRODUCED
Publisher_001,topicA,topicA-131,172.172.1.1:1883,1551649380154,PRODUCED
Publisher_001,topicA,topicA-132,172.172.1.1:1883,1551649380248,PRODUCED
Publisher_001,topicA,topicA-133,172.172.1.1:1883,1551649380353,PRODUCED
Publisher_001,topicA,topicA-134,172.172.1.1:1883,1551649380448,PRODUCED
Publisher_001,topicA,topicA-135,172.172.1.1:1883,1551649380548,PRODUCED
Publisher_001,topicA,topicA-136,172.172.1.1:1883,1551649380649,PRODUCED
Publisher_001,topicA,topicA-137,172.172.1.1:1883,1551649380748,PRODUCED
Publisher_001,topicA,topicA-138,172.172.1.1:1883,1551649380854,PRODUCED
Publisher_001,topicA,topicA-139,172.172.1.1:1883,1551649380955,PRODUCED
Publisher_001,topicA,topicA-140,172.172.1.1:1883,1551649381051,PRODUCED
Publisher_001,topicA,topicA-141,172.172.1.1:1883,1551649381149,PRODUCED
Publisher_001,topicA,topicA-142,172.172.1.1:1883,1551649381254,PRODUCED
Publisher_001,topicA,topicA-143,172.172.1.1:1883,1551649381348,PRODUCED
Publisher_001,topicA,topicA-144,172.172.1.1:1883,1551649381448,PRODUCED
Publisher_001,topicA,topicA-145,172.172.1.1:1883,1551649381548,PRODUCED
Publisher_001,topicA,topicA-146,172.172.1.1:1883,1551649381654,PRODUCED
Publisher_001,topicA,topicA-147,172.172.1.1:1883,1551649381748,PRODUCED
Publisher_001,topicA,topicA-148,172.172.1.1:1883,1551649381848,PRODUCED
Publisher_001,topicA,topicA-149,172.172.1.1:1883,1551649381952,PRODUCED
Publisher_001,topicA,topicA-150,172.172.1.1:1883,1551649382048,PRODUCED
Publisher_001,topicA,topicA-151,172.172.1.1:1883,1551649382148,PRODUCED
Publisher_001,topicA,topicA-152,172.172.1.1:1883,1551649382248,PRODUCED
Publisher_001,topicA,topicA-153,172.172.1.1:1883,1551649382351,PRODUCED
Publisher_001,topicA,topicA-154,172.172.1.1:1883,1551649382454,PRODUCED
Publisher_001,topicA,topicA-155,172.172.1.1:1883,1551649382552,PRODUCED
Publisher_001,topicA,topicA-156,172.172.1.1:1883,1551649382648,PRODUCED
Publisher_001,topicA,topicA-157,172.172.1.1:1883,1551649382750,PRODUCED
Publisher_001,topicA,topicA-158,172.172.1.1:1883,1551649382848,PRODUCED
Publisher_001,topicA,topicA-159,172.172.1.1:1883,1551649382948,PRODUCED
Publisher_001,topicA,topicA-160,172.172.1.1:1883,1551649383055,PRODUCED
Publisher_001,topicA,topicA-161,172.172.1.1:1883,1551649383148,PRODUCED
Publisher_001,topicA,topicA-162,172.172.1.1:1883,1551649383248,PRODUCED
Publisher_001,topicA,topicA-163,172.172.1.1:1883,1551649383348,PRODUCED
Publisher_001,topicA,topicA-164,172.172.1.1:1883,1551649383448,PRODUCED
Publisher_001,topicA,topicA-165,172.172.1.1:1883,1551649383548,PRODUCED
Publisher_001,topicA,topicA-166,172.172.1.1:1883,1551649383648,PRODUCED
Publisher_001,topicA,topicA-167,172.172.1.1:1883,1551649383748,PRODUCED
Publisher_001,topicA,topicA-168,172.172.1.1:1883,1551649383848,PRODUCED
Publisher_001,topicA,topicA-169,172.172.1.1:1883,1551649383948,PRODUCED
Publisher_001,topicA,topicA-170,172.172.1.1:1883,1551649384049,PRODUCED
Publisher_001,topicA,topicA-171,172.172.1.1:1883,1551649384149,PRODUCED
Publisher_001,topicA,topicA-172,172.172.1.1:1883,1551649384248,PRODUCED
Publisher_001,topicA,topicA-173,172.172.1.1:1883,1551649384350,PRODUCED
Publisher_001,topicA,topicA-174,172.172.1.1:1883,1551649384451,PRODUCED
Publisher_001,topicA,topicA-175,172.172.1.1:1883,1551649384549,PRODUCED
Publisher_001,topicA,topicA-176,172.172.1.1:1883,1551649384652,PRODUCED
Publisher_001,topicA,topicA-177,172.172.1.1:1883,1551649384754,PRODUCED
Publisher_001,topicA,topicA-178,172.172.1.1:1883,1551649384851,PRODUCED
Publisher_001,topicA,topicA-179,172.172.1.1:1883,1551649384951,PRODUCED
Publisher_001,topicA,topicA-180,172.172.1.1:1883,1551649385050,PRODUCED
Publisher_001,topicA,topicA-181,172.172.1.1:1883,1551649385148,PRODUCED
Publisher_001,topicA,topicA-182,172.172.1.1:1883,1551649385248,PRODUCED
Publisher_001,topicA,topicA-183,172.172.1.1:1883,1551649385348,PRODUCED
Publisher_001,topicA,topicA-184,172.172.1.1:1883,1551649385451,PRODUCED
Publisher_001,topicA,topicA-185,172.172.1.1:1883,1551649385548,PRODUCED
Publisher_001,topicA,topicA-186,172.172.1.1:1883,1551649385648,PRODUCED
Publisher_001,topicA,topicA-187,172.172.1.1:1883,1551649385748,PRODUCED
Publisher_001,topicA,topicA-188,172.172.1.1:1883,1551649385849,PRODUCED
Publisher_001,topicA,topicA-189,172.172.1.1:1883,1551649385948,PRODUCED
Publisher_001,topicA,topicA-190,172.172.1.1:1883,1551649386048,PRODUCED
Publisher_001,topicA,topicA-191,172.172.1.1:1883,1551649386148,PRODUCED
Publisher_001,topicA,topicA-192,172.172.1.1:1883,1551649386252,PRODUCED
Publisher_001,topicA,topicA-193,172.172.1.1:1883,1551649386350,PRODUCED
Publisher_001,topicA,topicA-194,172.172.1.1:1883,1551649386455,PRODUCED
Publisher_001,topicA,topicA-195,172.172.1.1:1883,1551649386548,PRODUCED
Publisher_001,topicA,topicA-196,172.172.1.1:1883,1551649386648,PRODUCED
Publisher_001,topicA,topicA-197,172.172.1.1:1883,1551649386748,PRODUCED
Publisher_001,topicA,topicA-198,172.172.1.1:1883,1551649386852,PRODUCED
Publisher_001,topicA,topicA-199,172.172.1.1:1883,1551649386954,PRODUCED
Publisher_001,topicA,topicA-200,172.172.1.1:1883,1551649387048,PRODUCED
Publisher_001,topicA,topicA-201,172.172.1.1:1883,1551649387152,PRODUCED
Publisher_001,topicA,topicA-202,172.172.1.1:1883,1551649387248,PRODUCED
Publisher_001,topicA,topicA-203,172.172.1.1:1883,1551649387348,PRODUCED
Publisher_001,topicA,topicA-204,172.172.1.1:1883,1551649387449,PRODUCED
Publisher_001,topicA,topicA-205,172.172.1.1:1883,1551649387548,PRODUCED
Publisher_001,topicA,topicA-206,172.172.1.1:1883,1551649387648,PRODUCED
Publisher_001,topicA,topicA-207,172.172.1.1:1883,1551649387750,PRODUCED
Publisher_001,topicA,topicA-208,172.172.1.1:1883,1551649387848,PRODUCED
Publisher_001,topicA,topicA-209,172.172.1.1:1883,1551649387948,PRODUCED
Publisher_001,topicA,topicA-210,172.172.1.1:1883,1551649388048,PRODUCED
Publisher_001,topicA,topicA-211,172.172.1.1:1883,1551649388148,PRODUCED
Publisher_001,topicA,topicA-212,172.172.1.1:1883,1551649388250,PRODUCED
Publisher_001,topicA,topicA-213,172.172.1.1:1883,1551649388348,PRODUCED
Publisher_001,topicA,topicA-214,172.172.1.1:1883,1551649388451,PRODUCED
Publisher_001,topicA,topicA-215,172.172.1.1:1883,1551649388548,PRODUCED
Publisher_001,topicA,topicA-216,172.172.1.1:1883,1551649388648,PRODUCED
Publisher_001,topicA,topicA-217,172.172.1.1:1883,1551649388748,PRODUCED
Publisher_001,topicA,topicA-218,172.172.1.1:1883,1551649388849,PRODUCED
Publisher_001,topicA,topicA-219,172.172.1.1:1883,1551649388948,PRODUCED
Publisher_001,topicA,topicA-220,172.172.1.1:1883,1551649389048,PRODUCED
Publisher_001,topicA,topicA-221,172.172.1.1:1883,1551649389148,PRODUCED
Publisher_001,topicA,topicA-222,172.172.1.1:1883,1551649389248,PRODUCED
Publisher_001,topicA,topicA-223,172.172.1.1:1883,1551649389348,PRODUCED
Publisher_001,topicA,topicA-224,172.172.1.1:1883,1551649389449,PRODUCED
Publisher_001,topicA,topicA-225,172.172.1.1:1883,1551649389548,PRODUCED
Publisher_001,topicA,topicA-226,172.172.1.1:1883,1551649389648,PRODUCED
Publisher_001,topicA,topicA-227,172.172.1.1:1883,1551649389748,PRODUCED
Publisher_001,topicA,topicA-228,172.172.1.1:1883,1551649389855,PRODUCED
Publisher_001,topicA,topicA-229,172.172.1.1:1883,1551649389955,PRODUCED
Publisher_001,topicA,topicA-230,172.172.1.1:1883,1551649390049,PRODUCED
Publisher_001,topicA,topicA-231,172.172.1.1:1883,1551649390148,PRODUCED
Publisher_001,topicA,topicA-232,172.172.1.1:1883,1551649390249,PRODUCED
Publisher_001,topicA,topicA-233,172.172.1.1:1883,1551649390348,PRODUCED
Publisher_001,topicA,topicA-234,172.172.1.1:1883,1551649390448,PRODUCED
Publisher_001,topicA,topicA-235,172.172.1.1:1883,1551649390551,PRODUCED
Publisher_001,topicA,topicA-236,172.172.1.1:1883,1551649390652,PRODUCED
Publisher_001,topicA,topicA-237,172.172.1.1:1883,1551649390754,PRODUCED
Publisher_001,topicA,topicA-238,172.172.1.1:1883,1551649390854,PRODUCED
Publisher_001,topicA,topicA-239,172.172.1.1:1883,1551649390949,PRODUCED
Publisher_001,topicA,topicA-240,172.172.1.1:1883,1551649391048,PRODUCED
Publisher_001,topicA,topicA-241,172.172.1.1:1883,1551649391148,PRODUCED
Publisher_001,topicA,topicA-242,172.172.1.1:1883,1551649391249,PRODUCED
Publisher_001,topicA,topicA-243,172.172.1.1:1883,1551649391355,PRODUCED
Publisher_001,topicA,topicA-244,172.172.1.1:1883,1551649391454,PRODUCED
Publisher_001,topicA,topicA-245,172.172.1.1:1883,1551649391549,PRODUCED
Publisher_001,topicA,topicA-246,172.172.1.1:1883,1551649391651,PRODUCED
Publisher_001,topicA,topicA-247,172.172.1.1:1883,1551649391749,PRODUCED
Publisher_001,topicA,topicA-248,172.172.1.1:1883,1551649391848,PRODUCED
Publisher_001,topicA,topicA-249,172.172.1.1:1883,1551649391949,PRODUCED
Publisher_001,topicA,topicA-250,172.172.1.1:1883,1551649392048,PRODUCED
Publisher_001,topicA,topicA-251,172.172.1.1:1883,1551649392148,PRODUCED
Publisher_001,topicA,topicA-252,172.172.1.1:1883,1551649392248,PRODUCED
Publisher_001,topicA,topicA-253,172.172.1.1:1883,1551649392352,PRODUCED
Publisher_001,topicA,topicA-254,172.172.1.1:1883,1551649392448,PRODUCED
Publisher_001,topicA,topicA-255,172.172.1.1:1883,1551649392548,PRODUCED
Publisher_001,topicA,topicA-256,172.172.1.1:1883,1551649392648,PRODUCED
Publisher_001,topicA,topicA-257,172.172.1.1:1883,1551649392748,PRODUCED
Publisher_001,topicA,topicA-258,172.172.1.1:1883,1551649392852,PRODUCED
Publisher_001,topicA,topicA-259,172.172.1.1:1883,1551649392951,PRODUCED
Publisher_001,topicA,topicA-260,172.172.1.1:1883,1551649393048,PRODUCED
Publisher_001,topicA,topicA-261,172.172.1.1:1883,1551649393149,PRODUCED
Publisher_001,topicA,topicA-262,172.172.1.1:1883,1551649393249,PRODUCED
Publisher_001,topicA,topicA-263,172.172.1.1:1883,1551649393349,PRODUCED
Publisher_001,topicA,topicA-264,172.172.1.1:1883,1551649393449,PRODUCED
Publisher_001,topicA,topicA-265,172.172.1.1:1883,1551649393554,PRODUCED
Publisher_001,topicA,topicA-266,172.172.1.1:1883,1551649393655,PRODUCED
Publisher_001,topicA,topicA-267,172.172.1.1:1883,1551649393748,PRODUCED
Publisher_001,topicA,topicA-268,172.172.1.1:1883,1551649393848,PRODUCED
Publisher_001,topicA,topicA-269,172.172.1.1:1883,1551649393948,PRODUCED
Publisher_001,topicA,topicA-270,172.172.1.1:1883,1551649394049,PRODUCED
Publisher_001,topicA,topicA-271,172.172.1.1:1883,1551649394149,PRODUCED
Publisher_001,topicA,topicA-272,172.172.1.1:1883,1551649394248,PRODUCED
Publisher_001,topicA,topicA-273,172.172.1.1:1883,1551649394349,PRODUCED
Publisher_001,topicA,topicA-274,172.172.1.1:1883,1551649394448,PRODUCED
Publisher_001,topicA,topicA-275,172.172.1.1:1883,1551649394549,PRODUCED
Publisher_001,topicA,topicA-276,172.172.1.1:1883,1551649394648,PRODUCED
Publisher_001,topicA,topicA-277,172.172.1.1:1883,1551649394749,PRODUCED
Publisher_001,topicA,topicA-278,172.172.1.1:1883,1551649394849,PRODUCED
Publisher_001,topicA,topicA-279,172.172.1.1:1883,1551649394949,PRODUCED
Publisher_001,topicA,topicA-280,172.172.1.1:1883,1551649395048,PRODUCED
Publisher_001,topicA,topicA-281,172.172.1.1:1883,1551649395149,PRODUCED
Publisher_001,topicA,topicA-282,172.172.1.1:1883,1551649395251,PRODUCED
Publisher_001,topicA,topicA-283,172.172.1.1:1883,1551649395349,PRODUCED
Publisher_001,topicA,topicA-284,172.172.1.1:1883,1551649395448,PRODUCED
Publisher_001,topicA,topicA-285,172.172.1.1:1883,1551649395551,PRODUCED
Publisher_001,topicA,topicA-286,172.172.1.1:1883,1551649395648,PRODUCED
Publisher_001,topicA,topicA-287,172.172.1.1:1883,1551649395750,PRODUCED
Publisher_001,topicA,topicA-288,172.172.1.1:1883,1551649395848,PRODUCED
Publisher_001,topicA,topicA-289,172.172.1.1:1883,1551649395948,PRODUCED
Publisher_001,topicA,topicA-290,172.172.1.1:1883,1551649396048,PRODUCED
Publisher_001,topicA,topicA-291,172.172.1.1:1883,1551649396151,PRODUCED
Publisher_001,topicA,topicA-292,172.172.1.1:1883,1551649396248,PRODUCED
Publisher_001,topicA,topicA-293,172.172.1.1:1883,1551649396349,PRODUCED
Publisher_001,topicA,topicA-294,172.172.1.1:1883,1551649396452,PRODUCED
Publisher_001,topicA,topicA-295,172.172.1.1:1883,1551649396550,PRODUCED
Publisher_001,topicA,topicA-296,172.172.1.1:1883,1551649396648,PRODUCED
Publisher_001,topicA,topicA-297,172.172.1.1:1883,1551649396748,PRODUCED
Publisher_001,topicA,topicA-298,172.172.1.1:1883,1551649396848,PRODUCED
Publisher_001,topicA,topicA-299,172.172.1.1:1883,1551649396948,PRODUCED
Publisher_001,topicA,topicA-300,172.172.1.1:1883,1551649397051,PRODUCED
Publisher_001,topicA,topicA-301,172.172.1.1:1883,1551649397148,PRODUCED
Publisher_001,topicA,topicA-302,172.172.1.1:1883,1551649397251,PRODUCED
Publisher_001,topicA,topicA-303,172.172.1.1:1883,1551649397349,PRODUCED
Publisher_001,topicA,topicA-304,172.172.1.1:1883,1551649397448,PRODUCED
Publisher_001,topicA,topicA-305,172.172.1.1:1883,1551649397548,PRODUCED
Publisher_001,topicA,topicA-306,172.172.1.1:1883,1551649397651,PRODUCED
Publisher_001,topicA,topicA-307,172.172.1.1:1883,1551649397749,PRODUCED
Publisher_001,topicA,topicA-308,172.172.1.1:1883,1551649397848,PRODUCED
Publisher_001,topicA,topicA-309,172.172.1.1:1883,1551649397949,PRODUCED
Publisher_001,topicA,topicA-310,172.172.1.1:1883,1551649398049,PRODUCED
Publisher_001,topicA,topicA-311,172.172.1.1:1883,1551649398149,PRODUCED
Publisher_001,topicA,topicA-312,172.172.1.1:1883,1551649398252,PRODUCED
Publisher_001,topicA,topicA-313,172.172.1.1:1883,1551649398348,PRODUCED
Publisher_001,topicA,topicA-314,172.172.1.1:1883,1551649398450,PRODUCED
Publisher_001,topicA,topicA-315,172.172.1.1:1883,1551649398553,PRODUCED
Publisher_001,topicA,topicA-316,172.172.1.1:1883,1551649398648,PRODUCED
Publisher_001,topicA,topicA-317,172.172.1.1:1883,1551649398750,PRODUCED
Publisher_001,topicA,topicA-318,172.172.1.1:1883,1551649398853,PRODUCED
Publisher_001,topicA,topicA-319,172.172.1.1:1883,1551649398948,PRODUCED
Publisher_001,topicA,topicA-320,172.172.1.1:1883,1551649399048,PRODUCED
Publisher_001,topicA,topicA-321,172.172.1.1:1883,1551649399148,PRODUCED
Publisher_001,topicA,topicA-322,172.172.1.1:1883,1551649399249,PRODUCED
Publisher_001,topicA,topicA-323,172.172.1.1:1883,1551649399351,PRODUCED
Publisher_001,topicA,topicA-324,172.172.1.1:1883,1551649399449,PRODUCED
Publisher_001,topicA,topicA-325,172.172.1.1:1883,1551649399548,PRODUCED
Publisher_001,topicA,topicA-326,172.172.1.1:1883,1551649399649,PRODUCED
Publisher_001,topicA,topicA-327,172.172.1.1:1883,1551649399749,PRODUCED
Publisher_001,topicA,topicA-328,172.172.1.1:1883,1551649399850,PRODUCED
Publisher_001,topicA,topicA-329,172.172.1.1:1883,1551649399948,PRODUCED
Publisher_001,topicA,topicA-330,172.172.1.1:1883,1551649400051,PRODUCED
Publisher_001,topicA,topicA-331,172.172.1.1:1883,1551649400149,PRODUCED
Publisher_001,topicA,topicA-332,172.172.1.1:1883,1551649400248,PRODUCED
Publisher_001,topicA,topicA-333,172.172.1.1:1883,1551649400348,PRODUCED
Publisher_001,topicA,topicA-334,172.172.1.1:1883,1551649400448,PRODUCED
Publisher_001,topicA,topicA-335,172.172.1.1:1883,1551649400549,PRODUCED
Publisher_001,topicA,topicA-336,172.172.1.1:1883,1551649400648,PRODUCED
Publisher_001,topicA,topicA-337,172.172.1.1:1883,1551649400753,PRODUCED
Publisher_001,topicA,topicA-338,172.172.1.1:1883,1551649400848,PRODUCED
Publisher_001,topicA,topicA-339,172.172.1.1:1883,1551649400949,PRODUCED
Publisher_001,topicA,topicA-340,172.172.1.1:1883,1551649401048,PRODUCED
Publisher_001,topicA,topicA-341,172.172.1.1:1883,1551649401148,PRODUCED
Publisher_001,topicA,topicA-342,172.172.1.1:1883,1551649401249,PRODUCED
Publisher_001,topicA,topicA-343,172.172.1.1:1883,1551649401348,PRODUCED
Publisher_001,topicA,topicA-344,172.172.1.1:1883,1551649401448,PRODUCED
Publisher_001,topicA,topicA-345,172.172.1.1:1883,1551649401548,PRODUCED
Publisher_001,topicA,topicA-346,172.172.1.1:1883,1551649401648,PRODUCED
Publisher_001,topicA,topicA-347,172.172.1.1:1883,1551649401748,PRODUCED
Publisher_001,topicA,topicA-348,172.172.1.1:1883,1551649401848,PRODUCED
Publisher_001,topicA,topicA-349,172.172.1.1:1883,1551649401948,PRODUCED
Publisher_001,topicA,topicA-350,172.172.1.1:1883,1551649402049,PRODUCED
Publisher_001,topicA,topicA-351,172.172.1.1:1883,1551649402149,PRODUCED
Publisher_001,topicA,topicA-352,172.172.1.1:1883,1551649402250,PRODUCED
Publisher_001,topicA,topicA-353,172.172.1.1:1883,1551649402350,PRODUCED
Publisher_001,topicA,topicA-354,172.172.1.1:1883,1551649402448,PRODUCED
Publisher_001,topicA,topicA-355,172.172.1.1:1883,1551649402549,PRODUCED
Publisher_001,topicA,topicA-356,172.172.1.1:1883,1551649402649,PRODUCED
Publisher_001,topicA,topicA-357,172.172.1.1:1883,1551649402748,PRODUCED
Publisher_001,topicA,topicA-358,172.172.1.1:1883,1551649402849,PRODUCED
Publisher_001,topicA,topicA-359,172.172.1.1:1883,1551649402948,PRODUCED
Publisher_001,topicA,topicA-360,172.172.1.1:1883,1551649403050,PRODUCED
Publisher_001,topicA,topicA-361,172.172.1.1:1883,1551649403148,PRODUCED
Publisher_001,topicA,topicA-362,172.172.1.1:1883,1551649403248,PRODUCED
Publisher_001,topicA,topicA-363,172.172.1.1:1883,1551649403348,PRODUCED
Publisher_001,topicA,topicA-364,172.172.1.1:1883,1551649403448,PRODUCED
Publisher_001,topicA,topicA-365,172.172.1.1:1883,1551649403548,PRODUCED
Publisher_001,topicA,topicA-366,172.172.1.1:1883,1551649403655,PRODUCED
Publisher_001,topicA,topicA-367,172.172.1.1:1883,1551649403750,PRODUCED
Publisher_001,topicA,topicA-368,172.172.1.1:1883,1551649403851,PRODUCED
Publisher_001,topicA,topicA-369,172.172.1.1:1883,1551649403948,PRODUCED
Publisher_001,topicA,topicA-370,172.172.1.1:1883,1551649404048,PRODUCED
Publisher_001,topicA,topicA-371,172.172.1.1:1883,1551649404150,PRODUCED
Publisher_001,topicA,topicA-372,172.172.1.1:1883,1551649404253,PRODUCED
Publisher_001,topicA,topicA-373,172.172.1.1:1883,1551649404349,PRODUCED
Publisher_001,topicA,topicA-374,172.172.1.1:1883,1551649404449,PRODUCED
Publisher_001,topicA,topicA-375,172.172.1.1:1883,1551649404552,PRODUCED
Publisher_001,topicA,topicA-376,172.172.1.1:1883,1551649404648,PRODUCED
Publisher_001,topicA,topicA-377,172.172.1.1:1883,1551649404748,PRODUCED
Publisher_001,topicA,topicA-378,172.172.1.1:1883,1551649404850,PRODUCED
Publisher_001,topicA,topicA-379,172.172.1.1:1883,1551649404949,PRODUCED
Publisher_001,topicA,topicA-380,172.172.1.1:1883,1551649405049,PRODUCED
Publisher_001,topicA,topicA-381,172.172.1.1:1883,1551649405148,PRODUCED
Publisher_001,topicA,topicA-382,172.172.1.1:1883,1551649405249,PRODUCED
Publisher_001,topicA,topicA-383,172.172.1.1:1883,1551649405349,PRODUCED
Publisher_001,topicA,topicA-384,172.172.1.1:1883,1551649405455,PRODUCED
Publisher_001,topicA,topicA-385,172.172.1.1:1883,1551649405550,PRODUCED
Publisher_001,topicA,topicA-386,172.172.1.1:1883,1551649405652,PRODUCED
Publisher_001,topicA,topicA-387,172.172.1.1:1883,1551649405748,PRODUCED
Publisher_001,topicA,topicA-388,172.172.1.1:1883,1551649405848,PRODUCED
Publisher_001,topicA,topicA-389,172.172.1.1:1883,1551649405949,PRODUCED
Publisher_001,topicA,topicA-390,172.172.1.1:1883,1551649406052,PRODUCED
Publisher_001,topicA,topicA-391,172.172.1.1:1883,1551649406148,PRODUCED
Publisher_001,topicA,topicA-392,172.172.1.1:1883,1551649406248,PRODUCED
Publisher_001,topicA,topicA-393,172.172.1.1:1883,1551649406349,PRODUCED
Publisher_001,topicA,topicA-394,172.172.1.1:1883,1551649406449,PRODUCED
Publisher_001,topicA,topicA-395,172.172.1.1:1883,1551649406549,PRODUCED
Publisher_001,topicA,topicA-396,172.172.1.1:1883,1551649406648,PRODUCED
Publisher_001,topicA,topicA-397,172.172.1.1:1883,1551649406748,PRODUCED
Publisher_001,topicA,topicA-398,172.172.1.1:1883,1551649406849,PRODUCED
Publisher_001,topicA,topicA-399,172.172.1.1:1883,1551649406948,PRODUCED
Publisher_001,topicA,topicA-400,172.172.1.1:1883,1551649407049,PRODUCED
Publisher_001,topicA,topicA-401,172.172.1.1:1883,1551649407148,PRODUCED
Publisher_001,topicA,topicA-402,172.172.1.1:1883,1551649407251,PRODUCED
Publisher_001,topicA,topicA-403,172.172.1.1:1883,1551649407348,PRODUCED
Publisher_001,topicA,topicA-404,172.172.1.1:1883,1551649407448,PRODUCED
Publisher_001,topicA,topicA-405,172.172.1.1:1883,1551649407550,PRODUCED
Publisher_001,topicA,topicA-406,172.172.1.1:1883,1551649407648,PRODUCED
Publisher_001,topicA,topicA-407,172.172.1.1:1883,1551649407751,PRODUCED
Publisher_001,topicA,topicA-408,172.172.1.1:1883,1551649407848,PRODUCED
Publisher_001,topicA,topicA-409,172.172.1.1:1883,1551649407949,PRODUCED
Publisher_001,topicA,topicA-410,172.172.1.1:1883,1551649408048,PRODUCED
Publisher_001,topicA,topicA-411,172.172.1.1:1883,1551649408149,PRODUCED
Publisher_001,topicA,topicA-412,172.172.1.1:1883,1551649408248,PRODUCED
Publisher_001,topicA,topicA-413,172.172.1.1:1883,1551649408350,PRODUCED
Publisher_001,topicA,topicA-414,172.172.1.1:1883,1551649408454,PRODUCED
Publisher_001,topicA,topicA-415,172.172.1.1:1883,1551649408553,PRODUCED
Publisher_001,topicA,topicA-416,172.172.1.1:1883,1551649408649,PRODUCED
Publisher_001,topicA,topicA-417,172.172.1.1:1883,1551649408749,PRODUCED
Publisher_001,topicA,topicA-418,172.172.1.1:1883,1551649408849,PRODUCED
Publisher_001,topicA,topicA-419,172.172.1.1:1883,1551649408949,PRODUCED
Publisher_001,topicA,topicA-420,172.172.1.1:1883,1551649409048,PRODUCED
Publisher_001,topicA,topicA-421,172.172.1.1:1883,1551649409148,PRODUCED
Publisher_001,topicA,topicA-422,172.172.1.1:1883,1551649409248,PRODUCED
Publisher_001,topicA,topicA-423,172.172.1.1:1883,1551649409348,PRODUCED
Publisher_001,topicA,topicA-424,172.172.1.1:1883,1551649409453,PRODUCED
Publisher_001,topicA,topicA-425,172.172.1.1:1883,1551649409548,PRODUCED
Publisher_001,topicA,topicA-426,172.172.1.1:1883,1551649409648,PRODUCED
Publisher_001,topicA,topicA-427,172.172.1.1:1883,1551649409748,PRODUCED
Publisher_001,topicA,topicA-428,172.172.1.1:1883,1551649409848,PRODUCED
Publisher_001,topicA,topicA-429,172.172.1.1:1883,1551649409948,PRODUCED
Publisher_001,topicA,topicA-430,172.172.1.1:1883,1551649410048,PRODUCED
Publisher_001,topicA,topicA-431,172.172.1.1:1883,1551649410148,PRODUCED
Publisher_001,topicA,topicA-432,172.172.1.1:1883,1551649410248,PRODUCED
Publisher_001,topicA,topicA-433,172.172.1.1:1883,1551649410349,PRODUCED
Publisher_001,topicA,topicA-434,172.172.1.1:1883,1551649410448,PRODUCED
Publisher_001,topicA,topicA-435,172.172.1.1:1883,1551649410548,PRODUCED
Publisher_001,topicA,topicA-436,172.172.1.1:1883,1551649410649,PRODUCED
Publisher_001,topicA,topicA-437,172.172.1.1:1883,1551649410748,PRODUCED
Publisher_001,topicA,topicA-438,172.172.1.1:1883,1551649410848,PRODUCED
Publisher_001,topicA,topicA-439,172.172.1.1:1883,1551649410948,PRODUCED
Publisher_001,topicA,topicA-440,172.172.1.1:1883,1551649411048,PRODUCED
Publisher_001,topicA,topicA-441,172.172.1.1:1883,1551649411148,PRODUCED
Publisher_001,topicA,topicA-442,172.172.1.1:1883,1551649411248,PRODUCED
Publisher_001,topicA,topicA-443,172.172.1.1:1883,1551649411348,PRODUCED
Publisher_001,topicA,topicA-444,172.172.1.1:1883,1551649411448,PRODUCED
Publisher_001,topicA,topicA-445,172.172.1.1:1883,1551649411548,PRODUCED
Publisher_001,topicA,topicA-446,172.172.1.1:1883,1551649411648,PRODUCED
Publisher_001,topicA,topicA-447,172.172.1.1:1883,1551649411748,PRODUCED
Publisher_001,topicA,topicA-448,172.172.1.1:1883,1551649411848,PRODUCED
Publisher_001,topicA,topicA-449,172.172.1.1:1883,1551649411948,PRODUCED
Publisher_001,topicA,topicA-450,172.172.1.1:1883,1551649412048,PRODUCED
Publisher_001,topicA,topicA-451,172.172.1.1:1883,1551649412148,PRODUCED
Publisher_001,topicA,topicA-452,172.172.1.1:1883,1551649412248,PRODUCED
Publisher_001,topicA,topicA-453,172.172.1.1:1883,1551649412348,PRODUCED
Publisher_001,topicA,topicA-454,172.172.1.1:1883,1551649412448,PRODUCED
Publisher_001,topicA,topicA-455,172.172.1.1:1883,1551649412548,PRODUCED
Publisher_001,topicA,topicA-456,172.172.1.1:1883,1551649412651,PRODUCED
Publisher_001,topicA,topicA-457,172.172.1.1:1883,1551649412748,PRODUCED
Publisher_001,topicA,topicA-458,172.172.1.1:1883,1551649412848,PRODUCED
Publisher_001,topicA,topicA-459,172.172.1.1:1883,1551649412948,PRODUCED
Publisher_001,topicA,topicA-460,172.172.1.1:1883,1551649413050,PRODUCED
Publisher_001,topicA,topicA-461,172.172.1.1:1883,1551649413150,PRODUCED
Publisher_001,topicA,topicA-462,172.172.1.1:1883,1551649413249,PRODUCED
Publisher_001,topicA,topicA-463,172.172.1.1:1883,1551649413348,PRODUCED
Publisher_001,topicA,topicA-464,172.172.1.1:1883,1551649413450,PRODUCED
Publisher_001,topicA,topicA-465,172.172.1.1:1883,1551649413551,PRODUCED
Publisher_001,topicA,topicA-466,172.172.1.1:1883,1551649413652,PRODUCED
Publisher_001,topicA,topicA-467,172.172.1.1:1883,1551649413753,PRODUCED
Publisher_001,topicA,topicA-468,172.172.1.1:1883,1551649413848,PRODUCED
Publisher_001,topicA,topicA-469,172.172.1.1:1883,1551649413949,PRODUCED
Publisher_001,topicA,topicA-470,172.172.1.1:1883,1551649414048,PRODUCED
Publisher_001,topicA,topicA-471,172.172.1.1:1883,1551649414148,PRODUCED
Publisher_001,topicA,topicA-472,172.172.1.1:1883,1551649414248,PRODUCED
Publisher_001,topicA,topicA-473,172.172.1.1:1883,1551649414350,PRODUCED
Publisher_001,topicA,topicA-474,172.172.1.1:1883,1551649414448,PRODUCED
Publisher_001,topicA,topicA-475,172.172.1.1:1883,1551649414548,PRODUCED
Publisher_001,topicA,topicA-476,172.172.1.1:1883,1551649414648,PRODUCED
Publisher_001,topicA,topicA-477,172.172.1.1:1883,1551649414749,PRODUCED
Publisher_001,topicA,topicA-478,172.172.1.1:1883,1551649414853,PRODUCED
Publisher_001,topicA,topicA-479,172.172.1.1:1883,1551649414948,PRODUCED
Publisher_001,topicA,topicA-480,172.172.1.1:1883,1551649415048,PRODUCED
Publisher_001,topicA,topicA-481,172.172.1.1:1883,1551649415149,PRODUCED
Publisher_001,topicA,topicA-482,172.172.1.1:1883,1551649415250,PRODUCED
Publisher_001,topicA,topicA-483,172.172.1.1:1883,1551649415352,PRODUCED
Publisher_001,topicA,topicA-484,172.172.1.1:1883,1551649415448,PRODUCED
Publisher_001,topicA,topicA-485,172.172.1.1:1883,1551649415548,PRODUCED
Publisher_001,topicA,topicA-486,172.172.1.1:1883,1551649415649,PRODUCED
Publisher_001,topicA,topicA-487,172.172.1.1:1883,1551649415748,PRODUCED
Publisher_001,topicA,topicA-488,172.172.1.1:1883,1551649415848,PRODUCED
Publisher_001,topicA,topicA-489,172.172.1.1:1883,1551649415948,PRODUCED
Publisher_001,topicA,topicA-490,172.172.1.1:1883,1551649416050,PRODUCED
Publisher_001,topicA,topicA-491,172.172.1.1:1883,1551649416148,PRODUCED
Publisher_001,topicA,topicA-492,172.172.1.1:1883,1551649416249,PRODUCED
Publisher_001,topicA,topicA-493,172.172.1.1:1883,1551649416348,PRODUCED
Publisher_001,topicA,topicA-494,172.172.1.1:1883,1551649416448,PRODUCED
Publisher_001,topicA,topicA-495,172.172.1.1:1883,1551649416548,PRODUCED
Publisher_001,topicA,topicA-496,172.172.1.1:1883,1551649416650,PRODUCED
Publisher_001,topicA,topicA-497,172.172.1.1:1883,1551649416750,PRODUCED
Publisher_001,topicA,topicA-498,172.172.1.1:1883,1551649416848,PRODUCED
Publisher_001,topicA,topicA-499,172.172.1.1:1883,1551649416952,PRODUCED
Publisher_001,topicA,topicA-500,172.172.1.1:1883,1551649417049,PRODUCED
Publisher_001,topicA,topicA-501,172.172.1.1:1883,1551649417148,PRODUCED
Publisher_001,topicA,topicA-502,172.172.1.1:1883,1551649417248,PRODUCED
Publisher_001,topicA,topicA-503,172.172.1.1:1883,1551649417348,PRODUCED
Publisher_001,topicA,topicA-504,172.172.1.1:1883,1551649417448,PRODUCED
Publisher_001,topicA,topicA-505,172.172.1.1:1883,1551649417548,PRODUCED
Publisher_001,topicA,topicA-506,172.172.1.1:1883,1551649417648,PRODUCED
Publisher_001,topicA,topicA-507,172.172.1.1:1883,1551649417749,PRODUCED
Publisher_001,topicA,topicA-508,172.172.1.1:1883,1551649417849,PRODUCED
Publisher_001,topicA,topicA-509,172.172.1.1:1883,1551649417948,PRODUCED
Publisher_001,topicA,topicA-510,172.172.1.1:1883,1551649418049,PRODUCED
Publisher_001,topicA,topicA-511,172.172.1.1:1883,1551649418148,PRODUCED
Publisher_001,topicA,topicA-512,172.172.1.1:1883,1551649418250,PRODUCED
Publisher_001,topicA,topicA-513,172.172.1.1:1883,1551649418349,PRODUCED
Publisher_001,topicA,topicA-514,172.172.1.1:1883,1551649418453,PRODUCED
Publisher_001,topicA,topicA-515,172.172.1.1:1883,1551649418549,PRODUCED
Publisher_001,topicA,topicA-516,172.172.1.1:1883,1551649418649,PRODUCED
Publisher_001,topicA,topicA-517,172.172.1.1:1883,1551649418748,PRODUCED
Publisher_001,topicA,topicA-518,172.172.1.1:1883,1551649418848,PRODUCED
Publisher_001,topicA,topicA-519,172.172.1.1:1883,1551649418948,PRODUCED
Publisher_001,topicA,topicA-520,172.172.1.1:1883,1551649419049,PRODUCED
Publisher_001,topicA,topicA-521,172.172.1.1:1883,1551649419148,PRODUCED
Publisher_001,topicA,topicA-522,172.172.1.1:1883,1551649419248,PRODUCED
Publisher_001,topicA,topicA-523,172.172.1.1:1883,1551649419349,PRODUCED
Publisher_001,topicA,topicA-524,172.172.1.1:1883,1551649419448,PRODUCED
Publisher_001,topicA,topicA-525,172.172.1.1:1883,1551649419552,PRODUCED
Publisher_001,topicA,topicA-526,172.172.1.1:1883,1551649419648,PRODUCED
Publisher_001,topicA,topicA-527,172.172.1.1:1883,1551649419748,PRODUCED
Publisher_001,topicA,topicA-528,172.172.1.1:1883,1551649419854,PRODUCED
Publisher_001,topicA,topicA-529,172.172.1.1:1883,1551649419948,PRODUCED
Publisher_001,topicA,topicA-530,172.172.1.1:1883,1551649420048,PRODUCED
Publisher_001,topicA,topicA-531,172.172.1.1:1883,1551649420149,PRODUCED
Publisher_001,topicA,topicA-532,172.172.1.1:1883,1551649420250,PRODUCED
Publisher_001,topicA,topicA-533,172.172.1.1:1883,1551649420348,PRODUCED
Publisher_001,topicA,topicA-534,172.172.1.1:1883,1551649420450,PRODUCED
Publisher_001,topicA,topicA-535,172.172.1.1:1883,1551649420548,PRODUCED
Publisher_001,topicA,topicA-536,172.172.1.1:1883,1551649420654,PRODUCED
Publisher_001,topicA,topicA-537,172.172.1.1:1883,1551649420748,PRODUCED
Publisher_001,topicA,topicA-538,172.172.1.1:1883,1551649420848,PRODUCED
Publisher_001,topicA,topicA-539,172.172.1.1:1883,1551649420948,PRODUCED
Publisher_001,topicA,topicA-540,172.172.1.1:1883,1551649421049,PRODUCED
Publisher_001,topicA,topicA-541,172.172.1.1:1883,1551649421150,PRODUCED
Publisher_001,topicA,topicA-542,172.172.1.1:1883,1551649421248,PRODUCED
Publisher_001,topicA,topicA-543,172.172.1.1:1883,1551649421348,PRODUCED
Publisher_001,topicA,topicA-544,172.172.1.1:1883,1551649421450,PRODUCED
Publisher_001,topicA,topicA-545,172.172.1.1:1883,1551649421552,PRODUCED
Publisher_001,topicA,topicA-546,172.172.1.1:1883,1551649421649,PRODUCED
Publisher_001,topicA,topicA-547,172.172.1.1:1883,1551649421748,PRODUCED
Publisher_001,topicA,topicA-548,172.172.1.1:1883,1551649421849,PRODUCED
Publisher_001,topicA,topicA-549,172.172.1.1:1883,1551649421951,PRODUCED
Publisher_001,topicA,topicA-550,172.172.1.1:1883,1551649422051,PRODUCED
Publisher_001,topicA,topicA-551,172.172.1.1:1883,1551649422150,PRODUCED
Publisher_001,topicA,topicA-552,172.172.1.1:1883,1551649422250,PRODUCED
Publisher_001,topicA,topicA-553,172.172.1.1:1883,1551649422348,PRODUCED
Publisher_001,topicA,topicA-554,172.172.1.1:1883,1551649422448,PRODUCED
Publisher_001,topicA,topicA-555,172.172.1.1:1883,1551649422551,PRODUCED
Publisher_001,topicA,topicA-556,172.172.1.1:1883,1551649422648,PRODUCED
Publisher_001,topicA,topicA-557,172.172.1.1:1883,1551649422750,PRODUCED
Publisher_001,topicA,topicA-558,172.172.1.1:1883,1551649422848,PRODUCED
Publisher_001,topicA,topicA-559,172.172.1.1:1883,1551649422948,PRODUCED
Publisher_001,topicA,topicA-560,172.172.1.1:1883,1551649423051,PRODUCED
Publisher_001,topicA,topicA-561,172.172.1.1:1883,1551649423148,PRODUCED
Publisher_001,topicA,topicA-562,172.172.1.1:1883,1551649423248,PRODUCED
Publisher_001,topicA,topicA-563,172.172.1.1:1883,1551649423348,PRODUCED
Publisher_001,topicA,topicA-564,172.172.1.1:1883,1551649423448,PRODUCED
Publisher_001,topicA,topicA-565,172.172.1.1:1883,1551649423550,PRODUCED
Publisher_001,topicA,topicA-566,172.172.1.1:1883,1551649423648,PRODUCED
Publisher_001,topicA,topicA-567,172.172.1.1:1883,1551649423748,PRODUCED
Publisher_001,topicA,topicA-568,172.172.1.1:1883,1551649423848,PRODUCED
Publisher_001,topicA,topicA-569,172.172.1.1:1883,1551649423950,PRODUCED
Publisher_001,topicA,topicA-570,172.172.1.1:1883,1551649424054,PRODUCED
Publisher_001,topicA,topicA-571,172.172.1.1:1883,1551649424148,PRODUCED
Publisher_001,topicA,topicA-572,172.172.1.1:1883,1551649424249,PRODUCED
Publisher_001,topicA,topicA-573,172.172.1.1:1883,1551649424348,PRODUCED
Publisher_001,topicA,topicA-574,172.172.1.1:1883,1551649424449,PRODUCED
Publisher_001,topicA,topicA-575,172.172.1.1:1883,1551649424549,PRODUCED
Publisher_001,topicA,topicA-576,172.172.1.1:1883,1551649424651,PRODUCED
Publisher_001,topicA,topicA-577,172.172.1.1:1883,1551649424752,PRODUCED
Publisher_001,topicA,topicA-578,172.172.1.1:1883,1551649424848,PRODUCED
Publisher_001,topicA,topicA-579,172.172.1.1:1883,1551649424948,PRODUCED
Publisher_001,topicA,topicA-580,172.172.1.1:1883,1551649425048,PRODUCED
Publisher_001,topicA,topicA-581,172.172.1.1:1883,1551649425148,PRODUCED
Publisher_001,topicA,topicA-582,172.172.1.1:1883,1551649425249,PRODUCED
Publisher_001,topicA,topicA-583,172.172.1.1:1883,1551649425348,PRODUCED
Publisher_001,topicA,topicA-584,172.172.1.1:1883,1551649425448,PRODUCED
Publisher_001,topicA,topicA-585,172.172.1.1:1883,1551649425548,PRODUCED
Publisher_001,topicA,topicA-586,172.172.1.1:1883,1551649425651,PRODUCED
Publisher_001,topicA,topicA-587,172.172.1.1:1883,1551649425749,PRODUCED
Publisher_001,topicA,topicA-588,172.172.1.1:1883,1551649425849,PRODUCED
Publisher_001,topicA,topicA-589,172.172.1.1:1883,1551649425954,PRODUCED
Publisher_001,topicA,topicA-590,172.172.1.1:1883,1551649426052,PRODUCED
Publisher_001,topicA,topicA-591,172.172.1.1:1883,1551649426149,PRODUCED
Publisher_001,topicA,topicA-592,172.172.1.1:1883,1551649426249,PRODUCED
Publisher_001,topicA,topicA-593,172.172.1.1:1883,1551649426349,PRODUCED
Publisher_001,topicA,topicA-594,172.172.1.1:1883,1551649426448,PRODUCED
Publisher_001,topicA,topicA-595,172.172.1.1:1883,1551649426554,PRODUCED
Publisher_001,topicA,topicA-596,172.172.1.1:1883,1551649426648,PRODUCED
Publisher_001,topicA,topicA-597,172.172.1.1:1883,1551649426748,PRODUCED
Publisher_001,topicA,topicA-598,172.172.1.1:1883,1551649426848,PRODUCED
Publisher_001,topicA,topicA-599,172.172.1.1:1883,1551649426949,PRODUCED
Publisher_001,topicA,topicA-600,172.172.1.1:1883,1551649427054,PRODUCED
Publisher_001,topicA,topicA-601,172.172.1.1:1883,1551649427150,PRODUCED
Publisher_001,topicA,topicA-602,172.172.1.1:1883,1551649427252,PRODUCED
Publisher_001,topicA,topicA-603,172.172.1.1:1883,1551649427352,PRODUCED
Publisher_001,topicA,topicA-604,172.172.1.1:1883,1551649427449,PRODUCED
Publisher_001,topicA,topicA-605,172.172.1.1:1883,1551649427549,PRODUCED
Publisher_001,topicA,topicA-606,172.172.1.1:1883,1551649427650,PRODUCED
Publisher_001,topicA,topicA-607,172.172.1.1:1883,1551649427749,PRODUCED
Publisher_001,topicA,topicA-608,172.172.1.1:1883,1551649427848,PRODUCED
Publisher_001,topicA,topicA-609,172.172.1.1:1883,1551649427952,PRODUCED
Publisher_001,topicA,topicA-610,172.172.1.1:1883,1551649428051,PRODUCED
Publisher_001,topicA,topicA-611,172.172.1.1:1883,1551649428150,PRODUCED
Publisher_001,topicA,topicA-612,172.172.1.1:1883,1551649428251,PRODUCED
Publisher_001,topicA,topicA-613,172.172.1.1:1883,1551649428348,PRODUCED
Publisher_001,topicA,topicA-614,172.172.1.1:1883,1551649428448,PRODUCED
Publisher_001,topicA,topicA-615,172.172.1.1:1883,1551649428548,PRODUCED
Publisher_001,topicA,topicA-616,172.172.1.1:1883,1551649428648,PRODUCED
Publisher_001,topicA,topicA-617,172.172.1.1:1883,1551649428748,PRODUCED
Publisher_001,topicA,topicA-618,172.172.1.1:1883,1551649428848,PRODUCED
Publisher_001,topicA,topicA-619,172.172.1.1:1883,1551649428948,PRODUCED
Publisher_001,topicA,topicA-620,172.172.1.1:1883,1551649429048,PRODUCED
Publisher_001,topicA,topicA-621,172.172.1.1:1883,1551649429150,PRODUCED
Publisher_001,topicA,topicA-622,172.172.1.1:1883,1551649429248,PRODUCED
Publisher_001,topicA,topicA-623,172.172.1.1:1883,1551649429348,PRODUCED
Publisher_001,topicA,topicA-624,172.172.1.1:1883,1551649429448,PRODUCED
Publisher_001,topicA,topicA-625,172.172.1.1:1883,1551649429549,PRODUCED
Publisher_001,topicA,topicA-626,172.172.1.1:1883,1551649429649,PRODUCED
Publisher_001,topicA,topicA-627,172.172.1.1:1883,1551649429748,PRODUCED
Publisher_001,topicA,topicA-628,172.172.1.1:1883,1551649429849,PRODUCED
Publisher_001,topicA,topicA-629,172.172.1.1:1883,1551649429948,PRODUCED
Publisher_001,topicA,topicA-630,172.172.1.1:1883,1551649430048,PRODUCED
Publisher_001,topicA,topicA-631,172.172.1.1:1883,1551649430148,PRODUCED
Publisher_001,topicA,topicA-632,172.172.1.1:1883,1551649430248,PRODUCED
Publisher_001,topicA,topicA-633,172.172.1.1:1883,1551649430349,PRODUCED
Publisher_001,topicA,topicA-634,172.172.1.1:1883,1551649430448,PRODUCED
Publisher_001,topicA,topicA-635,172.172.1.1:1883,1551649430548,PRODUCED
Publisher_001,topicA,topicA-636,172.172.1.1:1883,1551649430648,PRODUCED
Publisher_001,topicA,topicA-637,172.172.1.1:1883,1551649430749,PRODUCED
Publisher_001,topicA,topicA-638,172.172.1.1:1883,1551649430848,PRODUCED
Publisher_001,topicA,topicA-639,172.172.1.1:1883,1551649430948,PRODUCED
Publisher_001,topicA,topicA-640,172.172.1.1:1883,1551649431048,PRODUCED
Publisher_001,topicA,topicA-641,172.172.1.1:1883,1551649431150,PRODUCED
Publisher_001,topicA,topicA-642,172.172.1.1:1883,1551649431248,PRODUCED
