[1] "Duration B1: 733"
[1] "Duration B2: 451"
[1] "Duration MIGRATE: 258"
[1] "Duration MIGACK: 24"
[1] "addrow"
[1] "INITIALIZED"
  timestamp       event                          migrationId
1         0 INITIALIZED 6a045b76-e71d-495f-8b7c-ae48ba79cbc1
[1] "addrow"
[1] "SYNCING"
[1] "addrow"
[1] "SYNCED"
[1] "addrow"
[1] "FINISHED"
  timestamp    event                          migrationId
4       733 FINISHED 6a045b76-e71d-495f-8b7c-ae48ba79cbc1
[1] "addrow"
[1] "topicA-INITIALIZED"
  timestamp              event                          migrationId
2         3 topicA-INITIALIZED 6a045b76-e71d-495f-8b7c-ae48ba79cbc1
[1] "addrow"
[1] "topicA-SYNCING"
[1] "addrow"
[1] "topicA-SYNCED"
[1] "addrow"
[1] "topicA-FINISHED"
  timestamp           event                          migrationId
3       732 topicA-FINISHED 6a045b76-e71d-495f-8b7c-ae48ba79cbc1
