clientId,topic,guid,broker,timestamp,type
Subscriber_001,topicA,topicA-54,172.172.1.1:1883,1551656686804,RECEIVED
Subscriber_001,topicA,topicA-55,172.172.1.1:1883,1551656686807,RECEIVED
Subscriber_001,topicA,topicA-56,172.172.1.1:1883,1551656686808,RECEIVED
Subscriber_001,topicA,topicA-57,172.172.1.1:1883,1551656686809,RECEIVED
Subscriber_001,topicA,topicA-58,172.172.1.1:1883,1551656686900,RECEIVED
Subscriber_001,topicA,topicA-59,172.172.1.1:1883,1551656686996,RECEIVED
Subscriber_001,topicA,topicA-60,172.172.1.1:1883,1551656687105,RECEIVED
Subscriber_001,topicA,topicA-61,172.172.1.1:1883,1551656687201,RECEIVED
Subscriber_001,topicA,topicA-62,172.172.1.1:1883,1551656687312,RECEIVED
Subscriber_001,topicA,topicA-63,172.172.1.1:1883,1551656687406,RECEIVED
Subscriber_001,topicA,topicA-64,172.172.1.1:1883,1551656687504,RECEIVED
Subscriber_001,topicA,topicA-65,172.172.1.1:1883,1551656687599,RECEIVED
Subscriber_001,topicA,topicA-66,172.172.1.1:1883,1551656687708,RECEIVED
Subscriber_001,topicA,topicA-67,172.172.1.1:1883,1551656687810,RECEIVED
Subscriber_001,topicA,topicA-68,172.172.1.1:1883,1551656687910,RECEIVED
Subscriber_001,topicA,topicA-69,172.172.1.1:1883,1551656688031,RECEIVED
Subscriber_001,topicA,topicA-70,172.172.1.1:1883,1551656688100,RECEIVED
Subscriber_001,topicA,topicA-71,172.172.1.1:1883,1551656688211,RECEIVED
Subscriber_001,topicA,topicA-72,172.172.1.1:1883,1551656688305,RECEIVED
Subscriber_001,topicA,topicA-73,172.172.1.1:1883,1551656688407,RECEIVED
Subscriber_001,topicA,topicA-74,172.172.1.1:1883,1551656688505,RECEIVED
Subscriber_001,topicA,topicA-75,172.172.1.1:1883,1551656688628,RECEIVED
Subscriber_001,topicA,topicA-76,172.172.1.1:1883,1551656688708,RECEIVED
Subscriber_001,topicA,topicA-77,172.172.1.1:1883,1551656688803,RECEIVED
Subscriber_001,topicA,topicA-78,172.172.1.1:1883,1551656688913,RECEIVED
Subscriber_001,topicA,topicA-79,172.172.1.1:1883,1551656689007,RECEIVED
Subscriber_001,topicA,topicA-80,172.172.1.1:1883,1551656689107,RECEIVED
Subscriber_001,topicA,topicA-81,172.172.1.1:1883,1551656689219,RECEIVED
Subscriber_001,topicA,topicA-82,172.172.1.1:1883,1551656689316,RECEIVED
Subscriber_001,topicA,topicA-83,172.172.1.1:1883,1551656689403,RECEIVED
Subscriber_001,topicA,topicA-84,172.172.1.1:1883,1551656689514,RECEIVED
Subscriber_001,topicA,topicA-85,172.172.1.1:1883,1551656689604,RECEIVED
Subscriber_001,topicA,topicA-86,172.172.1.1:1883,1551656689696,RECEIVED
Subscriber_001,topicA,topicA-87,172.172.1.1:1883,1551656689822,RECEIVED
Subscriber_001,topicA,topicA-88,172.172.1.1:1883,1551656689914,RECEIVED
Subscriber_001,topicA,topicA-89,172.172.1.1:1883,1551656690008,RECEIVED
Subscriber_001,topicA,topicA-90,172.172.1.1:1883,1551656690107,RECEIVED
Subscriber_001,topicA,topicA-91,172.172.1.1:1883,1551656690205,RECEIVED
Subscriber_001,topicA,topicA-92,172.172.1.1:1883,1551656690308,RECEIVED
Subscriber_001,topicA,topicA-93,172.172.1.1:1883,1551656690411,RECEIVED
Subscriber_001,topicA,topicA-94,172.172.1.1:1883,1551656690512,RECEIVED
Subscriber_001,topicA,topicA-95,172.172.1.1:1883,1551656690607,RECEIVED
Subscriber_001,topicA,topicA-96,172.172.1.1:1883,1551656690729,RECEIVED
Subscriber_001,topicA,topicA-97,172.172.1.1:1883,1551656690799,RECEIVED
Subscriber_001,topicA,topicA-98,172.172.1.1:1883,1551656690906,RECEIVED
Subscriber_001,topicA,topicA-99,172.172.1.1:1883,1551656691008,RECEIVED
Subscriber_001,topicA,topicA-100,172.172.1.1:1883,1551656691117,RECEIVED
Subscriber_001,topicA,topicA-101,172.172.1.1:1883,1551656691214,RECEIVED
Subscriber_001,topicA,topicA-102,172.172.1.1:1883,1551656691316,RECEIVED
Subscriber_001,topicA,topicA-103,172.172.1.1:1883,1551656691406,RECEIVED
Subscriber_001,topicA,topicA-104,172.172.1.1:1883,1551656691508,RECEIVED
Subscriber_001,topicA,topicA-105,172.172.1.1:1883,1551656691612,RECEIVED
Subscriber_001,topicA,topicA-106,172.172.1.1:1883,1551656691703,RECEIVED
Subscriber_001,topicA,topicA-107,172.172.1.1:1883,1551656691807,RECEIVED
Subscriber_001,topicA,topicA-108,172.172.1.1:1883,1551656691899,RECEIVED
Subscriber_001,topicA,topicA-109,172.172.1.1:1883,1551656692008,RECEIVED
Subscriber_001,topicA,topicA-110,172.172.1.1:1883,1551656692098,RECEIVED
Subscriber_001,topicA,topicA-111,172.172.1.1:1883,1551656692196,RECEIVED
Subscriber_001,topicA,topicA-112,172.172.1.1:1883,1551656692299,RECEIVED
Subscriber_001,topicA,topicA-113,172.172.1.1:1883,1551656692413,RECEIVED
Subscriber_001,topicA,topicA-114,172.172.1.1:1883,1551656692522,RECEIVED
Subscriber_001,topicA,topicA-115,172.172.1.1:1883,1551656692619,RECEIVED
Subscriber_001,topicA,topicA-116,172.172.1.1:1883,1551656692712,RECEIVED
Subscriber_001,topicA,topicA-117,172.172.1.1:1883,1551656692810,RECEIVED
Subscriber_001,topicA,topicA-118,172.172.1.1:1883,1551656692919,RECEIVED
Subscriber_001,topicA,topicA-119,172.172.1.1:1883,1551656693009,RECEIVED
Subscriber_001,topicA,topicA-120,172.172.1.1:1883,1551656693107,RECEIVED
Subscriber_001,topicA,topicA-121,172.172.1.1:1883,1551656693210,RECEIVED
Subscriber_001,topicA,topicA-122,172.172.1.1:1883,1551656693308,RECEIVED
Subscriber_001,topicA,topicA-123,172.172.1.1:1883,1551656693408,RECEIVED
Subscriber_001,topicA,topicA-124,172.172.1.1:1883,1551656693505,RECEIVED
Subscriber_001,topicA,topicA-125,172.172.1.1:1883,1551656693599,RECEIVED
Subscriber_001,topicA,topicA-126,172.172.1.1:1883,1551656693697,RECEIVED
Subscriber_001,topicA,topicA-127,172.172.1.1:1883,1551656693807,RECEIVED
Subscriber_001,topicA,topicA-128,172.172.1.1:1883,1551656693910,RECEIVED
Subscriber_001,topicA,topicA-129,172.172.1.1:1883,1551656693996,RECEIVED
Subscriber_001,topicA,topicA-130,172.172.1.1:1883,1551656694096,RECEIVED
Subscriber_001,topicA,topicA-131,172.172.1.1:1883,1551656694206,RECEIVED
Subscriber_001,topicA,topicA-132,172.172.1.1:1883,1551656694306,RECEIVED
Subscriber_001,topicA,topicA-133,172.172.1.1:1883,1551656694406,RECEIVED
Subscriber_001,topicA,topicA-134,172.172.1.1:1883,1551656694505,RECEIVED
Subscriber_001,topicA,topicA-135,172.172.1.1:1883,1551656694607,RECEIVED
Subscriber_001,topicA,topicA-136,172.172.1.1:1883,1551656694707,RECEIVED
Subscriber_001,topicA,topicA-137,172.172.1.1:1883,1551656694815,RECEIVED
Subscriber_001,topicA,topicA-138,172.172.1.1:1883,1551656694909,RECEIVED
Subscriber_001,topicA,topicA-139,172.172.1.1:1883,1551656695000,RECEIVED
Subscriber_001,topicA,topicA-140,172.172.1.1:1883,1551656695110,RECEIVED
Subscriber_001,topicA,topicA-141,172.172.1.1:1883,1551656695204,RECEIVED
Subscriber_001,topicA,topicA-142,172.172.1.1:1883,1551656695302,RECEIVED
Subscriber_001,topicA,topicA-143,172.172.1.1:1883,1551656695407,RECEIVED
Subscriber_001,topicA,topicA-144,172.172.1.1:1883,1551656695505,RECEIVED
Subscriber_001,topicA,topicA-145,172.172.1.1:1883,1551656695614,RECEIVED
Subscriber_001,topicA,topicA-146,172.172.1.1:1883,1551656695708,RECEIVED
Subscriber_001,topicA,topicA-147,172.172.1.1:1883,1551656695803,RECEIVED
Subscriber_001,topicA,topicA-148,172.172.1.1:1883,1551656695900,RECEIVED
Subscriber_001,topicA,topicA-149,172.172.1.1:1883,1551656696001,RECEIVED
Subscriber_001,topicA,topicA-150,172.172.1.1:1883,1551656696104,RECEIVED
Subscriber_001,topicA,topicA-151,172.172.1.1:1883,1551656696200,RECEIVED
Subscriber_001,topicA,topicA-152,172.172.1.1:1883,1551656696296,RECEIVED
Subscriber_001,topicA,topicA-153,172.172.1.1:1883,1551656696399,RECEIVED
Subscriber_001,topicA,topicA-154,172.172.1.1:1883,1551656696505,RECEIVED
Subscriber_001,topicA,topicA-155,172.172.1.1:1883,1551656696611,RECEIVED
Subscriber_001,topicA,topicA-156,172.172.1.1:1883,1551656696704,RECEIVED
Subscriber_001,topicA,topicA-157,172.172.1.1:1883,1551656696810,RECEIVED
Subscriber_001,topicA,topicA-158,172.172.1.1:1883,1551656696910,RECEIVED
Subscriber_001,topicA,topicA-159,172.172.1.1:1883,1551656697009,RECEIVED
Subscriber_001,topicA,topicA-160,172.172.1.1:1883,1551656697110,RECEIVED
Subscriber_001,topicA,topicA-161,172.172.1.1:1883,1551656697212,RECEIVED
Subscriber_001,topicA,topicA-162,172.172.1.1:1883,1551656697311,RECEIVED
Subscriber_001,topicA,topicA-163,172.172.1.1:1883,1551656697412,RECEIVED
Subscriber_001,topicA,topicA-164,172.172.1.1:1883,1551656697512,RECEIVED
Subscriber_001,topicA,topicA-165,172.172.1.1:1883,1551656697613,RECEIVED
Subscriber_001,topicA,topicA-166,172.172.1.1:1883,1551656697700,RECEIVED
Subscriber_001,topicA,topicA-167,172.172.1.1:1883,1551656697804,RECEIVED
Subscriber_001,topicA,topicA-168,172.172.1.1:1883,1551656697900,RECEIVED
Subscriber_001,topicA,topicA-169,172.172.1.1:1883,1551656697998,RECEIVED
Subscriber_001,topicA,topicA-170,172.172.1.1:1883,1551656698108,RECEIVED
Subscriber_001,topicA,topicA-171,172.172.1.1:1883,1551656698219,RECEIVED
Subscriber_001,topicA,topicA-172,172.172.1.1:1883,1551656698310,RECEIVED
Subscriber_001,topicA,topicA-173,172.172.1.1:1883,1551656698423,RECEIVED
Subscriber_001,topicA,topicA-174,172.172.1.1:1883,1551656698524,RECEIVED
Subscriber_001,topicA,topicA-175,172.172.1.1:1883,1551656698607,RECEIVED
Subscriber_001,topicA,topicA-176,172.172.1.1:1883,1551656698702,RECEIVED
Subscriber_001,topicA,topicA-177,172.172.1.1:1883,1551656698811,RECEIVED
Subscriber_001,topicA,topicA-178,172.172.1.1:1883,1551656698909,RECEIVED
Subscriber_001,topicA,topicA-179,172.172.1.1:1883,1551656699007,RECEIVED
Subscriber_001,topicA,topicA-180,172.172.1.1:1883,1551656699105,RECEIVED
Subscriber_001,topicA,topicA-181,172.172.1.1:1883,1551656699213,RECEIVED
Subscriber_001,topicA,topicA-182,172.172.1.1:1883,1551656699311,RECEIVED
Subscriber_001,topicA,topicA-183,172.172.1.1:1883,1551656699417,RECEIVED
Subscriber_001,topicA,topicA-184,172.172.1.1:1883,1551656699513,RECEIVED
Subscriber_001,topicA,topicA-185,172.172.1.1:1883,1551656699605,RECEIVED
Subscriber_001,topicA,topicA-186,172.172.1.1:1883,1551656699709,RECEIVED
Subscriber_001,topicA,topicA-187,172.172.1.1:1883,1551656699810,RECEIVED
Subscriber_001,topicA,topicA-188,172.172.1.1:1883,1551656699909,RECEIVED
Subscriber_001,topicA,topicA-189,172.172.1.1:1883,1551656700015,RECEIVED
Subscriber_001,topicA,topicA-190,172.172.1.1:1883,1551656700109,RECEIVED
Subscriber_001,topicA,topicA-191,172.172.1.1:1883,1551656700216,RECEIVED
Subscriber_001,topicA,topicA-192,172.172.1.1:1883,1551656700307,RECEIVED
Subscriber_001,topicA,topicA-193,172.172.1.1:1883,1551656700411,RECEIVED
Subscriber_001,topicA,topicA-194,172.172.1.1:1883,1551656700508,RECEIVED
Subscriber_001,topicA,topicA-195,172.172.1.1:1883,1551656700606,RECEIVED
Subscriber_001,topicA,topicA-196,172.172.1.1:1883,1551656700709,RECEIVED
Subscriber_001,topicA,topicA-197,172.172.1.1:1883,1551656700809,RECEIVED
Subscriber_001,topicA,topicA-198,172.172.1.1:1883,1551656700908,RECEIVED
Subscriber_001,topicA,topicA-199,172.172.1.1:1883,1551656701009,RECEIVED
Subscriber_001,topicA,topicA-200,172.172.1.1:1883,1551656701110,RECEIVED
Subscriber_001,topicA,topicA-201,172.172.1.1:1883,1551656701208,RECEIVED
Subscriber_001,topicA,topicA-202,172.172.1.1:1883,1551656701312,RECEIVED
Subscriber_001,topicA,topicA-203,172.172.1.1:1883,1551656701408,RECEIVED
Subscriber_001,topicA,topicA-204,172.172.1.1:1883,1551656701505,RECEIVED
Subscriber_001,topicA,topicA-205,172.172.1.1:1883,1551656701607,RECEIVED
Subscriber_001,topicA,topicA-206,172.172.1.1:1883,1551656701705,RECEIVED
Subscriber_001,topicA,topicA-207,172.172.1.1:1883,1551656701805,RECEIVED
Subscriber_001,topicA,topicA-208,172.172.1.1:1883,1551656701913,RECEIVED
Subscriber_001,topicA,topicA-209,172.172.1.1:1883,1551656702016,RECEIVED
Subscriber_001,topicA,topicA-210,172.172.1.1:1883,1551656702098,RECEIVED
Subscriber_001,topicA,topicA-211,172.172.1.1:1883,1551656702203,RECEIVED
Subscriber_001,topicA,topicA-212,172.172.1.1:1883,1551656702302,RECEIVED
Subscriber_001,topicA,topicA-213,172.172.1.1:1883,1551656702417,RECEIVED
Subscriber_001,topicA,topicA-214,172.172.1.1:1883,1551656702505,RECEIVED
Subscriber_001,topicA,topicA-215,172.172.1.1:1883,1551656702606,RECEIVED
Subscriber_001,topicA,topicA-216,172.172.1.1:1883,1551656702711,RECEIVED
Subscriber_001,topicA,topicA-217,172.172.1.1:1883,1551656702808,RECEIVED
Subscriber_001,topicA,topicA-218,172.172.1.1:1883,1551656702905,RECEIVED
Subscriber_001,topicA,topicA-219,172.172.1.1:1883,1551656703031,RECEIVED
Subscriber_001,topicA,topicA-220,172.172.1.1:1883,1551656703097,RECEIVED
Subscriber_001,topicA,topicA-221,172.172.1.1:1883,1551656703209,RECEIVED
Subscriber_001,topicA,topicA-222,172.172.1.1:1883,1551656703308,RECEIVED
Subscriber_001,topicA,topicA-223,172.172.1.1:1883,1551656703400,RECEIVED
Subscriber_001,topicA,topicA-224,172.172.1.1:1883,1551656703508,RECEIVED
Subscriber_001,topicA,topicA-225,172.172.1.1:1883,1551656703601,RECEIVED
Subscriber_001,topicA,topicA-226,172.172.1.1:1883,1551656703708,RECEIVED
Subscriber_001,topicA,topicA-227,172.172.1.1:1883,1551656703821,RECEIVED
Subscriber_001,topicA,topicA-228,172.172.1.1:1883,1551656703918,RECEIVED
Subscriber_001,topicA,topicA-229,172.172.1.1:1883,1551656704011,RECEIVED
Subscriber_001,topicA,topicA-230,172.172.1.1:1883,1551656704099,RECEIVED
Subscriber_001,topicA,topicA-231,172.172.1.1:1883,1551656704199,RECEIVED
Subscriber_001,topicA,topicA-232,172.172.1.1:1883,1551656704307,RECEIVED
Subscriber_001,topicA,topicA-233,172.172.1.1:1883,1551656704405,RECEIVED
Subscriber_001,topicA,topicA-234,172.172.1.1:1883,1551656704519,RECEIVED
Subscriber_001,topicA,topicA-235,172.172.1.1:1883,1551656704608,RECEIVED
Subscriber_001,topicA,topicA-236,172.172.1.1:1883,1551656704698,RECEIVED
Subscriber_001,topicA,topicA-237,172.172.1.1:1883,1551656704817,RECEIVED
Subscriber_001,topicA,topicA-238,172.172.1.1:1883,1551656704901,RECEIVED
Subscriber_001,topicA,topicA-239,172.172.1.1:1883,1551656705002,RECEIVED
Subscriber_001,topicA,topicA-240,172.172.1.1:1883,1551656705109,RECEIVED
Subscriber_001,topicA,topicA-241,172.172.1.1:1883,1551656705205,RECEIVED
Subscriber_001,topicA,topicA-242,172.172.1.1:1883,1551656705307,RECEIVED
Subscriber_001,topicA,topicA-243,172.172.1.1:1883,1551656705410,RECEIVED
Subscriber_001,topicA,topicA-244,172.172.1.1:1883,1551656705504,RECEIVED
Subscriber_001,topicA,topicA-245,172.172.1.1:1883,1551656705601,RECEIVED
Subscriber_001,topicA,topicA-246,172.172.1.1:1883,1551656705714,RECEIVED
Subscriber_001,topicA,topicA-247,172.172.1.1:1883,1551656705804,RECEIVED
Subscriber_001,topicA,topicA-248,172.172.1.1:1883,1551656705904,RECEIVED
Subscriber_001,topicA,topicA-249,172.172.1.1:1883,1551656706005,RECEIVED
Subscriber_001,topicA,topicA-250,172.172.1.2:1883,1551656708094,RECEIVED
Subscriber_001,topicA,topicA-251,172.172.1.2:1883,1551656708190,RECEIVED
Subscriber_001,topicA,topicA-252,172.172.1.2:1883,1551656708304,RECEIVED
Subscriber_001,topicA,topicA-253,172.172.1.2:1883,1551656708397,RECEIVED
Subscriber_001,topicA,topicA-254,172.172.1.2:1883,1551656708487,RECEIVED
Subscriber_001,topicA,topicA-255,172.172.1.2:1883,1551656708590,RECEIVED
Subscriber_001,topicA,topicA-256,172.172.1.2:1883,1551656708689,RECEIVED
Subscriber_001,topicA,topicA-257,172.172.1.2:1883,1551656708793,RECEIVED
Subscriber_001,topicA,topicA-258,172.172.1.2:1883,1551656708907,RECEIVED
Subscriber_001,topicA,topicA-259,172.172.1.2:1883,1551656708997,RECEIVED
Subscriber_001,topicA,topicA-260,172.172.1.2:1883,1551656709098,RECEIVED
Subscriber_001,topicA,topicA-261,172.172.1.2:1883,1551656709193,RECEIVED
Subscriber_001,topicA,topicA-262,172.172.1.2:1883,1551656709300,RECEIVED
Subscriber_001,topicA,topicA-263,172.172.1.2:1883,1551656709396,RECEIVED
Subscriber_001,topicA,topicA-264,172.172.1.2:1883,1551656709501,RECEIVED
Subscriber_001,topicA,topicA-265,172.172.1.2:1883,1551656709607,RECEIVED
Subscriber_001,topicA,topicA-266,172.172.1.2:1883,1551656709690,RECEIVED
Subscriber_001,topicA,topicA-267,172.172.1.2:1883,1551656709792,RECEIVED
Subscriber_001,topicA,topicA-268,172.172.1.2:1883,1551656709905,RECEIVED
Subscriber_001,topicA,topicA-269,172.172.1.2:1883,1551656709997,RECEIVED
Subscriber_001,topicA,topicA-270,172.172.1.2:1883,1551656710099,RECEIVED
Subscriber_001,topicA,topicA-271,172.172.1.2:1883,1551656710200,RECEIVED
Subscriber_001,topicA,topicA-272,172.172.1.2:1883,1551656710296,RECEIVED
Subscriber_001,topicA,topicA-273,172.172.1.2:1883,1551656710396,RECEIVED
Subscriber_001,topicA,topicA-274,172.172.1.2:1883,1551656710491,RECEIVED
Subscriber_001,topicA,topicA-275,172.172.1.2:1883,1551656710588,RECEIVED
Subscriber_001,topicA,topicA-276,172.172.1.2:1883,1551656710693,RECEIVED
Subscriber_001,topicA,topicA-277,172.172.1.2:1883,1551656710803,RECEIVED
Subscriber_001,topicA,topicA-278,172.172.1.2:1883,1551656710896,RECEIVED
Subscriber_001,topicA,topicA-279,172.172.1.2:1883,1551656710990,RECEIVED
Subscriber_001,topicA,topicA-280,172.172.1.2:1883,1551656711093,RECEIVED
Subscriber_001,topicA,topicA-281,172.172.1.2:1883,1551656711195,RECEIVED
Subscriber_001,topicA,topicA-282,172.172.1.2:1883,1551656711296,RECEIVED
Subscriber_001,topicA,topicA-283,172.172.1.2:1883,1551656711412,RECEIVED
Subscriber_001,topicA,topicA-284,172.172.1.2:1883,1551656711501,RECEIVED
Subscriber_001,topicA,topicA-285,172.172.1.2:1883,1551656711597,RECEIVED
Subscriber_001,topicA,topicA-286,172.172.1.2:1883,1551656711700,RECEIVED
Subscriber_001,topicA,topicA-287,172.172.1.2:1883,1551656711796,RECEIVED
Subscriber_001,topicA,topicA-288,172.172.1.2:1883,1551656711887,RECEIVED
Subscriber_001,topicA,topicA-289,172.172.1.2:1883,1551656711998,RECEIVED
Subscriber_001,topicA,topicA-290,172.172.1.2:1883,1551656712090,RECEIVED
Subscriber_001,topicA,topicA-291,172.172.1.2:1883,1551656712199,RECEIVED
Subscriber_001,topicA,topicA-292,172.172.1.2:1883,1551656712295,RECEIVED
Subscriber_001,topicA,topicA-293,172.172.1.2:1883,1551656712400,RECEIVED
Subscriber_001,topicA,topicA-294,172.172.1.2:1883,1551656712497,RECEIVED
Subscriber_001,topicA,topicA-295,172.172.1.2:1883,1551656712596,RECEIVED
Subscriber_001,topicA,topicA-296,172.172.1.2:1883,1551656712694,RECEIVED
Subscriber_001,topicA,topicA-297,172.172.1.2:1883,1551656712799,RECEIVED
Subscriber_001,topicA,topicA-298,172.172.1.2:1883,1551656712898,RECEIVED
Subscriber_001,topicA,topicA-299,172.172.1.2:1883,1551656712994,RECEIVED
Subscriber_001,topicA,topicA-300,172.172.1.2:1883,1551656713090,RECEIVED
Subscriber_001,topicA,topicA-301,172.172.1.2:1883,1551656713193,RECEIVED
Subscriber_001,topicA,topicA-302,172.172.1.2:1883,1551656713294,RECEIVED
Subscriber_001,topicA,topicA-303,172.172.1.2:1883,1551656713392,RECEIVED
Subscriber_001,topicA,topicA-304,172.172.1.2:1883,1551656713490,RECEIVED
Subscriber_001,topicA,topicA-305,172.172.1.2:1883,1551656713602,RECEIVED
Subscriber_001,topicA,topicA-306,172.172.1.2:1883,1551656713702,RECEIVED
Subscriber_001,topicA,topicA-307,172.172.1.2:1883,1551656713794,RECEIVED
Subscriber_001,topicA,topicA-308,172.172.1.2:1883,1551656713902,RECEIVED
Subscriber_001,topicA,topicA-309,172.172.1.2:1883,1551656713987,RECEIVED
Subscriber_001,topicA,topicA-310,172.172.1.2:1883,1551656714096,RECEIVED
Subscriber_001,topicA,topicA-311,172.172.1.2:1883,1551656714193,RECEIVED
Subscriber_001,topicA,topicA-312,172.172.1.2:1883,1551656714294,RECEIVED
Subscriber_001,topicA,topicA-313,172.172.1.2:1883,1551656714387,RECEIVED
Subscriber_001,topicA,topicA-314,172.172.1.2:1883,1551656714496,RECEIVED
Subscriber_001,topicA,topicA-315,172.172.1.2:1883,1551656714591,RECEIVED
Subscriber_001,topicA,topicA-316,172.172.1.2:1883,1551656714687,RECEIVED
Subscriber_001,topicA,topicA-317,172.172.1.2:1883,1551656714787,RECEIVED
Subscriber_001,topicA,topicA-318,172.172.1.2:1883,1551656714888,RECEIVED
Subscriber_001,topicA,topicA-319,172.172.1.2:1883,1551656714994,RECEIVED
Subscriber_001,topicA,topicA-320,172.172.1.2:1883,1551656715093,RECEIVED
Subscriber_001,topicA,topicA-321,172.172.1.2:1883,1551656715192,RECEIVED
Subscriber_001,topicA,topicA-322,172.172.1.2:1883,1551656715295,RECEIVED
Subscriber_001,topicA,topicA-323,172.172.1.2:1883,1551656715393,RECEIVED
Subscriber_001,topicA,topicA-324,172.172.1.2:1883,1551656715492,RECEIVED
Subscriber_001,topicA,topicA-325,172.172.1.2:1883,1551656715590,RECEIVED
Subscriber_001,topicA,topicA-326,172.172.1.2:1883,1551656715691,RECEIVED
Subscriber_001,topicA,topicA-327,172.172.1.2:1883,1551656715795,RECEIVED
Subscriber_001,topicA,topicA-328,172.172.1.2:1883,1551656715906,RECEIVED
Subscriber_001,topicA,topicA-329,172.172.1.2:1883,1551656716007,RECEIVED
Subscriber_001,topicA,topicA-330,172.172.1.2:1883,1551656716090,RECEIVED
Subscriber_001,topicA,topicA-331,172.172.1.2:1883,1551656716203,RECEIVED
Subscriber_001,topicA,topicA-332,172.172.1.2:1883,1551656716293,RECEIVED
Subscriber_001,topicA,topicA-333,172.172.1.2:1883,1551656716405,RECEIVED
Subscriber_001,topicA,topicA-334,172.172.1.2:1883,1551656716496,RECEIVED
Subscriber_001,topicA,topicA-335,172.172.1.2:1883,1551656716597,RECEIVED
Subscriber_001,topicA,topicA-336,172.172.1.2:1883,1551656716693,RECEIVED
Subscriber_001,topicA,topicA-337,172.172.1.2:1883,1551656716800,RECEIVED
Subscriber_001,topicA,topicA-338,172.172.1.2:1883,1551656716897,RECEIVED
Subscriber_001,topicA,topicA-339,172.172.1.2:1883,1551656716994,RECEIVED
Subscriber_001,topicA,topicA-340,172.172.1.2:1883,1551656717098,RECEIVED
Subscriber_001,topicA,topicA-341,172.172.1.2:1883,1551656717199,RECEIVED
Subscriber_001,topicA,topicA-342,172.172.1.2:1883,1551656717295,RECEIVED
Subscriber_001,topicA,topicA-343,172.172.1.2:1883,1551656717399,RECEIVED
Subscriber_001,topicA,topicA-344,172.172.1.2:1883,1551656717494,RECEIVED
Subscriber_001,topicA,topicA-345,172.172.1.2:1883,1551656717588,RECEIVED
Subscriber_001,topicA,topicA-346,172.172.1.2:1883,1551656717699,RECEIVED
Subscriber_001,topicA,topicA-347,172.172.1.2:1883,1551656717798,RECEIVED
Subscriber_001,topicA,topicA-348,172.172.1.2:1883,1551656717894,RECEIVED
Subscriber_001,topicA,topicA-349,172.172.1.2:1883,1551656717999,RECEIVED
Subscriber_001,topicA,topicA-350,172.172.1.2:1883,1551656718109,RECEIVED
Subscriber_001,topicA,topicA-351,172.172.1.2:1883,1551656718197,RECEIVED
Subscriber_001,topicA,topicA-352,172.172.1.2:1883,1551656718293,RECEIVED
Subscriber_001,topicA,topicA-353,172.172.1.2:1883,1551656718399,RECEIVED
Subscriber_001,topicA,topicA-354,172.172.1.2:1883,1551656718503,RECEIVED
Subscriber_001,topicA,topicA-355,172.172.1.2:1883,1551656718593,RECEIVED
Subscriber_001,topicA,topicA-356,172.172.1.2:1883,1551656718697,RECEIVED
Subscriber_001,topicA,topicA-357,172.172.1.2:1883,1551656718808,RECEIVED
Subscriber_001,topicA,topicA-358,172.172.1.2:1883,1551656718899,RECEIVED
Subscriber_001,topicA,topicA-359,172.172.1.2:1883,1551656718992,RECEIVED
Subscriber_001,topicA,topicA-360,172.172.1.2:1883,1551656719087,RECEIVED
Subscriber_001,topicA,topicA-361,172.172.1.2:1883,1551656719185,RECEIVED
Subscriber_001,topicA,topicA-362,172.172.1.2:1883,1551656719293,RECEIVED
Subscriber_001,topicA,topicA-363,172.172.1.2:1883,1551656719387,RECEIVED
Subscriber_001,topicA,topicA-364,172.172.1.2:1883,1551656719490,RECEIVED
Subscriber_001,topicA,topicA-365,172.172.1.2:1883,1551656719589,RECEIVED
Subscriber_001,topicA,topicA-366,172.172.1.2:1883,1551656719687,RECEIVED
Subscriber_001,topicA,topicA-367,172.172.1.2:1883,1551656719786,RECEIVED
Subscriber_001,topicA,topicA-368,172.172.1.2:1883,1551656719885,RECEIVED
Subscriber_001,topicA,topicA-369,172.172.1.2:1883,1551656719994,RECEIVED
Subscriber_001,topicA,topicA-370,172.172.1.2:1883,1551656720110,RECEIVED
Subscriber_001,topicA,topicA-371,172.172.1.2:1883,1551656720201,RECEIVED
Subscriber_001,topicA,topicA-372,172.172.1.2:1883,1551656720312,RECEIVED
Subscriber_001,topicA,topicA-373,172.172.1.2:1883,1551656720393,RECEIVED
Subscriber_001,topicA,topicA-374,172.172.1.2:1883,1551656720496,RECEIVED
Subscriber_001,topicA,topicA-375,172.172.1.2:1883,1551656720598,RECEIVED
Subscriber_001,topicA,topicA-376,172.172.1.2:1883,1551656720698,RECEIVED
Subscriber_001,topicA,topicA-377,172.172.1.2:1883,1551656720800,RECEIVED
Subscriber_001,topicA,topicA-378,172.172.1.2:1883,1551656720894,RECEIVED
Subscriber_001,topicA,topicA-379,172.172.1.2:1883,1551656720998,RECEIVED
Subscriber_001,topicA,topicA-380,172.172.1.2:1883,1551656721099,RECEIVED
Subscriber_001,topicA,topicA-381,172.172.1.2:1883,1551656721201,RECEIVED
Subscriber_001,topicA,topicA-382,172.172.1.2:1883,1551656721292,RECEIVED
Subscriber_001,topicA,topicA-383,172.172.1.2:1883,1551656721393,RECEIVED
Subscriber_001,topicA,topicA-384,172.172.1.2:1883,1551656721534,RECEIVED
Subscriber_001,topicA,topicA-385,172.172.1.2:1883,1551656721596,RECEIVED
Subscriber_001,topicA,topicA-386,172.172.1.2:1883,1551656721700,RECEIVED
Subscriber_001,topicA,topicA-387,172.172.1.2:1883,1551656721800,RECEIVED
Subscriber_001,topicA,topicA-388,172.172.1.2:1883,1551656721897,RECEIVED
Subscriber_001,topicA,topicA-389,172.172.1.2:1883,1551656721987,RECEIVED
Subscriber_001,topicA,topicA-390,172.172.1.2:1883,1551656722094,RECEIVED
Subscriber_001,topicA,topicA-391,172.172.1.2:1883,1551656722186,RECEIVED
Subscriber_001,topicA,topicA-392,172.172.1.2:1883,1551656722296,RECEIVED
Subscriber_001,topicA,topicA-393,172.172.1.2:1883,1551656722386,RECEIVED
Subscriber_001,topicA,topicA-394,172.172.1.2:1883,1551656722493,RECEIVED
Subscriber_001,topicA,topicA-395,172.172.1.2:1883,1551656722593,RECEIVED
Subscriber_001,topicA,topicA-396,172.172.1.2:1883,1551656722691,RECEIVED
Subscriber_001,topicA,topicA-397,172.172.1.2:1883,1551656722798,RECEIVED
Subscriber_001,topicA,topicA-398,172.172.1.2:1883,1551656722910,RECEIVED
Subscriber_001,topicA,topicA-399,172.172.1.2:1883,1551656722989,RECEIVED
Subscriber_001,topicA,topicA-400,172.172.1.2:1883,1551656723106,RECEIVED
Subscriber_001,topicA,topicA-401,172.172.1.2:1883,1551656723195,RECEIVED
Subscriber_001,topicA,topicA-402,172.172.1.2:1883,1551656723295,RECEIVED
Subscriber_001,topicA,topicA-403,172.172.1.2:1883,1551656723395,RECEIVED
Subscriber_001,topicA,topicA-404,172.172.1.2:1883,1551656723490,RECEIVED
Subscriber_001,topicA,topicA-405,172.172.1.2:1883,1551656723599,RECEIVED
Subscriber_001,topicA,topicA-406,172.172.1.2:1883,1551656723697,RECEIVED
Subscriber_001,topicA,topicA-407,172.172.1.2:1883,1551656723797,RECEIVED
Subscriber_001,topicA,topicA-408,172.172.1.2:1883,1551656723892,RECEIVED
Subscriber_001,topicA,topicA-409,172.172.1.2:1883,1551656723996,RECEIVED
Subscriber_001,topicA,topicA-410,172.172.1.2:1883,1551656724100,RECEIVED
Subscriber_001,topicA,topicA-411,172.172.1.2:1883,1551656724187,RECEIVED
Subscriber_001,topicA,topicA-412,172.172.1.2:1883,1551656724293,RECEIVED
Subscriber_001,topicA,topicA-413,172.172.1.2:1883,1551656724401,RECEIVED
Subscriber_001,topicA,topicA-414,172.172.1.2:1883,1551656724499,RECEIVED
Subscriber_001,topicA,topicA-415,172.172.1.2:1883,1551656724592,RECEIVED
Subscriber_001,topicA,topicA-416,172.172.1.2:1883,1551656724697,RECEIVED
Subscriber_001,topicA,topicA-417,172.172.1.2:1883,1551656724792,RECEIVED
Subscriber_001,topicA,topicA-418,172.172.1.2:1883,1551656724891,RECEIVED
Subscriber_001,topicA,topicA-419,172.172.1.2:1883,1551656724996,RECEIVED
Subscriber_001,topicA,topicA-420,172.172.1.2:1883,1551656725097,RECEIVED
Subscriber_001,topicA,topicA-421,172.172.1.2:1883,1551656725196,RECEIVED
Subscriber_001,topicA,topicA-422,172.172.1.2:1883,1551656725296,RECEIVED
Subscriber_001,topicA,topicA-423,172.172.1.2:1883,1551656725391,RECEIVED
Subscriber_001,topicA,topicA-424,172.172.1.2:1883,1551656725496,RECEIVED
Subscriber_001,topicA,topicA-425,172.172.1.2:1883,1551656725594,RECEIVED
Subscriber_001,topicA,topicA-426,172.172.1.2:1883,1551656725717,RECEIVED
Subscriber_001,topicA,topicA-427,172.172.1.2:1883,1551656725795,RECEIVED
Subscriber_001,topicA,topicA-428,172.172.1.2:1883,1551656725893,RECEIVED
Subscriber_001,topicA,topicA-429,172.172.1.2:1883,1551656726017,RECEIVED
Subscriber_001,topicA,topicA-430,172.172.1.2:1883,1551656726088,RECEIVED
Subscriber_001,topicA,topicA-431,172.172.1.2:1883,1551656726189,RECEIVED
Subscriber_001,topicA,topicA-432,172.172.1.2:1883,1551656726289,RECEIVED
Subscriber_001,topicA,topicA-433,172.172.1.2:1883,1551656726393,RECEIVED
Subscriber_001,topicA,topicA-434,172.172.1.2:1883,1551656726499,RECEIVED
Subscriber_001,topicA,topicA-435,172.172.1.2:1883,1551656726592,RECEIVED
Subscriber_001,topicA,topicA-436,172.172.1.2:1883,1551656726706,RECEIVED
Subscriber_001,topicA,topicA-437,172.172.1.2:1883,1551656726798,RECEIVED
Subscriber_001,topicA,topicA-438,172.172.1.2:1883,1551656726898,RECEIVED
Subscriber_001,topicA,topicA-439,172.172.1.2:1883,1551656726993,RECEIVED
Subscriber_001,topicA,topicA-440,172.172.1.2:1883,1551656727096,RECEIVED
Subscriber_001,topicA,topicA-441,172.172.1.2:1883,1551656727193,RECEIVED
Subscriber_001,topicA,topicA-442,172.172.1.2:1883,1551656727301,RECEIVED
Subscriber_001,topicA,topicA-443,172.172.1.2:1883,1551656727395,RECEIVED
Subscriber_001,topicA,topicA-444,172.172.1.2:1883,1551656727500,RECEIVED
Subscriber_001,topicA,topicA-445,172.172.1.2:1883,1551656727607,RECEIVED
Subscriber_001,topicA,topicA-446,172.172.1.2:1883,1551656727695,RECEIVED
Subscriber_001,topicA,topicA-447,172.172.1.2:1883,1551656727790,RECEIVED
Subscriber_001,topicA,topicA-448,172.172.1.2:1883,1551656727906,RECEIVED
Subscriber_001,topicA,topicA-449,172.172.1.2:1883,1551656727996,RECEIVED
Subscriber_001,topicA,topicA-450,172.172.1.2:1883,1551656728103,RECEIVED
Subscriber_001,topicA,topicA-451,172.172.1.2:1883,1551656728199,RECEIVED
Subscriber_001,topicA,topicA-452,172.172.1.2:1883,1551656728302,RECEIVED
Subscriber_001,topicA,topicA-453,172.172.1.2:1883,1551656728405,RECEIVED
Subscriber_001,topicA,topicA-454,172.172.1.2:1883,1551656728494,RECEIVED
Subscriber_001,topicA,topicA-455,172.172.1.2:1883,1551656728603,RECEIVED
Subscriber_001,topicA,topicA-456,172.172.1.2:1883,1551656728696,RECEIVED
Subscriber_001,topicA,topicA-457,172.172.1.2:1883,1551656728793,RECEIVED
Subscriber_001,topicA,topicA-458,172.172.1.2:1883,1551656728896,RECEIVED
Subscriber_001,topicA,topicA-459,172.172.1.2:1883,1551656729002,RECEIVED
Subscriber_001,topicA,topicA-460,172.172.1.2:1883,1551656729096,RECEIVED
Subscriber_001,topicA,topicA-461,172.172.1.2:1883,1551656729187,RECEIVED
Subscriber_001,topicA,topicA-462,172.172.1.2:1883,1551656729297,RECEIVED
Subscriber_001,topicA,topicA-463,172.172.1.2:1883,1551656729392,RECEIVED
Subscriber_001,topicA,topicA-464,172.172.1.2:1883,1551656729493,RECEIVED
Subscriber_001,topicA,topicA-465,172.172.1.2:1883,1551656729591,RECEIVED
Subscriber_001,topicA,topicA-466,172.172.1.2:1883,1551656729686,RECEIVED
Subscriber_001,topicA,topicA-467,172.172.1.2:1883,1551656729798,RECEIVED
Subscriber_001,topicA,topicA-468,172.172.1.2:1883,1551656729886,RECEIVED
Subscriber_001,topicA,topicA-469,172.172.1.2:1883,1551656729992,RECEIVED
Subscriber_001,topicA,topicA-470,172.172.1.2:1883,1551656730084,RECEIVED
Subscriber_001,topicA,topicA-471,172.172.1.2:1883,1551656730192,RECEIVED
Subscriber_001,topicA,topicA-472,172.172.1.2:1883,1551656730294,RECEIVED
Subscriber_001,topicA,topicA-473,172.172.1.2:1883,1551656730384,RECEIVED
Subscriber_001,topicA,topicA-474,172.172.1.2:1883,1551656730486,RECEIVED
Subscriber_001,topicA,topicA-475,172.172.1.2:1883,1551656730591,RECEIVED
Subscriber_001,topicA,topicA-476,172.172.1.2:1883,1551656730697,RECEIVED
Subscriber_001,topicA,topicA-477,172.172.1.2:1883,1551656730796,RECEIVED
Subscriber_001,topicA,topicA-478,172.172.1.2:1883,1551656730905,RECEIVED
Subscriber_001,topicA,topicA-479,172.172.1.2:1883,1551656731000,RECEIVED
Subscriber_001,topicA,topicA-480,172.172.1.2:1883,1551656731097,RECEIVED
Subscriber_001,topicA,topicA-481,172.172.1.2:1883,1551656731196,RECEIVED
Subscriber_001,topicA,topicA-482,172.172.1.2:1883,1551656731292,RECEIVED
Subscriber_001,topicA,topicA-483,172.172.1.2:1883,1551656731390,RECEIVED
Subscriber_001,topicA,topicA-484,172.172.1.2:1883,1551656731485,RECEIVED
Subscriber_001,topicA,topicA-485,172.172.1.2:1883,1551656731585,RECEIVED
Subscriber_001,topicA,topicA-486,172.172.1.2:1883,1551656731698,RECEIVED
Subscriber_001,topicA,topicA-487,172.172.1.2:1883,1551656731785,RECEIVED
Subscriber_001,topicA,topicA-488,172.172.1.2:1883,1551656731892,RECEIVED
Subscriber_001,topicA,topicA-489,172.172.1.2:1883,1551656731992,RECEIVED
Subscriber_001,topicA,topicA-490,172.172.1.2:1883,1551656732095,RECEIVED
Subscriber_001,topicA,topicA-491,172.172.1.2:1883,1551656732206,RECEIVED
Subscriber_001,topicA,topicA-492,172.172.1.2:1883,1551656732292,RECEIVED
Subscriber_001,topicA,topicA-493,172.172.1.2:1883,1551656732389,RECEIVED
Subscriber_001,topicA,topicA-494,172.172.1.2:1883,1551656732486,RECEIVED
Subscriber_001,topicA,topicA-495,172.172.1.2:1883,1551656732594,RECEIVED
Subscriber_001,topicA,topicA-496,172.172.1.2:1883,1551656732697,RECEIVED
Subscriber_001,topicA,topicA-497,172.172.1.2:1883,1551656732800,RECEIVED
Subscriber_001,topicA,topicA-498,172.172.1.2:1883,1551656732892,RECEIVED
Subscriber_001,topicA,topicA-499,172.172.1.2:1883,1551656732993,RECEIVED
Subscriber_001,topicA,topicA-500,172.172.1.2:1883,1551656733104,RECEIVED
Subscriber_001,topicA,topicA-501,172.172.1.2:1883,1551656733197,RECEIVED
Subscriber_001,topicA,topicA-502,172.172.1.2:1883,1551656733301,RECEIVED
Subscriber_001,topicA,topicA-503,172.172.1.2:1883,1551656733399,RECEIVED
Subscriber_001,topicA,topicA-504,172.172.1.2:1883,1551656733500,RECEIVED
Subscriber_001,topicA,topicA-505,172.172.1.2:1883,1551656733598,RECEIVED
Subscriber_001,topicA,topicA-506,172.172.1.2:1883,1551656733689,RECEIVED
Subscriber_001,topicA,topicA-507,172.172.1.2:1883,1551656733785,RECEIVED
Subscriber_001,topicA,topicA-508,172.172.1.2:1883,1551656733891,RECEIVED
Subscriber_001,topicA,topicA-509,172.172.1.2:1883,1551656733991,RECEIVED
Subscriber_001,topicA,topicA-510,172.172.1.2:1883,1551656734087,RECEIVED
Subscriber_001,topicA,topicA-511,172.172.1.2:1883,1551656734209,RECEIVED
Subscriber_001,topicA,topicA-512,172.172.1.2:1883,1551656734301,RECEIVED
Subscriber_001,topicA,topicA-513,172.172.1.2:1883,1551656734397,RECEIVED
Subscriber_001,topicA,topicA-514,172.172.1.2:1883,1551656734493,RECEIVED
Subscriber_001,topicA,topicA-515,172.172.1.2:1883,1551656734596,RECEIVED
Subscriber_001,topicA,topicA-516,172.172.1.2:1883,1551656734690,RECEIVED
Subscriber_001,topicA,topicA-517,172.172.1.2:1883,1551656734788,RECEIVED
Subscriber_001,topicA,topicA-518,172.172.1.2:1883,1551656734890,RECEIVED
Subscriber_001,topicA,topicA-519,172.172.1.2:1883,1551656734991,RECEIVED
Subscriber_001,topicA,topicA-520,172.172.1.2:1883,1551656735089,RECEIVED
Subscriber_001,topicA,topicA-521,172.172.1.2:1883,1551656735190,RECEIVED
Subscriber_001,topicA,topicA-522,172.172.1.2:1883,1551656735298,RECEIVED
Subscriber_001,topicA,topicA-523,172.172.1.2:1883,1551656735399,RECEIVED
Subscriber_001,topicA,topicA-524,172.172.1.2:1883,1551656735495,RECEIVED
Subscriber_001,topicA,topicA-525,172.172.1.2:1883,1551656735599,RECEIVED
Subscriber_001,topicA,topicA-526,172.172.1.2:1883,1551656735693,RECEIVED
Subscriber_001,topicA,topicA-527,172.172.1.2:1883,1551656735800,RECEIVED
Subscriber_001,topicA,topicA-528,172.172.1.2:1883,1551656735893,RECEIVED
Subscriber_001,topicA,topicA-529,172.172.1.2:1883,1551656735997,RECEIVED
Subscriber_001,topicA,topicA-530,172.172.1.2:1883,1551656736090,RECEIVED
Subscriber_001,topicA,topicA-531,172.172.1.2:1883,1551656736206,RECEIVED
Subscriber_001,topicA,topicA-532,172.172.1.2:1883,1551656736299,RECEIVED
Subscriber_001,topicA,topicA-533,172.172.1.2:1883,1551656736388,RECEIVED
Subscriber_001,topicA,topicA-534,172.172.1.2:1883,1551656736491,RECEIVED
Subscriber_001,topicA,topicA-535,172.172.1.2:1883,1551656736594,RECEIVED
Subscriber_001,topicA,topicA-536,172.172.1.2:1883,1551656736695,RECEIVED
Subscriber_001,topicA,topicA-537,172.172.1.2:1883,1551656736794,RECEIVED
Subscriber_001,topicA,topicA-538,172.172.1.2:1883,1551656736885,RECEIVED
Subscriber_001,topicA,topicA-539,172.172.1.2:1883,1551656736989,RECEIVED
Subscriber_001,topicA,topicA-540,172.172.1.2:1883,1551656737099,RECEIVED
Subscriber_001,topicA,topicA-541,172.172.1.2:1883,1551656737189,RECEIVED
Subscriber_001,topicA,topicA-542,172.172.1.2:1883,1551656737295,RECEIVED
Subscriber_001,topicA,topicA-543,172.172.1.2:1883,1551656737386,RECEIVED
Subscriber_001,topicA,topicA-544,172.172.1.2:1883,1551656737485,RECEIVED
Subscriber_001,topicA,topicA-545,172.172.1.2:1883,1551656737592,RECEIVED
Subscriber_001,topicA,topicA-546,172.172.1.2:1883,1551656737691,RECEIVED
Subscriber_001,topicA,topicA-547,172.172.1.2:1883,1551656737805,RECEIVED
Subscriber_001,topicA,topicA-548,172.172.1.2:1883,1551656737885,RECEIVED
Subscriber_001,topicA,topicA-549,172.172.1.2:1883,1551656737993,RECEIVED
Subscriber_001,topicA,topicA-550,172.172.1.2:1883,1551656738101,RECEIVED
Subscriber_001,topicA,topicA-551,172.172.1.2:1883,1551656738189,RECEIVED
Subscriber_001,topicA,topicA-552,172.172.1.2:1883,1551656738289,RECEIVED
Subscriber_001,topicA,topicA-553,172.172.1.2:1883,1551656738386,RECEIVED
Subscriber_001,topicA,topicA-554,172.172.1.2:1883,1551656738485,RECEIVED
Subscriber_001,topicA,topicA-555,172.172.1.2:1883,1551656738595,RECEIVED
Subscriber_001,topicA,topicA-556,172.172.1.2:1883,1551656738696,RECEIVED
Subscriber_001,topicA,topicA-557,172.172.1.2:1883,1551656738797,RECEIVED
Subscriber_001,topicA,topicA-558,172.172.1.2:1883,1551656738896,RECEIVED
Subscriber_001,topicA,topicA-559,172.172.1.2:1883,1551656738987,RECEIVED
Subscriber_001,topicA,topicA-560,172.172.1.2:1883,1551656739096,RECEIVED
Subscriber_001,topicA,topicA-561,172.172.1.2:1883,1551656739192,RECEIVED
Subscriber_001,topicA,topicA-562,172.172.1.2:1883,1551656739288,RECEIVED
Subscriber_001,topicA,topicA-563,172.172.1.2:1883,1551656739386,RECEIVED
Subscriber_001,topicA,topicA-564,172.172.1.2:1883,1551656739489,RECEIVED
Subscriber_001,topicA,topicA-565,172.172.1.2:1883,1551656739588,RECEIVED
Subscriber_001,topicA,topicA-566,172.172.1.2:1883,1551656739693,RECEIVED
Subscriber_001,topicA,topicA-567,172.172.1.2:1883,1551656739795,RECEIVED
Subscriber_001,topicA,topicA-568,172.172.1.2:1883,1551656739891,RECEIVED
Subscriber_001,topicA,topicA-569,172.172.1.2:1883,1551656739988,RECEIVED
Subscriber_001,topicA,topicA-570,172.172.1.2:1883,1551656740096,RECEIVED
Subscriber_001,topicA,topicA-571,172.172.1.2:1883,1551656740193,RECEIVED
Subscriber_001,topicA,topicA-572,172.172.1.2:1883,1551656740305,RECEIVED
Subscriber_001,topicA,topicA-573,172.172.1.2:1883,1551656740391,RECEIVED
Subscriber_001,topicA,topicA-574,172.172.1.2:1883,1551656740498,RECEIVED
Subscriber_001,topicA,topicA-575,172.172.1.2:1883,1551656740591,RECEIVED
Subscriber_001,topicA,topicA-576,172.172.1.2:1883,1551656740692,RECEIVED
Subscriber_001,topicA,topicA-577,172.172.1.2:1883,1551656740806,RECEIVED
Subscriber_001,topicA,topicA-578,172.172.1.2:1883,1551656740897,RECEIVED
Subscriber_001,topicA,topicA-579,172.172.1.2:1883,1551656740997,RECEIVED
Subscriber_001,topicA,topicA-580,172.172.1.2:1883,1551656741098,RECEIVED
Subscriber_001,topicA,topicA-581,172.172.1.2:1883,1551656741194,RECEIVED
Subscriber_001,topicA,topicA-582,172.172.1.2:1883,1551656741298,RECEIVED
Subscriber_001,topicA,topicA-583,172.172.1.2:1883,1551656741394,RECEIVED
Subscriber_001,topicA,topicA-584,172.172.1.2:1883,1551656741494,RECEIVED
Subscriber_001,topicA,topicA-585,172.172.1.2:1883,1551656741601,RECEIVED
Subscriber_001,topicA,topicA-586,172.172.1.2:1883,1551656741698,RECEIVED
Subscriber_001,topicA,topicA-587,172.172.1.2:1883,1551656741790,RECEIVED
Subscriber_001,topicA,topicA-588,172.172.1.2:1883,1551656741887,RECEIVED
Subscriber_001,topicA,topicA-589,172.172.1.2:1883,1551656741992,RECEIVED
Subscriber_001,topicA,topicA-590,172.172.1.2:1883,1551656742095,RECEIVED
Subscriber_001,topicA,topicA-591,172.172.1.2:1883,1551656742195,RECEIVED
Subscriber_001,topicA,topicA-592,172.172.1.2:1883,1551656742295,RECEIVED
Subscriber_001,topicA,topicA-593,172.172.1.2:1883,1551656742391,RECEIVED
Subscriber_001,topicA,topicA-594,172.172.1.2:1883,1551656742484,RECEIVED
Subscriber_001,topicA,topicA-595,172.172.1.2:1883,1551656742592,RECEIVED
Subscriber_001,topicA,topicA-596,172.172.1.2:1883,1551656742700,RECEIVED
Subscriber_001,topicA,topicA-597,172.172.1.2:1883,1551656742791,RECEIVED
Subscriber_001,topicA,topicA-598,172.172.1.2:1883,1551656742893,RECEIVED
Subscriber_001,topicA,topicA-599,172.172.1.2:1883,1551656742987,RECEIVED
Subscriber_001,topicA,topicA-600,172.172.1.2:1883,1551656743087,RECEIVED
Subscriber_001,topicA,topicA-601,172.172.1.2:1883,1551656743187,RECEIVED
Subscriber_001,topicA,topicA-602,172.172.1.2:1883,1551656743294,RECEIVED
Subscriber_001,topicA,topicA-603,172.172.1.2:1883,1551656743392,RECEIVED
Subscriber_001,topicA,topicA-604,172.172.1.2:1883,1551656743490,RECEIVED
Subscriber_001,topicA,topicA-605,172.172.1.2:1883,1551656743586,RECEIVED
Subscriber_001,topicA,topicA-606,172.172.1.2:1883,1551656743699,RECEIVED
Subscriber_001,topicA,topicA-607,172.172.1.2:1883,1551656743793,RECEIVED
Subscriber_001,topicA,topicA-608,172.172.1.2:1883,1551656743898,RECEIVED
Subscriber_001,topicA,topicA-609,172.172.1.2:1883,1551656744000,RECEIVED
Subscriber_001,topicA,topicA-610,172.172.1.2:1883,1551656744091,RECEIVED
Subscriber_001,topicA,topicA-611,172.172.1.2:1883,1551656744187,RECEIVED
Subscriber_001,topicA,topicA-612,172.172.1.2:1883,1551656744291,RECEIVED
Subscriber_001,topicA,topicA-613,172.172.1.2:1883,1551656744385,RECEIVED
Subscriber_001,topicA,topicA-614,172.172.1.2:1883,1551656744490,RECEIVED
Subscriber_001,topicA,topicA-615,172.172.1.2:1883,1551656744587,RECEIVED
Subscriber_001,topicA,topicA-616,172.172.1.2:1883,1551656744686,RECEIVED
Subscriber_001,topicA,topicA-617,172.172.1.2:1883,1551656744788,RECEIVED
Subscriber_001,topicA,topicA-618,172.172.1.2:1883,1551656744887,RECEIVED
Subscriber_001,topicA,topicA-619,172.172.1.2:1883,1551656744988,RECEIVED
Subscriber_001,topicA,topicA-620,172.172.1.2:1883,1551656745090,RECEIVED
Subscriber_001,topicA,topicA-621,172.172.1.2:1883,1551656745187,RECEIVED
Subscriber_001,topicA,topicA-622,172.172.1.2:1883,1551656745283,RECEIVED
Subscriber_001,topicA,topicA-623,172.172.1.2:1883,1551656745385,RECEIVED
Subscriber_001,topicA,topicA-624,172.172.1.2:1883,1551656745484,RECEIVED
Subscriber_001,topicA,topicA-625,172.172.1.2:1883,1551656745593,RECEIVED
Subscriber_001,topicA,topicA-626,172.172.1.2:1883,1551656745695,RECEIVED
Subscriber_001,topicA,topicA-627,172.172.1.2:1883,1551656745783,RECEIVED
Subscriber_001,topicA,topicA-628,172.172.1.2:1883,1551656745895,RECEIVED
Subscriber_001,topicA,topicA-629,172.172.1.2:1883,1551656745989,RECEIVED
Subscriber_001,topicA,topicA-630,172.172.1.2:1883,1551656746091,RECEIVED
Subscriber_001,topicA,topicA-631,172.172.1.2:1883,1551656746199,RECEIVED
Subscriber_001,topicA,topicA-632,172.172.1.2:1883,1551656746287,RECEIVED
Subscriber_001,topicA,topicA-633,172.172.1.2:1883,1551656746385,RECEIVED
Subscriber_001,topicA,topicA-634,172.172.1.2:1883,1551656746492,RECEIVED
Subscriber_001,topicA,topicA-635,172.172.1.2:1883,1551656746597,RECEIVED
Subscriber_001,topicA,topicA-636,172.172.1.2:1883,1551656746691,RECEIVED
Subscriber_001,topicA,topicA-637,172.172.1.2:1883,1551656746789,RECEIVED
Subscriber_001,topicA,topicA-638,172.172.1.2:1883,1551656746892,RECEIVED
Subscriber_001,topicA,topicA-639,172.172.1.2:1883,1551656746990,RECEIVED
Subscriber_001,topicA,topicA-640,172.172.1.2:1883,1551656747133,RECEIVED
Subscriber_001,topicA,topicA-641,172.172.1.2:1883,1551656747189,RECEIVED
Subscriber_001,topicA,topicA-642,172.172.1.2:1883,1551656747287,RECEIVED
Subscriber_001,topicA,topicA-643,172.172.1.2:1883,1551656747398,RECEIVED
