[1] "Duration B1: 2125"
[1] "Duration B2: 1902"
[1] "Duration MIGRATE: 272"
[1] "Duration MIGACK: -49"
[1] "addrow"
[1] "INITIALIZED"
  timestamp       event                          migrationId
1         0 INITIALIZED 2a79e98f-4916-4c98-837d-233e96ec348d
[1] "addrow"
[1] "SYNCING"
[1] "addrow"
[1] "SYNCED"
[1] "addrow"
[1] "FINISHED"
  timestamp    event                          migrationId
8      2125 FINISHED 2a79e98f-4916-4c98-837d-233e96ec348d
[1] "addrow"
[1] "topicA-INITIALIZED"
  timestamp              event                          migrationId
3         6 topicA-INITIALIZED 2a79e98f-4916-4c98-837d-233e96ec348d
[1] "addrow"
[1] "topicA-SYNCING"
[1] "addrow"
[1] "topicA-SYNCED"
  timestamp         event                          migrationId
5        18 topicA-SYNCED 2a79e98f-4916-4c98-837d-233e96ec348d
[1] "addrow"
[1] "topicA-FINISHED"
  timestamp           event                          migrationId
7      2123 topicA-FINISHED 2a79e98f-4916-4c98-837d-233e96ec348d
[1] "addrow"
[1] "topicB-INITIALIZED"
  timestamp              event                          migrationId
4        10 topicB-INITIALIZED 2a79e98f-4916-4c98-837d-233e96ec348d
[1] "addrow"
[1] "topicB-SYNCING"
[1] "addrow"
[1] "topicB-SYNCED"
[1] "addrow"
[1] "topicB-FINISHED"
  timestamp           event                          migrationId
9      2123 topicB-FINISHED 2a79e98f-4916-4c98-837d-233e96ec348d
[1] "addrow"
[1] "topicC-INITIALIZED"
  timestamp              event                          migrationId
2         3 topicC-INITIALIZED 2a79e98f-4916-4c98-837d-233e96ec348d
[1] "addrow"
[1] "topicC-SYNCING"
[1] "addrow"
[1] "topicC-SYNCED"
[1] "addrow"
[1] "topicC-FINISHED"
  timestamp           event                          migrationId
6      2120 topicC-FINISHED 2a79e98f-4916-4c98-837d-233e96ec348d
