timestamp,event,migrationId
1551653971279,INITIALIZED,221af48b-6aad-4cba-b11f-4fadddbc02d2
1551653971282,topicA-INITIALIZED,221af48b-6aad-4cba-b11f-4fadddbc02d2
1551653971475,topicA-SYNCING,221af48b-6aad-4cba-b11f-4fadddbc02d2
1551653971480,topicA-SYNCING_THIS,221af48b-6aad-4cba-b11f-4fadddbc02d2
1551653971484,SYNCING,221af48b-6aad-4cba-b11f-4fadddbc02d2
1551653971766,topicA-SYNCED,221af48b-6aad-4cba-b11f-4fadddbc02d2
1551653971766,SYNCED,221af48b-6aad-4cba-b11f-4fadddbc02d2
1551653971785,topicA-FINISHED,221af48b-6aad-4cba-b11f-4fadddbc02d2
1551653971792,FINISHED,221af48b-6aad-4cba-b11f-4fadddbc02d2
