timestamp,event,migrationId
1551646331747,INITIALIZED,a1fd5898-dd70-412d-99be-2e9ef250712f
1551646331751,topicC-INITIALIZED,a1fd5898-dd70-412d-99be-2e9ef250712f
1551646331752,topicA-INITIALIZED,a1fd5898-dd70-412d-99be-2e9ef250712f
1551646331753,topicB-INITIALIZED,a1fd5898-dd70-412d-99be-2e9ef250712f
1551646331976,topicC-SYNCING,a1fd5898-dd70-412d-99be-2e9ef250712f
1551646331977,topicA-SYNCING,a1fd5898-dd70-412d-99be-2e9ef250712f
1551646331978,topicB-SYNCING,a1fd5898-dd70-412d-99be-2e9ef250712f
1551646331979,SYNCING,a1fd5898-dd70-412d-99be-2e9ef250712f
1551646331980,topicC-SYNCING_THIS,a1fd5898-dd70-412d-99be-2e9ef250712f
1551646331980,topicA-SYNCING_THIS,a1fd5898-dd70-412d-99be-2e9ef250712f
1551646331981,topicB-SYNCING_THIS,a1fd5898-dd70-412d-99be-2e9ef250712f
1551646332213,topicA-SYNCED,a1fd5898-dd70-412d-99be-2e9ef250712f
1551646332236,topicC-SYNCED,a1fd5898-dd70-412d-99be-2e9ef250712f
1551646332248,topicB-SYNCED,a1fd5898-dd70-412d-99be-2e9ef250712f
1551646332249,SYNCED,a1fd5898-dd70-412d-99be-2e9ef250712f
1551646332258,topicC-FINISHED,a1fd5898-dd70-412d-99be-2e9ef250712f
1551646332259,topicA-FINISHED,a1fd5898-dd70-412d-99be-2e9ef250712f
1551646332262,topicB-FINISHED,a1fd5898-dd70-412d-99be-2e9ef250712f
1551646332304,FINISHED,a1fd5898-dd70-412d-99be-2e9ef250712f
