timestamp,event,migrationId
1551651646221,INITIALIZED,d7bc3d3f-e88d-4a6f-8af2-63572f4e4147
1551651646227,topicA-INITIALIZED,d7bc3d3f-e88d-4a6f-8af2-63572f4e4147
1551651646442,topicA-SYNCING,d7bc3d3f-e88d-4a6f-8af2-63572f4e4147
1551651646444,SYNCING,d7bc3d3f-e88d-4a6f-8af2-63572f4e4147
1551651646446,topicA-SYNCING_OPPONENT,d7bc3d3f-e88d-4a6f-8af2-63572f4e4147
1551651648473,topicA-SYNCED,d7bc3d3f-e88d-4a6f-8af2-63572f4e4147
1551651648473,SYNCED,d7bc3d3f-e88d-4a6f-8af2-63572f4e4147
1551651648486,topicA-FINISHED,d7bc3d3f-e88d-4a6f-8af2-63572f4e4147
1551651648487,FINISHED,d7bc3d3f-e88d-4a6f-8af2-63572f4e4147
