timestamp,event,migrationId
1551647999502,INITIALIZED,d583b44c-9541-45e2-9487-2e0c8861f483
1551647999504,topicA-INITIALIZED,d583b44c-9541-45e2-9487-2e0c8861f483
1551647999711,topicA-SYNCING,d583b44c-9541-45e2-9487-2e0c8861f483
1551647999711,SYNCING,d583b44c-9541-45e2-9487-2e0c8861f483
1551647999713,topicA-SYNCING_THIS,d583b44c-9541-45e2-9487-2e0c8861f483
1551647999721,topicA-SYNCED,d583b44c-9541-45e2-9487-2e0c8861f483
1551647999722,SYNCED,d583b44c-9541-45e2-9487-2e0c8861f483
1551647999735,topicA-FINISHED,d583b44c-9541-45e2-9487-2e0c8861f483
1551647999737,FINISHED,d583b44c-9541-45e2-9487-2e0c8861f483
