928  [hawtdispatch-DEFAULT-2] INFO  DataIntegrityVerifier  - Ok. clientId=Subscriber_001, topic=topicA, qos=AT_MOST_ONCE
929  [hawtdispatch-DEFAULT-2] INFO  DataIntegrityVerifier  - Ok. clientId=Subscriber_001, topic=topicA, qos=AT_MOST_ONCE
930  [hawtdispatch-DEFAULT-2] INFO  DataIntegrityVerifier  - Ok. clientId=Subscriber_001, topic=topicA, qos=AT_MOST_ONCE
1021 [hawtdispatch-DEFAULT-1] INFO  DataIntegrityVerifier  - Ok. clientId=Subscriber_001, topic=topicA, qos=AT_MOST_ONCE
1139 [hawtdispatch-DEFAULT-1] INFO  DataIntegrityVerifier  - Ok. clientId=Subscriber_001, topic=topicA, qos=AT_MOST_ONCE
1228 [hawtdispatch-DEFAULT-1] INFO  DataIntegrityVerifier  - Ok. clientId=Subscriber_001, topic=topicA, qos=AT_MOST_ONCE
1339 [hawtdispatch-DEFAULT-2] INFO  DataIntegrityVerifier  - Ok. clientId=Subscriber_001, topic=topicA, qos=AT_MOST_ONCE
1415 [hawtdispatch-DEFAULT-1] INFO  DataIntegrityVerifier  - Ok. clientId=Subscriber_001, topic=topicA, qos=AT_MOST_ONCE
1522 [hawtdispatch-DEFAULT-2] INFO  DataIntegrityVerifier  - Ok. clientId=Subscriber_001, topic=topicA, qos=AT_MOST_ONCE
1627 [hawtdispatch-DEFAULT-2] INFO  DataIntegrityVerifier  - Ok. clientId=Subscriber_001, topic=topicA, qos=AT_MOST_ONCE
1726 [hawtdispatch-DEFAULT-2] INFO  DataIntegrityVerifier  - Ok. clientId=Subscriber_001, topic=topicA, qos=AT_MOST_ONCE
1826 [hawtdispatch-DEFAULT-2] INFO  DataIntegrityVerifier  - Ok. clientId=Subscriber_001, topic=topicA, qos=AT_MOST_ONCE
1924 [hawtdispatch-DEFAULT-2] INFO  DataIntegrityVerifier  - Ok. clientId=Subscriber_001, topic=topicA, qos=AT_MOST_ONCE
2025 [hawtdispatch-DEFAULT-2] INFO  DataIntegrityVerifier  - Ok. clientId=Subscriber_001, topic=topicA, qos=AT_MOST_ONCE
2134 [hawtdispatch-DEFAULT-2] INFO  DataIntegrityVerifier  - Ok. clientId=Subscriber_001, topic=topicA, qos=AT_MOST_ONCE
2242 [hawtdispatch-DEFAULT-2] INFO  DataIntegrityVerifier  - Ok. clientId=Subscriber_001, topic=topicA, qos=AT_MOST_ONCE
2336 [hawtdispatch-DEFAULT-2] INFO  DataIntegrityVerifier  - Ok. clientId=Subscriber_001, topic=topicA, qos=AT_MOST_ONCE
2428 [hawtdispatch-DEFAULT-2] INFO  DataIntegrityVerifier  - Ok. clientId=Subscriber_001, topic=topicA, qos=AT_MOST_ONCE
2546 [hawtdispatch-DEFAULT-2] INFO  DataIntegrityVerifier  - Ok. clientId=Subscriber_001, topic=topicA, qos=AT_MOST_ONCE
2633 [hawtdispatch-DEFAULT-2] INFO  DataIntegrityVerifier  - Ok. clientId=Subscriber_001, topic=topicA, qos=AT_MOST_ONCE
2722 [hawtdispatch-DEFAULT-2] INFO  DataIntegrityVerifier  - Ok. clientId=Subscriber_001, topic=topicA, qos=AT_MOST_ONCE
2823 [hawtdispatch-DEFAULT-2] INFO  DataIntegrityVerifier  - Ok. clientId=Subscriber_001, topic=topicA, qos=AT_MOST_ONCE
2923 [hawtdispatch-DEFAULT-2] INFO  DataIntegrityVerifier  - Ok. clientId=Subscriber_001, topic=topicA, qos=AT_MOST_ONCE
3016 [hawtdispatch-DEFAULT-2] INFO  DataIntegrityVerifier  - Ok. clientId=Subscriber_001, topic=topicA, qos=AT_MOST_ONCE
3110 [hawtdispatch-DEFAULT-2] INFO  DataIntegrityVerifier  - Ok. clientId=Subscriber_001, topic=topicA, qos=AT_MOST_ONCE
3236 [hawtdispatch-DEFAULT-2] INFO  DataIntegrityVerifier  - Ok. clientId=Subscriber_001, topic=topicA, qos=AT_MOST_ONCE
3326 [hawtdispatch-DEFAULT-2] INFO  DataIntegrityVerifier  - Ok. clientId=Subscriber_001, topic=topicA, qos=AT_MOST_ONCE
3430 [hawtdispatch-DEFAULT-2] INFO  DataIntegrityVerifier  - Ok. clientId=Subscriber_001, topic=topicA, qos=AT_MOST_ONCE
3524 [hawtdispatch-DEFAULT-2] INFO  DataIntegrityVerifier  - Ok. clientId=Subscriber_001, topic=topicA, qos=AT_MOST_ONCE
3619 [hawtdispatch-DEFAULT-2] INFO  DataIntegrityVerifier  - Ok. clientId=Subscriber_001, topic=topicA, qos=AT_MOST_ONCE
3738 [hawtdispatch-DEFAULT-2] INFO  DataIntegrityVerifier  - Ok. clientId=Subscriber_001, topic=topicA, qos=AT_MOST_ONCE
3821 [hawtdispatch-DEFAULT-2] INFO  DataIntegrityVerifier  - Ok. clientId=Subscriber_001, topic=topicA, qos=AT_MOST_ONCE
3924 [hawtdispatch-DEFAULT-2] INFO  DataIntegrityVerifier  - Ok. clientId=Subscriber_001, topic=topicA, qos=AT_MOST_ONCE
4027 [hawtdispatch-DEFAULT-2] INFO  DataIntegrityVerifier  - Ok. clientId=Subscriber_001, topic=topicA, qos=AT_MOST_ONCE
4123 [hawtdispatch-DEFAULT-2] INFO  DataIntegrityVerifier  - Ok. clientId=Subscriber_001, topic=topicA, qos=AT_MOST_ONCE
4222 [hawtdispatch-DEFAULT-2] INFO  DataIntegrityVerifier  - Ok. clientId=Subscriber_001, topic=topicA, qos=AT_MOST_ONCE
4328 [hawtdispatch-DEFAULT-2] INFO  DataIntegrityVerifier  - Ok. clientId=Subscriber_001, topic=topicA, qos=AT_MOST_ONCE
4421 [hawtdispatch-DEFAULT-2] INFO  DataIntegrityVerifier  - Ok. clientId=Subscriber_001, topic=topicA, qos=AT_MOST_ONCE
4517 [hawtdispatch-DEFAULT-2] INFO  DataIntegrityVerifier  - Ok. clientId=Subscriber_001, topic=topicA, qos=AT_MOST_ONCE
4613 [hawtdispatch-DEFAULT-2] INFO  DataIntegrityVerifier  - Ok. clientId=Subscriber_001, topic=topicA, qos=AT_MOST_ONCE
4726 [hawtdispatch-DEFAULT-2] INFO  DataIntegrityVerifier  - Ok. clientId=Subscriber_001, topic=topicA, qos=AT_MOST_ONCE
4819 [hawtdispatch-DEFAULT-2] INFO  DataIntegrityVerifier  - Ok. clientId=Subscriber_001, topic=topicA, qos=AT_MOST_ONCE
4913 [hawtdispatch-DEFAULT-2] INFO  DataIntegrityVerifier  - Ok. clientId=Subscriber_001, topic=topicA, qos=AT_MOST_ONCE
5018 [hawtdispatch-DEFAULT-2] INFO  DataIntegrityVerifier  - Ok. clientId=Subscriber_001, topic=topicA, qos=AT_MOST_ONCE
5116 [hawtdispatch-DEFAULT-2] INFO  DataIntegrityVerifier  - Ok. clientId=Subscriber_001, topic=topicA, qos=AT_MOST_ONCE
5218 [hawtdispatch-DEFAULT-2] INFO  DataIntegrityVerifier  - Ok. clientId=Subscriber_001, topic=topicA, qos=AT_MOST_ONCE
5312 [hawtdispatch-DEFAULT-2] INFO  DataIntegrityVerifier  - Ok. clientId=Subscriber_001, topic=topicA, qos=AT_MOST_ONCE
5419 [hawtdispatch-DEFAULT-2] INFO  DataIntegrityVerifier  - Ok. clientId=Subscriber_001, topic=topicA, qos=AT_MOST_ONCE
5518 [hawtdispatch-DEFAULT-2] INFO  DataIntegrityVerifier  - Ok. clientId=Subscriber_001, topic=topicA, qos=AT_MOST_ONCE
5622 [hawtdispatch-DEFAULT-2] INFO  DataIntegrityVerifier  - Ok. clientId=Subscriber_001, topic=topicA, qos=AT_MOST_ONCE
5716 [hawtdispatch-DEFAULT-2] INFO  DataIntegrityVerifier  - Ok. clientId=Subscriber_001, topic=topicA, qos=AT_MOST_ONCE
5812 [hawtdispatch-DEFAULT-2] INFO  DataIntegrityVerifier  - Ok. clientId=Subscriber_001, topic=topicA, qos=AT_MOST_ONCE
5927 [hawtdispatch-DEFAULT-2] INFO  DataIntegrityVerifier  - Ok. clientId=Subscriber_001, topic=topicA, qos=AT_MOST_ONCE
6014 [hawtdispatch-DEFAULT-2] INFO  DataIntegrityVerifier  - Ok. clientId=Subscriber_001, topic=topicA, qos=AT_MOST_ONCE
6127 [hawtdispatch-DEFAULT-2] INFO  DataIntegrityVerifier  - Ok. clientId=Subscriber_001, topic=topicA, qos=AT_MOST_ONCE
6211 [hawtdispatch-DEFAULT-2] INFO  DataIntegrityVerifier  - Ok. clientId=Subscriber_001, topic=topicA, qos=AT_MOST_ONCE
6309 [hawtdispatch-DEFAULT-2] INFO  DataIntegrityVerifier  - Ok. clientId=Subscriber_001, topic=topicA, qos=AT_MOST_ONCE
6417 [hawtdispatch-DEFAULT-2] INFO  DataIntegrityVerifier  - Ok. clientId=Subscriber_001, topic=topicA, qos=AT_MOST_ONCE
6511 [hawtdispatch-DEFAULT-2] INFO  DataIntegrityVerifier  - Ok. clientId=Subscriber_001, topic=topicA, qos=AT_MOST_ONCE
6609 [hawtdispatch-DEFAULT-2] INFO  DataIntegrityVerifier  - Ok. clientId=Subscriber_001, topic=topicA, qos=AT_MOST_ONCE
6716 [hawtdispatch-DEFAULT-2] INFO  DataIntegrityVerifier  - Ok. clientId=Subscriber_001, topic=topicA, qos=AT_MOST_ONCE
6838 [hawtdispatch-DEFAULT-2] INFO  DataIntegrityVerifier  - Ok. clientId=Subscriber_001, topic=topicA, qos=AT_MOST_ONCE
6923 [hawtdispatch-DEFAULT-2] INFO  DataIntegrityVerifier  - Ok. clientId=Subscriber_001, topic=topicA, qos=AT_MOST_ONCE
7025 [hawtdispatch-DEFAULT-2] INFO  DataIntegrityVerifier  - Ok. clientId=Subscriber_001, topic=topicA, qos=AT_MOST_ONCE
7116 [hawtdispatch-DEFAULT-2] INFO  DataIntegrityVerifier  - Ok. clientId=Subscriber_001, topic=topicA, qos=AT_MOST_ONCE
7237 [hawtdispatch-DEFAULT-2] INFO  DataIntegrityVerifier  - Ok. clientId=Subscriber_001, topic=topicA, qos=AT_MOST_ONCE
7319 [hawtdispatch-DEFAULT-2] INFO  DataIntegrityVerifier  - Ok. clientId=Subscriber_001, topic=topicA, qos=AT_MOST_ONCE
7430 [hawtdispatch-DEFAULT-2] INFO  DataIntegrityVerifier  - Ok. clientId=Subscriber_001, topic=topicA, qos=AT_MOST_ONCE
7518 [hawtdispatch-DEFAULT-2] INFO  DataIntegrityVerifier  - Ok. clientId=Subscriber_001, topic=topicA, qos=AT_MOST_ONCE
7635 [hawtdispatch-DEFAULT-2] INFO  DataIntegrityVerifier  - Ok. clientId=Subscriber_001, topic=topicA, qos=AT_MOST_ONCE
7722 [hawtdispatch-DEFAULT-2] INFO  DataIntegrityVerifier  - Ok. clientId=Subscriber_001, topic=topicA, qos=AT_MOST_ONCE
7828 [hawtdispatch-DEFAULT-2] INFO  DataIntegrityVerifier  - Ok. clientId=Subscriber_001, topic=topicA, qos=AT_MOST_ONCE
7920 [hawtdispatch-DEFAULT-2] INFO  DataIntegrityVerifier  - Ok. clientId=Subscriber_001, topic=topicA, qos=AT_MOST_ONCE
8046 [hawtdispatch-DEFAULT-2] INFO  DataIntegrityVerifier  - Ok. clientId=Subscriber_001, topic=topicA, qos=AT_MOST_ONCE
8120 [hawtdispatch-DEFAULT-2] INFO  DataIntegrityVerifier  - Ok. clientId=Subscriber_001, topic=topicA, qos=AT_MOST_ONCE
8215 [hawtdispatch-DEFAULT-2] INFO  DataIntegrityVerifier  - Ok. clientId=Subscriber_001, topic=topicA, qos=AT_MOST_ONCE
8308 [hawtdispatch-DEFAULT-2] INFO  DataIntegrityVerifier  - Ok. clientId=Subscriber_001, topic=topicA, qos=AT_MOST_ONCE
8420 [hawtdispatch-DEFAULT-2] INFO  DataIntegrityVerifier  - Ok. clientId=Subscriber_001, topic=topicA, qos=AT_MOST_ONCE
8515 [hawtdispatch-DEFAULT-2] INFO  DataIntegrityVerifier  - Ok. clientId=Subscriber_001, topic=topicA, qos=AT_MOST_ONCE
8621 [hawtdispatch-DEFAULT-2] INFO  DataIntegrityVerifier  - Ok. clientId=Subscriber_001, topic=topicA, qos=AT_MOST_ONCE
8718 [hawtdispatch-DEFAULT-2] INFO  DataIntegrityVerifier  - Ok. clientId=Subscriber_001, topic=topicA, qos=AT_MOST_ONCE
8809 [hawtdispatch-DEFAULT-2] INFO  DataIntegrityVerifier  - Ok. clientId=Subscriber_001, topic=topicA, qos=AT_MOST_ONCE
8913 [hawtdispatch-DEFAULT-2] INFO  DataIntegrityVerifier  - Ok. clientId=Subscriber_001, topic=topicA, qos=AT_MOST_ONCE
9013 [hawtdispatch-DEFAULT-2] INFO  DataIntegrityVerifier  - Ok. clientId=Subscriber_001, topic=topicA, qos=AT_MOST_ONCE
9115 [hawtdispatch-DEFAULT-2] INFO  DataIntegrityVerifier  - Ok. clientId=Subscriber_001, topic=topicA, qos=AT_MOST_ONCE
9226 [hawtdispatch-DEFAULT-2] INFO  DataIntegrityVerifier  - Ok. clientId=Subscriber_001, topic=topicA, qos=AT_MOST_ONCE
9314 [hawtdispatch-DEFAULT-2] INFO  DataIntegrityVerifier  - Ok. clientId=Subscriber_001, topic=topicA, qos=AT_MOST_ONCE
9416 [hawtdispatch-DEFAULT-2] INFO  DataIntegrityVerifier  - Ok. clientId=Subscriber_001, topic=topicA, qos=AT_MOST_ONCE
9517 [hawtdispatch-DEFAULT-2] INFO  DataIntegrityVerifier  - Ok. clientId=Subscriber_001, topic=topicA, qos=AT_MOST_ONCE
9618 [hawtdispatch-DEFAULT-2] INFO  DataIntegrityVerifier  - Ok. clientId=Subscriber_001, topic=topicA, qos=AT_MOST_ONCE
9719 [hawtdispatch-DEFAULT-2] INFO  DataIntegrityVerifier  - Ok. clientId=Subscriber_001, topic=topicA, qos=AT_MOST_ONCE
9823 [hawtdispatch-DEFAULT-2] INFO  DataIntegrityVerifier  - Ok. clientId=Subscriber_001, topic=topicA, qos=AT_MOST_ONCE
9927 [hawtdispatch-DEFAULT-2] INFO  DataIntegrityVerifier  - Ok. clientId=Subscriber_001, topic=topicA, qos=AT_MOST_ONCE
10023 [hawtdispatch-DEFAULT-2] INFO  DataIntegrityVerifier  - Ok. clientId=Subscriber_001, topic=topicA, qos=AT_MOST_ONCE
10110 [hawtdispatch-DEFAULT-2] INFO  DataIntegrityVerifier  - Ok. clientId=Subscriber_001, topic=topicA, qos=AT_MOST_ONCE
10220 [hawtdispatch-DEFAULT-2] INFO  DataIntegrityVerifier  - Ok. clientId=Subscriber_001, topic=topicA, qos=AT_MOST_ONCE
10315 [hawtdispatch-DEFAULT-2] INFO  DataIntegrityVerifier  - Ok. clientId=Subscriber_001, topic=topicA, qos=AT_MOST_ONCE
10421 [hawtdispatch-DEFAULT-2] INFO  DataIntegrityVerifier  - Ok. clientId=Subscriber_001, topic=topicA, qos=AT_MOST_ONCE
10514 [hawtdispatch-DEFAULT-2] INFO  DataIntegrityVerifier  - Ok. clientId=Subscriber_001, topic=topicA, qos=AT_MOST_ONCE
10620 [hawtdispatch-DEFAULT-2] INFO  DataIntegrityVerifier  - Ok. clientId=Subscriber_001, topic=topicA, qos=AT_MOST_ONCE
10713 [hawtdispatch-DEFAULT-2] INFO  DataIntegrityVerifier  - Ok. clientId=Subscriber_001, topic=topicA, qos=AT_MOST_ONCE
10819 [hawtdispatch-DEFAULT-2] INFO  DataIntegrityVerifier  - Ok. clientId=Subscriber_001, topic=topicA, qos=AT_MOST_ONCE
10912 [hawtdispatch-DEFAULT-2] INFO  DataIntegrityVerifier  - Ok. clientId=Subscriber_001, topic=topicA, qos=AT_MOST_ONCE
11011 [hawtdispatch-DEFAULT-2] INFO  DataIntegrityVerifier  - Ok. clientId=Subscriber_001, topic=topicA, qos=AT_MOST_ONCE
11114 [hawtdispatch-DEFAULT-2] INFO  DataIntegrityVerifier  - Ok. clientId=Subscriber_001, topic=topicA, qos=AT_MOST_ONCE
11226 [hawtdispatch-DEFAULT-2] INFO  DataIntegrityVerifier  - Ok. clientId=Subscriber_001, topic=topicA, qos=AT_MOST_ONCE
11316 [hawtdispatch-DEFAULT-2] INFO  DataIntegrityVerifier  - Ok. clientId=Subscriber_001, topic=topicA, qos=AT_MOST_ONCE
11417 [hawtdispatch-DEFAULT-2] INFO  DataIntegrityVerifier  - Ok. clientId=Subscriber_001, topic=topicA, qos=AT_MOST_ONCE
11521 [hawtdispatch-DEFAULT-2] INFO  DataIntegrityVerifier  - Ok. clientId=Subscriber_001, topic=topicA, qos=AT_MOST_ONCE
11626 [hawtdispatch-DEFAULT-2] INFO  DataIntegrityVerifier  - Ok. clientId=Subscriber_001, topic=topicA, qos=AT_MOST_ONCE
11719 [hawtdispatch-DEFAULT-2] INFO  DataIntegrityVerifier  - Ok. clientId=Subscriber_001, topic=topicA, qos=AT_MOST_ONCE
11841 [hawtdispatch-DEFAULT-2] INFO  DataIntegrityVerifier  - Ok. clientId=Subscriber_001, topic=topicA, qos=AT_MOST_ONCE
11912 [hawtdispatch-DEFAULT-2] INFO  DataIntegrityVerifier  - Ok. clientId=Subscriber_001, topic=topicA, qos=AT_MOST_ONCE
12011 [hawtdispatch-DEFAULT-2] INFO  DataIntegrityVerifier  - Ok. clientId=Subscriber_001, topic=topicA, qos=AT_MOST_ONCE
12118 [hawtdispatch-DEFAULT-2] INFO  DataIntegrityVerifier  - Ok. clientId=Subscriber_001, topic=topicA, qos=AT_MOST_ONCE
12216 [hawtdispatch-DEFAULT-2] INFO  DataIntegrityVerifier  - Ok. clientId=Subscriber_001, topic=topicA, qos=AT_MOST_ONCE
12322 [hawtdispatch-DEFAULT-2] INFO  DataIntegrityVerifier  - Ok. clientId=Subscriber_001, topic=topicA, qos=AT_MOST_ONCE
12442 [hawtdispatch-DEFAULT-2] INFO  DataIntegrityVerifier  - Ok. clientId=Subscriber_001, topic=topicA, qos=AT_MOST_ONCE
12525 [hawtdispatch-DEFAULT-2] INFO  DataIntegrityVerifier  - Ok. clientId=Subscriber_001, topic=topicA, qos=AT_MOST_ONCE
12618 [hawtdispatch-DEFAULT-2] INFO  DataIntegrityVerifier  - Ok. clientId=Subscriber_001, topic=topicA, qos=AT_MOST_ONCE
12715 [hawtdispatch-DEFAULT-2] INFO  DataIntegrityVerifier  - Ok. clientId=Subscriber_001, topic=topicA, qos=AT_MOST_ONCE
12826 [hawtdispatch-DEFAULT-2] INFO  DataIntegrityVerifier  - Ok. clientId=Subscriber_001, topic=topicA, qos=AT_MOST_ONCE
12924 [hawtdispatch-DEFAULT-2] INFO  DataIntegrityVerifier  - Ok. clientId=Subscriber_001, topic=topicA, qos=AT_MOST_ONCE
13037 [hawtdispatch-DEFAULT-2] INFO  DataIntegrityVerifier  - Ok. clientId=Subscriber_001, topic=topicA, qos=AT_MOST_ONCE
13120 [hawtdispatch-DEFAULT-2] INFO  DataIntegrityVerifier  - Ok. clientId=Subscriber_001, topic=topicA, qos=AT_MOST_ONCE
13244 [hawtdispatch-DEFAULT-2] INFO  DataIntegrityVerifier  - Ok. clientId=Subscriber_001, topic=topicA, qos=AT_MOST_ONCE
13320 [hawtdispatch-DEFAULT-2] INFO  DataIntegrityVerifier  - Ok. clientId=Subscriber_001, topic=topicA, qos=AT_MOST_ONCE
13418 [hawtdispatch-DEFAULT-2] INFO  DataIntegrityVerifier  - Ok. clientId=Subscriber_001, topic=topicA, qos=AT_MOST_ONCE
13515 [hawtdispatch-DEFAULT-2] INFO  DataIntegrityVerifier  - Ok. clientId=Subscriber_001, topic=topicA, qos=AT_MOST_ONCE
13620 [hawtdispatch-DEFAULT-2] INFO  DataIntegrityVerifier  - Ok. clientId=Subscriber_001, topic=topicA, qos=AT_MOST_ONCE
13719 [hawtdispatch-DEFAULT-2] INFO  DataIntegrityVerifier  - Ok. clientId=Subscriber_001, topic=topicA, qos=AT_MOST_ONCE
13826 [hawtdispatch-DEFAULT-2] INFO  DataIntegrityVerifier  - Ok. clientId=Subscriber_001, topic=topicA, qos=AT_MOST_ONCE
13944 [hawtdispatch-DEFAULT-2] INFO  DataIntegrityVerifier  - Ok. clientId=Subscriber_001, topic=topicA, qos=AT_MOST_ONCE
14022 [hawtdispatch-DEFAULT-2] INFO  DataIntegrityVerifier  - Ok. clientId=Subscriber_001, topic=topicA, qos=AT_MOST_ONCE
14120 [hawtdispatch-DEFAULT-2] INFO  DataIntegrityVerifier  - Ok. clientId=Subscriber_001, topic=topicA, qos=AT_MOST_ONCE
14230 [hawtdispatch-DEFAULT-2] INFO  DataIntegrityVerifier  - Ok. clientId=Subscriber_001, topic=topicA, qos=AT_MOST_ONCE
14322 [hawtdispatch-DEFAULT-2] INFO  DataIntegrityVerifier  - Ok. clientId=Subscriber_001, topic=topicA, qos=AT_MOST_ONCE
14415 [hawtdispatch-DEFAULT-2] INFO  DataIntegrityVerifier  - Ok. clientId=Subscriber_001, topic=topicA, qos=AT_MOST_ONCE
14521 [hawtdispatch-DEFAULT-2] INFO  DataIntegrityVerifier  - Ok. clientId=Subscriber_001, topic=topicA, qos=AT_MOST_ONCE
14622 [hawtdispatch-DEFAULT-2] INFO  DataIntegrityVerifier  - Ok. clientId=Subscriber_001, topic=topicA, qos=AT_MOST_ONCE
14721 [hawtdispatch-DEFAULT-2] INFO  DataIntegrityVerifier  - Ok. clientId=Subscriber_001, topic=topicA, qos=AT_MOST_ONCE
14829 [hawtdispatch-DEFAULT-2] INFO  DataIntegrityVerifier  - Ok. clientId=Subscriber_001, topic=topicA, qos=AT_MOST_ONCE
14922 [hawtdispatch-DEFAULT-2] INFO  DataIntegrityVerifier  - Ok. clientId=Subscriber_001, topic=topicA, qos=AT_MOST_ONCE
15017 [hawtdispatch-DEFAULT-2] INFO  DataIntegrityVerifier  - Ok. clientId=Subscriber_001, topic=topicA, qos=AT_MOST_ONCE
15119 [hawtdispatch-DEFAULT-2] INFO  DataIntegrityVerifier  - Ok. clientId=Subscriber_001, topic=topicA, qos=AT_MOST_ONCE
15212 [hawtdispatch-DEFAULT-2] INFO  DataIntegrityVerifier  - Ok. clientId=Subscriber_001, topic=topicA, qos=AT_MOST_ONCE
15319 [hawtdispatch-DEFAULT-2] INFO  DataIntegrityVerifier  - Ok. clientId=Subscriber_001, topic=topicA, qos=AT_MOST_ONCE
15415 [hawtdispatch-DEFAULT-2] INFO  DataIntegrityVerifier  - Ok. clientId=Subscriber_001, topic=topicA, qos=AT_MOST_ONCE
15507 [hawtdispatch-DEFAULT-2] INFO  DataIntegrityVerifier  - Ok. clientId=Subscriber_001, topic=topicA, qos=AT_MOST_ONCE
15614 [hawtdispatch-DEFAULT-2] INFO  DataIntegrityVerifier  - Ok. clientId=Subscriber_001, topic=topicA, qos=AT_MOST_ONCE
15709 [hawtdispatch-DEFAULT-2] INFO  DataIntegrityVerifier  - Ok. clientId=Subscriber_001, topic=topicA, qos=AT_MOST_ONCE
15817 [hawtdispatch-DEFAULT-2] INFO  DataIntegrityVerifier  - Ok. clientId=Subscriber_001, topic=topicA, qos=AT_MOST_ONCE
15916 [hawtdispatch-DEFAULT-2] INFO  DataIntegrityVerifier  - Ok. clientId=Subscriber_001, topic=topicA, qos=AT_MOST_ONCE
16014 [hawtdispatch-DEFAULT-2] INFO  DataIntegrityVerifier  - Ok. clientId=Subscriber_001, topic=topicA, qos=AT_MOST_ONCE
16111 [hawtdispatch-DEFAULT-2] INFO  DataIntegrityVerifier  - Ok. clientId=Subscriber_001, topic=topicA, qos=AT_MOST_ONCE
16211 [hawtdispatch-DEFAULT-2] INFO  DataIntegrityVerifier  - Ok. clientId=Subscriber_001, topic=topicA, qos=AT_MOST_ONCE
16315 [hawtdispatch-DEFAULT-2] INFO  DataIntegrityVerifier  - Ok. clientId=Subscriber_001, topic=topicA, qos=AT_MOST_ONCE
16416 [hawtdispatch-DEFAULT-2] INFO  DataIntegrityVerifier  - Ok. clientId=Subscriber_001, topic=topicA, qos=AT_MOST_ONCE
16516 [hawtdispatch-DEFAULT-2] INFO  DataIntegrityVerifier  - Ok. clientId=Subscriber_001, topic=topicA, qos=AT_MOST_ONCE
16610 [hawtdispatch-DEFAULT-2] INFO  DataIntegrityVerifier  - Ok. clientId=Subscriber_001, topic=topicA, qos=AT_MOST_ONCE
16734 [hawtdispatch-DEFAULT-2] INFO  DataIntegrityVerifier  - Ok. clientId=Subscriber_001, topic=topicA, qos=AT_MOST_ONCE
16812 [hawtdispatch-DEFAULT-2] INFO  DataIntegrityVerifier  - Ok. clientId=Subscriber_001, topic=topicA, qos=AT_MOST_ONCE
16911 [hawtdispatch-DEFAULT-2] INFO  DataIntegrityVerifier  - Ok. clientId=Subscriber_001, topic=topicA, qos=AT_MOST_ONCE
17010 [hawtdispatch-DEFAULT-2] INFO  DataIntegrityVerifier  - Ok. clientId=Subscriber_001, topic=topicA, qos=AT_MOST_ONCE
17115 [hawtdispatch-DEFAULT-2] INFO  DataIntegrityVerifier  - Ok. clientId=Subscriber_001, topic=topicA, qos=AT_MOST_ONCE
17213 [hawtdispatch-DEFAULT-2] INFO  DataIntegrityVerifier  - Ok. clientId=Subscriber_001, topic=topicA, qos=AT_MOST_ONCE
17309 [hawtdispatch-DEFAULT-2] INFO  DataIntegrityVerifier  - Ok. clientId=Subscriber_001, topic=topicA, qos=AT_MOST_ONCE
17410 [hawtdispatch-DEFAULT-2] INFO  DataIntegrityVerifier  - Ok. clientId=Subscriber_001, topic=topicA, qos=AT_MOST_ONCE
17518 [hawtdispatch-DEFAULT-2] INFO  DataIntegrityVerifier  - Ok. clientId=Subscriber_001, topic=topicA, qos=AT_MOST_ONCE
17621 [hawtdispatch-DEFAULT-2] INFO  DataIntegrityVerifier  - Ok. clientId=Subscriber_001, topic=topicA, qos=AT_MOST_ONCE
17711 [hawtdispatch-DEFAULT-2] INFO  DataIntegrityVerifier  - Ok. clientId=Subscriber_001, topic=topicA, qos=AT_MOST_ONCE
17812 [hawtdispatch-DEFAULT-2] INFO  DataIntegrityVerifier  - Ok. clientId=Subscriber_001, topic=topicA, qos=AT_MOST_ONCE
17911 [hawtdispatch-DEFAULT-2] INFO  DataIntegrityVerifier  - Ok. clientId=Subscriber_001, topic=topicA, qos=AT_MOST_ONCE
18019 [hawtdispatch-DEFAULT-2] INFO  DataIntegrityVerifier  - Ok. clientId=Subscriber_001, topic=topicA, qos=AT_MOST_ONCE
18111 [hawtdispatch-DEFAULT-2] INFO  DataIntegrityVerifier  - Ok. clientId=Subscriber_001, topic=topicA, qos=AT_MOST_ONCE
18225 [hawtdispatch-DEFAULT-2] INFO  DataIntegrityVerifier  - Ok. clientId=Subscriber_001, topic=topicA, qos=AT_MOST_ONCE
18331 [hawtdispatch-DEFAULT-2] INFO  DataIntegrityVerifier  - Ok. clientId=Subscriber_001, topic=topicA, qos=AT_MOST_ONCE
18418 [hawtdispatch-DEFAULT-2] INFO  DataIntegrityVerifier  - Ok. clientId=Subscriber_001, topic=topicA, qos=AT_MOST_ONCE
18515 [hawtdispatch-DEFAULT-2] INFO  DataIntegrityVerifier  - Ok. clientId=Subscriber_001, topic=topicA, qos=AT_MOST_ONCE
18618 [hawtdispatch-DEFAULT-2] INFO  DataIntegrityVerifier  - Ok. clientId=Subscriber_001, topic=topicA, qos=AT_MOST_ONCE
18714 [hawtdispatch-DEFAULT-2] INFO  DataIntegrityVerifier  - Ok. clientId=Subscriber_001, topic=topicA, qos=AT_MOST_ONCE
18820 [hawtdispatch-DEFAULT-2] INFO  DataIntegrityVerifier  - Ok. clientId=Subscriber_001, topic=topicA, qos=AT_MOST_ONCE
18911 [hawtdispatch-DEFAULT-2] INFO  DataIntegrityVerifier  - Ok. clientId=Subscriber_001, topic=topicA, qos=AT_MOST_ONCE
19020 [hawtdispatch-DEFAULT-2] INFO  DataIntegrityVerifier  - Ok. clientId=Subscriber_001, topic=topicA, qos=AT_MOST_ONCE
19112 [hawtdispatch-DEFAULT-2] INFO  DataIntegrityVerifier  - Ok. clientId=Subscriber_001, topic=topicA, qos=AT_MOST_ONCE
19214 [hawtdispatch-DEFAULT-2] INFO  DataIntegrityVerifier  - Ok. clientId=Subscriber_001, topic=topicA, qos=AT_MOST_ONCE
19315 [hawtdispatch-DEFAULT-2] INFO  DataIntegrityVerifier  - Ok. clientId=Subscriber_001, topic=topicA, qos=AT_MOST_ONCE
19420 [hawtdispatch-DEFAULT-2] INFO  DataIntegrityVerifier  - Ok. clientId=Subscriber_001, topic=topicA, qos=AT_MOST_ONCE
19521 [hawtdispatch-DEFAULT-2] INFO  DataIntegrityVerifier  - Ok. clientId=Subscriber_001, topic=topicA, qos=AT_MOST_ONCE
19620 [hawtdispatch-DEFAULT-2] INFO  DataIntegrityVerifier  - Ok. clientId=Subscriber_001, topic=topicA, qos=AT_MOST_ONCE
19715 [hawtdispatch-DEFAULT-2] INFO  DataIntegrityVerifier  - Ok. clientId=Subscriber_001, topic=topicA, qos=AT_MOST_ONCE
19817 [hawtdispatch-DEFAULT-2] INFO  DataIntegrityVerifier  - Ok. clientId=Subscriber_001, topic=topicA, qos=AT_MOST_ONCE
19921 [hawtdispatch-DEFAULT-2] INFO  DataIntegrityVerifier  - Ok. clientId=Subscriber_001, topic=topicA, qos=AT_MOST_ONCE
20022 [hawtdispatch-DEFAULT-2] INFO  DataIntegrityVerifier  - Ok. clientId=Subscriber_001, topic=topicA, qos=AT_MOST_ONCE
22101 [hawtdispatch-DEFAULT-3] INFO  DataIntegrityVerifier  - Ok. clientId=Subscriber_001, topic=topicA, qos=AT_MOST_ONCE
22204 [hawtdispatch-DEFAULT-3] INFO  DataIntegrityVerifier  - Ok. clientId=Subscriber_001, topic=topicA, qos=AT_MOST_ONCE
22308 [hawtdispatch-DEFAULT-3] INFO  DataIntegrityVerifier  - Ok. clientId=Subscriber_001, topic=topicA, qos=AT_MOST_ONCE
22442 [hawtdispatch-DEFAULT-3] INFO  DataIntegrityVerifier  - Ok. clientId=Subscriber_001, topic=topicA, qos=AT_MOST_ONCE
22510 [hawtdispatch-DEFAULT-3] INFO  DataIntegrityVerifier  - Ok. clientId=Subscriber_001, topic=topicA, qos=AT_MOST_ONCE
22610 [hawtdispatch-DEFAULT-3] INFO  DataIntegrityVerifier  - Ok. clientId=Subscriber_001, topic=topicA, qos=AT_MOST_ONCE
22715 [hawtdispatch-DEFAULT-3] INFO  DataIntegrityVerifier  - Ok. clientId=Subscriber_001, topic=topicA, qos=AT_MOST_ONCE
22804 [hawtdispatch-DEFAULT-3] INFO  DataIntegrityVerifier  - Ok. clientId=Subscriber_001, topic=topicA, qos=AT_MOST_ONCE
22900 [hawtdispatch-DEFAULT-3] INFO  DataIntegrityVerifier  - Ok. clientId=Subscriber_001, topic=topicA, qos=AT_MOST_ONCE
23006 [hawtdispatch-DEFAULT-3] INFO  DataIntegrityVerifier  - Ok. clientId=Subscriber_001, topic=topicA, qos=AT_MOST_ONCE
23108 [hawtdispatch-DEFAULT-3] INFO  DataIntegrityVerifier  - Ok. clientId=Subscriber_001, topic=topicA, qos=AT_MOST_ONCE
23207 [hawtdispatch-DEFAULT-3] INFO  DataIntegrityVerifier  - Ok. clientId=Subscriber_001, topic=topicA, qos=AT_MOST_ONCE
23307 [hawtdispatch-DEFAULT-3] INFO  DataIntegrityVerifier  - Ok. clientId=Subscriber_001, topic=topicA, qos=AT_MOST_ONCE
23408 [hawtdispatch-DEFAULT-3] INFO  DataIntegrityVerifier  - Ok. clientId=Subscriber_001, topic=topicA, qos=AT_MOST_ONCE
23509 [hawtdispatch-DEFAULT-3] INFO  DataIntegrityVerifier  - Ok. clientId=Subscriber_001, topic=topicA, qos=AT_MOST_ONCE
23609 [hawtdispatch-DEFAULT-3] INFO  DataIntegrityVerifier  - Ok. clientId=Subscriber_001, topic=topicA, qos=AT_MOST_ONCE
23707 [hawtdispatch-DEFAULT-3] INFO  DataIntegrityVerifier  - Ok. clientId=Subscriber_001, topic=topicA, qos=AT_MOST_ONCE
23804 [hawtdispatch-DEFAULT-3] INFO  DataIntegrityVerifier  - Ok. clientId=Subscriber_001, topic=topicA, qos=AT_MOST_ONCE
23900 [hawtdispatch-DEFAULT-3] INFO  DataIntegrityVerifier  - Ok. clientId=Subscriber_001, topic=topicA, qos=AT_MOST_ONCE
24008 [hawtdispatch-DEFAULT-3] INFO  DataIntegrityVerifier  - Ok. clientId=Subscriber_001, topic=topicA, qos=AT_MOST_ONCE
24105 [hawtdispatch-DEFAULT-3] INFO  DataIntegrityVerifier  - Ok. clientId=Subscriber_001, topic=topicA, qos=AT_MOST_ONCE
24200 [hawtdispatch-DEFAULT-3] INFO  DataIntegrityVerifier  - Ok. clientId=Subscriber_001, topic=topicA, qos=AT_MOST_ONCE
24304 [hawtdispatch-DEFAULT-3] INFO  DataIntegrityVerifier  - Ok. clientId=Subscriber_001, topic=topicA, qos=AT_MOST_ONCE
24411 [hawtdispatch-DEFAULT-3] INFO  DataIntegrityVerifier  - Ok. clientId=Subscriber_001, topic=topicA, qos=AT_MOST_ONCE
24500 [hawtdispatch-DEFAULT-3] INFO  DataIntegrityVerifier  - Ok. clientId=Subscriber_001, topic=topicA, qos=AT_MOST_ONCE
24600 [hawtdispatch-DEFAULT-3] INFO  DataIntegrityVerifier  - Ok. clientId=Subscriber_001, topic=topicA, qos=AT_MOST_ONCE
24708 [hawtdispatch-DEFAULT-3] INFO  DataIntegrityVerifier  - Ok. clientId=Subscriber_001, topic=topicA, qos=AT_MOST_ONCE
24816 [hawtdispatch-DEFAULT-3] INFO  DataIntegrityVerifier  - Ok. clientId=Subscriber_001, topic=topicA, qos=AT_MOST_ONCE
24904 [hawtdispatch-DEFAULT-3] INFO  DataIntegrityVerifier  - Ok. clientId=Subscriber_001, topic=topicA, qos=AT_MOST_ONCE
25007 [hawtdispatch-DEFAULT-3] INFO  DataIntegrityVerifier  - Ok. clientId=Subscriber_001, topic=topicA, qos=AT_MOST_ONCE
25109 [hawtdispatch-DEFAULT-3] INFO  DataIntegrityVerifier  - Ok. clientId=Subscriber_001, topic=topicA, qos=AT_MOST_ONCE
25206 [hawtdispatch-DEFAULT-3] INFO  DataIntegrityVerifier  - Ok. clientId=Subscriber_001, topic=topicA, qos=AT_MOST_ONCE
25319 [hawtdispatch-DEFAULT-3] INFO  DataIntegrityVerifier  - Ok. clientId=Subscriber_001, topic=topicA, qos=AT_MOST_ONCE
25419 [hawtdispatch-DEFAULT-3] INFO  DataIntegrityVerifier  - Ok. clientId=Subscriber_001, topic=topicA, qos=AT_MOST_ONCE
25513 [hawtdispatch-DEFAULT-3] INFO  DataIntegrityVerifier  - Ok. clientId=Subscriber_001, topic=topicA, qos=AT_MOST_ONCE
25609 [hawtdispatch-DEFAULT-3] INFO  DataIntegrityVerifier  - Ok. clientId=Subscriber_001, topic=topicA, qos=AT_MOST_ONCE
25709 [hawtdispatch-DEFAULT-3] INFO  DataIntegrityVerifier  - Ok. clientId=Subscriber_001, topic=topicA, qos=AT_MOST_ONCE
25806 [hawtdispatch-DEFAULT-3] INFO  DataIntegrityVerifier  - Ok. clientId=Subscriber_001, topic=topicA, qos=AT_MOST_ONCE
25909 [hawtdispatch-DEFAULT-3] INFO  DataIntegrityVerifier  - Ok. clientId=Subscriber_001, topic=topicA, qos=AT_MOST_ONCE
26007 [hawtdispatch-DEFAULT-3] INFO  DataIntegrityVerifier  - Ok. clientId=Subscriber_001, topic=topicA, qos=AT_MOST_ONCE
26106 [hawtdispatch-DEFAULT-3] INFO  DataIntegrityVerifier  - Ok. clientId=Subscriber_001, topic=topicA, qos=AT_MOST_ONCE
26212 [hawtdispatch-DEFAULT-3] INFO  DataIntegrityVerifier  - Ok. clientId=Subscriber_001, topic=topicA, qos=AT_MOST_ONCE
26307 [hawtdispatch-DEFAULT-3] INFO  DataIntegrityVerifier  - Ok. clientId=Subscriber_001, topic=topicA, qos=AT_MOST_ONCE
26403 [hawtdispatch-DEFAULT-3] INFO  DataIntegrityVerifier  - Ok. clientId=Subscriber_001, topic=topicA, qos=AT_MOST_ONCE
26508 [hawtdispatch-DEFAULT-3] INFO  DataIntegrityVerifier  - Ok. clientId=Subscriber_001, topic=topicA, qos=AT_MOST_ONCE
26605 [hawtdispatch-DEFAULT-3] INFO  DataIntegrityVerifier  - Ok. clientId=Subscriber_001, topic=topicA, qos=AT_MOST_ONCE
26704 [hawtdispatch-DEFAULT-3] INFO  DataIntegrityVerifier  - Ok. clientId=Subscriber_001, topic=topicA, qos=AT_MOST_ONCE
26819 [hawtdispatch-DEFAULT-3] INFO  DataIntegrityVerifier  - Ok. clientId=Subscriber_001, topic=topicA, qos=AT_MOST_ONCE
26909 [hawtdispatch-DEFAULT-3] INFO  DataIntegrityVerifier  - Ok. clientId=Subscriber_001, topic=topicA, qos=AT_MOST_ONCE
27004 [hawtdispatch-DEFAULT-3] INFO  DataIntegrityVerifier  - Ok. clientId=Subscriber_001, topic=topicA, qos=AT_MOST_ONCE
27102 [hawtdispatch-DEFAULT-3] INFO  DataIntegrityVerifier  - Ok. clientId=Subscriber_001, topic=topicA, qos=AT_MOST_ONCE
27214 [hawtdispatch-DEFAULT-3] INFO  DataIntegrityVerifier  - Ok. clientId=Subscriber_001, topic=topicA, qos=AT_MOST_ONCE
27301 [hawtdispatch-DEFAULT-3] INFO  DataIntegrityVerifier  - Ok. clientId=Subscriber_001, topic=topicA, qos=AT_MOST_ONCE
27402 [hawtdispatch-DEFAULT-3] INFO  DataIntegrityVerifier  - Ok. clientId=Subscriber_001, topic=topicA, qos=AT_MOST_ONCE
27504 [hawtdispatch-DEFAULT-3] INFO  DataIntegrityVerifier  - Ok. clientId=Subscriber_001, topic=topicA, qos=AT_MOST_ONCE
27598 [hawtdispatch-DEFAULT-3] INFO  DataIntegrityVerifier  - Ok. clientId=Subscriber_001, topic=topicA, qos=AT_MOST_ONCE
27698 [hawtdispatch-DEFAULT-3] INFO  DataIntegrityVerifier  - Ok. clientId=Subscriber_001, topic=topicA, qos=AT_MOST_ONCE
27805 [hawtdispatch-DEFAULT-3] INFO  DataIntegrityVerifier  - Ok. clientId=Subscriber_001, topic=topicA, qos=AT_MOST_ONCE
27909 [hawtdispatch-DEFAULT-3] INFO  DataIntegrityVerifier  - Ok. clientId=Subscriber_001, topic=topicA, qos=AT_MOST_ONCE
28001 [hawtdispatch-DEFAULT-3] INFO  DataIntegrityVerifier  - Ok. clientId=Subscriber_001, topic=topicA, qos=AT_MOST_ONCE
28108 [hawtdispatch-DEFAULT-3] INFO  DataIntegrityVerifier  - Ok. clientId=Subscriber_001, topic=topicA, qos=AT_MOST_ONCE
28203 [hawtdispatch-DEFAULT-3] INFO  DataIntegrityVerifier  - Ok. clientId=Subscriber_001, topic=topicA, qos=AT_MOST_ONCE
28309 [hawtdispatch-DEFAULT-3] INFO  DataIntegrityVerifier  - Ok. clientId=Subscriber_001, topic=topicA, qos=AT_MOST_ONCE
28406 [hawtdispatch-DEFAULT-3] INFO  DataIntegrityVerifier  - Ok. clientId=Subscriber_001, topic=topicA, qos=AT_MOST_ONCE
28506 [hawtdispatch-DEFAULT-3] INFO  DataIntegrityVerifier  - Ok. clientId=Subscriber_001, topic=topicA, qos=AT_MOST_ONCE
28616 [hawtdispatch-DEFAULT-3] INFO  DataIntegrityVerifier  - Ok. clientId=Subscriber_001, topic=topicA, qos=AT_MOST_ONCE
28708 [hawtdispatch-DEFAULT-3] INFO  DataIntegrityVerifier  - Ok. clientId=Subscriber_001, topic=topicA, qos=AT_MOST_ONCE
28811 [hawtdispatch-DEFAULT-3] INFO  DataIntegrityVerifier  - Ok. clientId=Subscriber_001, topic=topicA, qos=AT_MOST_ONCE
28908 [hawtdispatch-DEFAULT-3] INFO  DataIntegrityVerifier  - Ok. clientId=Subscriber_001, topic=topicA, qos=AT_MOST_ONCE
29014 [hawtdispatch-DEFAULT-3] INFO  DataIntegrityVerifier  - Ok. clientId=Subscriber_001, topic=topicA, qos=AT_MOST_ONCE
29108 [hawtdispatch-DEFAULT-3] INFO  DataIntegrityVerifier  - Ok. clientId=Subscriber_001, topic=topicA, qos=AT_MOST_ONCE
29206 [hawtdispatch-DEFAULT-3] INFO  DataIntegrityVerifier  - Ok. clientId=Subscriber_001, topic=topicA, qos=AT_MOST_ONCE
29305 [hawtdispatch-DEFAULT-3] INFO  DataIntegrityVerifier  - Ok. clientId=Subscriber_001, topic=topicA, qos=AT_MOST_ONCE
29408 [hawtdispatch-DEFAULT-3] INFO  DataIntegrityVerifier  - Ok. clientId=Subscriber_001, topic=topicA, qos=AT_MOST_ONCE
29509 [hawtdispatch-DEFAULT-3] INFO  DataIntegrityVerifier  - Ok. clientId=Subscriber_001, topic=topicA, qos=AT_MOST_ONCE
29603 [hawtdispatch-DEFAULT-3] INFO  DataIntegrityVerifier  - Ok. clientId=Subscriber_001, topic=topicA, qos=AT_MOST_ONCE
29705 [hawtdispatch-DEFAULT-3] INFO  DataIntegrityVerifier  - Ok. clientId=Subscriber_001, topic=topicA, qos=AT_MOST_ONCE
29822 [hawtdispatch-DEFAULT-3] INFO  DataIntegrityVerifier  - Ok. clientId=Subscriber_001, topic=topicA, qos=AT_MOST_ONCE
29911 [hawtdispatch-DEFAULT-3] INFO  DataIntegrityVerifier  - Ok. clientId=Subscriber_001, topic=topicA, qos=AT_MOST_ONCE
30010 [hawtdispatch-DEFAULT-3] INFO  DataIntegrityVerifier  - Ok. clientId=Subscriber_001, topic=topicA, qos=AT_MOST_ONCE
30107 [hawtdispatch-DEFAULT-3] INFO  DataIntegrityVerifier  - Ok. clientId=Subscriber_001, topic=topicA, qos=AT_MOST_ONCE
30230 [hawtdispatch-DEFAULT-3] INFO  DataIntegrityVerifier  - Ok. clientId=Subscriber_001, topic=topicA, qos=AT_MOST_ONCE
30306 [hawtdispatch-DEFAULT-3] INFO  DataIntegrityVerifier  - Ok. clientId=Subscriber_001, topic=topicA, qos=AT_MOST_ONCE
30402 [hawtdispatch-DEFAULT-3] INFO  DataIntegrityVerifier  - Ok. clientId=Subscriber_001, topic=topicA, qos=AT_MOST_ONCE
30510 [hawtdispatch-DEFAULT-3] INFO  DataIntegrityVerifier  - Ok. clientId=Subscriber_001, topic=topicA, qos=AT_MOST_ONCE
30601 [hawtdispatch-DEFAULT-3] INFO  DataIntegrityVerifier  - Ok. clientId=Subscriber_001, topic=topicA, qos=AT_MOST_ONCE
30725 [hawtdispatch-DEFAULT-3] INFO  DataIntegrityVerifier  - Ok. clientId=Subscriber_001, topic=topicA, qos=AT_MOST_ONCE
30803 [hawtdispatch-DEFAULT-3] INFO  DataIntegrityVerifier  - Ok. clientId=Subscriber_001, topic=topicA, qos=AT_MOST_ONCE
30910 [hawtdispatch-DEFAULT-3] INFO  DataIntegrityVerifier  - Ok. clientId=Subscriber_001, topic=topicA, qos=AT_MOST_ONCE
31010 [hawtdispatch-DEFAULT-3] INFO  DataIntegrityVerifier  - Ok. clientId=Subscriber_001, topic=topicA, qos=AT_MOST_ONCE
31108 [hawtdispatch-DEFAULT-3] INFO  DataIntegrityVerifier  - Ok. clientId=Subscriber_001, topic=topicA, qos=AT_MOST_ONCE
31205 [hawtdispatch-DEFAULT-3] INFO  DataIntegrityVerifier  - Ok. clientId=Subscriber_001, topic=topicA, qos=AT_MOST_ONCE
31311 [hawtdispatch-DEFAULT-3] INFO  DataIntegrityVerifier  - Ok. clientId=Subscriber_001, topic=topicA, qos=AT_MOST_ONCE
31411 [hawtdispatch-DEFAULT-3] INFO  DataIntegrityVerifier  - Ok. clientId=Subscriber_001, topic=topicA, qos=AT_MOST_ONCE
31507 [hawtdispatch-DEFAULT-3] INFO  DataIntegrityVerifier  - Ok. clientId=Subscriber_001, topic=topicA, qos=AT_MOST_ONCE
31621 [hawtdispatch-DEFAULT-3] INFO  DataIntegrityVerifier  - Ok. clientId=Subscriber_001, topic=topicA, qos=AT_MOST_ONCE
31705 [hawtdispatch-DEFAULT-3] INFO  DataIntegrityVerifier  - Ok. clientId=Subscriber_001, topic=topicA, qos=AT_MOST_ONCE
31809 [hawtdispatch-DEFAULT-3] INFO  DataIntegrityVerifier  - Ok. clientId=Subscriber_001, topic=topicA, qos=AT_MOST_ONCE
31908 [hawtdispatch-DEFAULT-3] INFO  DataIntegrityVerifier  - Ok. clientId=Subscriber_001, topic=topicA, qos=AT_MOST_ONCE
32004 [hawtdispatch-DEFAULT-3] INFO  DataIntegrityVerifier  - Ok. clientId=Subscriber_001, topic=topicA, qos=AT_MOST_ONCE
32104 [hawtdispatch-DEFAULT-3] INFO  DataIntegrityVerifier  - Ok. clientId=Subscriber_001, topic=topicA, qos=AT_MOST_ONCE
32208 [hawtdispatch-DEFAULT-3] INFO  DataIntegrityVerifier  - Ok. clientId=Subscriber_001, topic=topicA, qos=AT_MOST_ONCE
32311 [hawtdispatch-DEFAULT-3] INFO  DataIntegrityVerifier  - Ok. clientId=Subscriber_001, topic=topicA, qos=AT_MOST_ONCE
32405 [hawtdispatch-DEFAULT-3] INFO  DataIntegrityVerifier  - Ok. clientId=Subscriber_001, topic=topicA, qos=AT_MOST_ONCE
32504 [hawtdispatch-DEFAULT-3] INFO  DataIntegrityVerifier  - Ok. clientId=Subscriber_001, topic=topicA, qos=AT_MOST_ONCE
32607 [hawtdispatch-DEFAULT-3] INFO  DataIntegrityVerifier  - Ok. clientId=Subscriber_001, topic=topicA, qos=AT_MOST_ONCE
32716 [hawtdispatch-DEFAULT-3] INFO  DataIntegrityVerifier  - Ok. clientId=Subscriber_001, topic=topicA, qos=AT_MOST_ONCE
32805 [hawtdispatch-DEFAULT-3] INFO  DataIntegrityVerifier  - Ok. clientId=Subscriber_001, topic=topicA, qos=AT_MOST_ONCE
32910 [hawtdispatch-DEFAULT-3] INFO  DataIntegrityVerifier  - Ok. clientId=Subscriber_001, topic=topicA, qos=AT_MOST_ONCE
33010 [hawtdispatch-DEFAULT-3] INFO  DataIntegrityVerifier  - Ok. clientId=Subscriber_001, topic=topicA, qos=AT_MOST_ONCE
33115 [hawtdispatch-DEFAULT-3] INFO  DataIntegrityVerifier  - Ok. clientId=Subscriber_001, topic=topicA, qos=AT_MOST_ONCE
33206 [hawtdispatch-DEFAULT-3] INFO  DataIntegrityVerifier  - Ok. clientId=Subscriber_001, topic=topicA, qos=AT_MOST_ONCE
33305 [hawtdispatch-DEFAULT-3] INFO  DataIntegrityVerifier  - Ok. clientId=Subscriber_001, topic=topicA, qos=AT_MOST_ONCE
33412 [hawtdispatch-DEFAULT-3] INFO  DataIntegrityVerifier  - Ok. clientId=Subscriber_001, topic=topicA, qos=AT_MOST_ONCE
33514 [hawtdispatch-DEFAULT-3] INFO  DataIntegrityVerifier  - Ok. clientId=Subscriber_001, topic=topicA, qos=AT_MOST_ONCE
33616 [hawtdispatch-DEFAULT-3] INFO  DataIntegrityVerifier  - Ok. clientId=Subscriber_001, topic=topicA, qos=AT_MOST_ONCE
33706 [hawtdispatch-DEFAULT-3] INFO  DataIntegrityVerifier  - Ok. clientId=Subscriber_001, topic=topicA, qos=AT_MOST_ONCE
33801 [hawtdispatch-DEFAULT-3] INFO  DataIntegrityVerifier  - Ok. clientId=Subscriber_001, topic=topicA, qos=AT_MOST_ONCE
33904 [hawtdispatch-DEFAULT-3] INFO  DataIntegrityVerifier  - Ok. clientId=Subscriber_001, topic=topicA, qos=AT_MOST_ONCE
34014 [hawtdispatch-DEFAULT-3] INFO  DataIntegrityVerifier  - Ok. clientId=Subscriber_001, topic=topicA, qos=AT_MOST_ONCE
34100 [hawtdispatch-DEFAULT-3] INFO  DataIntegrityVerifier  - Ok. clientId=Subscriber_001, topic=topicA, qos=AT_MOST_ONCE
34204 [hawtdispatch-DEFAULT-3] INFO  DataIntegrityVerifier  - Ok. clientId=Subscriber_001, topic=topicA, qos=AT_MOST_ONCE
34308 [hawtdispatch-DEFAULT-3] INFO  DataIntegrityVerifier  - Ok. clientId=Subscriber_001, topic=topicA, qos=AT_MOST_ONCE
34413 [hawtdispatch-DEFAULT-3] INFO  DataIntegrityVerifier  - Ok. clientId=Subscriber_001, topic=topicA, qos=AT_MOST_ONCE
34502 [hawtdispatch-DEFAULT-3] INFO  DataIntegrityVerifier  - Ok. clientId=Subscriber_001, topic=topicA, qos=AT_MOST_ONCE
34613 [hawtdispatch-DEFAULT-3] INFO  DataIntegrityVerifier  - Ok. clientId=Subscriber_001, topic=topicA, qos=AT_MOST_ONCE
34710 [hawtdispatch-DEFAULT-3] INFO  DataIntegrityVerifier  - Ok. clientId=Subscriber_001, topic=topicA, qos=AT_MOST_ONCE
34812 [hawtdispatch-DEFAULT-3] INFO  DataIntegrityVerifier  - Ok. clientId=Subscriber_001, topic=topicA, qos=AT_MOST_ONCE
34910 [hawtdispatch-DEFAULT-3] INFO  DataIntegrityVerifier  - Ok. clientId=Subscriber_001, topic=topicA, qos=AT_MOST_ONCE
35003 [hawtdispatch-DEFAULT-3] INFO  DataIntegrityVerifier  - Ok. clientId=Subscriber_001, topic=topicA, qos=AT_MOST_ONCE
35100 [hawtdispatch-DEFAULT-3] INFO  DataIntegrityVerifier  - Ok. clientId=Subscriber_001, topic=topicA, qos=AT_MOST_ONCE
35209 [hawtdispatch-DEFAULT-3] INFO  DataIntegrityVerifier  - Ok. clientId=Subscriber_001, topic=topicA, qos=AT_MOST_ONCE
35306 [hawtdispatch-DEFAULT-3] INFO  DataIntegrityVerifier  - Ok. clientId=Subscriber_001, topic=topicA, qos=AT_MOST_ONCE
35415 [hawtdispatch-DEFAULT-3] INFO  DataIntegrityVerifier  - Ok. clientId=Subscriber_001, topic=topicA, qos=AT_MOST_ONCE
35516 [hawtdispatch-DEFAULT-3] INFO  DataIntegrityVerifier  - Ok. clientId=Subscriber_001, topic=topicA, qos=AT_MOST_ONCE
35618 [hawtdispatch-DEFAULT-3] INFO  DataIntegrityVerifier  - Ok. clientId=Subscriber_001, topic=topicA, qos=AT_MOST_ONCE
35705 [hawtdispatch-DEFAULT-3] INFO  DataIntegrityVerifier  - Ok. clientId=Subscriber_001, topic=topicA, qos=AT_MOST_ONCE
35806 [hawtdispatch-DEFAULT-3] INFO  DataIntegrityVerifier  - Ok. clientId=Subscriber_001, topic=topicA, qos=AT_MOST_ONCE
35910 [hawtdispatch-DEFAULT-3] INFO  DataIntegrityVerifier  - Ok. clientId=Subscriber_001, topic=topicA, qos=AT_MOST_ONCE
36007 [hawtdispatch-DEFAULT-3] INFO  DataIntegrityVerifier  - Ok. clientId=Subscriber_001, topic=topicA, qos=AT_MOST_ONCE
36111 [hawtdispatch-DEFAULT-3] INFO  DataIntegrityVerifier  - Ok. clientId=Subscriber_001, topic=topicA, qos=AT_MOST_ONCE
36207 [hawtdispatch-DEFAULT-3] INFO  DataIntegrityVerifier  - Ok. clientId=Subscriber_001, topic=topicA, qos=AT_MOST_ONCE
36304 [hawtdispatch-DEFAULT-3] INFO  DataIntegrityVerifier  - Ok. clientId=Subscriber_001, topic=topicA, qos=AT_MOST_ONCE
36403 [hawtdispatch-DEFAULT-3] INFO  DataIntegrityVerifier  - Ok. clientId=Subscriber_001, topic=topicA, qos=AT_MOST_ONCE
36500 [hawtdispatch-DEFAULT-3] INFO  DataIntegrityVerifier  - Ok. clientId=Subscriber_001, topic=topicA, qos=AT_MOST_ONCE
36610 [hawtdispatch-DEFAULT-3] INFO  DataIntegrityVerifier  - Ok. clientId=Subscriber_001, topic=topicA, qos=AT_MOST_ONCE
36719 [hawtdispatch-DEFAULT-3] INFO  DataIntegrityVerifier  - Ok. clientId=Subscriber_001, topic=topicA, qos=AT_MOST_ONCE
36804 [hawtdispatch-DEFAULT-3] INFO  DataIntegrityVerifier  - Ok. clientId=Subscriber_001, topic=topicA, qos=AT_MOST_ONCE
36906 [hawtdispatch-DEFAULT-3] INFO  DataIntegrityVerifier  - Ok. clientId=Subscriber_001, topic=topicA, qos=AT_MOST_ONCE
37008 [hawtdispatch-DEFAULT-3] INFO  DataIntegrityVerifier  - Ok. clientId=Subscriber_001, topic=topicA, qos=AT_MOST_ONCE
37119 [hawtdispatch-DEFAULT-3] INFO  DataIntegrityVerifier  - Ok. clientId=Subscriber_001, topic=topicA, qos=AT_MOST_ONCE
37205 [hawtdispatch-DEFAULT-3] INFO  DataIntegrityVerifier  - Ok. clientId=Subscriber_001, topic=topicA, qos=AT_MOST_ONCE
37309 [hawtdispatch-DEFAULT-3] INFO  DataIntegrityVerifier  - Ok. clientId=Subscriber_001, topic=topicA, qos=AT_MOST_ONCE
37405 [hawtdispatch-DEFAULT-3] INFO  DataIntegrityVerifier  - Ok. clientId=Subscriber_001, topic=topicA, qos=AT_MOST_ONCE
37512 [hawtdispatch-DEFAULT-3] INFO  DataIntegrityVerifier  - Ok. clientId=Subscriber_001, topic=topicA, qos=AT_MOST_ONCE
37605 [hawtdispatch-DEFAULT-3] INFO  DataIntegrityVerifier  - Ok. clientId=Subscriber_001, topic=topicA, qos=AT_MOST_ONCE
37714 [hawtdispatch-DEFAULT-3] INFO  DataIntegrityVerifier  - Ok. clientId=Subscriber_001, topic=topicA, qos=AT_MOST_ONCE
37814 [hawtdispatch-DEFAULT-3] INFO  DataIntegrityVerifier  - Ok. clientId=Subscriber_001, topic=topicA, qos=AT_MOST_ONCE
37910 [hawtdispatch-DEFAULT-3] INFO  DataIntegrityVerifier  - Ok. clientId=Subscriber_001, topic=topicA, qos=AT_MOST_ONCE
38006 [hawtdispatch-DEFAULT-3] INFO  DataIntegrityVerifier  - Ok. clientId=Subscriber_001, topic=topicA, qos=AT_MOST_ONCE
38109 [hawtdispatch-DEFAULT-3] INFO  DataIntegrityVerifier  - Ok. clientId=Subscriber_001, topic=topicA, qos=AT_MOST_ONCE
38212 [hawtdispatch-DEFAULT-3] INFO  DataIntegrityVerifier  - Ok. clientId=Subscriber_001, topic=topicA, qos=AT_MOST_ONCE
38307 [hawtdispatch-DEFAULT-3] INFO  DataIntegrityVerifier  - Ok. clientId=Subscriber_001, topic=topicA, qos=AT_MOST_ONCE
38398 [hawtdispatch-DEFAULT-3] INFO  DataIntegrityVerifier  - Ok. clientId=Subscriber_001, topic=topicA, qos=AT_MOST_ONCE
38512 [hawtdispatch-DEFAULT-3] INFO  DataIntegrityVerifier  - Ok. clientId=Subscriber_001, topic=topicA, qos=AT_MOST_ONCE
38608 [hawtdispatch-DEFAULT-3] INFO  DataIntegrityVerifier  - Ok. clientId=Subscriber_001, topic=topicA, qos=AT_MOST_ONCE
38715 [hawtdispatch-DEFAULT-3] INFO  DataIntegrityVerifier  - Ok. clientId=Subscriber_001, topic=topicA, qos=AT_MOST_ONCE
38807 [hawtdispatch-DEFAULT-3] INFO  DataIntegrityVerifier  - Ok. clientId=Subscriber_001, topic=topicA, qos=AT_MOST_ONCE
38902 [hawtdispatch-DEFAULT-3] INFO  DataIntegrityVerifier  - Ok. clientId=Subscriber_001, topic=topicA, qos=AT_MOST_ONCE
39011 [hawtdispatch-DEFAULT-3] INFO  DataIntegrityVerifier  - Ok. clientId=Subscriber_001, topic=topicA, qos=AT_MOST_ONCE
39117 [hawtdispatch-DEFAULT-3] INFO  DataIntegrityVerifier  - Ok. clientId=Subscriber_001, topic=topicA, qos=AT_MOST_ONCE
39210 [hawtdispatch-DEFAULT-3] INFO  DataIntegrityVerifier  - Ok. clientId=Subscriber_001, topic=topicA, qos=AT_MOST_ONCE
39327 [hawtdispatch-DEFAULT-1] INFO  DataIntegrityVerifier  - Ok. clientId=Subscriber_001, topic=topicA, qos=AT_MOST_ONCE
39413 [hawtdispatch-DEFAULT-1] INFO  DataIntegrityVerifier  - Ok. clientId=Subscriber_001, topic=topicA, qos=AT_MOST_ONCE
39519 [hawtdispatch-DEFAULT-3] INFO  DataIntegrityVerifier  - Ok. clientId=Subscriber_001, topic=topicA, qos=AT_MOST_ONCE
39605 [hawtdispatch-DEFAULT-1] INFO  DataIntegrityVerifier  - Ok. clientId=Subscriber_001, topic=topicA, qos=AT_MOST_ONCE
39711 [hawtdispatch-DEFAULT-3] INFO  DataIntegrityVerifier  - Ok. clientId=Subscriber_001, topic=topicA, qos=AT_MOST_ONCE
39817 [hawtdispatch-DEFAULT-1] INFO  DataIntegrityVerifier  - Ok. clientId=Subscriber_001, topic=topicA, qos=AT_MOST_ONCE
39910 [hawtdispatch-DEFAULT-1] INFO  DataIntegrityVerifier  - Ok. clientId=Subscriber_001, topic=topicA, qos=AT_MOST_ONCE
40011 [hawtdispatch-DEFAULT-3] INFO  DataIntegrityVerifier  - Ok. clientId=Subscriber_001, topic=topicA, qos=AT_MOST_ONCE
40110 [hawtdispatch-DEFAULT-1] INFO  DataIntegrityVerifier  - Ok. clientId=Subscriber_001, topic=topicA, qos=AT_MOST_ONCE
40204 [hawtdispatch-DEFAULT-3] INFO  DataIntegrityVerifier  - Ok. clientId=Subscriber_001, topic=topicA, qos=AT_MOST_ONCE
40311 [hawtdispatch-DEFAULT-3] INFO  DataIntegrityVerifier  - Ok. clientId=Subscriber_001, topic=topicA, qos=AT_MOST_ONCE
40406 [hawtdispatch-DEFAULT-3] INFO  DataIntegrityVerifier  - Ok. clientId=Subscriber_001, topic=topicA, qos=AT_MOST_ONCE
40512 [hawtdispatch-DEFAULT-3] INFO  DataIntegrityVerifier  - Ok. clientId=Subscriber_001, topic=topicA, qos=AT_MOST_ONCE
40607 [hawtdispatch-DEFAULT-3] INFO  DataIntegrityVerifier  - Ok. clientId=Subscriber_001, topic=topicA, qos=AT_MOST_ONCE
40714 [hawtdispatch-DEFAULT-3] INFO  DataIntegrityVerifier  - Ok. clientId=Subscriber_001, topic=topicA, qos=AT_MOST_ONCE
40800 [hawtdispatch-DEFAULT-3] INFO  DataIntegrityVerifier  - Ok. clientId=Subscriber_001, topic=topicA, qos=AT_MOST_ONCE
40906 [hawtdispatch-DEFAULT-3] INFO  DataIntegrityVerifier  - Ok. clientId=Subscriber_001, topic=topicA, qos=AT_MOST_ONCE
41008 [hawtdispatch-DEFAULT-3] INFO  DataIntegrityVerifier  - Ok. clientId=Subscriber_001, topic=topicA, qos=AT_MOST_ONCE
41102 [hawtdispatch-DEFAULT-3] INFO  DataIntegrityVerifier  - Ok. clientId=Subscriber_001, topic=topicA, qos=AT_MOST_ONCE
41200 [hawtdispatch-DEFAULT-3] INFO  DataIntegrityVerifier  - Ok. clientId=Subscriber_001, topic=topicA, qos=AT_MOST_ONCE
41307 [hawtdispatch-DEFAULT-3] INFO  DataIntegrityVerifier  - Ok. clientId=Subscriber_001, topic=topicA, qos=AT_MOST_ONCE
41404 [hawtdispatch-DEFAULT-3] INFO  DataIntegrityVerifier  - Ok. clientId=Subscriber_001, topic=topicA, qos=AT_MOST_ONCE
41504 [hawtdispatch-DEFAULT-3] INFO  DataIntegrityVerifier  - Ok. clientId=Subscriber_001, topic=topicA, qos=AT_MOST_ONCE
41606 [hawtdispatch-DEFAULT-3] INFO  DataIntegrityVerifier  - Ok. clientId=Subscriber_001, topic=topicA, qos=AT_MOST_ONCE
41708 [hawtdispatch-DEFAULT-3] INFO  DataIntegrityVerifier  - Ok. clientId=Subscriber_001, topic=topicA, qos=AT_MOST_ONCE
41800 [hawtdispatch-DEFAULT-3] INFO  DataIntegrityVerifier  - Ok. clientId=Subscriber_001, topic=topicA, qos=AT_MOST_ONCE
41906 [hawtdispatch-DEFAULT-3] INFO  DataIntegrityVerifier  - Ok. clientId=Subscriber_001, topic=topicA, qos=AT_MOST_ONCE
42005 [hawtdispatch-DEFAULT-3] INFO  DataIntegrityVerifier  - Ok. clientId=Subscriber_001, topic=topicA, qos=AT_MOST_ONCE
42109 [hawtdispatch-DEFAULT-3] INFO  DataIntegrityVerifier  - Ok. clientId=Subscriber_001, topic=topicA, qos=AT_MOST_ONCE
42217 [hawtdispatch-DEFAULT-3] INFO  DataIntegrityVerifier  - Ok. clientId=Subscriber_001, topic=topicA, qos=AT_MOST_ONCE
42308 [hawtdispatch-DEFAULT-3] INFO  DataIntegrityVerifier  - Ok. clientId=Subscriber_001, topic=topicA, qos=AT_MOST_ONCE
42413 [hawtdispatch-DEFAULT-3] INFO  DataIntegrityVerifier  - Ok. clientId=Subscriber_001, topic=topicA, qos=AT_MOST_ONCE
42506 [hawtdispatch-DEFAULT-3] INFO  DataIntegrityVerifier  - Ok. clientId=Subscriber_001, topic=topicA, qos=AT_MOST_ONCE
42608 [hawtdispatch-DEFAULT-3] INFO  DataIntegrityVerifier  - Ok. clientId=Subscriber_001, topic=topicA, qos=AT_MOST_ONCE
42706 [hawtdispatch-DEFAULT-3] INFO  DataIntegrityVerifier  - Ok. clientId=Subscriber_001, topic=topicA, qos=AT_MOST_ONCE
42806 [hawtdispatch-DEFAULT-3] INFO  DataIntegrityVerifier  - Ok. clientId=Subscriber_001, topic=topicA, qos=AT_MOST_ONCE
42908 [hawtdispatch-DEFAULT-3] INFO  DataIntegrityVerifier  - Ok. clientId=Subscriber_001, topic=topicA, qos=AT_MOST_ONCE
43008 [hawtdispatch-DEFAULT-3] INFO  DataIntegrityVerifier  - Ok. clientId=Subscriber_001, topic=topicA, qos=AT_MOST_ONCE
43110 [hawtdispatch-DEFAULT-3] INFO  DataIntegrityVerifier  - Ok. clientId=Subscriber_001, topic=topicA, qos=AT_MOST_ONCE
43212 [hawtdispatch-DEFAULT-3] INFO  DataIntegrityVerifier  - Ok. clientId=Subscriber_001, topic=topicA, qos=AT_MOST_ONCE
43315 [hawtdispatch-DEFAULT-3] INFO  DataIntegrityVerifier  - Ok. clientId=Subscriber_001, topic=topicA, qos=AT_MOST_ONCE
43419 [hawtdispatch-DEFAULT-3] INFO  DataIntegrityVerifier  - Ok. clientId=Subscriber_001, topic=topicA, qos=AT_MOST_ONCE
43515 [hawtdispatch-DEFAULT-3] INFO  DataIntegrityVerifier  - Ok. clientId=Subscriber_001, topic=topicA, qos=AT_MOST_ONCE
43619 [hawtdispatch-DEFAULT-3] INFO  DataIntegrityVerifier  - Ok. clientId=Subscriber_001, topic=topicA, qos=AT_MOST_ONCE
43718 [hawtdispatch-DEFAULT-3] INFO  DataIntegrityVerifier  - Ok. clientId=Subscriber_001, topic=topicA, qos=AT_MOST_ONCE
43810 [hawtdispatch-DEFAULT-3] INFO  DataIntegrityVerifier  - Ok. clientId=Subscriber_001, topic=topicA, qos=AT_MOST_ONCE
43914 [hawtdispatch-DEFAULT-3] INFO  DataIntegrityVerifier  - Ok. clientId=Subscriber_001, topic=topicA, qos=AT_MOST_ONCE
44004 [hawtdispatch-DEFAULT-3] INFO  DataIntegrityVerifier  - Ok. clientId=Subscriber_001, topic=topicA, qos=AT_MOST_ONCE
44103 [hawtdispatch-DEFAULT-3] INFO  DataIntegrityVerifier  - Ok. clientId=Subscriber_001, topic=topicA, qos=AT_MOST_ONCE
44207 [hawtdispatch-DEFAULT-3] INFO  DataIntegrityVerifier  - Ok. clientId=Subscriber_001, topic=topicA, qos=AT_MOST_ONCE
44305 [hawtdispatch-DEFAULT-3] INFO  DataIntegrityVerifier  - Ok. clientId=Subscriber_001, topic=topicA, qos=AT_MOST_ONCE
44406 [hawtdispatch-DEFAULT-3] INFO  DataIntegrityVerifier  - Ok. clientId=Subscriber_001, topic=topicA, qos=AT_MOST_ONCE
44507 [hawtdispatch-DEFAULT-3] INFO  DataIntegrityVerifier  - Ok. clientId=Subscriber_001, topic=topicA, qos=AT_MOST_ONCE
44608 [hawtdispatch-DEFAULT-3] INFO  DataIntegrityVerifier  - Ok. clientId=Subscriber_001, topic=topicA, qos=AT_MOST_ONCE
44705 [hawtdispatch-DEFAULT-3] INFO  DataIntegrityVerifier  - Ok. clientId=Subscriber_001, topic=topicA, qos=AT_MOST_ONCE
44801 [hawtdispatch-DEFAULT-3] INFO  DataIntegrityVerifier  - Ok. clientId=Subscriber_001, topic=topicA, qos=AT_MOST_ONCE
44902 [hawtdispatch-DEFAULT-3] INFO  DataIntegrityVerifier  - Ok. clientId=Subscriber_001, topic=topicA, qos=AT_MOST_ONCE
45001 [hawtdispatch-DEFAULT-3] INFO  DataIntegrityVerifier  - Ok. clientId=Subscriber_001, topic=topicA, qos=AT_MOST_ONCE
45099 [hawtdispatch-DEFAULT-3] INFO  DataIntegrityVerifier  - Ok. clientId=Subscriber_001, topic=topicA, qos=AT_MOST_ONCE
45201 [hawtdispatch-DEFAULT-3] INFO  DataIntegrityVerifier  - Ok. clientId=Subscriber_001, topic=topicA, qos=AT_MOST_ONCE
45303 [hawtdispatch-DEFAULT-3] INFO  DataIntegrityVerifier  - Ok. clientId=Subscriber_001, topic=topicA, qos=AT_MOST_ONCE
45411 [hawtdispatch-DEFAULT-3] INFO  DataIntegrityVerifier  - Ok. clientId=Subscriber_001, topic=topicA, qos=AT_MOST_ONCE
45505 [hawtdispatch-DEFAULT-3] INFO  DataIntegrityVerifier  - Ok. clientId=Subscriber_001, topic=topicA, qos=AT_MOST_ONCE
45604 [hawtdispatch-DEFAULT-3] INFO  DataIntegrityVerifier  - Ok. clientId=Subscriber_001, topic=topicA, qos=AT_MOST_ONCE
45707 [hawtdispatch-DEFAULT-3] INFO  DataIntegrityVerifier  - Ok. clientId=Subscriber_001, topic=topicA, qos=AT_MOST_ONCE
45810 [hawtdispatch-DEFAULT-3] INFO  DataIntegrityVerifier  - Ok. clientId=Subscriber_001, topic=topicA, qos=AT_MOST_ONCE
45925 [hawtdispatch-DEFAULT-3] INFO  DataIntegrityVerifier  - Ok. clientId=Subscriber_001, topic=topicA, qos=AT_MOST_ONCE
46008 [hawtdispatch-DEFAULT-3] INFO  DataIntegrityVerifier  - Ok. clientId=Subscriber_001, topic=topicA, qos=AT_MOST_ONCE
46106 [hawtdispatch-DEFAULT-3] INFO  DataIntegrityVerifier  - Ok. clientId=Subscriber_001, topic=topicA, qos=AT_MOST_ONCE
46205 [hawtdispatch-DEFAULT-3] INFO  DataIntegrityVerifier  - Ok. clientId=Subscriber_001, topic=topicA, qos=AT_MOST_ONCE
46306 [hawtdispatch-DEFAULT-3] INFO  DataIntegrityVerifier  - Ok. clientId=Subscriber_001, topic=topicA, qos=AT_MOST_ONCE
46399 [hawtdispatch-DEFAULT-3] INFO  DataIntegrityVerifier  - Ok. clientId=Subscriber_001, topic=topicA, qos=AT_MOST_ONCE
46508 [hawtdispatch-DEFAULT-3] INFO  DataIntegrityVerifier  - Ok. clientId=Subscriber_001, topic=topicA, qos=AT_MOST_ONCE
46607 [hawtdispatch-DEFAULT-3] INFO  DataIntegrityVerifier  - Ok. clientId=Subscriber_001, topic=topicA, qos=AT_MOST_ONCE
46701 [hawtdispatch-DEFAULT-3] INFO  DataIntegrityVerifier  - Ok. clientId=Subscriber_001, topic=topicA, qos=AT_MOST_ONCE
46799 [hawtdispatch-DEFAULT-3] INFO  DataIntegrityVerifier  - Ok. clientId=Subscriber_001, topic=topicA, qos=AT_MOST_ONCE
46902 [hawtdispatch-DEFAULT-3] INFO  DataIntegrityVerifier  - Ok. clientId=Subscriber_001, topic=topicA, qos=AT_MOST_ONCE
47011 [hawtdispatch-DEFAULT-3] INFO  DataIntegrityVerifier  - Ok. clientId=Subscriber_001, topic=topicA, qos=AT_MOST_ONCE
47101 [hawtdispatch-DEFAULT-3] INFO  DataIntegrityVerifier  - Ok. clientId=Subscriber_001, topic=topicA, qos=AT_MOST_ONCE
47207 [hawtdispatch-DEFAULT-3] INFO  DataIntegrityVerifier  - Ok. clientId=Subscriber_001, topic=topicA, qos=AT_MOST_ONCE
47304 [hawtdispatch-DEFAULT-3] INFO  DataIntegrityVerifier  - Ok. clientId=Subscriber_001, topic=topicA, qos=AT_MOST_ONCE
47408 [hawtdispatch-DEFAULT-3] INFO  DataIntegrityVerifier  - Ok. clientId=Subscriber_001, topic=topicA, qos=AT_MOST_ONCE
47501 [hawtdispatch-DEFAULT-3] INFO  DataIntegrityVerifier  - Ok. clientId=Subscriber_001, topic=topicA, qos=AT_MOST_ONCE
47601 [hawtdispatch-DEFAULT-3] INFO  DataIntegrityVerifier  - Ok. clientId=Subscriber_001, topic=topicA, qos=AT_MOST_ONCE
47704 [hawtdispatch-DEFAULT-3] INFO  DataIntegrityVerifier  - Ok. clientId=Subscriber_001, topic=topicA, qos=AT_MOST_ONCE
47804 [hawtdispatch-DEFAULT-3] INFO  DataIntegrityVerifier  - Ok. clientId=Subscriber_001, topic=topicA, qos=AT_MOST_ONCE
47903 [hawtdispatch-DEFAULT-3] INFO  DataIntegrityVerifier  - Ok. clientId=Subscriber_001, topic=topicA, qos=AT_MOST_ONCE
48002 [hawtdispatch-DEFAULT-3] INFO  DataIntegrityVerifier  - Ok. clientId=Subscriber_001, topic=topicA, qos=AT_MOST_ONCE
48106 [hawtdispatch-DEFAULT-3] INFO  DataIntegrityVerifier  - Ok. clientId=Subscriber_001, topic=topicA, qos=AT_MOST_ONCE
48211 [hawtdispatch-DEFAULT-3] INFO  DataIntegrityVerifier  - Ok. clientId=Subscriber_001, topic=topicA, qos=AT_MOST_ONCE
48309 [hawtdispatch-DEFAULT-3] INFO  DataIntegrityVerifier  - Ok. clientId=Subscriber_001, topic=topicA, qos=AT_MOST_ONCE
48406 [hawtdispatch-DEFAULT-3] INFO  DataIntegrityVerifier  - Ok. clientId=Subscriber_001, topic=topicA, qos=AT_MOST_ONCE
48515 [hawtdispatch-DEFAULT-3] INFO  DataIntegrityVerifier  - Ok. clientId=Subscriber_001, topic=topicA, qos=AT_MOST_ONCE
48609 [hawtdispatch-DEFAULT-3] INFO  DataIntegrityVerifier  - Ok. clientId=Subscriber_001, topic=topicA, qos=AT_MOST_ONCE
48721 [hawtdispatch-DEFAULT-3] INFO  DataIntegrityVerifier  - Ok. clientId=Subscriber_001, topic=topicA, qos=AT_MOST_ONCE
48807 [hawtdispatch-DEFAULT-3] INFO  DataIntegrityVerifier  - Ok. clientId=Subscriber_001, topic=topicA, qos=AT_MOST_ONCE
48908 [hawtdispatch-DEFAULT-3] INFO  DataIntegrityVerifier  - Ok. clientId=Subscriber_001, topic=topicA, qos=AT_MOST_ONCE
49011 [hawtdispatch-DEFAULT-1] INFO  DataIntegrityVerifier  - Ok. clientId=Subscriber_001, topic=topicA, qos=AT_MOST_ONCE
49104 [hawtdispatch-DEFAULT-3] INFO  DataIntegrityVerifier  - Ok. clientId=Subscriber_001, topic=topicA, qos=AT_MOST_ONCE
49200 [hawtdispatch-DEFAULT-1] INFO  DataIntegrityVerifier  - Ok. clientId=Subscriber_001, topic=topicA, qos=AT_MOST_ONCE
49305 [hawtdispatch-DEFAULT-1] INFO  DataIntegrityVerifier  - Ok. clientId=Subscriber_001, topic=topicA, qos=AT_MOST_ONCE
49401 [hawtdispatch-DEFAULT-3] INFO  DataIntegrityVerifier  - Ok. clientId=Subscriber_001, topic=topicA, qos=AT_MOST_ONCE
49509 [hawtdispatch-DEFAULT-1] INFO  DataIntegrityVerifier  - Ok. clientId=Subscriber_001, topic=topicA, qos=AT_MOST_ONCE
49613 [hawtdispatch-DEFAULT-3] INFO  DataIntegrityVerifier  - Ok. clientId=Subscriber_001, topic=topicA, qos=AT_MOST_ONCE
49712 [hawtdispatch-DEFAULT-1] INFO  DataIntegrityVerifier  - Ok. clientId=Subscriber_001, topic=topicA, qos=AT_MOST_ONCE
49807 [hawtdispatch-DEFAULT-3] INFO  DataIntegrityVerifier  - Ok. clientId=Subscriber_001, topic=topicA, qos=AT_MOST_ONCE
49909 [hawtdispatch-DEFAULT-1] INFO  DataIntegrityVerifier  - Ok. clientId=Subscriber_001, topic=topicA, qos=AT_MOST_ONCE
50008 [hawtdispatch-DEFAULT-3] INFO  DataIntegrityVerifier  - Ok. clientId=Subscriber_001, topic=topicA, qos=AT_MOST_ONCE
50107 [hawtdispatch-DEFAULT-1] INFO  DataIntegrityVerifier  - Ok. clientId=Subscriber_001, topic=topicA, qos=AT_MOST_ONCE
50212 [hawtdispatch-DEFAULT-3] INFO  DataIntegrityVerifier  - Ok. clientId=Subscriber_001, topic=topicA, qos=AT_MOST_ONCE
50312 [hawtdispatch-DEFAULT-1] INFO  DataIntegrityVerifier  - Ok. clientId=Subscriber_001, topic=topicA, qos=AT_MOST_ONCE
50405 [hawtdispatch-DEFAULT-3] INFO  DataIntegrityVerifier  - Ok. clientId=Subscriber_001, topic=topicA, qos=AT_MOST_ONCE
50508 [hawtdispatch-DEFAULT-1] INFO  DataIntegrityVerifier  - Ok. clientId=Subscriber_001, topic=topicA, qos=AT_MOST_ONCE
50602 [hawtdispatch-DEFAULT-1] INFO  DataIntegrityVerifier  - Ok. clientId=Subscriber_001, topic=topicA, qos=AT_MOST_ONCE
50715 [hawtdispatch-DEFAULT-3] INFO  DataIntegrityVerifier  - Ok. clientId=Subscriber_001, topic=topicA, qos=AT_MOST_ONCE
50801 [hawtdispatch-DEFAULT-1] INFO  DataIntegrityVerifier  - Ok. clientId=Subscriber_001, topic=topicA, qos=AT_MOST_ONCE
50907 [hawtdispatch-DEFAULT-3] INFO  DataIntegrityVerifier  - Ok. clientId=Subscriber_001, topic=topicA, qos=AT_MOST_ONCE
51011 [hawtdispatch-DEFAULT-3] INFO  DataIntegrityVerifier  - Ok. clientId=Subscriber_001, topic=topicA, qos=AT_MOST_ONCE
51105 [hawtdispatch-DEFAULT-3] INFO  DataIntegrityVerifier  - Ok. clientId=Subscriber_001, topic=topicA, qos=AT_MOST_ONCE
51218 [hawtdispatch-DEFAULT-3] INFO  DataIntegrityVerifier  - Ok. clientId=Subscriber_001, topic=topicA, qos=AT_MOST_ONCE
51308 [hawtdispatch-DEFAULT-3] INFO  DataIntegrityVerifier  - Ok. clientId=Subscriber_001, topic=topicA, qos=AT_MOST_ONCE
51405 [hawtdispatch-DEFAULT-3] INFO  DataIntegrityVerifier  - Ok. clientId=Subscriber_001, topic=topicA, qos=AT_MOST_ONCE
51502 [hawtdispatch-DEFAULT-3] INFO  DataIntegrityVerifier  - Ok. clientId=Subscriber_001, topic=topicA, qos=AT_MOST_ONCE
51605 [hawtdispatch-DEFAULT-3] INFO  DataIntegrityVerifier  - Ok. clientId=Subscriber_001, topic=topicA, qos=AT_MOST_ONCE
51700 [hawtdispatch-DEFAULT-3] INFO  DataIntegrityVerifier  - Ok. clientId=Subscriber_001, topic=topicA, qos=AT_MOST_ONCE
51806 [hawtdispatch-DEFAULT-3] INFO  DataIntegrityVerifier  - Ok. clientId=Subscriber_001, topic=topicA, qos=AT_MOST_ONCE
51907 [hawtdispatch-DEFAULT-3] INFO  DataIntegrityVerifier  - Ok. clientId=Subscriber_001, topic=topicA, qos=AT_MOST_ONCE
52012 [hawtdispatch-DEFAULT-3] INFO  DataIntegrityVerifier  - Ok. clientId=Subscriber_001, topic=topicA, qos=AT_MOST_ONCE
52106 [hawtdispatch-DEFAULT-3] INFO  DataIntegrityVerifier  - Ok. clientId=Subscriber_001, topic=topicA, qos=AT_MOST_ONCE
52201 [hawtdispatch-DEFAULT-3] INFO  DataIntegrityVerifier  - Ok. clientId=Subscriber_001, topic=topicA, qos=AT_MOST_ONCE
52307 [hawtdispatch-DEFAULT-3] INFO  DataIntegrityVerifier  - Ok. clientId=Subscriber_001, topic=topicA, qos=AT_MOST_ONCE
52408 [hawtdispatch-DEFAULT-3] INFO  DataIntegrityVerifier  - Ok. clientId=Subscriber_001, topic=topicA, qos=AT_MOST_ONCE
52507 [hawtdispatch-DEFAULT-3] INFO  DataIntegrityVerifier  - Ok. clientId=Subscriber_001, topic=topicA, qos=AT_MOST_ONCE
52602 [hawtdispatch-DEFAULT-3] INFO  DataIntegrityVerifier  - Ok. clientId=Subscriber_001, topic=topicA, qos=AT_MOST_ONCE
52704 [hawtdispatch-DEFAULT-3] INFO  DataIntegrityVerifier  - Ok. clientId=Subscriber_001, topic=topicA, qos=AT_MOST_ONCE
52808 [hawtdispatch-DEFAULT-3] INFO  DataIntegrityVerifier  - Ok. clientId=Subscriber_001, topic=topicA, qos=AT_MOST_ONCE
52909 [hawtdispatch-DEFAULT-3] INFO  DataIntegrityVerifier  - Ok. clientId=Subscriber_001, topic=topicA, qos=AT_MOST_ONCE
53012 [hawtdispatch-DEFAULT-3] INFO  DataIntegrityVerifier  - Ok. clientId=Subscriber_001, topic=topicA, qos=AT_MOST_ONCE
53100 [hawtdispatch-DEFAULT-3] INFO  DataIntegrityVerifier  - Ok. clientId=Subscriber_001, topic=topicA, qos=AT_MOST_ONCE
53207 [hawtdispatch-DEFAULT-3] INFO  DataIntegrityVerifier  - Ok. clientId=Subscriber_001, topic=topicA, qos=AT_MOST_ONCE
53307 [hawtdispatch-DEFAULT-3] INFO  DataIntegrityVerifier  - Ok. clientId=Subscriber_001, topic=topicA, qos=AT_MOST_ONCE
53415 [hawtdispatch-DEFAULT-3] INFO  DataIntegrityVerifier  - Ok. clientId=Subscriber_001, topic=topicA, qos=AT_MOST_ONCE
53526 [hawtdispatch-DEFAULT-3] INFO  DataIntegrityVerifier  - Ok. clientId=Subscriber_001, topic=topicA, qos=AT_MOST_ONCE
53606 [hawtdispatch-DEFAULT-3] INFO  DataIntegrityVerifier  - Ok. clientId=Subscriber_001, topic=topicA, qos=AT_MOST_ONCE
53709 [hawtdispatch-DEFAULT-3] INFO  DataIntegrityVerifier  - Ok. clientId=Subscriber_001, topic=topicA, qos=AT_MOST_ONCE
53807 [hawtdispatch-DEFAULT-3] INFO  DataIntegrityVerifier  - Ok. clientId=Subscriber_001, topic=topicA, qos=AT_MOST_ONCE
53916 [hawtdispatch-DEFAULT-3] INFO  DataIntegrityVerifier  - Ok. clientId=Subscriber_001, topic=topicA, qos=AT_MOST_ONCE
54006 [hawtdispatch-DEFAULT-3] INFO  DataIntegrityVerifier  - Ok. clientId=Subscriber_001, topic=topicA, qos=AT_MOST_ONCE
54110 [hawtdispatch-DEFAULT-3] INFO  DataIntegrityVerifier  - Ok. clientId=Subscriber_001, topic=topicA, qos=AT_MOST_ONCE
54204 [hawtdispatch-DEFAULT-3] INFO  DataIntegrityVerifier  - Ok. clientId=Subscriber_001, topic=topicA, qos=AT_MOST_ONCE
54301 [hawtdispatch-DEFAULT-3] INFO  DataIntegrityVerifier  - Ok. clientId=Subscriber_001, topic=topicA, qos=AT_MOST_ONCE
54411 [hawtdispatch-DEFAULT-3] INFO  DataIntegrityVerifier  - Ok. clientId=Subscriber_001, topic=topicA, qos=AT_MOST_ONCE
54509 [hawtdispatch-DEFAULT-3] INFO  DataIntegrityVerifier  - Ok. clientId=Subscriber_001, topic=topicA, qos=AT_MOST_ONCE
54606 [hawtdispatch-DEFAULT-3] INFO  DataIntegrityVerifier  - Ok. clientId=Subscriber_001, topic=topicA, qos=AT_MOST_ONCE
54710 [hawtdispatch-DEFAULT-3] INFO  DataIntegrityVerifier  - Ok. clientId=Subscriber_001, topic=topicA, qos=AT_MOST_ONCE
54800 [hawtdispatch-DEFAULT-3] INFO  DataIntegrityVerifier  - Ok. clientId=Subscriber_001, topic=topicA, qos=AT_MOST_ONCE
54905 [hawtdispatch-DEFAULT-3] INFO  DataIntegrityVerifier  - Ok. clientId=Subscriber_001, topic=topicA, qos=AT_MOST_ONCE
55001 [hawtdispatch-DEFAULT-3] INFO  DataIntegrityVerifier  - Ok. clientId=Subscriber_001, topic=topicA, qos=AT_MOST_ONCE
55101 [hawtdispatch-DEFAULT-3] INFO  DataIntegrityVerifier  - Ok. clientId=Subscriber_001, topic=topicA, qos=AT_MOST_ONCE
55208 [hawtdispatch-DEFAULT-3] INFO  DataIntegrityVerifier  - Ok. clientId=Subscriber_001, topic=topicA, qos=AT_MOST_ONCE
55307 [hawtdispatch-DEFAULT-3] INFO  DataIntegrityVerifier  - Ok. clientId=Subscriber_001, topic=topicA, qos=AT_MOST_ONCE
55409 [hawtdispatch-DEFAULT-3] INFO  DataIntegrityVerifier  - Ok. clientId=Subscriber_001, topic=topicA, qos=AT_MOST_ONCE
55502 [hawtdispatch-DEFAULT-3] INFO  DataIntegrityVerifier  - Ok. clientId=Subscriber_001, topic=topicA, qos=AT_MOST_ONCE
55602 [hawtdispatch-DEFAULT-3] INFO  DataIntegrityVerifier  - Ok. clientId=Subscriber_001, topic=topicA, qos=AT_MOST_ONCE
55703 [hawtdispatch-DEFAULT-3] INFO  DataIntegrityVerifier  - Ok. clientId=Subscriber_001, topic=topicA, qos=AT_MOST_ONCE
55801 [hawtdispatch-DEFAULT-3] INFO  DataIntegrityVerifier  - Ok. clientId=Subscriber_001, topic=topicA, qos=AT_MOST_ONCE
55906 [hawtdispatch-DEFAULT-3] INFO  DataIntegrityVerifier  - Ok. clientId=Subscriber_001, topic=topicA, qos=AT_MOST_ONCE
56005 [hawtdispatch-DEFAULT-3] INFO  DataIntegrityVerifier  - Ok. clientId=Subscriber_001, topic=topicA, qos=AT_MOST_ONCE
56105 [hawtdispatch-DEFAULT-3] INFO  DataIntegrityVerifier  - Ok. clientId=Subscriber_001, topic=topicA, qos=AT_MOST_ONCE
56200 [hawtdispatch-DEFAULT-3] INFO  DataIntegrityVerifier  - Ok. clientId=Subscriber_001, topic=topicA, qos=AT_MOST_ONCE
56306 [hawtdispatch-DEFAULT-3] INFO  DataIntegrityVerifier  - Ok. clientId=Subscriber_001, topic=topicA, qos=AT_MOST_ONCE
56401 [hawtdispatch-DEFAULT-3] INFO  DataIntegrityVerifier  - Ok. clientId=Subscriber_001, topic=topicA, qos=AT_MOST_ONCE
56503 [hawtdispatch-DEFAULT-3] INFO  DataIntegrityVerifier  - Ok. clientId=Subscriber_001, topic=topicA, qos=AT_MOST_ONCE
56606 [hawtdispatch-DEFAULT-3] INFO  DataIntegrityVerifier  - Ok. clientId=Subscriber_001, topic=topicA, qos=AT_MOST_ONCE
56706 [hawtdispatch-DEFAULT-3] INFO  DataIntegrityVerifier  - Ok. clientId=Subscriber_001, topic=topicA, qos=AT_MOST_ONCE
56816 [hawtdispatch-DEFAULT-3] INFO  DataIntegrityVerifier  - Ok. clientId=Subscriber_001, topic=topicA, qos=AT_MOST_ONCE
56918 [hawtdispatch-DEFAULT-3] INFO  DataIntegrityVerifier  - Ok. clientId=Subscriber_001, topic=topicA, qos=AT_MOST_ONCE
57003 [hawtdispatch-DEFAULT-3] INFO  DataIntegrityVerifier  - Ok. clientId=Subscriber_001, topic=topicA, qos=AT_MOST_ONCE
57110 [hawtdispatch-DEFAULT-3] INFO  DataIntegrityVerifier  - Ok. clientId=Subscriber_001, topic=topicA, qos=AT_MOST_ONCE
57212 [hawtdispatch-DEFAULT-3] INFO  DataIntegrityVerifier  - Ok. clientId=Subscriber_001, topic=topicA, qos=AT_MOST_ONCE
57317 [hawtdispatch-DEFAULT-3] INFO  DataIntegrityVerifier  - Ok. clientId=Subscriber_001, topic=topicA, qos=AT_MOST_ONCE
57405 [hawtdispatch-DEFAULT-3] INFO  DataIntegrityVerifier  - Ok. clientId=Subscriber_001, topic=topicA, qos=AT_MOST_ONCE
57507 [hawtdispatch-DEFAULT-3] INFO  DataIntegrityVerifier  - Ok. clientId=Subscriber_001, topic=topicA, qos=AT_MOST_ONCE
57608 [hawtdispatch-DEFAULT-3] INFO  DataIntegrityVerifier  - Ok. clientId=Subscriber_001, topic=topicA, qos=AT_MOST_ONCE
57705 [hawtdispatch-DEFAULT-3] INFO  DataIntegrityVerifier  - Ok. clientId=Subscriber_001, topic=topicA, qos=AT_MOST_ONCE
57801 [hawtdispatch-DEFAULT-3] INFO  DataIntegrityVerifier  - Ok. clientId=Subscriber_001, topic=topicA, qos=AT_MOST_ONCE
57904 [hawtdispatch-DEFAULT-3] INFO  DataIntegrityVerifier  - Ok. clientId=Subscriber_001, topic=topicA, qos=AT_MOST_ONCE
58004 [hawtdispatch-DEFAULT-3] INFO  DataIntegrityVerifier  - Ok. clientId=Subscriber_001, topic=topicA, qos=AT_MOST_ONCE
58100 [hawtdispatch-DEFAULT-3] INFO  DataIntegrityVerifier  - Ok. clientId=Subscriber_001, topic=topicA, qos=AT_MOST_ONCE
58209 [hawtdispatch-DEFAULT-3] INFO  DataIntegrityVerifier  - Ok. clientId=Subscriber_001, topic=topicA, qos=AT_MOST_ONCE
58307 [hawtdispatch-DEFAULT-3] INFO  DataIntegrityVerifier  - Ok. clientId=Subscriber_001, topic=topicA, qos=AT_MOST_ONCE
58404 [hawtdispatch-DEFAULT-3] INFO  DataIntegrityVerifier  - Ok. clientId=Subscriber_001, topic=topicA, qos=AT_MOST_ONCE
58507 [hawtdispatch-DEFAULT-3] INFO  DataIntegrityVerifier  - Ok. clientId=Subscriber_001, topic=topicA, qos=AT_MOST_ONCE
58602 [hawtdispatch-DEFAULT-3] INFO  DataIntegrityVerifier  - Ok. clientId=Subscriber_001, topic=topicA, qos=AT_MOST_ONCE
58706 [hawtdispatch-DEFAULT-3] INFO  DataIntegrityVerifier  - Ok. clientId=Subscriber_001, topic=topicA, qos=AT_MOST_ONCE
58800 [hawtdispatch-DEFAULT-3] INFO  DataIntegrityVerifier  - Ok. clientId=Subscriber_001, topic=topicA, qos=AT_MOST_ONCE
58906 [hawtdispatch-DEFAULT-3] INFO  DataIntegrityVerifier  - Ok. clientId=Subscriber_001, topic=topicA, qos=AT_MOST_ONCE
59008 [hawtdispatch-DEFAULT-3] INFO  DataIntegrityVerifier  - Ok. clientId=Subscriber_001, topic=topicA, qos=AT_MOST_ONCE
59110 [hawtdispatch-DEFAULT-3] INFO  DataIntegrityVerifier  - Ok. clientId=Subscriber_001, topic=topicA, qos=AT_MOST_ONCE
59208 [hawtdispatch-DEFAULT-3] INFO  DataIntegrityVerifier  - Ok. clientId=Subscriber_001, topic=topicA, qos=AT_MOST_ONCE
59309 [hawtdispatch-DEFAULT-3] INFO  DataIntegrityVerifier  - Ok. clientId=Subscriber_001, topic=topicA, qos=AT_MOST_ONCE
59402 [hawtdispatch-DEFAULT-3] INFO  DataIntegrityVerifier  - Ok. clientId=Subscriber_001, topic=topicA, qos=AT_MOST_ONCE
59505 [hawtdispatch-DEFAULT-3] INFO  DataIntegrityVerifier  - Ok. clientId=Subscriber_001, topic=topicA, qos=AT_MOST_ONCE
59600 [hawtdispatch-DEFAULT-3] INFO  DataIntegrityVerifier  - Ok. clientId=Subscriber_001, topic=topicA, qos=AT_MOST_ONCE
59707 [hawtdispatch-DEFAULT-3] INFO  DataIntegrityVerifier  - Ok. clientId=Subscriber_001, topic=topicA, qos=AT_MOST_ONCE
59799 [hawtdispatch-DEFAULT-3] INFO  DataIntegrityVerifier  - Ok. clientId=Subscriber_001, topic=topicA, qos=AT_MOST_ONCE
59910 [hawtdispatch-DEFAULT-3] INFO  DataIntegrityVerifier  - Ok. clientId=Subscriber_001, topic=topicA, qos=AT_MOST_ONCE
60011 [hawtdispatch-DEFAULT-3] INFO  DataIntegrityVerifier  - Ok. clientId=Subscriber_001, topic=topicA, qos=AT_MOST_ONCE
60103 [hawtdispatch-DEFAULT-3] INFO  DataIntegrityVerifier  - Ok. clientId=Subscriber_001, topic=topicA, qos=AT_MOST_ONCE
60210 [hawtdispatch-DEFAULT-3] INFO  DataIntegrityVerifier  - Ok. clientId=Subscriber_001, topic=topicA, qos=AT_MOST_ONCE
60317 [hawtdispatch-DEFAULT-3] INFO  DataIntegrityVerifier  - Ok. clientId=Subscriber_001, topic=topicA, qos=AT_MOST_ONCE
60406 [hawtdispatch-DEFAULT-3] INFO  DataIntegrityVerifier  - Ok. clientId=Subscriber_001, topic=topicA, qos=AT_MOST_ONCE
60501 [hawtdispatch-DEFAULT-3] INFO  DataIntegrityVerifier  - Ok. clientId=Subscriber_001, topic=topicA, qos=AT_MOST_ONCE
60602 [hawtdispatch-DEFAULT-3] INFO  DataIntegrityVerifier  - Ok. clientId=Subscriber_001, topic=topicA, qos=AT_MOST_ONCE
60707 [hawtdispatch-DEFAULT-3] INFO  DataIntegrityVerifier  - Ok. clientId=Subscriber_001, topic=topicA, qos=AT_MOST_ONCE
60818 [hawtdispatch-DEFAULT-3] INFO  DataIntegrityVerifier  - Ok. clientId=Subscriber_001, topic=topicA, qos=AT_MOST_ONCE
60899 [hawtdispatch-DEFAULT-3] INFO  DataIntegrityVerifier  - Ok. clientId=Subscriber_001, topic=topicA, qos=AT_MOST_ONCE
61008 [hawtdispatch-DEFAULT-3] INFO  DataIntegrityVerifier  - Ok. clientId=Subscriber_001, topic=topicA, qos=AT_MOST_ONCE
61103 [hawtdispatch-DEFAULT-3] INFO  DataIntegrityVerifier  - Ok. clientId=Subscriber_001, topic=topicA, qos=AT_MOST_ONCE
61213 [hawtdispatch-DEFAULT-3] INFO  DataIntegrityVerifier  - Ok. clientId=Subscriber_001, topic=topicA, qos=AT_MOST_ONCE
61334 [hawtdispatch-DEFAULT-3] INFO  DataIntegrityVerifier  - Ok. clientId=Subscriber_001, topic=topicA, qos=AT_MOST_ONCE
61404 [hawtdispatch-DEFAULT-3] INFO  DataIntegrityVerifier  - Ok. clientId=Subscriber_001, topic=topicA, qos=AT_MOST_ONCE
61500 [hawtdispatch-DEFAULT-3] INFO  DataIntegrityVerifier  - Ok. clientId=Subscriber_001, topic=topicA, qos=AT_MOST_ONCE
