32744 [cli] INFO  ChannelMigrationPacketClient  - Send migration packet. packet=MigPacket{migrationId='277fc6c4-cc9d-45a4-a7f3-2956976a1971'clientId='Subscriber_001'clientHost='172.172.3.1'clientPort='1702', subscriptions=[MigrationSubscription{requestedQos=EXACTLY_ONCE, topicName=topicC, lastProcessedGlobalMessageId=topicC-229}, MigrationSubscription{requestedQos=AT_MOST_ONCE, topicName=topicD, lastProcessedGlobalMessageId=topicD-249}, MigrationSubscription{requestedQos=AT_MOST_ONCE, topicName=topicA, lastProcessedGlobalMessageId=topicA-229}, MigrationSubscription{requestedQos=AT_LEAST_ONCE, topicName=topicB, lastProcessedGlobalMessageId=topicB-229}, MigrationSubscription{requestedQos=AT_LEAST_ONCE, topicName=topicE, lastProcessedGlobalMessageId=topicE-249}, MigrationSubscription{requestedQos=EXACTLY_ONCE, topicName=topicF, lastProcessedGlobalMessageId=topicF-249}]}
33306 [nioEventLoopGroup-6-1] INFO  MigrationPacketSocketChannelChannelInitializer  - Migration packet received. packet=MigSyncPacket{migrationId='277fc6c4-cc9d-45a4-a7f3-2956976a1971', subscriptions=[Subscription{topicName='topicC', lastProcessedGlobalMessageId=topicC-255}, Subscription{topicName='topicB', lastProcessedGlobalMessageId=topicB-255}]}
35196 [nioEventLoopGroup-5-1] INFO  ChannelMigrationPacketClient  - Send migration packet. packet=MigSyncAckPacket{migrationId='277fc6c4-cc9d-45a4-a7f3-2956976a1971'}
35270 [nioEventLoopGroup-6-1] INFO  MigrationPacketSocketChannelChannelInitializer  - Migration packet received. packet=MigAckPacket{migrationId='277fc6c4-cc9d-45a4-a7f3-2956976a1971', statusCode=0}
