timestamp,event,migrationId
1551645225781,INITIALIZED,d1c4fb55-fb94-4ffd-a629-0b1d09033749
1551645225784,topicA-INITIALIZED,d1c4fb55-fb94-4ffd-a629-0b1d09033749
1551645226002,topicA-SYNCING,d1c4fb55-fb94-4ffd-a629-0b1d09033749
1551645226003,SYNCING,d1c4fb55-fb94-4ffd-a629-0b1d09033749
1551645226010,topicA-SYNCING_THIS,d1c4fb55-fb94-4ffd-a629-0b1d09033749
1551645226169,topicA-SYNCED,d1c4fb55-fb94-4ffd-a629-0b1d09033749
1551645226170,SYNCED,d1c4fb55-fb94-4ffd-a629-0b1d09033749
1551645226190,topicA-FINISHED,d1c4fb55-fb94-4ffd-a629-0b1d09033749
1551645226204,FINISHED,d1c4fb55-fb94-4ffd-a629-0b1d09033749
