[1] "Duration B1: 2113"
[1] "Duration B2: 1814"
[1] "Duration MIGRATE: 280"
[1] "Duration MIGACK: 19"
[1] "addrow"
[1] "INITIALIZED"
  timestamp       event                          migrationId
1         0 INITIALIZED bff3d5fa-fdcd-42ea-8358-20c50ad8c0f9
[1] "addrow"
[1] "SYNCING"
[1] "addrow"
[1] "SYNCED"
[1] "addrow"
[1] "FINISHED"
  timestamp    event                          migrationId
5      2113 FINISHED bff3d5fa-fdcd-42ea-8358-20c50ad8c0f9
[1] "addrow"
[1] "topicA-INITIALIZED"
  timestamp              event                          migrationId
2         3 topicA-INITIALIZED bff3d5fa-fdcd-42ea-8358-20c50ad8c0f9
[1] "addrow"
[1] "topicA-SYNCING"
[1] "addrow"
[1] "topicA-SYNCED"
  timestamp         event                          migrationId
3         6 topicA-SYNCED bff3d5fa-fdcd-42ea-8358-20c50ad8c0f9
[1] "addrow"
[1] "topicA-FINISHED"
  timestamp           event                          migrationId
4      2113 topicA-FINISHED bff3d5fa-fdcd-42ea-8358-20c50ad8c0f9
