clientId,topic,guid,broker,timestamp,type
Publisher_002,topicA,topicA-1,172.172.1.2:1883,1551644098735,PRODUCED
Publisher_002,topicA,topicA-2,172.172.1.2:1883,1551644098977,PRODUCED
Publisher_002,topicA,topicA-3,172.172.1.2:1883,1551644098982,PRODUCED
Publisher_002,topicA,topicA-4,172.172.1.2:1883,1551644098987,PRODUCED
Publisher_002,topicA,topicA-5,172.172.1.2:1883,1551644098991,PRODUCED
Publisher_002,topicA,topicA-6,172.172.1.2:1883,1551644099057,PRODUCED
Publisher_002,topicA,topicA-7,172.172.1.2:1883,1551644099156,PRODUCED
Publisher_002,topicA,topicA-8,172.172.1.2:1883,1551644099256,PRODUCED
Publisher_002,topicA,topicA-9,172.172.1.2:1883,1551644099359,PRODUCED
Publisher_002,topicA,topicA-10,172.172.1.2:1883,1551644099456,PRODUCED
Publisher_002,topicA,topicA-11,172.172.1.2:1883,1551644099556,PRODUCED
Publisher_002,topicA,topicA-12,172.172.1.2:1883,1551644099662,PRODUCED
Publisher_002,topicA,topicA-13,172.172.1.2:1883,1551644099756,PRODUCED
Publisher_002,topicA,topicA-14,172.172.1.2:1883,1551644099857,PRODUCED
Publisher_002,topicA,topicA-15,172.172.1.2:1883,1551644099957,PRODUCED
Publisher_002,topicA,topicA-16,172.172.1.2:1883,1551644100056,PRODUCED
Publisher_002,topicA,topicA-17,172.172.1.2:1883,1551644100157,PRODUCED
Publisher_002,topicA,topicA-18,172.172.1.2:1883,1551644100257,PRODUCED
Publisher_002,topicA,topicA-19,172.172.1.2:1883,1551644100360,PRODUCED
Publisher_002,topicA,topicA-20,172.172.1.2:1883,1551644100460,PRODUCED
Publisher_002,topicA,topicA-21,172.172.1.2:1883,1551644100557,PRODUCED
Publisher_002,topicA,topicA-22,172.172.1.2:1883,1551644100656,PRODUCED
Publisher_002,topicA,topicA-23,172.172.1.2:1883,1551644100757,PRODUCED
Publisher_002,topicA,topicA-24,172.172.1.2:1883,1551644100857,PRODUCED
Publisher_002,topicA,topicA-25,172.172.1.2:1883,1551644100958,PRODUCED
Publisher_002,topicA,topicA-26,172.172.1.2:1883,1551644101059,PRODUCED
Publisher_002,topicA,topicA-27,172.172.1.2:1883,1551644101156,PRODUCED
Publisher_002,topicA,topicA-28,172.172.1.2:1883,1551644101257,PRODUCED
Publisher_002,topicA,topicA-29,172.172.1.2:1883,1551644101356,PRODUCED
Publisher_002,topicA,topicA-30,172.172.1.2:1883,1551644101456,PRODUCED
Publisher_002,topicA,topicA-31,172.172.1.2:1883,1551644101557,PRODUCED
Publisher_002,topicA,topicA-32,172.172.1.2:1883,1551644101657,PRODUCED
Publisher_002,topicA,topicA-33,172.172.1.2:1883,1551644101757,PRODUCED
Publisher_002,topicA,topicA-34,172.172.1.2:1883,1551644101857,PRODUCED
Publisher_002,topicA,topicA-35,172.172.1.2:1883,1551644101956,PRODUCED
Publisher_002,topicA,topicA-36,172.172.1.2:1883,1551644102057,PRODUCED
Publisher_002,topicA,topicA-37,172.172.1.2:1883,1551644102157,PRODUCED
Publisher_002,topicA,topicA-38,172.172.1.2:1883,1551644102256,PRODUCED
Publisher_002,topicA,topicA-39,172.172.1.2:1883,1551644102356,PRODUCED
Publisher_002,topicA,topicA-40,172.172.1.2:1883,1551644102457,PRODUCED
Publisher_002,topicA,topicA-41,172.172.1.2:1883,1551644102556,PRODUCED
Publisher_002,topicA,topicA-42,172.172.1.2:1883,1551644102657,PRODUCED
Publisher_002,topicA,topicA-43,172.172.1.2:1883,1551644102756,PRODUCED
Publisher_002,topicA,topicA-44,172.172.1.2:1883,1551644102857,PRODUCED
Publisher_002,topicA,topicA-45,172.172.1.2:1883,1551644102957,PRODUCED
Publisher_002,topicA,topicA-46,172.172.1.2:1883,1551644103057,PRODUCED
Publisher_002,topicA,topicA-47,172.172.1.2:1883,1551644103157,PRODUCED
Publisher_002,topicA,topicA-48,172.172.1.2:1883,1551644103256,PRODUCED
Publisher_002,topicA,topicA-49,172.172.1.2:1883,1551644103357,PRODUCED
Publisher_002,topicA,topicA-50,172.172.1.2:1883,1551644103456,PRODUCED
Publisher_002,topicA,topicA-51,172.172.1.2:1883,1551644103557,PRODUCED
Publisher_002,topicA,topicA-52,172.172.1.2:1883,1551644103660,PRODUCED
Publisher_002,topicA,topicA-53,172.172.1.2:1883,1551644103758,PRODUCED
Publisher_002,topicA,topicA-54,172.172.1.2:1883,1551644103857,PRODUCED
Publisher_002,topicA,topicA-55,172.172.1.2:1883,1551644103956,PRODUCED
Publisher_002,topicA,topicA-56,172.172.1.2:1883,1551644104057,PRODUCED
Publisher_002,topicA,topicA-57,172.172.1.2:1883,1551644104157,PRODUCED
Publisher_002,topicA,topicA-58,172.172.1.2:1883,1551644104257,PRODUCED
Publisher_002,topicA,topicA-59,172.172.1.2:1883,1551644104359,PRODUCED
Publisher_002,topicA,topicA-60,172.172.1.2:1883,1551644104457,PRODUCED
Publisher_002,topicA,topicA-61,172.172.1.2:1883,1551644104557,PRODUCED
Publisher_002,topicA,topicA-62,172.172.1.2:1883,1551644104656,PRODUCED
Publisher_002,topicA,topicA-63,172.172.1.2:1883,1551644104756,PRODUCED
Publisher_002,topicA,topicA-64,172.172.1.2:1883,1551644104856,PRODUCED
Publisher_002,topicA,topicA-65,172.172.1.2:1883,1551644104960,PRODUCED
Publisher_002,topicA,topicA-66,172.172.1.2:1883,1551644105057,PRODUCED
Publisher_002,topicA,topicA-67,172.172.1.2:1883,1551644105157,PRODUCED
Publisher_002,topicA,topicA-68,172.172.1.2:1883,1551644105257,PRODUCED
Publisher_002,topicA,topicA-69,172.172.1.2:1883,1551644105357,PRODUCED
Publisher_002,topicA,topicA-70,172.172.1.2:1883,1551644105457,PRODUCED
Publisher_002,topicA,topicA-71,172.172.1.2:1883,1551644105557,PRODUCED
Publisher_002,topicA,topicA-72,172.172.1.2:1883,1551644105657,PRODUCED
Publisher_002,topicA,topicA-73,172.172.1.2:1883,1551644105758,PRODUCED
Publisher_002,topicA,topicA-74,172.172.1.2:1883,1551644105859,PRODUCED
Publisher_002,topicA,topicA-75,172.172.1.2:1883,1551644105957,PRODUCED
Publisher_002,topicA,topicA-76,172.172.1.2:1883,1551644106057,PRODUCED
Publisher_002,topicA,topicA-77,172.172.1.2:1883,1551644106161,PRODUCED
Publisher_002,topicA,topicA-78,172.172.1.2:1883,1551644106256,PRODUCED
Publisher_002,topicA,topicA-79,172.172.1.2:1883,1551644106356,PRODUCED
Publisher_002,topicA,topicA-80,172.172.1.2:1883,1551644106457,PRODUCED
Publisher_002,topicA,topicA-81,172.172.1.2:1883,1551644106557,PRODUCED
Publisher_002,topicA,topicA-82,172.172.1.2:1883,1551644106657,PRODUCED
Publisher_002,topicA,topicA-83,172.172.1.2:1883,1551644106757,PRODUCED
Publisher_002,topicA,topicA-84,172.172.1.2:1883,1551644106856,PRODUCED
Publisher_002,topicA,topicA-85,172.172.1.2:1883,1551644106959,PRODUCED
Publisher_002,topicA,topicA-86,172.172.1.2:1883,1551644107058,PRODUCED
Publisher_002,topicA,topicA-87,172.172.1.2:1883,1551644107156,PRODUCED
Publisher_002,topicA,topicA-88,172.172.1.2:1883,1551644107256,PRODUCED
Publisher_002,topicA,topicA-89,172.172.1.2:1883,1551644107357,PRODUCED
Publisher_002,topicA,topicA-90,172.172.1.2:1883,1551644107456,PRODUCED
Publisher_002,topicA,topicA-91,172.172.1.2:1883,1551644107556,PRODUCED
Publisher_002,topicA,topicA-92,172.172.1.2:1883,1551644107664,PRODUCED
Publisher_002,topicA,topicA-93,172.172.1.2:1883,1551644107758,PRODUCED
Publisher_002,topicA,topicA-94,172.172.1.2:1883,1551644107856,PRODUCED
Publisher_002,topicA,topicA-95,172.172.1.2:1883,1551644107957,PRODUCED
Publisher_002,topicA,topicA-96,172.172.1.2:1883,1551644108062,PRODUCED
Publisher_002,topicA,topicA-97,172.172.1.2:1883,1551644108158,PRODUCED
Publisher_002,topicA,topicA-98,172.172.1.2:1883,1551644108256,PRODUCED
Publisher_002,topicA,topicA-99,172.172.1.2:1883,1551644108361,PRODUCED
Publisher_002,topicA,topicA-100,172.172.1.2:1883,1551644108457,PRODUCED
Publisher_002,topicA,topicA-101,172.172.1.2:1883,1551644108556,PRODUCED
Publisher_002,topicA,topicA-102,172.172.1.2:1883,1551644108657,PRODUCED
Publisher_002,topicA,topicA-103,172.172.1.2:1883,1551644108756,PRODUCED
Publisher_002,topicA,topicA-104,172.172.1.2:1883,1551644108857,PRODUCED
Publisher_002,topicA,topicA-105,172.172.1.2:1883,1551644108956,PRODUCED
Publisher_002,topicA,topicA-106,172.172.1.2:1883,1551644109057,PRODUCED
Publisher_002,topicA,topicA-107,172.172.1.2:1883,1551644109159,PRODUCED
Publisher_002,topicA,topicA-108,172.172.1.2:1883,1551644109257,PRODUCED
Publisher_002,topicA,topicA-109,172.172.1.2:1883,1551644109365,PRODUCED
Publisher_002,topicA,topicA-110,172.172.1.2:1883,1551644109456,PRODUCED
Publisher_002,topicA,topicA-111,172.172.1.2:1883,1551644109558,PRODUCED
Publisher_002,topicA,topicA-112,172.172.1.2:1883,1551644109663,PRODUCED
Publisher_002,topicA,topicA-113,172.172.1.2:1883,1551644109757,PRODUCED
Publisher_002,topicA,topicA-114,172.172.1.2:1883,1551644109857,PRODUCED
Publisher_002,topicA,topicA-115,172.172.1.2:1883,1551644109957,PRODUCED
Publisher_002,topicA,topicA-116,172.172.1.2:1883,1551644110058,PRODUCED
Publisher_002,topicA,topicA-117,172.172.1.2:1883,1551644110158,PRODUCED
Publisher_002,topicA,topicA-118,172.172.1.2:1883,1551644110259,PRODUCED
Publisher_002,topicA,topicA-119,172.172.1.2:1883,1551644110360,PRODUCED
Publisher_002,topicA,topicA-120,172.172.1.2:1883,1551644110456,PRODUCED
Publisher_002,topicA,topicA-121,172.172.1.2:1883,1551644110557,PRODUCED
Publisher_002,topicA,topicA-122,172.172.1.2:1883,1551644110657,PRODUCED
Publisher_002,topicA,topicA-123,172.172.1.2:1883,1551644110757,PRODUCED
Publisher_002,topicA,topicA-124,172.172.1.2:1883,1551644110860,PRODUCED
Publisher_002,topicA,topicA-125,172.172.1.2:1883,1551644110956,PRODUCED
Publisher_002,topicA,topicA-126,172.172.1.2:1883,1551644111057,PRODUCED
Publisher_002,topicA,topicA-127,172.172.1.2:1883,1551644111156,PRODUCED
Publisher_002,topicA,topicA-128,172.172.1.2:1883,1551644111261,PRODUCED
Publisher_002,topicA,topicA-129,172.172.1.2:1883,1551644111358,PRODUCED
Publisher_002,topicA,topicA-130,172.172.1.2:1883,1551644111456,PRODUCED
Publisher_002,topicA,topicA-131,172.172.1.2:1883,1551644111556,PRODUCED
Publisher_002,topicA,topicA-132,172.172.1.2:1883,1551644111656,PRODUCED
Publisher_002,topicA,topicA-133,172.172.1.2:1883,1551644111756,PRODUCED
Publisher_002,topicA,topicA-134,172.172.1.2:1883,1551644111857,PRODUCED
Publisher_002,topicA,topicA-135,172.172.1.2:1883,1551644111957,PRODUCED
Publisher_002,topicA,topicA-136,172.172.1.2:1883,1551644112057,PRODUCED
Publisher_002,topicA,topicA-137,172.172.1.2:1883,1551644112158,PRODUCED
Publisher_002,topicA,topicA-138,172.172.1.2:1883,1551644112261,PRODUCED
Publisher_002,topicA,topicA-139,172.172.1.2:1883,1551644112359,PRODUCED
Publisher_002,topicA,topicA-140,172.172.1.2:1883,1551644112457,PRODUCED
Publisher_002,topicA,topicA-141,172.172.1.2:1883,1551644112558,PRODUCED
Publisher_002,topicA,topicA-142,172.172.1.2:1883,1551644112657,PRODUCED
Publisher_002,topicA,topicA-143,172.172.1.2:1883,1551644112758,PRODUCED
Publisher_002,topicA,topicA-144,172.172.1.2:1883,1551644112857,PRODUCED
Publisher_002,topicA,topicA-145,172.172.1.2:1883,1551644112958,PRODUCED
Publisher_002,topicA,topicA-146,172.172.1.2:1883,1551644113056,PRODUCED
Publisher_002,topicA,topicA-147,172.172.1.2:1883,1551644113158,PRODUCED
Publisher_002,topicA,topicA-148,172.172.1.2:1883,1551644113256,PRODUCED
Publisher_002,topicA,topicA-149,172.172.1.2:1883,1551644113359,PRODUCED
Publisher_002,topicA,topicA-150,172.172.1.2:1883,1551644113456,PRODUCED
Publisher_002,topicA,topicA-151,172.172.1.2:1883,1551644113557,PRODUCED
Publisher_002,topicA,topicA-152,172.172.1.2:1883,1551644113660,PRODUCED
Publisher_002,topicA,topicA-153,172.172.1.2:1883,1551644113762,PRODUCED
Publisher_002,topicA,topicA-154,172.172.1.2:1883,1551644113858,PRODUCED
Publisher_002,topicA,topicA-155,172.172.1.2:1883,1551644113959,PRODUCED
Publisher_002,topicA,topicA-156,172.172.1.2:1883,1551644114058,PRODUCED
Publisher_002,topicA,topicA-157,172.172.1.2:1883,1551644114157,PRODUCED
Publisher_002,topicA,topicA-158,172.172.1.2:1883,1551644114257,PRODUCED
Publisher_002,topicA,topicA-159,172.172.1.2:1883,1551644114360,PRODUCED
Publisher_002,topicA,topicA-160,172.172.1.2:1883,1551644114462,PRODUCED
Publisher_002,topicA,topicA-161,172.172.1.2:1883,1551644114557,PRODUCED
Publisher_002,topicA,topicA-162,172.172.1.2:1883,1551644114657,PRODUCED
Publisher_002,topicA,topicA-163,172.172.1.2:1883,1551644114758,PRODUCED
Publisher_002,topicA,topicA-164,172.172.1.2:1883,1551644114856,PRODUCED
Publisher_002,topicA,topicA-165,172.172.1.2:1883,1551644114957,PRODUCED
Publisher_002,topicA,topicA-166,172.172.1.2:1883,1551644115057,PRODUCED
Publisher_002,topicA,topicA-167,172.172.1.2:1883,1551644115156,PRODUCED
Publisher_002,topicA,topicA-168,172.172.1.2:1883,1551644115257,PRODUCED
Publisher_002,topicA,topicA-169,172.172.1.2:1883,1551644115356,PRODUCED
Publisher_002,topicA,topicA-170,172.172.1.2:1883,1551644115457,PRODUCED
Publisher_002,topicA,topicA-171,172.172.1.2:1883,1551644115557,PRODUCED
Publisher_002,topicA,topicA-172,172.172.1.2:1883,1551644115658,PRODUCED
Publisher_002,topicA,topicA-173,172.172.1.2:1883,1551644115756,PRODUCED
Publisher_002,topicA,topicA-174,172.172.1.2:1883,1551644115857,PRODUCED
Publisher_002,topicA,topicA-175,172.172.1.2:1883,1551644115961,PRODUCED
Publisher_002,topicA,topicA-176,172.172.1.2:1883,1551644116057,PRODUCED
Publisher_002,topicA,topicA-177,172.172.1.2:1883,1551644116157,PRODUCED
Publisher_002,topicA,topicA-178,172.172.1.2:1883,1551644116257,PRODUCED
Publisher_002,topicA,topicA-179,172.172.1.2:1883,1551644116356,PRODUCED
Publisher_002,topicA,topicA-180,172.172.1.2:1883,1551644116458,PRODUCED
Publisher_002,topicA,topicA-181,172.172.1.2:1883,1551644116557,PRODUCED
Publisher_002,topicA,topicA-182,172.172.1.2:1883,1551644116660,PRODUCED
Publisher_002,topicA,topicA-183,172.172.1.2:1883,1551644116758,PRODUCED
Publisher_002,topicA,topicA-184,172.172.1.2:1883,1551644116856,PRODUCED
Publisher_002,topicA,topicA-185,172.172.1.2:1883,1551644116957,PRODUCED
Publisher_002,topicA,topicA-186,172.172.1.2:1883,1551644117056,PRODUCED
Publisher_002,topicA,topicA-187,172.172.1.2:1883,1551644117157,PRODUCED
Publisher_002,topicA,topicA-188,172.172.1.2:1883,1551644117257,PRODUCED
Publisher_002,topicA,topicA-189,172.172.1.2:1883,1551644117356,PRODUCED
Publisher_002,topicA,topicA-190,172.172.1.2:1883,1551644117456,PRODUCED
Publisher_002,topicA,topicA-191,172.172.1.2:1883,1551644117557,PRODUCED
Publisher_002,topicA,topicA-192,172.172.1.2:1883,1551644117658,PRODUCED
Publisher_002,topicA,topicA-193,172.172.1.2:1883,1551644117757,PRODUCED
Publisher_002,topicA,topicA-194,172.172.1.2:1883,1551644117857,PRODUCED
Publisher_002,topicA,topicA-195,172.172.1.2:1883,1551644117958,PRODUCED
Publisher_002,topicA,topicA-196,172.172.1.2:1883,1551644118058,PRODUCED
Publisher_002,topicA,topicA-197,172.172.1.2:1883,1551644118157,PRODUCED
Publisher_002,topicA,topicA-198,172.172.1.2:1883,1551644118258,PRODUCED
Publisher_002,topicA,topicA-199,172.172.1.2:1883,1551644118358,PRODUCED
Publisher_002,topicA,topicA-200,172.172.1.2:1883,1551644118462,PRODUCED
Publisher_002,topicA,topicA-201,172.172.1.2:1883,1551644118558,PRODUCED
Publisher_002,topicA,topicA-202,172.172.1.2:1883,1551644118657,PRODUCED
Publisher_002,topicA,topicA-203,172.172.1.2:1883,1551644118757,PRODUCED
Publisher_002,topicA,topicA-204,172.172.1.2:1883,1551644118857,PRODUCED
Publisher_002,topicA,topicA-205,172.172.1.2:1883,1551644118957,PRODUCED
Publisher_002,topicA,topicA-206,172.172.1.2:1883,1551644119057,PRODUCED
Publisher_002,topicA,topicA-207,172.172.1.2:1883,1551644119157,PRODUCED
Publisher_002,topicA,topicA-208,172.172.1.2:1883,1551644119257,PRODUCED
Publisher_002,topicA,topicA-209,172.172.1.2:1883,1551644119357,PRODUCED
Publisher_002,topicA,topicA-210,172.172.1.2:1883,1551644119458,PRODUCED
Publisher_002,topicA,topicA-211,172.172.1.2:1883,1551644119557,PRODUCED
Publisher_002,topicA,topicA-212,172.172.1.2:1883,1551644119657,PRODUCED
Publisher_002,topicA,topicA-213,172.172.1.2:1883,1551644119756,PRODUCED
Publisher_002,topicA,topicA-214,172.172.1.2:1883,1551644119857,PRODUCED
Publisher_002,topicA,topicA-215,172.172.1.2:1883,1551644119957,PRODUCED
Publisher_002,topicA,topicA-216,172.172.1.2:1883,1551644120057,PRODUCED
Publisher_002,topicA,topicA-217,172.172.1.2:1883,1551644120157,PRODUCED
Publisher_002,topicA,topicA-218,172.172.1.2:1883,1551644120256,PRODUCED
Publisher_002,topicA,topicA-219,172.172.1.2:1883,1551644120357,PRODUCED
Publisher_002,topicA,topicA-220,172.172.1.2:1883,1551644120456,PRODUCED
Publisher_002,topicA,topicA-221,172.172.1.2:1883,1551644120557,PRODUCED
Publisher_002,topicA,topicA-222,172.172.1.2:1883,1551644120657,PRODUCED
Publisher_002,topicA,topicA-223,172.172.1.2:1883,1551644120757,PRODUCED
Publisher_002,topicA,topicA-224,172.172.1.2:1883,1551644120858,PRODUCED
Publisher_002,topicA,topicA-225,172.172.1.2:1883,1551644120957,PRODUCED
Publisher_002,topicA,topicA-226,172.172.1.2:1883,1551644121056,PRODUCED
Publisher_002,topicA,topicA-227,172.172.1.2:1883,1551644121157,PRODUCED
Publisher_002,topicA,topicA-228,172.172.1.2:1883,1551644121257,PRODUCED
Publisher_002,topicA,topicA-229,172.172.1.2:1883,1551644121361,PRODUCED
Publisher_002,topicA,topicA-230,172.172.1.2:1883,1551644121457,PRODUCED
Publisher_002,topicA,topicA-231,172.172.1.2:1883,1551644121557,PRODUCED
Publisher_002,topicA,topicA-232,172.172.1.2:1883,1551644121658,PRODUCED
Publisher_002,topicA,topicA-233,172.172.1.2:1883,1551644121757,PRODUCED
Publisher_002,topicA,topicA-234,172.172.1.2:1883,1551644121856,PRODUCED
Publisher_002,topicA,topicA-235,172.172.1.2:1883,1551644121957,PRODUCED
Publisher_002,topicA,topicA-236,172.172.1.2:1883,1551644122056,PRODUCED
Publisher_002,topicA,topicA-237,172.172.1.2:1883,1551644122156,PRODUCED
Publisher_002,topicA,topicA-238,172.172.1.2:1883,1551644122256,PRODUCED
Publisher_002,topicA,topicA-239,172.172.1.2:1883,1551644122358,PRODUCED
Publisher_002,topicA,topicA-240,172.172.1.2:1883,1551644122457,PRODUCED
Publisher_002,topicA,topicA-241,172.172.1.2:1883,1551644122557,PRODUCED
Publisher_002,topicA,topicA-242,172.172.1.2:1883,1551644122658,PRODUCED
Publisher_002,topicA,topicA-243,172.172.1.2:1883,1551644122756,PRODUCED
Publisher_002,topicA,topicA-244,172.172.1.2:1883,1551644122856,PRODUCED
Publisher_002,topicA,topicA-245,172.172.1.2:1883,1551644122960,PRODUCED
Publisher_002,topicA,topicA-246,172.172.1.2:1883,1551644123057,PRODUCED
Publisher_002,topicA,topicA-247,172.172.1.2:1883,1551644123159,PRODUCED
Publisher_002,topicA,topicA-248,172.172.1.2:1883,1551644123258,PRODUCED
Publisher_002,topicA,topicA-249,172.172.1.2:1883,1551644123357,PRODUCED
Publisher_002,topicA,topicA-250,172.172.1.2:1883,1551644123461,PRODUCED
Publisher_002,topicA,topicA-251,172.172.1.2:1883,1551644123557,PRODUCED
Publisher_002,topicA,topicA-252,172.172.1.2:1883,1551644123656,PRODUCED
Publisher_002,topicA,topicA-253,172.172.1.2:1883,1551644123760,PRODUCED
Publisher_002,topicA,topicA-254,172.172.1.2:1883,1551644123857,PRODUCED
Publisher_002,topicA,topicA-255,172.172.1.2:1883,1551644123957,PRODUCED
Publisher_002,topicA,topicA-256,172.172.1.2:1883,1551644124056,PRODUCED
Publisher_002,topicA,topicA-257,172.172.1.2:1883,1551644124159,PRODUCED
Publisher_002,topicA,topicA-258,172.172.1.2:1883,1551644124260,PRODUCED
Publisher_002,topicA,topicA-259,172.172.1.2:1883,1551644124358,PRODUCED
Publisher_002,topicA,topicA-260,172.172.1.2:1883,1551644124458,PRODUCED
Publisher_002,topicA,topicA-261,172.172.1.2:1883,1551644124561,PRODUCED
Publisher_002,topicA,topicA-262,172.172.1.2:1883,1551644124662,PRODUCED
Publisher_002,topicA,topicA-263,172.172.1.2:1883,1551644124757,PRODUCED
Publisher_002,topicA,topicA-264,172.172.1.2:1883,1551644124857,PRODUCED
Publisher_002,topicA,topicA-265,172.172.1.2:1883,1551644124957,PRODUCED
Publisher_002,topicA,topicA-266,172.172.1.2:1883,1551644125057,PRODUCED
Publisher_002,topicA,topicA-267,172.172.1.2:1883,1551644125156,PRODUCED
Publisher_002,topicA,topicA-268,172.172.1.2:1883,1551644125257,PRODUCED
Publisher_002,topicA,topicA-269,172.172.1.2:1883,1551644125358,PRODUCED
Publisher_002,topicA,topicA-270,172.172.1.2:1883,1551644125456,PRODUCED
Publisher_002,topicA,topicA-271,172.172.1.2:1883,1551644125556,PRODUCED
Publisher_002,topicA,topicA-272,172.172.1.2:1883,1551644125657,PRODUCED
Publisher_002,topicA,topicA-273,172.172.1.2:1883,1551644125757,PRODUCED
Publisher_002,topicA,topicA-274,172.172.1.2:1883,1551644125856,PRODUCED
Publisher_002,topicA,topicA-275,172.172.1.2:1883,1551644125957,PRODUCED
Publisher_002,topicA,topicA-276,172.172.1.2:1883,1551644126056,PRODUCED
Publisher_002,topicA,topicA-277,172.172.1.2:1883,1551644126157,PRODUCED
Publisher_002,topicA,topicA-278,172.172.1.2:1883,1551644126256,PRODUCED
Publisher_002,topicA,topicA-279,172.172.1.2:1883,1551644126357,PRODUCED
Publisher_002,topicA,topicA-280,172.172.1.2:1883,1551644126456,PRODUCED
Publisher_002,topicA,topicA-281,172.172.1.2:1883,1551644126557,PRODUCED
Publisher_002,topicA,topicA-282,172.172.1.2:1883,1551644126657,PRODUCED
Publisher_002,topicA,topicA-283,172.172.1.2:1883,1551644126757,PRODUCED
Publisher_002,topicA,topicA-284,172.172.1.2:1883,1551644126862,PRODUCED
Publisher_002,topicA,topicA-285,172.172.1.2:1883,1551644126957,PRODUCED
Publisher_002,topicA,topicA-286,172.172.1.2:1883,1551644127056,PRODUCED
Publisher_002,topicA,topicA-287,172.172.1.2:1883,1551644127158,PRODUCED
Publisher_002,topicA,topicA-288,172.172.1.2:1883,1551644127257,PRODUCED
Publisher_002,topicA,topicA-289,172.172.1.2:1883,1551644127359,PRODUCED
Publisher_002,topicA,topicA-290,172.172.1.2:1883,1551644127456,PRODUCED
Publisher_002,topicA,topicA-291,172.172.1.2:1883,1551644127556,PRODUCED
Publisher_002,topicA,topicA-292,172.172.1.2:1883,1551644127657,PRODUCED
Publisher_002,topicA,topicA-293,172.172.1.2:1883,1551644127757,PRODUCED
Publisher_002,topicA,topicA-294,172.172.1.2:1883,1551644127858,PRODUCED
Publisher_002,topicA,topicA-295,172.172.1.2:1883,1551644127957,PRODUCED
Publisher_002,topicA,topicA-296,172.172.1.2:1883,1551644128056,PRODUCED
Publisher_002,topicA,topicA-297,172.172.1.2:1883,1551644128158,PRODUCED
Publisher_002,topicA,topicA-298,172.172.1.2:1883,1551644128257,PRODUCED
Publisher_002,topicA,topicA-299,172.172.1.2:1883,1551644128356,PRODUCED
Publisher_002,topicA,topicA-300,172.172.1.2:1883,1551644128456,PRODUCED
Publisher_002,topicA,topicA-301,172.172.1.2:1883,1551644128557,PRODUCED
Publisher_002,topicA,topicA-302,172.172.1.2:1883,1551644128657,PRODUCED
Publisher_002,topicA,topicA-303,172.172.1.2:1883,1551644128756,PRODUCED
Publisher_002,topicA,topicA-304,172.172.1.2:1883,1551644128858,PRODUCED
Publisher_002,topicA,topicA-305,172.172.1.2:1883,1551644128957,PRODUCED
Publisher_002,topicA,topicA-306,172.172.1.2:1883,1551644129057,PRODUCED
Publisher_002,topicA,topicA-307,172.172.1.2:1883,1551644129157,PRODUCED
Publisher_002,topicA,topicA-308,172.172.1.2:1883,1551644129259,PRODUCED
Publisher_002,topicA,topicA-309,172.172.1.2:1883,1551644129360,PRODUCED
Publisher_002,topicA,topicA-310,172.172.1.2:1883,1551644129457,PRODUCED
Publisher_002,topicA,topicA-311,172.172.1.2:1883,1551644129556,PRODUCED
Publisher_002,topicA,topicA-312,172.172.1.2:1883,1551644129660,PRODUCED
Publisher_002,topicA,topicA-313,172.172.1.2:1883,1551644129756,PRODUCED
Publisher_002,topicA,topicA-314,172.172.1.2:1883,1551644129857,PRODUCED
Publisher_002,topicA,topicA-315,172.172.1.2:1883,1551644129957,PRODUCED
Publisher_002,topicA,topicA-316,172.172.1.2:1883,1551644130056,PRODUCED
Publisher_002,topicA,topicA-317,172.172.1.2:1883,1551644130157,PRODUCED
Publisher_002,topicA,topicA-318,172.172.1.2:1883,1551644130257,PRODUCED
Publisher_002,topicA,topicA-319,172.172.1.2:1883,1551644130357,PRODUCED
Publisher_002,topicA,topicA-320,172.172.1.2:1883,1551644130457,PRODUCED
Publisher_002,topicA,topicA-321,172.172.1.2:1883,1551644130557,PRODUCED
Publisher_002,topicA,topicA-322,172.172.1.2:1883,1551644130657,PRODUCED
Publisher_002,topicA,topicA-323,172.172.1.2:1883,1551644130756,PRODUCED
Publisher_002,topicA,topicA-324,172.172.1.2:1883,1551644130857,PRODUCED
Publisher_002,topicA,topicA-325,172.172.1.2:1883,1551644130958,PRODUCED
Publisher_002,topicA,topicA-326,172.172.1.2:1883,1551644131058,PRODUCED
Publisher_002,topicA,topicA-327,172.172.1.2:1883,1551644131157,PRODUCED
Publisher_002,topicA,topicA-328,172.172.1.2:1883,1551644131262,PRODUCED
Publisher_002,topicA,topicA-329,172.172.1.2:1883,1551644131357,PRODUCED
Publisher_002,topicA,topicA-330,172.172.1.2:1883,1551644131457,PRODUCED
Publisher_002,topicA,topicA-331,172.172.1.2:1883,1551644131562,PRODUCED
Publisher_002,topicA,topicA-332,172.172.1.2:1883,1551644131658,PRODUCED
Publisher_002,topicA,topicA-333,172.172.1.2:1883,1551644131756,PRODUCED
Publisher_002,topicA,topicA-334,172.172.1.2:1883,1551644131857,PRODUCED
Publisher_002,topicA,topicA-335,172.172.1.2:1883,1551644131959,PRODUCED
Publisher_002,topicA,topicA-336,172.172.1.2:1883,1551644132060,PRODUCED
Publisher_002,topicA,topicA-337,172.172.1.2:1883,1551644132157,PRODUCED
Publisher_002,topicA,topicA-338,172.172.1.2:1883,1551644132256,PRODUCED
Publisher_002,topicA,topicA-339,172.172.1.2:1883,1551644132357,PRODUCED
Publisher_002,topicA,topicA-340,172.172.1.2:1883,1551644132456,PRODUCED
Publisher_002,topicA,topicA-341,172.172.1.2:1883,1551644132557,PRODUCED
Publisher_002,topicA,topicA-342,172.172.1.2:1883,1551644132656,PRODUCED
Publisher_002,topicA,topicA-343,172.172.1.2:1883,1551644132756,PRODUCED
Publisher_002,topicA,topicA-344,172.172.1.2:1883,1551644132857,PRODUCED
Publisher_002,topicA,topicA-345,172.172.1.2:1883,1551644132957,PRODUCED
Publisher_002,topicA,topicA-346,172.172.1.2:1883,1551644133058,PRODUCED
Publisher_002,topicA,topicA-347,172.172.1.2:1883,1551644133156,PRODUCED
Publisher_002,topicA,topicA-348,172.172.1.2:1883,1551644133256,PRODUCED
Publisher_002,topicA,topicA-349,172.172.1.2:1883,1551644133358,PRODUCED
Publisher_002,topicA,topicA-350,172.172.1.2:1883,1551644133458,PRODUCED
Publisher_002,topicA,topicA-351,172.172.1.2:1883,1551644133556,PRODUCED
Publisher_002,topicA,topicA-352,172.172.1.2:1883,1551644133657,PRODUCED
Publisher_002,topicA,topicA-353,172.172.1.2:1883,1551644133763,PRODUCED
Publisher_002,topicA,topicA-354,172.172.1.2:1883,1551644133857,PRODUCED
Publisher_002,topicA,topicA-355,172.172.1.2:1883,1551644133956,PRODUCED
Publisher_002,topicA,topicA-356,172.172.1.2:1883,1551644134056,PRODUCED
Publisher_002,topicA,topicA-357,172.172.1.2:1883,1551644134156,PRODUCED
Publisher_002,topicA,topicA-358,172.172.1.2:1883,1551644134257,PRODUCED
Publisher_002,topicA,topicA-359,172.172.1.2:1883,1551644134356,PRODUCED
Publisher_002,topicA,topicA-360,172.172.1.2:1883,1551644134460,PRODUCED
Publisher_002,topicA,topicA-361,172.172.1.2:1883,1551644134557,PRODUCED
Publisher_002,topicA,topicA-362,172.172.1.2:1883,1551644134656,PRODUCED
Publisher_002,topicA,topicA-363,172.172.1.2:1883,1551644134757,PRODUCED
Publisher_002,topicA,topicA-364,172.172.1.2:1883,1551644134857,PRODUCED
Publisher_002,topicA,topicA-365,172.172.1.2:1883,1551644134960,PRODUCED
Publisher_002,topicA,topicA-366,172.172.1.2:1883,1551644135057,PRODUCED
Publisher_002,topicA,topicA-367,172.172.1.2:1883,1551644135156,PRODUCED
Publisher_002,topicA,topicA-368,172.172.1.2:1883,1551644135257,PRODUCED
Publisher_002,topicA,topicA-369,172.172.1.2:1883,1551644135363,PRODUCED
Publisher_002,topicA,topicA-370,172.172.1.2:1883,1551644135457,PRODUCED
Publisher_002,topicA,topicA-371,172.172.1.2:1883,1551644135557,PRODUCED
Publisher_002,topicA,topicA-372,172.172.1.2:1883,1551644135659,PRODUCED
Publisher_002,topicA,topicA-373,172.172.1.2:1883,1551644135761,PRODUCED
Publisher_002,topicA,topicA-374,172.172.1.2:1883,1551644135857,PRODUCED
Publisher_002,topicA,topicA-375,172.172.1.2:1883,1551644135958,PRODUCED
Publisher_002,topicA,topicA-376,172.172.1.2:1883,1551644136058,PRODUCED
Publisher_002,topicA,topicA-377,172.172.1.2:1883,1551644136158,PRODUCED
Publisher_002,topicA,topicA-378,172.172.1.2:1883,1551644136257,PRODUCED
Publisher_002,topicA,topicA-379,172.172.1.2:1883,1551644136357,PRODUCED
Publisher_002,topicA,topicA-380,172.172.1.2:1883,1551644136462,PRODUCED
Publisher_002,topicA,topicA-381,172.172.1.2:1883,1551644136558,PRODUCED
Publisher_002,topicA,topicA-382,172.172.1.2:1883,1551644136657,PRODUCED
Publisher_002,topicA,topicA-383,172.172.1.2:1883,1551644136760,PRODUCED
Publisher_002,topicA,topicA-384,172.172.1.2:1883,1551644136863,PRODUCED
Publisher_002,topicA,topicA-385,172.172.1.2:1883,1551644136957,PRODUCED
Publisher_002,topicA,topicA-386,172.172.1.2:1883,1551644137056,PRODUCED
Publisher_002,topicA,topicA-387,172.172.1.2:1883,1551644137163,PRODUCED
Publisher_002,topicA,topicA-388,172.172.1.2:1883,1551644137256,PRODUCED
Publisher_002,topicA,topicA-389,172.172.1.2:1883,1551644137364,PRODUCED
Publisher_002,topicA,topicA-390,172.172.1.2:1883,1551644137456,PRODUCED
Publisher_002,topicA,topicA-391,172.172.1.2:1883,1551644137558,PRODUCED
Publisher_002,topicA,topicA-392,172.172.1.2:1883,1551644137657,PRODUCED
Publisher_002,topicA,topicA-393,172.172.1.2:1883,1551644137757,PRODUCED
Publisher_002,topicA,topicA-394,172.172.1.2:1883,1551644137857,PRODUCED
Publisher_002,topicA,topicA-395,172.172.1.2:1883,1551644137956,PRODUCED
Publisher_002,topicA,topicA-396,172.172.1.2:1883,1551644138056,PRODUCED
Publisher_002,topicA,topicA-397,172.172.1.2:1883,1551644138157,PRODUCED
Publisher_002,topicA,topicA-398,172.172.1.2:1883,1551644138256,PRODUCED
Publisher_002,topicA,topicA-399,172.172.1.2:1883,1551644138356,PRODUCED
Publisher_002,topicA,topicA-400,172.172.1.2:1883,1551644138456,PRODUCED
Publisher_002,topicA,topicA-401,172.172.1.2:1883,1551644138557,PRODUCED
Publisher_002,topicA,topicA-402,172.172.1.2:1883,1551644138657,PRODUCED
Publisher_002,topicA,topicA-403,172.172.1.2:1883,1551644138758,PRODUCED
Publisher_002,topicA,topicA-404,172.172.1.2:1883,1551644138857,PRODUCED
Publisher_002,topicA,topicA-405,172.172.1.2:1883,1551644138959,PRODUCED
Publisher_002,topicA,topicA-406,172.172.1.2:1883,1551644139059,PRODUCED
Publisher_002,topicA,topicA-407,172.172.1.2:1883,1551644139156,PRODUCED
Publisher_002,topicA,topicA-408,172.172.1.2:1883,1551644139256,PRODUCED
Publisher_002,topicA,topicA-409,172.172.1.2:1883,1551644139357,PRODUCED
Publisher_002,topicA,topicA-410,172.172.1.2:1883,1551644139459,PRODUCED
Publisher_002,topicA,topicA-411,172.172.1.2:1883,1551644139557,PRODUCED
Publisher_002,topicA,topicA-412,172.172.1.2:1883,1551644139656,PRODUCED
Publisher_002,topicA,topicA-413,172.172.1.2:1883,1551644139757,PRODUCED
Publisher_002,topicA,topicA-414,172.172.1.2:1883,1551644139859,PRODUCED
Publisher_002,topicA,topicA-415,172.172.1.2:1883,1551644139956,PRODUCED
Publisher_002,topicA,topicA-416,172.172.1.2:1883,1551644140057,PRODUCED
Publisher_002,topicA,topicA-417,172.172.1.2:1883,1551644140157,PRODUCED
Publisher_002,topicA,topicA-418,172.172.1.2:1883,1551644140257,PRODUCED
Publisher_002,topicA,topicA-419,172.172.1.2:1883,1551644140356,PRODUCED
Publisher_002,topicA,topicA-420,172.172.1.2:1883,1551644140457,PRODUCED
Publisher_002,topicA,topicA-421,172.172.1.2:1883,1551644140557,PRODUCED
Publisher_002,topicA,topicA-422,172.172.1.2:1883,1551644140656,PRODUCED
Publisher_002,topicA,topicA-423,172.172.1.2:1883,1551644140756,PRODUCED
Publisher_002,topicA,topicA-424,172.172.1.2:1883,1551644140856,PRODUCED
Publisher_002,topicA,topicA-425,172.172.1.2:1883,1551644140956,PRODUCED
Publisher_002,topicA,topicA-426,172.172.1.2:1883,1551644141056,PRODUCED
Publisher_002,topicA,topicA-427,172.172.1.2:1883,1551644141159,PRODUCED
Publisher_002,topicA,topicA-428,172.172.1.2:1883,1551644141262,PRODUCED
Publisher_002,topicA,topicA-429,172.172.1.2:1883,1551644141356,PRODUCED
Publisher_002,topicA,topicA-430,172.172.1.2:1883,1551644141456,PRODUCED
Publisher_002,topicA,topicA-431,172.172.1.2:1883,1551644141556,PRODUCED
Publisher_002,topicA,topicA-432,172.172.1.2:1883,1551644141657,PRODUCED
Publisher_002,topicA,topicA-433,172.172.1.2:1883,1551644141758,PRODUCED
Publisher_002,topicA,topicA-434,172.172.1.2:1883,1551644141860,PRODUCED
Publisher_002,topicA,topicA-435,172.172.1.2:1883,1551644141964,PRODUCED
Publisher_002,topicA,topicA-436,172.172.1.2:1883,1551644142056,PRODUCED
Publisher_002,topicA,topicA-437,172.172.1.2:1883,1551644142156,PRODUCED
Publisher_002,topicA,topicA-438,172.172.1.2:1883,1551644142256,PRODUCED
Publisher_002,topicA,topicA-439,172.172.1.2:1883,1551644142363,PRODUCED
Publisher_002,topicA,topicA-440,172.172.1.2:1883,1551644142456,PRODUCED
Publisher_002,topicA,topicA-441,172.172.1.2:1883,1551644142556,PRODUCED
Publisher_002,topicA,topicA-442,172.172.1.2:1883,1551644142656,PRODUCED
Publisher_002,topicA,topicA-443,172.172.1.2:1883,1551644142757,PRODUCED
Publisher_002,topicA,topicA-444,172.172.1.2:1883,1551644142856,PRODUCED
Publisher_002,topicA,topicA-445,172.172.1.2:1883,1551644142959,PRODUCED
Publisher_002,topicA,topicA-446,172.172.1.2:1883,1551644143059,PRODUCED
Publisher_002,topicA,topicA-447,172.172.1.2:1883,1551644143158,PRODUCED
Publisher_002,topicA,topicA-448,172.172.1.2:1883,1551644143257,PRODUCED
Publisher_002,topicA,topicA-449,172.172.1.2:1883,1551644143356,PRODUCED
Publisher_002,topicA,topicA-450,172.172.1.2:1883,1551644143457,PRODUCED
Publisher_002,topicA,topicA-451,172.172.1.2:1883,1551644143563,PRODUCED
Publisher_002,topicA,topicA-452,172.172.1.2:1883,1551644143656,PRODUCED
Publisher_002,topicA,topicA-453,172.172.1.2:1883,1551644143762,PRODUCED
Publisher_002,topicA,topicA-454,172.172.1.2:1883,1551644143856,PRODUCED
Publisher_002,topicA,topicA-455,172.172.1.2:1883,1551644143957,PRODUCED
Publisher_002,topicA,topicA-456,172.172.1.2:1883,1551644144057,PRODUCED
Publisher_002,topicA,topicA-457,172.172.1.2:1883,1551644144157,PRODUCED
Publisher_002,topicA,topicA-458,172.172.1.2:1883,1551644144256,PRODUCED
Publisher_002,topicA,topicA-459,172.172.1.2:1883,1551644144356,PRODUCED
Publisher_002,topicA,topicA-460,172.172.1.2:1883,1551644144459,PRODUCED
Publisher_002,topicA,topicA-461,172.172.1.2:1883,1551644144557,PRODUCED
Publisher_002,topicA,topicA-462,172.172.1.2:1883,1551644144656,PRODUCED
Publisher_002,topicA,topicA-463,172.172.1.2:1883,1551644144757,PRODUCED
Publisher_002,topicA,topicA-464,172.172.1.2:1883,1551644144856,PRODUCED
Publisher_002,topicA,topicA-465,172.172.1.2:1883,1551644144956,PRODUCED
Publisher_002,topicA,topicA-466,172.172.1.2:1883,1551644145057,PRODUCED
Publisher_002,topicA,topicA-467,172.172.1.2:1883,1551644145157,PRODUCED
Publisher_002,topicA,topicA-468,172.172.1.2:1883,1551644145257,PRODUCED
Publisher_002,topicA,topicA-469,172.172.1.2:1883,1551644145356,PRODUCED
Publisher_002,topicA,topicA-470,172.172.1.2:1883,1551644145457,PRODUCED
Publisher_002,topicA,topicA-471,172.172.1.2:1883,1551644145557,PRODUCED
Publisher_002,topicA,topicA-472,172.172.1.2:1883,1551644145657,PRODUCED
Publisher_002,topicA,topicA-473,172.172.1.2:1883,1551644145761,PRODUCED
Publisher_002,topicA,topicA-474,172.172.1.2:1883,1551644145858,PRODUCED
Publisher_002,topicA,topicA-475,172.172.1.2:1883,1551644145958,PRODUCED
Publisher_002,topicA,topicA-476,172.172.1.2:1883,1551644146057,PRODUCED
Publisher_002,topicA,topicA-477,172.172.1.2:1883,1551644146158,PRODUCED
Publisher_002,topicA,topicA-478,172.172.1.2:1883,1551644146257,PRODUCED
Publisher_002,topicA,topicA-479,172.172.1.2:1883,1551644146356,PRODUCED
Publisher_002,topicA,topicA-480,172.172.1.2:1883,1551644146457,PRODUCED
Publisher_002,topicA,topicA-481,172.172.1.2:1883,1551644146557,PRODUCED
Publisher_002,topicA,topicA-482,172.172.1.2:1883,1551644146657,PRODUCED
Publisher_002,topicA,topicA-483,172.172.1.2:1883,1551644146756,PRODUCED
Publisher_002,topicA,topicA-484,172.172.1.2:1883,1551644146857,PRODUCED
Publisher_002,topicA,topicA-485,172.172.1.2:1883,1551644146956,PRODUCED
Publisher_002,topicA,topicA-486,172.172.1.2:1883,1551644147056,PRODUCED
Publisher_002,topicA,topicA-487,172.172.1.2:1883,1551644147157,PRODUCED
Publisher_002,topicA,topicA-488,172.172.1.2:1883,1551644147257,PRODUCED
Publisher_002,topicA,topicA-489,172.172.1.2:1883,1551644147358,PRODUCED
Publisher_002,topicA,topicA-490,172.172.1.2:1883,1551644147457,PRODUCED
Publisher_002,topicA,topicA-491,172.172.1.2:1883,1551644147557,PRODUCED
Publisher_002,topicA,topicA-492,172.172.1.2:1883,1551644147657,PRODUCED
Publisher_002,topicA,topicA-493,172.172.1.2:1883,1551644147757,PRODUCED
Publisher_002,topicA,topicA-494,172.172.1.2:1883,1551644147856,PRODUCED
Publisher_002,topicA,topicA-495,172.172.1.2:1883,1551644147958,PRODUCED
Publisher_002,topicA,topicA-496,172.172.1.2:1883,1551644148056,PRODUCED
Publisher_002,topicA,topicA-497,172.172.1.2:1883,1551644148156,PRODUCED
Publisher_002,topicA,topicA-498,172.172.1.2:1883,1551644148257,PRODUCED
Publisher_002,topicA,topicA-499,172.172.1.2:1883,1551644148358,PRODUCED
Publisher_002,topicA,topicA-500,172.172.1.2:1883,1551644148458,PRODUCED
Publisher_002,topicA,topicA-501,172.172.1.2:1883,1551644148557,PRODUCED
Publisher_002,topicA,topicA-502,172.172.1.2:1883,1551644148660,PRODUCED
Publisher_002,topicA,topicA-503,172.172.1.2:1883,1551644148756,PRODUCED
Publisher_002,topicA,topicA-504,172.172.1.2:1883,1551644148856,PRODUCED
Publisher_002,topicA,topicA-505,172.172.1.2:1883,1551644148957,PRODUCED
Publisher_002,topicA,topicA-506,172.172.1.2:1883,1551644149056,PRODUCED
Publisher_002,topicA,topicA-507,172.172.1.2:1883,1551644149157,PRODUCED
Publisher_002,topicA,topicA-508,172.172.1.2:1883,1551644149259,PRODUCED
Publisher_002,topicA,topicA-509,172.172.1.2:1883,1551644149356,PRODUCED
Publisher_002,topicA,topicA-510,172.172.1.2:1883,1551644149457,PRODUCED
Publisher_002,topicA,topicA-511,172.172.1.2:1883,1551644149556,PRODUCED
Publisher_002,topicA,topicA-512,172.172.1.2:1883,1551644149661,PRODUCED
Publisher_002,topicA,topicA-513,172.172.1.2:1883,1551644149756,PRODUCED
Publisher_002,topicA,topicA-514,172.172.1.2:1883,1551644149857,PRODUCED
Publisher_002,topicA,topicA-515,172.172.1.2:1883,1551644149962,PRODUCED
Publisher_002,topicA,topicA-516,172.172.1.2:1883,1551644150065,PRODUCED
Publisher_002,topicA,topicA-517,172.172.1.2:1883,1551644150157,PRODUCED
Publisher_002,topicA,topicA-518,172.172.1.2:1883,1551644150257,PRODUCED
Publisher_002,topicA,topicA-519,172.172.1.2:1883,1551644150358,PRODUCED
Publisher_002,topicA,topicA-520,172.172.1.2:1883,1551644150457,PRODUCED
Publisher_002,topicA,topicA-521,172.172.1.2:1883,1551644150557,PRODUCED
Publisher_002,topicA,topicA-522,172.172.1.2:1883,1551644150657,PRODUCED
Publisher_002,topicA,topicA-523,172.172.1.2:1883,1551644150756,PRODUCED
Publisher_002,topicA,topicA-524,172.172.1.2:1883,1551644150857,PRODUCED
Publisher_002,topicA,topicA-525,172.172.1.2:1883,1551644150956,PRODUCED
Publisher_002,topicA,topicA-526,172.172.1.2:1883,1551644151056,PRODUCED
Publisher_002,topicA,topicA-527,172.172.1.2:1883,1551644151158,PRODUCED
Publisher_002,topicA,topicA-528,172.172.1.2:1883,1551644151258,PRODUCED
Publisher_002,topicA,topicA-529,172.172.1.2:1883,1551644151357,PRODUCED
Publisher_002,topicA,topicA-530,172.172.1.2:1883,1551644151456,PRODUCED
Publisher_002,topicA,topicA-531,172.172.1.2:1883,1551644151556,PRODUCED
Publisher_002,topicA,topicA-532,172.172.1.2:1883,1551644151656,PRODUCED
Publisher_002,topicA,topicA-533,172.172.1.2:1883,1551644151756,PRODUCED
Publisher_002,topicA,topicA-534,172.172.1.2:1883,1551644151857,PRODUCED
Publisher_002,topicA,topicA-535,172.172.1.2:1883,1551644151957,PRODUCED
Publisher_002,topicA,topicA-536,172.172.1.2:1883,1551644152058,PRODUCED
Publisher_002,topicA,topicA-537,172.172.1.2:1883,1551644152159,PRODUCED
Publisher_002,topicA,topicA-538,172.172.1.2:1883,1551644152263,PRODUCED
Publisher_002,topicA,topicA-539,172.172.1.2:1883,1551644152356,PRODUCED
Publisher_002,topicA,topicA-540,172.172.1.2:1883,1551644152457,PRODUCED
Publisher_002,topicA,topicA-541,172.172.1.2:1883,1551644152562,PRODUCED
Publisher_002,topicA,topicA-542,172.172.1.2:1883,1551644152657,PRODUCED
Publisher_002,topicA,topicA-543,172.172.1.2:1883,1551644152756,PRODUCED
Publisher_002,topicA,topicA-544,172.172.1.2:1883,1551644152857,PRODUCED
Publisher_002,topicA,topicA-545,172.172.1.2:1883,1551644152956,PRODUCED
Publisher_002,topicA,topicA-546,172.172.1.2:1883,1551644153057,PRODUCED
Publisher_002,topicA,topicA-547,172.172.1.2:1883,1551644153158,PRODUCED
Publisher_002,topicA,topicA-548,172.172.1.2:1883,1551644153257,PRODUCED
Publisher_002,topicA,topicA-549,172.172.1.2:1883,1551644153362,PRODUCED
Publisher_002,topicA,topicA-550,172.172.1.2:1883,1551644153457,PRODUCED
Publisher_002,topicA,topicA-551,172.172.1.2:1883,1551644153557,PRODUCED
Publisher_002,topicA,topicA-552,172.172.1.2:1883,1551644153658,PRODUCED
Publisher_002,topicA,topicA-553,172.172.1.2:1883,1551644153760,PRODUCED
Publisher_002,topicA,topicA-554,172.172.1.2:1883,1551644153856,PRODUCED
Publisher_002,topicA,topicA-555,172.172.1.2:1883,1551644153958,PRODUCED
Publisher_002,topicA,topicA-556,172.172.1.2:1883,1551644154057,PRODUCED
Publisher_002,topicA,topicA-557,172.172.1.2:1883,1551644154163,PRODUCED
Publisher_002,topicA,topicA-558,172.172.1.2:1883,1551644154257,PRODUCED
Publisher_002,topicA,topicA-559,172.172.1.2:1883,1551644154356,PRODUCED
Publisher_002,topicA,topicA-560,172.172.1.2:1883,1551644154462,PRODUCED
Publisher_002,topicA,topicA-561,172.172.1.2:1883,1551644154561,PRODUCED
Publisher_002,topicA,topicA-562,172.172.1.2:1883,1551644154656,PRODUCED
Publisher_002,topicA,topicA-563,172.172.1.2:1883,1551644154756,PRODUCED
Publisher_002,topicA,topicA-564,172.172.1.2:1883,1551644154861,PRODUCED
Publisher_002,topicA,topicA-565,172.172.1.2:1883,1551644154957,PRODUCED
Publisher_002,topicA,topicA-566,172.172.1.2:1883,1551644155064,PRODUCED
Publisher_002,topicA,topicA-567,172.172.1.2:1883,1551644155158,PRODUCED
Publisher_002,topicA,topicA-568,172.172.1.2:1883,1551644155256,PRODUCED
Publisher_002,topicA,topicA-569,172.172.1.2:1883,1551644155356,PRODUCED
Publisher_002,topicA,topicA-570,172.172.1.2:1883,1551644155456,PRODUCED
Publisher_002,topicA,topicA-571,172.172.1.2:1883,1551644155560,PRODUCED
Publisher_002,topicA,topicA-572,172.172.1.2:1883,1551644155656,PRODUCED
Publisher_002,topicA,topicA-573,172.172.1.2:1883,1551644155763,PRODUCED
Publisher_002,topicA,topicA-574,172.172.1.2:1883,1551644155858,PRODUCED
Publisher_002,topicA,topicA-575,172.172.1.2:1883,1551644155956,PRODUCED
Publisher_002,topicA,topicA-576,172.172.1.2:1883,1551644156060,PRODUCED
Publisher_002,topicA,topicA-577,172.172.1.2:1883,1551644156156,PRODUCED
Publisher_002,topicA,topicA-578,172.172.1.2:1883,1551644156256,PRODUCED
Publisher_002,topicA,topicA-579,172.172.1.2:1883,1551644156363,PRODUCED
Publisher_002,topicA,topicA-580,172.172.1.2:1883,1551644156456,PRODUCED
Publisher_002,topicA,topicA-581,172.172.1.2:1883,1551644156556,PRODUCED
Publisher_002,topicA,topicA-582,172.172.1.2:1883,1551644156659,PRODUCED
Publisher_002,topicA,topicA-583,172.172.1.2:1883,1551644156756,PRODUCED
Publisher_002,topicA,topicA-584,172.172.1.2:1883,1551644156856,PRODUCED
Publisher_002,topicA,topicA-585,172.172.1.2:1883,1551644156960,PRODUCED
Publisher_002,topicA,topicA-586,172.172.1.2:1883,1551644157064,PRODUCED
Publisher_002,topicA,topicA-587,172.172.1.2:1883,1551644157157,PRODUCED
Publisher_002,topicA,topicA-588,172.172.1.2:1883,1551644157256,PRODUCED
Publisher_002,topicA,topicA-589,172.172.1.2:1883,1551644157356,PRODUCED
Publisher_002,topicA,topicA-590,172.172.1.2:1883,1551644157458,PRODUCED
Publisher_002,topicA,topicA-591,172.172.1.2:1883,1551644157563,PRODUCED
Publisher_002,topicA,topicA-592,172.172.1.2:1883,1551644157657,PRODUCED
Publisher_002,topicA,topicA-593,172.172.1.2:1883,1551644157757,PRODUCED
Publisher_002,topicA,topicA-594,172.172.1.2:1883,1551644157861,PRODUCED
Publisher_002,topicA,topicA-595,172.172.1.2:1883,1551644157956,PRODUCED
Publisher_002,topicA,topicA-596,172.172.1.2:1883,1551644158057,PRODUCED
Publisher_002,topicA,topicA-597,172.172.1.2:1883,1551644158157,PRODUCED
Publisher_002,topicA,topicA-598,172.172.1.2:1883,1551644158257,PRODUCED
Publisher_002,topicA,topicA-599,172.172.1.2:1883,1551644158357,PRODUCED
Publisher_002,topicA,topicA-600,172.172.1.2:1883,1551644158457,PRODUCED
Publisher_002,topicA,topicA-601,172.172.1.2:1883,1551644158556,PRODUCED
Publisher_002,topicA,topicA-602,172.172.1.2:1883,1551644158656,PRODUCED
Publisher_002,topicA,topicA-603,172.172.1.2:1883,1551644158756,PRODUCED
Publisher_002,topicA,topicA-604,172.172.1.2:1883,1551644158862,PRODUCED
Publisher_002,topicA,topicA-605,172.172.1.2:1883,1551644158957,PRODUCED
Publisher_002,topicA,topicA-606,172.172.1.2:1883,1551644159057,PRODUCED
Publisher_002,topicA,topicA-607,172.172.1.2:1883,1551644159156,PRODUCED
Publisher_002,topicA,topicA-608,172.172.1.2:1883,1551644159256,PRODUCED
Publisher_002,topicA,topicA-609,172.172.1.2:1883,1551644159356,PRODUCED
Publisher_002,topicA,topicA-610,172.172.1.2:1883,1551644159457,PRODUCED
Publisher_002,topicA,topicA-611,172.172.1.2:1883,1551644159557,PRODUCED
Publisher_002,topicA,topicA-612,172.172.1.2:1883,1551644159657,PRODUCED
Publisher_002,topicA,topicA-613,172.172.1.2:1883,1551644159757,PRODUCED
Publisher_002,topicA,topicA-614,172.172.1.2:1883,1551644159856,PRODUCED
Publisher_002,topicA,topicA-615,172.172.1.2:1883,1551644159957,PRODUCED
Publisher_002,topicA,topicA-616,172.172.1.2:1883,1551644160056,PRODUCED
Publisher_002,topicA,topicA-617,172.172.1.2:1883,1551644160157,PRODUCED
Publisher_002,topicA,topicA-618,172.172.1.2:1883,1551644160257,PRODUCED
Publisher_002,topicA,topicA-619,172.172.1.2:1883,1551644160356,PRODUCED
Publisher_002,topicA,topicA-620,172.172.1.2:1883,1551644160457,PRODUCED
Publisher_002,topicA,topicA-621,172.172.1.2:1883,1551644160556,PRODUCED
Publisher_002,topicA,topicA-622,172.172.1.2:1883,1551644160657,PRODUCED
Publisher_002,topicA,topicA-623,172.172.1.2:1883,1551644160757,PRODUCED
Publisher_002,topicA,topicA-624,172.172.1.2:1883,1551644160857,PRODUCED
Publisher_002,topicA,topicA-625,172.172.1.2:1883,1551644160956,PRODUCED
Publisher_002,topicA,topicA-626,172.172.1.2:1883,1551644161057,PRODUCED
Publisher_002,topicA,topicA-627,172.172.1.2:1883,1551644161156,PRODUCED
Publisher_002,topicA,topicA-628,172.172.1.2:1883,1551644161256,PRODUCED
Publisher_002,topicA,topicA-629,172.172.1.2:1883,1551644161356,PRODUCED
Publisher_002,topicA,topicA-630,172.172.1.2:1883,1551644161456,PRODUCED
Publisher_002,topicA,topicA-631,172.172.1.2:1883,1551644161557,PRODUCED
Publisher_002,topicA,topicA-632,172.172.1.2:1883,1551644161656,PRODUCED
Publisher_002,topicA,topicA-633,172.172.1.2:1883,1551644161757,PRODUCED
Publisher_002,topicA,topicA-634,172.172.1.2:1883,1551644161856,PRODUCED
Publisher_002,topicA,topicA-635,172.172.1.2:1883,1551644161956,PRODUCED
Publisher_002,topicA,topicA-636,172.172.1.2:1883,1551644162057,PRODUCED
Publisher_002,topicA,topicA-637,172.172.1.2:1883,1551644162156,PRODUCED
Publisher_002,topicA,topicA-638,172.172.1.2:1883,1551644162256,PRODUCED
Publisher_002,topicA,topicA-639,172.172.1.2:1883,1551644162356,PRODUCED
Publisher_002,topicA,topicA-640,172.172.1.2:1883,1551644162456,PRODUCED
Publisher_002,topicA,topicA-641,172.172.1.2:1883,1551644162557,PRODUCED
Publisher_002,topicA,topicA-642,172.172.1.2:1883,1551644162657,PRODUCED
Publisher_002,topicA,topicA-643,172.172.1.2:1883,1551644162760,PRODUCED
Publisher_002,topicA,topicA-644,172.172.1.2:1883,1551644162860,PRODUCED
Publisher_002,topicA,topicA-645,172.172.1.2:1883,1551644162956,PRODUCED
Publisher_002,topicA,topicA-646,172.172.1.2:1883,1551644163057,PRODUCED
Publisher_002,topicA,topicA-647,172.172.1.2:1883,1551644163157,PRODUCED
Publisher_002,topicA,topicA-648,172.172.1.2:1883,1551644163257,PRODUCED
Publisher_002,topicA,topicA-649,172.172.1.2:1883,1551644163357,PRODUCED
Publisher_002,topicA,topicA-650,172.172.1.2:1883,1551644163456,PRODUCED
Publisher_002,topicA,topicA-651,172.172.1.2:1883,1551644163556,PRODUCED
Publisher_002,topicA,topicA-652,172.172.1.2:1883,1551644163656,PRODUCED
Publisher_002,topicA,topicA-653,172.172.1.2:1883,1551644163756,PRODUCED
