timestamp,event,migrationId
1551655717057,INITIALIZED,f1683516-072a-4424-abe6-deacd3eeded1
1551655717059,topicA-INITIALIZED,f1683516-072a-4424-abe6-deacd3eeded1
1551655717063,topicA-SYNCED,f1683516-072a-4424-abe6-deacd3eeded1
1551655719136,topicA-FINISHED,f1683516-072a-4424-abe6-deacd3eeded1
1551655719137,FINISHED,f1683516-072a-4424-abe6-deacd3eeded1
