timestamp,event,migrationId
1551647861343,INITIALIZED,a3bbb367-c699-4449-8eac-6f2b8feed7d4
1551647861345,topicA-INITIALIZED,a3bbb367-c699-4449-8eac-6f2b8feed7d4
1551647861349,topicA-SYNCED,a3bbb367-c699-4449-8eac-6f2b8feed7d4
1551647861863,topicA-FINISHED,a3bbb367-c699-4449-8eac-6f2b8feed7d4
1551647861863,FINISHED,a3bbb367-c699-4449-8eac-6f2b8feed7d4
