[1] "Duration B1: 797"
[1] "Duration B2: 492"
[1] "Duration MIGRATE: 276"
[1] "Duration MIGACK: 29"
[1] "addrow"
[1] "INITIALIZED"
  timestamp       event                          migrationId
1         0 INITIALIZED a4339793-d39e-4551-a623-aeeb52553557
[1] "addrow"
[1] "SYNCING"
[1] "addrow"
[1] "SYNCED"
[1] "addrow"
[1] "FINISHED"
  timestamp    event                          migrationId
4       797 FINISHED a4339793-d39e-4551-a623-aeeb52553557
[1] "addrow"
[1] "topicA-INITIALIZED"
  timestamp              event                          migrationId
2         3 topicA-INITIALIZED a4339793-d39e-4551-a623-aeeb52553557
[1] "addrow"
[1] "topicA-SYNCING"
[1] "addrow"
[1] "topicA-SYNCED"
[1] "addrow"
[1] "topicA-FINISHED"
  timestamp           event                          migrationId
3       796 topicA-FINISHED a4339793-d39e-4551-a623-aeeb52553557
