clientId,topic,guid,broker,timestamp,type
Subscriber_001,topicA,topicA-55,172.172.1.1:1883,1551644378303,RECEIVED
Subscriber_001,topicA,topicA-56,172.172.1.1:1883,1551644378305,RECEIVED
Subscriber_001,topicA,topicA-57,172.172.1.1:1883,1551644378306,RECEIVED
Subscriber_001,topicA,topicA-58,172.172.1.1:1883,1551644378363,RECEIVED
Subscriber_001,topicA,topicA-59,172.172.1.1:1883,1551644378475,RECEIVED
Subscriber_001,topicA,topicA-60,172.172.1.1:1883,1551644378573,RECEIVED
Subscriber_001,topicA,topicA-61,172.172.1.1:1883,1551644378676,RECEIVED
Subscriber_001,topicA,topicA-62,172.172.1.1:1883,1551644378770,RECEIVED
Subscriber_001,topicA,topicA-63,172.172.1.1:1883,1551644378889,RECEIVED
Subscriber_001,topicA,topicA-64,172.172.1.1:1883,1551644378973,RECEIVED
Subscriber_001,topicA,topicA-65,172.172.1.1:1883,1551644379086,RECEIVED
Subscriber_001,topicA,topicA-66,172.172.1.1:1883,1551644379179,RECEIVED
Subscriber_001,topicA,topicA-67,172.172.1.1:1883,1551644379273,RECEIVED
Subscriber_001,topicA,topicA-68,172.172.1.1:1883,1551644379366,RECEIVED
Subscriber_001,topicA,topicA-69,172.172.1.1:1883,1551644379465,RECEIVED
Subscriber_001,topicA,topicA-70,172.172.1.1:1883,1551644379571,RECEIVED
Subscriber_001,topicA,topicA-71,172.172.1.1:1883,1551644379670,RECEIVED
Subscriber_001,topicA,topicA-72,172.172.1.1:1883,1551644379769,RECEIVED
Subscriber_001,topicA,topicA-73,172.172.1.1:1883,1551644379878,RECEIVED
Subscriber_001,topicA,topicA-74,172.172.1.1:1883,1551644379966,RECEIVED
Subscriber_001,topicA,topicA-75,172.172.1.1:1883,1551644380072,RECEIVED
Subscriber_001,topicA,topicA-76,172.172.1.1:1883,1551644380166,RECEIVED
Subscriber_001,topicA,topicA-77,172.172.1.1:1883,1551644380268,RECEIVED
Subscriber_001,topicA,topicA-78,172.172.1.1:1883,1551644380370,RECEIVED
Subscriber_001,topicA,topicA-79,172.172.1.1:1883,1551644380467,RECEIVED
Subscriber_001,topicA,topicA-80,172.172.1.1:1883,1551644380570,RECEIVED
Subscriber_001,topicA,topicA-81,172.172.1.1:1883,1551644380663,RECEIVED
Subscriber_001,topicA,topicA-82,172.172.1.1:1883,1551644380768,RECEIVED
Subscriber_001,topicA,topicA-83,172.172.1.1:1883,1551644380865,RECEIVED
Subscriber_001,topicA,topicA-84,172.172.1.1:1883,1551644380962,RECEIVED
Subscriber_001,topicA,topicA-85,172.172.1.1:1883,1551644381066,RECEIVED
Subscriber_001,topicA,topicA-86,172.172.1.1:1883,1551644381166,RECEIVED
Subscriber_001,topicA,topicA-87,172.172.1.1:1883,1551644381269,RECEIVED
Subscriber_001,topicA,topicA-88,172.172.1.1:1883,1551644381369,RECEIVED
Subscriber_001,topicA,topicA-89,172.172.1.1:1883,1551644381471,RECEIVED
Subscriber_001,topicA,topicA-90,172.172.1.1:1883,1551644381576,RECEIVED
Subscriber_001,topicA,topicA-91,172.172.1.1:1883,1551644381670,RECEIVED
Subscriber_001,topicA,topicA-92,172.172.1.1:1883,1551644381775,RECEIVED
Subscriber_001,topicA,topicA-93,172.172.1.1:1883,1551644381872,RECEIVED
Subscriber_001,topicA,topicA-94,172.172.1.1:1883,1551644381973,RECEIVED
Subscriber_001,topicA,topicA-95,172.172.1.1:1883,1551644382098,RECEIVED
Subscriber_001,topicA,topicA-96,172.172.1.1:1883,1551644382167,RECEIVED
Subscriber_001,topicA,topicA-97,172.172.1.1:1883,1551644382270,RECEIVED
Subscriber_001,topicA,topicA-98,172.172.1.1:1883,1551644382375,RECEIVED
Subscriber_001,topicA,topicA-99,172.172.1.1:1883,1551644382467,RECEIVED
Subscriber_001,topicA,topicA-100,172.172.1.1:1883,1551644382567,RECEIVED
Subscriber_001,topicA,topicA-101,172.172.1.1:1883,1551644382675,RECEIVED
Subscriber_001,topicA,topicA-102,172.172.1.1:1883,1551644382773,RECEIVED
Subscriber_001,topicA,topicA-103,172.172.1.1:1883,1551644382871,RECEIVED
Subscriber_001,topicA,topicA-104,172.172.1.1:1883,1551644382974,RECEIVED
Subscriber_001,topicA,topicA-105,172.172.1.1:1883,1551644383065,RECEIVED
Subscriber_001,topicA,topicA-106,172.172.1.1:1883,1551644383165,RECEIVED
Subscriber_001,topicA,topicA-107,172.172.1.1:1883,1551644383266,RECEIVED
Subscriber_001,topicA,topicA-108,172.172.1.1:1883,1551644383361,RECEIVED
Subscriber_001,topicA,topicA-109,172.172.1.1:1883,1551644383464,RECEIVED
Subscriber_001,topicA,topicA-110,172.172.1.1:1883,1551644383572,RECEIVED
Subscriber_001,topicA,topicA-111,172.172.1.1:1883,1551644383664,RECEIVED
Subscriber_001,topicA,topicA-112,172.172.1.1:1883,1551644383779,RECEIVED
Subscriber_001,topicA,topicA-113,172.172.1.1:1883,1551644383871,RECEIVED
Subscriber_001,topicA,topicA-114,172.172.1.1:1883,1551644383970,RECEIVED
Subscriber_001,topicA,topicA-115,172.172.1.1:1883,1551644384077,RECEIVED
Subscriber_001,topicA,topicA-116,172.172.1.1:1883,1551644384182,RECEIVED
Subscriber_001,topicA,topicA-117,172.172.1.1:1883,1551644384268,RECEIVED
Subscriber_001,topicA,topicA-118,172.172.1.1:1883,1551644384370,RECEIVED
Subscriber_001,topicA,topicA-119,172.172.1.1:1883,1551644384482,RECEIVED
Subscriber_001,topicA,topicA-120,172.172.1.1:1883,1551644384574,RECEIVED
Subscriber_001,topicA,topicA-121,172.172.1.1:1883,1551644384669,RECEIVED
Subscriber_001,topicA,topicA-122,172.172.1.1:1883,1551644384775,RECEIVED
Subscriber_001,topicA,topicA-123,172.172.1.1:1883,1551644384873,RECEIVED
Subscriber_001,topicA,topicA-124,172.172.1.1:1883,1551644384962,RECEIVED
Subscriber_001,topicA,topicA-125,172.172.1.1:1883,1551644385069,RECEIVED
Subscriber_001,topicA,topicA-126,172.172.1.1:1883,1551644385174,RECEIVED
Subscriber_001,topicA,topicA-127,172.172.1.1:1883,1551644385275,RECEIVED
Subscriber_001,topicA,topicA-128,172.172.1.1:1883,1551644385378,RECEIVED
Subscriber_001,topicA,topicA-129,172.172.1.1:1883,1551644385469,RECEIVED
Subscriber_001,topicA,topicA-130,172.172.1.1:1883,1551644385578,RECEIVED
Subscriber_001,topicA,topicA-131,172.172.1.1:1883,1551644385665,RECEIVED
Subscriber_001,topicA,topicA-132,172.172.1.1:1883,1551644385769,RECEIVED
Subscriber_001,topicA,topicA-133,172.172.1.1:1883,1551644385870,RECEIVED
Subscriber_001,topicA,topicA-134,172.172.1.1:1883,1551644385975,RECEIVED
Subscriber_001,topicA,topicA-135,172.172.1.1:1883,1551644386076,RECEIVED
Subscriber_001,topicA,topicA-136,172.172.1.1:1883,1551644386176,RECEIVED
Subscriber_001,topicA,topicA-137,172.172.1.1:1883,1551644386265,RECEIVED
Subscriber_001,topicA,topicA-138,172.172.1.1:1883,1551644386363,RECEIVED
Subscriber_001,topicA,topicA-139,172.172.1.1:1883,1551644386466,RECEIVED
Subscriber_001,topicA,topicA-140,172.172.1.1:1883,1551644386569,RECEIVED
Subscriber_001,topicA,topicA-141,172.172.1.1:1883,1551644386667,RECEIVED
Subscriber_001,topicA,topicA-142,172.172.1.1:1883,1551644386764,RECEIVED
Subscriber_001,topicA,topicA-143,172.172.1.1:1883,1551644386865,RECEIVED
Subscriber_001,topicA,topicA-144,172.172.1.1:1883,1551644386961,RECEIVED
Subscriber_001,topicA,topicA-145,172.172.1.1:1883,1551644387066,RECEIVED
Subscriber_001,topicA,topicA-146,172.172.1.1:1883,1551644387166,RECEIVED
Subscriber_001,topicA,topicA-147,172.172.1.1:1883,1551644387263,RECEIVED
Subscriber_001,topicA,topicA-148,172.172.1.1:1883,1551644387366,RECEIVED
Subscriber_001,topicA,topicA-149,172.172.1.1:1883,1551644387464,RECEIVED
Subscriber_001,topicA,topicA-150,172.172.1.1:1883,1551644387564,RECEIVED
Subscriber_001,topicA,topicA-151,172.172.1.1:1883,1551644387671,RECEIVED
Subscriber_001,topicA,topicA-152,172.172.1.1:1883,1551644387763,RECEIVED
Subscriber_001,topicA,topicA-153,172.172.1.1:1883,1551644387871,RECEIVED
Subscriber_001,topicA,topicA-154,172.172.1.1:1883,1551644387963,RECEIVED
Subscriber_001,topicA,topicA-155,172.172.1.1:1883,1551644388076,RECEIVED
Subscriber_001,topicA,topicA-156,172.172.1.1:1883,1551644388175,RECEIVED
Subscriber_001,topicA,topicA-157,172.172.1.1:1883,1551644388265,RECEIVED
Subscriber_001,topicA,topicA-158,172.172.1.1:1883,1551644388367,RECEIVED
Subscriber_001,topicA,topicA-159,172.172.1.1:1883,1551644388474,RECEIVED
Subscriber_001,topicA,topicA-160,172.172.1.1:1883,1551644388569,RECEIVED
Subscriber_001,topicA,topicA-161,172.172.1.1:1883,1551644388663,RECEIVED
Subscriber_001,topicA,topicA-162,172.172.1.1:1883,1551644388777,RECEIVED
Subscriber_001,topicA,topicA-163,172.172.1.1:1883,1551644388879,RECEIVED
Subscriber_001,topicA,topicA-164,172.172.1.1:1883,1551644388963,RECEIVED
Subscriber_001,topicA,topicA-165,172.172.1.1:1883,1551644389069,RECEIVED
Subscriber_001,topicA,topicA-166,172.172.1.1:1883,1551644389177,RECEIVED
Subscriber_001,topicA,topicA-167,172.172.1.1:1883,1551644389269,RECEIVED
Subscriber_001,topicA,topicA-168,172.172.1.1:1883,1551644389364,RECEIVED
Subscriber_001,topicA,topicA-169,172.172.1.1:1883,1551644389468,RECEIVED
Subscriber_001,topicA,topicA-170,172.172.1.1:1883,1551644389575,RECEIVED
Subscriber_001,topicA,topicA-171,172.172.1.1:1883,1551644389667,RECEIVED
Subscriber_001,topicA,topicA-172,172.172.1.1:1883,1551644389775,RECEIVED
Subscriber_001,topicA,topicA-173,172.172.1.1:1883,1551644389865,RECEIVED
Subscriber_001,topicA,topicA-174,172.172.1.1:1883,1551644389964,RECEIVED
Subscriber_001,topicA,topicA-175,172.172.1.1:1883,1551644390070,RECEIVED
Subscriber_001,topicA,topicA-176,172.172.1.1:1883,1551644390165,RECEIVED
Subscriber_001,topicA,topicA-177,172.172.1.1:1883,1551644390269,RECEIVED
Subscriber_001,topicA,topicA-178,172.172.1.1:1883,1551644390379,RECEIVED
Subscriber_001,topicA,topicA-179,172.172.1.1:1883,1551644390465,RECEIVED
Subscriber_001,topicA,topicA-180,172.172.1.1:1883,1551644390571,RECEIVED
Subscriber_001,topicA,topicA-181,172.172.1.1:1883,1551644390667,RECEIVED
Subscriber_001,topicA,topicA-182,172.172.1.1:1883,1551644390775,RECEIVED
Subscriber_001,topicA,topicA-183,172.172.1.1:1883,1551644390863,RECEIVED
Subscriber_001,topicA,topicA-184,172.172.1.1:1883,1551644390968,RECEIVED
Subscriber_001,topicA,topicA-185,172.172.1.1:1883,1551644391067,RECEIVED
Subscriber_001,topicA,topicA-186,172.172.1.1:1883,1551644391164,RECEIVED
Subscriber_001,topicA,topicA-187,172.172.1.1:1883,1551644391277,RECEIVED
Subscriber_001,topicA,topicA-188,172.172.1.1:1883,1551644391376,RECEIVED
Subscriber_001,topicA,topicA-189,172.172.1.1:1883,1551644391480,RECEIVED
Subscriber_001,topicA,topicA-190,172.172.1.1:1883,1551644391573,RECEIVED
Subscriber_001,topicA,topicA-191,172.172.1.1:1883,1551644391675,RECEIVED
Subscriber_001,topicA,topicA-192,172.172.1.1:1883,1551644391767,RECEIVED
Subscriber_001,topicA,topicA-193,172.172.1.1:1883,1551644391865,RECEIVED
Subscriber_001,topicA,topicA-194,172.172.1.1:1883,1551644391963,RECEIVED
Subscriber_001,topicA,topicA-195,172.172.1.1:1883,1551644392064,RECEIVED
Subscriber_001,topicA,topicA-196,172.172.1.1:1883,1551644392170,RECEIVED
Subscriber_001,topicA,topicA-197,172.172.1.1:1883,1551644392265,RECEIVED
Subscriber_001,topicA,topicA-198,172.172.1.1:1883,1551644392366,RECEIVED
Subscriber_001,topicA,topicA-199,172.172.1.1:1883,1551644392473,RECEIVED
Subscriber_001,topicA,topicA-200,172.172.1.1:1883,1551644392565,RECEIVED
Subscriber_001,topicA,topicA-201,172.172.1.1:1883,1551644392672,RECEIVED
Subscriber_001,topicA,topicA-202,172.172.1.1:1883,1551644392772,RECEIVED
Subscriber_001,topicA,topicA-203,172.172.1.1:1883,1551644392874,RECEIVED
Subscriber_001,topicA,topicA-204,172.172.1.1:1883,1551644392966,RECEIVED
Subscriber_001,topicA,topicA-205,172.172.1.1:1883,1551644393075,RECEIVED
Subscriber_001,topicA,topicA-206,172.172.1.1:1883,1551644393171,RECEIVED
Subscriber_001,topicA,topicA-207,172.172.1.1:1883,1551644393262,RECEIVED
Subscriber_001,topicA,topicA-208,172.172.1.1:1883,1551644393379,RECEIVED
Subscriber_001,topicA,topicA-209,172.172.1.1:1883,1551644393480,RECEIVED
Subscriber_001,topicA,topicA-210,172.172.1.1:1883,1551644393577,RECEIVED
Subscriber_001,topicA,topicA-211,172.172.1.1:1883,1551644393680,RECEIVED
Subscriber_001,topicA,topicA-212,172.172.1.1:1883,1551644393779,RECEIVED
Subscriber_001,topicA,topicA-213,172.172.1.1:1883,1551644393882,RECEIVED
Subscriber_001,topicA,topicA-214,172.172.1.1:1883,1551644393972,RECEIVED
Subscriber_001,topicA,topicA-215,172.172.1.1:1883,1551644394073,RECEIVED
Subscriber_001,topicA,topicA-216,172.172.1.1:1883,1551644394171,RECEIVED
Subscriber_001,topicA,topicA-217,172.172.1.1:1883,1551644394266,RECEIVED
Subscriber_001,topicA,topicA-218,172.172.1.1:1883,1551644394362,RECEIVED
Subscriber_001,topicA,topicA-219,172.172.1.1:1883,1551644394467,RECEIVED
Subscriber_001,topicA,topicA-220,172.172.1.1:1883,1551644394572,RECEIVED
Subscriber_001,topicA,topicA-221,172.172.1.1:1883,1551644394662,RECEIVED
Subscriber_001,topicA,topicA-222,172.172.1.1:1883,1551644394761,RECEIVED
Subscriber_001,topicA,topicA-223,172.172.1.1:1883,1551644394877,RECEIVED
Subscriber_001,topicA,topicA-224,172.172.1.1:1883,1551644394971,RECEIVED
Subscriber_001,topicA,topicA-225,172.172.1.1:1883,1551644395064,RECEIVED
Subscriber_001,topicA,topicA-226,172.172.1.1:1883,1551644395167,RECEIVED
Subscriber_001,topicA,topicA-227,172.172.1.1:1883,1551644395268,RECEIVED
Subscriber_001,topicA,topicA-228,172.172.1.1:1883,1551644395368,RECEIVED
Subscriber_001,topicA,topicA-229,172.172.1.1:1883,1551644395467,RECEIVED
Subscriber_001,topicA,topicA-230,172.172.1.1:1883,1551644395565,RECEIVED
Subscriber_001,topicA,topicA-231,172.172.1.1:1883,1551644395664,RECEIVED
Subscriber_001,topicA,topicA-232,172.172.1.1:1883,1551644395770,RECEIVED
Subscriber_001,topicA,topicA-233,172.172.1.1:1883,1551644395862,RECEIVED
Subscriber_001,topicA,topicA-234,172.172.1.1:1883,1551644395966,RECEIVED
Subscriber_001,topicA,topicA-235,172.172.1.1:1883,1551644396062,RECEIVED
Subscriber_001,topicA,topicA-236,172.172.1.1:1883,1551644396169,RECEIVED
Subscriber_001,topicA,topicA-237,172.172.1.1:1883,1551644396272,RECEIVED
Subscriber_001,topicA,topicA-238,172.172.1.1:1883,1551644396364,RECEIVED
Subscriber_001,topicA,topicA-239,172.172.1.1:1883,1551644396462,RECEIVED
Subscriber_001,topicA,topicA-240,172.172.1.1:1883,1551644396565,RECEIVED
Subscriber_001,topicA,topicA-241,172.172.1.1:1883,1551644396671,RECEIVED
Subscriber_001,topicA,topicA-242,172.172.1.1:1883,1551644396773,RECEIVED
Subscriber_001,topicA,topicA-243,172.172.1.1:1883,1551644396866,RECEIVED
Subscriber_001,topicA,topicA-244,172.172.1.1:1883,1551644396968,RECEIVED
Subscriber_001,topicA,topicA-245,172.172.1.1:1883,1551644397072,RECEIVED
Subscriber_001,topicA,topicA-246,172.172.1.1:1883,1551644397163,RECEIVED
Subscriber_001,topicA,topicA-247,172.172.1.1:1883,1551644397277,RECEIVED
Subscriber_001,topicA,topicA-248,172.172.1.1:1883,1551644397364,RECEIVED
Subscriber_001,topicA,topicA-249,172.172.1.1:1883,1551644397470,RECEIVED
Subscriber_001,topicA,topicA-250,172.172.1.2:1883,1551644398329,RECEIVED
Subscriber_001,topicA,topicA-251,172.172.1.2:1883,1551644398447,RECEIVED
Subscriber_001,topicA,topicA-252,172.172.1.2:1883,1551644398544,RECEIVED
Subscriber_001,topicA,topicA-253,172.172.1.2:1883,1551644398630,RECEIVED
Subscriber_001,topicA,topicA-254,172.172.1.2:1883,1551644398736,RECEIVED
Subscriber_001,topicA,topicA-255,172.172.1.2:1883,1551644398827,RECEIVED
Subscriber_001,topicA,topicA-256,172.172.1.2:1883,1551644398940,RECEIVED
Subscriber_001,topicA,topicA-257,172.172.1.2:1883,1551644399046,RECEIVED
Subscriber_001,topicA,topicA-258,172.172.1.2:1883,1551644399137,RECEIVED
Subscriber_001,topicA,topicA-259,172.172.1.2:1883,1551644399228,RECEIVED
Subscriber_001,topicA,topicA-260,172.172.1.2:1883,1551644399331,RECEIVED
Subscriber_001,topicA,topicA-261,172.172.1.2:1883,1551644399441,RECEIVED
Subscriber_001,topicA,topicA-262,172.172.1.2:1883,1551644399539,RECEIVED
Subscriber_001,topicA,topicA-263,172.172.1.2:1883,1551644399648,RECEIVED
Subscriber_001,topicA,topicA-264,172.172.1.2:1883,1551644399736,RECEIVED
Subscriber_001,topicA,topicA-265,172.172.1.2:1883,1551644399846,RECEIVED
Subscriber_001,topicA,topicA-266,172.172.1.2:1883,1551644399939,RECEIVED
Subscriber_001,topicA,topicA-267,172.172.1.2:1883,1551644400036,RECEIVED
Subscriber_001,topicA,topicA-268,172.172.1.2:1883,1551644400143,RECEIVED
Subscriber_001,topicA,topicA-269,172.172.1.2:1883,1551644400235,RECEIVED
Subscriber_001,topicA,topicA-270,172.172.1.2:1883,1551644400344,RECEIVED
Subscriber_001,topicA,topicA-271,172.172.1.2:1883,1551644400455,RECEIVED
Subscriber_001,topicA,topicA-272,172.172.1.2:1883,1551644400560,RECEIVED
Subscriber_001,topicA,topicA-273,172.172.1.2:1883,1551644400639,RECEIVED
Subscriber_001,topicA,topicA-274,172.172.1.2:1883,1551644400749,RECEIVED
Subscriber_001,topicA,topicA-275,172.172.1.2:1883,1551644400842,RECEIVED
Subscriber_001,topicA,topicA-276,172.172.1.2:1883,1551644400939,RECEIVED
Subscriber_001,topicA,topicA-277,172.172.1.2:1883,1551644401032,RECEIVED
Subscriber_001,topicA,topicA-278,172.172.1.2:1883,1551644401137,RECEIVED
Subscriber_001,topicA,topicA-279,172.172.1.2:1883,1551644401233,RECEIVED
Subscriber_001,topicA,topicA-280,172.172.1.2:1883,1551644401338,RECEIVED
Subscriber_001,topicA,topicA-281,172.172.1.2:1883,1551644401431,RECEIVED
Subscriber_001,topicA,topicA-282,172.172.1.2:1883,1551644401534,RECEIVED
Subscriber_001,topicA,topicA-283,172.172.1.2:1883,1551644401630,RECEIVED
Subscriber_001,topicA,topicA-284,172.172.1.2:1883,1551644401728,RECEIVED
Subscriber_001,topicA,topicA-285,172.172.1.2:1883,1551644401830,RECEIVED
Subscriber_001,topicA,topicA-286,172.172.1.2:1883,1551644401933,RECEIVED
Subscriber_001,topicA,topicA-287,172.172.1.2:1883,1551644402035,RECEIVED
Subscriber_001,topicA,topicA-288,172.172.1.2:1883,1551644402135,RECEIVED
Subscriber_001,topicA,topicA-289,172.172.1.2:1883,1551644402228,RECEIVED
Subscriber_001,topicA,topicA-290,172.172.1.2:1883,1551644402330,RECEIVED
Subscriber_001,topicA,topicA-291,172.172.1.2:1883,1551644402426,RECEIVED
Subscriber_001,topicA,topicA-292,172.172.1.2:1883,1551644402526,RECEIVED
Subscriber_001,topicA,topicA-293,172.172.1.2:1883,1551644402638,RECEIVED
Subscriber_001,topicA,topicA-294,172.172.1.2:1883,1551644402735,RECEIVED
Subscriber_001,topicA,topicA-295,172.172.1.2:1883,1551644402835,RECEIVED
Subscriber_001,topicA,topicA-296,172.172.1.2:1883,1551644402934,RECEIVED
Subscriber_001,topicA,topicA-297,172.172.1.2:1883,1551644403032,RECEIVED
Subscriber_001,topicA,topicA-298,172.172.1.2:1883,1551644403126,RECEIVED
Subscriber_001,topicA,topicA-299,172.172.1.2:1883,1551644403234,RECEIVED
Subscriber_001,topicA,topicA-300,172.172.1.2:1883,1551644403329,RECEIVED
Subscriber_001,topicA,topicA-301,172.172.1.2:1883,1551644403431,RECEIVED
Subscriber_001,topicA,topicA-302,172.172.1.2:1883,1551644403537,RECEIVED
Subscriber_001,topicA,topicA-303,172.172.1.2:1883,1551644403626,RECEIVED
Subscriber_001,topicA,topicA-304,172.172.1.2:1883,1551644403727,RECEIVED
Subscriber_001,topicA,topicA-305,172.172.1.2:1883,1551644403833,RECEIVED
Subscriber_001,topicA,topicA-306,172.172.1.2:1883,1551644403934,RECEIVED
Subscriber_001,topicA,topicA-307,172.172.1.2:1883,1551644404033,RECEIVED
Subscriber_001,topicA,topicA-308,172.172.1.2:1883,1551644404134,RECEIVED
Subscriber_001,topicA,topicA-309,172.172.1.2:1883,1551644404228,RECEIVED
Subscriber_001,topicA,topicA-310,172.172.1.2:1883,1551644404335,RECEIVED
Subscriber_001,topicA,topicA-311,172.172.1.2:1883,1551644404449,RECEIVED
Subscriber_001,topicA,topicA-312,172.172.1.2:1883,1551644404550,RECEIVED
Subscriber_001,topicA,topicA-313,172.172.1.2:1883,1551644404636,RECEIVED
Subscriber_001,topicA,topicA-314,172.172.1.2:1883,1551644404728,RECEIVED
Subscriber_001,topicA,topicA-315,172.172.1.2:1883,1551644404837,RECEIVED
Subscriber_001,topicA,topicA-316,172.172.1.2:1883,1551644404939,RECEIVED
Subscriber_001,topicA,topicA-317,172.172.1.2:1883,1551644405032,RECEIVED
Subscriber_001,topicA,topicA-318,172.172.1.2:1883,1551644405138,RECEIVED
Subscriber_001,topicA,topicA-319,172.172.1.2:1883,1551644405234,RECEIVED
Subscriber_001,topicA,topicA-320,172.172.1.2:1883,1551644405333,RECEIVED
Subscriber_001,topicA,topicA-321,172.172.1.2:1883,1551644405435,RECEIVED
Subscriber_001,topicA,topicA-322,172.172.1.2:1883,1551644405534,RECEIVED
Subscriber_001,topicA,topicA-323,172.172.1.2:1883,1551644405642,RECEIVED
Subscriber_001,topicA,topicA-324,172.172.1.2:1883,1551644405736,RECEIVED
Subscriber_001,topicA,topicA-325,172.172.1.2:1883,1551644405829,RECEIVED
Subscriber_001,topicA,topicA-326,172.172.1.2:1883,1551644405942,RECEIVED
Subscriber_001,topicA,topicA-327,172.172.1.2:1883,1551644406034,RECEIVED
Subscriber_001,topicA,topicA-328,172.172.1.2:1883,1551644406132,RECEIVED
Subscriber_001,topicA,topicA-329,172.172.1.2:1883,1551644406229,RECEIVED
Subscriber_001,topicA,topicA-330,172.172.1.2:1883,1551644406334,RECEIVED
Subscriber_001,topicA,topicA-331,172.172.1.2:1883,1551644406444,RECEIVED
Subscriber_001,topicA,topicA-332,172.172.1.2:1883,1551644406532,RECEIVED
Subscriber_001,topicA,topicA-333,172.172.1.2:1883,1551644406631,RECEIVED
Subscriber_001,topicA,topicA-334,172.172.1.2:1883,1551644406728,RECEIVED
Subscriber_001,topicA,topicA-335,172.172.1.2:1883,1551644406837,RECEIVED
Subscriber_001,topicA,topicA-336,172.172.1.2:1883,1551644406929,RECEIVED
Subscriber_001,topicA,topicA-337,172.172.1.2:1883,1551644407029,RECEIVED
Subscriber_001,topicA,topicA-338,172.172.1.2:1883,1551644407136,RECEIVED
Subscriber_001,topicA,topicA-339,172.172.1.2:1883,1551644407236,RECEIVED
Subscriber_001,topicA,topicA-340,172.172.1.2:1883,1551644407343,RECEIVED
Subscriber_001,topicA,topicA-341,172.172.1.2:1883,1551644407443,RECEIVED
Subscriber_001,topicA,topicA-342,172.172.1.2:1883,1551644407537,RECEIVED
Subscriber_001,topicA,topicA-343,172.172.1.2:1883,1551644407635,RECEIVED
Subscriber_001,topicA,topicA-344,172.172.1.2:1883,1551644407751,RECEIVED
Subscriber_001,topicA,topicA-345,172.172.1.2:1883,1551644407834,RECEIVED
Subscriber_001,topicA,topicA-346,172.172.1.2:1883,1551644407933,RECEIVED
Subscriber_001,topicA,topicA-347,172.172.1.2:1883,1551644408040,RECEIVED
Subscriber_001,topicA,topicA-348,172.172.1.2:1883,1551644408143,RECEIVED
Subscriber_001,topicA,topicA-349,172.172.1.2:1883,1551644408240,RECEIVED
Subscriber_001,topicA,topicA-350,172.172.1.2:1883,1551644408337,RECEIVED
Subscriber_001,topicA,topicA-351,172.172.1.2:1883,1551644408432,RECEIVED
Subscriber_001,topicA,topicA-352,172.172.1.2:1883,1551644408534,RECEIVED
Subscriber_001,topicA,topicA-353,172.172.1.2:1883,1551644408629,RECEIVED
Subscriber_001,topicA,topicA-354,172.172.1.2:1883,1551644408732,RECEIVED
Subscriber_001,topicA,topicA-355,172.172.1.2:1883,1551644408834,RECEIVED
Subscriber_001,topicA,topicA-356,172.172.1.2:1883,1551644408924,RECEIVED
Subscriber_001,topicA,topicA-357,172.172.1.2:1883,1551644409031,RECEIVED
Subscriber_001,topicA,topicA-358,172.172.1.2:1883,1551644409126,RECEIVED
Subscriber_001,topicA,topicA-359,172.172.1.2:1883,1551644409235,RECEIVED
Subscriber_001,topicA,topicA-360,172.172.1.2:1883,1551644409333,RECEIVED
Subscriber_001,topicA,topicA-361,172.172.1.2:1883,1551644409427,RECEIVED
Subscriber_001,topicA,topicA-362,172.172.1.2:1883,1551644409527,RECEIVED
Subscriber_001,topicA,topicA-363,172.172.1.2:1883,1551644409635,RECEIVED
Subscriber_001,topicA,topicA-364,172.172.1.2:1883,1551644409735,RECEIVED
Subscriber_001,topicA,topicA-365,172.172.1.2:1883,1551644409827,RECEIVED
Subscriber_001,topicA,topicA-366,172.172.1.2:1883,1551644409936,RECEIVED
Subscriber_001,topicA,topicA-367,172.172.1.2:1883,1551644410028,RECEIVED
Subscriber_001,topicA,topicA-368,172.172.1.2:1883,1551644410128,RECEIVED
Subscriber_001,topicA,topicA-369,172.172.1.2:1883,1551644410225,RECEIVED
Subscriber_001,topicA,topicA-370,172.172.1.2:1883,1551644410329,RECEIVED
Subscriber_001,topicA,topicA-371,172.172.1.2:1883,1551644410429,RECEIVED
Subscriber_001,topicA,topicA-372,172.172.1.2:1883,1551644410533,RECEIVED
Subscriber_001,topicA,topicA-373,172.172.1.2:1883,1551644410629,RECEIVED
Subscriber_001,topicA,topicA-374,172.172.1.2:1883,1551644410729,RECEIVED
Subscriber_001,topicA,topicA-375,172.172.1.2:1883,1551644410832,RECEIVED
Subscriber_001,topicA,topicA-376,172.172.1.2:1883,1551644410928,RECEIVED
Subscriber_001,topicA,topicA-377,172.172.1.2:1883,1551644411030,RECEIVED
Subscriber_001,topicA,topicA-378,172.172.1.2:1883,1551644411132,RECEIVED
Subscriber_001,topicA,topicA-379,172.172.1.2:1883,1551644411238,RECEIVED
Subscriber_001,topicA,topicA-380,172.172.1.2:1883,1551644411339,RECEIVED
Subscriber_001,topicA,topicA-381,172.172.1.2:1883,1551644411444,RECEIVED
Subscriber_001,topicA,topicA-382,172.172.1.2:1883,1551644411528,RECEIVED
Subscriber_001,topicA,topicA-383,172.172.1.2:1883,1551644411625,RECEIVED
Subscriber_001,topicA,topicA-384,172.172.1.2:1883,1551644411742,RECEIVED
Subscriber_001,topicA,topicA-385,172.172.1.2:1883,1551644411838,RECEIVED
Subscriber_001,topicA,topicA-386,172.172.1.2:1883,1551644411933,RECEIVED
Subscriber_001,topicA,topicA-387,172.172.1.2:1883,1551644412027,RECEIVED
Subscriber_001,topicA,topicA-388,172.172.1.2:1883,1551644412127,RECEIVED
Subscriber_001,topicA,topicA-389,172.172.1.2:1883,1551644412231,RECEIVED
Subscriber_001,topicA,topicA-390,172.172.1.2:1883,1551644412325,RECEIVED
Subscriber_001,topicA,topicA-391,172.172.1.2:1883,1551644412434,RECEIVED
Subscriber_001,topicA,topicA-392,172.172.1.2:1883,1551644412538,RECEIVED
Subscriber_001,topicA,topicA-393,172.172.1.2:1883,1551644412636,RECEIVED
Subscriber_001,topicA,topicA-394,172.172.1.2:1883,1551644412734,RECEIVED
Subscriber_001,topicA,topicA-395,172.172.1.2:1883,1551644412829,RECEIVED
Subscriber_001,topicA,topicA-396,172.172.1.2:1883,1551644412934,RECEIVED
Subscriber_001,topicA,topicA-397,172.172.1.2:1883,1551644413035,RECEIVED
Subscriber_001,topicA,topicA-398,172.172.1.2:1883,1551644413134,RECEIVED
Subscriber_001,topicA,topicA-399,172.172.1.2:1883,1551644413225,RECEIVED
Subscriber_001,topicA,topicA-400,172.172.1.2:1883,1551644413328,RECEIVED
Subscriber_001,topicA,topicA-401,172.172.1.2:1883,1551644413433,RECEIVED
Subscriber_001,topicA,topicA-402,172.172.1.2:1883,1551644413533,RECEIVED
Subscriber_001,topicA,topicA-403,172.172.1.2:1883,1551644413633,RECEIVED
Subscriber_001,topicA,topicA-404,172.172.1.2:1883,1551644413726,RECEIVED
Subscriber_001,topicA,topicA-405,172.172.1.2:1883,1551644413829,RECEIVED
Subscriber_001,topicA,topicA-406,172.172.1.2:1883,1551644413927,RECEIVED
Subscriber_001,topicA,topicA-407,172.172.1.2:1883,1551644414028,RECEIVED
Subscriber_001,topicA,topicA-408,172.172.1.2:1883,1551644414150,RECEIVED
Subscriber_001,topicA,topicA-409,172.172.1.2:1883,1551644414230,RECEIVED
Subscriber_001,topicA,topicA-410,172.172.1.2:1883,1551644414326,RECEIVED
Subscriber_001,topicA,topicA-411,172.172.1.2:1883,1551644414426,RECEIVED
Subscriber_001,topicA,topicA-412,172.172.1.2:1883,1551644414538,RECEIVED
Subscriber_001,topicA,topicA-413,172.172.1.2:1883,1551644414631,RECEIVED
Subscriber_001,topicA,topicA-414,172.172.1.2:1883,1551644414731,RECEIVED
Subscriber_001,topicA,topicA-415,172.172.1.2:1883,1551644414833,RECEIVED
Subscriber_001,topicA,topicA-416,172.172.1.2:1883,1551644414945,RECEIVED
Subscriber_001,topicA,topicA-417,172.172.1.2:1883,1551644415031,RECEIVED
Subscriber_001,topicA,topicA-418,172.172.1.2:1883,1551644415137,RECEIVED
Subscriber_001,topicA,topicA-419,172.172.1.2:1883,1551644415235,RECEIVED
Subscriber_001,topicA,topicA-420,172.172.1.2:1883,1551644415330,RECEIVED
Subscriber_001,topicA,topicA-421,172.172.1.2:1883,1551644415426,RECEIVED
Subscriber_001,topicA,topicA-422,172.172.1.2:1883,1551644415534,RECEIVED
Subscriber_001,topicA,topicA-423,172.172.1.2:1883,1551644415635,RECEIVED
Subscriber_001,topicA,topicA-424,172.172.1.2:1883,1551644415731,RECEIVED
Subscriber_001,topicA,topicA-425,172.172.1.2:1883,1551644415834,RECEIVED
Subscriber_001,topicA,topicA-426,172.172.1.2:1883,1551644415937,RECEIVED
Subscriber_001,topicA,topicA-427,172.172.1.2:1883,1551644416035,RECEIVED
Subscriber_001,topicA,topicA-428,172.172.1.2:1883,1551644416139,RECEIVED
Subscriber_001,topicA,topicA-429,172.172.1.2:1883,1551644416255,RECEIVED
Subscriber_001,topicA,topicA-430,172.172.1.2:1883,1551644416333,RECEIVED
Subscriber_001,topicA,topicA-431,172.172.1.2:1883,1551644416442,RECEIVED
Subscriber_001,topicA,topicA-432,172.172.1.2:1883,1551644416539,RECEIVED
Subscriber_001,topicA,topicA-433,172.172.1.2:1883,1551644416640,RECEIVED
Subscriber_001,topicA,topicA-434,172.172.1.2:1883,1551644416728,RECEIVED
Subscriber_001,topicA,topicA-435,172.172.1.2:1883,1551644416863,RECEIVED
Subscriber_001,topicA,topicA-436,172.172.1.2:1883,1551644416943,RECEIVED
Subscriber_001,topicA,topicA-437,172.172.1.2:1883,1551644417039,RECEIVED
Subscriber_001,topicA,topicA-438,172.172.1.2:1883,1551644417130,RECEIVED
Subscriber_001,topicA,topicA-439,172.172.1.2:1883,1551644417231,RECEIVED
Subscriber_001,topicA,topicA-440,172.172.1.2:1883,1551644417328,RECEIVED
Subscriber_001,topicA,topicA-441,172.172.1.2:1883,1551644417438,RECEIVED
Subscriber_001,topicA,topicA-442,172.172.1.2:1883,1551644417535,RECEIVED
Subscriber_001,topicA,topicA-443,172.172.1.2:1883,1551644417638,RECEIVED
Subscriber_001,topicA,topicA-444,172.172.1.2:1883,1551644417738,RECEIVED
Subscriber_001,topicA,topicA-445,172.172.1.2:1883,1551644417831,RECEIVED
Subscriber_001,topicA,topicA-446,172.172.1.2:1883,1551644417939,RECEIVED
Subscriber_001,topicA,topicA-447,172.172.1.2:1883,1551644418038,RECEIVED
Subscriber_001,topicA,topicA-448,172.172.1.2:1883,1551644418139,RECEIVED
Subscriber_001,topicA,topicA-449,172.172.1.2:1883,1551644418237,RECEIVED
Subscriber_001,topicA,topicA-450,172.172.1.2:1883,1551644418330,RECEIVED
Subscriber_001,topicA,topicA-451,172.172.1.2:1883,1551644418442,RECEIVED
Subscriber_001,topicA,topicA-452,172.172.1.2:1883,1551644418532,RECEIVED
Subscriber_001,topicA,topicA-453,172.172.1.2:1883,1551644418641,RECEIVED
Subscriber_001,topicA,topicA-454,172.172.1.2:1883,1551644418732,RECEIVED
Subscriber_001,topicA,topicA-455,172.172.1.2:1883,1551644418832,RECEIVED
Subscriber_001,topicA,topicA-456,172.172.1.2:1883,1551644418936,RECEIVED
Subscriber_001,topicA,topicA-457,172.172.1.2:1883,1551644419040,RECEIVED
Subscriber_001,topicA,topicA-458,172.172.1.2:1883,1551644419131,RECEIVED
Subscriber_001,topicA,topicA-459,172.172.1.2:1883,1551644419243,RECEIVED
Subscriber_001,topicA,topicA-460,172.172.1.2:1883,1551644419336,RECEIVED
Subscriber_001,topicA,topicA-461,172.172.1.2:1883,1551644419428,RECEIVED
Subscriber_001,topicA,topicA-462,172.172.1.2:1883,1551644419537,RECEIVED
Subscriber_001,topicA,topicA-463,172.172.1.2:1883,1551644419641,RECEIVED
Subscriber_001,topicA,topicA-464,172.172.1.2:1883,1551644419734,RECEIVED
Subscriber_001,topicA,topicA-465,172.172.1.2:1883,1551644419835,RECEIVED
Subscriber_001,topicA,topicA-466,172.172.1.2:1883,1551644419931,RECEIVED
Subscriber_001,topicA,topicA-467,172.172.1.2:1883,1551644420042,RECEIVED
Subscriber_001,topicA,topicA-468,172.172.1.2:1883,1551644420145,RECEIVED
Subscriber_001,topicA,topicA-469,172.172.1.2:1883,1551644420236,RECEIVED
Subscriber_001,topicA,topicA-470,172.172.1.2:1883,1551644420339,RECEIVED
Subscriber_001,topicA,topicA-471,172.172.1.2:1883,1551644420430,RECEIVED
Subscriber_001,topicA,topicA-472,172.172.1.2:1883,1551644420535,RECEIVED
Subscriber_001,topicA,topicA-473,172.172.1.2:1883,1551644420630,RECEIVED
Subscriber_001,topicA,topicA-474,172.172.1.2:1883,1551644420735,RECEIVED
Subscriber_001,topicA,topicA-475,172.172.1.2:1883,1551644420832,RECEIVED
Subscriber_001,topicA,topicA-476,172.172.1.2:1883,1551644420936,RECEIVED
Subscriber_001,topicA,topicA-477,172.172.1.2:1883,1551644421029,RECEIVED
Subscriber_001,topicA,topicA-478,172.172.1.2:1883,1551644421137,RECEIVED
Subscriber_001,topicA,topicA-479,172.172.1.2:1883,1551644421238,RECEIVED
Subscriber_001,topicA,topicA-480,172.172.1.2:1883,1551644421333,RECEIVED
Subscriber_001,topicA,topicA-481,172.172.1.2:1883,1551644421430,RECEIVED
Subscriber_001,topicA,topicA-482,172.172.1.2:1883,1551644421529,RECEIVED
Subscriber_001,topicA,topicA-483,172.172.1.2:1883,1551644421633,RECEIVED
Subscriber_001,topicA,topicA-484,172.172.1.2:1883,1551644421731,RECEIVED
Subscriber_001,topicA,topicA-485,172.172.1.2:1883,1551644421839,RECEIVED
Subscriber_001,topicA,topicA-486,172.172.1.2:1883,1551644421927,RECEIVED
Subscriber_001,topicA,topicA-487,172.172.1.2:1883,1551644422048,RECEIVED
Subscriber_001,topicA,topicA-488,172.172.1.2:1883,1551644422142,RECEIVED
Subscriber_001,topicA,topicA-489,172.172.1.2:1883,1551644422228,RECEIVED
Subscriber_001,topicA,topicA-490,172.172.1.2:1883,1551644422333,RECEIVED
Subscriber_001,topicA,topicA-491,172.172.1.2:1883,1551644422441,RECEIVED
Subscriber_001,topicA,topicA-492,172.172.1.2:1883,1551644422540,RECEIVED
Subscriber_001,topicA,topicA-493,172.172.1.2:1883,1551644422641,RECEIVED
Subscriber_001,topicA,topicA-494,172.172.1.2:1883,1551644422742,RECEIVED
Subscriber_001,topicA,topicA-495,172.172.1.2:1883,1551644422846,RECEIVED
Subscriber_001,topicA,topicA-496,172.172.1.2:1883,1551644422936,RECEIVED
Subscriber_001,topicA,topicA-497,172.172.1.2:1883,1551644423040,RECEIVED
Subscriber_001,topicA,topicA-498,172.172.1.2:1883,1551644423136,RECEIVED
Subscriber_001,topicA,topicA-499,172.172.1.2:1883,1551644423243,RECEIVED
Subscriber_001,topicA,topicA-500,172.172.1.2:1883,1551644423340,RECEIVED
Subscriber_001,topicA,topicA-501,172.172.1.2:1883,1551644423440,RECEIVED
Subscriber_001,topicA,topicA-502,172.172.1.2:1883,1551644423542,RECEIVED
Subscriber_001,topicA,topicA-503,172.172.1.2:1883,1551644423645,RECEIVED
Subscriber_001,topicA,topicA-504,172.172.1.2:1883,1551644423736,RECEIVED
Subscriber_001,topicA,topicA-505,172.172.1.2:1883,1551644423836,RECEIVED
Subscriber_001,topicA,topicA-506,172.172.1.2:1883,1551644423937,RECEIVED
Subscriber_001,topicA,topicA-507,172.172.1.2:1883,1551644424037,RECEIVED
Subscriber_001,topicA,topicA-508,172.172.1.2:1883,1551644424141,RECEIVED
Subscriber_001,topicA,topicA-509,172.172.1.2:1883,1551644424233,RECEIVED
Subscriber_001,topicA,topicA-510,172.172.1.2:1883,1551644424331,RECEIVED
Subscriber_001,topicA,topicA-511,172.172.1.2:1883,1551644424439,RECEIVED
Subscriber_001,topicA,topicA-512,172.172.1.2:1883,1551644424531,RECEIVED
Subscriber_001,topicA,topicA-513,172.172.1.2:1883,1551644424642,RECEIVED
Subscriber_001,topicA,topicA-514,172.172.1.2:1883,1551644424733,RECEIVED
Subscriber_001,topicA,topicA-515,172.172.1.2:1883,1551644424837,RECEIVED
Subscriber_001,topicA,topicA-516,172.172.1.2:1883,1551644424942,RECEIVED
Subscriber_001,topicA,topicA-517,172.172.1.2:1883,1551644425038,RECEIVED
Subscriber_001,topicA,topicA-518,172.172.1.2:1883,1551644425136,RECEIVED
Subscriber_001,topicA,topicA-519,172.172.1.2:1883,1551644425232,RECEIVED
Subscriber_001,topicA,topicA-520,172.172.1.2:1883,1551644425330,RECEIVED
Subscriber_001,topicA,topicA-521,172.172.1.2:1883,1551644425433,RECEIVED
Subscriber_001,topicA,topicA-522,172.172.1.2:1883,1551644425525,RECEIVED
Subscriber_001,topicA,topicA-523,172.172.1.2:1883,1551644425628,RECEIVED
Subscriber_001,topicA,topicA-524,172.172.1.2:1883,1551644425738,RECEIVED
Subscriber_001,topicA,topicA-525,172.172.1.2:1883,1551644425834,RECEIVED
Subscriber_001,topicA,topicA-526,172.172.1.2:1883,1551644425935,RECEIVED
Subscriber_001,topicA,topicA-527,172.172.1.2:1883,1551644426032,RECEIVED
Subscriber_001,topicA,topicA-528,172.172.1.2:1883,1551644426138,RECEIVED
Subscriber_001,topicA,topicA-529,172.172.1.2:1883,1551644426237,RECEIVED
Subscriber_001,topicA,topicA-530,172.172.1.2:1883,1551644426338,RECEIVED
Subscriber_001,topicA,topicA-531,172.172.1.2:1883,1551644426435,RECEIVED
Subscriber_001,topicA,topicA-532,172.172.1.2:1883,1551644426533,RECEIVED
Subscriber_001,topicA,topicA-533,172.172.1.2:1883,1551644426631,RECEIVED
Subscriber_001,topicA,topicA-534,172.172.1.2:1883,1551644426742,RECEIVED
Subscriber_001,topicA,topicA-535,172.172.1.2:1883,1551644426834,RECEIVED
Subscriber_001,topicA,topicA-536,172.172.1.2:1883,1551644426931,RECEIVED
Subscriber_001,topicA,topicA-537,172.172.1.2:1883,1551644427039,RECEIVED
Subscriber_001,topicA,topicA-538,172.172.1.2:1883,1551644427139,RECEIVED
Subscriber_001,topicA,topicA-539,172.172.1.2:1883,1551644427234,RECEIVED
Subscriber_001,topicA,topicA-540,172.172.1.2:1883,1551644427333,RECEIVED
Subscriber_001,topicA,topicA-541,172.172.1.2:1883,1551644427436,RECEIVED
Subscriber_001,topicA,topicA-542,172.172.1.2:1883,1551644427538,RECEIVED
Subscriber_001,topicA,topicA-543,172.172.1.2:1883,1551644427633,RECEIVED
Subscriber_001,topicA,topicA-544,172.172.1.2:1883,1551644427733,RECEIVED
Subscriber_001,topicA,topicA-545,172.172.1.2:1883,1551644427833,RECEIVED
Subscriber_001,topicA,topicA-546,172.172.1.2:1883,1551644427937,RECEIVED
Subscriber_001,topicA,topicA-547,172.172.1.2:1883,1551644428034,RECEIVED
Subscriber_001,topicA,topicA-548,172.172.1.2:1883,1551644428135,RECEIVED
Subscriber_001,topicA,topicA-549,172.172.1.2:1883,1551644428236,RECEIVED
Subscriber_001,topicA,topicA-550,172.172.1.2:1883,1551644428341,RECEIVED
Subscriber_001,topicA,topicA-551,172.172.1.2:1883,1551644428448,RECEIVED
Subscriber_001,topicA,topicA-552,172.172.1.2:1883,1551644428539,RECEIVED
Subscriber_001,topicA,topicA-553,172.172.1.2:1883,1551644428642,RECEIVED
Subscriber_001,topicA,topicA-554,172.172.1.2:1883,1551644428736,RECEIVED
Subscriber_001,topicA,topicA-555,172.172.1.2:1883,1551644428845,RECEIVED
Subscriber_001,topicA,topicA-556,172.172.1.2:1883,1551644428946,RECEIVED
Subscriber_001,topicA,topicA-557,172.172.1.2:1883,1551644429046,RECEIVED
Subscriber_001,topicA,topicA-558,172.172.1.2:1883,1551644429150,RECEIVED
Subscriber_001,topicA,topicA-559,172.172.1.2:1883,1551644429242,RECEIVED
Subscriber_001,topicA,topicA-560,172.172.1.2:1883,1551644429341,RECEIVED
Subscriber_001,topicA,topicA-561,172.172.1.2:1883,1551644429445,RECEIVED
Subscriber_001,topicA,topicA-562,172.172.1.2:1883,1551644429531,RECEIVED
Subscriber_001,topicA,topicA-563,172.172.1.2:1883,1551644429632,RECEIVED
Subscriber_001,topicA,topicA-564,172.172.1.2:1883,1551644429737,RECEIVED
Subscriber_001,topicA,topicA-565,172.172.1.2:1883,1551644429831,RECEIVED
Subscriber_001,topicA,topicA-566,172.172.1.2:1883,1551644429933,RECEIVED
Subscriber_001,topicA,topicA-567,172.172.1.2:1883,1551644430028,RECEIVED
Subscriber_001,topicA,topicA-568,172.172.1.2:1883,1551644430136,RECEIVED
Subscriber_001,topicA,topicA-569,172.172.1.2:1883,1551644430225,RECEIVED
Subscriber_001,topicA,topicA-570,172.172.1.2:1883,1551644430338,RECEIVED
Subscriber_001,topicA,topicA-571,172.172.1.2:1883,1551644430427,RECEIVED
Subscriber_001,topicA,topicA-572,172.172.1.2:1883,1551644430538,RECEIVED
Subscriber_001,topicA,topicA-573,172.172.1.2:1883,1551644430641,RECEIVED
Subscriber_001,topicA,topicA-574,172.172.1.2:1883,1551644430739,RECEIVED
Subscriber_001,topicA,topicA-575,172.172.1.2:1883,1551644430831,RECEIVED
Subscriber_001,topicA,topicA-576,172.172.1.2:1883,1551644430931,RECEIVED
Subscriber_001,topicA,topicA-577,172.172.1.2:1883,1551644431040,RECEIVED
Subscriber_001,topicA,topicA-578,172.172.1.2:1883,1551644431135,RECEIVED
Subscriber_001,topicA,topicA-579,172.172.1.2:1883,1551644431238,RECEIVED
Subscriber_001,topicA,topicA-580,172.172.1.2:1883,1551644431344,RECEIVED
Subscriber_001,topicA,topicA-581,172.172.1.2:1883,1551644431432,RECEIVED
Subscriber_001,topicA,topicA-582,172.172.1.2:1883,1551644431534,RECEIVED
Subscriber_001,topicA,topicA-583,172.172.1.2:1883,1551644431633,RECEIVED
Subscriber_001,topicA,topicA-584,172.172.1.2:1883,1551644431739,RECEIVED
Subscriber_001,topicA,topicA-585,172.172.1.2:1883,1551644431840,RECEIVED
Subscriber_001,topicA,topicA-586,172.172.1.2:1883,1551644431933,RECEIVED
Subscriber_001,topicA,topicA-587,172.172.1.2:1883,1551644432036,RECEIVED
Subscriber_001,topicA,topicA-588,172.172.1.2:1883,1551644432141,RECEIVED
Subscriber_001,topicA,topicA-589,172.172.1.2:1883,1551644432245,RECEIVED
Subscriber_001,topicA,topicA-590,172.172.1.2:1883,1551644432334,RECEIVED
Subscriber_001,topicA,topicA-591,172.172.1.2:1883,1551644432433,RECEIVED
Subscriber_001,topicA,topicA-592,172.172.1.2:1883,1551644432540,RECEIVED
Subscriber_001,topicA,topicA-593,172.172.1.2:1883,1551644432638,RECEIVED
Subscriber_001,topicA,topicA-594,172.172.1.2:1883,1551644432739,RECEIVED
Subscriber_001,topicA,topicA-595,172.172.1.2:1883,1551644432842,RECEIVED
Subscriber_001,topicA,topicA-596,172.172.1.2:1883,1551644432938,RECEIVED
Subscriber_001,topicA,topicA-597,172.172.1.2:1883,1551644433053,RECEIVED
Subscriber_001,topicA,topicA-598,172.172.1.2:1883,1551644433130,RECEIVED
Subscriber_001,topicA,topicA-599,172.172.1.2:1883,1551644433236,RECEIVED
Subscriber_001,topicA,topicA-600,172.172.1.2:1883,1551644433339,RECEIVED
Subscriber_001,topicA,topicA-601,172.172.1.2:1883,1551644433438,RECEIVED
Subscriber_001,topicA,topicA-602,172.172.1.2:1883,1551644433536,RECEIVED
Subscriber_001,topicA,topicA-603,172.172.1.2:1883,1551644433638,RECEIVED
Subscriber_001,topicA,topicA-604,172.172.1.2:1883,1551644433742,RECEIVED
Subscriber_001,topicA,topicA-605,172.172.1.2:1883,1551644433833,RECEIVED
Subscriber_001,topicA,topicA-606,172.172.1.2:1883,1551644433936,RECEIVED
Subscriber_001,topicA,topicA-607,172.172.1.2:1883,1551644434035,RECEIVED
Subscriber_001,topicA,topicA-608,172.172.1.2:1883,1551644434134,RECEIVED
Subscriber_001,topicA,topicA-609,172.172.1.2:1883,1551644434242,RECEIVED
Subscriber_001,topicA,topicA-610,172.172.1.2:1883,1551644434336,RECEIVED
Subscriber_001,topicA,topicA-611,172.172.1.2:1883,1551644434448,RECEIVED
Subscriber_001,topicA,topicA-612,172.172.1.2:1883,1551644434546,RECEIVED
Subscriber_001,topicA,topicA-613,172.172.1.2:1883,1551644434636,RECEIVED
Subscriber_001,topicA,topicA-614,172.172.1.2:1883,1551644434735,RECEIVED
Subscriber_001,topicA,topicA-615,172.172.1.2:1883,1551644434835,RECEIVED
Subscriber_001,topicA,topicA-616,172.172.1.2:1883,1551644434937,RECEIVED
Subscriber_001,topicA,topicA-617,172.172.1.2:1883,1551644435030,RECEIVED
Subscriber_001,topicA,topicA-618,172.172.1.2:1883,1551644435139,RECEIVED
Subscriber_001,topicA,topicA-619,172.172.1.2:1883,1551644435234,RECEIVED
Subscriber_001,topicA,topicA-620,172.172.1.2:1883,1551644435343,RECEIVED
Subscriber_001,topicA,topicA-621,172.172.1.2:1883,1551644435430,RECEIVED
Subscriber_001,topicA,topicA-622,172.172.1.2:1883,1551644435535,RECEIVED
Subscriber_001,topicA,topicA-623,172.172.1.2:1883,1551644435627,RECEIVED
Subscriber_001,topicA,topicA-624,172.172.1.2:1883,1551644435734,RECEIVED
Subscriber_001,topicA,topicA-625,172.172.1.2:1883,1551644435830,RECEIVED
Subscriber_001,topicA,topicA-626,172.172.1.2:1883,1551644435934,RECEIVED
Subscriber_001,topicA,topicA-627,172.172.1.2:1883,1551644436025,RECEIVED
Subscriber_001,topicA,topicA-628,172.172.1.2:1883,1551644436132,RECEIVED
Subscriber_001,topicA,topicA-629,172.172.1.2:1883,1551644436232,RECEIVED
Subscriber_001,topicA,topicA-630,172.172.1.2:1883,1551644436336,RECEIVED
Subscriber_001,topicA,topicA-631,172.172.1.2:1883,1551644436427,RECEIVED
Subscriber_001,topicA,topicA-632,172.172.1.2:1883,1551644436535,RECEIVED
Subscriber_001,topicA,topicA-633,172.172.1.2:1883,1551644436629,RECEIVED
Subscriber_001,topicA,topicA-634,172.172.1.2:1883,1551644436726,RECEIVED
Subscriber_001,topicA,topicA-635,172.172.1.2:1883,1551644436827,RECEIVED
Subscriber_001,topicA,topicA-636,172.172.1.2:1883,1551644436931,RECEIVED
Subscriber_001,topicA,topicA-637,172.172.1.2:1883,1551644437028,RECEIVED
Subscriber_001,topicA,topicA-638,172.172.1.2:1883,1551644437131,RECEIVED
Subscriber_001,topicA,topicA-639,172.172.1.2:1883,1551644437230,RECEIVED
Subscriber_001,topicA,topicA-640,172.172.1.2:1883,1551644437332,RECEIVED
Subscriber_001,topicA,topicA-641,172.172.1.2:1883,1551644437433,RECEIVED
Subscriber_001,topicA,topicA-642,172.172.1.2:1883,1551644437537,RECEIVED
Subscriber_001,topicA,topicA-643,172.172.1.2:1883,1551644437661,RECEIVED
Subscriber_001,topicA,topicA-644,172.172.1.2:1883,1551644437731,RECEIVED
Subscriber_001,topicA,topicA-645,172.172.1.2:1883,1551644437830,RECEIVED
Subscriber_001,topicA,topicA-646,172.172.1.2:1883,1551644437934,RECEIVED
Subscriber_001,topicA,topicA-647,172.172.1.2:1883,1551644438027,RECEIVED
Subscriber_001,topicA,topicA-648,172.172.1.2:1883,1551644438131,RECEIVED
Subscriber_001,topicA,topicA-649,172.172.1.2:1883,1551644438236,RECEIVED
Subscriber_001,topicA,topicA-650,172.172.1.2:1883,1551644438337,RECEIVED
Subscriber_001,topicA,topicA-651,172.172.1.2:1883,1551644438434,RECEIVED
Subscriber_001,topicA,topicA-652,172.172.1.2:1883,1551644438543,RECEIVED
Subscriber_001,topicA,topicA-653,172.172.1.2:1883,1551644438634,RECEIVED
Subscriber_001,topicA,topicA-654,172.172.1.2:1883,1551644438727,RECEIVED
