889  [hawtdispatch-DEFAULT-1] INFO  DataIntegrityVerifier  - Ok. clientId=Subscriber_001, topic=topicA, qos=AT_MOST_ONCE
891  [hawtdispatch-DEFAULT-1] INFO  DataIntegrityVerifier  - Ok. clientId=Subscriber_001, topic=topicA, qos=AT_MOST_ONCE
892  [hawtdispatch-DEFAULT-1] INFO  DataIntegrityVerifier  - Ok. clientId=Subscriber_001, topic=topicA, qos=AT_MOST_ONCE
977  [hawtdispatch-DEFAULT-1] INFO  DataIntegrityVerifier  - Ok. clientId=Subscriber_001, topic=topicA, qos=AT_MOST_ONCE
1087 [hawtdispatch-DEFAULT-1] INFO  DataIntegrityVerifier  - Ok. clientId=Subscriber_001, topic=topicA, qos=AT_MOST_ONCE
1171 [hawtdispatch-DEFAULT-1] INFO  DataIntegrityVerifier  - Ok. clientId=Subscriber_001, topic=topicA, qos=AT_MOST_ONCE
1287 [hawtdispatch-DEFAULT-1] INFO  DataIntegrityVerifier  - Ok. clientId=Subscriber_001, topic=topicA, qos=AT_MOST_ONCE
1381 [hawtdispatch-DEFAULT-1] INFO  DataIntegrityVerifier  - Ok. clientId=Subscriber_001, topic=topicA, qos=AT_MOST_ONCE
1486 [hawtdispatch-DEFAULT-1] INFO  DataIntegrityVerifier  - Ok. clientId=Subscriber_001, topic=topicA, qos=AT_MOST_ONCE
1584 [hawtdispatch-DEFAULT-1] INFO  DataIntegrityVerifier  - Ok. clientId=Subscriber_001, topic=topicA, qos=AT_MOST_ONCE
1699 [hawtdispatch-DEFAULT-1] INFO  DataIntegrityVerifier  - Ok. clientId=Subscriber_001, topic=topicA, qos=AT_MOST_ONCE
1783 [hawtdispatch-DEFAULT-1] INFO  DataIntegrityVerifier  - Ok. clientId=Subscriber_001, topic=topicA, qos=AT_MOST_ONCE
1893 [hawtdispatch-DEFAULT-1] INFO  DataIntegrityVerifier  - Ok. clientId=Subscriber_001, topic=topicA, qos=AT_MOST_ONCE
1976 [hawtdispatch-DEFAULT-1] INFO  DataIntegrityVerifier  - Ok. clientId=Subscriber_001, topic=topicA, qos=AT_MOST_ONCE
2087 [hawtdispatch-DEFAULT-1] INFO  DataIntegrityVerifier  - Ok. clientId=Subscriber_001, topic=topicA, qos=AT_MOST_ONCE
2198 [hawtdispatch-DEFAULT-1] INFO  DataIntegrityVerifier  - Ok. clientId=Subscriber_001, topic=topicA, qos=AT_MOST_ONCE
2282 [hawtdispatch-DEFAULT-1] INFO  DataIntegrityVerifier  - Ok. clientId=Subscriber_001, topic=topicA, qos=AT_MOST_ONCE
2377 [hawtdispatch-DEFAULT-1] INFO  DataIntegrityVerifier  - Ok. clientId=Subscriber_001, topic=topicA, qos=AT_MOST_ONCE
2478 [hawtdispatch-DEFAULT-1] INFO  DataIntegrityVerifier  - Ok. clientId=Subscriber_001, topic=topicA, qos=AT_MOST_ONCE
2573 [hawtdispatch-DEFAULT-1] INFO  DataIntegrityVerifier  - Ok. clientId=Subscriber_001, topic=topicA, qos=AT_MOST_ONCE
2677 [hawtdispatch-DEFAULT-1] INFO  DataIntegrityVerifier  - Ok. clientId=Subscriber_001, topic=topicA, qos=AT_MOST_ONCE
2774 [hawtdispatch-DEFAULT-1] INFO  DataIntegrityVerifier  - Ok. clientId=Subscriber_001, topic=topicA, qos=AT_MOST_ONCE
2872 [hawtdispatch-DEFAULT-1] INFO  DataIntegrityVerifier  - Ok. clientId=Subscriber_001, topic=topicA, qos=AT_MOST_ONCE
2974 [hawtdispatch-DEFAULT-1] INFO  DataIntegrityVerifier  - Ok. clientId=Subscriber_001, topic=topicA, qos=AT_MOST_ONCE
3071 [hawtdispatch-DEFAULT-1] INFO  DataIntegrityVerifier  - Ok. clientId=Subscriber_001, topic=topicA, qos=AT_MOST_ONCE
3173 [hawtdispatch-DEFAULT-1] INFO  DataIntegrityVerifier  - Ok. clientId=Subscriber_001, topic=topicA, qos=AT_MOST_ONCE
3270 [hawtdispatch-DEFAULT-1] INFO  DataIntegrityVerifier  - Ok. clientId=Subscriber_001, topic=topicA, qos=AT_MOST_ONCE
3388 [hawtdispatch-DEFAULT-1] INFO  DataIntegrityVerifier  - Ok. clientId=Subscriber_001, topic=topicA, qos=AT_MOST_ONCE
3478 [hawtdispatch-DEFAULT-1] INFO  DataIntegrityVerifier  - Ok. clientId=Subscriber_001, topic=topicA, qos=AT_MOST_ONCE
3576 [hawtdispatch-DEFAULT-1] INFO  DataIntegrityVerifier  - Ok. clientId=Subscriber_001, topic=topicA, qos=AT_MOST_ONCE
3670 [hawtdispatch-DEFAULT-1] INFO  DataIntegrityVerifier  - Ok. clientId=Subscriber_001, topic=topicA, qos=AT_MOST_ONCE
3778 [hawtdispatch-DEFAULT-1] INFO  DataIntegrityVerifier  - Ok. clientId=Subscriber_001, topic=topicA, qos=AT_MOST_ONCE
3871 [hawtdispatch-DEFAULT-1] INFO  DataIntegrityVerifier  - Ok. clientId=Subscriber_001, topic=topicA, qos=AT_MOST_ONCE
3972 [hawtdispatch-DEFAULT-1] INFO  DataIntegrityVerifier  - Ok. clientId=Subscriber_001, topic=topicA, qos=AT_MOST_ONCE
4074 [hawtdispatch-DEFAULT-1] INFO  DataIntegrityVerifier  - Ok. clientId=Subscriber_001, topic=topicA, qos=AT_MOST_ONCE
4173 [hawtdispatch-DEFAULT-1] INFO  DataIntegrityVerifier  - Ok. clientId=Subscriber_001, topic=topicA, qos=AT_MOST_ONCE
4278 [hawtdispatch-DEFAULT-1] INFO  DataIntegrityVerifier  - Ok. clientId=Subscriber_001, topic=topicA, qos=AT_MOST_ONCE
4377 [hawtdispatch-DEFAULT-1] INFO  DataIntegrityVerifier  - Ok. clientId=Subscriber_001, topic=topicA, qos=AT_MOST_ONCE
4470 [hawtdispatch-DEFAULT-1] INFO  DataIntegrityVerifier  - Ok. clientId=Subscriber_001, topic=topicA, qos=AT_MOST_ONCE
4583 [hawtdispatch-DEFAULT-1] INFO  DataIntegrityVerifier  - Ok. clientId=Subscriber_001, topic=topicA, qos=AT_MOST_ONCE
4674 [hawtdispatch-DEFAULT-1] INFO  DataIntegrityVerifier  - Ok. clientId=Subscriber_001, topic=topicA, qos=AT_MOST_ONCE
4784 [hawtdispatch-DEFAULT-1] INFO  DataIntegrityVerifier  - Ok. clientId=Subscriber_001, topic=topicA, qos=AT_MOST_ONCE
4889 [hawtdispatch-DEFAULT-1] INFO  DataIntegrityVerifier  - Ok. clientId=Subscriber_001, topic=topicA, qos=AT_MOST_ONCE
4979 [hawtdispatch-DEFAULT-1] INFO  DataIntegrityVerifier  - Ok. clientId=Subscriber_001, topic=topicA, qos=AT_MOST_ONCE
5071 [hawtdispatch-DEFAULT-1] INFO  DataIntegrityVerifier  - Ok. clientId=Subscriber_001, topic=topicA, qos=AT_MOST_ONCE
5178 [hawtdispatch-DEFAULT-1] INFO  DataIntegrityVerifier  - Ok. clientId=Subscriber_001, topic=topicA, qos=AT_MOST_ONCE
5269 [hawtdispatch-DEFAULT-1] INFO  DataIntegrityVerifier  - Ok. clientId=Subscriber_001, topic=topicA, qos=AT_MOST_ONCE
5370 [hawtdispatch-DEFAULT-1] INFO  DataIntegrityVerifier  - Ok. clientId=Subscriber_001, topic=topicA, qos=AT_MOST_ONCE
5480 [hawtdispatch-DEFAULT-1] INFO  DataIntegrityVerifier  - Ok. clientId=Subscriber_001, topic=topicA, qos=AT_MOST_ONCE
5583 [hawtdispatch-DEFAULT-1] INFO  DataIntegrityVerifier  - Ok. clientId=Subscriber_001, topic=topicA, qos=AT_MOST_ONCE
5678 [hawtdispatch-DEFAULT-1] INFO  DataIntegrityVerifier  - Ok. clientId=Subscriber_001, topic=topicA, qos=AT_MOST_ONCE
5777 [hawtdispatch-DEFAULT-1] INFO  DataIntegrityVerifier  - Ok. clientId=Subscriber_001, topic=topicA, qos=AT_MOST_ONCE
5876 [hawtdispatch-DEFAULT-1] INFO  DataIntegrityVerifier  - Ok. clientId=Subscriber_001, topic=topicA, qos=AT_MOST_ONCE
5972 [hawtdispatch-DEFAULT-1] INFO  DataIntegrityVerifier  - Ok. clientId=Subscriber_001, topic=topicA, qos=AT_MOST_ONCE
6077 [hawtdispatch-DEFAULT-1] INFO  DataIntegrityVerifier  - Ok. clientId=Subscriber_001, topic=topicA, qos=AT_MOST_ONCE
6174 [hawtdispatch-DEFAULT-1] INFO  DataIntegrityVerifier  - Ok. clientId=Subscriber_001, topic=topicA, qos=AT_MOST_ONCE
6276 [hawtdispatch-DEFAULT-1] INFO  DataIntegrityVerifier  - Ok. clientId=Subscriber_001, topic=topicA, qos=AT_MOST_ONCE
6381 [hawtdispatch-DEFAULT-1] INFO  DataIntegrityVerifier  - Ok. clientId=Subscriber_001, topic=topicA, qos=AT_MOST_ONCE
6471 [hawtdispatch-DEFAULT-1] INFO  DataIntegrityVerifier  - Ok. clientId=Subscriber_001, topic=topicA, qos=AT_MOST_ONCE
6579 [hawtdispatch-DEFAULT-1] INFO  DataIntegrityVerifier  - Ok. clientId=Subscriber_001, topic=topicA, qos=AT_MOST_ONCE
6681 [hawtdispatch-DEFAULT-1] INFO  DataIntegrityVerifier  - Ok. clientId=Subscriber_001, topic=topicA, qos=AT_MOST_ONCE
6811 [hawtdispatch-DEFAULT-1] INFO  DataIntegrityVerifier  - Ok. clientId=Subscriber_001, topic=topicA, qos=AT_MOST_ONCE
6870 [hawtdispatch-DEFAULT-1] INFO  DataIntegrityVerifier  - Ok. clientId=Subscriber_001, topic=topicA, qos=AT_MOST_ONCE
6979 [hawtdispatch-DEFAULT-1] INFO  DataIntegrityVerifier  - Ok. clientId=Subscriber_001, topic=topicA, qos=AT_MOST_ONCE
7071 [hawtdispatch-DEFAULT-1] INFO  DataIntegrityVerifier  - Ok. clientId=Subscriber_001, topic=topicA, qos=AT_MOST_ONCE
7176 [hawtdispatch-DEFAULT-1] INFO  DataIntegrityVerifier  - Ok. clientId=Subscriber_001, topic=topicA, qos=AT_MOST_ONCE
7275 [hawtdispatch-DEFAULT-1] INFO  DataIntegrityVerifier  - Ok. clientId=Subscriber_001, topic=topicA, qos=AT_MOST_ONCE
7370 [hawtdispatch-DEFAULT-1] INFO  DataIntegrityVerifier  - Ok. clientId=Subscriber_001, topic=topicA, qos=AT_MOST_ONCE
7477 [hawtdispatch-DEFAULT-1] INFO  DataIntegrityVerifier  - Ok. clientId=Subscriber_001, topic=topicA, qos=AT_MOST_ONCE
7578 [hawtdispatch-DEFAULT-1] INFO  DataIntegrityVerifier  - Ok. clientId=Subscriber_001, topic=topicA, qos=AT_MOST_ONCE
7682 [hawtdispatch-DEFAULT-1] INFO  DataIntegrityVerifier  - Ok. clientId=Subscriber_001, topic=topicA, qos=AT_MOST_ONCE
7789 [hawtdispatch-DEFAULT-1] INFO  DataIntegrityVerifier  - Ok. clientId=Subscriber_001, topic=topicA, qos=AT_MOST_ONCE
7890 [hawtdispatch-DEFAULT-1] INFO  DataIntegrityVerifier  - Ok. clientId=Subscriber_001, topic=topicA, qos=AT_MOST_ONCE
7992 [hawtdispatch-DEFAULT-1] INFO  DataIntegrityVerifier  - Ok. clientId=Subscriber_001, topic=topicA, qos=AT_MOST_ONCE
8075 [hawtdispatch-DEFAULT-1] INFO  DataIntegrityVerifier  - Ok. clientId=Subscriber_001, topic=topicA, qos=AT_MOST_ONCE
8173 [hawtdispatch-DEFAULT-1] INFO  DataIntegrityVerifier  - Ok. clientId=Subscriber_001, topic=topicA, qos=AT_MOST_ONCE
8283 [hawtdispatch-DEFAULT-1] INFO  DataIntegrityVerifier  - Ok. clientId=Subscriber_001, topic=topicA, qos=AT_MOST_ONCE
8371 [hawtdispatch-DEFAULT-1] INFO  DataIntegrityVerifier  - Ok. clientId=Subscriber_001, topic=topicA, qos=AT_MOST_ONCE
8482 [hawtdispatch-DEFAULT-1] INFO  DataIntegrityVerifier  - Ok. clientId=Subscriber_001, topic=topicA, qos=AT_MOST_ONCE
8576 [hawtdispatch-DEFAULT-1] INFO  DataIntegrityVerifier  - Ok. clientId=Subscriber_001, topic=topicA, qos=AT_MOST_ONCE
8683 [hawtdispatch-DEFAULT-1] INFO  DataIntegrityVerifier  - Ok. clientId=Subscriber_001, topic=topicA, qos=AT_MOST_ONCE
8779 [hawtdispatch-DEFAULT-1] INFO  DataIntegrityVerifier  - Ok. clientId=Subscriber_001, topic=topicA, qos=AT_MOST_ONCE
8876 [hawtdispatch-DEFAULT-1] INFO  DataIntegrityVerifier  - Ok. clientId=Subscriber_001, topic=topicA, qos=AT_MOST_ONCE
8980 [hawtdispatch-DEFAULT-1] INFO  DataIntegrityVerifier  - Ok. clientId=Subscriber_001, topic=topicA, qos=AT_MOST_ONCE
9075 [hawtdispatch-DEFAULT-1] INFO  DataIntegrityVerifier  - Ok. clientId=Subscriber_001, topic=topicA, qos=AT_MOST_ONCE
9175 [hawtdispatch-DEFAULT-1] INFO  DataIntegrityVerifier  - Ok. clientId=Subscriber_001, topic=topicA, qos=AT_MOST_ONCE
9278 [hawtdispatch-DEFAULT-1] INFO  DataIntegrityVerifier  - Ok. clientId=Subscriber_001, topic=topicA, qos=AT_MOST_ONCE
9378 [hawtdispatch-DEFAULT-1] INFO  DataIntegrityVerifier  - Ok. clientId=Subscriber_001, topic=topicA, qos=AT_MOST_ONCE
9484 [hawtdispatch-DEFAULT-1] INFO  DataIntegrityVerifier  - Ok. clientId=Subscriber_001, topic=topicA, qos=AT_MOST_ONCE
9581 [hawtdispatch-DEFAULT-1] INFO  DataIntegrityVerifier  - Ok. clientId=Subscriber_001, topic=topicA, qos=AT_MOST_ONCE
9680 [hawtdispatch-DEFAULT-1] INFO  DataIntegrityVerifier  - Ok. clientId=Subscriber_001, topic=topicA, qos=AT_MOST_ONCE
9783 [hawtdispatch-DEFAULT-1] INFO  DataIntegrityVerifier  - Ok. clientId=Subscriber_001, topic=topicA, qos=AT_MOST_ONCE
9894 [hawtdispatch-DEFAULT-1] INFO  DataIntegrityVerifier  - Ok. clientId=Subscriber_001, topic=topicA, qos=AT_MOST_ONCE
9986 [hawtdispatch-DEFAULT-1] INFO  DataIntegrityVerifier  - Ok. clientId=Subscriber_001, topic=topicA, qos=AT_MOST_ONCE
10087 [hawtdispatch-DEFAULT-1] INFO  DataIntegrityVerifier  - Ok. clientId=Subscriber_001, topic=topicA, qos=AT_MOST_ONCE
10187 [hawtdispatch-DEFAULT-1] INFO  DataIntegrityVerifier  - Ok. clientId=Subscriber_001, topic=topicA, qos=AT_MOST_ONCE
10279 [hawtdispatch-DEFAULT-1] INFO  DataIntegrityVerifier  - Ok. clientId=Subscriber_001, topic=topicA, qos=AT_MOST_ONCE
10378 [hawtdispatch-DEFAULT-1] INFO  DataIntegrityVerifier  - Ok. clientId=Subscriber_001, topic=topicA, qos=AT_MOST_ONCE
10474 [hawtdispatch-DEFAULT-1] INFO  DataIntegrityVerifier  - Ok. clientId=Subscriber_001, topic=topicA, qos=AT_MOST_ONCE
10580 [hawtdispatch-DEFAULT-1] INFO  DataIntegrityVerifier  - Ok. clientId=Subscriber_001, topic=topicA, qos=AT_MOST_ONCE
10676 [hawtdispatch-DEFAULT-1] INFO  DataIntegrityVerifier  - Ok. clientId=Subscriber_001, topic=topicA, qos=AT_MOST_ONCE
10774 [hawtdispatch-DEFAULT-1] INFO  DataIntegrityVerifier  - Ok. clientId=Subscriber_001, topic=topicA, qos=AT_MOST_ONCE
10881 [hawtdispatch-DEFAULT-1] INFO  DataIntegrityVerifier  - Ok. clientId=Subscriber_001, topic=topicA, qos=AT_MOST_ONCE
10974 [hawtdispatch-DEFAULT-1] INFO  DataIntegrityVerifier  - Ok. clientId=Subscriber_001, topic=topicA, qos=AT_MOST_ONCE
11080 [hawtdispatch-DEFAULT-1] INFO  DataIntegrityVerifier  - Ok. clientId=Subscriber_001, topic=topicA, qos=AT_MOST_ONCE
11184 [hawtdispatch-DEFAULT-1] INFO  DataIntegrityVerifier  - Ok. clientId=Subscriber_001, topic=topicA, qos=AT_MOST_ONCE
11279 [hawtdispatch-DEFAULT-1] INFO  DataIntegrityVerifier  - Ok. clientId=Subscriber_001, topic=topicA, qos=AT_MOST_ONCE
11375 [hawtdispatch-DEFAULT-1] INFO  DataIntegrityVerifier  - Ok. clientId=Subscriber_001, topic=topicA, qos=AT_MOST_ONCE
11484 [hawtdispatch-DEFAULT-1] INFO  DataIntegrityVerifier  - Ok. clientId=Subscriber_001, topic=topicA, qos=AT_MOST_ONCE
11579 [hawtdispatch-DEFAULT-1] INFO  DataIntegrityVerifier  - Ok. clientId=Subscriber_001, topic=topicA, qos=AT_MOST_ONCE
11677 [hawtdispatch-DEFAULT-1] INFO  DataIntegrityVerifier  - Ok. clientId=Subscriber_001, topic=topicA, qos=AT_MOST_ONCE
11795 [hawtdispatch-DEFAULT-1] INFO  DataIntegrityVerifier  - Ok. clientId=Subscriber_001, topic=topicA, qos=AT_MOST_ONCE
11868 [hawtdispatch-DEFAULT-1] INFO  DataIntegrityVerifier  - Ok. clientId=Subscriber_001, topic=topicA, qos=AT_MOST_ONCE
11977 [hawtdispatch-DEFAULT-1] INFO  DataIntegrityVerifier  - Ok. clientId=Subscriber_001, topic=topicA, qos=AT_MOST_ONCE
12073 [hawtdispatch-DEFAULT-1] INFO  DataIntegrityVerifier  - Ok. clientId=Subscriber_001, topic=topicA, qos=AT_MOST_ONCE
12172 [hawtdispatch-DEFAULT-1] INFO  DataIntegrityVerifier  - Ok. clientId=Subscriber_001, topic=topicA, qos=AT_MOST_ONCE
12269 [hawtdispatch-DEFAULT-1] INFO  DataIntegrityVerifier  - Ok. clientId=Subscriber_001, topic=topicA, qos=AT_MOST_ONCE
12369 [hawtdispatch-DEFAULT-1] INFO  DataIntegrityVerifier  - Ok. clientId=Subscriber_001, topic=topicA, qos=AT_MOST_ONCE
12474 [hawtdispatch-DEFAULT-1] INFO  DataIntegrityVerifier  - Ok. clientId=Subscriber_001, topic=topicA, qos=AT_MOST_ONCE
12577 [hawtdispatch-DEFAULT-1] INFO  DataIntegrityVerifier  - Ok. clientId=Subscriber_001, topic=topicA, qos=AT_MOST_ONCE
12673 [hawtdispatch-DEFAULT-1] INFO  DataIntegrityVerifier  - Ok. clientId=Subscriber_001, topic=topicA, qos=AT_MOST_ONCE
12777 [hawtdispatch-DEFAULT-1] INFO  DataIntegrityVerifier  - Ok. clientId=Subscriber_001, topic=topicA, qos=AT_MOST_ONCE
12876 [hawtdispatch-DEFAULT-1] INFO  DataIntegrityVerifier  - Ok. clientId=Subscriber_001, topic=topicA, qos=AT_MOST_ONCE
12975 [hawtdispatch-DEFAULT-1] INFO  DataIntegrityVerifier  - Ok. clientId=Subscriber_001, topic=topicA, qos=AT_MOST_ONCE
13076 [hawtdispatch-DEFAULT-1] INFO  DataIntegrityVerifier  - Ok. clientId=Subscriber_001, topic=topicA, qos=AT_MOST_ONCE
13184 [hawtdispatch-DEFAULT-1] INFO  DataIntegrityVerifier  - Ok. clientId=Subscriber_001, topic=topicA, qos=AT_MOST_ONCE
13270 [hawtdispatch-DEFAULT-1] INFO  DataIntegrityVerifier  - Ok. clientId=Subscriber_001, topic=topicA, qos=AT_MOST_ONCE
13380 [hawtdispatch-DEFAULT-1] INFO  DataIntegrityVerifier  - Ok. clientId=Subscriber_001, topic=topicA, qos=AT_MOST_ONCE
13475 [hawtdispatch-DEFAULT-1] INFO  DataIntegrityVerifier  - Ok. clientId=Subscriber_001, topic=topicA, qos=AT_MOST_ONCE
13576 [hawtdispatch-DEFAULT-1] INFO  DataIntegrityVerifier  - Ok. clientId=Subscriber_001, topic=topicA, qos=AT_MOST_ONCE
13672 [hawtdispatch-DEFAULT-1] INFO  DataIntegrityVerifier  - Ok. clientId=Subscriber_001, topic=topicA, qos=AT_MOST_ONCE
13784 [hawtdispatch-DEFAULT-1] INFO  DataIntegrityVerifier  - Ok. clientId=Subscriber_001, topic=topicA, qos=AT_MOST_ONCE
13876 [hawtdispatch-DEFAULT-1] INFO  DataIntegrityVerifier  - Ok. clientId=Subscriber_001, topic=topicA, qos=AT_MOST_ONCE
13983 [hawtdispatch-DEFAULT-1] INFO  DataIntegrityVerifier  - Ok. clientId=Subscriber_001, topic=topicA, qos=AT_MOST_ONCE
14089 [hawtdispatch-DEFAULT-1] INFO  DataIntegrityVerifier  - Ok. clientId=Subscriber_001, topic=topicA, qos=AT_MOST_ONCE
14185 [hawtdispatch-DEFAULT-1] INFO  DataIntegrityVerifier  - Ok. clientId=Subscriber_001, topic=topicA, qos=AT_MOST_ONCE
14281 [hawtdispatch-DEFAULT-1] INFO  DataIntegrityVerifier  - Ok. clientId=Subscriber_001, topic=topicA, qos=AT_MOST_ONCE
14374 [hawtdispatch-DEFAULT-1] INFO  DataIntegrityVerifier  - Ok. clientId=Subscriber_001, topic=topicA, qos=AT_MOST_ONCE
14480 [hawtdispatch-DEFAULT-1] INFO  DataIntegrityVerifier  - Ok. clientId=Subscriber_001, topic=topicA, qos=AT_MOST_ONCE
14581 [hawtdispatch-DEFAULT-1] INFO  DataIntegrityVerifier  - Ok. clientId=Subscriber_001, topic=topicA, qos=AT_MOST_ONCE
14669 [hawtdispatch-DEFAULT-1] INFO  DataIntegrityVerifier  - Ok. clientId=Subscriber_001, topic=topicA, qos=AT_MOST_ONCE
14774 [hawtdispatch-DEFAULT-1] INFO  DataIntegrityVerifier  - Ok. clientId=Subscriber_001, topic=topicA, qos=AT_MOST_ONCE
14873 [hawtdispatch-DEFAULT-1] INFO  DataIntegrityVerifier  - Ok. clientId=Subscriber_001, topic=topicA, qos=AT_MOST_ONCE
14970 [hawtdispatch-DEFAULT-1] INFO  DataIntegrityVerifier  - Ok. clientId=Subscriber_001, topic=topicA, qos=AT_MOST_ONCE
15073 [hawtdispatch-DEFAULT-1] INFO  DataIntegrityVerifier  - Ok. clientId=Subscriber_001, topic=topicA, qos=AT_MOST_ONCE
15177 [hawtdispatch-DEFAULT-1] INFO  DataIntegrityVerifier  - Ok. clientId=Subscriber_001, topic=topicA, qos=AT_MOST_ONCE
15280 [hawtdispatch-DEFAULT-1] INFO  DataIntegrityVerifier  - Ok. clientId=Subscriber_001, topic=topicA, qos=AT_MOST_ONCE
15376 [hawtdispatch-DEFAULT-1] INFO  DataIntegrityVerifier  - Ok. clientId=Subscriber_001, topic=topicA, qos=AT_MOST_ONCE
15488 [hawtdispatch-DEFAULT-1] INFO  DataIntegrityVerifier  - Ok. clientId=Subscriber_001, topic=topicA, qos=AT_MOST_ONCE
15588 [hawtdispatch-DEFAULT-1] INFO  DataIntegrityVerifier  - Ok. clientId=Subscriber_001, topic=topicA, qos=AT_MOST_ONCE
15677 [hawtdispatch-DEFAULT-1] INFO  DataIntegrityVerifier  - Ok. clientId=Subscriber_001, topic=topicA, qos=AT_MOST_ONCE
15778 [hawtdispatch-DEFAULT-1] INFO  DataIntegrityVerifier  - Ok. clientId=Subscriber_001, topic=topicA, qos=AT_MOST_ONCE
15874 [hawtdispatch-DEFAULT-1] INFO  DataIntegrityVerifier  - Ok. clientId=Subscriber_001, topic=topicA, qos=AT_MOST_ONCE
15976 [hawtdispatch-DEFAULT-1] INFO  DataIntegrityVerifier  - Ok. clientId=Subscriber_001, topic=topicA, qos=AT_MOST_ONCE
16076 [hawtdispatch-DEFAULT-1] INFO  DataIntegrityVerifier  - Ok. clientId=Subscriber_001, topic=topicA, qos=AT_MOST_ONCE
16173 [hawtdispatch-DEFAULT-1] INFO  DataIntegrityVerifier  - Ok. clientId=Subscriber_001, topic=topicA, qos=AT_MOST_ONCE
16275 [hawtdispatch-DEFAULT-1] INFO  DataIntegrityVerifier  - Ok. clientId=Subscriber_001, topic=topicA, qos=AT_MOST_ONCE
16385 [hawtdispatch-DEFAULT-1] INFO  DataIntegrityVerifier  - Ok. clientId=Subscriber_001, topic=topicA, qos=AT_MOST_ONCE
16477 [hawtdispatch-DEFAULT-1] INFO  DataIntegrityVerifier  - Ok. clientId=Subscriber_001, topic=topicA, qos=AT_MOST_ONCE
16576 [hawtdispatch-DEFAULT-1] INFO  DataIntegrityVerifier  - Ok. clientId=Subscriber_001, topic=topicA, qos=AT_MOST_ONCE
16677 [hawtdispatch-DEFAULT-1] INFO  DataIntegrityVerifier  - Ok. clientId=Subscriber_001, topic=topicA, qos=AT_MOST_ONCE
16771 [hawtdispatch-DEFAULT-1] INFO  DataIntegrityVerifier  - Ok. clientId=Subscriber_001, topic=topicA, qos=AT_MOST_ONCE
16873 [hawtdispatch-DEFAULT-1] INFO  DataIntegrityVerifier  - Ok. clientId=Subscriber_001, topic=topicA, qos=AT_MOST_ONCE
16969 [hawtdispatch-DEFAULT-1] INFO  DataIntegrityVerifier  - Ok. clientId=Subscriber_001, topic=topicA, qos=AT_MOST_ONCE
17085 [hawtdispatch-DEFAULT-1] INFO  DataIntegrityVerifier  - Ok. clientId=Subscriber_001, topic=topicA, qos=AT_MOST_ONCE
17174 [hawtdispatch-DEFAULT-1] INFO  DataIntegrityVerifier  - Ok. clientId=Subscriber_001, topic=topicA, qos=AT_MOST_ONCE
17277 [hawtdispatch-DEFAULT-1] INFO  DataIntegrityVerifier  - Ok. clientId=Subscriber_001, topic=topicA, qos=AT_MOST_ONCE
17369 [hawtdispatch-DEFAULT-1] INFO  DataIntegrityVerifier  - Ok. clientId=Subscriber_001, topic=topicA, qos=AT_MOST_ONCE
17479 [hawtdispatch-DEFAULT-1] INFO  DataIntegrityVerifier  - Ok. clientId=Subscriber_001, topic=topicA, qos=AT_MOST_ONCE
17573 [hawtdispatch-DEFAULT-1] INFO  DataIntegrityVerifier  - Ok. clientId=Subscriber_001, topic=topicA, qos=AT_MOST_ONCE
17695 [hawtdispatch-DEFAULT-1] INFO  DataIntegrityVerifier  - Ok. clientId=Subscriber_001, topic=topicA, qos=AT_MOST_ONCE
17780 [hawtdispatch-DEFAULT-1] INFO  DataIntegrityVerifier  - Ok. clientId=Subscriber_001, topic=topicA, qos=AT_MOST_ONCE
17897 [hawtdispatch-DEFAULT-1] INFO  DataIntegrityVerifier  - Ok. clientId=Subscriber_001, topic=topicA, qos=AT_MOST_ONCE
17975 [hawtdispatch-DEFAULT-1] INFO  DataIntegrityVerifier  - Ok. clientId=Subscriber_001, topic=topicA, qos=AT_MOST_ONCE
18070 [hawtdispatch-DEFAULT-1] INFO  DataIntegrityVerifier  - Ok. clientId=Subscriber_001, topic=topicA, qos=AT_MOST_ONCE
18167 [hawtdispatch-DEFAULT-1] INFO  DataIntegrityVerifier  - Ok. clientId=Subscriber_001, topic=topicA, qos=AT_MOST_ONCE
18274 [hawtdispatch-DEFAULT-1] INFO  DataIntegrityVerifier  - Ok. clientId=Subscriber_001, topic=topicA, qos=AT_MOST_ONCE
18376 [hawtdispatch-DEFAULT-1] INFO  DataIntegrityVerifier  - Ok. clientId=Subscriber_001, topic=topicA, qos=AT_MOST_ONCE
18476 [hawtdispatch-DEFAULT-1] INFO  DataIntegrityVerifier  - Ok. clientId=Subscriber_001, topic=topicA, qos=AT_MOST_ONCE
18580 [hawtdispatch-DEFAULT-1] INFO  DataIntegrityVerifier  - Ok. clientId=Subscriber_001, topic=topicA, qos=AT_MOST_ONCE
18672 [hawtdispatch-DEFAULT-1] INFO  DataIntegrityVerifier  - Ok. clientId=Subscriber_001, topic=topicA, qos=AT_MOST_ONCE
18769 [hawtdispatch-DEFAULT-1] INFO  DataIntegrityVerifier  - Ok. clientId=Subscriber_001, topic=topicA, qos=AT_MOST_ONCE
18877 [hawtdispatch-DEFAULT-1] INFO  DataIntegrityVerifier  - Ok. clientId=Subscriber_001, topic=topicA, qos=AT_MOST_ONCE
18975 [hawtdispatch-DEFAULT-1] INFO  DataIntegrityVerifier  - Ok. clientId=Subscriber_001, topic=topicA, qos=AT_MOST_ONCE
19098 [hawtdispatch-DEFAULT-1] INFO  DataIntegrityVerifier  - Ok. clientId=Subscriber_001, topic=topicA, qos=AT_MOST_ONCE
19176 [hawtdispatch-DEFAULT-1] INFO  DataIntegrityVerifier  - Ok. clientId=Subscriber_001, topic=topicA, qos=AT_MOST_ONCE
19283 [hawtdispatch-DEFAULT-1] INFO  DataIntegrityVerifier  - Ok. clientId=Subscriber_001, topic=topicA, qos=AT_MOST_ONCE
19381 [hawtdispatch-DEFAULT-1] INFO  DataIntegrityVerifier  - Ok. clientId=Subscriber_001, topic=topicA, qos=AT_MOST_ONCE
19481 [hawtdispatch-DEFAULT-1] INFO  DataIntegrityVerifier  - Ok. clientId=Subscriber_001, topic=topicA, qos=AT_MOST_ONCE
19577 [hawtdispatch-DEFAULT-1] INFO  DataIntegrityVerifier  - Ok. clientId=Subscriber_001, topic=topicA, qos=AT_MOST_ONCE
19674 [hawtdispatch-DEFAULT-1] INFO  DataIntegrityVerifier  - Ok. clientId=Subscriber_001, topic=topicA, qos=AT_MOST_ONCE
19774 [hawtdispatch-DEFAULT-1] INFO  DataIntegrityVerifier  - Ok. clientId=Subscriber_001, topic=topicA, qos=AT_MOST_ONCE
19875 [hawtdispatch-DEFAULT-1] INFO  DataIntegrityVerifier  - Ok. clientId=Subscriber_001, topic=topicA, qos=AT_MOST_ONCE
19976 [hawtdispatch-DEFAULT-1] INFO  DataIntegrityVerifier  - Ok. clientId=Subscriber_001, topic=topicA, qos=AT_MOST_ONCE
20078 [hawtdispatch-DEFAULT-1] INFO  DataIntegrityVerifier  - Ok. clientId=Subscriber_001, topic=topicA, qos=AT_MOST_ONCE
20175 [hawtdispatch-DEFAULT-1] INFO  DataIntegrityVerifier  - Ok. clientId=Subscriber_001, topic=topicA, qos=AT_MOST_ONCE
20754 [hawtdispatch-DEFAULT-3] INFO  DataIntegrityVerifier  - Ok. clientId=Subscriber_001, topic=topicA, qos=AT_MOST_ONCE
20828 [hawtdispatch-DEFAULT-3] INFO  DataIntegrityVerifier  - Ok. clientId=Subscriber_001, topic=topicA, qos=AT_MOST_ONCE
20935 [hawtdispatch-DEFAULT-3] INFO  DataIntegrityVerifier  - Ok. clientId=Subscriber_001, topic=topicA, qos=AT_MOST_ONCE
21035 [hawtdispatch-DEFAULT-3] INFO  DataIntegrityVerifier  - Ok. clientId=Subscriber_001, topic=topicA, qos=AT_MOST_ONCE
21134 [hawtdispatch-DEFAULT-3] INFO  DataIntegrityVerifier  - Ok. clientId=Subscriber_001, topic=topicA, qos=AT_MOST_ONCE
21230 [hawtdispatch-DEFAULT-3] INFO  DataIntegrityVerifier  - Ok. clientId=Subscriber_001, topic=topicA, qos=AT_MOST_ONCE
21331 [hawtdispatch-DEFAULT-3] INFO  DataIntegrityVerifier  - Ok. clientId=Subscriber_001, topic=topicA, qos=AT_MOST_ONCE
21423 [hawtdispatch-DEFAULT-3] INFO  DataIntegrityVerifier  - Ok. clientId=Subscriber_001, topic=topicA, qos=AT_MOST_ONCE
21528 [hawtdispatch-DEFAULT-3] INFO  DataIntegrityVerifier  - Ok. clientId=Subscriber_001, topic=topicA, qos=AT_MOST_ONCE
21625 [hawtdispatch-DEFAULT-3] INFO  DataIntegrityVerifier  - Ok. clientId=Subscriber_001, topic=topicA, qos=AT_MOST_ONCE
21729 [hawtdispatch-DEFAULT-3] INFO  DataIntegrityVerifier  - Ok. clientId=Subscriber_001, topic=topicA, qos=AT_MOST_ONCE
21830 [hawtdispatch-DEFAULT-3] INFO  DataIntegrityVerifier  - Ok. clientId=Subscriber_001, topic=topicA, qos=AT_MOST_ONCE
21940 [hawtdispatch-DEFAULT-3] INFO  DataIntegrityVerifier  - Ok. clientId=Subscriber_001, topic=topicA, qos=AT_MOST_ONCE
22029 [hawtdispatch-DEFAULT-3] INFO  DataIntegrityVerifier  - Ok. clientId=Subscriber_001, topic=topicA, qos=AT_MOST_ONCE
22128 [hawtdispatch-DEFAULT-3] INFO  DataIntegrityVerifier  - Ok. clientId=Subscriber_001, topic=topicA, qos=AT_MOST_ONCE
22230 [hawtdispatch-DEFAULT-3] INFO  DataIntegrityVerifier  - Ok. clientId=Subscriber_001, topic=topicA, qos=AT_MOST_ONCE
22329 [hawtdispatch-DEFAULT-3] INFO  DataIntegrityVerifier  - Ok. clientId=Subscriber_001, topic=topicA, qos=AT_MOST_ONCE
22429 [hawtdispatch-DEFAULT-3] INFO  DataIntegrityVerifier  - Ok. clientId=Subscriber_001, topic=topicA, qos=AT_MOST_ONCE
22527 [hawtdispatch-DEFAULT-3] INFO  DataIntegrityVerifier  - Ok. clientId=Subscriber_001, topic=topicA, qos=AT_MOST_ONCE
22631 [hawtdispatch-DEFAULT-3] INFO  DataIntegrityVerifier  - Ok. clientId=Subscriber_001, topic=topicA, qos=AT_MOST_ONCE
22728 [hawtdispatch-DEFAULT-3] INFO  DataIntegrityVerifier  - Ok. clientId=Subscriber_001, topic=topicA, qos=AT_MOST_ONCE
22831 [hawtdispatch-DEFAULT-3] INFO  DataIntegrityVerifier  - Ok. clientId=Subscriber_001, topic=topicA, qos=AT_MOST_ONCE
22928 [hawtdispatch-DEFAULT-3] INFO  DataIntegrityVerifier  - Ok. clientId=Subscriber_001, topic=topicA, qos=AT_MOST_ONCE
23033 [hawtdispatch-DEFAULT-3] INFO  DataIntegrityVerifier  - Ok. clientId=Subscriber_001, topic=topicA, qos=AT_MOST_ONCE
23126 [hawtdispatch-DEFAULT-3] INFO  DataIntegrityVerifier  - Ok. clientId=Subscriber_001, topic=topicA, qos=AT_MOST_ONCE
23227 [hawtdispatch-DEFAULT-3] INFO  DataIntegrityVerifier  - Ok. clientId=Subscriber_001, topic=topicA, qos=AT_MOST_ONCE
23345 [hawtdispatch-DEFAULT-3] INFO  DataIntegrityVerifier  - Ok. clientId=Subscriber_001, topic=topicA, qos=AT_MOST_ONCE
23435 [hawtdispatch-DEFAULT-3] INFO  DataIntegrityVerifier  - Ok. clientId=Subscriber_001, topic=topicA, qos=AT_MOST_ONCE
23533 [hawtdispatch-DEFAULT-3] INFO  DataIntegrityVerifier  - Ok. clientId=Subscriber_001, topic=topicA, qos=AT_MOST_ONCE
23642 [hawtdispatch-DEFAULT-3] INFO  DataIntegrityVerifier  - Ok. clientId=Subscriber_001, topic=topicA, qos=AT_MOST_ONCE
23732 [hawtdispatch-DEFAULT-3] INFO  DataIntegrityVerifier  - Ok. clientId=Subscriber_001, topic=topicA, qos=AT_MOST_ONCE
23832 [hawtdispatch-DEFAULT-3] INFO  DataIntegrityVerifier  - Ok. clientId=Subscriber_001, topic=topicA, qos=AT_MOST_ONCE
23928 [hawtdispatch-DEFAULT-3] INFO  DataIntegrityVerifier  - Ok. clientId=Subscriber_001, topic=topicA, qos=AT_MOST_ONCE
24036 [hawtdispatch-DEFAULT-3] INFO  DataIntegrityVerifier  - Ok. clientId=Subscriber_001, topic=topicA, qos=AT_MOST_ONCE
24129 [hawtdispatch-DEFAULT-3] INFO  DataIntegrityVerifier  - Ok. clientId=Subscriber_001, topic=topicA, qos=AT_MOST_ONCE
24229 [hawtdispatch-DEFAULT-3] INFO  DataIntegrityVerifier  - Ok. clientId=Subscriber_001, topic=topicA, qos=AT_MOST_ONCE
24329 [hawtdispatch-DEFAULT-3] INFO  DataIntegrityVerifier  - Ok. clientId=Subscriber_001, topic=topicA, qos=AT_MOST_ONCE
24423 [hawtdispatch-DEFAULT-3] INFO  DataIntegrityVerifier  - Ok. clientId=Subscriber_001, topic=topicA, qos=AT_MOST_ONCE
24535 [hawtdispatch-DEFAULT-1] INFO  DataIntegrityVerifier  - Ok. clientId=Subscriber_001, topic=topicA, qos=AT_MOST_ONCE
24635 [hawtdispatch-DEFAULT-1] INFO  DataIntegrityVerifier  - Ok. clientId=Subscriber_001, topic=topicA, qos=AT_MOST_ONCE
24746 [hawtdispatch-DEFAULT-3] INFO  DataIntegrityVerifier  - Ok. clientId=Subscriber_001, topic=topicA, qos=AT_MOST_ONCE
24840 [hawtdispatch-DEFAULT-3] INFO  DataIntegrityVerifier  - Ok. clientId=Subscriber_001, topic=topicA, qos=AT_MOST_ONCE
24937 [hawtdispatch-DEFAULT-1] INFO  DataIntegrityVerifier  - Ok. clientId=Subscriber_001, topic=topicA, qos=AT_MOST_ONCE
25043 [hawtdispatch-DEFAULT-3] INFO  DataIntegrityVerifier  - Ok. clientId=Subscriber_001, topic=topicA, qos=AT_MOST_ONCE
25137 [hawtdispatch-DEFAULT-3] INFO  DataIntegrityVerifier  - Ok. clientId=Subscriber_001, topic=topicA, qos=AT_MOST_ONCE
25229 [hawtdispatch-DEFAULT-3] INFO  DataIntegrityVerifier  - Ok. clientId=Subscriber_001, topic=topicA, qos=AT_MOST_ONCE
25335 [hawtdispatch-DEFAULT-3] INFO  DataIntegrityVerifier  - Ok. clientId=Subscriber_001, topic=topicA, qos=AT_MOST_ONCE
25435 [hawtdispatch-DEFAULT-1] INFO  DataIntegrityVerifier  - Ok. clientId=Subscriber_001, topic=topicA, qos=AT_MOST_ONCE
25536 [hawtdispatch-DEFAULT-3] INFO  DataIntegrityVerifier  - Ok. clientId=Subscriber_001, topic=topicA, qos=AT_MOST_ONCE
25631 [hawtdispatch-DEFAULT-3] INFO  DataIntegrityVerifier  - Ok. clientId=Subscriber_001, topic=topicA, qos=AT_MOST_ONCE
25723 [hawtdispatch-DEFAULT-3] INFO  DataIntegrityVerifier  - Ok. clientId=Subscriber_001, topic=topicA, qos=AT_MOST_ONCE
25838 [hawtdispatch-DEFAULT-3] INFO  DataIntegrityVerifier  - Ok. clientId=Subscriber_001, topic=topicA, qos=AT_MOST_ONCE
25932 [hawtdispatch-DEFAULT-3] INFO  DataIntegrityVerifier  - Ok. clientId=Subscriber_001, topic=topicA, qos=AT_MOST_ONCE
26034 [hawtdispatch-DEFAULT-3] INFO  DataIntegrityVerifier  - Ok. clientId=Subscriber_001, topic=topicA, qos=AT_MOST_ONCE
26134 [hawtdispatch-DEFAULT-3] INFO  DataIntegrityVerifier  - Ok. clientId=Subscriber_001, topic=topicA, qos=AT_MOST_ONCE
26238 [hawtdispatch-DEFAULT-3] INFO  DataIntegrityVerifier  - Ok. clientId=Subscriber_001, topic=topicA, qos=AT_MOST_ONCE
26330 [hawtdispatch-DEFAULT-3] INFO  DataIntegrityVerifier  - Ok. clientId=Subscriber_001, topic=topicA, qos=AT_MOST_ONCE
26433 [hawtdispatch-DEFAULT-3] INFO  DataIntegrityVerifier  - Ok. clientId=Subscriber_001, topic=topicA, qos=AT_MOST_ONCE
26533 [hawtdispatch-DEFAULT-3] INFO  DataIntegrityVerifier  - Ok. clientId=Subscriber_001, topic=topicA, qos=AT_MOST_ONCE
26630 [hawtdispatch-DEFAULT-3] INFO  DataIntegrityVerifier  - Ok. clientId=Subscriber_001, topic=topicA, qos=AT_MOST_ONCE
26736 [hawtdispatch-DEFAULT-3] INFO  DataIntegrityVerifier  - Ok. clientId=Subscriber_001, topic=topicA, qos=AT_MOST_ONCE
26825 [hawtdispatch-DEFAULT-3] INFO  DataIntegrityVerifier  - Ok. clientId=Subscriber_001, topic=topicA, qos=AT_MOST_ONCE
26939 [hawtdispatch-DEFAULT-3] INFO  DataIntegrityVerifier  - Ok. clientId=Subscriber_001, topic=topicA, qos=AT_MOST_ONCE
27028 [hawtdispatch-DEFAULT-3] INFO  DataIntegrityVerifier  - Ok. clientId=Subscriber_001, topic=topicA, qos=AT_MOST_ONCE
27132 [hawtdispatch-DEFAULT-3] INFO  DataIntegrityVerifier  - Ok. clientId=Subscriber_001, topic=topicA, qos=AT_MOST_ONCE
27232 [hawtdispatch-DEFAULT-3] INFO  DataIntegrityVerifier  - Ok. clientId=Subscriber_001, topic=topicA, qos=AT_MOST_ONCE
27324 [hawtdispatch-DEFAULT-3] INFO  DataIntegrityVerifier  - Ok. clientId=Subscriber_001, topic=topicA, qos=AT_MOST_ONCE
27425 [hawtdispatch-DEFAULT-3] INFO  DataIntegrityVerifier  - Ok. clientId=Subscriber_001, topic=topicA, qos=AT_MOST_ONCE
27527 [hawtdispatch-DEFAULT-3] INFO  DataIntegrityVerifier  - Ok. clientId=Subscriber_001, topic=topicA, qos=AT_MOST_ONCE
27631 [hawtdispatch-DEFAULT-3] INFO  DataIntegrityVerifier  - Ok. clientId=Subscriber_001, topic=topicA, qos=AT_MOST_ONCE
27735 [hawtdispatch-DEFAULT-3] INFO  DataIntegrityVerifier  - Ok. clientId=Subscriber_001, topic=topicA, qos=AT_MOST_ONCE
27831 [hawtdispatch-DEFAULT-3] INFO  DataIntegrityVerifier  - Ok. clientId=Subscriber_001, topic=topicA, qos=AT_MOST_ONCE
27931 [hawtdispatch-DEFAULT-3] INFO  DataIntegrityVerifier  - Ok. clientId=Subscriber_001, topic=topicA, qos=AT_MOST_ONCE
28024 [hawtdispatch-DEFAULT-3] INFO  DataIntegrityVerifier  - Ok. clientId=Subscriber_001, topic=topicA, qos=AT_MOST_ONCE
28129 [hawtdispatch-DEFAULT-3] INFO  DataIntegrityVerifier  - Ok. clientId=Subscriber_001, topic=topicA, qos=AT_MOST_ONCE
28225 [hawtdispatch-DEFAULT-3] INFO  DataIntegrityVerifier  - Ok. clientId=Subscriber_001, topic=topicA, qos=AT_MOST_ONCE
28327 [hawtdispatch-DEFAULT-3] INFO  DataIntegrityVerifier  - Ok. clientId=Subscriber_001, topic=topicA, qos=AT_MOST_ONCE
28442 [hawtdispatch-DEFAULT-3] INFO  DataIntegrityVerifier  - Ok. clientId=Subscriber_001, topic=topicA, qos=AT_MOST_ONCE
28542 [hawtdispatch-DEFAULT-3] INFO  DataIntegrityVerifier  - Ok. clientId=Subscriber_001, topic=topicA, qos=AT_MOST_ONCE
28637 [hawtdispatch-DEFAULT-3] INFO  DataIntegrityVerifier  - Ok. clientId=Subscriber_001, topic=topicA, qos=AT_MOST_ONCE
28727 [hawtdispatch-DEFAULT-3] INFO  DataIntegrityVerifier  - Ok. clientId=Subscriber_001, topic=topicA, qos=AT_MOST_ONCE
28826 [hawtdispatch-DEFAULT-3] INFO  DataIntegrityVerifier  - Ok. clientId=Subscriber_001, topic=topicA, qos=AT_MOST_ONCE
28932 [hawtdispatch-DEFAULT-3] INFO  DataIntegrityVerifier  - Ok. clientId=Subscriber_001, topic=topicA, qos=AT_MOST_ONCE
29027 [hawtdispatch-DEFAULT-3] INFO  DataIntegrityVerifier  - Ok. clientId=Subscriber_001, topic=topicA, qos=AT_MOST_ONCE
29128 [hawtdispatch-DEFAULT-3] INFO  DataIntegrityVerifier  - Ok. clientId=Subscriber_001, topic=topicA, qos=AT_MOST_ONCE
29236 [hawtdispatch-DEFAULT-3] INFO  DataIntegrityVerifier  - Ok. clientId=Subscriber_001, topic=topicA, qos=AT_MOST_ONCE
29329 [hawtdispatch-DEFAULT-3] INFO  DataIntegrityVerifier  - Ok. clientId=Subscriber_001, topic=topicA, qos=AT_MOST_ONCE
29425 [hawtdispatch-DEFAULT-3] INFO  DataIntegrityVerifier  - Ok. clientId=Subscriber_001, topic=topicA, qos=AT_MOST_ONCE
29526 [hawtdispatch-DEFAULT-3] INFO  DataIntegrityVerifier  - Ok. clientId=Subscriber_001, topic=topicA, qos=AT_MOST_ONCE
29627 [hawtdispatch-DEFAULT-3] INFO  DataIntegrityVerifier  - Ok. clientId=Subscriber_001, topic=topicA, qos=AT_MOST_ONCE
29725 [hawtdispatch-DEFAULT-3] INFO  DataIntegrityVerifier  - Ok. clientId=Subscriber_001, topic=topicA, qos=AT_MOST_ONCE
29827 [hawtdispatch-DEFAULT-3] INFO  DataIntegrityVerifier  - Ok. clientId=Subscriber_001, topic=topicA, qos=AT_MOST_ONCE
29923 [hawtdispatch-DEFAULT-3] INFO  DataIntegrityVerifier  - Ok. clientId=Subscriber_001, topic=topicA, qos=AT_MOST_ONCE
30029 [hawtdispatch-DEFAULT-3] INFO  DataIntegrityVerifier  - Ok. clientId=Subscriber_001, topic=topicA, qos=AT_MOST_ONCE
30123 [hawtdispatch-DEFAULT-3] INFO  DataIntegrityVerifier  - Ok. clientId=Subscriber_001, topic=topicA, qos=AT_MOST_ONCE
30233 [hawtdispatch-DEFAULT-3] INFO  DataIntegrityVerifier  - Ok. clientId=Subscriber_001, topic=topicA, qos=AT_MOST_ONCE
30332 [hawtdispatch-DEFAULT-3] INFO  DataIntegrityVerifier  - Ok. clientId=Subscriber_001, topic=topicA, qos=AT_MOST_ONCE
30440 [hawtdispatch-DEFAULT-3] INFO  DataIntegrityVerifier  - Ok. clientId=Subscriber_001, topic=topicA, qos=AT_MOST_ONCE
30542 [hawtdispatch-DEFAULT-3] INFO  DataIntegrityVerifier  - Ok. clientId=Subscriber_001, topic=topicA, qos=AT_MOST_ONCE
30629 [hawtdispatch-DEFAULT-3] INFO  DataIntegrityVerifier  - Ok. clientId=Subscriber_001, topic=topicA, qos=AT_MOST_ONCE
30729 [hawtdispatch-DEFAULT-3] INFO  DataIntegrityVerifier  - Ok. clientId=Subscriber_001, topic=topicA, qos=AT_MOST_ONCE
30828 [hawtdispatch-DEFAULT-3] INFO  DataIntegrityVerifier  - Ok. clientId=Subscriber_001, topic=topicA, qos=AT_MOST_ONCE
30930 [hawtdispatch-DEFAULT-3] INFO  DataIntegrityVerifier  - Ok. clientId=Subscriber_001, topic=topicA, qos=AT_MOST_ONCE
31026 [hawtdispatch-DEFAULT-3] INFO  DataIntegrityVerifier  - Ok. clientId=Subscriber_001, topic=topicA, qos=AT_MOST_ONCE
31130 [hawtdispatch-DEFAULT-3] INFO  DataIntegrityVerifier  - Ok. clientId=Subscriber_001, topic=topicA, qos=AT_MOST_ONCE
31234 [hawtdispatch-DEFAULT-3] INFO  DataIntegrityVerifier  - Ok. clientId=Subscriber_001, topic=topicA, qos=AT_MOST_ONCE
31328 [hawtdispatch-DEFAULT-3] INFO  DataIntegrityVerifier  - Ok. clientId=Subscriber_001, topic=topicA, qos=AT_MOST_ONCE
31428 [hawtdispatch-DEFAULT-3] INFO  DataIntegrityVerifier  - Ok. clientId=Subscriber_001, topic=topicA, qos=AT_MOST_ONCE
31526 [hawtdispatch-DEFAULT-3] INFO  DataIntegrityVerifier  - Ok. clientId=Subscriber_001, topic=topicA, qos=AT_MOST_ONCE
31629 [hawtdispatch-DEFAULT-3] INFO  DataIntegrityVerifier  - Ok. clientId=Subscriber_001, topic=topicA, qos=AT_MOST_ONCE
31727 [hawtdispatch-DEFAULT-3] INFO  DataIntegrityVerifier  - Ok. clientId=Subscriber_001, topic=topicA, qos=AT_MOST_ONCE
31832 [hawtdispatch-DEFAULT-3] INFO  DataIntegrityVerifier  - Ok. clientId=Subscriber_001, topic=topicA, qos=AT_MOST_ONCE
31927 [hawtdispatch-DEFAULT-3] INFO  DataIntegrityVerifier  - Ok. clientId=Subscriber_001, topic=topicA, qos=AT_MOST_ONCE
32031 [hawtdispatch-DEFAULT-3] INFO  DataIntegrityVerifier  - Ok. clientId=Subscriber_001, topic=topicA, qos=AT_MOST_ONCE
32131 [hawtdispatch-DEFAULT-3] INFO  DataIntegrityVerifier  - Ok. clientId=Subscriber_001, topic=topicA, qos=AT_MOST_ONCE
32230 [hawtdispatch-DEFAULT-3] INFO  DataIntegrityVerifier  - Ok. clientId=Subscriber_001, topic=topicA, qos=AT_MOST_ONCE
32336 [hawtdispatch-DEFAULT-3] INFO  DataIntegrityVerifier  - Ok. clientId=Subscriber_001, topic=topicA, qos=AT_MOST_ONCE
32435 [hawtdispatch-DEFAULT-3] INFO  DataIntegrityVerifier  - Ok. clientId=Subscriber_001, topic=topicA, qos=AT_MOST_ONCE
32533 [hawtdispatch-DEFAULT-3] INFO  DataIntegrityVerifier  - Ok. clientId=Subscriber_001, topic=topicA, qos=AT_MOST_ONCE
32631 [hawtdispatch-DEFAULT-3] INFO  DataIntegrityVerifier  - Ok. clientId=Subscriber_001, topic=topicA, qos=AT_MOST_ONCE
32729 [hawtdispatch-DEFAULT-3] INFO  DataIntegrityVerifier  - Ok. clientId=Subscriber_001, topic=topicA, qos=AT_MOST_ONCE
32839 [hawtdispatch-DEFAULT-3] INFO  DataIntegrityVerifier  - Ok. clientId=Subscriber_001, topic=topicA, qos=AT_MOST_ONCE
32934 [hawtdispatch-DEFAULT-3] INFO  DataIntegrityVerifier  - Ok. clientId=Subscriber_001, topic=topicA, qos=AT_MOST_ONCE
33036 [hawtdispatch-DEFAULT-3] INFO  DataIntegrityVerifier  - Ok. clientId=Subscriber_001, topic=topicA, qos=AT_MOST_ONCE
33139 [hawtdispatch-DEFAULT-3] INFO  DataIntegrityVerifier  - Ok. clientId=Subscriber_001, topic=topicA, qos=AT_MOST_ONCE
33239 [hawtdispatch-DEFAULT-3] INFO  DataIntegrityVerifier  - Ok. clientId=Subscriber_001, topic=topicA, qos=AT_MOST_ONCE
33326 [hawtdispatch-DEFAULT-3] INFO  DataIntegrityVerifier  - Ok. clientId=Subscriber_001, topic=topicA, qos=AT_MOST_ONCE
33436 [hawtdispatch-DEFAULT-3] INFO  DataIntegrityVerifier  - Ok. clientId=Subscriber_001, topic=topicA, qos=AT_MOST_ONCE
33529 [hawtdispatch-DEFAULT-3] INFO  DataIntegrityVerifier  - Ok. clientId=Subscriber_001, topic=topicA, qos=AT_MOST_ONCE
33625 [hawtdispatch-DEFAULT-3] INFO  DataIntegrityVerifier  - Ok. clientId=Subscriber_001, topic=topicA, qos=AT_MOST_ONCE
33730 [hawtdispatch-DEFAULT-3] INFO  DataIntegrityVerifier  - Ok. clientId=Subscriber_001, topic=topicA, qos=AT_MOST_ONCE
33832 [hawtdispatch-DEFAULT-3] INFO  DataIntegrityVerifier  - Ok. clientId=Subscriber_001, topic=topicA, qos=AT_MOST_ONCE
33939 [hawtdispatch-DEFAULT-3] INFO  DataIntegrityVerifier  - Ok. clientId=Subscriber_001, topic=topicA, qos=AT_MOST_ONCE
34031 [hawtdispatch-DEFAULT-3] INFO  DataIntegrityVerifier  - Ok. clientId=Subscriber_001, topic=topicA, qos=AT_MOST_ONCE
34130 [hawtdispatch-DEFAULT-3] INFO  DataIntegrityVerifier  - Ok. clientId=Subscriber_001, topic=topicA, qos=AT_MOST_ONCE
34232 [hawtdispatch-DEFAULT-3] INFO  DataIntegrityVerifier  - Ok. clientId=Subscriber_001, topic=topicA, qos=AT_MOST_ONCE
34333 [hawtdispatch-DEFAULT-3] INFO  DataIntegrityVerifier  - Ok. clientId=Subscriber_001, topic=topicA, qos=AT_MOST_ONCE
34431 [hawtdispatch-DEFAULT-3] INFO  DataIntegrityVerifier  - Ok. clientId=Subscriber_001, topic=topicA, qos=AT_MOST_ONCE
34536 [hawtdispatch-DEFAULT-3] INFO  DataIntegrityVerifier  - Ok. clientId=Subscriber_001, topic=topicA, qos=AT_MOST_ONCE
34644 [hawtdispatch-DEFAULT-3] INFO  DataIntegrityVerifier  - Ok. clientId=Subscriber_001, topic=topicA, qos=AT_MOST_ONCE
34737 [hawtdispatch-DEFAULT-1] INFO  DataIntegrityVerifier  - Ok. clientId=Subscriber_001, topic=topicA, qos=AT_MOST_ONCE
34831 [hawtdispatch-DEFAULT-1] INFO  DataIntegrityVerifier  - Ok. clientId=Subscriber_001, topic=topicA, qos=AT_MOST_ONCE
34928 [hawtdispatch-DEFAULT-1] INFO  DataIntegrityVerifier  - Ok. clientId=Subscriber_001, topic=topicA, qos=AT_MOST_ONCE
35031 [hawtdispatch-DEFAULT-1] INFO  DataIntegrityVerifier  - Ok. clientId=Subscriber_001, topic=topicA, qos=AT_MOST_ONCE
35127 [hawtdispatch-DEFAULT-1] INFO  DataIntegrityVerifier  - Ok. clientId=Subscriber_001, topic=topicA, qos=AT_MOST_ONCE
35230 [hawtdispatch-DEFAULT-1] INFO  DataIntegrityVerifier  - Ok. clientId=Subscriber_001, topic=topicA, qos=AT_MOST_ONCE
35331 [hawtdispatch-DEFAULT-1] INFO  DataIntegrityVerifier  - Ok. clientId=Subscriber_001, topic=topicA, qos=AT_MOST_ONCE
35429 [hawtdispatch-DEFAULT-1] INFO  DataIntegrityVerifier  - Ok. clientId=Subscriber_001, topic=topicA, qos=AT_MOST_ONCE
35527 [hawtdispatch-DEFAULT-1] INFO  DataIntegrityVerifier  - Ok. clientId=Subscriber_001, topic=topicA, qos=AT_MOST_ONCE
35630 [hawtdispatch-DEFAULT-1] INFO  DataIntegrityVerifier  - Ok. clientId=Subscriber_001, topic=topicA, qos=AT_MOST_ONCE
35730 [hawtdispatch-DEFAULT-3] INFO  DataIntegrityVerifier  - Ok. clientId=Subscriber_001, topic=topicA, qos=AT_MOST_ONCE
35832 [hawtdispatch-DEFAULT-1] INFO  DataIntegrityVerifier  - Ok. clientId=Subscriber_001, topic=topicA, qos=AT_MOST_ONCE
35933 [hawtdispatch-DEFAULT-3] INFO  DataIntegrityVerifier  - Ok. clientId=Subscriber_001, topic=topicA, qos=AT_MOST_ONCE
36029 [hawtdispatch-DEFAULT-1] INFO  DataIntegrityVerifier  - Ok. clientId=Subscriber_001, topic=topicA, qos=AT_MOST_ONCE
36133 [hawtdispatch-DEFAULT-3] INFO  DataIntegrityVerifier  - Ok. clientId=Subscriber_001, topic=topicA, qos=AT_MOST_ONCE
36229 [hawtdispatch-DEFAULT-3] INFO  DataIntegrityVerifier  - Ok. clientId=Subscriber_001, topic=topicA, qos=AT_MOST_ONCE
36330 [hawtdispatch-DEFAULT-3] INFO  DataIntegrityVerifier  - Ok. clientId=Subscriber_001, topic=topicA, qos=AT_MOST_ONCE
36433 [hawtdispatch-DEFAULT-3] INFO  DataIntegrityVerifier  - Ok. clientId=Subscriber_001, topic=topicA, qos=AT_MOST_ONCE
36533 [hawtdispatch-DEFAULT-3] INFO  DataIntegrityVerifier  - Ok. clientId=Subscriber_001, topic=topicA, qos=AT_MOST_ONCE
36626 [hawtdispatch-DEFAULT-3] INFO  DataIntegrityVerifier  - Ok. clientId=Subscriber_001, topic=topicA, qos=AT_MOST_ONCE
36734 [hawtdispatch-DEFAULT-3] INFO  DataIntegrityVerifier  - Ok. clientId=Subscriber_001, topic=topicA, qos=AT_MOST_ONCE
36828 [hawtdispatch-DEFAULT-3] INFO  DataIntegrityVerifier  - Ok. clientId=Subscriber_001, topic=topicA, qos=AT_MOST_ONCE
36945 [hawtdispatch-DEFAULT-3] INFO  DataIntegrityVerifier  - Ok. clientId=Subscriber_001, topic=topicA, qos=AT_MOST_ONCE
37031 [hawtdispatch-DEFAULT-3] INFO  DataIntegrityVerifier  - Ok. clientId=Subscriber_001, topic=topicA, qos=AT_MOST_ONCE
37132 [hawtdispatch-DEFAULT-3] INFO  DataIntegrityVerifier  - Ok. clientId=Subscriber_001, topic=topicA, qos=AT_MOST_ONCE
37236 [hawtdispatch-DEFAULT-3] INFO  DataIntegrityVerifier  - Ok. clientId=Subscriber_001, topic=topicA, qos=AT_MOST_ONCE
37331 [hawtdispatch-DEFAULT-3] INFO  DataIntegrityVerifier  - Ok. clientId=Subscriber_001, topic=topicA, qos=AT_MOST_ONCE
37434 [hawtdispatch-DEFAULT-3] INFO  DataIntegrityVerifier  - Ok. clientId=Subscriber_001, topic=topicA, qos=AT_MOST_ONCE
37538 [hawtdispatch-DEFAULT-3] INFO  DataIntegrityVerifier  - Ok. clientId=Subscriber_001, topic=topicA, qos=AT_MOST_ONCE
37635 [hawtdispatch-DEFAULT-1] INFO  DataIntegrityVerifier  - Ok. clientId=Subscriber_001, topic=topicA, qos=AT_MOST_ONCE
37739 [hawtdispatch-DEFAULT-3] INFO  DataIntegrityVerifier  - Ok. clientId=Subscriber_001, topic=topicA, qos=AT_MOST_ONCE
37842 [hawtdispatch-DEFAULT-1] INFO  DataIntegrityVerifier  - Ok. clientId=Subscriber_001, topic=topicA, qos=AT_MOST_ONCE
37960 [hawtdispatch-DEFAULT-3] INFO  DataIntegrityVerifier  - Ok. clientId=Subscriber_001, topic=topicA, qos=AT_MOST_ONCE
38035 [hawtdispatch-DEFAULT-1] INFO  DataIntegrityVerifier  - Ok. clientId=Subscriber_001, topic=topicA, qos=AT_MOST_ONCE
38134 [hawtdispatch-DEFAULT-1] INFO  DataIntegrityVerifier  - Ok. clientId=Subscriber_001, topic=topicA, qos=AT_MOST_ONCE
38236 [hawtdispatch-DEFAULT-3] INFO  DataIntegrityVerifier  - Ok. clientId=Subscriber_001, topic=topicA, qos=AT_MOST_ONCE
38334 [hawtdispatch-DEFAULT-3] INFO  DataIntegrityVerifier  - Ok. clientId=Subscriber_001, topic=topicA, qos=AT_MOST_ONCE
38435 [hawtdispatch-DEFAULT-3] INFO  DataIntegrityVerifier  - Ok. clientId=Subscriber_001, topic=topicA, qos=AT_MOST_ONCE
38538 [hawtdispatch-DEFAULT-3] INFO  DataIntegrityVerifier  - Ok. clientId=Subscriber_001, topic=topicA, qos=AT_MOST_ONCE
38630 [hawtdispatch-DEFAULT-3] INFO  DataIntegrityVerifier  - Ok. clientId=Subscriber_001, topic=topicA, qos=AT_MOST_ONCE
38730 [hawtdispatch-DEFAULT-3] INFO  DataIntegrityVerifier  - Ok. clientId=Subscriber_001, topic=topicA, qos=AT_MOST_ONCE
38832 [hawtdispatch-DEFAULT-3] INFO  DataIntegrityVerifier  - Ok. clientId=Subscriber_001, topic=topicA, qos=AT_MOST_ONCE
38927 [hawtdispatch-DEFAULT-3] INFO  DataIntegrityVerifier  - Ok. clientId=Subscriber_001, topic=topicA, qos=AT_MOST_ONCE
39028 [hawtdispatch-DEFAULT-3] INFO  DataIntegrityVerifier  - Ok. clientId=Subscriber_001, topic=topicA, qos=AT_MOST_ONCE
39132 [hawtdispatch-DEFAULT-3] INFO  DataIntegrityVerifier  - Ok. clientId=Subscriber_001, topic=topicA, qos=AT_MOST_ONCE
39229 [hawtdispatch-DEFAULT-3] INFO  DataIntegrityVerifier  - Ok. clientId=Subscriber_001, topic=topicA, qos=AT_MOST_ONCE
39330 [hawtdispatch-DEFAULT-3] INFO  DataIntegrityVerifier  - Ok. clientId=Subscriber_001, topic=topicA, qos=AT_MOST_ONCE
39427 [hawtdispatch-DEFAULT-3] INFO  DataIntegrityVerifier  - Ok. clientId=Subscriber_001, topic=topicA, qos=AT_MOST_ONCE
39528 [hawtdispatch-DEFAULT-3] INFO  DataIntegrityVerifier  - Ok. clientId=Subscriber_001, topic=topicA, qos=AT_MOST_ONCE
39629 [hawtdispatch-DEFAULT-3] INFO  DataIntegrityVerifier  - Ok. clientId=Subscriber_001, topic=topicA, qos=AT_MOST_ONCE
39726 [hawtdispatch-DEFAULT-3] INFO  DataIntegrityVerifier  - Ok. clientId=Subscriber_001, topic=topicA, qos=AT_MOST_ONCE
39837 [hawtdispatch-DEFAULT-3] INFO  DataIntegrityVerifier  - Ok. clientId=Subscriber_001, topic=topicA, qos=AT_MOST_ONCE
39930 [hawtdispatch-DEFAULT-3] INFO  DataIntegrityVerifier  - Ok. clientId=Subscriber_001, topic=topicA, qos=AT_MOST_ONCE
40030 [hawtdispatch-DEFAULT-3] INFO  DataIntegrityVerifier  - Ok. clientId=Subscriber_001, topic=topicA, qos=AT_MOST_ONCE
40131 [hawtdispatch-DEFAULT-3] INFO  DataIntegrityVerifier  - Ok. clientId=Subscriber_001, topic=topicA, qos=AT_MOST_ONCE
40233 [hawtdispatch-DEFAULT-3] INFO  DataIntegrityVerifier  - Ok. clientId=Subscriber_001, topic=topicA, qos=AT_MOST_ONCE
40327 [hawtdispatch-DEFAULT-3] INFO  DataIntegrityVerifier  - Ok. clientId=Subscriber_001, topic=topicA, qos=AT_MOST_ONCE
40434 [hawtdispatch-DEFAULT-3] INFO  DataIntegrityVerifier  - Ok. clientId=Subscriber_001, topic=topicA, qos=AT_MOST_ONCE
40526 [hawtdispatch-DEFAULT-3] INFO  DataIntegrityVerifier  - Ok. clientId=Subscriber_001, topic=topicA, qos=AT_MOST_ONCE
40627 [hawtdispatch-DEFAULT-3] INFO  DataIntegrityVerifier  - Ok. clientId=Subscriber_001, topic=topicA, qos=AT_MOST_ONCE
40724 [hawtdispatch-DEFAULT-3] INFO  DataIntegrityVerifier  - Ok. clientId=Subscriber_001, topic=topicA, qos=AT_MOST_ONCE
40827 [hawtdispatch-DEFAULT-3] INFO  DataIntegrityVerifier  - Ok. clientId=Subscriber_001, topic=topicA, qos=AT_MOST_ONCE
40924 [hawtdispatch-DEFAULT-3] INFO  DataIntegrityVerifier  - Ok. clientId=Subscriber_001, topic=topicA, qos=AT_MOST_ONCE
41022 [hawtdispatch-DEFAULT-3] INFO  DataIntegrityVerifier  - Ok. clientId=Subscriber_001, topic=topicA, qos=AT_MOST_ONCE
41155 [hawtdispatch-DEFAULT-3] INFO  DataIntegrityVerifier  - Ok. clientId=Subscriber_001, topic=topicA, qos=AT_MOST_ONCE
41235 [hawtdispatch-DEFAULT-3] INFO  DataIntegrityVerifier  - Ok. clientId=Subscriber_001, topic=topicA, qos=AT_MOST_ONCE
41327 [hawtdispatch-DEFAULT-3] INFO  DataIntegrityVerifier  - Ok. clientId=Subscriber_001, topic=topicA, qos=AT_MOST_ONCE
41431 [hawtdispatch-DEFAULT-3] INFO  DataIntegrityVerifier  - Ok. clientId=Subscriber_001, topic=topicA, qos=AT_MOST_ONCE
41530 [hawtdispatch-DEFAULT-3] INFO  DataIntegrityVerifier  - Ok. clientId=Subscriber_001, topic=topicA, qos=AT_MOST_ONCE
41630 [hawtdispatch-DEFAULT-3] INFO  DataIntegrityVerifier  - Ok. clientId=Subscriber_001, topic=topicA, qos=AT_MOST_ONCE
41728 [hawtdispatch-DEFAULT-3] INFO  DataIntegrityVerifier  - Ok. clientId=Subscriber_001, topic=topicA, qos=AT_MOST_ONCE
41826 [hawtdispatch-DEFAULT-3] INFO  DataIntegrityVerifier  - Ok. clientId=Subscriber_001, topic=topicA, qos=AT_MOST_ONCE
41931 [hawtdispatch-DEFAULT-3] INFO  DataIntegrityVerifier  - Ok. clientId=Subscriber_001, topic=topicA, qos=AT_MOST_ONCE
42033 [hawtdispatch-DEFAULT-3] INFO  DataIntegrityVerifier  - Ok. clientId=Subscriber_001, topic=topicA, qos=AT_MOST_ONCE
42132 [hawtdispatch-DEFAULT-3] INFO  DataIntegrityVerifier  - Ok. clientId=Subscriber_001, topic=topicA, qos=AT_MOST_ONCE
42229 [hawtdispatch-DEFAULT-3] INFO  DataIntegrityVerifier  - Ok. clientId=Subscriber_001, topic=topicA, qos=AT_MOST_ONCE
42330 [hawtdispatch-DEFAULT-3] INFO  DataIntegrityVerifier  - Ok. clientId=Subscriber_001, topic=topicA, qos=AT_MOST_ONCE
42430 [hawtdispatch-DEFAULT-3] INFO  DataIntegrityVerifier  - Ok. clientId=Subscriber_001, topic=topicA, qos=AT_MOST_ONCE
42530 [hawtdispatch-DEFAULT-3] INFO  DataIntegrityVerifier  - Ok. clientId=Subscriber_001, topic=topicA, qos=AT_MOST_ONCE
42634 [hawtdispatch-DEFAULT-3] INFO  DataIntegrityVerifier  - Ok. clientId=Subscriber_001, topic=topicA, qos=AT_MOST_ONCE
42728 [hawtdispatch-DEFAULT-3] INFO  DataIntegrityVerifier  - Ok. clientId=Subscriber_001, topic=topicA, qos=AT_MOST_ONCE
42837 [hawtdispatch-DEFAULT-3] INFO  DataIntegrityVerifier  - Ok. clientId=Subscriber_001, topic=topicA, qos=AT_MOST_ONCE
42925 [hawtdispatch-DEFAULT-3] INFO  DataIntegrityVerifier  - Ok. clientId=Subscriber_001, topic=topicA, qos=AT_MOST_ONCE
43026 [hawtdispatch-DEFAULT-3] INFO  DataIntegrityVerifier  - Ok. clientId=Subscriber_001, topic=topicA, qos=AT_MOST_ONCE
43138 [hawtdispatch-DEFAULT-3] INFO  DataIntegrityVerifier  - Ok. clientId=Subscriber_001, topic=topicA, qos=AT_MOST_ONCE
43232 [hawtdispatch-DEFAULT-3] INFO  DataIntegrityVerifier  - Ok. clientId=Subscriber_001, topic=topicA, qos=AT_MOST_ONCE
43337 [hawtdispatch-DEFAULT-3] INFO  DataIntegrityVerifier  - Ok. clientId=Subscriber_001, topic=topicA, qos=AT_MOST_ONCE
43427 [hawtdispatch-DEFAULT-3] INFO  DataIntegrityVerifier  - Ok. clientId=Subscriber_001, topic=topicA, qos=AT_MOST_ONCE
43531 [hawtdispatch-DEFAULT-3] INFO  DataIntegrityVerifier  - Ok. clientId=Subscriber_001, topic=topicA, qos=AT_MOST_ONCE
43645 [hawtdispatch-DEFAULT-3] INFO  DataIntegrityVerifier  - Ok. clientId=Subscriber_001, topic=topicA, qos=AT_MOST_ONCE
43726 [hawtdispatch-DEFAULT-3] INFO  DataIntegrityVerifier  - Ok. clientId=Subscriber_001, topic=topicA, qos=AT_MOST_ONCE
43838 [hawtdispatch-DEFAULT-3] INFO  DataIntegrityVerifier  - Ok. clientId=Subscriber_001, topic=topicA, qos=AT_MOST_ONCE
43934 [hawtdispatch-DEFAULT-3] INFO  DataIntegrityVerifier  - Ok. clientId=Subscriber_001, topic=topicA, qos=AT_MOST_ONCE
44031 [hawtdispatch-DEFAULT-3] INFO  DataIntegrityVerifier  - Ok. clientId=Subscriber_001, topic=topicA, qos=AT_MOST_ONCE
44131 [hawtdispatch-DEFAULT-3] INFO  DataIntegrityVerifier  - Ok. clientId=Subscriber_001, topic=topicA, qos=AT_MOST_ONCE
44228 [hawtdispatch-DEFAULT-3] INFO  DataIntegrityVerifier  - Ok. clientId=Subscriber_001, topic=topicA, qos=AT_MOST_ONCE
44327 [hawtdispatch-DEFAULT-3] INFO  DataIntegrityVerifier  - Ok. clientId=Subscriber_001, topic=topicA, qos=AT_MOST_ONCE
44432 [hawtdispatch-DEFAULT-3] INFO  DataIntegrityVerifier  - Ok. clientId=Subscriber_001, topic=topicA, qos=AT_MOST_ONCE
44537 [hawtdispatch-DEFAULT-3] INFO  DataIntegrityVerifier  - Ok. clientId=Subscriber_001, topic=topicA, qos=AT_MOST_ONCE
44636 [hawtdispatch-DEFAULT-3] INFO  DataIntegrityVerifier  - Ok. clientId=Subscriber_001, topic=topicA, qos=AT_MOST_ONCE
44739 [hawtdispatch-DEFAULT-3] INFO  DataIntegrityVerifier  - Ok. clientId=Subscriber_001, topic=topicA, qos=AT_MOST_ONCE
44832 [hawtdispatch-DEFAULT-1] INFO  DataIntegrityVerifier  - Ok. clientId=Subscriber_001, topic=topicA, qos=AT_MOST_ONCE
44928 [hawtdispatch-DEFAULT-3] INFO  DataIntegrityVerifier  - Ok. clientId=Subscriber_001, topic=topicA, qos=AT_MOST_ONCE
45030 [hawtdispatch-DEFAULT-3] INFO  DataIntegrityVerifier  - Ok. clientId=Subscriber_001, topic=topicA, qos=AT_MOST_ONCE
45126 [hawtdispatch-DEFAULT-3] INFO  DataIntegrityVerifier  - Ok. clientId=Subscriber_001, topic=topicA, qos=AT_MOST_ONCE
45229 [hawtdispatch-DEFAULT-3] INFO  DataIntegrityVerifier  - Ok. clientId=Subscriber_001, topic=topicA, qos=AT_MOST_ONCE
45326 [hawtdispatch-DEFAULT-3] INFO  DataIntegrityVerifier  - Ok. clientId=Subscriber_001, topic=topicA, qos=AT_MOST_ONCE
45443 [hawtdispatch-DEFAULT-3] INFO  DataIntegrityVerifier  - Ok. clientId=Subscriber_001, topic=topicA, qos=AT_MOST_ONCE
45535 [hawtdispatch-DEFAULT-3] INFO  DataIntegrityVerifier  - Ok. clientId=Subscriber_001, topic=topicA, qos=AT_MOST_ONCE
45640 [hawtdispatch-DEFAULT-3] INFO  DataIntegrityVerifier  - Ok. clientId=Subscriber_001, topic=topicA, qos=AT_MOST_ONCE
45754 [hawtdispatch-DEFAULT-3] INFO  DataIntegrityVerifier  - Ok. clientId=Subscriber_001, topic=topicA, qos=AT_MOST_ONCE
45828 [hawtdispatch-DEFAULT-3] INFO  DataIntegrityVerifier  - Ok. clientId=Subscriber_001, topic=topicA, qos=AT_MOST_ONCE
45937 [hawtdispatch-DEFAULT-3] INFO  DataIntegrityVerifier  - Ok. clientId=Subscriber_001, topic=topicA, qos=AT_MOST_ONCE
46026 [hawtdispatch-DEFAULT-3] INFO  DataIntegrityVerifier  - Ok. clientId=Subscriber_001, topic=topicA, qos=AT_MOST_ONCE
46130 [hawtdispatch-DEFAULT-3] INFO  DataIntegrityVerifier  - Ok. clientId=Subscriber_001, topic=topicA, qos=AT_MOST_ONCE
46228 [hawtdispatch-DEFAULT-3] INFO  DataIntegrityVerifier  - Ok. clientId=Subscriber_001, topic=topicA, qos=AT_MOST_ONCE
46326 [hawtdispatch-DEFAULT-3] INFO  DataIntegrityVerifier  - Ok. clientId=Subscriber_001, topic=topicA, qos=AT_MOST_ONCE
46437 [hawtdispatch-DEFAULT-3] INFO  DataIntegrityVerifier  - Ok. clientId=Subscriber_001, topic=topicA, qos=AT_MOST_ONCE
46532 [hawtdispatch-DEFAULT-3] INFO  DataIntegrityVerifier  - Ok. clientId=Subscriber_001, topic=topicA, qos=AT_MOST_ONCE
46635 [hawtdispatch-DEFAULT-3] INFO  DataIntegrityVerifier  - Ok. clientId=Subscriber_001, topic=topicA, qos=AT_MOST_ONCE
46736 [hawtdispatch-DEFAULT-3] INFO  DataIntegrityVerifier  - Ok. clientId=Subscriber_001, topic=topicA, qos=AT_MOST_ONCE
46845 [hawtdispatch-DEFAULT-3] INFO  DataIntegrityVerifier  - Ok. clientId=Subscriber_001, topic=topicA, qos=AT_MOST_ONCE
46928 [hawtdispatch-DEFAULT-3] INFO  DataIntegrityVerifier  - Ok. clientId=Subscriber_001, topic=topicA, qos=AT_MOST_ONCE
47032 [hawtdispatch-DEFAULT-3] INFO  DataIntegrityVerifier  - Ok. clientId=Subscriber_001, topic=topicA, qos=AT_MOST_ONCE
47135 [hawtdispatch-DEFAULT-3] INFO  DataIntegrityVerifier  - Ok. clientId=Subscriber_001, topic=topicA, qos=AT_MOST_ONCE
47231 [hawtdispatch-DEFAULT-3] INFO  DataIntegrityVerifier  - Ok. clientId=Subscriber_001, topic=topicA, qos=AT_MOST_ONCE
47330 [hawtdispatch-DEFAULT-3] INFO  DataIntegrityVerifier  - Ok. clientId=Subscriber_001, topic=topicA, qos=AT_MOST_ONCE
47447 [hawtdispatch-DEFAULT-3] INFO  DataIntegrityVerifier  - Ok. clientId=Subscriber_001, topic=topicA, qos=AT_MOST_ONCE
47532 [hawtdispatch-DEFAULT-3] INFO  DataIntegrityVerifier  - Ok. clientId=Subscriber_001, topic=topicA, qos=AT_MOST_ONCE
47631 [hawtdispatch-DEFAULT-3] INFO  DataIntegrityVerifier  - Ok. clientId=Subscriber_001, topic=topicA, qos=AT_MOST_ONCE
47730 [hawtdispatch-DEFAULT-3] INFO  DataIntegrityVerifier  - Ok. clientId=Subscriber_001, topic=topicA, qos=AT_MOST_ONCE
47835 [hawtdispatch-DEFAULT-3] INFO  DataIntegrityVerifier  - Ok. clientId=Subscriber_001, topic=topicA, qos=AT_MOST_ONCE
47930 [hawtdispatch-DEFAULT-3] INFO  DataIntegrityVerifier  - Ok. clientId=Subscriber_001, topic=topicA, qos=AT_MOST_ONCE
48036 [hawtdispatch-DEFAULT-3] INFO  DataIntegrityVerifier  - Ok. clientId=Subscriber_001, topic=topicA, qos=AT_MOST_ONCE
48131 [hawtdispatch-DEFAULT-3] INFO  DataIntegrityVerifier  - Ok. clientId=Subscriber_001, topic=topicA, qos=AT_MOST_ONCE
48231 [hawtdispatch-DEFAULT-3] INFO  DataIntegrityVerifier  - Ok. clientId=Subscriber_001, topic=topicA, qos=AT_MOST_ONCE
48332 [hawtdispatch-DEFAULT-3] INFO  DataIntegrityVerifier  - Ok. clientId=Subscriber_001, topic=topicA, qos=AT_MOST_ONCE
48434 [hawtdispatch-DEFAULT-3] INFO  DataIntegrityVerifier  - Ok. clientId=Subscriber_001, topic=topicA, qos=AT_MOST_ONCE
48530 [hawtdispatch-DEFAULT-3] INFO  DataIntegrityVerifier  - Ok. clientId=Subscriber_001, topic=topicA, qos=AT_MOST_ONCE
48628 [hawtdispatch-DEFAULT-3] INFO  DataIntegrityVerifier  - Ok. clientId=Subscriber_001, topic=topicA, qos=AT_MOST_ONCE
48725 [hawtdispatch-DEFAULT-3] INFO  DataIntegrityVerifier  - Ok. clientId=Subscriber_001, topic=topicA, qos=AT_MOST_ONCE
48830 [hawtdispatch-DEFAULT-3] INFO  DataIntegrityVerifier  - Ok. clientId=Subscriber_001, topic=topicA, qos=AT_MOST_ONCE
48941 [hawtdispatch-DEFAULT-3] INFO  DataIntegrityVerifier  - Ok. clientId=Subscriber_001, topic=topicA, qos=AT_MOST_ONCE
49038 [hawtdispatch-DEFAULT-3] INFO  DataIntegrityVerifier  - Ok. clientId=Subscriber_001, topic=topicA, qos=AT_MOST_ONCE
49135 [hawtdispatch-DEFAULT-3] INFO  DataIntegrityVerifier  - Ok. clientId=Subscriber_001, topic=topicA, qos=AT_MOST_ONCE
49235 [hawtdispatch-DEFAULT-3] INFO  DataIntegrityVerifier  - Ok. clientId=Subscriber_001, topic=topicA, qos=AT_MOST_ONCE
49333 [hawtdispatch-DEFAULT-1] INFO  DataIntegrityVerifier  - Ok. clientId=Subscriber_001, topic=topicA, qos=AT_MOST_ONCE
49435 [hawtdispatch-DEFAULT-1] INFO  DataIntegrityVerifier  - Ok. clientId=Subscriber_001, topic=topicA, qos=AT_MOST_ONCE
49527 [hawtdispatch-DEFAULT-1] INFO  DataIntegrityVerifier  - Ok. clientId=Subscriber_001, topic=topicA, qos=AT_MOST_ONCE
49628 [hawtdispatch-DEFAULT-1] INFO  DataIntegrityVerifier  - Ok. clientId=Subscriber_001, topic=topicA, qos=AT_MOST_ONCE
49736 [hawtdispatch-DEFAULT-3] INFO  DataIntegrityVerifier  - Ok. clientId=Subscriber_001, topic=topicA, qos=AT_MOST_ONCE
49830 [hawtdispatch-DEFAULT-1] INFO  DataIntegrityVerifier  - Ok. clientId=Subscriber_001, topic=topicA, qos=AT_MOST_ONCE
49933 [hawtdispatch-DEFAULT-3] INFO  DataIntegrityVerifier  - Ok. clientId=Subscriber_001, topic=topicA, qos=AT_MOST_ONCE
50033 [hawtdispatch-DEFAULT-3] INFO  DataIntegrityVerifier  - Ok. clientId=Subscriber_001, topic=topicA, qos=AT_MOST_ONCE
50133 [hawtdispatch-DEFAULT-3] INFO  DataIntegrityVerifier  - Ok. clientId=Subscriber_001, topic=topicA, qos=AT_MOST_ONCE
50236 [hawtdispatch-DEFAULT-3] INFO  DataIntegrityVerifier  - Ok. clientId=Subscriber_001, topic=topicA, qos=AT_MOST_ONCE
50324 [hawtdispatch-DEFAULT-3] INFO  DataIntegrityVerifier  - Ok. clientId=Subscriber_001, topic=topicA, qos=AT_MOST_ONCE
50438 [hawtdispatch-DEFAULT-3] INFO  DataIntegrityVerifier  - Ok. clientId=Subscriber_001, topic=topicA, qos=AT_MOST_ONCE
50534 [hawtdispatch-DEFAULT-3] INFO  DataIntegrityVerifier  - Ok. clientId=Subscriber_001, topic=topicA, qos=AT_MOST_ONCE
50638 [hawtdispatch-DEFAULT-3] INFO  DataIntegrityVerifier  - Ok. clientId=Subscriber_001, topic=topicA, qos=AT_MOST_ONCE
50739 [hawtdispatch-DEFAULT-3] INFO  DataIntegrityVerifier  - Ok. clientId=Subscriber_001, topic=topicA, qos=AT_MOST_ONCE
50831 [hawtdispatch-DEFAULT-3] INFO  DataIntegrityVerifier  - Ok. clientId=Subscriber_001, topic=topicA, qos=AT_MOST_ONCE
50938 [hawtdispatch-DEFAULT-3] INFO  DataIntegrityVerifier  - Ok. clientId=Subscriber_001, topic=topicA, qos=AT_MOST_ONCE
51029 [hawtdispatch-DEFAULT-3] INFO  DataIntegrityVerifier  - Ok. clientId=Subscriber_001, topic=topicA, qos=AT_MOST_ONCE
51126 [hawtdispatch-DEFAULT-3] INFO  DataIntegrityVerifier  - Ok. clientId=Subscriber_001, topic=topicA, qos=AT_MOST_ONCE
51234 [hawtdispatch-DEFAULT-3] INFO  DataIntegrityVerifier  - Ok. clientId=Subscriber_001, topic=topicA, qos=AT_MOST_ONCE
51335 [hawtdispatch-DEFAULT-3] INFO  DataIntegrityVerifier  - Ok. clientId=Subscriber_001, topic=topicA, qos=AT_MOST_ONCE
51430 [hawtdispatch-DEFAULT-3] INFO  DataIntegrityVerifier  - Ok. clientId=Subscriber_001, topic=topicA, qos=AT_MOST_ONCE
51525 [hawtdispatch-DEFAULT-3] INFO  DataIntegrityVerifier  - Ok. clientId=Subscriber_001, topic=topicA, qos=AT_MOST_ONCE
51628 [hawtdispatch-DEFAULT-3] INFO  DataIntegrityVerifier  - Ok. clientId=Subscriber_001, topic=topicA, qos=AT_MOST_ONCE
51735 [hawtdispatch-DEFAULT-3] INFO  DataIntegrityVerifier  - Ok. clientId=Subscriber_001, topic=topicA, qos=AT_MOST_ONCE
51834 [hawtdispatch-DEFAULT-3] INFO  DataIntegrityVerifier  - Ok. clientId=Subscriber_001, topic=topicA, qos=AT_MOST_ONCE
51937 [hawtdispatch-DEFAULT-3] INFO  DataIntegrityVerifier  - Ok. clientId=Subscriber_001, topic=topicA, qos=AT_MOST_ONCE
52037 [hawtdispatch-DEFAULT-3] INFO  DataIntegrityVerifier  - Ok. clientId=Subscriber_001, topic=topicA, qos=AT_MOST_ONCE
52136 [hawtdispatch-DEFAULT-3] INFO  DataIntegrityVerifier  - Ok. clientId=Subscriber_001, topic=topicA, qos=AT_MOST_ONCE
52238 [hawtdispatch-DEFAULT-3] INFO  DataIntegrityVerifier  - Ok. clientId=Subscriber_001, topic=topicA, qos=AT_MOST_ONCE
52324 [hawtdispatch-DEFAULT-3] INFO  DataIntegrityVerifier  - Ok. clientId=Subscriber_001, topic=topicA, qos=AT_MOST_ONCE
52428 [hawtdispatch-DEFAULT-3] INFO  DataIntegrityVerifier  - Ok. clientId=Subscriber_001, topic=topicA, qos=AT_MOST_ONCE
52534 [hawtdispatch-DEFAULT-3] INFO  DataIntegrityVerifier  - Ok. clientId=Subscriber_001, topic=topicA, qos=AT_MOST_ONCE
52635 [hawtdispatch-DEFAULT-3] INFO  DataIntegrityVerifier  - Ok. clientId=Subscriber_001, topic=topicA, qos=AT_MOST_ONCE
52730 [hawtdispatch-DEFAULT-3] INFO  DataIntegrityVerifier  - Ok. clientId=Subscriber_001, topic=topicA, qos=AT_MOST_ONCE
52833 [hawtdispatch-DEFAULT-3] INFO  DataIntegrityVerifier  - Ok. clientId=Subscriber_001, topic=topicA, qos=AT_MOST_ONCE
52929 [hawtdispatch-DEFAULT-3] INFO  DataIntegrityVerifier  - Ok. clientId=Subscriber_001, topic=topicA, qos=AT_MOST_ONCE
53032 [hawtdispatch-DEFAULT-3] INFO  DataIntegrityVerifier  - Ok. clientId=Subscriber_001, topic=topicA, qos=AT_MOST_ONCE
53131 [hawtdispatch-DEFAULT-3] INFO  DataIntegrityVerifier  - Ok. clientId=Subscriber_001, topic=topicA, qos=AT_MOST_ONCE
53234 [hawtdispatch-DEFAULT-3] INFO  DataIntegrityVerifier  - Ok. clientId=Subscriber_001, topic=topicA, qos=AT_MOST_ONCE
53330 [hawtdispatch-DEFAULT-3] INFO  DataIntegrityVerifier  - Ok. clientId=Subscriber_001, topic=topicA, qos=AT_MOST_ONCE
53436 [hawtdispatch-DEFAULT-3] INFO  DataIntegrityVerifier  - Ok. clientId=Subscriber_001, topic=topicA, qos=AT_MOST_ONCE
53539 [hawtdispatch-DEFAULT-3] INFO  DataIntegrityVerifier  - Ok. clientId=Subscriber_001, topic=topicA, qos=AT_MOST_ONCE
53638 [hawtdispatch-DEFAULT-3] INFO  DataIntegrityVerifier  - Ok. clientId=Subscriber_001, topic=topicA, qos=AT_MOST_ONCE
53733 [hawtdispatch-DEFAULT-3] INFO  DataIntegrityVerifier  - Ok. clientId=Subscriber_001, topic=topicA, qos=AT_MOST_ONCE
53841 [hawtdispatch-DEFAULT-3] INFO  DataIntegrityVerifier  - Ok. clientId=Subscriber_001, topic=topicA, qos=AT_MOST_ONCE
53937 [hawtdispatch-DEFAULT-3] INFO  DataIntegrityVerifier  - Ok. clientId=Subscriber_001, topic=topicA, qos=AT_MOST_ONCE
54036 [hawtdispatch-DEFAULT-3] INFO  DataIntegrityVerifier  - Ok. clientId=Subscriber_001, topic=topicA, qos=AT_MOST_ONCE
54136 [hawtdispatch-DEFAULT-3] INFO  DataIntegrityVerifier  - Ok. clientId=Subscriber_001, topic=topicA, qos=AT_MOST_ONCE
54231 [hawtdispatch-DEFAULT-3] INFO  DataIntegrityVerifier  - Ok. clientId=Subscriber_001, topic=topicA, qos=AT_MOST_ONCE
54324 [hawtdispatch-DEFAULT-3] INFO  DataIntegrityVerifier  - Ok. clientId=Subscriber_001, topic=topicA, qos=AT_MOST_ONCE
54430 [hawtdispatch-DEFAULT-3] INFO  DataIntegrityVerifier  - Ok. clientId=Subscriber_001, topic=topicA, qos=AT_MOST_ONCE
54522 [hawtdispatch-DEFAULT-3] INFO  DataIntegrityVerifier  - Ok. clientId=Subscriber_001, topic=topicA, qos=AT_MOST_ONCE
54627 [hawtdispatch-DEFAULT-3] INFO  DataIntegrityVerifier  - Ok. clientId=Subscriber_001, topic=topicA, qos=AT_MOST_ONCE
54731 [hawtdispatch-DEFAULT-3] INFO  DataIntegrityVerifier  - Ok. clientId=Subscriber_001, topic=topicA, qos=AT_MOST_ONCE
54829 [hawtdispatch-DEFAULT-1] INFO  DataIntegrityVerifier  - Ok. clientId=Subscriber_001, topic=topicA, qos=AT_MOST_ONCE
54946 [hawtdispatch-DEFAULT-1] INFO  DataIntegrityVerifier  - Ok. clientId=Subscriber_001, topic=topicA, qos=AT_MOST_ONCE
55033 [hawtdispatch-DEFAULT-3] INFO  DataIntegrityVerifier  - Ok. clientId=Subscriber_001, topic=topicA, qos=AT_MOST_ONCE
55134 [hawtdispatch-DEFAULT-1] INFO  DataIntegrityVerifier  - Ok. clientId=Subscriber_001, topic=topicA, qos=AT_MOST_ONCE
55232 [hawtdispatch-DEFAULT-3] INFO  DataIntegrityVerifier  - Ok. clientId=Subscriber_001, topic=topicA, qos=AT_MOST_ONCE
55331 [hawtdispatch-DEFAULT-3] INFO  DataIntegrityVerifier  - Ok. clientId=Subscriber_001, topic=topicA, qos=AT_MOST_ONCE
55439 [hawtdispatch-DEFAULT-3] INFO  DataIntegrityVerifier  - Ok. clientId=Subscriber_001, topic=topicA, qos=AT_MOST_ONCE
55539 [hawtdispatch-DEFAULT-1] INFO  DataIntegrityVerifier  - Ok. clientId=Subscriber_001, topic=topicA, qos=AT_MOST_ONCE
55635 [hawtdispatch-DEFAULT-3] INFO  DataIntegrityVerifier  - Ok. clientId=Subscriber_001, topic=topicA, qos=AT_MOST_ONCE
55736 [hawtdispatch-DEFAULT-1] INFO  DataIntegrityVerifier  - Ok. clientId=Subscriber_001, topic=topicA, qos=AT_MOST_ONCE
55838 [hawtdispatch-DEFAULT-3] INFO  DataIntegrityVerifier  - Ok. clientId=Subscriber_001, topic=topicA, qos=AT_MOST_ONCE
55929 [hawtdispatch-DEFAULT-3] INFO  DataIntegrityVerifier  - Ok. clientId=Subscriber_001, topic=topicA, qos=AT_MOST_ONCE
56043 [hawtdispatch-DEFAULT-3] INFO  DataIntegrityVerifier  - Ok. clientId=Subscriber_001, topic=topicA, qos=AT_MOST_ONCE
56138 [hawtdispatch-DEFAULT-3] INFO  DataIntegrityVerifier  - Ok. clientId=Subscriber_001, topic=topicA, qos=AT_MOST_ONCE
56236 [hawtdispatch-DEFAULT-3] INFO  DataIntegrityVerifier  - Ok. clientId=Subscriber_001, topic=topicA, qos=AT_MOST_ONCE
56329 [hawtdispatch-DEFAULT-3] INFO  DataIntegrityVerifier  - Ok. clientId=Subscriber_001, topic=topicA, qos=AT_MOST_ONCE
56427 [hawtdispatch-DEFAULT-3] INFO  DataIntegrityVerifier  - Ok. clientId=Subscriber_001, topic=topicA, qos=AT_MOST_ONCE
56530 [hawtdispatch-DEFAULT-3] INFO  DataIntegrityVerifier  - Ok. clientId=Subscriber_001, topic=topicA, qos=AT_MOST_ONCE
56629 [hawtdispatch-DEFAULT-3] INFO  DataIntegrityVerifier  - Ok. clientId=Subscriber_001, topic=topicA, qos=AT_MOST_ONCE
56728 [hawtdispatch-DEFAULT-3] INFO  DataIntegrityVerifier  - Ok. clientId=Subscriber_001, topic=topicA, qos=AT_MOST_ONCE
56823 [hawtdispatch-DEFAULT-3] INFO  DataIntegrityVerifier  - Ok. clientId=Subscriber_001, topic=topicA, qos=AT_MOST_ONCE
56932 [hawtdispatch-DEFAULT-3] INFO  DataIntegrityVerifier  - Ok. clientId=Subscriber_001, topic=topicA, qos=AT_MOST_ONCE
57028 [hawtdispatch-DEFAULT-3] INFO  DataIntegrityVerifier  - Ok. clientId=Subscriber_001, topic=topicA, qos=AT_MOST_ONCE
57125 [hawtdispatch-DEFAULT-3] INFO  DataIntegrityVerifier  - Ok. clientId=Subscriber_001, topic=topicA, qos=AT_MOST_ONCE
57222 [hawtdispatch-DEFAULT-3] INFO  DataIntegrityVerifier  - Ok. clientId=Subscriber_001, topic=topicA, qos=AT_MOST_ONCE
57326 [hawtdispatch-DEFAULT-3] INFO  DataIntegrityVerifier  - Ok. clientId=Subscriber_001, topic=topicA, qos=AT_MOST_ONCE
57434 [hawtdispatch-DEFAULT-3] INFO  DataIntegrityVerifier  - Ok. clientId=Subscriber_001, topic=topicA, qos=AT_MOST_ONCE
57533 [hawtdispatch-DEFAULT-3] INFO  DataIntegrityVerifier  - Ok. clientId=Subscriber_001, topic=topicA, qos=AT_MOST_ONCE
57630 [hawtdispatch-DEFAULT-3] INFO  DataIntegrityVerifier  - Ok. clientId=Subscriber_001, topic=topicA, qos=AT_MOST_ONCE
57734 [hawtdispatch-DEFAULT-3] INFO  DataIntegrityVerifier  - Ok. clientId=Subscriber_001, topic=topicA, qos=AT_MOST_ONCE
57831 [hawtdispatch-DEFAULT-3] INFO  DataIntegrityVerifier  - Ok. clientId=Subscriber_001, topic=topicA, qos=AT_MOST_ONCE
57938 [hawtdispatch-DEFAULT-3] INFO  DataIntegrityVerifier  - Ok. clientId=Subscriber_001, topic=topicA, qos=AT_MOST_ONCE
58032 [hawtdispatch-DEFAULT-3] INFO  DataIntegrityVerifier  - Ok. clientId=Subscriber_001, topic=topicA, qos=AT_MOST_ONCE
58129 [hawtdispatch-DEFAULT-3] INFO  DataIntegrityVerifier  - Ok. clientId=Subscriber_001, topic=topicA, qos=AT_MOST_ONCE
58231 [hawtdispatch-DEFAULT-3] INFO  DataIntegrityVerifier  - Ok. clientId=Subscriber_001, topic=topicA, qos=AT_MOST_ONCE
58323 [hawtdispatch-DEFAULT-3] INFO  DataIntegrityVerifier  - Ok. clientId=Subscriber_001, topic=topicA, qos=AT_MOST_ONCE
58429 [hawtdispatch-DEFAULT-3] INFO  DataIntegrityVerifier  - Ok. clientId=Subscriber_001, topic=topicA, qos=AT_MOST_ONCE
58533 [hawtdispatch-DEFAULT-3] INFO  DataIntegrityVerifier  - Ok. clientId=Subscriber_001, topic=topicA, qos=AT_MOST_ONCE
58629 [hawtdispatch-DEFAULT-3] INFO  DataIntegrityVerifier  - Ok. clientId=Subscriber_001, topic=topicA, qos=AT_MOST_ONCE
58734 [hawtdispatch-DEFAULT-3] INFO  DataIntegrityVerifier  - Ok. clientId=Subscriber_001, topic=topicA, qos=AT_MOST_ONCE
58831 [hawtdispatch-DEFAULT-3] INFO  DataIntegrityVerifier  - Ok. clientId=Subscriber_001, topic=topicA, qos=AT_MOST_ONCE
58940 [hawtdispatch-DEFAULT-3] INFO  DataIntegrityVerifier  - Ok. clientId=Subscriber_001, topic=topicA, qos=AT_MOST_ONCE
59062 [hawtdispatch-DEFAULT-3] INFO  DataIntegrityVerifier  - Ok. clientId=Subscriber_001, topic=topicA, qos=AT_MOST_ONCE
59131 [hawtdispatch-DEFAULT-3] INFO  DataIntegrityVerifier  - Ok. clientId=Subscriber_001, topic=topicA, qos=AT_MOST_ONCE
59262 [hawtdispatch-DEFAULT-3] INFO  DataIntegrityVerifier  - Ok. clientId=Subscriber_001, topic=topicA, qos=AT_MOST_ONCE
59326 [hawtdispatch-DEFAULT-3] INFO  DataIntegrityVerifier  - Ok. clientId=Subscriber_001, topic=topicA, qos=AT_MOST_ONCE
59429 [hawtdispatch-DEFAULT-3] INFO  DataIntegrityVerifier  - Ok. clientId=Subscriber_001, topic=topicA, qos=AT_MOST_ONCE
59539 [hawtdispatch-DEFAULT-1] INFO  DataIntegrityVerifier  - Ok. clientId=Subscriber_001, topic=topicA, qos=AT_MOST_ONCE
59652 [hawtdispatch-DEFAULT-3] INFO  DataIntegrityVerifier  - Ok. clientId=Subscriber_001, topic=topicA, qos=AT_MOST_ONCE
59736 [hawtdispatch-DEFAULT-3] INFO  DataIntegrityVerifier  - Ok. clientId=Subscriber_001, topic=topicA, qos=AT_MOST_ONCE
59828 [hawtdispatch-DEFAULT-3] INFO  DataIntegrityVerifier  - Ok. clientId=Subscriber_001, topic=topicA, qos=AT_MOST_ONCE
59929 [hawtdispatch-DEFAULT-3] INFO  DataIntegrityVerifier  - Ok. clientId=Subscriber_001, topic=topicA, qos=AT_MOST_ONCE
60025 [hawtdispatch-DEFAULT-3] INFO  DataIntegrityVerifier  - Ok. clientId=Subscriber_001, topic=topicA, qos=AT_MOST_ONCE
60130 [hawtdispatch-DEFAULT-3] INFO  DataIntegrityVerifier  - Ok. clientId=Subscriber_001, topic=topicA, qos=AT_MOST_ONCE
60227 [hawtdispatch-DEFAULT-3] INFO  DataIntegrityVerifier  - Ok. clientId=Subscriber_001, topic=topicA, qos=AT_MOST_ONCE
60328 [hawtdispatch-DEFAULT-3] INFO  DataIntegrityVerifier  - Ok. clientId=Subscriber_001, topic=topicA, qos=AT_MOST_ONCE
60430 [hawtdispatch-DEFAULT-3] INFO  DataIntegrityVerifier  - Ok. clientId=Subscriber_001, topic=topicA, qos=AT_MOST_ONCE
60528 [hawtdispatch-DEFAULT-3] INFO  DataIntegrityVerifier  - Ok. clientId=Subscriber_001, topic=topicA, qos=AT_MOST_ONCE
60631 [hawtdispatch-DEFAULT-3] INFO  DataIntegrityVerifier  - Ok. clientId=Subscriber_001, topic=topicA, qos=AT_MOST_ONCE
60729 [hawtdispatch-DEFAULT-3] INFO  DataIntegrityVerifier  - Ok. clientId=Subscriber_001, topic=topicA, qos=AT_MOST_ONCE
60826 [hawtdispatch-DEFAULT-3] INFO  DataIntegrityVerifier  - Ok. clientId=Subscriber_001, topic=topicA, qos=AT_MOST_ONCE
60928 [hawtdispatch-DEFAULT-3] INFO  DataIntegrityVerifier  - Ok. clientId=Subscriber_001, topic=topicA, qos=AT_MOST_ONCE
61022 [hawtdispatch-DEFAULT-3] INFO  DataIntegrityVerifier  - Ok. clientId=Subscriber_001, topic=topicA, qos=AT_MOST_ONCE
61125 [hawtdispatch-DEFAULT-3] INFO  DataIntegrityVerifier  - Ok. clientId=Subscriber_001, topic=topicA, qos=AT_MOST_ONCE
61226 [hawtdispatch-DEFAULT-3] INFO  DataIntegrityVerifier  - Ok. clientId=Subscriber_001, topic=topicA, qos=AT_MOST_ONCE
61323 [hawtdispatch-DEFAULT-3] INFO  DataIntegrityVerifier  - Ok. clientId=Subscriber_001, topic=topicA, qos=AT_MOST_ONCE
61430 [hawtdispatch-DEFAULT-3] INFO  DataIntegrityVerifier  - Ok. clientId=Subscriber_001, topic=topicA, qos=AT_MOST_ONCE
