clientId,topic,guid,broker,timestamp,type
Publisher_002,topicA,topicA-1,172.172.1.2:1883,1551644788226,PRODUCED
Publisher_002,topicA,topicA-2,172.172.1.2:1883,1551644788502,PRODUCED
Publisher_002,topicA,topicA-3,172.172.1.2:1883,1551644788516,PRODUCED
Publisher_002,topicA,topicA-4,172.172.1.2:1883,1551644788523,PRODUCED
Publisher_002,topicA,topicA-5,172.172.1.2:1883,1551644788527,PRODUCED
Publisher_002,topicA,topicA-6,172.172.1.2:1883,1551644788543,PRODUCED
Publisher_002,topicA,topicA-7,172.172.1.2:1883,1551644788643,PRODUCED
Publisher_002,topicA,topicA-8,172.172.1.2:1883,1551644788749,PRODUCED
Publisher_002,topicA,topicA-9,172.172.1.2:1883,1551644788844,PRODUCED
Publisher_002,topicA,topicA-10,172.172.1.2:1883,1551644788943,PRODUCED
Publisher_002,topicA,topicA-11,172.172.1.2:1883,1551644789046,PRODUCED
Publisher_002,topicA,topicA-12,172.172.1.2:1883,1551644789145,PRODUCED
Publisher_002,topicA,topicA-13,172.172.1.2:1883,1551644789243,PRODUCED
Publisher_002,topicA,topicA-14,172.172.1.2:1883,1551644789343,PRODUCED
Publisher_002,topicA,topicA-15,172.172.1.2:1883,1551644789449,PRODUCED
Publisher_002,topicA,topicA-16,172.172.1.2:1883,1551644789543,PRODUCED
Publisher_002,topicA,topicA-17,172.172.1.2:1883,1551644789643,PRODUCED
Publisher_002,topicA,topicA-18,172.172.1.2:1883,1551644789744,PRODUCED
Publisher_002,topicA,topicA-19,172.172.1.2:1883,1551644789843,PRODUCED
Publisher_002,topicA,topicA-20,172.172.1.2:1883,1551644789946,PRODUCED
Publisher_002,topicA,topicA-21,172.172.1.2:1883,1551644790048,PRODUCED
Publisher_002,topicA,topicA-22,172.172.1.2:1883,1551644790143,PRODUCED
Publisher_002,topicA,topicA-23,172.172.1.2:1883,1551644790251,PRODUCED
Publisher_002,topicA,topicA-24,172.172.1.2:1883,1551644790343,PRODUCED
Publisher_002,topicA,topicA-25,172.172.1.2:1883,1551644790443,PRODUCED
Publisher_002,topicA,topicA-26,172.172.1.2:1883,1551644790543,PRODUCED
Publisher_002,topicA,topicA-27,172.172.1.2:1883,1551644790643,PRODUCED
Publisher_002,topicA,topicA-28,172.172.1.2:1883,1551644790744,PRODUCED
Publisher_002,topicA,topicA-29,172.172.1.2:1883,1551644790843,PRODUCED
Publisher_002,topicA,topicA-30,172.172.1.2:1883,1551644790943,PRODUCED
Publisher_002,topicA,topicA-31,172.172.1.2:1883,1551644791043,PRODUCED
Publisher_002,topicA,topicA-32,172.172.1.2:1883,1551644791150,PRODUCED
Publisher_002,topicA,topicA-33,172.172.1.2:1883,1551644791243,PRODUCED
Publisher_002,topicA,topicA-34,172.172.1.2:1883,1551644791343,PRODUCED
Publisher_002,topicA,topicA-35,172.172.1.2:1883,1551644791445,PRODUCED
Publisher_002,topicA,topicA-36,172.172.1.2:1883,1551644791543,PRODUCED
Publisher_002,topicA,topicA-37,172.172.1.2:1883,1551644791643,PRODUCED
Publisher_002,topicA,topicA-38,172.172.1.2:1883,1551644791743,PRODUCED
Publisher_002,topicA,topicA-39,172.172.1.2:1883,1551644791843,PRODUCED
Publisher_002,topicA,topicA-40,172.172.1.2:1883,1551644791943,PRODUCED
Publisher_002,topicA,topicA-41,172.172.1.2:1883,1551644792043,PRODUCED
Publisher_002,topicA,topicA-42,172.172.1.2:1883,1551644792143,PRODUCED
Publisher_002,topicA,topicA-43,172.172.1.2:1883,1551644792243,PRODUCED
Publisher_002,topicA,topicA-44,172.172.1.2:1883,1551644792343,PRODUCED
Publisher_002,topicA,topicA-45,172.172.1.2:1883,1551644792443,PRODUCED
Publisher_002,topicA,topicA-46,172.172.1.2:1883,1551644792546,PRODUCED
Publisher_002,topicA,topicA-47,172.172.1.2:1883,1551644792643,PRODUCED
Publisher_002,topicA,topicA-48,172.172.1.2:1883,1551644792743,PRODUCED
Publisher_002,topicA,topicA-49,172.172.1.2:1883,1551644792843,PRODUCED
Publisher_002,topicA,topicA-50,172.172.1.2:1883,1551644792943,PRODUCED
Publisher_002,topicA,topicA-51,172.172.1.2:1883,1551644793044,PRODUCED
Publisher_002,topicA,topicA-52,172.172.1.2:1883,1551644793143,PRODUCED
Publisher_002,topicA,topicA-53,172.172.1.2:1883,1551644793245,PRODUCED
Publisher_002,topicA,topicA-54,172.172.1.2:1883,1551644793343,PRODUCED
Publisher_002,topicA,topicA-55,172.172.1.2:1883,1551644793443,PRODUCED
Publisher_002,topicA,topicA-56,172.172.1.2:1883,1551644793544,PRODUCED
Publisher_002,topicA,topicA-57,172.172.1.2:1883,1551644793644,PRODUCED
Publisher_002,topicA,topicA-58,172.172.1.2:1883,1551644793744,PRODUCED
Publisher_002,topicA,topicA-59,172.172.1.2:1883,1551644793843,PRODUCED
Publisher_002,topicA,topicA-60,172.172.1.2:1883,1551644793944,PRODUCED
Publisher_002,topicA,topicA-61,172.172.1.2:1883,1551644794046,PRODUCED
Publisher_002,topicA,topicA-62,172.172.1.2:1883,1551644794144,PRODUCED
Publisher_002,topicA,topicA-63,172.172.1.2:1883,1551644794244,PRODUCED
Publisher_002,topicA,topicA-64,172.172.1.2:1883,1551644794344,PRODUCED
Publisher_002,topicA,topicA-65,172.172.1.2:1883,1551644794443,PRODUCED
Publisher_002,topicA,topicA-66,172.172.1.2:1883,1551644794545,PRODUCED
Publisher_002,topicA,topicA-67,172.172.1.2:1883,1551644794643,PRODUCED
Publisher_002,topicA,topicA-68,172.172.1.2:1883,1551644794743,PRODUCED
Publisher_002,topicA,topicA-69,172.172.1.2:1883,1551644794844,PRODUCED
Publisher_002,topicA,topicA-70,172.172.1.2:1883,1551644794943,PRODUCED
Publisher_002,topicA,topicA-71,172.172.1.2:1883,1551644795044,PRODUCED
Publisher_002,topicA,topicA-72,172.172.1.2:1883,1551644795143,PRODUCED
Publisher_002,topicA,topicA-73,172.172.1.2:1883,1551644795243,PRODUCED
Publisher_002,topicA,topicA-74,172.172.1.2:1883,1551644795344,PRODUCED
Publisher_002,topicA,topicA-75,172.172.1.2:1883,1551644795443,PRODUCED
Publisher_002,topicA,topicA-76,172.172.1.2:1883,1551644795543,PRODUCED
Publisher_002,topicA,topicA-77,172.172.1.2:1883,1551644795643,PRODUCED
Publisher_002,topicA,topicA-78,172.172.1.2:1883,1551644795744,PRODUCED
Publisher_002,topicA,topicA-79,172.172.1.2:1883,1551644795843,PRODUCED
Publisher_002,topicA,topicA-80,172.172.1.2:1883,1551644795943,PRODUCED
Publisher_002,topicA,topicA-81,172.172.1.2:1883,1551644796043,PRODUCED
Publisher_002,topicA,topicA-82,172.172.1.2:1883,1551644796143,PRODUCED
Publisher_002,topicA,topicA-83,172.172.1.2:1883,1551644796250,PRODUCED
Publisher_002,topicA,topicA-84,172.172.1.2:1883,1551644796344,PRODUCED
Publisher_002,topicA,topicA-85,172.172.1.2:1883,1551644796452,PRODUCED
Publisher_002,topicA,topicA-86,172.172.1.2:1883,1551644796543,PRODUCED
Publisher_002,topicA,topicA-87,172.172.1.2:1883,1551644796643,PRODUCED
Publisher_002,topicA,topicA-88,172.172.1.2:1883,1551644796743,PRODUCED
Publisher_002,topicA,topicA-89,172.172.1.2:1883,1551644796843,PRODUCED
Publisher_002,topicA,topicA-90,172.172.1.2:1883,1551644796944,PRODUCED
Publisher_002,topicA,topicA-91,172.172.1.2:1883,1551644797045,PRODUCED
Publisher_002,topicA,topicA-92,172.172.1.2:1883,1551644797144,PRODUCED
Publisher_002,topicA,topicA-93,172.172.1.2:1883,1551644797244,PRODUCED
Publisher_002,topicA,topicA-94,172.172.1.2:1883,1551644797344,PRODUCED
Publisher_002,topicA,topicA-95,172.172.1.2:1883,1551644797443,PRODUCED
Publisher_002,topicA,topicA-96,172.172.1.2:1883,1551644797543,PRODUCED
Publisher_002,topicA,topicA-97,172.172.1.2:1883,1551644797643,PRODUCED
Publisher_002,topicA,topicA-98,172.172.1.2:1883,1551644797747,PRODUCED
Publisher_002,topicA,topicA-99,172.172.1.2:1883,1551644797844,PRODUCED
Publisher_002,topicA,topicA-100,172.172.1.2:1883,1551644797943,PRODUCED
Publisher_002,topicA,topicA-101,172.172.1.2:1883,1551644798044,PRODUCED
Publisher_002,topicA,topicA-102,172.172.1.2:1883,1551644798144,PRODUCED
Publisher_002,topicA,topicA-103,172.172.1.2:1883,1551644798244,PRODUCED
Publisher_002,topicA,topicA-104,172.172.1.2:1883,1551644798343,PRODUCED
Publisher_002,topicA,topicA-105,172.172.1.2:1883,1551644798443,PRODUCED
Publisher_002,topicA,topicA-106,172.172.1.2:1883,1551644798544,PRODUCED
Publisher_002,topicA,topicA-107,172.172.1.2:1883,1551644798644,PRODUCED
Publisher_002,topicA,topicA-108,172.172.1.2:1883,1551644798744,PRODUCED
Publisher_002,topicA,topicA-109,172.172.1.2:1883,1551644798844,PRODUCED
Publisher_002,topicA,topicA-110,172.172.1.2:1883,1551644798944,PRODUCED
Publisher_002,topicA,topicA-111,172.172.1.2:1883,1551644799052,PRODUCED
Publisher_002,topicA,topicA-112,172.172.1.2:1883,1551644799144,PRODUCED
Publisher_002,topicA,topicA-113,172.172.1.2:1883,1551644799244,PRODUCED
Publisher_002,topicA,topicA-114,172.172.1.2:1883,1551644799343,PRODUCED
Publisher_002,topicA,topicA-115,172.172.1.2:1883,1551644799446,PRODUCED
Publisher_002,topicA,topicA-116,172.172.1.2:1883,1551644799547,PRODUCED
Publisher_002,topicA,topicA-117,172.172.1.2:1883,1551644799648,PRODUCED
Publisher_002,topicA,topicA-118,172.172.1.2:1883,1551644799749,PRODUCED
Publisher_002,topicA,topicA-119,172.172.1.2:1883,1551644799845,PRODUCED
Publisher_002,topicA,topicA-120,172.172.1.2:1883,1551644799943,PRODUCED
Publisher_002,topicA,topicA-121,172.172.1.2:1883,1551644800043,PRODUCED
Publisher_002,topicA,topicA-122,172.172.1.2:1883,1551644800145,PRODUCED
Publisher_002,topicA,topicA-123,172.172.1.2:1883,1551644800246,PRODUCED
Publisher_002,topicA,topicA-124,172.172.1.2:1883,1551644800344,PRODUCED
Publisher_002,topicA,topicA-125,172.172.1.2:1883,1551644800444,PRODUCED
Publisher_002,topicA,topicA-126,172.172.1.2:1883,1551644800544,PRODUCED
Publisher_002,topicA,topicA-127,172.172.1.2:1883,1551644800644,PRODUCED
Publisher_002,topicA,topicA-128,172.172.1.2:1883,1551644800751,PRODUCED
Publisher_002,topicA,topicA-129,172.172.1.2:1883,1551644800845,PRODUCED
Publisher_002,topicA,topicA-130,172.172.1.2:1883,1551644800944,PRODUCED
Publisher_002,topicA,topicA-131,172.172.1.2:1883,1551644801044,PRODUCED
Publisher_002,topicA,topicA-132,172.172.1.2:1883,1551644801144,PRODUCED
Publisher_002,topicA,topicA-133,172.172.1.2:1883,1551644801244,PRODUCED
Publisher_002,topicA,topicA-134,172.172.1.2:1883,1551644801344,PRODUCED
Publisher_002,topicA,topicA-135,172.172.1.2:1883,1551644801444,PRODUCED
Publisher_002,topicA,topicA-136,172.172.1.2:1883,1551644801544,PRODUCED
Publisher_002,topicA,topicA-137,172.172.1.2:1883,1551644801644,PRODUCED
Publisher_002,topicA,topicA-138,172.172.1.2:1883,1551644801744,PRODUCED
Publisher_002,topicA,topicA-139,172.172.1.2:1883,1551644801843,PRODUCED
Publisher_002,topicA,topicA-140,172.172.1.2:1883,1551644801943,PRODUCED
Publisher_002,topicA,topicA-141,172.172.1.2:1883,1551644802046,PRODUCED
Publisher_002,topicA,topicA-142,172.172.1.2:1883,1551644802144,PRODUCED
Publisher_002,topicA,topicA-143,172.172.1.2:1883,1551644802243,PRODUCED
Publisher_002,topicA,topicA-144,172.172.1.2:1883,1551644802343,PRODUCED
Publisher_002,topicA,topicA-145,172.172.1.2:1883,1551644802443,PRODUCED
Publisher_002,topicA,topicA-146,172.172.1.2:1883,1551644802543,PRODUCED
Publisher_002,topicA,topicA-147,172.172.1.2:1883,1551644802644,PRODUCED
Publisher_002,topicA,topicA-148,172.172.1.2:1883,1551644802744,PRODUCED
Publisher_002,topicA,topicA-149,172.172.1.2:1883,1551644802845,PRODUCED
Publisher_002,topicA,topicA-150,172.172.1.2:1883,1551644802944,PRODUCED
Publisher_002,topicA,topicA-151,172.172.1.2:1883,1551644803045,PRODUCED
Publisher_002,topicA,topicA-152,172.172.1.2:1883,1551644803143,PRODUCED
Publisher_002,topicA,topicA-153,172.172.1.2:1883,1551644803243,PRODUCED
Publisher_002,topicA,topicA-154,172.172.1.2:1883,1551644803343,PRODUCED
Publisher_002,topicA,topicA-155,172.172.1.2:1883,1551644803443,PRODUCED
Publisher_002,topicA,topicA-156,172.172.1.2:1883,1551644803543,PRODUCED
Publisher_002,topicA,topicA-157,172.172.1.2:1883,1551644803644,PRODUCED
Publisher_002,topicA,topicA-158,172.172.1.2:1883,1551644803743,PRODUCED
Publisher_002,topicA,topicA-159,172.172.1.2:1883,1551644803844,PRODUCED
Publisher_002,topicA,topicA-160,172.172.1.2:1883,1551644803947,PRODUCED
Publisher_002,topicA,topicA-161,172.172.1.2:1883,1551644804049,PRODUCED
Publisher_002,topicA,topicA-162,172.172.1.2:1883,1551644804143,PRODUCED
Publisher_002,topicA,topicA-163,172.172.1.2:1883,1551644804243,PRODUCED
Publisher_002,topicA,topicA-164,172.172.1.2:1883,1551644804348,PRODUCED
Publisher_002,topicA,topicA-165,172.172.1.2:1883,1551644804443,PRODUCED
Publisher_002,topicA,topicA-166,172.172.1.2:1883,1551644804543,PRODUCED
Publisher_002,topicA,topicA-167,172.172.1.2:1883,1551644804644,PRODUCED
Publisher_002,topicA,topicA-168,172.172.1.2:1883,1551644804748,PRODUCED
Publisher_002,topicA,topicA-169,172.172.1.2:1883,1551644804843,PRODUCED
Publisher_002,topicA,topicA-170,172.172.1.2:1883,1551644804943,PRODUCED
Publisher_002,topicA,topicA-171,172.172.1.2:1883,1551644805047,PRODUCED
Publisher_002,topicA,topicA-172,172.172.1.2:1883,1551644805143,PRODUCED
Publisher_002,topicA,topicA-173,172.172.1.2:1883,1551644805248,PRODUCED
Publisher_002,topicA,topicA-174,172.172.1.2:1883,1551644805347,PRODUCED
Publisher_002,topicA,topicA-175,172.172.1.2:1883,1551644805443,PRODUCED
Publisher_002,topicA,topicA-176,172.172.1.2:1883,1551644805543,PRODUCED
Publisher_002,topicA,topicA-177,172.172.1.2:1883,1551644805643,PRODUCED
Publisher_002,topicA,topicA-178,172.172.1.2:1883,1551644805744,PRODUCED
Publisher_002,topicA,topicA-179,172.172.1.2:1883,1551644805845,PRODUCED
Publisher_002,topicA,topicA-180,172.172.1.2:1883,1551644805943,PRODUCED
Publisher_002,topicA,topicA-181,172.172.1.2:1883,1551644806043,PRODUCED
Publisher_002,topicA,topicA-182,172.172.1.2:1883,1551644806143,PRODUCED
Publisher_002,topicA,topicA-183,172.172.1.2:1883,1551644806244,PRODUCED
Publisher_002,topicA,topicA-184,172.172.1.2:1883,1551644806344,PRODUCED
Publisher_002,topicA,topicA-185,172.172.1.2:1883,1551644806443,PRODUCED
Publisher_002,topicA,topicA-186,172.172.1.2:1883,1551644806543,PRODUCED
Publisher_002,topicA,topicA-187,172.172.1.2:1883,1551644806645,PRODUCED
Publisher_002,topicA,topicA-188,172.172.1.2:1883,1551644806744,PRODUCED
Publisher_002,topicA,topicA-189,172.172.1.2:1883,1551644806843,PRODUCED
Publisher_002,topicA,topicA-190,172.172.1.2:1883,1551644806943,PRODUCED
Publisher_002,topicA,topicA-191,172.172.1.2:1883,1551644807044,PRODUCED
Publisher_002,topicA,topicA-192,172.172.1.2:1883,1551644807146,PRODUCED
Publisher_002,topicA,topicA-193,172.172.1.2:1883,1551644807244,PRODUCED
Publisher_002,topicA,topicA-194,172.172.1.2:1883,1551644807343,PRODUCED
Publisher_002,topicA,topicA-195,172.172.1.2:1883,1551644807444,PRODUCED
Publisher_002,topicA,topicA-196,172.172.1.2:1883,1551644807543,PRODUCED
Publisher_002,topicA,topicA-197,172.172.1.2:1883,1551644807644,PRODUCED
Publisher_002,topicA,topicA-198,172.172.1.2:1883,1551644807744,PRODUCED
Publisher_002,topicA,topicA-199,172.172.1.2:1883,1551644807843,PRODUCED
Publisher_002,topicA,topicA-200,172.172.1.2:1883,1551644807943,PRODUCED
Publisher_002,topicA,topicA-201,172.172.1.2:1883,1551644808043,PRODUCED
Publisher_002,topicA,topicA-202,172.172.1.2:1883,1551644808144,PRODUCED
Publisher_002,topicA,topicA-203,172.172.1.2:1883,1551644808243,PRODUCED
Publisher_002,topicA,topicA-204,172.172.1.2:1883,1551644808343,PRODUCED
Publisher_002,topicA,topicA-205,172.172.1.2:1883,1551644808444,PRODUCED
Publisher_002,topicA,topicA-206,172.172.1.2:1883,1551644808543,PRODUCED
Publisher_002,topicA,topicA-207,172.172.1.2:1883,1551644808648,PRODUCED
Publisher_002,topicA,topicA-208,172.172.1.2:1883,1551644808743,PRODUCED
Publisher_002,topicA,topicA-209,172.172.1.2:1883,1551644808844,PRODUCED
Publisher_002,topicA,topicA-210,172.172.1.2:1883,1551644808944,PRODUCED
Publisher_002,topicA,topicA-211,172.172.1.2:1883,1551644809045,PRODUCED
Publisher_002,topicA,topicA-212,172.172.1.2:1883,1551644809143,PRODUCED
Publisher_002,topicA,topicA-213,172.172.1.2:1883,1551644809244,PRODUCED
Publisher_002,topicA,topicA-214,172.172.1.2:1883,1551644809343,PRODUCED
Publisher_002,topicA,topicA-215,172.172.1.2:1883,1551644809445,PRODUCED
Publisher_002,topicA,topicA-216,172.172.1.2:1883,1551644809543,PRODUCED
Publisher_002,topicA,topicA-217,172.172.1.2:1883,1551644809647,PRODUCED
Publisher_002,topicA,topicA-218,172.172.1.2:1883,1551644809744,PRODUCED
Publisher_002,topicA,topicA-219,172.172.1.2:1883,1551644809848,PRODUCED
Publisher_002,topicA,topicA-220,172.172.1.2:1883,1551644809945,PRODUCED
Publisher_002,topicA,topicA-221,172.172.1.2:1883,1551644810044,PRODUCED
Publisher_002,topicA,topicA-222,172.172.1.2:1883,1551644810143,PRODUCED
Publisher_002,topicA,topicA-223,172.172.1.2:1883,1551644810243,PRODUCED
Publisher_002,topicA,topicA-224,172.172.1.2:1883,1551644810351,PRODUCED
Publisher_002,topicA,topicA-225,172.172.1.2:1883,1551644810443,PRODUCED
Publisher_002,topicA,topicA-226,172.172.1.2:1883,1551644810544,PRODUCED
Publisher_002,topicA,topicA-227,172.172.1.2:1883,1551644810644,PRODUCED
Publisher_002,topicA,topicA-228,172.172.1.2:1883,1551644810743,PRODUCED
Publisher_002,topicA,topicA-229,172.172.1.2:1883,1551644810850,PRODUCED
Publisher_002,topicA,topicA-230,172.172.1.2:1883,1551644810945,PRODUCED
Publisher_002,topicA,topicA-231,172.172.1.2:1883,1551644811044,PRODUCED
Publisher_002,topicA,topicA-232,172.172.1.2:1883,1551644811143,PRODUCED
Publisher_002,topicA,topicA-233,172.172.1.2:1883,1551644811243,PRODUCED
Publisher_002,topicA,topicA-234,172.172.1.2:1883,1551644811347,PRODUCED
Publisher_002,topicA,topicA-235,172.172.1.2:1883,1551644811443,PRODUCED
Publisher_002,topicA,topicA-236,172.172.1.2:1883,1551644811544,PRODUCED
Publisher_002,topicA,topicA-237,172.172.1.2:1883,1551644811643,PRODUCED
Publisher_002,topicA,topicA-238,172.172.1.2:1883,1551644811743,PRODUCED
Publisher_002,topicA,topicA-239,172.172.1.2:1883,1551644811843,PRODUCED
Publisher_002,topicA,topicA-240,172.172.1.2:1883,1551644811944,PRODUCED
Publisher_002,topicA,topicA-241,172.172.1.2:1883,1551644812043,PRODUCED
Publisher_002,topicA,topicA-242,172.172.1.2:1883,1551644812147,PRODUCED
Publisher_002,topicA,topicA-243,172.172.1.2:1883,1551644812244,PRODUCED
Publisher_002,topicA,topicA-244,172.172.1.2:1883,1551644812343,PRODUCED
Publisher_002,topicA,topicA-245,172.172.1.2:1883,1551644812443,PRODUCED
Publisher_002,topicA,topicA-246,172.172.1.2:1883,1551644812543,PRODUCED
Publisher_002,topicA,topicA-247,172.172.1.2:1883,1551644812643,PRODUCED
Publisher_002,topicA,topicA-248,172.172.1.2:1883,1551644812745,PRODUCED
Publisher_002,topicA,topicA-249,172.172.1.2:1883,1551644812846,PRODUCED
Publisher_002,topicA,topicA-250,172.172.1.2:1883,1551644812945,PRODUCED
Publisher_002,topicA,topicA-251,172.172.1.2:1883,1551644813043,PRODUCED
Publisher_002,topicA,topicA-252,172.172.1.2:1883,1551644813143,PRODUCED
Publisher_002,topicA,topicA-253,172.172.1.2:1883,1551644813243,PRODUCED
Publisher_002,topicA,topicA-254,172.172.1.2:1883,1551644813343,PRODUCED
Publisher_002,topicA,topicA-255,172.172.1.2:1883,1551644813443,PRODUCED
Publisher_002,topicA,topicA-256,172.172.1.2:1883,1551644813543,PRODUCED
Publisher_002,topicA,topicA-257,172.172.1.2:1883,1551644813643,PRODUCED
Publisher_002,topicA,topicA-258,172.172.1.2:1883,1551644813743,PRODUCED
Publisher_002,topicA,topicA-259,172.172.1.2:1883,1551644813843,PRODUCED
Publisher_002,topicA,topicA-260,172.172.1.2:1883,1551644813943,PRODUCED
Publisher_002,topicA,topicA-261,172.172.1.2:1883,1551644814043,PRODUCED
Publisher_002,topicA,topicA-262,172.172.1.2:1883,1551644814143,PRODUCED
Publisher_002,topicA,topicA-263,172.172.1.2:1883,1551644814243,PRODUCED
Publisher_002,topicA,topicA-264,172.172.1.2:1883,1551644814343,PRODUCED
Publisher_002,topicA,topicA-265,172.172.1.2:1883,1551644814443,PRODUCED
Publisher_002,topicA,topicA-266,172.172.1.2:1883,1551644814543,PRODUCED
Publisher_002,topicA,topicA-267,172.172.1.2:1883,1551644814643,PRODUCED
Publisher_002,topicA,topicA-268,172.172.1.2:1883,1551644814743,PRODUCED
Publisher_002,topicA,topicA-269,172.172.1.2:1883,1551644814843,PRODUCED
Publisher_002,topicA,topicA-270,172.172.1.2:1883,1551644814943,PRODUCED
Publisher_002,topicA,topicA-271,172.172.1.2:1883,1551644815043,PRODUCED
Publisher_002,topicA,topicA-272,172.172.1.2:1883,1551644815143,PRODUCED
Publisher_002,topicA,topicA-273,172.172.1.2:1883,1551644815243,PRODUCED
Publisher_002,topicA,topicA-274,172.172.1.2:1883,1551644815343,PRODUCED
Publisher_002,topicA,topicA-275,172.172.1.2:1883,1551644815442,PRODUCED
Publisher_002,topicA,topicA-276,172.172.1.2:1883,1551644815543,PRODUCED
Publisher_002,topicA,topicA-277,172.172.1.2:1883,1551644815643,PRODUCED
Publisher_002,topicA,topicA-278,172.172.1.2:1883,1551644815743,PRODUCED
Publisher_002,topicA,topicA-279,172.172.1.2:1883,1551644815843,PRODUCED
Publisher_002,topicA,topicA-280,172.172.1.2:1883,1551644815943,PRODUCED
Publisher_002,topicA,topicA-281,172.172.1.2:1883,1551644816043,PRODUCED
Publisher_002,topicA,topicA-282,172.172.1.2:1883,1551644816143,PRODUCED
Publisher_002,topicA,topicA-283,172.172.1.2:1883,1551644816242,PRODUCED
Publisher_002,topicA,topicA-284,172.172.1.2:1883,1551644816343,PRODUCED
Publisher_002,topicA,topicA-285,172.172.1.2:1883,1551644816443,PRODUCED
Publisher_002,topicA,topicA-286,172.172.1.2:1883,1551644816543,PRODUCED
Publisher_002,topicA,topicA-287,172.172.1.2:1883,1551644816643,PRODUCED
Publisher_002,topicA,topicA-288,172.172.1.2:1883,1551644816743,PRODUCED
Publisher_002,topicA,topicA-289,172.172.1.2:1883,1551644816842,PRODUCED
Publisher_002,topicA,topicA-290,172.172.1.2:1883,1551644816943,PRODUCED
Publisher_002,topicA,topicA-291,172.172.1.2:1883,1551644817043,PRODUCED
Publisher_002,topicA,topicA-292,172.172.1.2:1883,1551644817143,PRODUCED
Publisher_002,topicA,topicA-293,172.172.1.2:1883,1551644817243,PRODUCED
Publisher_002,topicA,topicA-294,172.172.1.2:1883,1551644817343,PRODUCED
Publisher_002,topicA,topicA-295,172.172.1.2:1883,1551644817443,PRODUCED
Publisher_002,topicA,topicA-296,172.172.1.2:1883,1551644817543,PRODUCED
Publisher_002,topicA,topicA-297,172.172.1.2:1883,1551644817643,PRODUCED
Publisher_002,topicA,topicA-298,172.172.1.2:1883,1551644817743,PRODUCED
Publisher_002,topicA,topicA-299,172.172.1.2:1883,1551644817843,PRODUCED
Publisher_002,topicA,topicA-300,172.172.1.2:1883,1551644817943,PRODUCED
Publisher_002,topicA,topicA-301,172.172.1.2:1883,1551644818043,PRODUCED
Publisher_002,topicA,topicA-302,172.172.1.2:1883,1551644818143,PRODUCED
Publisher_002,topicA,topicA-303,172.172.1.2:1883,1551644818243,PRODUCED
Publisher_002,topicA,topicA-304,172.172.1.2:1883,1551644818343,PRODUCED
Publisher_002,topicA,topicA-305,172.172.1.2:1883,1551644818443,PRODUCED
Publisher_002,topicA,topicA-306,172.172.1.2:1883,1551644818543,PRODUCED
Publisher_002,topicA,topicA-307,172.172.1.2:1883,1551644818643,PRODUCED
Publisher_002,topicA,topicA-308,172.172.1.2:1883,1551644818743,PRODUCED
Publisher_002,topicA,topicA-309,172.172.1.2:1883,1551644818843,PRODUCED
Publisher_002,topicA,topicA-310,172.172.1.2:1883,1551644818943,PRODUCED
Publisher_002,topicA,topicA-311,172.172.1.2:1883,1551644819043,PRODUCED
Publisher_002,topicA,topicA-312,172.172.1.2:1883,1551644819143,PRODUCED
Publisher_002,topicA,topicA-313,172.172.1.2:1883,1551644819243,PRODUCED
Publisher_002,topicA,topicA-314,172.172.1.2:1883,1551644819343,PRODUCED
Publisher_002,topicA,topicA-315,172.172.1.2:1883,1551644819443,PRODUCED
Publisher_002,topicA,topicA-316,172.172.1.2:1883,1551644819542,PRODUCED
Publisher_002,topicA,topicA-317,172.172.1.2:1883,1551644819643,PRODUCED
Publisher_002,topicA,topicA-318,172.172.1.2:1883,1551644819742,PRODUCED
Publisher_002,topicA,topicA-319,172.172.1.2:1883,1551644819843,PRODUCED
Publisher_002,topicA,topicA-320,172.172.1.2:1883,1551644819943,PRODUCED
Publisher_002,topicA,topicA-321,172.172.1.2:1883,1551644820043,PRODUCED
Publisher_002,topicA,topicA-322,172.172.1.2:1883,1551644820143,PRODUCED
Publisher_002,topicA,topicA-323,172.172.1.2:1883,1551644820243,PRODUCED
Publisher_002,topicA,topicA-324,172.172.1.2:1883,1551644820343,PRODUCED
Publisher_002,topicA,topicA-325,172.172.1.2:1883,1551644820443,PRODUCED
Publisher_002,topicA,topicA-326,172.172.1.2:1883,1551644820543,PRODUCED
Publisher_002,topicA,topicA-327,172.172.1.2:1883,1551644820643,PRODUCED
Publisher_002,topicA,topicA-328,172.172.1.2:1883,1551644820743,PRODUCED
Publisher_002,topicA,topicA-329,172.172.1.2:1883,1551644820843,PRODUCED
Publisher_002,topicA,topicA-330,172.172.1.2:1883,1551644820943,PRODUCED
Publisher_002,topicA,topicA-331,172.172.1.2:1883,1551644821043,PRODUCED
Publisher_002,topicA,topicA-332,172.172.1.2:1883,1551644821143,PRODUCED
Publisher_002,topicA,topicA-333,172.172.1.2:1883,1551644821243,PRODUCED
Publisher_002,topicA,topicA-334,172.172.1.2:1883,1551644821343,PRODUCED
Publisher_002,topicA,topicA-335,172.172.1.2:1883,1551644821443,PRODUCED
Publisher_002,topicA,topicA-336,172.172.1.2:1883,1551644821543,PRODUCED
Publisher_002,topicA,topicA-337,172.172.1.2:1883,1551644821643,PRODUCED
Publisher_002,topicA,topicA-338,172.172.1.2:1883,1551644821743,PRODUCED
Publisher_002,topicA,topicA-339,172.172.1.2:1883,1551644821843,PRODUCED
Publisher_002,topicA,topicA-340,172.172.1.2:1883,1551644821943,PRODUCED
Publisher_002,topicA,topicA-341,172.172.1.2:1883,1551644822043,PRODUCED
Publisher_002,topicA,topicA-342,172.172.1.2:1883,1551644822143,PRODUCED
Publisher_002,topicA,topicA-343,172.172.1.2:1883,1551644822243,PRODUCED
Publisher_002,topicA,topicA-344,172.172.1.2:1883,1551644822343,PRODUCED
Publisher_002,topicA,topicA-345,172.172.1.2:1883,1551644822443,PRODUCED
Publisher_002,topicA,topicA-346,172.172.1.2:1883,1551644822543,PRODUCED
Publisher_002,topicA,topicA-347,172.172.1.2:1883,1551644822643,PRODUCED
Publisher_002,topicA,topicA-348,172.172.1.2:1883,1551644822742,PRODUCED
Publisher_002,topicA,topicA-349,172.172.1.2:1883,1551644822843,PRODUCED
Publisher_002,topicA,topicA-350,172.172.1.2:1883,1551644822943,PRODUCED
Publisher_002,topicA,topicA-351,172.172.1.2:1883,1551644823043,PRODUCED
Publisher_002,topicA,topicA-352,172.172.1.2:1883,1551644823143,PRODUCED
Publisher_002,topicA,topicA-353,172.172.1.2:1883,1551644823243,PRODUCED
Publisher_002,topicA,topicA-354,172.172.1.2:1883,1551644823343,PRODUCED
Publisher_002,topicA,topicA-355,172.172.1.2:1883,1551644823443,PRODUCED
Publisher_002,topicA,topicA-356,172.172.1.2:1883,1551644823543,PRODUCED
Publisher_002,topicA,topicA-357,172.172.1.2:1883,1551644823643,PRODUCED
Publisher_002,topicA,topicA-358,172.172.1.2:1883,1551644823743,PRODUCED
Publisher_002,topicA,topicA-359,172.172.1.2:1883,1551644823843,PRODUCED
Publisher_002,topicA,topicA-360,172.172.1.2:1883,1551644823943,PRODUCED
Publisher_002,topicA,topicA-361,172.172.1.2:1883,1551644824043,PRODUCED
Publisher_002,topicA,topicA-362,172.172.1.2:1883,1551644824143,PRODUCED
Publisher_002,topicA,topicA-363,172.172.1.2:1883,1551644824243,PRODUCED
Publisher_002,topicA,topicA-364,172.172.1.2:1883,1551644824343,PRODUCED
Publisher_002,topicA,topicA-365,172.172.1.2:1883,1551644824443,PRODUCED
Publisher_002,topicA,topicA-366,172.172.1.2:1883,1551644824543,PRODUCED
Publisher_002,topicA,topicA-367,172.172.1.2:1883,1551644824643,PRODUCED
Publisher_002,topicA,topicA-368,172.172.1.2:1883,1551644824743,PRODUCED
Publisher_002,topicA,topicA-369,172.172.1.2:1883,1551644824843,PRODUCED
Publisher_002,topicA,topicA-370,172.172.1.2:1883,1551644824943,PRODUCED
Publisher_002,topicA,topicA-371,172.172.1.2:1883,1551644825043,PRODUCED
Publisher_002,topicA,topicA-372,172.172.1.2:1883,1551644825143,PRODUCED
Publisher_002,topicA,topicA-373,172.172.1.2:1883,1551644825243,PRODUCED
Publisher_002,topicA,topicA-374,172.172.1.2:1883,1551644825343,PRODUCED
Publisher_002,topicA,topicA-375,172.172.1.2:1883,1551644825443,PRODUCED
Publisher_002,topicA,topicA-376,172.172.1.2:1883,1551644825547,PRODUCED
Publisher_002,topicA,topicA-377,172.172.1.2:1883,1551644825643,PRODUCED
Publisher_002,topicA,topicA-378,172.172.1.2:1883,1551644825743,PRODUCED
Publisher_002,topicA,topicA-379,172.172.1.2:1883,1551644825843,PRODUCED
Publisher_002,topicA,topicA-380,172.172.1.2:1883,1551644825943,PRODUCED
Publisher_002,topicA,topicA-381,172.172.1.2:1883,1551644826043,PRODUCED
Publisher_002,topicA,topicA-382,172.172.1.2:1883,1551644826143,PRODUCED
Publisher_002,topicA,topicA-383,172.172.1.2:1883,1551644826243,PRODUCED
Publisher_002,topicA,topicA-384,172.172.1.2:1883,1551644826343,PRODUCED
Publisher_002,topicA,topicA-385,172.172.1.2:1883,1551644826443,PRODUCED
Publisher_002,topicA,topicA-386,172.172.1.2:1883,1551644826543,PRODUCED
Publisher_002,topicA,topicA-387,172.172.1.2:1883,1551644826642,PRODUCED
Publisher_002,topicA,topicA-388,172.172.1.2:1883,1551644826743,PRODUCED
Publisher_002,topicA,topicA-389,172.172.1.2:1883,1551644826843,PRODUCED
Publisher_002,topicA,topicA-390,172.172.1.2:1883,1551644826943,PRODUCED
Publisher_002,topicA,topicA-391,172.172.1.2:1883,1551644827043,PRODUCED
Publisher_002,topicA,topicA-392,172.172.1.2:1883,1551644827143,PRODUCED
Publisher_002,topicA,topicA-393,172.172.1.2:1883,1551644827243,PRODUCED
Publisher_002,topicA,topicA-394,172.172.1.2:1883,1551644827343,PRODUCED
Publisher_002,topicA,topicA-395,172.172.1.2:1883,1551644827443,PRODUCED
Publisher_002,topicA,topicA-396,172.172.1.2:1883,1551644827543,PRODUCED
Publisher_002,topicA,topicA-397,172.172.1.2:1883,1551644827643,PRODUCED
Publisher_002,topicA,topicA-398,172.172.1.2:1883,1551644827743,PRODUCED
Publisher_002,topicA,topicA-399,172.172.1.2:1883,1551644827843,PRODUCED
Publisher_002,topicA,topicA-400,172.172.1.2:1883,1551644827943,PRODUCED
Publisher_002,topicA,topicA-401,172.172.1.2:1883,1551644828043,PRODUCED
Publisher_002,topicA,topicA-402,172.172.1.2:1883,1551644828143,PRODUCED
Publisher_002,topicA,topicA-403,172.172.1.2:1883,1551644828243,PRODUCED
Publisher_002,topicA,topicA-404,172.172.1.2:1883,1551644828343,PRODUCED
Publisher_002,topicA,topicA-405,172.172.1.2:1883,1551644828443,PRODUCED
Publisher_002,topicA,topicA-406,172.172.1.2:1883,1551644828543,PRODUCED
Publisher_002,topicA,topicA-407,172.172.1.2:1883,1551644828643,PRODUCED
Publisher_002,topicA,topicA-408,172.172.1.2:1883,1551644828743,PRODUCED
Publisher_002,topicA,topicA-409,172.172.1.2:1883,1551644828843,PRODUCED
Publisher_002,topicA,topicA-410,172.172.1.2:1883,1551644828943,PRODUCED
Publisher_002,topicA,topicA-411,172.172.1.2:1883,1551644829043,PRODUCED
Publisher_002,topicA,topicA-412,172.172.1.2:1883,1551644829143,PRODUCED
Publisher_002,topicA,topicA-413,172.172.1.2:1883,1551644829243,PRODUCED
Publisher_002,topicA,topicA-414,172.172.1.2:1883,1551644829343,PRODUCED
Publisher_002,topicA,topicA-415,172.172.1.2:1883,1551644829443,PRODUCED
Publisher_002,topicA,topicA-416,172.172.1.2:1883,1551644829543,PRODUCED
Publisher_002,topicA,topicA-417,172.172.1.2:1883,1551644829643,PRODUCED
Publisher_002,topicA,topicA-418,172.172.1.2:1883,1551644829743,PRODUCED
Publisher_002,topicA,topicA-419,172.172.1.2:1883,1551644829843,PRODUCED
Publisher_002,topicA,topicA-420,172.172.1.2:1883,1551644829943,PRODUCED
Publisher_002,topicA,topicA-421,172.172.1.2:1883,1551644830043,PRODUCED
Publisher_002,topicA,topicA-422,172.172.1.2:1883,1551644830143,PRODUCED
Publisher_002,topicA,topicA-423,172.172.1.2:1883,1551644830243,PRODUCED
Publisher_002,topicA,topicA-424,172.172.1.2:1883,1551644830343,PRODUCED
Publisher_002,topicA,topicA-425,172.172.1.2:1883,1551644830443,PRODUCED
Publisher_002,topicA,topicA-426,172.172.1.2:1883,1551644830543,PRODUCED
Publisher_002,topicA,topicA-427,172.172.1.2:1883,1551644830643,PRODUCED
Publisher_002,topicA,topicA-428,172.172.1.2:1883,1551644830743,PRODUCED
Publisher_002,topicA,topicA-429,172.172.1.2:1883,1551644830843,PRODUCED
Publisher_002,topicA,topicA-430,172.172.1.2:1883,1551644830943,PRODUCED
Publisher_002,topicA,topicA-431,172.172.1.2:1883,1551644831043,PRODUCED
Publisher_002,topicA,topicA-432,172.172.1.2:1883,1551644831143,PRODUCED
Publisher_002,topicA,topicA-433,172.172.1.2:1883,1551644831243,PRODUCED
Publisher_002,topicA,topicA-434,172.172.1.2:1883,1551644831343,PRODUCED
Publisher_002,topicA,topicA-435,172.172.1.2:1883,1551644831443,PRODUCED
Publisher_002,topicA,topicA-436,172.172.1.2:1883,1551644831543,PRODUCED
Publisher_002,topicA,topicA-437,172.172.1.2:1883,1551644831643,PRODUCED
Publisher_002,topicA,topicA-438,172.172.1.2:1883,1551644831743,PRODUCED
Publisher_002,topicA,topicA-439,172.172.1.2:1883,1551644831843,PRODUCED
Publisher_002,topicA,topicA-440,172.172.1.2:1883,1551644831943,PRODUCED
Publisher_002,topicA,topicA-441,172.172.1.2:1883,1551644832043,PRODUCED
Publisher_002,topicA,topicA-442,172.172.1.2:1883,1551644832143,PRODUCED
Publisher_002,topicA,topicA-443,172.172.1.2:1883,1551644832243,PRODUCED
Publisher_002,topicA,topicA-444,172.172.1.2:1883,1551644832343,PRODUCED
Publisher_002,topicA,topicA-445,172.172.1.2:1883,1551644832443,PRODUCED
Publisher_002,topicA,topicA-446,172.172.1.2:1883,1551644832543,PRODUCED
Publisher_002,topicA,topicA-447,172.172.1.2:1883,1551644832643,PRODUCED
Publisher_002,topicA,topicA-448,172.172.1.2:1883,1551644832743,PRODUCED
Publisher_002,topicA,topicA-449,172.172.1.2:1883,1551644832843,PRODUCED
Publisher_002,topicA,topicA-450,172.172.1.2:1883,1551644832943,PRODUCED
Publisher_002,topicA,topicA-451,172.172.1.2:1883,1551644833043,PRODUCED
Publisher_002,topicA,topicA-452,172.172.1.2:1883,1551644833143,PRODUCED
Publisher_002,topicA,topicA-453,172.172.1.2:1883,1551644833243,PRODUCED
Publisher_002,topicA,topicA-454,172.172.1.2:1883,1551644833343,PRODUCED
Publisher_002,topicA,topicA-455,172.172.1.2:1883,1551644833443,PRODUCED
Publisher_002,topicA,topicA-456,172.172.1.2:1883,1551644833543,PRODUCED
Publisher_002,topicA,topicA-457,172.172.1.2:1883,1551644833643,PRODUCED
Publisher_002,topicA,topicA-458,172.172.1.2:1883,1551644833743,PRODUCED
Publisher_002,topicA,topicA-459,172.172.1.2:1883,1551644833843,PRODUCED
Publisher_002,topicA,topicA-460,172.172.1.2:1883,1551644833943,PRODUCED
Publisher_002,topicA,topicA-461,172.172.1.2:1883,1551644834043,PRODUCED
Publisher_002,topicA,topicA-462,172.172.1.2:1883,1551644834143,PRODUCED
Publisher_002,topicA,topicA-463,172.172.1.2:1883,1551644834243,PRODUCED
Publisher_002,topicA,topicA-464,172.172.1.2:1883,1551644834343,PRODUCED
Publisher_002,topicA,topicA-465,172.172.1.2:1883,1551644834443,PRODUCED
Publisher_002,topicA,topicA-466,172.172.1.2:1883,1551644834543,PRODUCED
Publisher_002,topicA,topicA-467,172.172.1.2:1883,1551644834643,PRODUCED
Publisher_002,topicA,topicA-468,172.172.1.2:1883,1551644834743,PRODUCED
Publisher_002,topicA,topicA-469,172.172.1.2:1883,1551644834843,PRODUCED
Publisher_002,topicA,topicA-470,172.172.1.2:1883,1551644834943,PRODUCED
Publisher_002,topicA,topicA-471,172.172.1.2:1883,1551644835043,PRODUCED
Publisher_002,topicA,topicA-472,172.172.1.2:1883,1551644835143,PRODUCED
Publisher_002,topicA,topicA-473,172.172.1.2:1883,1551644835243,PRODUCED
Publisher_002,topicA,topicA-474,172.172.1.2:1883,1551644835343,PRODUCED
Publisher_002,topicA,topicA-475,172.172.1.2:1883,1551644835443,PRODUCED
Publisher_002,topicA,topicA-476,172.172.1.2:1883,1551644835543,PRODUCED
Publisher_002,topicA,topicA-477,172.172.1.2:1883,1551644835643,PRODUCED
Publisher_002,topicA,topicA-478,172.172.1.2:1883,1551644835743,PRODUCED
Publisher_002,topicA,topicA-479,172.172.1.2:1883,1551644835843,PRODUCED
Publisher_002,topicA,topicA-480,172.172.1.2:1883,1551644835943,PRODUCED
Publisher_002,topicA,topicA-481,172.172.1.2:1883,1551644836043,PRODUCED
Publisher_002,topicA,topicA-482,172.172.1.2:1883,1551644836143,PRODUCED
Publisher_002,topicA,topicA-483,172.172.1.2:1883,1551644836243,PRODUCED
Publisher_002,topicA,topicA-484,172.172.1.2:1883,1551644836343,PRODUCED
Publisher_002,topicA,topicA-485,172.172.1.2:1883,1551644836444,PRODUCED
Publisher_002,topicA,topicA-486,172.172.1.2:1883,1551644836543,PRODUCED
Publisher_002,topicA,topicA-487,172.172.1.2:1883,1551644836643,PRODUCED
Publisher_002,topicA,topicA-488,172.172.1.2:1883,1551644836743,PRODUCED
Publisher_002,topicA,topicA-489,172.172.1.2:1883,1551644836843,PRODUCED
Publisher_002,topicA,topicA-490,172.172.1.2:1883,1551644836943,PRODUCED
Publisher_002,topicA,topicA-491,172.172.1.2:1883,1551644837043,PRODUCED
Publisher_002,topicA,topicA-492,172.172.1.2:1883,1551644837143,PRODUCED
Publisher_002,topicA,topicA-493,172.172.1.2:1883,1551644837243,PRODUCED
Publisher_002,topicA,topicA-494,172.172.1.2:1883,1551644837343,PRODUCED
Publisher_002,topicA,topicA-495,172.172.1.2:1883,1551644837443,PRODUCED
Publisher_002,topicA,topicA-496,172.172.1.2:1883,1551644837543,PRODUCED
Publisher_002,topicA,topicA-497,172.172.1.2:1883,1551644837643,PRODUCED
Publisher_002,topicA,topicA-498,172.172.1.2:1883,1551644837743,PRODUCED
Publisher_002,topicA,topicA-499,172.172.1.2:1883,1551644837843,PRODUCED
Publisher_002,topicA,topicA-500,172.172.1.2:1883,1551644837943,PRODUCED
Publisher_002,topicA,topicA-501,172.172.1.2:1883,1551644838043,PRODUCED
Publisher_002,topicA,topicA-502,172.172.1.2:1883,1551644838143,PRODUCED
Publisher_002,topicA,topicA-503,172.172.1.2:1883,1551644838243,PRODUCED
Publisher_002,topicA,topicA-504,172.172.1.2:1883,1551644838342,PRODUCED
Publisher_002,topicA,topicA-505,172.172.1.2:1883,1551644838443,PRODUCED
Publisher_002,topicA,topicA-506,172.172.1.2:1883,1551644838543,PRODUCED
Publisher_002,topicA,topicA-507,172.172.1.2:1883,1551644838643,PRODUCED
Publisher_002,topicA,topicA-508,172.172.1.2:1883,1551644838743,PRODUCED
Publisher_002,topicA,topicA-509,172.172.1.2:1883,1551644838843,PRODUCED
Publisher_002,topicA,topicA-510,172.172.1.2:1883,1551644838943,PRODUCED
Publisher_002,topicA,topicA-511,172.172.1.2:1883,1551644839043,PRODUCED
Publisher_002,topicA,topicA-512,172.172.1.2:1883,1551644839143,PRODUCED
Publisher_002,topicA,topicA-513,172.172.1.2:1883,1551644839243,PRODUCED
Publisher_002,topicA,topicA-514,172.172.1.2:1883,1551644839343,PRODUCED
Publisher_002,topicA,topicA-515,172.172.1.2:1883,1551644839443,PRODUCED
Publisher_002,topicA,topicA-516,172.172.1.2:1883,1551644839543,PRODUCED
Publisher_002,topicA,topicA-517,172.172.1.2:1883,1551644839643,PRODUCED
Publisher_002,topicA,topicA-518,172.172.1.2:1883,1551644839743,PRODUCED
Publisher_002,topicA,topicA-519,172.172.1.2:1883,1551644839843,PRODUCED
Publisher_002,topicA,topicA-520,172.172.1.2:1883,1551644839943,PRODUCED
Publisher_002,topicA,topicA-521,172.172.1.2:1883,1551644840043,PRODUCED
Publisher_002,topicA,topicA-522,172.172.1.2:1883,1551644840143,PRODUCED
Publisher_002,topicA,topicA-523,172.172.1.2:1883,1551644840243,PRODUCED
Publisher_002,topicA,topicA-524,172.172.1.2:1883,1551644840343,PRODUCED
Publisher_002,topicA,topicA-525,172.172.1.2:1883,1551644840443,PRODUCED
Publisher_002,topicA,topicA-526,172.172.1.2:1883,1551644840543,PRODUCED
Publisher_002,topicA,topicA-527,172.172.1.2:1883,1551644840643,PRODUCED
Publisher_002,topicA,topicA-528,172.172.1.2:1883,1551644840743,PRODUCED
Publisher_002,topicA,topicA-529,172.172.1.2:1883,1551644840843,PRODUCED
Publisher_002,topicA,topicA-530,172.172.1.2:1883,1551644840943,PRODUCED
Publisher_002,topicA,topicA-531,172.172.1.2:1883,1551644841043,PRODUCED
Publisher_002,topicA,topicA-532,172.172.1.2:1883,1551644841143,PRODUCED
Publisher_002,topicA,topicA-533,172.172.1.2:1883,1551644841243,PRODUCED
Publisher_002,topicA,topicA-534,172.172.1.2:1883,1551644841343,PRODUCED
Publisher_002,topicA,topicA-535,172.172.1.2:1883,1551644841443,PRODUCED
Publisher_002,topicA,topicA-536,172.172.1.2:1883,1551644841543,PRODUCED
Publisher_002,topicA,topicA-537,172.172.1.2:1883,1551644841643,PRODUCED
Publisher_002,topicA,topicA-538,172.172.1.2:1883,1551644841743,PRODUCED
Publisher_002,topicA,topicA-539,172.172.1.2:1883,1551644841843,PRODUCED
Publisher_002,topicA,topicA-540,172.172.1.2:1883,1551644841943,PRODUCED
Publisher_002,topicA,topicA-541,172.172.1.2:1883,1551644842043,PRODUCED
Publisher_002,topicA,topicA-542,172.172.1.2:1883,1551644842143,PRODUCED
Publisher_002,topicA,topicA-543,172.172.1.2:1883,1551644842243,PRODUCED
Publisher_002,topicA,topicA-544,172.172.1.2:1883,1551644842343,PRODUCED
Publisher_002,topicA,topicA-545,172.172.1.2:1883,1551644842443,PRODUCED
Publisher_002,topicA,topicA-546,172.172.1.2:1883,1551644842543,PRODUCED
Publisher_002,topicA,topicA-547,172.172.1.2:1883,1551644842643,PRODUCED
Publisher_002,topicA,topicA-548,172.172.1.2:1883,1551644842743,PRODUCED
Publisher_002,topicA,topicA-549,172.172.1.2:1883,1551644842843,PRODUCED
Publisher_002,topicA,topicA-550,172.172.1.2:1883,1551644842943,PRODUCED
Publisher_002,topicA,topicA-551,172.172.1.2:1883,1551644843043,PRODUCED
Publisher_002,topicA,topicA-552,172.172.1.2:1883,1551644843143,PRODUCED
Publisher_002,topicA,topicA-553,172.172.1.2:1883,1551644843243,PRODUCED
Publisher_002,topicA,topicA-554,172.172.1.2:1883,1551644843343,PRODUCED
Publisher_002,topicA,topicA-555,172.172.1.2:1883,1551644843443,PRODUCED
Publisher_002,topicA,topicA-556,172.172.1.2:1883,1551644843543,PRODUCED
Publisher_002,topicA,topicA-557,172.172.1.2:1883,1551644843643,PRODUCED
Publisher_002,topicA,topicA-558,172.172.1.2:1883,1551644843743,PRODUCED
Publisher_002,topicA,topicA-559,172.172.1.2:1883,1551644843843,PRODUCED
Publisher_002,topicA,topicA-560,172.172.1.2:1883,1551644843943,PRODUCED
Publisher_002,topicA,topicA-561,172.172.1.2:1883,1551644844043,PRODUCED
Publisher_002,topicA,topicA-562,172.172.1.2:1883,1551644844143,PRODUCED
Publisher_002,topicA,topicA-563,172.172.1.2:1883,1551644844243,PRODUCED
Publisher_002,topicA,topicA-564,172.172.1.2:1883,1551644844343,PRODUCED
Publisher_002,topicA,topicA-565,172.172.1.2:1883,1551644844443,PRODUCED
Publisher_002,topicA,topicA-566,172.172.1.2:1883,1551644844543,PRODUCED
Publisher_002,topicA,topicA-567,172.172.1.2:1883,1551644844643,PRODUCED
Publisher_002,topicA,topicA-568,172.172.1.2:1883,1551644844743,PRODUCED
Publisher_002,topicA,topicA-569,172.172.1.2:1883,1551644844843,PRODUCED
Publisher_002,topicA,topicA-570,172.172.1.2:1883,1551644844943,PRODUCED
Publisher_002,topicA,topicA-571,172.172.1.2:1883,1551644845043,PRODUCED
Publisher_002,topicA,topicA-572,172.172.1.2:1883,1551644845143,PRODUCED
Publisher_002,topicA,topicA-573,172.172.1.2:1883,1551644845243,PRODUCED
Publisher_002,topicA,topicA-574,172.172.1.2:1883,1551644845343,PRODUCED
Publisher_002,topicA,topicA-575,172.172.1.2:1883,1551644845443,PRODUCED
Publisher_002,topicA,topicA-576,172.172.1.2:1883,1551644845543,PRODUCED
Publisher_002,topicA,topicA-577,172.172.1.2:1883,1551644845643,PRODUCED
Publisher_002,topicA,topicA-578,172.172.1.2:1883,1551644845743,PRODUCED
Publisher_002,topicA,topicA-579,172.172.1.2:1883,1551644845843,PRODUCED
Publisher_002,topicA,topicA-580,172.172.1.2:1883,1551644845943,PRODUCED
Publisher_002,topicA,topicA-581,172.172.1.2:1883,1551644846043,PRODUCED
Publisher_002,topicA,topicA-582,172.172.1.2:1883,1551644846143,PRODUCED
Publisher_002,topicA,topicA-583,172.172.1.2:1883,1551644846243,PRODUCED
Publisher_002,topicA,topicA-584,172.172.1.2:1883,1551644846344,PRODUCED
Publisher_002,topicA,topicA-585,172.172.1.2:1883,1551644846443,PRODUCED
Publisher_002,topicA,topicA-586,172.172.1.2:1883,1551644846543,PRODUCED
Publisher_002,topicA,topicA-587,172.172.1.2:1883,1551644846643,PRODUCED
Publisher_002,topicA,topicA-588,172.172.1.2:1883,1551644846743,PRODUCED
Publisher_002,topicA,topicA-589,172.172.1.2:1883,1551644846843,PRODUCED
Publisher_002,topicA,topicA-590,172.172.1.2:1883,1551644846943,PRODUCED
Publisher_002,topicA,topicA-591,172.172.1.2:1883,1551644847043,PRODUCED
Publisher_002,topicA,topicA-592,172.172.1.2:1883,1551644847143,PRODUCED
Publisher_002,topicA,topicA-593,172.172.1.2:1883,1551644847243,PRODUCED
Publisher_002,topicA,topicA-594,172.172.1.2:1883,1551644847343,PRODUCED
Publisher_002,topicA,topicA-595,172.172.1.2:1883,1551644847443,PRODUCED
Publisher_002,topicA,topicA-596,172.172.1.2:1883,1551644847543,PRODUCED
Publisher_002,topicA,topicA-597,172.172.1.2:1883,1551644847643,PRODUCED
Publisher_002,topicA,topicA-598,172.172.1.2:1883,1551644847742,PRODUCED
Publisher_002,topicA,topicA-599,172.172.1.2:1883,1551644847843,PRODUCED
Publisher_002,topicA,topicA-600,172.172.1.2:1883,1551644847943,PRODUCED
Publisher_002,topicA,topicA-601,172.172.1.2:1883,1551644848043,PRODUCED
Publisher_002,topicA,topicA-602,172.172.1.2:1883,1551644848143,PRODUCED
Publisher_002,topicA,topicA-603,172.172.1.2:1883,1551644848243,PRODUCED
Publisher_002,topicA,topicA-604,172.172.1.2:1883,1551644848343,PRODUCED
Publisher_002,topicA,topicA-605,172.172.1.2:1883,1551644848443,PRODUCED
Publisher_002,topicA,topicA-606,172.172.1.2:1883,1551644848543,PRODUCED
Publisher_002,topicA,topicA-607,172.172.1.2:1883,1551644848643,PRODUCED
Publisher_002,topicA,topicA-608,172.172.1.2:1883,1551644848743,PRODUCED
Publisher_002,topicA,topicA-609,172.172.1.2:1883,1551644848843,PRODUCED
Publisher_002,topicA,topicA-610,172.172.1.2:1883,1551644848943,PRODUCED
Publisher_002,topicA,topicA-611,172.172.1.2:1883,1551644849042,PRODUCED
Publisher_002,topicA,topicA-612,172.172.1.2:1883,1551644849143,PRODUCED
Publisher_002,topicA,topicA-613,172.172.1.2:1883,1551644849243,PRODUCED
Publisher_002,topicA,topicA-614,172.172.1.2:1883,1551644849343,PRODUCED
Publisher_002,topicA,topicA-615,172.172.1.2:1883,1551644849443,PRODUCED
Publisher_002,topicA,topicA-616,172.172.1.2:1883,1551644849543,PRODUCED
Publisher_002,topicA,topicA-617,172.172.1.2:1883,1551644849643,PRODUCED
Publisher_002,topicA,topicA-618,172.172.1.2:1883,1551644849743,PRODUCED
Publisher_002,topicA,topicA-619,172.172.1.2:1883,1551644849843,PRODUCED
Publisher_002,topicA,topicA-620,172.172.1.2:1883,1551644849943,PRODUCED
Publisher_002,topicA,topicA-621,172.172.1.2:1883,1551644850043,PRODUCED
Publisher_002,topicA,topicA-622,172.172.1.2:1883,1551644850143,PRODUCED
Publisher_002,topicA,topicA-623,172.172.1.2:1883,1551644850243,PRODUCED
Publisher_002,topicA,topicA-624,172.172.1.2:1883,1551644850343,PRODUCED
Publisher_002,topicA,topicA-625,172.172.1.2:1883,1551644850443,PRODUCED
Publisher_002,topicA,topicA-626,172.172.1.2:1883,1551644850543,PRODUCED
Publisher_002,topicA,topicA-627,172.172.1.2:1883,1551644850643,PRODUCED
Publisher_002,topicA,topicA-628,172.172.1.2:1883,1551644850743,PRODUCED
Publisher_002,topicA,topicA-629,172.172.1.2:1883,1551644850843,PRODUCED
Publisher_002,topicA,topicA-630,172.172.1.2:1883,1551644850943,PRODUCED
Publisher_002,topicA,topicA-631,172.172.1.2:1883,1551644851043,PRODUCED
Publisher_002,topicA,topicA-632,172.172.1.2:1883,1551644851143,PRODUCED
Publisher_002,topicA,topicA-633,172.172.1.2:1883,1551644851243,PRODUCED
Publisher_002,topicA,topicA-634,172.172.1.2:1883,1551644851344,PRODUCED
Publisher_002,topicA,topicA-635,172.172.1.2:1883,1551644851443,PRODUCED
Publisher_002,topicA,topicA-636,172.172.1.2:1883,1551644851543,PRODUCED
Publisher_002,topicA,topicA-637,172.172.1.2:1883,1551644851643,PRODUCED
Publisher_002,topicA,topicA-638,172.172.1.2:1883,1551644851743,PRODUCED
Publisher_002,topicA,topicA-639,172.172.1.2:1883,1551644851843,PRODUCED
Publisher_002,topicA,topicA-640,172.172.1.2:1883,1551644851943,PRODUCED
Publisher_002,topicA,topicA-641,172.172.1.2:1883,1551644852043,PRODUCED
Publisher_002,topicA,topicA-642,172.172.1.2:1883,1551644852143,PRODUCED
Publisher_002,topicA,topicA-643,172.172.1.2:1883,1551644852243,PRODUCED
Publisher_002,topicA,topicA-644,172.172.1.2:1883,1551644852344,PRODUCED
Publisher_002,topicA,topicA-645,172.172.1.2:1883,1551644852443,PRODUCED
Publisher_002,topicA,topicA-646,172.172.1.2:1883,1551644852543,PRODUCED
Publisher_002,topicA,topicA-647,172.172.1.2:1883,1551644852645,PRODUCED
Publisher_002,topicA,topicA-648,172.172.1.2:1883,1551644852743,PRODUCED
Publisher_002,topicA,topicA-649,172.172.1.2:1883,1551644852843,PRODUCED
Publisher_002,topicA,topicA-650,172.172.1.2:1883,1551644852943,PRODUCED
Publisher_002,topicA,topicA-651,172.172.1.2:1883,1551644853043,PRODUCED
Publisher_002,topicA,topicA-652,172.172.1.2:1883,1551644853143,PRODUCED
Publisher_002,topicA,topicA-653,172.172.1.2:1883,1551644853243,PRODUCED
Publisher_002,topicA,topicA-654,172.172.1.2:1883,1551644853343,PRODUCED
Publisher_002,topicA,topicA-655,172.172.1.2:1883,1551644853443,PRODUCED
Publisher_002,topicA,topicA-656,172.172.1.2:1883,1551644853543,PRODUCED
Publisher_002,topicA,topicA-657,172.172.1.2:1883,1551644853643,PRODUCED
Publisher_002,topicA,topicA-658,172.172.1.2:1883,1551644853743,PRODUCED
Publisher_002,topicA,topicA-659,172.172.1.2:1883,1551644853843,PRODUCED
Publisher_002,topicA,topicA-660,172.172.1.2:1883,1551644853943,PRODUCED
Publisher_002,topicA,topicA-661,172.172.1.2:1883,1551644854043,PRODUCED
Publisher_002,topicA,topicA-662,172.172.1.2:1883,1551644854143,PRODUCED
