clientId,topic,guid,broker,timestamp,type
Subscriber_001,topicA,topicA-55,172.172.1.1:1883,1551644515798,RECEIVED
Subscriber_001,topicA,topicA-56,172.172.1.1:1883,1551644515801,RECEIVED
Subscriber_001,topicA,topicA-57,172.172.1.1:1883,1551644515802,RECEIVED
Subscriber_001,topicA,topicA-58,172.172.1.1:1883,1551644515836,RECEIVED
Subscriber_001,topicA,topicA-59,172.172.1.1:1883,1551644515940,RECEIVED
Subscriber_001,topicA,topicA-60,172.172.1.1:1883,1551644516045,RECEIVED
Subscriber_001,topicA,topicA-61,172.172.1.1:1883,1551644516146,RECEIVED
Subscriber_001,topicA,topicA-62,172.172.1.1:1883,1551644516241,RECEIVED
Subscriber_001,topicA,topicA-63,172.172.1.1:1883,1551644516362,RECEIVED
Subscriber_001,topicA,topicA-64,172.172.1.1:1883,1551644516441,RECEIVED
Subscriber_001,topicA,topicA-65,172.172.1.1:1883,1551644516541,RECEIVED
Subscriber_001,topicA,topicA-66,172.172.1.1:1883,1551644516639,RECEIVED
Subscriber_001,topicA,topicA-67,172.172.1.1:1883,1551644516749,RECEIVED
Subscriber_001,topicA,topicA-68,172.172.1.1:1883,1551644516849,RECEIVED
Subscriber_001,topicA,topicA-69,172.172.1.1:1883,1551644516935,RECEIVED
Subscriber_001,topicA,topicA-70,172.172.1.1:1883,1551644517082,RECEIVED
Subscriber_001,topicA,topicA-71,172.172.1.1:1883,1551644517146,RECEIVED
Subscriber_001,topicA,topicA-72,172.172.1.1:1883,1551644517246,RECEIVED
Subscriber_001,topicA,topicA-73,172.172.1.1:1883,1551644517367,RECEIVED
Subscriber_001,topicA,topicA-74,172.172.1.1:1883,1551644517439,RECEIVED
Subscriber_001,topicA,topicA-75,172.172.1.1:1883,1551644517543,RECEIVED
Subscriber_001,topicA,topicA-76,172.172.1.1:1883,1551644517644,RECEIVED
Subscriber_001,topicA,topicA-77,172.172.1.1:1883,1551644517737,RECEIVED
Subscriber_001,topicA,topicA-78,172.172.1.1:1883,1551644517837,RECEIVED
Subscriber_001,topicA,topicA-79,172.172.1.1:1883,1551644517941,RECEIVED
Subscriber_001,topicA,topicA-80,172.172.1.1:1883,1551644518039,RECEIVED
Subscriber_001,topicA,topicA-81,172.172.1.1:1883,1551644518145,RECEIVED
Subscriber_001,topicA,topicA-82,172.172.1.1:1883,1551644518244,RECEIVED
Subscriber_001,topicA,topicA-83,172.172.1.1:1883,1551644518353,RECEIVED
Subscriber_001,topicA,topicA-84,172.172.1.1:1883,1551644518445,RECEIVED
Subscriber_001,topicA,topicA-85,172.172.1.1:1883,1551644518556,RECEIVED
Subscriber_001,topicA,topicA-86,172.172.1.1:1883,1551644518643,RECEIVED
Subscriber_001,topicA,topicA-87,172.172.1.1:1883,1551644518742,RECEIVED
Subscriber_001,topicA,topicA-88,172.172.1.1:1883,1551644518838,RECEIVED
Subscriber_001,topicA,topicA-89,172.172.1.1:1883,1551644518946,RECEIVED
Subscriber_001,topicA,topicA-90,172.172.1.1:1883,1551644519039,RECEIVED
Subscriber_001,topicA,topicA-91,172.172.1.1:1883,1551644519146,RECEIVED
Subscriber_001,topicA,topicA-92,172.172.1.1:1883,1551644519236,RECEIVED
Subscriber_001,topicA,topicA-93,172.172.1.1:1883,1551644519345,RECEIVED
Subscriber_001,topicA,topicA-94,172.172.1.1:1883,1551644519446,RECEIVED
Subscriber_001,topicA,topicA-95,172.172.1.1:1883,1551644519550,RECEIVED
Subscriber_001,topicA,topicA-96,172.172.1.1:1883,1551644519640,RECEIVED
Subscriber_001,topicA,topicA-97,172.172.1.1:1883,1551644519740,RECEIVED
Subscriber_001,topicA,topicA-98,172.172.1.1:1883,1551644519843,RECEIVED
Subscriber_001,topicA,topicA-99,172.172.1.1:1883,1551644519936,RECEIVED
Subscriber_001,topicA,topicA-100,172.172.1.1:1883,1551644520043,RECEIVED
Subscriber_001,topicA,topicA-101,172.172.1.1:1883,1551644520154,RECEIVED
Subscriber_001,topicA,topicA-102,172.172.1.1:1883,1551644520245,RECEIVED
Subscriber_001,topicA,topicA-103,172.172.1.1:1883,1551644520349,RECEIVED
Subscriber_001,topicA,topicA-104,172.172.1.1:1883,1551644520445,RECEIVED
Subscriber_001,topicA,topicA-105,172.172.1.1:1883,1551644520541,RECEIVED
Subscriber_001,topicA,topicA-106,172.172.1.1:1883,1551644520646,RECEIVED
Subscriber_001,topicA,topicA-107,172.172.1.1:1883,1551644520744,RECEIVED
Subscriber_001,topicA,topicA-108,172.172.1.1:1883,1551644520839,RECEIVED
Subscriber_001,topicA,topicA-109,172.172.1.1:1883,1551644520947,RECEIVED
Subscriber_001,topicA,topicA-110,172.172.1.1:1883,1551644521046,RECEIVED
Subscriber_001,topicA,topicA-111,172.172.1.1:1883,1551644521141,RECEIVED
Subscriber_001,topicA,topicA-112,172.172.1.1:1883,1551644521236,RECEIVED
Subscriber_001,topicA,topicA-113,172.172.1.1:1883,1551644521338,RECEIVED
Subscriber_001,topicA,topicA-114,172.172.1.1:1883,1551644521444,RECEIVED
Subscriber_001,topicA,topicA-115,172.172.1.1:1883,1551644521544,RECEIVED
Subscriber_001,topicA,topicA-116,172.172.1.1:1883,1551644521637,RECEIVED
Subscriber_001,topicA,topicA-117,172.172.1.1:1883,1551644521757,RECEIVED
Subscriber_001,topicA,topicA-118,172.172.1.1:1883,1551644521846,RECEIVED
Subscriber_001,topicA,topicA-119,172.172.1.1:1883,1551644521962,RECEIVED
Subscriber_001,topicA,topicA-120,172.172.1.1:1883,1551644522060,RECEIVED
Subscriber_001,topicA,topicA-121,172.172.1.1:1883,1551644522154,RECEIVED
Subscriber_001,topicA,topicA-122,172.172.1.1:1883,1551644522244,RECEIVED
Subscriber_001,topicA,topicA-123,172.172.1.1:1883,1551644522364,RECEIVED
Subscriber_001,topicA,topicA-124,172.172.1.1:1883,1551644522442,RECEIVED
Subscriber_001,topicA,topicA-125,172.172.1.1:1883,1551644522541,RECEIVED
Subscriber_001,topicA,topicA-126,172.172.1.1:1883,1551644522647,RECEIVED
Subscriber_001,topicA,topicA-127,172.172.1.1:1883,1551644522742,RECEIVED
Subscriber_001,topicA,topicA-128,172.172.1.1:1883,1551644522852,RECEIVED
Subscriber_001,topicA,topicA-129,172.172.1.1:1883,1551644522938,RECEIVED
Subscriber_001,topicA,topicA-130,172.172.1.1:1883,1551644523040,RECEIVED
Subscriber_001,topicA,topicA-131,172.172.1.1:1883,1551644523143,RECEIVED
Subscriber_001,topicA,topicA-132,172.172.1.1:1883,1551644523248,RECEIVED
Subscriber_001,topicA,topicA-133,172.172.1.1:1883,1551644523344,RECEIVED
Subscriber_001,topicA,topicA-134,172.172.1.1:1883,1551644523450,RECEIVED
Subscriber_001,topicA,topicA-135,172.172.1.1:1883,1551644523541,RECEIVED
Subscriber_001,topicA,topicA-136,172.172.1.1:1883,1551644523648,RECEIVED
Subscriber_001,topicA,topicA-137,172.172.1.1:1883,1551644523748,RECEIVED
Subscriber_001,topicA,topicA-138,172.172.1.1:1883,1551644523843,RECEIVED
Subscriber_001,topicA,topicA-139,172.172.1.1:1883,1551644523949,RECEIVED
Subscriber_001,topicA,topicA-140,172.172.1.1:1883,1551644524046,RECEIVED
Subscriber_001,topicA,topicA-141,172.172.1.1:1883,1551644524148,RECEIVED
Subscriber_001,topicA,topicA-142,172.172.1.1:1883,1551644524243,RECEIVED
Subscriber_001,topicA,topicA-143,172.172.1.1:1883,1551644524346,RECEIVED
Subscriber_001,topicA,topicA-144,172.172.1.1:1883,1551644524444,RECEIVED
Subscriber_001,topicA,topicA-145,172.172.1.1:1883,1551644524545,RECEIVED
Subscriber_001,topicA,topicA-146,172.172.1.1:1883,1551644524653,RECEIVED
Subscriber_001,topicA,topicA-147,172.172.1.1:1883,1551644524744,RECEIVED
Subscriber_001,topicA,topicA-148,172.172.1.1:1883,1551644524848,RECEIVED
Subscriber_001,topicA,topicA-149,172.172.1.1:1883,1551644524941,RECEIVED
Subscriber_001,topicA,topicA-150,172.172.1.1:1883,1551644525042,RECEIVED
Subscriber_001,topicA,topicA-151,172.172.1.1:1883,1551644525144,RECEIVED
Subscriber_001,topicA,topicA-152,172.172.1.1:1883,1551644525245,RECEIVED
Subscriber_001,topicA,topicA-153,172.172.1.1:1883,1551644525346,RECEIVED
Subscriber_001,topicA,topicA-154,172.172.1.1:1883,1551644525451,RECEIVED
Subscriber_001,topicA,topicA-155,172.172.1.1:1883,1551644525547,RECEIVED
Subscriber_001,topicA,topicA-156,172.172.1.1:1883,1551644525645,RECEIVED
Subscriber_001,topicA,topicA-157,172.172.1.1:1883,1551644525754,RECEIVED
Subscriber_001,topicA,topicA-158,172.172.1.1:1883,1551644525847,RECEIVED
Subscriber_001,topicA,topicA-159,172.172.1.1:1883,1551644525948,RECEIVED
Subscriber_001,topicA,topicA-160,172.172.1.1:1883,1551644526056,RECEIVED
Subscriber_001,topicA,topicA-161,172.172.1.1:1883,1551644526147,RECEIVED
Subscriber_001,topicA,topicA-162,172.172.1.1:1883,1551644526257,RECEIVED
Subscriber_001,topicA,topicA-163,172.172.1.1:1883,1551644526356,RECEIVED
Subscriber_001,topicA,topicA-164,172.172.1.1:1883,1551644526453,RECEIVED
Subscriber_001,topicA,topicA-165,172.172.1.1:1883,1551644526548,RECEIVED
Subscriber_001,topicA,topicA-166,172.172.1.1:1883,1551644526642,RECEIVED
Subscriber_001,topicA,topicA-167,172.172.1.1:1883,1551644526734,RECEIVED
Subscriber_001,topicA,topicA-168,172.172.1.1:1883,1551644526838,RECEIVED
Subscriber_001,topicA,topicA-169,172.172.1.1:1883,1551644526944,RECEIVED
Subscriber_001,topicA,topicA-170,172.172.1.1:1883,1551644527039,RECEIVED
Subscriber_001,topicA,topicA-171,172.172.1.1:1883,1551644527156,RECEIVED
Subscriber_001,topicA,topicA-172,172.172.1.1:1883,1551644527252,RECEIVED
Subscriber_001,topicA,topicA-173,172.172.1.1:1883,1551644527368,RECEIVED
Subscriber_001,topicA,topicA-174,172.172.1.1:1883,1551644527449,RECEIVED
Subscriber_001,topicA,topicA-175,172.172.1.1:1883,1551644527547,RECEIVED
Subscriber_001,topicA,topicA-176,172.172.1.1:1883,1551644527649,RECEIVED
Subscriber_001,topicA,topicA-177,172.172.1.1:1883,1551644527754,RECEIVED
Subscriber_001,topicA,topicA-178,172.172.1.1:1883,1551644527848,RECEIVED
Subscriber_001,topicA,topicA-179,172.172.1.1:1883,1551644527960,RECEIVED
Subscriber_001,topicA,topicA-180,172.172.1.1:1883,1551644528046,RECEIVED
Subscriber_001,topicA,topicA-181,172.172.1.1:1883,1551644528149,RECEIVED
Subscriber_001,topicA,topicA-182,172.172.1.1:1883,1551644528251,RECEIVED
Subscriber_001,topicA,topicA-183,172.172.1.1:1883,1551644528347,RECEIVED
Subscriber_001,topicA,topicA-184,172.172.1.1:1883,1551644528451,RECEIVED
Subscriber_001,topicA,topicA-185,172.172.1.1:1883,1551644528549,RECEIVED
Subscriber_001,topicA,topicA-186,172.172.1.1:1883,1551644528650,RECEIVED
Subscriber_001,topicA,topicA-187,172.172.1.1:1883,1551644528753,RECEIVED
Subscriber_001,topicA,topicA-188,172.172.1.1:1883,1551644528846,RECEIVED
Subscriber_001,topicA,topicA-189,172.172.1.1:1883,1551644528941,RECEIVED
Subscriber_001,topicA,topicA-190,172.172.1.1:1883,1551644529042,RECEIVED
Subscriber_001,topicA,topicA-191,172.172.1.1:1883,1551644529146,RECEIVED
Subscriber_001,topicA,topicA-192,172.172.1.1:1883,1551644529249,RECEIVED
Subscriber_001,topicA,topicA-193,172.172.1.1:1883,1551644529354,RECEIVED
Subscriber_001,topicA,topicA-194,172.172.1.1:1883,1551644529443,RECEIVED
Subscriber_001,topicA,topicA-195,172.172.1.1:1883,1551644529549,RECEIVED
Subscriber_001,topicA,topicA-196,172.172.1.1:1883,1551644529651,RECEIVED
Subscriber_001,topicA,topicA-197,172.172.1.1:1883,1551644529743,RECEIVED
Subscriber_001,topicA,topicA-198,172.172.1.1:1883,1551644529850,RECEIVED
Subscriber_001,topicA,topicA-199,172.172.1.1:1883,1551644529941,RECEIVED
Subscriber_001,topicA,topicA-200,172.172.1.1:1883,1551644530047,RECEIVED
Subscriber_001,topicA,topicA-201,172.172.1.1:1883,1551644530142,RECEIVED
Subscriber_001,topicA,topicA-202,172.172.1.1:1883,1551644530246,RECEIVED
Subscriber_001,topicA,topicA-203,172.172.1.1:1883,1551644530338,RECEIVED
Subscriber_001,topicA,topicA-204,172.172.1.1:1883,1551644530444,RECEIVED
Subscriber_001,topicA,topicA-205,172.172.1.1:1883,1551644530541,RECEIVED
Subscriber_001,topicA,topicA-206,172.172.1.1:1883,1551644530649,RECEIVED
Subscriber_001,topicA,topicA-207,172.172.1.1:1883,1551644530744,RECEIVED
Subscriber_001,topicA,topicA-208,172.172.1.1:1883,1551644530845,RECEIVED
Subscriber_001,topicA,topicA-209,172.172.1.1:1883,1551644530942,RECEIVED
Subscriber_001,topicA,topicA-210,172.172.1.1:1883,1551644531044,RECEIVED
Subscriber_001,topicA,topicA-211,172.172.1.1:1883,1551644531147,RECEIVED
Subscriber_001,topicA,topicA-212,172.172.1.1:1883,1551644531266,RECEIVED
Subscriber_001,topicA,topicA-213,172.172.1.1:1883,1551644531345,RECEIVED
Subscriber_001,topicA,topicA-214,172.172.1.1:1883,1551644531447,RECEIVED
Subscriber_001,topicA,topicA-215,172.172.1.1:1883,1551644531551,RECEIVED
Subscriber_001,topicA,topicA-216,172.172.1.1:1883,1551644531634,RECEIVED
Subscriber_001,topicA,topicA-217,172.172.1.1:1883,1551644531743,RECEIVED
Subscriber_001,topicA,topicA-218,172.172.1.1:1883,1551644531842,RECEIVED
Subscriber_001,topicA,topicA-219,172.172.1.1:1883,1551644531960,RECEIVED
Subscriber_001,topicA,topicA-220,172.172.1.1:1883,1551644532045,RECEIVED
Subscriber_001,topicA,topicA-221,172.172.1.1:1883,1551644532146,RECEIVED
Subscriber_001,topicA,topicA-222,172.172.1.1:1883,1551644532245,RECEIVED
Subscriber_001,topicA,topicA-223,172.172.1.1:1883,1551644532345,RECEIVED
Subscriber_001,topicA,topicA-224,172.172.1.1:1883,1551644532435,RECEIVED
Subscriber_001,topicA,topicA-225,172.172.1.1:1883,1551644532542,RECEIVED
Subscriber_001,topicA,topicA-226,172.172.1.1:1883,1551644532641,RECEIVED
Subscriber_001,topicA,topicA-227,172.172.1.1:1883,1551644532733,RECEIVED
Subscriber_001,topicA,topicA-228,172.172.1.1:1883,1551644532833,RECEIVED
Subscriber_001,topicA,topicA-229,172.172.1.1:1883,1551644532938,RECEIVED
Subscriber_001,topicA,topicA-230,172.172.1.1:1883,1551644533044,RECEIVED
Subscriber_001,topicA,topicA-231,172.172.1.1:1883,1551644533143,RECEIVED
Subscriber_001,topicA,topicA-232,172.172.1.1:1883,1551644533237,RECEIVED
Subscriber_001,topicA,topicA-233,172.172.1.1:1883,1551644533342,RECEIVED
Subscriber_001,topicA,topicA-234,172.172.1.1:1883,1551644533436,RECEIVED
Subscriber_001,topicA,topicA-235,172.172.1.1:1883,1551644533540,RECEIVED
Subscriber_001,topicA,topicA-236,172.172.1.1:1883,1551644533643,RECEIVED
Subscriber_001,topicA,topicA-237,172.172.1.1:1883,1551644533748,RECEIVED
Subscriber_001,topicA,topicA-238,172.172.1.1:1883,1551644533849,RECEIVED
Subscriber_001,topicA,topicA-239,172.172.1.1:1883,1551644533939,RECEIVED
Subscriber_001,topicA,topicA-240,172.172.1.1:1883,1551644534037,RECEIVED
Subscriber_001,topicA,topicA-241,172.172.1.1:1883,1551644534136,RECEIVED
Subscriber_001,topicA,topicA-242,172.172.1.1:1883,1551644534252,RECEIVED
Subscriber_001,topicA,topicA-243,172.172.1.1:1883,1551644534347,RECEIVED
Subscriber_001,topicA,topicA-244,172.172.1.1:1883,1551644534446,RECEIVED
Subscriber_001,topicA,topicA-245,172.172.1.1:1883,1551644534549,RECEIVED
Subscriber_001,topicA,topicA-246,172.172.1.1:1883,1551644534655,RECEIVED
Subscriber_001,topicA,topicA-247,172.172.1.1:1883,1551644534739,RECEIVED
Subscriber_001,topicA,topicA-248,172.172.1.1:1883,1551644534838,RECEIVED
Subscriber_001,topicA,topicA-249,172.172.1.1:1883,1551644534940,RECEIVED
Subscriber_001,topicA,topicA-250,172.172.1.2:1883,1551644535785,RECEIVED
Subscriber_001,topicA,topicA-251,172.172.1.2:1883,1551644535891,RECEIVED
Subscriber_001,topicA,topicA-252,172.172.1.2:1883,1551644535987,RECEIVED
Subscriber_001,topicA,topicA-253,172.172.1.2:1883,1551644536091,RECEIVED
Subscriber_001,topicA,topicA-254,172.172.1.2:1883,1551644536187,RECEIVED
Subscriber_001,topicA,topicA-255,172.172.1.2:1883,1551644536309,RECEIVED
Subscriber_001,topicA,topicA-256,172.172.1.2:1883,1551644536391,RECEIVED
Subscriber_001,topicA,topicA-257,172.172.1.2:1883,1551644536493,RECEIVED
Subscriber_001,topicA,topicA-258,172.172.1.2:1883,1551644536590,RECEIVED
Subscriber_001,topicA,topicA-259,172.172.1.2:1883,1551644536684,RECEIVED
Subscriber_001,topicA,topicA-260,172.172.1.2:1883,1551644536783,RECEIVED
Subscriber_001,topicA,topicA-261,172.172.1.2:1883,1551644536897,RECEIVED
Subscriber_001,topicA,topicA-262,172.172.1.2:1883,1551644536993,RECEIVED
Subscriber_001,topicA,topicA-263,172.172.1.2:1883,1551644537107,RECEIVED
Subscriber_001,topicA,topicA-264,172.172.1.2:1883,1551644537197,RECEIVED
Subscriber_001,topicA,topicA-265,172.172.1.2:1883,1551644537302,RECEIVED
Subscriber_001,topicA,topicA-266,172.172.1.2:1883,1551644537397,RECEIVED
Subscriber_001,topicA,topicA-267,172.172.1.2:1883,1551644537499,RECEIVED
Subscriber_001,topicA,topicA-268,172.172.1.2:1883,1551644537599,RECEIVED
Subscriber_001,topicA,topicA-269,172.172.1.2:1883,1551644537696,RECEIVED
Subscriber_001,topicA,topicA-270,172.172.1.2:1883,1551644537794,RECEIVED
Subscriber_001,topicA,topicA-271,172.172.1.2:1883,1551644537891,RECEIVED
Subscriber_001,topicA,topicA-272,172.172.1.2:1883,1551644537993,RECEIVED
Subscriber_001,topicA,topicA-273,172.172.1.2:1883,1551644538090,RECEIVED
Subscriber_001,topicA,topicA-274,172.172.1.2:1883,1551644538195,RECEIVED
Subscriber_001,topicA,topicA-275,172.172.1.2:1883,1551644538284,RECEIVED
Subscriber_001,topicA,topicA-276,172.172.1.2:1883,1551644538400,RECEIVED
Subscriber_001,topicA,topicA-277,172.172.1.2:1883,1551644538499,RECEIVED
Subscriber_001,topicA,topicA-278,172.172.1.2:1883,1551644538595,RECEIVED
Subscriber_001,topicA,topicA-279,172.172.1.2:1883,1551644538701,RECEIVED
Subscriber_001,topicA,topicA-280,172.172.1.2:1883,1551644538789,RECEIVED
Subscriber_001,topicA,topicA-281,172.172.1.2:1883,1551644538892,RECEIVED
Subscriber_001,topicA,topicA-282,172.172.1.2:1883,1551644538982,RECEIVED
Subscriber_001,topicA,topicA-283,172.172.1.2:1883,1551644539097,RECEIVED
Subscriber_001,topicA,topicA-284,172.172.1.2:1883,1551644539198,RECEIVED
Subscriber_001,topicA,topicA-285,172.172.1.2:1883,1551644539289,RECEIVED
Subscriber_001,topicA,topicA-286,172.172.1.2:1883,1551644539393,RECEIVED
Subscriber_001,topicA,topicA-287,172.172.1.2:1883,1551644539493,RECEIVED
Subscriber_001,topicA,topicA-288,172.172.1.2:1883,1551644539598,RECEIVED
Subscriber_001,topicA,topicA-289,172.172.1.2:1883,1551644539694,RECEIVED
Subscriber_001,topicA,topicA-290,172.172.1.2:1883,1551644539794,RECEIVED
Subscriber_001,topicA,topicA-291,172.172.1.2:1883,1551644539893,RECEIVED
Subscriber_001,topicA,topicA-292,172.172.1.2:1883,1551644539995,RECEIVED
Subscriber_001,topicA,topicA-293,172.172.1.2:1883,1551644540096,RECEIVED
Subscriber_001,topicA,topicA-294,172.172.1.2:1883,1551644540189,RECEIVED
Subscriber_001,topicA,topicA-295,172.172.1.2:1883,1551644540294,RECEIVED
Subscriber_001,topicA,topicA-296,172.172.1.2:1883,1551644540382,RECEIVED
Subscriber_001,topicA,topicA-297,172.172.1.2:1883,1551644540493,RECEIVED
Subscriber_001,topicA,topicA-298,172.172.1.2:1883,1551644540589,RECEIVED
Subscriber_001,topicA,topicA-299,172.172.1.2:1883,1551644540694,RECEIVED
Subscriber_001,topicA,topicA-300,172.172.1.2:1883,1551644540807,RECEIVED
Subscriber_001,topicA,topicA-301,172.172.1.2:1883,1551644540895,RECEIVED
Subscriber_001,topicA,topicA-302,172.172.1.2:1883,1551644541001,RECEIVED
Subscriber_001,topicA,topicA-303,172.172.1.2:1883,1551644541097,RECEIVED
Subscriber_001,topicA,topicA-304,172.172.1.2:1883,1551644541194,RECEIVED
Subscriber_001,topicA,topicA-305,172.172.1.2:1883,1551644541291,RECEIVED
Subscriber_001,topicA,topicA-306,172.172.1.2:1883,1551644541394,RECEIVED
Subscriber_001,topicA,topicA-307,172.172.1.2:1883,1551644541494,RECEIVED
Subscriber_001,topicA,topicA-308,172.172.1.2:1883,1551644541599,RECEIVED
Subscriber_001,topicA,topicA-309,172.172.1.2:1883,1551644541701,RECEIVED
Subscriber_001,topicA,topicA-310,172.172.1.2:1883,1551644541787,RECEIVED
Subscriber_001,topicA,topicA-311,172.172.1.2:1883,1551644541887,RECEIVED
Subscriber_001,topicA,topicA-312,172.172.1.2:1883,1551644541999,RECEIVED
Subscriber_001,topicA,topicA-313,172.172.1.2:1883,1551644542082,RECEIVED
Subscriber_001,topicA,topicA-314,172.172.1.2:1883,1551644542192,RECEIVED
Subscriber_001,topicA,topicA-315,172.172.1.2:1883,1551644542287,RECEIVED
Subscriber_001,topicA,topicA-316,172.172.1.2:1883,1551644542380,RECEIVED
Subscriber_001,topicA,topicA-317,172.172.1.2:1883,1551644542490,RECEIVED
Subscriber_001,topicA,topicA-318,172.172.1.2:1883,1551644542586,RECEIVED
Subscriber_001,topicA,topicA-319,172.172.1.2:1883,1551644542704,RECEIVED
Subscriber_001,topicA,topicA-320,172.172.1.2:1883,1551644542791,RECEIVED
Subscriber_001,topicA,topicA-321,172.172.1.2:1883,1551644542892,RECEIVED
Subscriber_001,topicA,topicA-322,172.172.1.2:1883,1551644542993,RECEIVED
Subscriber_001,topicA,topicA-323,172.172.1.2:1883,1551644543089,RECEIVED
Subscriber_001,topicA,topicA-324,172.172.1.2:1883,1551644543192,RECEIVED
Subscriber_001,topicA,topicA-325,172.172.1.2:1883,1551644543305,RECEIVED
Subscriber_001,topicA,topicA-326,172.172.1.2:1883,1551644543390,RECEIVED
Subscriber_001,topicA,topicA-327,172.172.1.2:1883,1551644543481,RECEIVED
Subscriber_001,topicA,topicA-328,172.172.1.2:1883,1551644543583,RECEIVED
Subscriber_001,topicA,topicA-329,172.172.1.2:1883,1551644543696,RECEIVED
Subscriber_001,topicA,topicA-330,172.172.1.2:1883,1551644543793,RECEIVED
Subscriber_001,topicA,topicA-331,172.172.1.2:1883,1551644543922,RECEIVED
Subscriber_001,topicA,topicA-332,172.172.1.2:1883,1551644543996,RECEIVED
Subscriber_001,topicA,topicA-333,172.172.1.2:1883,1551644544093,RECEIVED
Subscriber_001,topicA,topicA-334,172.172.1.2:1883,1551644544195,RECEIVED
Subscriber_001,topicA,topicA-335,172.172.1.2:1883,1551644544299,RECEIVED
Subscriber_001,topicA,topicA-336,172.172.1.2:1883,1551644544390,RECEIVED
Subscriber_001,topicA,topicA-337,172.172.1.2:1883,1551644544497,RECEIVED
Subscriber_001,topicA,topicA-338,172.172.1.2:1883,1551644544595,RECEIVED
Subscriber_001,topicA,topicA-339,172.172.1.2:1883,1551644544691,RECEIVED
Subscriber_001,topicA,topicA-340,172.172.1.2:1883,1551644544796,RECEIVED
Subscriber_001,topicA,topicA-341,172.172.1.2:1883,1551644544896,RECEIVED
Subscriber_001,topicA,topicA-342,172.172.1.2:1883,1551644544999,RECEIVED
Subscriber_001,topicA,topicA-343,172.172.1.2:1883,1551644545106,RECEIVED
Subscriber_001,topicA,topicA-344,172.172.1.2:1883,1551644545196,RECEIVED
Subscriber_001,topicA,topicA-345,172.172.1.2:1883,1551644545285,RECEIVED
Subscriber_001,topicA,topicA-346,172.172.1.2:1883,1551644545394,RECEIVED
Subscriber_001,topicA,topicA-347,172.172.1.2:1883,1551644545492,RECEIVED
Subscriber_001,topicA,topicA-348,172.172.1.2:1883,1551644545602,RECEIVED
Subscriber_001,topicA,topicA-349,172.172.1.2:1883,1551644545690,RECEIVED
Subscriber_001,topicA,topicA-350,172.172.1.2:1883,1551644545797,RECEIVED
Subscriber_001,topicA,topicA-351,172.172.1.2:1883,1551644545894,RECEIVED
Subscriber_001,topicA,topicA-352,172.172.1.2:1883,1551644545990,RECEIVED
Subscriber_001,topicA,topicA-353,172.172.1.2:1883,1551644546088,RECEIVED
Subscriber_001,topicA,topicA-354,172.172.1.2:1883,1551644546191,RECEIVED
Subscriber_001,topicA,topicA-355,172.172.1.2:1883,1551644546296,RECEIVED
Subscriber_001,topicA,topicA-356,172.172.1.2:1883,1551644546389,RECEIVED
Subscriber_001,topicA,topicA-357,172.172.1.2:1883,1551644546495,RECEIVED
Subscriber_001,topicA,topicA-358,172.172.1.2:1883,1551644546592,RECEIVED
Subscriber_001,topicA,topicA-359,172.172.1.2:1883,1551644546695,RECEIVED
Subscriber_001,topicA,topicA-360,172.172.1.2:1883,1551644546795,RECEIVED
Subscriber_001,topicA,topicA-361,172.172.1.2:1883,1551644546898,RECEIVED
Subscriber_001,topicA,topicA-362,172.172.1.2:1883,1551644547001,RECEIVED
Subscriber_001,topicA,topicA-363,172.172.1.2:1883,1551644547095,RECEIVED
Subscriber_001,topicA,topicA-364,172.172.1.2:1883,1551644547201,RECEIVED
Subscriber_001,topicA,topicA-365,172.172.1.2:1883,1551644547293,RECEIVED
Subscriber_001,topicA,topicA-366,172.172.1.2:1883,1551644547394,RECEIVED
Subscriber_001,topicA,topicA-367,172.172.1.2:1883,1551644547491,RECEIVED
Subscriber_001,topicA,topicA-368,172.172.1.2:1883,1551644547597,RECEIVED
Subscriber_001,topicA,topicA-369,172.172.1.2:1883,1551644547696,RECEIVED
Subscriber_001,topicA,topicA-370,172.172.1.2:1883,1551644547805,RECEIVED
Subscriber_001,topicA,topicA-371,172.172.1.2:1883,1551644547888,RECEIVED
Subscriber_001,topicA,topicA-372,172.172.1.2:1883,1551644547988,RECEIVED
Subscriber_001,topicA,topicA-373,172.172.1.2:1883,1551644548081,RECEIVED
Subscriber_001,topicA,topicA-374,172.172.1.2:1883,1551644548203,RECEIVED
Subscriber_001,topicA,topicA-375,172.172.1.2:1883,1551644548284,RECEIVED
Subscriber_001,topicA,topicA-376,172.172.1.2:1883,1551644548392,RECEIVED
Subscriber_001,topicA,topicA-377,172.172.1.2:1883,1551644548484,RECEIVED
Subscriber_001,topicA,topicA-378,172.172.1.2:1883,1551644548599,RECEIVED
Subscriber_001,topicA,topicA-379,172.172.1.2:1883,1551644548708,RECEIVED
Subscriber_001,topicA,topicA-380,172.172.1.2:1883,1551644548798,RECEIVED
Subscriber_001,topicA,topicA-381,172.172.1.2:1883,1551644548892,RECEIVED
Subscriber_001,topicA,topicA-382,172.172.1.2:1883,1551644548997,RECEIVED
Subscriber_001,topicA,topicA-383,172.172.1.2:1883,1551644549090,RECEIVED
Subscriber_001,topicA,topicA-384,172.172.1.2:1883,1551644549201,RECEIVED
Subscriber_001,topicA,topicA-385,172.172.1.2:1883,1551644549294,RECEIVED
Subscriber_001,topicA,topicA-386,172.172.1.2:1883,1551644549395,RECEIVED
Subscriber_001,topicA,topicA-387,172.172.1.2:1883,1551644549490,RECEIVED
Subscriber_001,topicA,topicA-388,172.172.1.2:1883,1551644549588,RECEIVED
Subscriber_001,topicA,topicA-389,172.172.1.2:1883,1551644549684,RECEIVED
Subscriber_001,topicA,topicA-390,172.172.1.2:1883,1551644549788,RECEIVED
Subscriber_001,topicA,topicA-391,172.172.1.2:1883,1551644549902,RECEIVED
Subscriber_001,topicA,topicA-392,172.172.1.2:1883,1551644549993,RECEIVED
Subscriber_001,topicA,topicA-393,172.172.1.2:1883,1551644550099,RECEIVED
Subscriber_001,topicA,topicA-394,172.172.1.2:1883,1551644550193,RECEIVED
Subscriber_001,topicA,topicA-395,172.172.1.2:1883,1551644550292,RECEIVED
Subscriber_001,topicA,topicA-396,172.172.1.2:1883,1551644550392,RECEIVED
Subscriber_001,topicA,topicA-397,172.172.1.2:1883,1551644550495,RECEIVED
Subscriber_001,topicA,topicA-398,172.172.1.2:1883,1551644550592,RECEIVED
Subscriber_001,topicA,topicA-399,172.172.1.2:1883,1551644550699,RECEIVED
Subscriber_001,topicA,topicA-400,172.172.1.2:1883,1551644550783,RECEIVED
Subscriber_001,topicA,topicA-401,172.172.1.2:1883,1551644550892,RECEIVED
Subscriber_001,topicA,topicA-402,172.172.1.2:1883,1551644550990,RECEIVED
Subscriber_001,topicA,topicA-403,172.172.1.2:1883,1551644551096,RECEIVED
Subscriber_001,topicA,topicA-404,172.172.1.2:1883,1551644551188,RECEIVED
Subscriber_001,topicA,topicA-405,172.172.1.2:1883,1551644551298,RECEIVED
Subscriber_001,topicA,topicA-406,172.172.1.2:1883,1551644551392,RECEIVED
Subscriber_001,topicA,topicA-407,172.172.1.2:1883,1551644551487,RECEIVED
Subscriber_001,topicA,topicA-408,172.172.1.2:1883,1551644551593,RECEIVED
Subscriber_001,topicA,topicA-409,172.172.1.2:1883,1551644551695,RECEIVED
Subscriber_001,topicA,topicA-410,172.172.1.2:1883,1551644551802,RECEIVED
Subscriber_001,topicA,topicA-411,172.172.1.2:1883,1551644551887,RECEIVED
Subscriber_001,topicA,topicA-412,172.172.1.2:1883,1551644551997,RECEIVED
Subscriber_001,topicA,topicA-413,172.172.1.2:1883,1551644552090,RECEIVED
Subscriber_001,topicA,topicA-414,172.172.1.2:1883,1551644552192,RECEIVED
Subscriber_001,topicA,topicA-415,172.172.1.2:1883,1551644552299,RECEIVED
Subscriber_001,topicA,topicA-416,172.172.1.2:1883,1551644552394,RECEIVED
Subscriber_001,topicA,topicA-417,172.172.1.2:1883,1551644552484,RECEIVED
Subscriber_001,topicA,topicA-418,172.172.1.2:1883,1551644552595,RECEIVED
Subscriber_001,topicA,topicA-419,172.172.1.2:1883,1551644552686,RECEIVED
Subscriber_001,topicA,topicA-420,172.172.1.2:1883,1551644552792,RECEIVED
Subscriber_001,topicA,topicA-421,172.172.1.2:1883,1551644552896,RECEIVED
Subscriber_001,topicA,topicA-422,172.172.1.2:1883,1551644552996,RECEIVED
Subscriber_001,topicA,topicA-423,172.172.1.2:1883,1551644553111,RECEIVED
Subscriber_001,topicA,topicA-424,172.172.1.2:1883,1551644553186,RECEIVED
Subscriber_001,topicA,topicA-425,172.172.1.2:1883,1551644553287,RECEIVED
Subscriber_001,topicA,topicA-426,172.172.1.2:1883,1551644553386,RECEIVED
Subscriber_001,topicA,topicA-427,172.172.1.2:1883,1551644553489,RECEIVED
Subscriber_001,topicA,topicA-428,172.172.1.2:1883,1551644553594,RECEIVED
Subscriber_001,topicA,topicA-429,172.172.1.2:1883,1551644553700,RECEIVED
Subscriber_001,topicA,topicA-430,172.172.1.2:1883,1551644553789,RECEIVED
Subscriber_001,topicA,topicA-431,172.172.1.2:1883,1551644553898,RECEIVED
Subscriber_001,topicA,topicA-432,172.172.1.2:1883,1551644554001,RECEIVED
Subscriber_001,topicA,topicA-433,172.172.1.2:1883,1551644554097,RECEIVED
Subscriber_001,topicA,topicA-434,172.172.1.2:1883,1551644554201,RECEIVED
Subscriber_001,topicA,topicA-435,172.172.1.2:1883,1551644554294,RECEIVED
Subscriber_001,topicA,topicA-436,172.172.1.2:1883,1551644554400,RECEIVED
Subscriber_001,topicA,topicA-437,172.172.1.2:1883,1551644554492,RECEIVED
Subscriber_001,topicA,topicA-438,172.172.1.2:1883,1551644554592,RECEIVED
Subscriber_001,topicA,topicA-439,172.172.1.2:1883,1551644554695,RECEIVED
Subscriber_001,topicA,topicA-440,172.172.1.2:1883,1551644554794,RECEIVED
Subscriber_001,topicA,topicA-441,172.172.1.2:1883,1551644554888,RECEIVED
Subscriber_001,topicA,topicA-442,172.172.1.2:1883,1551644554998,RECEIVED
Subscriber_001,topicA,topicA-443,172.172.1.2:1883,1551644555096,RECEIVED
Subscriber_001,topicA,topicA-444,172.172.1.2:1883,1551644555195,RECEIVED
Subscriber_001,topicA,topicA-445,172.172.1.2:1883,1551644555290,RECEIVED
Subscriber_001,topicA,topicA-446,172.172.1.2:1883,1551644555394,RECEIVED
Subscriber_001,topicA,topicA-447,172.172.1.2:1883,1551644555495,RECEIVED
Subscriber_001,topicA,topicA-448,172.172.1.2:1883,1551644555592,RECEIVED
Subscriber_001,topicA,topicA-449,172.172.1.2:1883,1551644555686,RECEIVED
Subscriber_001,topicA,topicA-450,172.172.1.2:1883,1551644555788,RECEIVED
Subscriber_001,topicA,topicA-451,172.172.1.2:1883,1551644555885,RECEIVED
Subscriber_001,topicA,topicA-452,172.172.1.2:1883,1551644555994,RECEIVED
Subscriber_001,topicA,topicA-453,172.172.1.2:1883,1551644556088,RECEIVED
Subscriber_001,topicA,topicA-454,172.172.1.2:1883,1551644556185,RECEIVED
Subscriber_001,topicA,topicA-455,172.172.1.2:1883,1551644556295,RECEIVED
Subscriber_001,topicA,topicA-456,172.172.1.2:1883,1551644556399,RECEIVED
Subscriber_001,topicA,topicA-457,172.172.1.2:1883,1551644556496,RECEIVED
Subscriber_001,topicA,topicA-458,172.172.1.2:1883,1551644556597,RECEIVED
Subscriber_001,topicA,topicA-459,172.172.1.2:1883,1551644556692,RECEIVED
Subscriber_001,topicA,topicA-460,172.172.1.2:1883,1551644556793,RECEIVED
Subscriber_001,topicA,topicA-461,172.172.1.2:1883,1551644556896,RECEIVED
Subscriber_001,topicA,topicA-462,172.172.1.2:1883,1551644556991,RECEIVED
Subscriber_001,topicA,topicA-463,172.172.1.2:1883,1551644557089,RECEIVED
Subscriber_001,topicA,topicA-464,172.172.1.2:1883,1551644557194,RECEIVED
Subscriber_001,topicA,topicA-465,172.172.1.2:1883,1551644557295,RECEIVED
Subscriber_001,topicA,topicA-466,172.172.1.2:1883,1551644557396,RECEIVED
Subscriber_001,topicA,topicA-467,172.172.1.2:1883,1551644557487,RECEIVED
Subscriber_001,topicA,topicA-468,172.172.1.2:1883,1551644557591,RECEIVED
Subscriber_001,topicA,topicA-469,172.172.1.2:1883,1551644557691,RECEIVED
Subscriber_001,topicA,topicA-470,172.172.1.2:1883,1551644557798,RECEIVED
Subscriber_001,topicA,topicA-471,172.172.1.2:1883,1551644557890,RECEIVED
Subscriber_001,topicA,topicA-472,172.172.1.2:1883,1551644557994,RECEIVED
Subscriber_001,topicA,topicA-473,172.172.1.2:1883,1551644558096,RECEIVED
Subscriber_001,topicA,topicA-474,172.172.1.2:1883,1551644558197,RECEIVED
Subscriber_001,topicA,topicA-475,172.172.1.2:1883,1551644558293,RECEIVED
Subscriber_001,topicA,topicA-476,172.172.1.2:1883,1551644558393,RECEIVED
Subscriber_001,topicA,topicA-477,172.172.1.2:1883,1551644558497,RECEIVED
Subscriber_001,topicA,topicA-478,172.172.1.2:1883,1551644558600,RECEIVED
Subscriber_001,topicA,topicA-479,172.172.1.2:1883,1551644558693,RECEIVED
Subscriber_001,topicA,topicA-480,172.172.1.2:1883,1551644558784,RECEIVED
Subscriber_001,topicA,topicA-481,172.172.1.2:1883,1551644558889,RECEIVED
Subscriber_001,topicA,topicA-482,172.172.1.2:1883,1551644558992,RECEIVED
Subscriber_001,topicA,topicA-483,172.172.1.2:1883,1551644559091,RECEIVED
Subscriber_001,topicA,topicA-484,172.172.1.2:1883,1551644559185,RECEIVED
Subscriber_001,topicA,topicA-485,172.172.1.2:1883,1551644559296,RECEIVED
Subscriber_001,topicA,topicA-486,172.172.1.2:1883,1551644559392,RECEIVED
Subscriber_001,topicA,topicA-487,172.172.1.2:1883,1551644559483,RECEIVED
Subscriber_001,topicA,topicA-488,172.172.1.2:1883,1551644559586,RECEIVED
Subscriber_001,topicA,topicA-489,172.172.1.2:1883,1551644559690,RECEIVED
Subscriber_001,topicA,topicA-490,172.172.1.2:1883,1551644559784,RECEIVED
Subscriber_001,topicA,topicA-491,172.172.1.2:1883,1551644559890,RECEIVED
Subscriber_001,topicA,topicA-492,172.172.1.2:1883,1551644559998,RECEIVED
Subscriber_001,topicA,topicA-493,172.172.1.2:1883,1551644560082,RECEIVED
Subscriber_001,topicA,topicA-494,172.172.1.2:1883,1551644560187,RECEIVED
Subscriber_001,topicA,topicA-495,172.172.1.2:1883,1551644560293,RECEIVED
Subscriber_001,topicA,topicA-496,172.172.1.2:1883,1551644560386,RECEIVED
Subscriber_001,topicA,topicA-497,172.172.1.2:1883,1551644560482,RECEIVED
Subscriber_001,topicA,topicA-498,172.172.1.2:1883,1551644560587,RECEIVED
Subscriber_001,topicA,topicA-499,172.172.1.2:1883,1551644560688,RECEIVED
Subscriber_001,topicA,topicA-500,172.172.1.2:1883,1551644560788,RECEIVED
Subscriber_001,topicA,topicA-501,172.172.1.2:1883,1551644560898,RECEIVED
Subscriber_001,topicA,topicA-502,172.172.1.2:1883,1551644560996,RECEIVED
Subscriber_001,topicA,topicA-503,172.172.1.2:1883,1551644561094,RECEIVED
Subscriber_001,topicA,topicA-504,172.172.1.2:1883,1551644561189,RECEIVED
Subscriber_001,topicA,topicA-505,172.172.1.2:1883,1551644561291,RECEIVED
Subscriber_001,topicA,topicA-506,172.172.1.2:1883,1551644561387,RECEIVED
Subscriber_001,topicA,topicA-507,172.172.1.2:1883,1551644561482,RECEIVED
Subscriber_001,topicA,topicA-508,172.172.1.2:1883,1551644561590,RECEIVED
Subscriber_001,topicA,topicA-509,172.172.1.2:1883,1551644561690,RECEIVED
Subscriber_001,topicA,topicA-510,172.172.1.2:1883,1551644561780,RECEIVED
Subscriber_001,topicA,topicA-511,172.172.1.2:1883,1551644561913,RECEIVED
Subscriber_001,topicA,topicA-512,172.172.1.2:1883,1551644561990,RECEIVED
Subscriber_001,topicA,topicA-513,172.172.1.2:1883,1551644562086,RECEIVED
Subscriber_001,topicA,topicA-514,172.172.1.2:1883,1551644562184,RECEIVED
Subscriber_001,topicA,topicA-515,172.172.1.2:1883,1551644562289,RECEIVED
Subscriber_001,topicA,topicA-516,172.172.1.2:1883,1551644562390,RECEIVED
Subscriber_001,topicA,topicA-517,172.172.1.2:1883,1551644562493,RECEIVED
Subscriber_001,topicA,topicA-518,172.172.1.2:1883,1551644562596,RECEIVED
Subscriber_001,topicA,topicA-519,172.172.1.2:1883,1551644562688,RECEIVED
Subscriber_001,topicA,topicA-520,172.172.1.2:1883,1551644562794,RECEIVED
Subscriber_001,topicA,topicA-521,172.172.1.2:1883,1551644562887,RECEIVED
Subscriber_001,topicA,topicA-522,172.172.1.2:1883,1551644562981,RECEIVED
Subscriber_001,topicA,topicA-523,172.172.1.2:1883,1551644563088,RECEIVED
Subscriber_001,topicA,topicA-524,172.172.1.2:1883,1551644563185,RECEIVED
Subscriber_001,topicA,topicA-525,172.172.1.2:1883,1551644563288,RECEIVED
Subscriber_001,topicA,topicA-526,172.172.1.2:1883,1551644563391,RECEIVED
Subscriber_001,topicA,topicA-527,172.172.1.2:1883,1551644563482,RECEIVED
Subscriber_001,topicA,topicA-528,172.172.1.2:1883,1551644563591,RECEIVED
Subscriber_001,topicA,topicA-529,172.172.1.2:1883,1551644563690,RECEIVED
Subscriber_001,topicA,topicA-530,172.172.1.2:1883,1551644563790,RECEIVED
Subscriber_001,topicA,topicA-531,172.172.1.2:1883,1551644563892,RECEIVED
Subscriber_001,topicA,topicA-532,172.172.1.2:1883,1551644563985,RECEIVED
Subscriber_001,topicA,topicA-533,172.172.1.2:1883,1551644564091,RECEIVED
Subscriber_001,topicA,topicA-534,172.172.1.2:1883,1551644564186,RECEIVED
Subscriber_001,topicA,topicA-535,172.172.1.2:1883,1551644564290,RECEIVED
Subscriber_001,topicA,topicA-536,172.172.1.2:1883,1551644564392,RECEIVED
Subscriber_001,topicA,topicA-537,172.172.1.2:1883,1551644564494,RECEIVED
Subscriber_001,topicA,topicA-538,172.172.1.2:1883,1551644564594,RECEIVED
Subscriber_001,topicA,topicA-539,172.172.1.2:1883,1551644564686,RECEIVED
Subscriber_001,topicA,topicA-540,172.172.1.2:1883,1551644564791,RECEIVED
Subscriber_001,topicA,topicA-541,172.172.1.2:1883,1551644564893,RECEIVED
Subscriber_001,topicA,topicA-542,172.172.1.2:1883,1551644564992,RECEIVED
Subscriber_001,topicA,topicA-543,172.172.1.2:1883,1551644565088,RECEIVED
Subscriber_001,topicA,topicA-544,172.172.1.2:1883,1551644565187,RECEIVED
Subscriber_001,topicA,topicA-545,172.172.1.2:1883,1551644565282,RECEIVED
Subscriber_001,topicA,topicA-546,172.172.1.2:1883,1551644565385,RECEIVED
Subscriber_001,topicA,topicA-547,172.172.1.2:1883,1551644565486,RECEIVED
Subscriber_001,topicA,topicA-548,172.172.1.2:1883,1551644565588,RECEIVED
Subscriber_001,topicA,topicA-549,172.172.1.2:1883,1551644565682,RECEIVED
Subscriber_001,topicA,topicA-550,172.172.1.2:1883,1551644565788,RECEIVED
Subscriber_001,topicA,topicA-551,172.172.1.2:1883,1551644565889,RECEIVED
Subscriber_001,topicA,topicA-552,172.172.1.2:1883,1551644565990,RECEIVED
Subscriber_001,topicA,topicA-553,172.172.1.2:1883,1551644566092,RECEIVED
Subscriber_001,topicA,topicA-554,172.172.1.2:1883,1551644566190,RECEIVED
Subscriber_001,topicA,topicA-555,172.172.1.2:1883,1551644566292,RECEIVED
Subscriber_001,topicA,topicA-556,172.172.1.2:1883,1551644566394,RECEIVED
Subscriber_001,topicA,topicA-557,172.172.1.2:1883,1551644566499,RECEIVED
Subscriber_001,topicA,topicA-558,172.172.1.2:1883,1551644566591,RECEIVED
Subscriber_001,topicA,topicA-559,172.172.1.2:1883,1551644566696,RECEIVED
Subscriber_001,topicA,topicA-560,172.172.1.2:1883,1551644566790,RECEIVED
Subscriber_001,topicA,topicA-561,172.172.1.2:1883,1551644566890,RECEIVED
Subscriber_001,topicA,topicA-562,172.172.1.2:1883,1551644566996,RECEIVED
Subscriber_001,topicA,topicA-563,172.172.1.2:1883,1551644567099,RECEIVED
Subscriber_001,topicA,topicA-564,172.172.1.2:1883,1551644567191,RECEIVED
Subscriber_001,topicA,topicA-565,172.172.1.2:1883,1551644567295,RECEIVED
Subscriber_001,topicA,topicA-566,172.172.1.2:1883,1551644567390,RECEIVED
Subscriber_001,topicA,topicA-567,172.172.1.2:1883,1551644567494,RECEIVED
Subscriber_001,topicA,topicA-568,172.172.1.2:1883,1551644567592,RECEIVED
Subscriber_001,topicA,topicA-569,172.172.1.2:1883,1551644567688,RECEIVED
Subscriber_001,topicA,topicA-570,172.172.1.2:1883,1551644567794,RECEIVED
Subscriber_001,topicA,topicA-571,172.172.1.2:1883,1551644567894,RECEIVED
Subscriber_001,topicA,topicA-572,172.172.1.2:1883,1551644567999,RECEIVED
Subscriber_001,topicA,topicA-573,172.172.1.2:1883,1551644568093,RECEIVED
Subscriber_001,topicA,topicA-574,172.172.1.2:1883,1551644568192,RECEIVED
Subscriber_001,topicA,topicA-575,172.172.1.2:1883,1551644568286,RECEIVED
Subscriber_001,topicA,topicA-576,172.172.1.2:1883,1551644568392,RECEIVED
Subscriber_001,topicA,topicA-577,172.172.1.2:1883,1551644568497,RECEIVED
Subscriber_001,topicA,topicA-578,172.172.1.2:1883,1551644568589,RECEIVED
Subscriber_001,topicA,topicA-579,172.172.1.2:1883,1551644568698,RECEIVED
Subscriber_001,topicA,topicA-580,172.172.1.2:1883,1551644568797,RECEIVED
Subscriber_001,topicA,topicA-581,172.172.1.2:1883,1551644568888,RECEIVED
Subscriber_001,topicA,topicA-582,172.172.1.2:1883,1551644568998,RECEIVED
Subscriber_001,topicA,topicA-583,172.172.1.2:1883,1551644569095,RECEIVED
Subscriber_001,topicA,topicA-584,172.172.1.2:1883,1551644569189,RECEIVED
Subscriber_001,topicA,topicA-585,172.172.1.2:1883,1551644569287,RECEIVED
Subscriber_001,topicA,topicA-586,172.172.1.2:1883,1551644569398,RECEIVED
Subscriber_001,topicA,topicA-587,172.172.1.2:1883,1551644569496,RECEIVED
Subscriber_001,topicA,topicA-588,172.172.1.2:1883,1551644569592,RECEIVED
Subscriber_001,topicA,topicA-589,172.172.1.2:1883,1551644569698,RECEIVED
Subscriber_001,topicA,topicA-590,172.172.1.2:1883,1551644569792,RECEIVED
Subscriber_001,topicA,topicA-591,172.172.1.2:1883,1551644569891,RECEIVED
Subscriber_001,topicA,topicA-592,172.172.1.2:1883,1551644570002,RECEIVED
Subscriber_001,topicA,topicA-593,172.172.1.2:1883,1551644570085,RECEIVED
Subscriber_001,topicA,topicA-594,172.172.1.2:1883,1551644570193,RECEIVED
Subscriber_001,topicA,topicA-595,172.172.1.2:1883,1551644570297,RECEIVED
Subscriber_001,topicA,topicA-596,172.172.1.2:1883,1551644570391,RECEIVED
Subscriber_001,topicA,topicA-597,172.172.1.2:1883,1551644570496,RECEIVED
Subscriber_001,topicA,topicA-598,172.172.1.2:1883,1551644570595,RECEIVED
Subscriber_001,topicA,topicA-599,172.172.1.2:1883,1551644570692,RECEIVED
Subscriber_001,topicA,topicA-600,172.172.1.2:1883,1551644570796,RECEIVED
Subscriber_001,topicA,topicA-601,172.172.1.2:1883,1551644570890,RECEIVED
Subscriber_001,topicA,topicA-602,172.172.1.2:1883,1551644570986,RECEIVED
Subscriber_001,topicA,topicA-603,172.172.1.2:1883,1551644571092,RECEIVED
Subscriber_001,topicA,topicA-604,172.172.1.2:1883,1551644571205,RECEIVED
Subscriber_001,topicA,topicA-605,172.172.1.2:1883,1551644571295,RECEIVED
Subscriber_001,topicA,topicA-606,172.172.1.2:1883,1551644571391,RECEIVED
Subscriber_001,topicA,topicA-607,172.172.1.2:1883,1551644571489,RECEIVED
Subscriber_001,topicA,topicA-608,172.172.1.2:1883,1551644571585,RECEIVED
Subscriber_001,topicA,topicA-609,172.172.1.2:1883,1551644571691,RECEIVED
Subscriber_001,topicA,topicA-610,172.172.1.2:1883,1551644571794,RECEIVED
Subscriber_001,topicA,topicA-611,172.172.1.2:1883,1551644571892,RECEIVED
Subscriber_001,topicA,topicA-612,172.172.1.2:1883,1551644571992,RECEIVED
Subscriber_001,topicA,topicA-613,172.172.1.2:1883,1551644572087,RECEIVED
Subscriber_001,topicA,topicA-614,172.172.1.2:1883,1551644572186,RECEIVED
Subscriber_001,topicA,topicA-615,172.172.1.2:1883,1551644572289,RECEIVED
Subscriber_001,topicA,topicA-616,172.172.1.2:1883,1551644572390,RECEIVED
Subscriber_001,topicA,topicA-617,172.172.1.2:1883,1551644572488,RECEIVED
Subscriber_001,topicA,topicA-618,172.172.1.2:1883,1551644572596,RECEIVED
Subscriber_001,topicA,topicA-619,172.172.1.2:1883,1551644572690,RECEIVED
Subscriber_001,topicA,topicA-620,172.172.1.2:1883,1551644572797,RECEIVED
Subscriber_001,topicA,topicA-621,172.172.1.2:1883,1551644572883,RECEIVED
Subscriber_001,topicA,topicA-622,172.172.1.2:1883,1551644572987,RECEIVED
Subscriber_001,topicA,topicA-623,172.172.1.2:1883,1551644573089,RECEIVED
Subscriber_001,topicA,topicA-624,172.172.1.2:1883,1551644573184,RECEIVED
Subscriber_001,topicA,topicA-625,172.172.1.2:1883,1551644573283,RECEIVED
Subscriber_001,topicA,topicA-626,172.172.1.2:1883,1551644573396,RECEIVED
Subscriber_001,topicA,topicA-627,172.172.1.2:1883,1551644573494,RECEIVED
Subscriber_001,topicA,topicA-628,172.172.1.2:1883,1551644573585,RECEIVED
Subscriber_001,topicA,topicA-629,172.172.1.2:1883,1551644573696,RECEIVED
Subscriber_001,topicA,topicA-630,172.172.1.2:1883,1551644573832,RECEIVED
Subscriber_001,topicA,topicA-631,172.172.1.2:1883,1551644573905,RECEIVED
Subscriber_001,topicA,topicA-632,172.172.1.2:1883,1551644573991,RECEIVED
Subscriber_001,topicA,topicA-633,172.172.1.2:1883,1551644574087,RECEIVED
Subscriber_001,topicA,topicA-634,172.172.1.2:1883,1551644574190,RECEIVED
Subscriber_001,topicA,topicA-635,172.172.1.2:1883,1551644574294,RECEIVED
Subscriber_001,topicA,topicA-636,172.172.1.2:1883,1551644574388,RECEIVED
Subscriber_001,topicA,topicA-637,172.172.1.2:1883,1551644574489,RECEIVED
Subscriber_001,topicA,topicA-638,172.172.1.2:1883,1551644574608,RECEIVED
Subscriber_001,topicA,topicA-639,172.172.1.2:1883,1551644574700,RECEIVED
Subscriber_001,topicA,topicA-640,172.172.1.2:1883,1551644574802,RECEIVED
Subscriber_001,topicA,topicA-641,172.172.1.2:1883,1551644574889,RECEIVED
Subscriber_001,topicA,topicA-642,172.172.1.2:1883,1551644574992,RECEIVED
Subscriber_001,topicA,topicA-643,172.172.1.2:1883,1551644575092,RECEIVED
Subscriber_001,topicA,topicA-644,172.172.1.2:1883,1551644575192,RECEIVED
Subscriber_001,topicA,topicA-645,172.172.1.2:1883,1551644575284,RECEIVED
Subscriber_001,topicA,topicA-646,172.172.1.2:1883,1551644575394,RECEIVED
Subscriber_001,topicA,topicA-647,172.172.1.2:1883,1551644575485,RECEIVED
Subscriber_001,topicA,topicA-648,172.172.1.2:1883,1551644575584,RECEIVED
Subscriber_001,topicA,topicA-649,172.172.1.2:1883,1551644575689,RECEIVED
Subscriber_001,topicA,topicA-650,172.172.1.2:1883,1551644575790,RECEIVED
Subscriber_001,topicA,topicA-651,172.172.1.2:1883,1551644575882,RECEIVED
Subscriber_001,topicA,topicA-652,172.172.1.2:1883,1551644575983,RECEIVED
Subscriber_001,topicA,topicA-653,172.172.1.2:1883,1551644576086,RECEIVED
Subscriber_001,topicA,topicA-654,172.172.1.2:1883,1551644576184,RECEIVED
