clientId,topic,guid,broker,timestamp,type
Publisher_001,topicA,topicA-1,172.172.1.1:1883,1551659513245,PRODUCED
Publisher_001,topicA,topicA-2,172.172.1.1:1883,1551659513514,PRODUCED
Publisher_001,topicA,topicA-3,172.172.1.1:1883,1551659513519,PRODUCED
Publisher_001,topicA,topicA-4,172.172.1.1:1883,1551659513523,PRODUCED
Publisher_001,topicA,topicA-5,172.172.1.1:1883,1551659513528,PRODUCED
Publisher_001,topicA,topicA-6,172.172.1.1:1883,1551659513579,PRODUCED
Publisher_001,topicA,topicA-7,172.172.1.1:1883,1551659513679,PRODUCED
Publisher_001,topicA,topicA-8,172.172.1.1:1883,1551659513779,PRODUCED
Publisher_001,topicA,topicA-9,172.172.1.1:1883,1551659513881,PRODUCED
Publisher_001,topicA,topicA-10,172.172.1.1:1883,1551659513980,PRODUCED
Publisher_001,topicA,topicA-11,172.172.1.1:1883,1551659514080,PRODUCED
Publisher_001,topicA,topicA-12,172.172.1.1:1883,1551659514180,PRODUCED
Publisher_001,topicA,topicA-13,172.172.1.1:1883,1551659514280,PRODUCED
Publisher_001,topicA,topicA-14,172.172.1.1:1883,1551659514380,PRODUCED
Publisher_001,topicA,topicA-15,172.172.1.1:1883,1551659514482,PRODUCED
Publisher_001,topicA,topicA-16,172.172.1.1:1883,1551659514583,PRODUCED
Publisher_001,topicA,topicA-17,172.172.1.1:1883,1551659514684,PRODUCED
Publisher_001,topicA,topicA-18,172.172.1.1:1883,1551659514779,PRODUCED
Publisher_001,topicA,topicA-19,172.172.1.1:1883,1551659514879,PRODUCED
Publisher_001,topicA,topicA-20,172.172.1.1:1883,1551659514980,PRODUCED
Publisher_001,topicA,topicA-21,172.172.1.1:1883,1551659515080,PRODUCED
Publisher_001,topicA,topicA-22,172.172.1.1:1883,1551659515183,PRODUCED
Publisher_001,topicA,topicA-23,172.172.1.1:1883,1551659515278,PRODUCED
Publisher_001,topicA,topicA-24,172.172.1.1:1883,1551659515379,PRODUCED
Publisher_001,topicA,topicA-25,172.172.1.1:1883,1551659515479,PRODUCED
Publisher_001,topicA,topicA-26,172.172.1.1:1883,1551659515579,PRODUCED
Publisher_001,topicA,topicA-27,172.172.1.1:1883,1551659515679,PRODUCED
Publisher_001,topicA,topicA-28,172.172.1.1:1883,1551659515779,PRODUCED
Publisher_001,topicA,topicA-29,172.172.1.1:1883,1551659515879,PRODUCED
Publisher_001,topicA,topicA-30,172.172.1.1:1883,1551659515979,PRODUCED
Publisher_001,topicA,topicA-31,172.172.1.1:1883,1551659516079,PRODUCED
Publisher_001,topicA,topicA-32,172.172.1.1:1883,1551659516179,PRODUCED
Publisher_001,topicA,topicA-33,172.172.1.1:1883,1551659516279,PRODUCED
Publisher_001,topicA,topicA-34,172.172.1.1:1883,1551659516379,PRODUCED
Publisher_001,topicA,topicA-35,172.172.1.1:1883,1551659516479,PRODUCED
Publisher_001,topicA,topicA-36,172.172.1.1:1883,1551659516579,PRODUCED
Publisher_001,topicA,topicA-37,172.172.1.1:1883,1551659516679,PRODUCED
Publisher_001,topicA,topicA-38,172.172.1.1:1883,1551659516779,PRODUCED
Publisher_001,topicA,topicA-39,172.172.1.1:1883,1551659516879,PRODUCED
Publisher_001,topicA,topicA-40,172.172.1.1:1883,1551659516982,PRODUCED
Publisher_001,topicA,topicA-41,172.172.1.1:1883,1551659517079,PRODUCED
Publisher_001,topicA,topicA-42,172.172.1.1:1883,1551659517180,PRODUCED
Publisher_001,topicA,topicA-43,172.172.1.1:1883,1551659517279,PRODUCED
Publisher_001,topicA,topicA-44,172.172.1.1:1883,1551659517379,PRODUCED
Publisher_001,topicA,topicA-45,172.172.1.1:1883,1551659517479,PRODUCED
Publisher_001,topicA,topicA-46,172.172.1.1:1883,1551659517578,PRODUCED
Publisher_001,topicA,topicA-47,172.172.1.1:1883,1551659517679,PRODUCED
Publisher_001,topicA,topicA-48,172.172.1.1:1883,1551659517779,PRODUCED
Publisher_001,topicA,topicA-49,172.172.1.1:1883,1551659517879,PRODUCED
Publisher_001,topicA,topicA-50,172.172.1.1:1883,1551659517979,PRODUCED
Publisher_001,topicA,topicA-51,172.172.1.1:1883,1551659518079,PRODUCED
Publisher_001,topicA,topicA-52,172.172.1.1:1883,1551659518179,PRODUCED
Publisher_001,topicA,topicA-53,172.172.1.1:1883,1551659518279,PRODUCED
Publisher_001,topicA,topicA-54,172.172.1.1:1883,1551659518378,PRODUCED
Publisher_001,topicA,topicA-55,172.172.1.1:1883,1551659518479,PRODUCED
Publisher_001,topicA,topicA-56,172.172.1.1:1883,1551659518579,PRODUCED
Publisher_001,topicA,topicA-57,172.172.1.1:1883,1551659518679,PRODUCED
Publisher_001,topicA,topicA-58,172.172.1.1:1883,1551659518779,PRODUCED
Publisher_001,topicA,topicA-59,172.172.1.1:1883,1551659518879,PRODUCED
Publisher_001,topicA,topicA-60,172.172.1.1:1883,1551659518981,PRODUCED
Publisher_001,topicA,topicA-61,172.172.1.1:1883,1551659519079,PRODUCED
Publisher_001,topicA,topicA-62,172.172.1.1:1883,1551659519180,PRODUCED
Publisher_001,topicA,topicA-63,172.172.1.1:1883,1551659519281,PRODUCED
Publisher_001,topicA,topicA-64,172.172.1.1:1883,1551659519379,PRODUCED
Publisher_001,topicA,topicA-65,172.172.1.1:1883,1551659519479,PRODUCED
Publisher_001,topicA,topicA-66,172.172.1.1:1883,1551659519579,PRODUCED
Publisher_001,topicA,topicA-67,172.172.1.1:1883,1551659519679,PRODUCED
Publisher_001,topicA,topicA-68,172.172.1.1:1883,1551659519779,PRODUCED
Publisher_001,topicA,topicA-69,172.172.1.1:1883,1551659519879,PRODUCED
Publisher_001,topicA,topicA-70,172.172.1.1:1883,1551659519979,PRODUCED
Publisher_001,topicA,topicA-71,172.172.1.1:1883,1551659520079,PRODUCED
Publisher_001,topicA,topicA-72,172.172.1.1:1883,1551659520179,PRODUCED
Publisher_001,topicA,topicA-73,172.172.1.1:1883,1551659520279,PRODUCED
Publisher_001,topicA,topicA-74,172.172.1.1:1883,1551659520379,PRODUCED
Publisher_001,topicA,topicA-75,172.172.1.1:1883,1551659520479,PRODUCED
Publisher_001,topicA,topicA-76,172.172.1.1:1883,1551659520579,PRODUCED
Publisher_001,topicA,topicA-77,172.172.1.1:1883,1551659520680,PRODUCED
Publisher_001,topicA,topicA-78,172.172.1.1:1883,1551659520779,PRODUCED
Publisher_001,topicA,topicA-79,172.172.1.1:1883,1551659520879,PRODUCED
Publisher_001,topicA,topicA-80,172.172.1.1:1883,1551659520979,PRODUCED
Publisher_001,topicA,topicA-81,172.172.1.1:1883,1551659521079,PRODUCED
Publisher_001,topicA,topicA-82,172.172.1.1:1883,1551659521179,PRODUCED
Publisher_001,topicA,topicA-83,172.172.1.1:1883,1551659521279,PRODUCED
Publisher_001,topicA,topicA-84,172.172.1.1:1883,1551659521379,PRODUCED
Publisher_001,topicA,topicA-85,172.172.1.1:1883,1551659521479,PRODUCED
Publisher_001,topicA,topicA-86,172.172.1.1:1883,1551659521579,PRODUCED
Publisher_001,topicA,topicA-87,172.172.1.1:1883,1551659521680,PRODUCED
Publisher_001,topicA,topicA-88,172.172.1.1:1883,1551659521781,PRODUCED
Publisher_001,topicA,topicA-89,172.172.1.1:1883,1551659521878,PRODUCED
Publisher_001,topicA,topicA-90,172.172.1.1:1883,1551659521979,PRODUCED
Publisher_001,topicA,topicA-91,172.172.1.1:1883,1551659522079,PRODUCED
Publisher_001,topicA,topicA-92,172.172.1.1:1883,1551659522178,PRODUCED
Publisher_001,topicA,topicA-93,172.172.1.1:1883,1551659522279,PRODUCED
Publisher_001,topicA,topicA-94,172.172.1.1:1883,1551659522379,PRODUCED
Publisher_001,topicA,topicA-95,172.172.1.1:1883,1551659522479,PRODUCED
Publisher_001,topicA,topicA-96,172.172.1.1:1883,1551659522579,PRODUCED
Publisher_001,topicA,topicA-97,172.172.1.1:1883,1551659522679,PRODUCED
Publisher_001,topicA,topicA-98,172.172.1.1:1883,1551659522779,PRODUCED
Publisher_001,topicA,topicA-99,172.172.1.1:1883,1551659522879,PRODUCED
Publisher_001,topicA,topicA-100,172.172.1.1:1883,1551659522979,PRODUCED
Publisher_001,topicA,topicA-101,172.172.1.1:1883,1551659523080,PRODUCED
Publisher_001,topicA,topicA-102,172.172.1.1:1883,1551659523181,PRODUCED
Publisher_001,topicA,topicA-103,172.172.1.1:1883,1551659523280,PRODUCED
Publisher_001,topicA,topicA-104,172.172.1.1:1883,1551659523384,PRODUCED
Publisher_001,topicA,topicA-105,172.172.1.1:1883,1551659523479,PRODUCED
Publisher_001,topicA,topicA-106,172.172.1.1:1883,1551659523579,PRODUCED
Publisher_001,topicA,topicA-107,172.172.1.1:1883,1551659523679,PRODUCED
Publisher_001,topicA,topicA-108,172.172.1.1:1883,1551659523780,PRODUCED
Publisher_001,topicA,topicA-109,172.172.1.1:1883,1551659523878,PRODUCED
Publisher_001,topicA,topicA-110,172.172.1.1:1883,1551659523978,PRODUCED
Publisher_001,topicA,topicA-111,172.172.1.1:1883,1551659524080,PRODUCED
Publisher_001,topicA,topicA-112,172.172.1.1:1883,1551659524182,PRODUCED
Publisher_001,topicA,topicA-113,172.172.1.1:1883,1551659524279,PRODUCED
Publisher_001,topicA,topicA-114,172.172.1.1:1883,1551659524380,PRODUCED
Publisher_001,topicA,topicA-115,172.172.1.1:1883,1551659524479,PRODUCED
Publisher_001,topicA,topicA-116,172.172.1.1:1883,1551659524579,PRODUCED
Publisher_001,topicA,topicA-117,172.172.1.1:1883,1551659524678,PRODUCED
Publisher_001,topicA,topicA-118,172.172.1.1:1883,1551659524780,PRODUCED
Publisher_001,topicA,topicA-119,172.172.1.1:1883,1551659524881,PRODUCED
Publisher_001,topicA,topicA-120,172.172.1.1:1883,1551659524981,PRODUCED
Publisher_001,topicA,topicA-121,172.172.1.1:1883,1551659525080,PRODUCED
Publisher_001,topicA,topicA-122,172.172.1.1:1883,1551659525179,PRODUCED
Publisher_001,topicA,topicA-123,172.172.1.1:1883,1551659525279,PRODUCED
Publisher_001,topicA,topicA-124,172.172.1.1:1883,1551659525379,PRODUCED
Publisher_001,topicA,topicA-125,172.172.1.1:1883,1551659525479,PRODUCED
Publisher_001,topicA,topicA-126,172.172.1.1:1883,1551659525580,PRODUCED
Publisher_001,topicA,topicA-127,172.172.1.1:1883,1551659525680,PRODUCED
Publisher_001,topicA,topicA-128,172.172.1.1:1883,1551659525782,PRODUCED
Publisher_001,topicA,topicA-129,172.172.1.1:1883,1551659525879,PRODUCED
Publisher_001,topicA,topicA-130,172.172.1.1:1883,1551659525979,PRODUCED
Publisher_001,topicA,topicA-131,172.172.1.1:1883,1551659526078,PRODUCED
Publisher_001,topicA,topicA-132,172.172.1.1:1883,1551659526179,PRODUCED
Publisher_001,topicA,topicA-133,172.172.1.1:1883,1551659526279,PRODUCED
Publisher_001,topicA,topicA-134,172.172.1.1:1883,1551659526380,PRODUCED
Publisher_001,topicA,topicA-135,172.172.1.1:1883,1551659526478,PRODUCED
Publisher_001,topicA,topicA-136,172.172.1.1:1883,1551659526579,PRODUCED
Publisher_001,topicA,topicA-137,172.172.1.1:1883,1551659526679,PRODUCED
Publisher_001,topicA,topicA-138,172.172.1.1:1883,1551659526780,PRODUCED
Publisher_001,topicA,topicA-139,172.172.1.1:1883,1551659526881,PRODUCED
Publisher_001,topicA,topicA-140,172.172.1.1:1883,1551659526979,PRODUCED
Publisher_001,topicA,topicA-141,172.172.1.1:1883,1551659527079,PRODUCED
Publisher_001,topicA,topicA-142,172.172.1.1:1883,1551659527179,PRODUCED
Publisher_001,topicA,topicA-143,172.172.1.1:1883,1551659527280,PRODUCED
Publisher_001,topicA,topicA-144,172.172.1.1:1883,1551659527379,PRODUCED
Publisher_001,topicA,topicA-145,172.172.1.1:1883,1551659527478,PRODUCED
Publisher_001,topicA,topicA-146,172.172.1.1:1883,1551659527581,PRODUCED
Publisher_001,topicA,topicA-147,172.172.1.1:1883,1551659527684,PRODUCED
Publisher_001,topicA,topicA-148,172.172.1.1:1883,1551659527779,PRODUCED
Publisher_001,topicA,topicA-149,172.172.1.1:1883,1551659527879,PRODUCED
Publisher_001,topicA,topicA-150,172.172.1.1:1883,1551659527980,PRODUCED
Publisher_001,topicA,topicA-151,172.172.1.1:1883,1551659528079,PRODUCED
Publisher_001,topicA,topicA-152,172.172.1.1:1883,1551659528179,PRODUCED
Publisher_001,topicA,topicA-153,172.172.1.1:1883,1551659528280,PRODUCED
Publisher_001,topicA,topicA-154,172.172.1.1:1883,1551659528380,PRODUCED
Publisher_001,topicA,topicA-155,172.172.1.1:1883,1551659528479,PRODUCED
Publisher_001,topicA,topicA-156,172.172.1.1:1883,1551659528579,PRODUCED
Publisher_001,topicA,topicA-157,172.172.1.1:1883,1551659528679,PRODUCED
Publisher_001,topicA,topicA-158,172.172.1.1:1883,1551659528781,PRODUCED
Publisher_001,topicA,topicA-159,172.172.1.1:1883,1551659528879,PRODUCED
Publisher_001,topicA,topicA-160,172.172.1.1:1883,1551659528980,PRODUCED
Publisher_001,topicA,topicA-161,172.172.1.1:1883,1551659529080,PRODUCED
Publisher_001,topicA,topicA-162,172.172.1.1:1883,1551659529179,PRODUCED
Publisher_001,topicA,topicA-163,172.172.1.1:1883,1551659529280,PRODUCED
Publisher_001,topicA,topicA-164,172.172.1.1:1883,1551659529382,PRODUCED
Publisher_001,topicA,topicA-165,172.172.1.1:1883,1551659529479,PRODUCED
Publisher_001,topicA,topicA-166,172.172.1.1:1883,1551659529578,PRODUCED
Publisher_001,topicA,topicA-167,172.172.1.1:1883,1551659529679,PRODUCED
Publisher_001,topicA,topicA-168,172.172.1.1:1883,1551659529780,PRODUCED
Publisher_001,topicA,topicA-169,172.172.1.1:1883,1551659529882,PRODUCED
Publisher_001,topicA,topicA-170,172.172.1.1:1883,1551659529980,PRODUCED
Publisher_001,topicA,topicA-171,172.172.1.1:1883,1551659530081,PRODUCED
Publisher_001,topicA,topicA-172,172.172.1.1:1883,1551659530179,PRODUCED
Publisher_001,topicA,topicA-173,172.172.1.1:1883,1551659530283,PRODUCED
Publisher_001,topicA,topicA-174,172.172.1.1:1883,1551659530383,PRODUCED
Publisher_001,topicA,topicA-175,172.172.1.1:1883,1551659530483,PRODUCED
Publisher_001,topicA,topicA-176,172.172.1.1:1883,1551659530579,PRODUCED
Publisher_001,topicA,topicA-177,172.172.1.1:1883,1551659530684,PRODUCED
Publisher_001,topicA,topicA-178,172.172.1.1:1883,1551659530782,PRODUCED
Publisher_001,topicA,topicA-179,172.172.1.1:1883,1551659530882,PRODUCED
Publisher_001,topicA,topicA-180,172.172.1.1:1883,1551659530980,PRODUCED
Publisher_001,topicA,topicA-181,172.172.1.1:1883,1551659531085,PRODUCED
Publisher_001,topicA,topicA-182,172.172.1.1:1883,1551659531180,PRODUCED
Publisher_001,topicA,topicA-183,172.172.1.1:1883,1551659531279,PRODUCED
Publisher_001,topicA,topicA-184,172.172.1.1:1883,1551659531379,PRODUCED
Publisher_001,topicA,topicA-185,172.172.1.1:1883,1551659531479,PRODUCED
Publisher_001,topicA,topicA-186,172.172.1.1:1883,1551659531580,PRODUCED
Publisher_001,topicA,topicA-187,172.172.1.1:1883,1551659531679,PRODUCED
Publisher_001,topicA,topicA-188,172.172.1.1:1883,1551659531779,PRODUCED
Publisher_001,topicA,topicA-189,172.172.1.1:1883,1551659531879,PRODUCED
Publisher_001,topicA,topicA-190,172.172.1.1:1883,1551659531979,PRODUCED
Publisher_001,topicA,topicA-191,172.172.1.1:1883,1551659532079,PRODUCED
Publisher_001,topicA,topicA-192,172.172.1.1:1883,1551659532189,PRODUCED
Publisher_001,topicA,topicA-193,172.172.1.1:1883,1551659532279,PRODUCED
Publisher_001,topicA,topicA-194,172.172.1.1:1883,1551659532379,PRODUCED
Publisher_001,topicA,topicA-195,172.172.1.1:1883,1551659532479,PRODUCED
Publisher_001,topicA,topicA-196,172.172.1.1:1883,1551659532579,PRODUCED
Publisher_001,topicA,topicA-197,172.172.1.1:1883,1551659532680,PRODUCED
Publisher_001,topicA,topicA-198,172.172.1.1:1883,1551659532779,PRODUCED
Publisher_001,topicA,topicA-199,172.172.1.1:1883,1551659532878,PRODUCED
Publisher_001,topicA,topicA-200,172.172.1.1:1883,1551659532984,PRODUCED
Publisher_001,topicA,topicA-201,172.172.1.1:1883,1551659533078,PRODUCED
Publisher_001,topicA,topicA-202,172.172.1.1:1883,1551659533179,PRODUCED
Publisher_001,topicA,topicA-203,172.172.1.1:1883,1551659533279,PRODUCED
Publisher_001,topicA,topicA-204,172.172.1.1:1883,1551659533381,PRODUCED
Publisher_001,topicA,topicA-205,172.172.1.1:1883,1551659533480,PRODUCED
Publisher_001,topicA,topicA-206,172.172.1.1:1883,1551659533579,PRODUCED
Publisher_001,topicA,topicA-207,172.172.1.1:1883,1551659533679,PRODUCED
Publisher_001,topicA,topicA-208,172.172.1.1:1883,1551659533780,PRODUCED
Publisher_001,topicA,topicA-209,172.172.1.1:1883,1551659533880,PRODUCED
Publisher_001,topicA,topicA-210,172.172.1.1:1883,1551659533979,PRODUCED
Publisher_001,topicA,topicA-211,172.172.1.1:1883,1551659534079,PRODUCED
Publisher_001,topicA,topicA-212,172.172.1.1:1883,1551659534179,PRODUCED
Publisher_001,topicA,topicA-213,172.172.1.1:1883,1551659534279,PRODUCED
Publisher_001,topicA,topicA-214,172.172.1.1:1883,1551659534379,PRODUCED
Publisher_001,topicA,topicA-215,172.172.1.1:1883,1551659534480,PRODUCED
Publisher_001,topicA,topicA-216,172.172.1.1:1883,1551659534579,PRODUCED
Publisher_001,topicA,topicA-217,172.172.1.1:1883,1551659534679,PRODUCED
Publisher_001,topicA,topicA-218,172.172.1.1:1883,1551659534778,PRODUCED
Publisher_001,topicA,topicA-219,172.172.1.1:1883,1551659534880,PRODUCED
Publisher_001,topicA,topicA-220,172.172.1.1:1883,1551659534980,PRODUCED
Publisher_001,topicA,topicA-221,172.172.1.1:1883,1551659535081,PRODUCED
Publisher_001,topicA,topicA-222,172.172.1.1:1883,1551659535179,PRODUCED
Publisher_001,topicA,topicA-223,172.172.1.1:1883,1551659535279,PRODUCED
Publisher_001,topicA,topicA-224,172.172.1.1:1883,1551659535381,PRODUCED
Publisher_001,topicA,topicA-225,172.172.1.1:1883,1551659535479,PRODUCED
Publisher_001,topicA,topicA-226,172.172.1.1:1883,1551659535578,PRODUCED
Publisher_001,topicA,topicA-227,172.172.1.1:1883,1551659535679,PRODUCED
Publisher_001,topicA,topicA-228,172.172.1.1:1883,1551659535779,PRODUCED
Publisher_001,topicA,topicA-229,172.172.1.1:1883,1551659535879,PRODUCED
Publisher_001,topicA,topicA-230,172.172.1.1:1883,1551659535980,PRODUCED
Publisher_001,topicA,topicA-231,172.172.1.1:1883,1551659536079,PRODUCED
Publisher_001,topicA,topicA-232,172.172.1.1:1883,1551659536179,PRODUCED
Publisher_001,topicA,topicA-233,172.172.1.1:1883,1551659536279,PRODUCED
Publisher_001,topicA,topicA-234,172.172.1.1:1883,1551659536379,PRODUCED
Publisher_001,topicA,topicA-235,172.172.1.1:1883,1551659536484,PRODUCED
Publisher_001,topicA,topicA-236,172.172.1.1:1883,1551659536579,PRODUCED
Publisher_001,topicA,topicA-237,172.172.1.1:1883,1551659536679,PRODUCED
Publisher_001,topicA,topicA-238,172.172.1.1:1883,1551659536780,PRODUCED
Publisher_001,topicA,topicA-239,172.172.1.1:1883,1551659536880,PRODUCED
Publisher_001,topicA,topicA-240,172.172.1.1:1883,1551659536984,PRODUCED
Publisher_001,topicA,topicA-241,172.172.1.1:1883,1551659537080,PRODUCED
Publisher_001,topicA,topicA-242,172.172.1.1:1883,1551659537183,PRODUCED
Publisher_001,topicA,topicA-243,172.172.1.1:1883,1551659537284,PRODUCED
Publisher_001,topicA,topicA-244,172.172.1.1:1883,1551659537380,PRODUCED
Publisher_001,topicA,topicA-245,172.172.1.1:1883,1551659537479,PRODUCED
Publisher_001,topicA,topicA-246,172.172.1.1:1883,1551659537580,PRODUCED
Publisher_001,topicA,topicA-247,172.172.1.1:1883,1551659537679,PRODUCED
Publisher_001,topicA,topicA-248,172.172.1.1:1883,1551659537779,PRODUCED
Publisher_001,topicA,topicA-249,172.172.1.1:1883,1551659537880,PRODUCED
Publisher_001,topicA,topicA-250,172.172.1.1:1883,1551659537979,PRODUCED
Publisher_001,topicA,topicA-251,172.172.1.1:1883,1551659538079,PRODUCED
Publisher_001,topicA,topicA-252,172.172.1.1:1883,1551659538179,PRODUCED
Publisher_001,topicA,topicA-253,172.172.1.1:1883,1551659538279,PRODUCED
Publisher_001,topicA,topicA-254,172.172.1.1:1883,1551659538380,PRODUCED
Publisher_001,topicA,topicA-255,172.172.1.1:1883,1551659538479,PRODUCED
Publisher_001,topicA,topicA-256,172.172.1.1:1883,1551659538580,PRODUCED
Publisher_001,topicA,topicA-257,172.172.1.1:1883,1551659538679,PRODUCED
Publisher_001,topicA,topicA-258,172.172.1.1:1883,1551659538785,PRODUCED
Publisher_001,topicA,topicA-259,172.172.1.1:1883,1551659538884,PRODUCED
Publisher_001,topicA,topicA-260,172.172.1.1:1883,1551659538980,PRODUCED
Publisher_001,topicA,topicA-261,172.172.1.1:1883,1551659539080,PRODUCED
Publisher_001,topicA,topicA-262,172.172.1.1:1883,1551659539180,PRODUCED
Publisher_001,topicA,topicA-263,172.172.1.1:1883,1551659539279,PRODUCED
Publisher_001,topicA,topicA-264,172.172.1.1:1883,1551659539381,PRODUCED
Publisher_001,topicA,topicA-265,172.172.1.1:1883,1551659539480,PRODUCED
Publisher_001,topicA,topicA-266,172.172.1.1:1883,1551659539580,PRODUCED
Publisher_001,topicA,topicA-267,172.172.1.1:1883,1551659539680,PRODUCED
Publisher_001,topicA,topicA-268,172.172.1.1:1883,1551659539779,PRODUCED
Publisher_001,topicA,topicA-269,172.172.1.1:1883,1551659539879,PRODUCED
Publisher_001,topicA,topicA-270,172.172.1.1:1883,1551659539979,PRODUCED
Publisher_001,topicA,topicA-271,172.172.1.1:1883,1551659540081,PRODUCED
Publisher_001,topicA,topicA-272,172.172.1.1:1883,1551659540179,PRODUCED
Publisher_001,topicA,topicA-273,172.172.1.1:1883,1551659540279,PRODUCED
Publisher_001,topicA,topicA-274,172.172.1.1:1883,1551659540380,PRODUCED
Publisher_001,topicA,topicA-275,172.172.1.1:1883,1551659540482,PRODUCED
Publisher_001,topicA,topicA-276,172.172.1.1:1883,1551659540583,PRODUCED
Publisher_001,topicA,topicA-277,172.172.1.1:1883,1551659540679,PRODUCED
Publisher_001,topicA,topicA-278,172.172.1.1:1883,1551659540781,PRODUCED
Publisher_001,topicA,topicA-279,172.172.1.1:1883,1551659540879,PRODUCED
Publisher_001,topicA,topicA-280,172.172.1.1:1883,1551659540979,PRODUCED
Publisher_001,topicA,topicA-281,172.172.1.1:1883,1551659541079,PRODUCED
Publisher_001,topicA,topicA-282,172.172.1.1:1883,1551659541181,PRODUCED
Publisher_001,topicA,topicA-283,172.172.1.1:1883,1551659541279,PRODUCED
Publisher_001,topicA,topicA-284,172.172.1.1:1883,1551659541378,PRODUCED
Publisher_001,topicA,topicA-285,172.172.1.1:1883,1551659541479,PRODUCED
Publisher_001,topicA,topicA-286,172.172.1.1:1883,1551659541579,PRODUCED
Publisher_001,topicA,topicA-287,172.172.1.1:1883,1551659541678,PRODUCED
Publisher_001,topicA,topicA-288,172.172.1.1:1883,1551659541778,PRODUCED
Publisher_001,topicA,topicA-289,172.172.1.1:1883,1551659541878,PRODUCED
Publisher_001,topicA,topicA-290,172.172.1.1:1883,1551659541978,PRODUCED
Publisher_001,topicA,topicA-291,172.172.1.1:1883,1551659542079,PRODUCED
Publisher_001,topicA,topicA-292,172.172.1.1:1883,1551659542180,PRODUCED
Publisher_001,topicA,topicA-293,172.172.1.1:1883,1551659542279,PRODUCED
Publisher_001,topicA,topicA-294,172.172.1.1:1883,1551659542379,PRODUCED
Publisher_001,topicA,topicA-295,172.172.1.1:1883,1551659542479,PRODUCED
Publisher_001,topicA,topicA-296,172.172.1.1:1883,1551659542579,PRODUCED
Publisher_001,topicA,topicA-297,172.172.1.1:1883,1551659542679,PRODUCED
Publisher_001,topicA,topicA-298,172.172.1.1:1883,1551659542779,PRODUCED
Publisher_001,topicA,topicA-299,172.172.1.1:1883,1551659542879,PRODUCED
Publisher_001,topicA,topicA-300,172.172.1.1:1883,1551659542979,PRODUCED
Publisher_001,topicA,topicA-301,172.172.1.1:1883,1551659543079,PRODUCED
Publisher_001,topicA,topicA-302,172.172.1.1:1883,1551659543179,PRODUCED
Publisher_001,topicA,topicA-303,172.172.1.1:1883,1551659543279,PRODUCED
Publisher_001,topicA,topicA-304,172.172.1.1:1883,1551659543379,PRODUCED
Publisher_001,topicA,topicA-305,172.172.1.1:1883,1551659543479,PRODUCED
Publisher_001,topicA,topicA-306,172.172.1.1:1883,1551659543579,PRODUCED
Publisher_001,topicA,topicA-307,172.172.1.1:1883,1551659543679,PRODUCED
Publisher_001,topicA,topicA-308,172.172.1.1:1883,1551659543778,PRODUCED
Publisher_001,topicA,topicA-309,172.172.1.1:1883,1551659543881,PRODUCED
Publisher_001,topicA,topicA-310,172.172.1.1:1883,1551659543980,PRODUCED
Publisher_001,topicA,topicA-311,172.172.1.1:1883,1551659544080,PRODUCED
Publisher_001,topicA,topicA-312,172.172.1.1:1883,1551659544179,PRODUCED
Publisher_001,topicA,topicA-313,172.172.1.1:1883,1551659544279,PRODUCED
Publisher_001,topicA,topicA-314,172.172.1.1:1883,1551659544379,PRODUCED
Publisher_001,topicA,topicA-315,172.172.1.1:1883,1551659544481,PRODUCED
Publisher_001,topicA,topicA-316,172.172.1.1:1883,1551659544579,PRODUCED
Publisher_001,topicA,topicA-317,172.172.1.1:1883,1551659544680,PRODUCED
Publisher_001,topicA,topicA-318,172.172.1.1:1883,1551659544779,PRODUCED
Publisher_001,topicA,topicA-319,172.172.1.1:1883,1551659544879,PRODUCED
Publisher_001,topicA,topicA-320,172.172.1.1:1883,1551659544979,PRODUCED
Publisher_001,topicA,topicA-321,172.172.1.1:1883,1551659545079,PRODUCED
Publisher_001,topicA,topicA-322,172.172.1.1:1883,1551659545179,PRODUCED
Publisher_001,topicA,topicA-323,172.172.1.1:1883,1551659545279,PRODUCED
Publisher_001,topicA,topicA-324,172.172.1.1:1883,1551659545379,PRODUCED
Publisher_001,topicA,topicA-325,172.172.1.1:1883,1551659545483,PRODUCED
Publisher_001,topicA,topicA-326,172.172.1.1:1883,1551659545579,PRODUCED
Publisher_001,topicA,topicA-327,172.172.1.1:1883,1551659545679,PRODUCED
Publisher_001,topicA,topicA-328,172.172.1.1:1883,1551659545783,PRODUCED
Publisher_001,topicA,topicA-329,172.172.1.1:1883,1551659545879,PRODUCED
Publisher_001,topicA,topicA-330,172.172.1.1:1883,1551659545982,PRODUCED
Publisher_001,topicA,topicA-331,172.172.1.1:1883,1551659546081,PRODUCED
Publisher_001,topicA,topicA-332,172.172.1.1:1883,1551659546181,PRODUCED
Publisher_001,topicA,topicA-333,172.172.1.1:1883,1551659546279,PRODUCED
Publisher_001,topicA,topicA-334,172.172.1.1:1883,1551659546379,PRODUCED
Publisher_001,topicA,topicA-335,172.172.1.1:1883,1551659546479,PRODUCED
Publisher_001,topicA,topicA-336,172.172.1.1:1883,1551659546579,PRODUCED
Publisher_001,topicA,topicA-337,172.172.1.1:1883,1551659546679,PRODUCED
Publisher_001,topicA,topicA-338,172.172.1.1:1883,1551659546779,PRODUCED
Publisher_001,topicA,topicA-339,172.172.1.1:1883,1551659546879,PRODUCED
Publisher_001,topicA,topicA-340,172.172.1.1:1883,1551659546979,PRODUCED
Publisher_001,topicA,topicA-341,172.172.1.1:1883,1551659547079,PRODUCED
Publisher_001,topicA,topicA-342,172.172.1.1:1883,1551659547179,PRODUCED
Publisher_001,topicA,topicA-343,172.172.1.1:1883,1551659547278,PRODUCED
Publisher_001,topicA,topicA-344,172.172.1.1:1883,1551659547379,PRODUCED
Publisher_001,topicA,topicA-345,172.172.1.1:1883,1551659547479,PRODUCED
Publisher_001,topicA,topicA-346,172.172.1.1:1883,1551659547579,PRODUCED
Publisher_001,topicA,topicA-347,172.172.1.1:1883,1551659547678,PRODUCED
Publisher_001,topicA,topicA-348,172.172.1.1:1883,1551659547778,PRODUCED
Publisher_001,topicA,topicA-349,172.172.1.1:1883,1551659547879,PRODUCED
Publisher_001,topicA,topicA-350,172.172.1.1:1883,1551659547978,PRODUCED
Publisher_001,topicA,topicA-351,172.172.1.1:1883,1551659548078,PRODUCED
Publisher_001,topicA,topicA-352,172.172.1.1:1883,1551659548179,PRODUCED
Publisher_001,topicA,topicA-353,172.172.1.1:1883,1551659548279,PRODUCED
Publisher_001,topicA,topicA-354,172.172.1.1:1883,1551659548379,PRODUCED
Publisher_001,topicA,topicA-355,172.172.1.1:1883,1551659548479,PRODUCED
Publisher_001,topicA,topicA-356,172.172.1.1:1883,1551659548578,PRODUCED
Publisher_001,topicA,topicA-357,172.172.1.1:1883,1551659548678,PRODUCED
Publisher_001,topicA,topicA-358,172.172.1.1:1883,1551659548779,PRODUCED
Publisher_001,topicA,topicA-359,172.172.1.1:1883,1551659548881,PRODUCED
Publisher_001,topicA,topicA-360,172.172.1.1:1883,1551659548979,PRODUCED
Publisher_001,topicA,topicA-361,172.172.1.1:1883,1551659549080,PRODUCED
Publisher_001,topicA,topicA-362,172.172.1.1:1883,1551659549179,PRODUCED
Publisher_001,topicA,topicA-363,172.172.1.1:1883,1551659549279,PRODUCED
Publisher_001,topicA,topicA-364,172.172.1.1:1883,1551659549379,PRODUCED
Publisher_001,topicA,topicA-365,172.172.1.1:1883,1551659549479,PRODUCED
Publisher_001,topicA,topicA-366,172.172.1.1:1883,1551659549580,PRODUCED
Publisher_001,topicA,topicA-367,172.172.1.1:1883,1551659549681,PRODUCED
Publisher_001,topicA,topicA-368,172.172.1.1:1883,1551659549780,PRODUCED
Publisher_001,topicA,topicA-369,172.172.1.1:1883,1551659549879,PRODUCED
Publisher_001,topicA,topicA-370,172.172.1.1:1883,1551659549979,PRODUCED
Publisher_001,topicA,topicA-371,172.172.1.1:1883,1551659550079,PRODUCED
Publisher_001,topicA,topicA-372,172.172.1.1:1883,1551659550179,PRODUCED
Publisher_001,topicA,topicA-373,172.172.1.1:1883,1551659550279,PRODUCED
Publisher_001,topicA,topicA-374,172.172.1.1:1883,1551659550379,PRODUCED
Publisher_001,topicA,topicA-375,172.172.1.1:1883,1551659550479,PRODUCED
Publisher_001,topicA,topicA-376,172.172.1.1:1883,1551659550583,PRODUCED
Publisher_001,topicA,topicA-377,172.172.1.1:1883,1551659550679,PRODUCED
Publisher_001,topicA,topicA-378,172.172.1.1:1883,1551659550780,PRODUCED
Publisher_001,topicA,topicA-379,172.172.1.1:1883,1551659550884,PRODUCED
Publisher_001,topicA,topicA-380,172.172.1.1:1883,1551659550978,PRODUCED
Publisher_001,topicA,topicA-381,172.172.1.1:1883,1551659551079,PRODUCED
Publisher_001,topicA,topicA-382,172.172.1.1:1883,1551659551180,PRODUCED
Publisher_001,topicA,topicA-383,172.172.1.1:1883,1551659551280,PRODUCED
Publisher_001,topicA,topicA-384,172.172.1.1:1883,1551659551385,PRODUCED
Publisher_001,topicA,topicA-385,172.172.1.1:1883,1551659551481,PRODUCED
Publisher_001,topicA,topicA-386,172.172.1.1:1883,1551659551579,PRODUCED
Publisher_001,topicA,topicA-387,172.172.1.1:1883,1551659551679,PRODUCED
Publisher_001,topicA,topicA-388,172.172.1.1:1883,1551659551779,PRODUCED
Publisher_001,topicA,topicA-389,172.172.1.1:1883,1551659551879,PRODUCED
Publisher_001,topicA,topicA-390,172.172.1.1:1883,1551659551979,PRODUCED
Publisher_001,topicA,topicA-391,172.172.1.1:1883,1551659552083,PRODUCED
Publisher_001,topicA,topicA-392,172.172.1.1:1883,1551659552179,PRODUCED
Publisher_001,topicA,topicA-393,172.172.1.1:1883,1551659552278,PRODUCED
Publisher_001,topicA,topicA-394,172.172.1.1:1883,1551659552379,PRODUCED
Publisher_001,topicA,topicA-395,172.172.1.1:1883,1551659552479,PRODUCED
Publisher_001,topicA,topicA-396,172.172.1.1:1883,1551659552582,PRODUCED
Publisher_001,topicA,topicA-397,172.172.1.1:1883,1551659552679,PRODUCED
Publisher_001,topicA,topicA-398,172.172.1.1:1883,1551659552779,PRODUCED
Publisher_001,topicA,topicA-399,172.172.1.1:1883,1551659552879,PRODUCED
Publisher_001,topicA,topicA-400,172.172.1.1:1883,1551659552979,PRODUCED
Publisher_001,topicA,topicA-401,172.172.1.1:1883,1551659553078,PRODUCED
Publisher_001,topicA,topicA-402,172.172.1.1:1883,1551659553179,PRODUCED
Publisher_001,topicA,topicA-403,172.172.1.1:1883,1551659553280,PRODUCED
Publisher_001,topicA,topicA-404,172.172.1.1:1883,1551659553380,PRODUCED
Publisher_001,topicA,topicA-405,172.172.1.1:1883,1551659553485,PRODUCED
Publisher_001,topicA,topicA-406,172.172.1.1:1883,1551659553579,PRODUCED
Publisher_001,topicA,topicA-407,172.172.1.1:1883,1551659553679,PRODUCED
Publisher_001,topicA,topicA-408,172.172.1.1:1883,1551659553779,PRODUCED
Publisher_001,topicA,topicA-409,172.172.1.1:1883,1551659553880,PRODUCED
Publisher_001,topicA,topicA-410,172.172.1.1:1883,1551659553981,PRODUCED
Publisher_001,topicA,topicA-411,172.172.1.1:1883,1551659554079,PRODUCED
Publisher_001,topicA,topicA-412,172.172.1.1:1883,1551659554179,PRODUCED
Publisher_001,topicA,topicA-413,172.172.1.1:1883,1551659554288,PRODUCED
Publisher_001,topicA,topicA-414,172.172.1.1:1883,1551659554379,PRODUCED
Publisher_001,topicA,topicA-415,172.172.1.1:1883,1551659554479,PRODUCED
Publisher_001,topicA,topicA-416,172.172.1.1:1883,1551659554579,PRODUCED
Publisher_001,topicA,topicA-417,172.172.1.1:1883,1551659554679,PRODUCED
Publisher_001,topicA,topicA-418,172.172.1.1:1883,1551659554779,PRODUCED
Publisher_001,topicA,topicA-419,172.172.1.1:1883,1551659554879,PRODUCED
Publisher_001,topicA,topicA-420,172.172.1.1:1883,1551659554980,PRODUCED
Publisher_001,topicA,topicA-421,172.172.1.1:1883,1551659555079,PRODUCED
Publisher_001,topicA,topicA-422,172.172.1.1:1883,1551659555180,PRODUCED
Publisher_001,topicA,topicA-423,172.172.1.1:1883,1551659555279,PRODUCED
Publisher_001,topicA,topicA-424,172.172.1.1:1883,1551659555380,PRODUCED
Publisher_001,topicA,topicA-425,172.172.1.1:1883,1551659555479,PRODUCED
Publisher_001,topicA,topicA-426,172.172.1.1:1883,1551659555580,PRODUCED
Publisher_001,topicA,topicA-427,172.172.1.1:1883,1551659555681,PRODUCED
Publisher_001,topicA,topicA-428,172.172.1.1:1883,1551659555779,PRODUCED
Publisher_001,topicA,topicA-429,172.172.1.1:1883,1551659555879,PRODUCED
Publisher_001,topicA,topicA-430,172.172.1.1:1883,1551659555980,PRODUCED
Publisher_001,topicA,topicA-431,172.172.1.1:1883,1551659556080,PRODUCED
Publisher_001,topicA,topicA-432,172.172.1.1:1883,1551659556178,PRODUCED
Publisher_001,topicA,topicA-433,172.172.1.1:1883,1551659556279,PRODUCED
Publisher_001,topicA,topicA-434,172.172.1.1:1883,1551659556379,PRODUCED
Publisher_001,topicA,topicA-435,172.172.1.1:1883,1551659556479,PRODUCED
Publisher_001,topicA,topicA-436,172.172.1.1:1883,1551659556579,PRODUCED
Publisher_001,topicA,topicA-437,172.172.1.1:1883,1551659556679,PRODUCED
Publisher_001,topicA,topicA-438,172.172.1.1:1883,1551659556783,PRODUCED
Publisher_001,topicA,topicA-439,172.172.1.1:1883,1551659556882,PRODUCED
Publisher_001,topicA,topicA-440,172.172.1.1:1883,1551659556981,PRODUCED
Publisher_001,topicA,topicA-441,172.172.1.1:1883,1551659557079,PRODUCED
Publisher_001,topicA,topicA-442,172.172.1.1:1883,1551659557181,PRODUCED
Publisher_001,topicA,topicA-443,172.172.1.1:1883,1551659557281,PRODUCED
Publisher_001,topicA,topicA-444,172.172.1.1:1883,1551659557379,PRODUCED
Publisher_001,topicA,topicA-445,172.172.1.1:1883,1551659557479,PRODUCED
Publisher_001,topicA,topicA-446,172.172.1.1:1883,1551659557579,PRODUCED
Publisher_001,topicA,topicA-447,172.172.1.1:1883,1551659557679,PRODUCED
Publisher_001,topicA,topicA-448,172.172.1.1:1883,1551659557779,PRODUCED
Publisher_001,topicA,topicA-449,172.172.1.1:1883,1551659557879,PRODUCED
Publisher_001,topicA,topicA-450,172.172.1.1:1883,1551659557979,PRODUCED
Publisher_001,topicA,topicA-451,172.172.1.1:1883,1551659558079,PRODUCED
Publisher_001,topicA,topicA-452,172.172.1.1:1883,1551659558179,PRODUCED
Publisher_001,topicA,topicA-453,172.172.1.1:1883,1551659558278,PRODUCED
Publisher_001,topicA,topicA-454,172.172.1.1:1883,1551659558379,PRODUCED
Publisher_001,topicA,topicA-455,172.172.1.1:1883,1551659558479,PRODUCED
Publisher_001,topicA,topicA-456,172.172.1.1:1883,1551659558579,PRODUCED
Publisher_001,topicA,topicA-457,172.172.1.1:1883,1551659558679,PRODUCED
Publisher_001,topicA,topicA-458,172.172.1.1:1883,1551659558779,PRODUCED
Publisher_001,topicA,topicA-459,172.172.1.1:1883,1551659558881,PRODUCED
Publisher_001,topicA,topicA-460,172.172.1.1:1883,1551659558980,PRODUCED
Publisher_001,topicA,topicA-461,172.172.1.1:1883,1551659559079,PRODUCED
Publisher_001,topicA,topicA-462,172.172.1.1:1883,1551659559179,PRODUCED
Publisher_001,topicA,topicA-463,172.172.1.1:1883,1551659559280,PRODUCED
Publisher_001,topicA,topicA-464,172.172.1.1:1883,1551659559380,PRODUCED
Publisher_001,topicA,topicA-465,172.172.1.1:1883,1551659559483,PRODUCED
Publisher_001,topicA,topicA-466,172.172.1.1:1883,1551659559579,PRODUCED
Publisher_001,topicA,topicA-467,172.172.1.1:1883,1551659559679,PRODUCED
Publisher_001,topicA,topicA-468,172.172.1.1:1883,1551659559779,PRODUCED
Publisher_001,topicA,topicA-469,172.172.1.1:1883,1551659559879,PRODUCED
Publisher_001,topicA,topicA-470,172.172.1.1:1883,1551659559978,PRODUCED
Publisher_001,topicA,topicA-471,172.172.1.1:1883,1551659560079,PRODUCED
Publisher_001,topicA,topicA-472,172.172.1.1:1883,1551659560179,PRODUCED
Publisher_001,topicA,topicA-473,172.172.1.1:1883,1551659560278,PRODUCED
Publisher_001,topicA,topicA-474,172.172.1.1:1883,1551659560379,PRODUCED
Publisher_001,topicA,topicA-475,172.172.1.1:1883,1551659560479,PRODUCED
Publisher_001,topicA,topicA-476,172.172.1.1:1883,1551659560578,PRODUCED
Publisher_001,topicA,topicA-477,172.172.1.1:1883,1551659560684,PRODUCED
Publisher_001,topicA,topicA-478,172.172.1.1:1883,1551659560785,PRODUCED
Publisher_001,topicA,topicA-479,172.172.1.1:1883,1551659560883,PRODUCED
Publisher_001,topicA,topicA-480,172.172.1.1:1883,1551659560981,PRODUCED
Publisher_001,topicA,topicA-481,172.172.1.1:1883,1551659561079,PRODUCED
Publisher_001,topicA,topicA-482,172.172.1.1:1883,1551659561185,PRODUCED
Publisher_001,topicA,topicA-483,172.172.1.1:1883,1551659561281,PRODUCED
Publisher_001,topicA,topicA-484,172.172.1.1:1883,1551659561379,PRODUCED
Publisher_001,topicA,topicA-485,172.172.1.1:1883,1551659561486,PRODUCED
Publisher_001,topicA,topicA-486,172.172.1.1:1883,1551659561580,PRODUCED
Publisher_001,topicA,topicA-487,172.172.1.1:1883,1551659561680,PRODUCED
Publisher_001,topicA,topicA-488,172.172.1.1:1883,1551659561780,PRODUCED
Publisher_001,topicA,topicA-489,172.172.1.1:1883,1551659561879,PRODUCED
Publisher_001,topicA,topicA-490,172.172.1.1:1883,1551659561979,PRODUCED
Publisher_001,topicA,topicA-491,172.172.1.1:1883,1551659562081,PRODUCED
Publisher_001,topicA,topicA-492,172.172.1.1:1883,1551659562179,PRODUCED
Publisher_001,topicA,topicA-493,172.172.1.1:1883,1551659562283,PRODUCED
Publisher_001,topicA,topicA-494,172.172.1.1:1883,1551659562379,PRODUCED
Publisher_001,topicA,topicA-495,172.172.1.1:1883,1551659562481,PRODUCED
Publisher_001,topicA,topicA-496,172.172.1.1:1883,1551659562581,PRODUCED
Publisher_001,topicA,topicA-497,172.172.1.1:1883,1551659562679,PRODUCED
Publisher_001,topicA,topicA-498,172.172.1.1:1883,1551659562778,PRODUCED
Publisher_001,topicA,topicA-499,172.172.1.1:1883,1551659562878,PRODUCED
Publisher_001,topicA,topicA-500,172.172.1.1:1883,1551659562979,PRODUCED
Publisher_001,topicA,topicA-501,172.172.1.1:1883,1551659563079,PRODUCED
Publisher_001,topicA,topicA-502,172.172.1.1:1883,1551659563180,PRODUCED
Publisher_001,topicA,topicA-503,172.172.1.1:1883,1551659563279,PRODUCED
Publisher_001,topicA,topicA-504,172.172.1.1:1883,1551659563379,PRODUCED
Publisher_001,topicA,topicA-505,172.172.1.1:1883,1551659563480,PRODUCED
Publisher_001,topicA,topicA-506,172.172.1.1:1883,1551659563579,PRODUCED
Publisher_001,topicA,topicA-507,172.172.1.1:1883,1551659563679,PRODUCED
Publisher_001,topicA,topicA-508,172.172.1.1:1883,1551659563779,PRODUCED
Publisher_001,topicA,topicA-509,172.172.1.1:1883,1551659563879,PRODUCED
Publisher_001,topicA,topicA-510,172.172.1.1:1883,1551659563980,PRODUCED
Publisher_001,topicA,topicA-511,172.172.1.1:1883,1551659564079,PRODUCED
Publisher_001,topicA,topicA-512,172.172.1.1:1883,1551659564179,PRODUCED
Publisher_001,topicA,topicA-513,172.172.1.1:1883,1551659564279,PRODUCED
Publisher_001,topicA,topicA-514,172.172.1.1:1883,1551659564378,PRODUCED
Publisher_001,topicA,topicA-515,172.172.1.1:1883,1551659564479,PRODUCED
Publisher_001,topicA,topicA-516,172.172.1.1:1883,1551659564585,PRODUCED
Publisher_001,topicA,topicA-517,172.172.1.1:1883,1551659564679,PRODUCED
Publisher_001,topicA,topicA-518,172.172.1.1:1883,1551659564780,PRODUCED
Publisher_001,topicA,topicA-519,172.172.1.1:1883,1551659564879,PRODUCED
Publisher_001,topicA,topicA-520,172.172.1.1:1883,1551659564979,PRODUCED
Publisher_001,topicA,topicA-521,172.172.1.1:1883,1551659565078,PRODUCED
Publisher_001,topicA,topicA-522,172.172.1.1:1883,1551659565179,PRODUCED
Publisher_001,topicA,topicA-523,172.172.1.1:1883,1551659565279,PRODUCED
Publisher_001,topicA,topicA-524,172.172.1.1:1883,1551659565381,PRODUCED
Publisher_001,topicA,topicA-525,172.172.1.1:1883,1551659565479,PRODUCED
Publisher_001,topicA,topicA-526,172.172.1.1:1883,1551659565579,PRODUCED
Publisher_001,topicA,topicA-527,172.172.1.1:1883,1551659565679,PRODUCED
Publisher_001,topicA,topicA-528,172.172.1.1:1883,1551659565779,PRODUCED
Publisher_001,topicA,topicA-529,172.172.1.1:1883,1551659565881,PRODUCED
Publisher_001,topicA,topicA-530,172.172.1.1:1883,1551659565979,PRODUCED
Publisher_001,topicA,topicA-531,172.172.1.1:1883,1551659566080,PRODUCED
Publisher_001,topicA,topicA-532,172.172.1.1:1883,1551659566181,PRODUCED
Publisher_001,topicA,topicA-533,172.172.1.1:1883,1551659566279,PRODUCED
Publisher_001,topicA,topicA-534,172.172.1.1:1883,1551659566380,PRODUCED
Publisher_001,topicA,topicA-535,172.172.1.1:1883,1551659566479,PRODUCED
Publisher_001,topicA,topicA-536,172.172.1.1:1883,1551659566579,PRODUCED
Publisher_001,topicA,topicA-537,172.172.1.1:1883,1551659566683,PRODUCED
Publisher_001,topicA,topicA-538,172.172.1.1:1883,1551659566779,PRODUCED
Publisher_001,topicA,topicA-539,172.172.1.1:1883,1551659566880,PRODUCED
Publisher_001,topicA,topicA-540,172.172.1.1:1883,1551659566979,PRODUCED
Publisher_001,topicA,topicA-541,172.172.1.1:1883,1551659567079,PRODUCED
Publisher_001,topicA,topicA-542,172.172.1.1:1883,1551659567180,PRODUCED
Publisher_001,topicA,topicA-543,172.172.1.1:1883,1551659567279,PRODUCED
Publisher_001,topicA,topicA-544,172.172.1.1:1883,1551659567379,PRODUCED
Publisher_001,topicA,topicA-545,172.172.1.1:1883,1551659567479,PRODUCED
Publisher_001,topicA,topicA-546,172.172.1.1:1883,1551659567579,PRODUCED
Publisher_001,topicA,topicA-547,172.172.1.1:1883,1551659567679,PRODUCED
Publisher_001,topicA,topicA-548,172.172.1.1:1883,1551659567780,PRODUCED
Publisher_001,topicA,topicA-549,172.172.1.1:1883,1551659567879,PRODUCED
Publisher_001,topicA,topicA-550,172.172.1.1:1883,1551659567979,PRODUCED
Publisher_001,topicA,topicA-551,172.172.1.1:1883,1551659568079,PRODUCED
Publisher_001,topicA,topicA-552,172.172.1.1:1883,1551659568179,PRODUCED
Publisher_001,topicA,topicA-553,172.172.1.1:1883,1551659568279,PRODUCED
Publisher_001,topicA,topicA-554,172.172.1.1:1883,1551659568382,PRODUCED
Publisher_001,topicA,topicA-555,172.172.1.1:1883,1551659568484,PRODUCED
Publisher_001,topicA,topicA-556,172.172.1.1:1883,1551659568579,PRODUCED
Publisher_001,topicA,topicA-557,172.172.1.1:1883,1551659568679,PRODUCED
Publisher_001,topicA,topicA-558,172.172.1.1:1883,1551659568779,PRODUCED
Publisher_001,topicA,topicA-559,172.172.1.1:1883,1551659568879,PRODUCED
Publisher_001,topicA,topicA-560,172.172.1.1:1883,1551659568980,PRODUCED
Publisher_001,topicA,topicA-561,172.172.1.1:1883,1551659569079,PRODUCED
Publisher_001,topicA,topicA-562,172.172.1.1:1883,1551659569179,PRODUCED
Publisher_001,topicA,topicA-563,172.172.1.1:1883,1551659569279,PRODUCED
Publisher_001,topicA,topicA-564,172.172.1.1:1883,1551659569380,PRODUCED
Publisher_001,topicA,topicA-565,172.172.1.1:1883,1551659569478,PRODUCED
Publisher_001,topicA,topicA-566,172.172.1.1:1883,1551659569581,PRODUCED
Publisher_001,topicA,topicA-567,172.172.1.1:1883,1551659569679,PRODUCED
Publisher_001,topicA,topicA-568,172.172.1.1:1883,1551659569779,PRODUCED
Publisher_001,topicA,topicA-569,172.172.1.1:1883,1551659569888,PRODUCED
Publisher_001,topicA,topicA-570,172.172.1.1:1883,1551659569979,PRODUCED
Publisher_001,topicA,topicA-571,172.172.1.1:1883,1551659570080,PRODUCED
Publisher_001,topicA,topicA-572,172.172.1.1:1883,1551659570179,PRODUCED
Publisher_001,topicA,topicA-573,172.172.1.1:1883,1551659570279,PRODUCED
Publisher_001,topicA,topicA-574,172.172.1.1:1883,1551659570379,PRODUCED
Publisher_001,topicA,topicA-575,172.172.1.1:1883,1551659570478,PRODUCED
Publisher_001,topicA,topicA-576,172.172.1.1:1883,1551659570579,PRODUCED
Publisher_001,topicA,topicA-577,172.172.1.1:1883,1551659570681,PRODUCED
Publisher_001,topicA,topicA-578,172.172.1.1:1883,1551659570779,PRODUCED
Publisher_001,topicA,topicA-579,172.172.1.1:1883,1551659570879,PRODUCED
Publisher_001,topicA,topicA-580,172.172.1.1:1883,1551659570979,PRODUCED
Publisher_001,topicA,topicA-581,172.172.1.1:1883,1551659571078,PRODUCED
Publisher_001,topicA,topicA-582,172.172.1.1:1883,1551659571179,PRODUCED
Publisher_001,topicA,topicA-583,172.172.1.1:1883,1551659571279,PRODUCED
Publisher_001,topicA,topicA-584,172.172.1.1:1883,1551659571378,PRODUCED
Publisher_001,topicA,topicA-585,172.172.1.1:1883,1551659571479,PRODUCED
Publisher_001,topicA,topicA-586,172.172.1.1:1883,1551659571579,PRODUCED
Publisher_001,topicA,topicA-587,172.172.1.1:1883,1551659571679,PRODUCED
Publisher_001,topicA,topicA-588,172.172.1.1:1883,1551659571778,PRODUCED
Publisher_001,topicA,topicA-589,172.172.1.1:1883,1551659571879,PRODUCED
Publisher_001,topicA,topicA-590,172.172.1.1:1883,1551659571979,PRODUCED
Publisher_001,topicA,topicA-591,172.172.1.1:1883,1551659572078,PRODUCED
Publisher_001,topicA,topicA-592,172.172.1.1:1883,1551659572178,PRODUCED
Publisher_001,topicA,topicA-593,172.172.1.1:1883,1551659572283,PRODUCED
Publisher_001,topicA,topicA-594,172.172.1.1:1883,1551659572379,PRODUCED
Publisher_001,topicA,topicA-595,172.172.1.1:1883,1551659572479,PRODUCED
Publisher_001,topicA,topicA-596,172.172.1.1:1883,1551659572580,PRODUCED
Publisher_001,topicA,topicA-597,172.172.1.1:1883,1551659572679,PRODUCED
Publisher_001,topicA,topicA-598,172.172.1.1:1883,1551659572779,PRODUCED
Publisher_001,topicA,topicA-599,172.172.1.1:1883,1551659572880,PRODUCED
Publisher_001,topicA,topicA-600,172.172.1.1:1883,1551659572979,PRODUCED
Publisher_001,topicA,topicA-601,172.172.1.1:1883,1551659573080,PRODUCED
Publisher_001,topicA,topicA-602,172.172.1.1:1883,1551659573179,PRODUCED
Publisher_001,topicA,topicA-603,172.172.1.1:1883,1551659573279,PRODUCED
Publisher_001,topicA,topicA-604,172.172.1.1:1883,1551659573379,PRODUCED
Publisher_001,topicA,topicA-605,172.172.1.1:1883,1551659573479,PRODUCED
Publisher_001,topicA,topicA-606,172.172.1.1:1883,1551659573579,PRODUCED
Publisher_001,topicA,topicA-607,172.172.1.1:1883,1551659573679,PRODUCED
Publisher_001,topicA,topicA-608,172.172.1.1:1883,1551659573780,PRODUCED
Publisher_001,topicA,topicA-609,172.172.1.1:1883,1551659573879,PRODUCED
Publisher_001,topicA,topicA-610,172.172.1.1:1883,1551659573980,PRODUCED
Publisher_001,topicA,topicA-611,172.172.1.1:1883,1551659574079,PRODUCED
Publisher_001,topicA,topicA-612,172.172.1.1:1883,1551659574178,PRODUCED
Publisher_001,topicA,topicA-613,172.172.1.1:1883,1551659574280,PRODUCED
Publisher_001,topicA,topicA-614,172.172.1.1:1883,1551659574380,PRODUCED
Publisher_001,topicA,topicA-615,172.172.1.1:1883,1551659574478,PRODUCED
Publisher_001,topicA,topicA-616,172.172.1.1:1883,1551659574579,PRODUCED
Publisher_001,topicA,topicA-617,172.172.1.1:1883,1551659574678,PRODUCED
Publisher_001,topicA,topicA-618,172.172.1.1:1883,1551659574778,PRODUCED
Publisher_001,topicA,topicA-619,172.172.1.1:1883,1551659574879,PRODUCED
Publisher_001,topicA,topicA-620,172.172.1.1:1883,1551659574980,PRODUCED
Publisher_001,topicA,topicA-621,172.172.1.1:1883,1551659575084,PRODUCED
Publisher_001,topicA,topicA-622,172.172.1.1:1883,1551659575179,PRODUCED
Publisher_001,topicA,topicA-623,172.172.1.1:1883,1551659575279,PRODUCED
Publisher_001,topicA,topicA-624,172.172.1.1:1883,1551659575379,PRODUCED
Publisher_001,topicA,topicA-625,172.172.1.1:1883,1551659575481,PRODUCED
Publisher_001,topicA,topicA-626,172.172.1.1:1883,1551659575579,PRODUCED
Publisher_001,topicA,topicA-627,172.172.1.1:1883,1551659575679,PRODUCED
Publisher_001,topicA,topicA-628,172.172.1.1:1883,1551659575779,PRODUCED
Publisher_001,topicA,topicA-629,172.172.1.1:1883,1551659575879,PRODUCED
Publisher_001,topicA,topicA-630,172.172.1.1:1883,1551659575982,PRODUCED
Publisher_001,topicA,topicA-631,172.172.1.1:1883,1551659576079,PRODUCED
Publisher_001,topicA,topicA-632,172.172.1.1:1883,1551659576179,PRODUCED
Publisher_001,topicA,topicA-633,172.172.1.1:1883,1551659576279,PRODUCED
Publisher_001,topicA,topicA-634,172.172.1.1:1883,1551659576379,PRODUCED
Publisher_001,topicA,topicA-635,172.172.1.1:1883,1551659576479,PRODUCED
Publisher_001,topicA,topicA-636,172.172.1.1:1883,1551659576579,PRODUCED
Publisher_001,topicA,topicA-637,172.172.1.1:1883,1551659576679,PRODUCED
Publisher_001,topicA,topicA-638,172.172.1.1:1883,1551659576779,PRODUCED
Publisher_001,topicA,topicA-639,172.172.1.1:1883,1551659576879,PRODUCED
Publisher_001,topicA,topicA-640,172.172.1.1:1883,1551659576979,PRODUCED
Publisher_001,topicA,topicA-641,172.172.1.1:1883,1551659577082,PRODUCED
Publisher_001,topicA,topicA-642,172.172.1.1:1883,1551659577180,PRODUCED
Publisher_001,topicA,topicA-643,172.172.1.1:1883,1551659577279,PRODUCED
Publisher_001,topicA,topicA-644,172.172.1.1:1883,1551659577380,PRODUCED
Publisher_001,topicA,topicA-645,172.172.1.1:1883,1551659577479,PRODUCED
Publisher_001,topicA,topicA-646,172.172.1.1:1883,1551659577582,PRODUCED
Publisher_001,topicA,topicA-647,172.172.1.1:1883,1551659577679,PRODUCED
Publisher_001,topicA,topicA-648,172.172.1.1:1883,1551659577779,PRODUCED
Publisher_001,topicA,topicA-649,172.172.1.1:1883,1551659577887,PRODUCED
Publisher_001,topicA,topicA-650,172.172.1.1:1883,1551659577979,PRODUCED
Publisher_001,topicA,topicA-651,172.172.1.1:1883,1551659578079,PRODUCED
Publisher_001,topicA,topicA-652,172.172.1.1:1883,1551659578178,PRODUCED
Publisher_001,topicA,topicA-653,172.172.1.1:1883,1551659578284,PRODUCED
Publisher_001,topicA,topicA-654,172.172.1.1:1883,1551659578381,PRODUCED
Publisher_001,topicA,topicA-655,172.172.1.1:1883,1551659578485,PRODUCED
Publisher_001,topicA,topicA-656,172.172.1.1:1883,1551659578579,PRODUCED
Publisher_001,topicA,topicA-657,172.172.1.1:1883,1551659578678,PRODUCED
Publisher_001,topicA,topicA-658,172.172.1.1:1883,1551659578778,PRODUCED
Publisher_001,topicA,topicA-659,172.172.1.1:1883,1551659578882,PRODUCED
Publisher_001,topicA,topicA-660,172.172.1.1:1883,1551659578979,PRODUCED
Publisher_001,topicA,topicA-661,172.172.1.1:1883,1551659579078,PRODUCED
Publisher_001,topicA,topicA-662,172.172.1.1:1883,1551659579178,PRODUCED
