clientId,topic,guid,broker,timestamp,type
Publisher_001,topicA,topicA-1,172.172.1.1:1883,1551659089280,PRODUCED
Publisher_001,topicA,topicA-2,172.172.1.1:1883,1551659089504,PRODUCED
Publisher_001,topicA,topicA-3,172.172.1.1:1883,1551659089509,PRODUCED
Publisher_001,topicA,topicA-4,172.172.1.1:1883,1551659089514,PRODUCED
Publisher_001,topicA,topicA-5,172.172.1.1:1883,1551659089518,PRODUCED
Publisher_001,topicA,topicA-6,172.172.1.1:1883,1551659089604,PRODUCED
Publisher_001,topicA,topicA-7,172.172.1.1:1883,1551659089704,PRODUCED
Publisher_001,topicA,topicA-8,172.172.1.1:1883,1551659089807,PRODUCED
Publisher_001,topicA,topicA-9,172.172.1.1:1883,1551659089904,PRODUCED
Publisher_001,topicA,topicA-10,172.172.1.1:1883,1551659090005,PRODUCED
Publisher_001,topicA,topicA-11,172.172.1.1:1883,1551659090105,PRODUCED
Publisher_001,topicA,topicA-12,172.172.1.1:1883,1551659090206,PRODUCED
Publisher_001,topicA,topicA-13,172.172.1.1:1883,1551659090304,PRODUCED
Publisher_001,topicA,topicA-14,172.172.1.1:1883,1551659090406,PRODUCED
Publisher_001,topicA,topicA-15,172.172.1.1:1883,1551659090507,PRODUCED
Publisher_001,topicA,topicA-16,172.172.1.1:1883,1551659090606,PRODUCED
Publisher_001,topicA,topicA-17,172.172.1.1:1883,1551659090704,PRODUCED
Publisher_001,topicA,topicA-18,172.172.1.1:1883,1551659090807,PRODUCED
Publisher_001,topicA,topicA-19,172.172.1.1:1883,1551659090904,PRODUCED
Publisher_001,topicA,topicA-20,172.172.1.1:1883,1551659091007,PRODUCED
Publisher_001,topicA,topicA-21,172.172.1.1:1883,1551659091105,PRODUCED
Publisher_001,topicA,topicA-22,172.172.1.1:1883,1551659091204,PRODUCED
Publisher_001,topicA,topicA-23,172.172.1.1:1883,1551659091304,PRODUCED
Publisher_001,topicA,topicA-24,172.172.1.1:1883,1551659091404,PRODUCED
Publisher_001,topicA,topicA-25,172.172.1.1:1883,1551659091504,PRODUCED
Publisher_001,topicA,topicA-26,172.172.1.1:1883,1551659091604,PRODUCED
Publisher_001,topicA,topicA-27,172.172.1.1:1883,1551659091704,PRODUCED
Publisher_001,topicA,topicA-28,172.172.1.1:1883,1551659091804,PRODUCED
Publisher_001,topicA,topicA-29,172.172.1.1:1883,1551659091905,PRODUCED
Publisher_001,topicA,topicA-30,172.172.1.1:1883,1551659092004,PRODUCED
Publisher_001,topicA,topicA-31,172.172.1.1:1883,1551659092104,PRODUCED
Publisher_001,topicA,topicA-32,172.172.1.1:1883,1551659092203,PRODUCED
Publisher_001,topicA,topicA-33,172.172.1.1:1883,1551659092304,PRODUCED
Publisher_001,topicA,topicA-34,172.172.1.1:1883,1551659092404,PRODUCED
Publisher_001,topicA,topicA-35,172.172.1.1:1883,1551659092504,PRODUCED
Publisher_001,topicA,topicA-36,172.172.1.1:1883,1551659092604,PRODUCED
Publisher_001,topicA,topicA-37,172.172.1.1:1883,1551659092704,PRODUCED
Publisher_001,topicA,topicA-38,172.172.1.1:1883,1551659092804,PRODUCED
Publisher_001,topicA,topicA-39,172.172.1.1:1883,1551659092904,PRODUCED
Publisher_001,topicA,topicA-40,172.172.1.1:1883,1551659093004,PRODUCED
Publisher_001,topicA,topicA-41,172.172.1.1:1883,1551659093108,PRODUCED
Publisher_001,topicA,topicA-42,172.172.1.1:1883,1551659093204,PRODUCED
Publisher_001,topicA,topicA-43,172.172.1.1:1883,1551659093304,PRODUCED
Publisher_001,topicA,topicA-44,172.172.1.1:1883,1551659093404,PRODUCED
Publisher_001,topicA,topicA-45,172.172.1.1:1883,1551659093504,PRODUCED
Publisher_001,topicA,topicA-46,172.172.1.1:1883,1551659093605,PRODUCED
Publisher_001,topicA,topicA-47,172.172.1.1:1883,1551659093704,PRODUCED
Publisher_001,topicA,topicA-48,172.172.1.1:1883,1551659093804,PRODUCED
Publisher_001,topicA,topicA-49,172.172.1.1:1883,1551659093904,PRODUCED
Publisher_001,topicA,topicA-50,172.172.1.1:1883,1551659094004,PRODUCED
Publisher_001,topicA,topicA-51,172.172.1.1:1883,1551659094103,PRODUCED
Publisher_001,topicA,topicA-52,172.172.1.1:1883,1551659094204,PRODUCED
Publisher_001,topicA,topicA-53,172.172.1.1:1883,1551659094303,PRODUCED
Publisher_001,topicA,topicA-54,172.172.1.1:1883,1551659094404,PRODUCED
Publisher_001,topicA,topicA-55,172.172.1.1:1883,1551659094504,PRODUCED
Publisher_001,topicA,topicA-56,172.172.1.1:1883,1551659094604,PRODUCED
Publisher_001,topicA,topicA-57,172.172.1.1:1883,1551659094703,PRODUCED
Publisher_001,topicA,topicA-58,172.172.1.1:1883,1551659094804,PRODUCED
Publisher_001,topicA,topicA-59,172.172.1.1:1883,1551659094904,PRODUCED
Publisher_001,topicA,topicA-60,172.172.1.1:1883,1551659095004,PRODUCED
Publisher_001,topicA,topicA-61,172.172.1.1:1883,1551659095104,PRODUCED
Publisher_001,topicA,topicA-62,172.172.1.1:1883,1551659095205,PRODUCED
Publisher_001,topicA,topicA-63,172.172.1.1:1883,1551659095305,PRODUCED
Publisher_001,topicA,topicA-64,172.172.1.1:1883,1551659095404,PRODUCED
Publisher_001,topicA,topicA-65,172.172.1.1:1883,1551659095505,PRODUCED
Publisher_001,topicA,topicA-66,172.172.1.1:1883,1551659095604,PRODUCED
Publisher_001,topicA,topicA-67,172.172.1.1:1883,1551659095704,PRODUCED
Publisher_001,topicA,topicA-68,172.172.1.1:1883,1551659095804,PRODUCED
Publisher_001,topicA,topicA-69,172.172.1.1:1883,1551659095904,PRODUCED
Publisher_001,topicA,topicA-70,172.172.1.1:1883,1551659096004,PRODUCED
Publisher_001,topicA,topicA-71,172.172.1.1:1883,1551659096105,PRODUCED
Publisher_001,topicA,topicA-72,172.172.1.1:1883,1551659096203,PRODUCED
Publisher_001,topicA,topicA-73,172.172.1.1:1883,1551659096304,PRODUCED
Publisher_001,topicA,topicA-74,172.172.1.1:1883,1551659096404,PRODUCED
Publisher_001,topicA,topicA-75,172.172.1.1:1883,1551659096504,PRODUCED
Publisher_001,topicA,topicA-76,172.172.1.1:1883,1551659096603,PRODUCED
Publisher_001,topicA,topicA-77,172.172.1.1:1883,1551659096704,PRODUCED
Publisher_001,topicA,topicA-78,172.172.1.1:1883,1551659096804,PRODUCED
Publisher_001,topicA,topicA-79,172.172.1.1:1883,1551659096904,PRODUCED
Publisher_001,topicA,topicA-80,172.172.1.1:1883,1551659097005,PRODUCED
Publisher_001,topicA,topicA-81,172.172.1.1:1883,1551659097104,PRODUCED
Publisher_001,topicA,topicA-82,172.172.1.1:1883,1551659097204,PRODUCED
Publisher_001,topicA,topicA-83,172.172.1.1:1883,1551659097304,PRODUCED
Publisher_001,topicA,topicA-84,172.172.1.1:1883,1551659097405,PRODUCED
Publisher_001,topicA,topicA-85,172.172.1.1:1883,1551659097506,PRODUCED
Publisher_001,topicA,topicA-86,172.172.1.1:1883,1551659097606,PRODUCED
Publisher_001,topicA,topicA-87,172.172.1.1:1883,1551659097704,PRODUCED
Publisher_001,topicA,topicA-88,172.172.1.1:1883,1551659097804,PRODUCED
Publisher_001,topicA,topicA-89,172.172.1.1:1883,1551659097905,PRODUCED
Publisher_001,topicA,topicA-90,172.172.1.1:1883,1551659098004,PRODUCED
Publisher_001,topicA,topicA-91,172.172.1.1:1883,1551659098104,PRODUCED
Publisher_001,topicA,topicA-92,172.172.1.1:1883,1551659098205,PRODUCED
Publisher_001,topicA,topicA-93,172.172.1.1:1883,1551659098304,PRODUCED
Publisher_001,topicA,topicA-94,172.172.1.1:1883,1551659098405,PRODUCED
Publisher_001,topicA,topicA-95,172.172.1.1:1883,1551659098504,PRODUCED
Publisher_001,topicA,topicA-96,172.172.1.1:1883,1551659098604,PRODUCED
Publisher_001,topicA,topicA-97,172.172.1.1:1883,1551659098704,PRODUCED
Publisher_001,topicA,topicA-98,172.172.1.1:1883,1551659098804,PRODUCED
Publisher_001,topicA,topicA-99,172.172.1.1:1883,1551659098905,PRODUCED
Publisher_001,topicA,topicA-100,172.172.1.1:1883,1551659099004,PRODUCED
Publisher_001,topicA,topicA-101,172.172.1.1:1883,1551659099108,PRODUCED
Publisher_001,topicA,topicA-102,172.172.1.1:1883,1551659099204,PRODUCED
Publisher_001,topicA,topicA-103,172.172.1.1:1883,1551659099305,PRODUCED
Publisher_001,topicA,topicA-104,172.172.1.1:1883,1551659099405,PRODUCED
Publisher_001,topicA,topicA-105,172.172.1.1:1883,1551659099504,PRODUCED
Publisher_001,topicA,topicA-106,172.172.1.1:1883,1551659099605,PRODUCED
Publisher_001,topicA,topicA-107,172.172.1.1:1883,1551659099704,PRODUCED
Publisher_001,topicA,topicA-108,172.172.1.1:1883,1551659099804,PRODUCED
Publisher_001,topicA,topicA-109,172.172.1.1:1883,1551659099904,PRODUCED
Publisher_001,topicA,topicA-110,172.172.1.1:1883,1551659100004,PRODUCED
Publisher_001,topicA,topicA-111,172.172.1.1:1883,1551659100104,PRODUCED
Publisher_001,topicA,topicA-112,172.172.1.1:1883,1551659100204,PRODUCED
Publisher_001,topicA,topicA-113,172.172.1.1:1883,1551659100304,PRODUCED
Publisher_001,topicA,topicA-114,172.172.1.1:1883,1551659100404,PRODUCED
Publisher_001,topicA,topicA-115,172.172.1.1:1883,1551659100505,PRODUCED
Publisher_001,topicA,topicA-116,172.172.1.1:1883,1551659100604,PRODUCED
Publisher_001,topicA,topicA-117,172.172.1.1:1883,1551659100704,PRODUCED
Publisher_001,topicA,topicA-118,172.172.1.1:1883,1551659100810,PRODUCED
Publisher_001,topicA,topicA-119,172.172.1.1:1883,1551659100904,PRODUCED
Publisher_001,topicA,topicA-120,172.172.1.1:1883,1551659101004,PRODUCED
Publisher_001,topicA,topicA-121,172.172.1.1:1883,1551659101104,PRODUCED
Publisher_001,topicA,topicA-122,172.172.1.1:1883,1551659101204,PRODUCED
Publisher_001,topicA,topicA-123,172.172.1.1:1883,1551659101304,PRODUCED
Publisher_001,topicA,topicA-124,172.172.1.1:1883,1551659101404,PRODUCED
Publisher_001,topicA,topicA-125,172.172.1.1:1883,1551659101504,PRODUCED
Publisher_001,topicA,topicA-126,172.172.1.1:1883,1551659101604,PRODUCED
Publisher_001,topicA,topicA-127,172.172.1.1:1883,1551659101704,PRODUCED
Publisher_001,topicA,topicA-128,172.172.1.1:1883,1551659101805,PRODUCED
Publisher_001,topicA,topicA-129,172.172.1.1:1883,1551659101905,PRODUCED
Publisher_001,topicA,topicA-130,172.172.1.1:1883,1551659102004,PRODUCED
Publisher_001,topicA,topicA-131,172.172.1.1:1883,1551659102104,PRODUCED
Publisher_001,topicA,topicA-132,172.172.1.1:1883,1551659102205,PRODUCED
Publisher_001,topicA,topicA-133,172.172.1.1:1883,1551659102304,PRODUCED
Publisher_001,topicA,topicA-134,172.172.1.1:1883,1551659102404,PRODUCED
Publisher_001,topicA,topicA-135,172.172.1.1:1883,1551659102504,PRODUCED
Publisher_001,topicA,topicA-136,172.172.1.1:1883,1551659102604,PRODUCED
Publisher_001,topicA,topicA-137,172.172.1.1:1883,1551659102704,PRODUCED
Publisher_001,topicA,topicA-138,172.172.1.1:1883,1551659102805,PRODUCED
Publisher_001,topicA,topicA-139,172.172.1.1:1883,1551659102905,PRODUCED
Publisher_001,topicA,topicA-140,172.172.1.1:1883,1551659103004,PRODUCED
Publisher_001,topicA,topicA-141,172.172.1.1:1883,1551659103104,PRODUCED
Publisher_001,topicA,topicA-142,172.172.1.1:1883,1551659103204,PRODUCED
Publisher_001,topicA,topicA-143,172.172.1.1:1883,1551659103304,PRODUCED
Publisher_001,topicA,topicA-144,172.172.1.1:1883,1551659103404,PRODUCED
Publisher_001,topicA,topicA-145,172.172.1.1:1883,1551659103505,PRODUCED
Publisher_001,topicA,topicA-146,172.172.1.1:1883,1551659103604,PRODUCED
Publisher_001,topicA,topicA-147,172.172.1.1:1883,1551659103704,PRODUCED
Publisher_001,topicA,topicA-148,172.172.1.1:1883,1551659103804,PRODUCED
Publisher_001,topicA,topicA-149,172.172.1.1:1883,1551659103904,PRODUCED
Publisher_001,topicA,topicA-150,172.172.1.1:1883,1551659104005,PRODUCED
Publisher_001,topicA,topicA-151,172.172.1.1:1883,1551659104105,PRODUCED
Publisher_001,topicA,topicA-152,172.172.1.1:1883,1551659104204,PRODUCED
Publisher_001,topicA,topicA-153,172.172.1.1:1883,1551659104305,PRODUCED
Publisher_001,topicA,topicA-154,172.172.1.1:1883,1551659104404,PRODUCED
Publisher_001,topicA,topicA-155,172.172.1.1:1883,1551659104504,PRODUCED
Publisher_001,topicA,topicA-156,172.172.1.1:1883,1551659104604,PRODUCED
Publisher_001,topicA,topicA-157,172.172.1.1:1883,1551659104704,PRODUCED
Publisher_001,topicA,topicA-158,172.172.1.1:1883,1551659104804,PRODUCED
Publisher_001,topicA,topicA-159,172.172.1.1:1883,1551659104905,PRODUCED
Publisher_001,topicA,topicA-160,172.172.1.1:1883,1551659105005,PRODUCED
Publisher_001,topicA,topicA-161,172.172.1.1:1883,1551659105104,PRODUCED
Publisher_001,topicA,topicA-162,172.172.1.1:1883,1551659105205,PRODUCED
Publisher_001,topicA,topicA-163,172.172.1.1:1883,1551659105304,PRODUCED
Publisher_001,topicA,topicA-164,172.172.1.1:1883,1551659105405,PRODUCED
Publisher_001,topicA,topicA-165,172.172.1.1:1883,1551659105504,PRODUCED
Publisher_001,topicA,topicA-166,172.172.1.1:1883,1551659105606,PRODUCED
Publisher_001,topicA,topicA-167,172.172.1.1:1883,1551659105705,PRODUCED
Publisher_001,topicA,topicA-168,172.172.1.1:1883,1551659105808,PRODUCED
Publisher_001,topicA,topicA-169,172.172.1.1:1883,1551659105905,PRODUCED
Publisher_001,topicA,topicA-170,172.172.1.1:1883,1551659106004,PRODUCED
Publisher_001,topicA,topicA-171,172.172.1.1:1883,1551659106104,PRODUCED
Publisher_001,topicA,topicA-172,172.172.1.1:1883,1551659106204,PRODUCED
Publisher_001,topicA,topicA-173,172.172.1.1:1883,1551659106305,PRODUCED
Publisher_001,topicA,topicA-174,172.172.1.1:1883,1551659106404,PRODUCED
Publisher_001,topicA,topicA-175,172.172.1.1:1883,1551659106504,PRODUCED
Publisher_001,topicA,topicA-176,172.172.1.1:1883,1551659106604,PRODUCED
Publisher_001,topicA,topicA-177,172.172.1.1:1883,1551659106705,PRODUCED
Publisher_001,topicA,topicA-178,172.172.1.1:1883,1551659106804,PRODUCED
Publisher_001,topicA,topicA-179,172.172.1.1:1883,1551659106904,PRODUCED
Publisher_001,topicA,topicA-180,172.172.1.1:1883,1551659107005,PRODUCED
Publisher_001,topicA,topicA-181,172.172.1.1:1883,1551659107105,PRODUCED
Publisher_001,topicA,topicA-182,172.172.1.1:1883,1551659107205,PRODUCED
Publisher_001,topicA,topicA-183,172.172.1.1:1883,1551659107304,PRODUCED
Publisher_001,topicA,topicA-184,172.172.1.1:1883,1551659107404,PRODUCED
Publisher_001,topicA,topicA-185,172.172.1.1:1883,1551659107504,PRODUCED
Publisher_001,topicA,topicA-186,172.172.1.1:1883,1551659107604,PRODUCED
Publisher_001,topicA,topicA-187,172.172.1.1:1883,1551659107704,PRODUCED
Publisher_001,topicA,topicA-188,172.172.1.1:1883,1551659107804,PRODUCED
Publisher_001,topicA,topicA-189,172.172.1.1:1883,1551659107904,PRODUCED
Publisher_001,topicA,topicA-190,172.172.1.1:1883,1551659108005,PRODUCED
Publisher_001,topicA,topicA-191,172.172.1.1:1883,1551659108105,PRODUCED
Publisher_001,topicA,topicA-192,172.172.1.1:1883,1551659108205,PRODUCED
Publisher_001,topicA,topicA-193,172.172.1.1:1883,1551659108304,PRODUCED
Publisher_001,topicA,topicA-194,172.172.1.1:1883,1551659108404,PRODUCED
Publisher_001,topicA,topicA-195,172.172.1.1:1883,1551659108504,PRODUCED
Publisher_001,topicA,topicA-196,172.172.1.1:1883,1551659108604,PRODUCED
Publisher_001,topicA,topicA-197,172.172.1.1:1883,1551659108704,PRODUCED
Publisher_001,topicA,topicA-198,172.172.1.1:1883,1551659108804,PRODUCED
Publisher_001,topicA,topicA-199,172.172.1.1:1883,1551659108904,PRODUCED
Publisher_001,topicA,topicA-200,172.172.1.1:1883,1551659109005,PRODUCED
Publisher_001,topicA,topicA-201,172.172.1.1:1883,1551659109104,PRODUCED
Publisher_001,topicA,topicA-202,172.172.1.1:1883,1551659109208,PRODUCED
Publisher_001,topicA,topicA-203,172.172.1.1:1883,1551659109304,PRODUCED
Publisher_001,topicA,topicA-204,172.172.1.1:1883,1551659109403,PRODUCED
Publisher_001,topicA,topicA-205,172.172.1.1:1883,1551659109506,PRODUCED
Publisher_001,topicA,topicA-206,172.172.1.1:1883,1551659109604,PRODUCED
Publisher_001,topicA,topicA-207,172.172.1.1:1883,1551659109704,PRODUCED
Publisher_001,topicA,topicA-208,172.172.1.1:1883,1551659109804,PRODUCED
Publisher_001,topicA,topicA-209,172.172.1.1:1883,1551659109904,PRODUCED
Publisher_001,topicA,topicA-210,172.172.1.1:1883,1551659110004,PRODUCED
Publisher_001,topicA,topicA-211,172.172.1.1:1883,1551659110104,PRODUCED
Publisher_001,topicA,topicA-212,172.172.1.1:1883,1551659110206,PRODUCED
Publisher_001,topicA,topicA-213,172.172.1.1:1883,1551659110304,PRODUCED
Publisher_001,topicA,topicA-214,172.172.1.1:1883,1551659110404,PRODUCED
Publisher_001,topicA,topicA-215,172.172.1.1:1883,1551659110505,PRODUCED
Publisher_001,topicA,topicA-216,172.172.1.1:1883,1551659110604,PRODUCED
Publisher_001,topicA,topicA-217,172.172.1.1:1883,1551659110704,PRODUCED
Publisher_001,topicA,topicA-218,172.172.1.1:1883,1551659110804,PRODUCED
Publisher_001,topicA,topicA-219,172.172.1.1:1883,1551659110904,PRODUCED
Publisher_001,topicA,topicA-220,172.172.1.1:1883,1551659111004,PRODUCED
Publisher_001,topicA,topicA-221,172.172.1.1:1883,1551659111104,PRODUCED
Publisher_001,topicA,topicA-222,172.172.1.1:1883,1551659111203,PRODUCED
Publisher_001,topicA,topicA-223,172.172.1.1:1883,1551659111304,PRODUCED
Publisher_001,topicA,topicA-224,172.172.1.1:1883,1551659111415,PRODUCED
Publisher_001,topicA,topicA-225,172.172.1.1:1883,1551659111505,PRODUCED
Publisher_001,topicA,topicA-226,172.172.1.1:1883,1551659111605,PRODUCED
Publisher_001,topicA,topicA-227,172.172.1.1:1883,1551659111707,PRODUCED
Publisher_001,topicA,topicA-228,172.172.1.1:1883,1551659111806,PRODUCED
Publisher_001,topicA,topicA-229,172.172.1.1:1883,1551659111906,PRODUCED
Publisher_001,topicA,topicA-230,172.172.1.1:1883,1551659112009,PRODUCED
Publisher_001,topicA,topicA-231,172.172.1.1:1883,1551659112106,PRODUCED
Publisher_001,topicA,topicA-232,172.172.1.1:1883,1551659112204,PRODUCED
Publisher_001,topicA,topicA-233,172.172.1.1:1883,1551659112304,PRODUCED
Publisher_001,topicA,topicA-234,172.172.1.1:1883,1551659112404,PRODUCED
Publisher_001,topicA,topicA-235,172.172.1.1:1883,1551659112506,PRODUCED
Publisher_001,topicA,topicA-236,172.172.1.1:1883,1551659112604,PRODUCED
Publisher_001,topicA,topicA-237,172.172.1.1:1883,1551659112705,PRODUCED
Publisher_001,topicA,topicA-238,172.172.1.1:1883,1551659112808,PRODUCED
Publisher_001,topicA,topicA-239,172.172.1.1:1883,1551659112912,PRODUCED
Publisher_001,topicA,topicA-240,172.172.1.1:1883,1551659113006,PRODUCED
Publisher_001,topicA,topicA-241,172.172.1.1:1883,1551659113104,PRODUCED
Publisher_001,topicA,topicA-242,172.172.1.1:1883,1551659113204,PRODUCED
Publisher_001,topicA,topicA-243,172.172.1.1:1883,1551659113304,PRODUCED
Publisher_001,topicA,topicA-244,172.172.1.1:1883,1551659113403,PRODUCED
Publisher_001,topicA,topicA-245,172.172.1.1:1883,1551659113504,PRODUCED
Publisher_001,topicA,topicA-246,172.172.1.1:1883,1551659113604,PRODUCED
Publisher_001,topicA,topicA-247,172.172.1.1:1883,1551659113704,PRODUCED
Publisher_001,topicA,topicA-248,172.172.1.1:1883,1551659113804,PRODUCED
Publisher_001,topicA,topicA-249,172.172.1.1:1883,1551659113904,PRODUCED
Publisher_001,topicA,topicA-250,172.172.1.1:1883,1551659114004,PRODUCED
Publisher_001,topicA,topicA-251,172.172.1.1:1883,1551659114103,PRODUCED
Publisher_001,topicA,topicA-252,172.172.1.1:1883,1551659114204,PRODUCED
Publisher_001,topicA,topicA-253,172.172.1.1:1883,1551659114304,PRODUCED
Publisher_001,topicA,topicA-254,172.172.1.1:1883,1551659114404,PRODUCED
Publisher_001,topicA,topicA-255,172.172.1.1:1883,1551659114504,PRODUCED
Publisher_001,topicA,topicA-256,172.172.1.1:1883,1551659114604,PRODUCED
Publisher_001,topicA,topicA-257,172.172.1.1:1883,1551659114704,PRODUCED
Publisher_001,topicA,topicA-258,172.172.1.1:1883,1551659114804,PRODUCED
Publisher_001,topicA,topicA-259,172.172.1.1:1883,1551659114907,PRODUCED
Publisher_001,topicA,topicA-260,172.172.1.1:1883,1551659115004,PRODUCED
Publisher_001,topicA,topicA-261,172.172.1.1:1883,1551659115104,PRODUCED
Publisher_001,topicA,topicA-262,172.172.1.1:1883,1551659115204,PRODUCED
Publisher_001,topicA,topicA-263,172.172.1.1:1883,1551659115304,PRODUCED
Publisher_001,topicA,topicA-264,172.172.1.1:1883,1551659115414,PRODUCED
Publisher_001,topicA,topicA-265,172.172.1.1:1883,1551659115504,PRODUCED
Publisher_001,topicA,topicA-266,172.172.1.1:1883,1551659115604,PRODUCED
Publisher_001,topicA,topicA-267,172.172.1.1:1883,1551659115704,PRODUCED
Publisher_001,topicA,topicA-268,172.172.1.1:1883,1551659115804,PRODUCED
Publisher_001,topicA,topicA-269,172.172.1.1:1883,1551659115904,PRODUCED
Publisher_001,topicA,topicA-270,172.172.1.1:1883,1551659116004,PRODUCED
Publisher_001,topicA,topicA-271,172.172.1.1:1883,1551659116104,PRODUCED
Publisher_001,topicA,topicA-272,172.172.1.1:1883,1551659116204,PRODUCED
Publisher_001,topicA,topicA-273,172.172.1.1:1883,1551659116304,PRODUCED
Publisher_001,topicA,topicA-274,172.172.1.1:1883,1551659116404,PRODUCED
Publisher_001,topicA,topicA-275,172.172.1.1:1883,1551659116504,PRODUCED
Publisher_001,topicA,topicA-276,172.172.1.1:1883,1551659116605,PRODUCED
Publisher_001,topicA,topicA-277,172.172.1.1:1883,1551659116704,PRODUCED
Publisher_001,topicA,topicA-278,172.172.1.1:1883,1551659116804,PRODUCED
Publisher_001,topicA,topicA-279,172.172.1.1:1883,1551659116903,PRODUCED
Publisher_001,topicA,topicA-280,172.172.1.1:1883,1551659117004,PRODUCED
Publisher_001,topicA,topicA-281,172.172.1.1:1883,1551659117105,PRODUCED
Publisher_001,topicA,topicA-282,172.172.1.1:1883,1551659117204,PRODUCED
Publisher_001,topicA,topicA-283,172.172.1.1:1883,1551659117304,PRODUCED
Publisher_001,topicA,topicA-284,172.172.1.1:1883,1551659117404,PRODUCED
Publisher_001,topicA,topicA-285,172.172.1.1:1883,1551659117508,PRODUCED
Publisher_001,topicA,topicA-286,172.172.1.1:1883,1551659117604,PRODUCED
Publisher_001,topicA,topicA-287,172.172.1.1:1883,1551659117704,PRODUCED
Publisher_001,topicA,topicA-288,172.172.1.1:1883,1551659117804,PRODUCED
Publisher_001,topicA,topicA-289,172.172.1.1:1883,1551659117904,PRODUCED
Publisher_001,topicA,topicA-290,172.172.1.1:1883,1551659118004,PRODUCED
Publisher_001,topicA,topicA-291,172.172.1.1:1883,1551659118104,PRODUCED
Publisher_001,topicA,topicA-292,172.172.1.1:1883,1551659118204,PRODUCED
Publisher_001,topicA,topicA-293,172.172.1.1:1883,1551659118304,PRODUCED
Publisher_001,topicA,topicA-294,172.172.1.1:1883,1551659118404,PRODUCED
Publisher_001,topicA,topicA-295,172.172.1.1:1883,1551659118504,PRODUCED
Publisher_001,topicA,topicA-296,172.172.1.1:1883,1551659118603,PRODUCED
Publisher_001,topicA,topicA-297,172.172.1.1:1883,1551659118704,PRODUCED
Publisher_001,topicA,topicA-298,172.172.1.1:1883,1551659118804,PRODUCED
Publisher_001,topicA,topicA-299,172.172.1.1:1883,1551659118904,PRODUCED
Publisher_001,topicA,topicA-300,172.172.1.1:1883,1551659119004,PRODUCED
Publisher_001,topicA,topicA-301,172.172.1.1:1883,1551659119106,PRODUCED
Publisher_001,topicA,topicA-302,172.172.1.1:1883,1551659119203,PRODUCED
Publisher_001,topicA,topicA-303,172.172.1.1:1883,1551659119305,PRODUCED
Publisher_001,topicA,topicA-304,172.172.1.1:1883,1551659119404,PRODUCED
Publisher_001,topicA,topicA-305,172.172.1.1:1883,1551659119504,PRODUCED
Publisher_001,topicA,topicA-306,172.172.1.1:1883,1551659119606,PRODUCED
Publisher_001,topicA,topicA-307,172.172.1.1:1883,1551659119704,PRODUCED
Publisher_001,topicA,topicA-308,172.172.1.1:1883,1551659119808,PRODUCED
Publisher_001,topicA,topicA-309,172.172.1.1:1883,1551659119905,PRODUCED
Publisher_001,topicA,topicA-310,172.172.1.1:1883,1551659120004,PRODUCED
Publisher_001,topicA,topicA-311,172.172.1.1:1883,1551659120104,PRODUCED
Publisher_001,topicA,topicA-312,172.172.1.1:1883,1551659120204,PRODUCED
Publisher_001,topicA,topicA-313,172.172.1.1:1883,1551659120304,PRODUCED
Publisher_001,topicA,topicA-314,172.172.1.1:1883,1551659120403,PRODUCED
Publisher_001,topicA,topicA-315,172.172.1.1:1883,1551659120511,PRODUCED
Publisher_001,topicA,topicA-316,172.172.1.1:1883,1551659120604,PRODUCED
Publisher_001,topicA,topicA-317,172.172.1.1:1883,1551659120704,PRODUCED
Publisher_001,topicA,topicA-318,172.172.1.1:1883,1551659120808,PRODUCED
Publisher_001,topicA,topicA-319,172.172.1.1:1883,1551659120911,PRODUCED
Publisher_001,topicA,topicA-320,172.172.1.1:1883,1551659121004,PRODUCED
Publisher_001,topicA,topicA-321,172.172.1.1:1883,1551659121107,PRODUCED
Publisher_001,topicA,topicA-322,172.172.1.1:1883,1551659121204,PRODUCED
Publisher_001,topicA,topicA-323,172.172.1.1:1883,1551659121304,PRODUCED
Publisher_001,topicA,topicA-324,172.172.1.1:1883,1551659121404,PRODUCED
Publisher_001,topicA,topicA-325,172.172.1.1:1883,1551659121512,PRODUCED
Publisher_001,topicA,topicA-326,172.172.1.1:1883,1551659121604,PRODUCED
Publisher_001,topicA,topicA-327,172.172.1.1:1883,1551659121704,PRODUCED
Publisher_001,topicA,topicA-328,172.172.1.1:1883,1551659121804,PRODUCED
Publisher_001,topicA,topicA-329,172.172.1.1:1883,1551659121905,PRODUCED
Publisher_001,topicA,topicA-330,172.172.1.1:1883,1551659122003,PRODUCED
Publisher_001,topicA,topicA-331,172.172.1.1:1883,1551659122104,PRODUCED
Publisher_001,topicA,topicA-332,172.172.1.1:1883,1551659122204,PRODUCED
Publisher_001,topicA,topicA-333,172.172.1.1:1883,1551659122303,PRODUCED
Publisher_001,topicA,topicA-334,172.172.1.1:1883,1551659122404,PRODUCED
Publisher_001,topicA,topicA-335,172.172.1.1:1883,1551659122504,PRODUCED
Publisher_001,topicA,topicA-336,172.172.1.1:1883,1551659122604,PRODUCED
Publisher_001,topicA,topicA-337,172.172.1.1:1883,1551659122704,PRODUCED
Publisher_001,topicA,topicA-338,172.172.1.1:1883,1551659122804,PRODUCED
Publisher_001,topicA,topicA-339,172.172.1.1:1883,1551659122904,PRODUCED
Publisher_001,topicA,topicA-340,172.172.1.1:1883,1551659123004,PRODUCED
Publisher_001,topicA,topicA-341,172.172.1.1:1883,1551659123104,PRODUCED
Publisher_001,topicA,topicA-342,172.172.1.1:1883,1551659123204,PRODUCED
Publisher_001,topicA,topicA-343,172.172.1.1:1883,1551659123304,PRODUCED
Publisher_001,topicA,topicA-344,172.172.1.1:1883,1551659123404,PRODUCED
Publisher_001,topicA,topicA-345,172.172.1.1:1883,1551659123504,PRODUCED
Publisher_001,topicA,topicA-346,172.172.1.1:1883,1551659123604,PRODUCED
Publisher_001,topicA,topicA-347,172.172.1.1:1883,1551659123704,PRODUCED
Publisher_001,topicA,topicA-348,172.172.1.1:1883,1551659123804,PRODUCED
Publisher_001,topicA,topicA-349,172.172.1.1:1883,1551659123910,PRODUCED
Publisher_001,topicA,topicA-350,172.172.1.1:1883,1551659124004,PRODUCED
Publisher_001,topicA,topicA-351,172.172.1.1:1883,1551659124104,PRODUCED
Publisher_001,topicA,topicA-352,172.172.1.1:1883,1551659124204,PRODUCED
Publisher_001,topicA,topicA-353,172.172.1.1:1883,1551659124305,PRODUCED
Publisher_001,topicA,topicA-354,172.172.1.1:1883,1551659124404,PRODUCED
Publisher_001,topicA,topicA-355,172.172.1.1:1883,1551659124504,PRODUCED
Publisher_001,topicA,topicA-356,172.172.1.1:1883,1551659124605,PRODUCED
Publisher_001,topicA,topicA-357,172.172.1.1:1883,1551659124704,PRODUCED
Publisher_001,topicA,topicA-358,172.172.1.1:1883,1551659124804,PRODUCED
Publisher_001,topicA,topicA-359,172.172.1.1:1883,1551659124904,PRODUCED
Publisher_001,topicA,topicA-360,172.172.1.1:1883,1551659125004,PRODUCED
Publisher_001,topicA,topicA-361,172.172.1.1:1883,1551659125104,PRODUCED
Publisher_001,topicA,topicA-362,172.172.1.1:1883,1551659125205,PRODUCED
Publisher_001,topicA,topicA-363,172.172.1.1:1883,1551659125304,PRODUCED
Publisher_001,topicA,topicA-364,172.172.1.1:1883,1551659125404,PRODUCED
Publisher_001,topicA,topicA-365,172.172.1.1:1883,1551659125504,PRODUCED
Publisher_001,topicA,topicA-366,172.172.1.1:1883,1551659125604,PRODUCED
Publisher_001,topicA,topicA-367,172.172.1.1:1883,1551659125705,PRODUCED
Publisher_001,topicA,topicA-368,172.172.1.1:1883,1551659125804,PRODUCED
Publisher_001,topicA,topicA-369,172.172.1.1:1883,1551659125905,PRODUCED
Publisher_001,topicA,topicA-370,172.172.1.1:1883,1551659126004,PRODUCED
Publisher_001,topicA,topicA-371,172.172.1.1:1883,1551659126104,PRODUCED
Publisher_001,topicA,topicA-372,172.172.1.1:1883,1551659126205,PRODUCED
Publisher_001,topicA,topicA-373,172.172.1.1:1883,1551659126304,PRODUCED
Publisher_001,topicA,topicA-374,172.172.1.1:1883,1551659126403,PRODUCED
Publisher_001,topicA,topicA-375,172.172.1.1:1883,1551659126503,PRODUCED
Publisher_001,topicA,topicA-376,172.172.1.1:1883,1551659126604,PRODUCED
Publisher_001,topicA,topicA-377,172.172.1.1:1883,1551659126704,PRODUCED
Publisher_001,topicA,topicA-378,172.172.1.1:1883,1551659126805,PRODUCED
Publisher_001,topicA,topicA-379,172.172.1.1:1883,1551659126904,PRODUCED
Publisher_001,topicA,topicA-380,172.172.1.1:1883,1551659127004,PRODUCED
Publisher_001,topicA,topicA-381,172.172.1.1:1883,1551659127104,PRODUCED
Publisher_001,topicA,topicA-382,172.172.1.1:1883,1551659127204,PRODUCED
Publisher_001,topicA,topicA-383,172.172.1.1:1883,1551659127304,PRODUCED
Publisher_001,topicA,topicA-384,172.172.1.1:1883,1551659127406,PRODUCED
Publisher_001,topicA,topicA-385,172.172.1.1:1883,1551659127504,PRODUCED
Publisher_001,topicA,topicA-386,172.172.1.1:1883,1551659127603,PRODUCED
Publisher_001,topicA,topicA-387,172.172.1.1:1883,1551659127704,PRODUCED
Publisher_001,topicA,topicA-388,172.172.1.1:1883,1551659127804,PRODUCED
Publisher_001,topicA,topicA-389,172.172.1.1:1883,1551659127904,PRODUCED
Publisher_001,topicA,topicA-390,172.172.1.1:1883,1551659128004,PRODUCED
Publisher_001,topicA,topicA-391,172.172.1.1:1883,1551659128104,PRODUCED
Publisher_001,topicA,topicA-392,172.172.1.1:1883,1551659128204,PRODUCED
Publisher_001,topicA,topicA-393,172.172.1.1:1883,1551659128303,PRODUCED
Publisher_001,topicA,topicA-394,172.172.1.1:1883,1551659128403,PRODUCED
Publisher_001,topicA,topicA-395,172.172.1.1:1883,1551659128503,PRODUCED
Publisher_001,topicA,topicA-396,172.172.1.1:1883,1551659128604,PRODUCED
Publisher_001,topicA,topicA-397,172.172.1.1:1883,1551659128704,PRODUCED
Publisher_001,topicA,topicA-398,172.172.1.1:1883,1551659128804,PRODUCED
Publisher_001,topicA,topicA-399,172.172.1.1:1883,1551659128904,PRODUCED
Publisher_001,topicA,topicA-400,172.172.1.1:1883,1551659129004,PRODUCED
Publisher_001,topicA,topicA-401,172.172.1.1:1883,1551659129104,PRODUCED
Publisher_001,topicA,topicA-402,172.172.1.1:1883,1551659129204,PRODUCED
Publisher_001,topicA,topicA-403,172.172.1.1:1883,1551659129303,PRODUCED
Publisher_001,topicA,topicA-404,172.172.1.1:1883,1551659129404,PRODUCED
Publisher_001,topicA,topicA-405,172.172.1.1:1883,1551659129504,PRODUCED
Publisher_001,topicA,topicA-406,172.172.1.1:1883,1551659129603,PRODUCED
Publisher_001,topicA,topicA-407,172.172.1.1:1883,1551659129704,PRODUCED
Publisher_001,topicA,topicA-408,172.172.1.1:1883,1551659129804,PRODUCED
Publisher_001,topicA,topicA-409,172.172.1.1:1883,1551659129904,PRODUCED
Publisher_001,topicA,topicA-410,172.172.1.1:1883,1551659130004,PRODUCED
Publisher_001,topicA,topicA-411,172.172.1.1:1883,1551659130103,PRODUCED
Publisher_001,topicA,topicA-412,172.172.1.1:1883,1551659130203,PRODUCED
Publisher_001,topicA,topicA-413,172.172.1.1:1883,1551659130304,PRODUCED
Publisher_001,topicA,topicA-414,172.172.1.1:1883,1551659130403,PRODUCED
Publisher_001,topicA,topicA-415,172.172.1.1:1883,1551659130503,PRODUCED
Publisher_001,topicA,topicA-416,172.172.1.1:1883,1551659130604,PRODUCED
Publisher_001,topicA,topicA-417,172.172.1.1:1883,1551659130704,PRODUCED
Publisher_001,topicA,topicA-418,172.172.1.1:1883,1551659130803,PRODUCED
Publisher_001,topicA,topicA-419,172.172.1.1:1883,1551659130905,PRODUCED
Publisher_001,topicA,topicA-420,172.172.1.1:1883,1551659131004,PRODUCED
Publisher_001,topicA,topicA-421,172.172.1.1:1883,1551659131105,PRODUCED
Publisher_001,topicA,topicA-422,172.172.1.1:1883,1551659131204,PRODUCED
Publisher_001,topicA,topicA-423,172.172.1.1:1883,1551659131304,PRODUCED
Publisher_001,topicA,topicA-424,172.172.1.1:1883,1551659131404,PRODUCED
Publisher_001,topicA,topicA-425,172.172.1.1:1883,1551659131505,PRODUCED
Publisher_001,topicA,topicA-426,172.172.1.1:1883,1551659131603,PRODUCED
Publisher_001,topicA,topicA-427,172.172.1.1:1883,1551659131704,PRODUCED
Publisher_001,topicA,topicA-428,172.172.1.1:1883,1551659131804,PRODUCED
Publisher_001,topicA,topicA-429,172.172.1.1:1883,1551659131904,PRODUCED
Publisher_001,topicA,topicA-430,172.172.1.1:1883,1551659132004,PRODUCED
Publisher_001,topicA,topicA-431,172.172.1.1:1883,1551659132104,PRODUCED
Publisher_001,topicA,topicA-432,172.172.1.1:1883,1551659132204,PRODUCED
Publisher_001,topicA,topicA-433,172.172.1.1:1883,1551659132304,PRODUCED
Publisher_001,topicA,topicA-434,172.172.1.1:1883,1551659132404,PRODUCED
Publisher_001,topicA,topicA-435,172.172.1.1:1883,1551659132504,PRODUCED
Publisher_001,topicA,topicA-436,172.172.1.1:1883,1551659132604,PRODUCED
Publisher_001,topicA,topicA-437,172.172.1.1:1883,1551659132704,PRODUCED
Publisher_001,topicA,topicA-438,172.172.1.1:1883,1551659132804,PRODUCED
Publisher_001,topicA,topicA-439,172.172.1.1:1883,1551659132904,PRODUCED
Publisher_001,topicA,topicA-440,172.172.1.1:1883,1551659133004,PRODUCED
Publisher_001,topicA,topicA-441,172.172.1.1:1883,1551659133104,PRODUCED
Publisher_001,topicA,topicA-442,172.172.1.1:1883,1551659133207,PRODUCED
Publisher_001,topicA,topicA-443,172.172.1.1:1883,1551659133304,PRODUCED
Publisher_001,topicA,topicA-444,172.172.1.1:1883,1551659133405,PRODUCED
Publisher_001,topicA,topicA-445,172.172.1.1:1883,1551659133504,PRODUCED
Publisher_001,topicA,topicA-446,172.172.1.1:1883,1551659133604,PRODUCED
Publisher_001,topicA,topicA-447,172.172.1.1:1883,1551659133707,PRODUCED
Publisher_001,topicA,topicA-448,172.172.1.1:1883,1551659133804,PRODUCED
Publisher_001,topicA,topicA-449,172.172.1.1:1883,1551659133904,PRODUCED
Publisher_001,topicA,topicA-450,172.172.1.1:1883,1551659134005,PRODUCED
Publisher_001,topicA,topicA-451,172.172.1.1:1883,1551659134106,PRODUCED
Publisher_001,topicA,topicA-452,172.172.1.1:1883,1551659134204,PRODUCED
Publisher_001,topicA,topicA-453,172.172.1.1:1883,1551659134304,PRODUCED
Publisher_001,topicA,topicA-454,172.172.1.1:1883,1551659134408,PRODUCED
Publisher_001,topicA,topicA-455,172.172.1.1:1883,1551659134504,PRODUCED
Publisher_001,topicA,topicA-456,172.172.1.1:1883,1551659134604,PRODUCED
Publisher_001,topicA,topicA-457,172.172.1.1:1883,1551659134703,PRODUCED
Publisher_001,topicA,topicA-458,172.172.1.1:1883,1551659134804,PRODUCED
Publisher_001,topicA,topicA-459,172.172.1.1:1883,1551659134904,PRODUCED
Publisher_001,topicA,topicA-460,172.172.1.1:1883,1551659135003,PRODUCED
Publisher_001,topicA,topicA-461,172.172.1.1:1883,1551659135104,PRODUCED
Publisher_001,topicA,topicA-462,172.172.1.1:1883,1551659135205,PRODUCED
Publisher_001,topicA,topicA-463,172.172.1.1:1883,1551659135304,PRODUCED
Publisher_001,topicA,topicA-464,172.172.1.1:1883,1551659135404,PRODUCED
Publisher_001,topicA,topicA-465,172.172.1.1:1883,1551659135504,PRODUCED
Publisher_001,topicA,topicA-466,172.172.1.1:1883,1551659135605,PRODUCED
Publisher_001,topicA,topicA-467,172.172.1.1:1883,1551659135704,PRODUCED
Publisher_001,topicA,topicA-468,172.172.1.1:1883,1551659135804,PRODUCED
Publisher_001,topicA,topicA-469,172.172.1.1:1883,1551659135904,PRODUCED
Publisher_001,topicA,topicA-470,172.172.1.1:1883,1551659136004,PRODUCED
Publisher_001,topicA,topicA-471,172.172.1.1:1883,1551659136104,PRODUCED
Publisher_001,topicA,topicA-472,172.172.1.1:1883,1551659136205,PRODUCED
Publisher_001,topicA,topicA-473,172.172.1.1:1883,1551659136304,PRODUCED
Publisher_001,topicA,topicA-474,172.172.1.1:1883,1551659136405,PRODUCED
Publisher_001,topicA,topicA-475,172.172.1.1:1883,1551659136504,PRODUCED
Publisher_001,topicA,topicA-476,172.172.1.1:1883,1551659136604,PRODUCED
Publisher_001,topicA,topicA-477,172.172.1.1:1883,1551659136704,PRODUCED
Publisher_001,topicA,topicA-478,172.172.1.1:1883,1551659136804,PRODUCED
Publisher_001,topicA,topicA-479,172.172.1.1:1883,1551659136904,PRODUCED
Publisher_001,topicA,topicA-480,172.172.1.1:1883,1551659137006,PRODUCED
Publisher_001,topicA,topicA-481,172.172.1.1:1883,1551659137104,PRODUCED
Publisher_001,topicA,topicA-482,172.172.1.1:1883,1551659137207,PRODUCED
Publisher_001,topicA,topicA-483,172.172.1.1:1883,1551659137304,PRODUCED
Publisher_001,topicA,topicA-484,172.172.1.1:1883,1551659137404,PRODUCED
Publisher_001,topicA,topicA-485,172.172.1.1:1883,1551659137504,PRODUCED
Publisher_001,topicA,topicA-486,172.172.1.1:1883,1551659137604,PRODUCED
Publisher_001,topicA,topicA-487,172.172.1.1:1883,1551659137705,PRODUCED
Publisher_001,topicA,topicA-488,172.172.1.1:1883,1551659137805,PRODUCED
Publisher_001,topicA,topicA-489,172.172.1.1:1883,1551659137904,PRODUCED
Publisher_001,topicA,topicA-490,172.172.1.1:1883,1551659138005,PRODUCED
Publisher_001,topicA,topicA-491,172.172.1.1:1883,1551659138105,PRODUCED
Publisher_001,topicA,topicA-492,172.172.1.1:1883,1551659138204,PRODUCED
Publisher_001,topicA,topicA-493,172.172.1.1:1883,1551659138304,PRODUCED
Publisher_001,topicA,topicA-494,172.172.1.1:1883,1551659138405,PRODUCED
Publisher_001,topicA,topicA-495,172.172.1.1:1883,1551659138504,PRODUCED
Publisher_001,topicA,topicA-496,172.172.1.1:1883,1551659138604,PRODUCED
Publisher_001,topicA,topicA-497,172.172.1.1:1883,1551659138704,PRODUCED
Publisher_001,topicA,topicA-498,172.172.1.1:1883,1551659138805,PRODUCED
Publisher_001,topicA,topicA-499,172.172.1.1:1883,1551659138904,PRODUCED
Publisher_001,topicA,topicA-500,172.172.1.1:1883,1551659139004,PRODUCED
Publisher_001,topicA,topicA-501,172.172.1.1:1883,1551659139105,PRODUCED
Publisher_001,topicA,topicA-502,172.172.1.1:1883,1551659139204,PRODUCED
Publisher_001,topicA,topicA-503,172.172.1.1:1883,1551659139304,PRODUCED
Publisher_001,topicA,topicA-504,172.172.1.1:1883,1551659139404,PRODUCED
Publisher_001,topicA,topicA-505,172.172.1.1:1883,1551659139504,PRODUCED
Publisher_001,topicA,topicA-506,172.172.1.1:1883,1551659139604,PRODUCED
Publisher_001,topicA,topicA-507,172.172.1.1:1883,1551659139704,PRODUCED
Publisher_001,topicA,topicA-508,172.172.1.1:1883,1551659139804,PRODUCED
Publisher_001,topicA,topicA-509,172.172.1.1:1883,1551659139904,PRODUCED
Publisher_001,topicA,topicA-510,172.172.1.1:1883,1551659140005,PRODUCED
Publisher_001,topicA,topicA-511,172.172.1.1:1883,1551659140107,PRODUCED
Publisher_001,topicA,topicA-512,172.172.1.1:1883,1551659140204,PRODUCED
Publisher_001,topicA,topicA-513,172.172.1.1:1883,1551659140304,PRODUCED
Publisher_001,topicA,topicA-514,172.172.1.1:1883,1551659140404,PRODUCED
Publisher_001,topicA,topicA-515,172.172.1.1:1883,1551659140504,PRODUCED
Publisher_001,topicA,topicA-516,172.172.1.1:1883,1551659140605,PRODUCED
Publisher_001,topicA,topicA-517,172.172.1.1:1883,1551659140704,PRODUCED
Publisher_001,topicA,topicA-518,172.172.1.1:1883,1551659140805,PRODUCED
Publisher_001,topicA,topicA-519,172.172.1.1:1883,1551659140904,PRODUCED
Publisher_001,topicA,topicA-520,172.172.1.1:1883,1551659141003,PRODUCED
Publisher_001,topicA,topicA-521,172.172.1.1:1883,1551659141104,PRODUCED
Publisher_001,topicA,topicA-522,172.172.1.1:1883,1551659141204,PRODUCED
Publisher_001,topicA,topicA-523,172.172.1.1:1883,1551659141304,PRODUCED
Publisher_001,topicA,topicA-524,172.172.1.1:1883,1551659141404,PRODUCED
Publisher_001,topicA,topicA-525,172.172.1.1:1883,1551659141504,PRODUCED
Publisher_001,topicA,topicA-526,172.172.1.1:1883,1551659141604,PRODUCED
Publisher_001,topicA,topicA-527,172.172.1.1:1883,1551659141704,PRODUCED
Publisher_001,topicA,topicA-528,172.172.1.1:1883,1551659141803,PRODUCED
Publisher_001,topicA,topicA-529,172.172.1.1:1883,1551659141904,PRODUCED
Publisher_001,topicA,topicA-530,172.172.1.1:1883,1551659142006,PRODUCED
Publisher_001,topicA,topicA-531,172.172.1.1:1883,1551659142104,PRODUCED
Publisher_001,topicA,topicA-532,172.172.1.1:1883,1551659142204,PRODUCED
Publisher_001,topicA,topicA-533,172.172.1.1:1883,1551659142304,PRODUCED
Publisher_001,topicA,topicA-534,172.172.1.1:1883,1551659142404,PRODUCED
Publisher_001,topicA,topicA-535,172.172.1.1:1883,1551659142504,PRODUCED
Publisher_001,topicA,topicA-536,172.172.1.1:1883,1551659142605,PRODUCED
Publisher_001,topicA,topicA-537,172.172.1.1:1883,1551659142704,PRODUCED
Publisher_001,topicA,topicA-538,172.172.1.1:1883,1551659142804,PRODUCED
Publisher_001,topicA,topicA-539,172.172.1.1:1883,1551659142904,PRODUCED
Publisher_001,topicA,topicA-540,172.172.1.1:1883,1551659143004,PRODUCED
Publisher_001,topicA,topicA-541,172.172.1.1:1883,1551659143104,PRODUCED
Publisher_001,topicA,topicA-542,172.172.1.1:1883,1551659143204,PRODUCED
Publisher_001,topicA,topicA-543,172.172.1.1:1883,1551659143304,PRODUCED
Publisher_001,topicA,topicA-544,172.172.1.1:1883,1551659143405,PRODUCED
Publisher_001,topicA,topicA-545,172.172.1.1:1883,1551659143505,PRODUCED
Publisher_001,topicA,topicA-546,172.172.1.1:1883,1551659143604,PRODUCED
Publisher_001,topicA,topicA-547,172.172.1.1:1883,1551659143706,PRODUCED
Publisher_001,topicA,topicA-548,172.172.1.1:1883,1551659143804,PRODUCED
Publisher_001,topicA,topicA-549,172.172.1.1:1883,1551659143904,PRODUCED
Publisher_001,topicA,topicA-550,172.172.1.1:1883,1551659144004,PRODUCED
Publisher_001,topicA,topicA-551,172.172.1.1:1883,1551659144105,PRODUCED
Publisher_001,topicA,topicA-552,172.172.1.1:1883,1551659144204,PRODUCED
Publisher_001,topicA,topicA-553,172.172.1.1:1883,1551659144305,PRODUCED
Publisher_001,topicA,topicA-554,172.172.1.1:1883,1551659144404,PRODUCED
Publisher_001,topicA,topicA-555,172.172.1.1:1883,1551659144504,PRODUCED
Publisher_001,topicA,topicA-556,172.172.1.1:1883,1551659144604,PRODUCED
Publisher_001,topicA,topicA-557,172.172.1.1:1883,1551659144704,PRODUCED
Publisher_001,topicA,topicA-558,172.172.1.1:1883,1551659144804,PRODUCED
Publisher_001,topicA,topicA-559,172.172.1.1:1883,1551659144905,PRODUCED
Publisher_001,topicA,topicA-560,172.172.1.1:1883,1551659145005,PRODUCED
Publisher_001,topicA,topicA-561,172.172.1.1:1883,1551659145104,PRODUCED
Publisher_001,topicA,topicA-562,172.172.1.1:1883,1551659145204,PRODUCED
Publisher_001,topicA,topicA-563,172.172.1.1:1883,1551659145304,PRODUCED
Publisher_001,topicA,topicA-564,172.172.1.1:1883,1551659145404,PRODUCED
Publisher_001,topicA,topicA-565,172.172.1.1:1883,1551659145504,PRODUCED
Publisher_001,topicA,topicA-566,172.172.1.1:1883,1551659145604,PRODUCED
Publisher_001,topicA,topicA-567,172.172.1.1:1883,1551659145704,PRODUCED
Publisher_001,topicA,topicA-568,172.172.1.1:1883,1551659145804,PRODUCED
Publisher_001,topicA,topicA-569,172.172.1.1:1883,1551659145905,PRODUCED
Publisher_001,topicA,topicA-570,172.172.1.1:1883,1551659146004,PRODUCED
Publisher_001,topicA,topicA-571,172.172.1.1:1883,1551659146105,PRODUCED
Publisher_001,topicA,topicA-572,172.172.1.1:1883,1551659146205,PRODUCED
Publisher_001,topicA,topicA-573,172.172.1.1:1883,1551659146304,PRODUCED
Publisher_001,topicA,topicA-574,172.172.1.1:1883,1551659146405,PRODUCED
Publisher_001,topicA,topicA-575,172.172.1.1:1883,1551659146504,PRODUCED
Publisher_001,topicA,topicA-576,172.172.1.1:1883,1551659146604,PRODUCED
Publisher_001,topicA,topicA-577,172.172.1.1:1883,1551659146705,PRODUCED
Publisher_001,topicA,topicA-578,172.172.1.1:1883,1551659146804,PRODUCED
Publisher_001,topicA,topicA-579,172.172.1.1:1883,1551659146904,PRODUCED
Publisher_001,topicA,topicA-580,172.172.1.1:1883,1551659147004,PRODUCED
Publisher_001,topicA,topicA-581,172.172.1.1:1883,1551659147105,PRODUCED
Publisher_001,topicA,topicA-582,172.172.1.1:1883,1551659147204,PRODUCED
Publisher_001,topicA,topicA-583,172.172.1.1:1883,1551659147304,PRODUCED
Publisher_001,topicA,topicA-584,172.172.1.1:1883,1551659147404,PRODUCED
Publisher_001,topicA,topicA-585,172.172.1.1:1883,1551659147505,PRODUCED
Publisher_001,topicA,topicA-586,172.172.1.1:1883,1551659147604,PRODUCED
Publisher_001,topicA,topicA-587,172.172.1.1:1883,1551659147704,PRODUCED
Publisher_001,topicA,topicA-588,172.172.1.1:1883,1551659147805,PRODUCED
Publisher_001,topicA,topicA-589,172.172.1.1:1883,1551659147904,PRODUCED
Publisher_001,topicA,topicA-590,172.172.1.1:1883,1551659148004,PRODUCED
Publisher_001,topicA,topicA-591,172.172.1.1:1883,1551659148104,PRODUCED
Publisher_001,topicA,topicA-592,172.172.1.1:1883,1551659148204,PRODUCED
Publisher_001,topicA,topicA-593,172.172.1.1:1883,1551659148304,PRODUCED
Publisher_001,topicA,topicA-594,172.172.1.1:1883,1551659148405,PRODUCED
Publisher_001,topicA,topicA-595,172.172.1.1:1883,1551659148504,PRODUCED
Publisher_001,topicA,topicA-596,172.172.1.1:1883,1551659148605,PRODUCED
Publisher_001,topicA,topicA-597,172.172.1.1:1883,1551659148704,PRODUCED
Publisher_001,topicA,topicA-598,172.172.1.1:1883,1551659148804,PRODUCED
Publisher_001,topicA,topicA-599,172.172.1.1:1883,1551659148904,PRODUCED
Publisher_001,topicA,topicA-600,172.172.1.1:1883,1551659149004,PRODUCED
Publisher_001,topicA,topicA-601,172.172.1.1:1883,1551659149104,PRODUCED
Publisher_001,topicA,topicA-602,172.172.1.1:1883,1551659149205,PRODUCED
Publisher_001,topicA,topicA-603,172.172.1.1:1883,1551659149304,PRODUCED
Publisher_001,topicA,topicA-604,172.172.1.1:1883,1551659149404,PRODUCED
Publisher_001,topicA,topicA-605,172.172.1.1:1883,1551659149504,PRODUCED
Publisher_001,topicA,topicA-606,172.172.1.1:1883,1551659149605,PRODUCED
Publisher_001,topicA,topicA-607,172.172.1.1:1883,1551659149704,PRODUCED
Publisher_001,topicA,topicA-608,172.172.1.1:1883,1551659149804,PRODUCED
Publisher_001,topicA,topicA-609,172.172.1.1:1883,1551659149905,PRODUCED
Publisher_001,topicA,topicA-610,172.172.1.1:1883,1551659150004,PRODUCED
Publisher_001,topicA,topicA-611,172.172.1.1:1883,1551659150104,PRODUCED
Publisher_001,topicA,topicA-612,172.172.1.1:1883,1551659150204,PRODUCED
Publisher_001,topicA,topicA-613,172.172.1.1:1883,1551659150304,PRODUCED
Publisher_001,topicA,topicA-614,172.172.1.1:1883,1551659150404,PRODUCED
Publisher_001,topicA,topicA-615,172.172.1.1:1883,1551659150504,PRODUCED
Publisher_001,topicA,topicA-616,172.172.1.1:1883,1551659150603,PRODUCED
Publisher_001,topicA,topicA-617,172.172.1.1:1883,1551659150704,PRODUCED
Publisher_001,topicA,topicA-618,172.172.1.1:1883,1551659150803,PRODUCED
Publisher_001,topicA,topicA-619,172.172.1.1:1883,1551659150903,PRODUCED
Publisher_001,topicA,topicA-620,172.172.1.1:1883,1551659151005,PRODUCED
Publisher_001,topicA,topicA-621,172.172.1.1:1883,1551659151104,PRODUCED
Publisher_001,topicA,topicA-622,172.172.1.1:1883,1551659151205,PRODUCED
Publisher_001,topicA,topicA-623,172.172.1.1:1883,1551659151304,PRODUCED
Publisher_001,topicA,topicA-624,172.172.1.1:1883,1551659151404,PRODUCED
Publisher_001,topicA,topicA-625,172.172.1.1:1883,1551659151504,PRODUCED
Publisher_001,topicA,topicA-626,172.172.1.1:1883,1551659151604,PRODUCED
Publisher_001,topicA,topicA-627,172.172.1.1:1883,1551659151707,PRODUCED
Publisher_001,topicA,topicA-628,172.172.1.1:1883,1551659151804,PRODUCED
Publisher_001,topicA,topicA-629,172.172.1.1:1883,1551659151904,PRODUCED
Publisher_001,topicA,topicA-630,172.172.1.1:1883,1551659152004,PRODUCED
Publisher_001,topicA,topicA-631,172.172.1.1:1883,1551659152104,PRODUCED
Publisher_001,topicA,topicA-632,172.172.1.1:1883,1551659152204,PRODUCED
Publisher_001,topicA,topicA-633,172.172.1.1:1883,1551659152303,PRODUCED
Publisher_001,topicA,topicA-634,172.172.1.1:1883,1551659152404,PRODUCED
Publisher_001,topicA,topicA-635,172.172.1.1:1883,1551659152505,PRODUCED
Publisher_001,topicA,topicA-636,172.172.1.1:1883,1551659152604,PRODUCED
Publisher_001,topicA,topicA-637,172.172.1.1:1883,1551659152703,PRODUCED
Publisher_001,topicA,topicA-638,172.172.1.1:1883,1551659152804,PRODUCED
Publisher_001,topicA,topicA-639,172.172.1.1:1883,1551659152904,PRODUCED
Publisher_001,topicA,topicA-640,172.172.1.1:1883,1551659153004,PRODUCED
Publisher_001,topicA,topicA-641,172.172.1.1:1883,1551659153104,PRODUCED
Publisher_001,topicA,topicA-642,172.172.1.1:1883,1551659153204,PRODUCED
Publisher_001,topicA,topicA-643,172.172.1.1:1883,1551659153304,PRODUCED
Publisher_001,topicA,topicA-644,172.172.1.1:1883,1551659153404,PRODUCED
Publisher_001,topicA,topicA-645,172.172.1.1:1883,1551659153504,PRODUCED
Publisher_001,topicA,topicA-646,172.172.1.1:1883,1551659153604,PRODUCED
Publisher_001,topicA,topicA-647,172.172.1.1:1883,1551659153704,PRODUCED
Publisher_001,topicA,topicA-648,172.172.1.1:1883,1551659153804,PRODUCED
Publisher_001,topicA,topicA-649,172.172.1.1:1883,1551659153904,PRODUCED
Publisher_001,topicA,topicA-650,172.172.1.1:1883,1551659154003,PRODUCED
Publisher_001,topicA,topicA-651,172.172.1.1:1883,1551659154104,PRODUCED
Publisher_001,topicA,topicA-652,172.172.1.1:1883,1551659154204,PRODUCED
Publisher_001,topicA,topicA-653,172.172.1.1:1883,1551659154303,PRODUCED
Publisher_001,topicA,topicA-654,172.172.1.1:1883,1551659154403,PRODUCED
Publisher_001,topicA,topicA-655,172.172.1.1:1883,1551659154503,PRODUCED
Publisher_001,topicA,topicA-656,172.172.1.1:1883,1551659154604,PRODUCED
Publisher_001,topicA,topicA-657,172.172.1.1:1883,1551659154704,PRODUCED
Publisher_001,topicA,topicA-658,172.172.1.1:1883,1551659154804,PRODUCED
Publisher_001,topicA,topicA-659,172.172.1.1:1883,1551659154907,PRODUCED
Publisher_001,topicA,topicA-660,172.172.1.1:1883,1551659155003,PRODUCED
Publisher_001,topicA,topicA-661,172.172.1.1:1883,1551659155104,PRODUCED
Publisher_001,topicA,topicA-662,172.172.1.1:1883,1551659155203,PRODUCED
