timestamp,event,migrationId
1551654530110,INITIALIZED,085df117-4ad9-4837-8426-9a29b772aabc
1551654530113,topicA-INITIALIZED,085df117-4ad9-4837-8426-9a29b772aabc
1551654530892,topicA-FINISHED,085df117-4ad9-4837-8426-9a29b772aabc
1551654530893,FINISHED,085df117-4ad9-4837-8426-9a29b772aabc
