clientId,topic,guid,broker,timestamp,type
Publisher_001,topicA,topicA-1,172.172.1.1:1883,1551651196006,PRODUCED
Publisher_001,topicA,topicA-2,172.172.1.1:1883,1551651196252,PRODUCED
Publisher_001,topicA,topicA-3,172.172.1.1:1883,1551651196257,PRODUCED
Publisher_001,topicA,topicA-4,172.172.1.1:1883,1551651196261,PRODUCED
Publisher_001,topicA,topicA-5,172.172.1.1:1883,1551651196265,PRODUCED
Publisher_001,topicA,topicA-6,172.172.1.1:1883,1551651196297,PRODUCED
Publisher_001,topicA,topicA-7,172.172.1.1:1883,1551651196397,PRODUCED
Publisher_001,topicA,topicA-8,172.172.1.1:1883,1551651196497,PRODUCED
Publisher_001,topicA,topicA-9,172.172.1.1:1883,1551651196596,PRODUCED
Publisher_001,topicA,topicA-10,172.172.1.1:1883,1551651196701,PRODUCED
Publisher_001,topicA,topicA-11,172.172.1.1:1883,1551651196800,PRODUCED
Publisher_001,topicA,topicA-12,172.172.1.1:1883,1551651196898,PRODUCED
Publisher_001,topicA,topicA-13,172.172.1.1:1883,1551651196999,PRODUCED
Publisher_001,topicA,topicA-14,172.172.1.1:1883,1551651197097,PRODUCED
Publisher_001,topicA,topicA-15,172.172.1.1:1883,1551651197199,PRODUCED
Publisher_001,topicA,topicA-16,172.172.1.1:1883,1551651197298,PRODUCED
Publisher_001,topicA,topicA-17,172.172.1.1:1883,1551651197399,PRODUCED
Publisher_001,topicA,topicA-18,172.172.1.1:1883,1551651197499,PRODUCED
Publisher_001,topicA,topicA-19,172.172.1.1:1883,1551651197599,PRODUCED
Publisher_001,topicA,topicA-20,172.172.1.1:1883,1551651197700,PRODUCED
Publisher_001,topicA,topicA-21,172.172.1.1:1883,1551651197797,PRODUCED
Publisher_001,topicA,topicA-22,172.172.1.1:1883,1551651197897,PRODUCED
Publisher_001,topicA,topicA-23,172.172.1.1:1883,1551651197997,PRODUCED
Publisher_001,topicA,topicA-24,172.172.1.1:1883,1551651198097,PRODUCED
Publisher_001,topicA,topicA-25,172.172.1.1:1883,1551651198198,PRODUCED
Publisher_001,topicA,topicA-26,172.172.1.1:1883,1551651198296,PRODUCED
Publisher_001,topicA,topicA-27,172.172.1.1:1883,1551651198397,PRODUCED
Publisher_001,topicA,topicA-28,172.172.1.1:1883,1551651198497,PRODUCED
Publisher_001,topicA,topicA-29,172.172.1.1:1883,1551651198597,PRODUCED
Publisher_001,topicA,topicA-30,172.172.1.1:1883,1551651198698,PRODUCED
Publisher_001,topicA,topicA-31,172.172.1.1:1883,1551651198796,PRODUCED
Publisher_001,topicA,topicA-32,172.172.1.1:1883,1551651198897,PRODUCED
Publisher_001,topicA,topicA-33,172.172.1.1:1883,1551651198997,PRODUCED
Publisher_001,topicA,topicA-34,172.172.1.1:1883,1551651199096,PRODUCED
Publisher_001,topicA,topicA-35,172.172.1.1:1883,1551651199196,PRODUCED
Publisher_001,topicA,topicA-36,172.172.1.1:1883,1551651199297,PRODUCED
Publisher_001,topicA,topicA-37,172.172.1.1:1883,1551651199397,PRODUCED
Publisher_001,topicA,topicA-38,172.172.1.1:1883,1551651199497,PRODUCED
Publisher_001,topicA,topicA-39,172.172.1.1:1883,1551651199597,PRODUCED
Publisher_001,topicA,topicA-40,172.172.1.1:1883,1551651199698,PRODUCED
Publisher_001,topicA,topicA-41,172.172.1.1:1883,1551651199798,PRODUCED
Publisher_001,topicA,topicA-42,172.172.1.1:1883,1551651199896,PRODUCED
Publisher_001,topicA,topicA-43,172.172.1.1:1883,1551651199998,PRODUCED
Publisher_001,topicA,topicA-44,172.172.1.1:1883,1551651200101,PRODUCED
Publisher_001,topicA,topicA-45,172.172.1.1:1883,1551651200198,PRODUCED
Publisher_001,topicA,topicA-46,172.172.1.1:1883,1551651200298,PRODUCED
Publisher_001,topicA,topicA-47,172.172.1.1:1883,1551651200398,PRODUCED
Publisher_001,topicA,topicA-48,172.172.1.1:1883,1551651200497,PRODUCED
Publisher_001,topicA,topicA-49,172.172.1.1:1883,1551651200597,PRODUCED
Publisher_001,topicA,topicA-50,172.172.1.1:1883,1551651200699,PRODUCED
Publisher_001,topicA,topicA-51,172.172.1.1:1883,1551651200799,PRODUCED
Publisher_001,topicA,topicA-52,172.172.1.1:1883,1551651200897,PRODUCED
Publisher_001,topicA,topicA-53,172.172.1.1:1883,1551651200998,PRODUCED
Publisher_001,topicA,topicA-54,172.172.1.1:1883,1551651201100,PRODUCED
Publisher_001,topicA,topicA-55,172.172.1.1:1883,1551651201198,PRODUCED
Publisher_001,topicA,topicA-56,172.172.1.1:1883,1551651201297,PRODUCED
Publisher_001,topicA,topicA-57,172.172.1.1:1883,1551651201397,PRODUCED
Publisher_001,topicA,topicA-58,172.172.1.1:1883,1551651201498,PRODUCED
Publisher_001,topicA,topicA-59,172.172.1.1:1883,1551651201597,PRODUCED
Publisher_001,topicA,topicA-60,172.172.1.1:1883,1551651201701,PRODUCED
Publisher_001,topicA,topicA-61,172.172.1.1:1883,1551651201797,PRODUCED
Publisher_001,topicA,topicA-62,172.172.1.1:1883,1551651201897,PRODUCED
Publisher_001,topicA,topicA-63,172.172.1.1:1883,1551651201997,PRODUCED
Publisher_001,topicA,topicA-64,172.172.1.1:1883,1551651202096,PRODUCED
Publisher_001,topicA,topicA-65,172.172.1.1:1883,1551651202197,PRODUCED
Publisher_001,topicA,topicA-66,172.172.1.1:1883,1551651202297,PRODUCED
Publisher_001,topicA,topicA-67,172.172.1.1:1883,1551651202397,PRODUCED
Publisher_001,topicA,topicA-68,172.172.1.1:1883,1551651202497,PRODUCED
Publisher_001,topicA,topicA-69,172.172.1.1:1883,1551651202597,PRODUCED
Publisher_001,topicA,topicA-70,172.172.1.1:1883,1551651202697,PRODUCED
Publisher_001,topicA,topicA-71,172.172.1.1:1883,1551651202797,PRODUCED
Publisher_001,topicA,topicA-72,172.172.1.1:1883,1551651202897,PRODUCED
Publisher_001,topicA,topicA-73,172.172.1.1:1883,1551651202997,PRODUCED
Publisher_001,topicA,topicA-74,172.172.1.1:1883,1551651203099,PRODUCED
Publisher_001,topicA,topicA-75,172.172.1.1:1883,1551651203197,PRODUCED
Publisher_001,topicA,topicA-76,172.172.1.1:1883,1551651203297,PRODUCED
Publisher_001,topicA,topicA-77,172.172.1.1:1883,1551651203397,PRODUCED
Publisher_001,topicA,topicA-78,172.172.1.1:1883,1551651203497,PRODUCED
Publisher_001,topicA,topicA-79,172.172.1.1:1883,1551651203597,PRODUCED
Publisher_001,topicA,topicA-80,172.172.1.1:1883,1551651203700,PRODUCED
Publisher_001,topicA,topicA-81,172.172.1.1:1883,1551651203797,PRODUCED
Publisher_001,topicA,topicA-82,172.172.1.1:1883,1551651203897,PRODUCED
Publisher_001,topicA,topicA-83,172.172.1.1:1883,1551651203998,PRODUCED
Publisher_001,topicA,topicA-84,172.172.1.1:1883,1551651204098,PRODUCED
Publisher_001,topicA,topicA-85,172.172.1.1:1883,1551651204197,PRODUCED
Publisher_001,topicA,topicA-86,172.172.1.1:1883,1551651204302,PRODUCED
Publisher_001,topicA,topicA-87,172.172.1.1:1883,1551651204397,PRODUCED
Publisher_001,topicA,topicA-88,172.172.1.1:1883,1551651204497,PRODUCED
Publisher_001,topicA,topicA-89,172.172.1.1:1883,1551651204598,PRODUCED
Publisher_001,topicA,topicA-90,172.172.1.1:1883,1551651204700,PRODUCED
Publisher_001,topicA,topicA-91,172.172.1.1:1883,1551651204797,PRODUCED
Publisher_001,topicA,topicA-92,172.172.1.1:1883,1551651204896,PRODUCED
Publisher_001,topicA,topicA-93,172.172.1.1:1883,1551651204998,PRODUCED
Publisher_001,topicA,topicA-94,172.172.1.1:1883,1551651205097,PRODUCED
Publisher_001,topicA,topicA-95,172.172.1.1:1883,1551651205196,PRODUCED
Publisher_001,topicA,topicA-96,172.172.1.1:1883,1551651205297,PRODUCED
Publisher_001,topicA,topicA-97,172.172.1.1:1883,1551651205397,PRODUCED
Publisher_001,topicA,topicA-98,172.172.1.1:1883,1551651205497,PRODUCED
Publisher_001,topicA,topicA-99,172.172.1.1:1883,1551651205596,PRODUCED
Publisher_001,topicA,topicA-100,172.172.1.1:1883,1551651205697,PRODUCED
Publisher_001,topicA,topicA-101,172.172.1.1:1883,1551651205797,PRODUCED
Publisher_001,topicA,topicA-102,172.172.1.1:1883,1551651205897,PRODUCED
Publisher_001,topicA,topicA-103,172.172.1.1:1883,1551651206002,PRODUCED
Publisher_001,topicA,topicA-104,172.172.1.1:1883,1551651206110,PRODUCED
Publisher_001,topicA,topicA-105,172.172.1.1:1883,1551651206196,PRODUCED
Publisher_001,topicA,topicA-106,172.172.1.1:1883,1551651206296,PRODUCED
Publisher_001,topicA,topicA-107,172.172.1.1:1883,1551651206400,PRODUCED
Publisher_001,topicA,topicA-108,172.172.1.1:1883,1551651206498,PRODUCED
Publisher_001,topicA,topicA-109,172.172.1.1:1883,1551651206598,PRODUCED
Publisher_001,topicA,topicA-110,172.172.1.1:1883,1551651206697,PRODUCED
Publisher_001,topicA,topicA-111,172.172.1.1:1883,1551651206801,PRODUCED
Publisher_001,topicA,topicA-112,172.172.1.1:1883,1551651206898,PRODUCED
Publisher_001,topicA,topicA-113,172.172.1.1:1883,1551651206997,PRODUCED
Publisher_001,topicA,topicA-114,172.172.1.1:1883,1551651207098,PRODUCED
Publisher_001,topicA,topicA-115,172.172.1.1:1883,1551651207197,PRODUCED
Publisher_001,topicA,topicA-116,172.172.1.1:1883,1551651207296,PRODUCED
Publisher_001,topicA,topicA-117,172.172.1.1:1883,1551651207398,PRODUCED
Publisher_001,topicA,topicA-118,172.172.1.1:1883,1551651207497,PRODUCED
Publisher_001,topicA,topicA-119,172.172.1.1:1883,1551651207596,PRODUCED
Publisher_001,topicA,topicA-120,172.172.1.1:1883,1551651207696,PRODUCED
Publisher_001,topicA,topicA-121,172.172.1.1:1883,1551651207797,PRODUCED
Publisher_001,topicA,topicA-122,172.172.1.1:1883,1551651207900,PRODUCED
Publisher_001,topicA,topicA-123,172.172.1.1:1883,1551651207997,PRODUCED
Publisher_001,topicA,topicA-124,172.172.1.1:1883,1551651208099,PRODUCED
Publisher_001,topicA,topicA-125,172.172.1.1:1883,1551651208197,PRODUCED
Publisher_001,topicA,topicA-126,172.172.1.1:1883,1551651208297,PRODUCED
Publisher_001,topicA,topicA-127,172.172.1.1:1883,1551651208397,PRODUCED
Publisher_001,topicA,topicA-128,172.172.1.1:1883,1551651208501,PRODUCED
Publisher_001,topicA,topicA-129,172.172.1.1:1883,1551651208600,PRODUCED
Publisher_001,topicA,topicA-130,172.172.1.1:1883,1551651208699,PRODUCED
Publisher_001,topicA,topicA-131,172.172.1.1:1883,1551651208799,PRODUCED
Publisher_001,topicA,topicA-132,172.172.1.1:1883,1551651208897,PRODUCED
Publisher_001,topicA,topicA-133,172.172.1.1:1883,1551651208998,PRODUCED
Publisher_001,topicA,topicA-134,172.172.1.1:1883,1551651209097,PRODUCED
Publisher_001,topicA,topicA-135,172.172.1.1:1883,1551651209197,PRODUCED
Publisher_001,topicA,topicA-136,172.172.1.1:1883,1551651209297,PRODUCED
Publisher_001,topicA,topicA-137,172.172.1.1:1883,1551651209397,PRODUCED
Publisher_001,topicA,topicA-138,172.172.1.1:1883,1551651209497,PRODUCED
Publisher_001,topicA,topicA-139,172.172.1.1:1883,1551651209597,PRODUCED
Publisher_001,topicA,topicA-140,172.172.1.1:1883,1551651209697,PRODUCED
Publisher_001,topicA,topicA-141,172.172.1.1:1883,1551651209796,PRODUCED
Publisher_001,topicA,topicA-142,172.172.1.1:1883,1551651209899,PRODUCED
Publisher_001,topicA,topicA-143,172.172.1.1:1883,1551651209997,PRODUCED
Publisher_001,topicA,topicA-144,172.172.1.1:1883,1551651210097,PRODUCED
Publisher_001,topicA,topicA-145,172.172.1.1:1883,1551651210197,PRODUCED
Publisher_001,topicA,topicA-146,172.172.1.1:1883,1551651210296,PRODUCED
Publisher_001,topicA,topicA-147,172.172.1.1:1883,1551651210396,PRODUCED
Publisher_001,topicA,topicA-148,172.172.1.1:1883,1551651210497,PRODUCED
Publisher_001,topicA,topicA-149,172.172.1.1:1883,1551651210597,PRODUCED
Publisher_001,topicA,topicA-150,172.172.1.1:1883,1551651210697,PRODUCED
Publisher_001,topicA,topicA-151,172.172.1.1:1883,1551651210797,PRODUCED
Publisher_001,topicA,topicA-152,172.172.1.1:1883,1551651210898,PRODUCED
Publisher_001,topicA,topicA-153,172.172.1.1:1883,1551651210996,PRODUCED
Publisher_001,topicA,topicA-154,172.172.1.1:1883,1551651211097,PRODUCED
Publisher_001,topicA,topicA-155,172.172.1.1:1883,1551651211199,PRODUCED
Publisher_001,topicA,topicA-156,172.172.1.1:1883,1551651211299,PRODUCED
Publisher_001,topicA,topicA-157,172.172.1.1:1883,1551651211398,PRODUCED
Publisher_001,topicA,topicA-158,172.172.1.1:1883,1551651211497,PRODUCED
Publisher_001,topicA,topicA-159,172.172.1.1:1883,1551651211597,PRODUCED
Publisher_001,topicA,topicA-160,172.172.1.1:1883,1551651211697,PRODUCED
Publisher_001,topicA,topicA-161,172.172.1.1:1883,1551651211797,PRODUCED
Publisher_001,topicA,topicA-162,172.172.1.1:1883,1551651211896,PRODUCED
Publisher_001,topicA,topicA-163,172.172.1.1:1883,1551651211997,PRODUCED
Publisher_001,topicA,topicA-164,172.172.1.1:1883,1551651212099,PRODUCED
Publisher_001,topicA,topicA-165,172.172.1.1:1883,1551651212198,PRODUCED
Publisher_001,topicA,topicA-166,172.172.1.1:1883,1551651212296,PRODUCED
Publisher_001,topicA,topicA-167,172.172.1.1:1883,1551651212399,PRODUCED
Publisher_001,topicA,topicA-168,172.172.1.1:1883,1551651212496,PRODUCED
Publisher_001,topicA,topicA-169,172.172.1.1:1883,1551651212598,PRODUCED
Publisher_001,topicA,topicA-170,172.172.1.1:1883,1551651212697,PRODUCED
Publisher_001,topicA,topicA-171,172.172.1.1:1883,1551651212797,PRODUCED
Publisher_001,topicA,topicA-172,172.172.1.1:1883,1551651212898,PRODUCED
Publisher_001,topicA,topicA-173,172.172.1.1:1883,1551651212997,PRODUCED
Publisher_001,topicA,topicA-174,172.172.1.1:1883,1551651213097,PRODUCED
Publisher_001,topicA,topicA-175,172.172.1.1:1883,1551651213197,PRODUCED
Publisher_001,topicA,topicA-176,172.172.1.1:1883,1551651213298,PRODUCED
Publisher_001,topicA,topicA-177,172.172.1.1:1883,1551651213397,PRODUCED
Publisher_001,topicA,topicA-178,172.172.1.1:1883,1551651213497,PRODUCED
Publisher_001,topicA,topicA-179,172.172.1.1:1883,1551651213597,PRODUCED
Publisher_001,topicA,topicA-180,172.172.1.1:1883,1551651213697,PRODUCED
Publisher_001,topicA,topicA-181,172.172.1.1:1883,1551651213798,PRODUCED
Publisher_001,topicA,topicA-182,172.172.1.1:1883,1551651213898,PRODUCED
Publisher_001,topicA,topicA-183,172.172.1.1:1883,1551651213997,PRODUCED
Publisher_001,topicA,topicA-184,172.172.1.1:1883,1551651214099,PRODUCED
Publisher_001,topicA,topicA-185,172.172.1.1:1883,1551651214196,PRODUCED
Publisher_001,topicA,topicA-186,172.172.1.1:1883,1551651214297,PRODUCED
Publisher_001,topicA,topicA-187,172.172.1.1:1883,1551651214397,PRODUCED
Publisher_001,topicA,topicA-188,172.172.1.1:1883,1551651214498,PRODUCED
Publisher_001,topicA,topicA-189,172.172.1.1:1883,1551651214598,PRODUCED
Publisher_001,topicA,topicA-190,172.172.1.1:1883,1551651214699,PRODUCED
Publisher_001,topicA,topicA-191,172.172.1.1:1883,1551651214797,PRODUCED
Publisher_001,topicA,topicA-192,172.172.1.1:1883,1551651214897,PRODUCED
Publisher_001,topicA,topicA-193,172.172.1.1:1883,1551651214997,PRODUCED
Publisher_001,topicA,topicA-194,172.172.1.1:1883,1551651215096,PRODUCED
Publisher_001,topicA,topicA-195,172.172.1.1:1883,1551651215197,PRODUCED
Publisher_001,topicA,topicA-196,172.172.1.1:1883,1551651215297,PRODUCED
Publisher_001,topicA,topicA-197,172.172.1.1:1883,1551651215397,PRODUCED
Publisher_001,topicA,topicA-198,172.172.1.1:1883,1551651215497,PRODUCED
Publisher_001,topicA,topicA-199,172.172.1.1:1883,1551651215599,PRODUCED
Publisher_001,topicA,topicA-200,172.172.1.1:1883,1551651215696,PRODUCED
Publisher_001,topicA,topicA-201,172.172.1.1:1883,1551651215799,PRODUCED
Publisher_001,topicA,topicA-202,172.172.1.1:1883,1551651215897,PRODUCED
Publisher_001,topicA,topicA-203,172.172.1.1:1883,1551651215999,PRODUCED
Publisher_001,topicA,topicA-204,172.172.1.1:1883,1551651216100,PRODUCED
Publisher_001,topicA,topicA-205,172.172.1.1:1883,1551651216197,PRODUCED
Publisher_001,topicA,topicA-206,172.172.1.1:1883,1551651216297,PRODUCED
Publisher_001,topicA,topicA-207,172.172.1.1:1883,1551651216397,PRODUCED
Publisher_001,topicA,topicA-208,172.172.1.1:1883,1551651216497,PRODUCED
Publisher_001,topicA,topicA-209,172.172.1.1:1883,1551651216599,PRODUCED
Publisher_001,topicA,topicA-210,172.172.1.1:1883,1551651216698,PRODUCED
Publisher_001,topicA,topicA-211,172.172.1.1:1883,1551651216800,PRODUCED
Publisher_001,topicA,topicA-212,172.172.1.1:1883,1551651216899,PRODUCED
Publisher_001,topicA,topicA-213,172.172.1.1:1883,1551651216999,PRODUCED
Publisher_001,topicA,topicA-214,172.172.1.1:1883,1551651217098,PRODUCED
Publisher_001,topicA,topicA-215,172.172.1.1:1883,1551651217198,PRODUCED
Publisher_001,topicA,topicA-216,172.172.1.1:1883,1551651217297,PRODUCED
Publisher_001,topicA,topicA-217,172.172.1.1:1883,1551651217399,PRODUCED
Publisher_001,topicA,topicA-218,172.172.1.1:1883,1551651217497,PRODUCED
Publisher_001,topicA,topicA-219,172.172.1.1:1883,1551651217599,PRODUCED
Publisher_001,topicA,topicA-220,172.172.1.1:1883,1551651217697,PRODUCED
Publisher_001,topicA,topicA-221,172.172.1.1:1883,1551651217796,PRODUCED
Publisher_001,topicA,topicA-222,172.172.1.1:1883,1551651217897,PRODUCED
Publisher_001,topicA,topicA-223,172.172.1.1:1883,1551651217997,PRODUCED
Publisher_001,topicA,topicA-224,172.172.1.1:1883,1551651218104,PRODUCED
Publisher_001,topicA,topicA-225,172.172.1.1:1883,1551651218196,PRODUCED
Publisher_001,topicA,topicA-226,172.172.1.1:1883,1551651218298,PRODUCED
Publisher_001,topicA,topicA-227,172.172.1.1:1883,1551651218399,PRODUCED
Publisher_001,topicA,topicA-228,172.172.1.1:1883,1551651218497,PRODUCED
Publisher_001,topicA,topicA-229,172.172.1.1:1883,1551651218604,PRODUCED
Publisher_001,topicA,topicA-230,172.172.1.1:1883,1551651218697,PRODUCED
Publisher_001,topicA,topicA-231,172.172.1.1:1883,1551651218796,PRODUCED
Publisher_001,topicA,topicA-232,172.172.1.1:1883,1551651218896,PRODUCED
Publisher_001,topicA,topicA-233,172.172.1.1:1883,1551651218996,PRODUCED
Publisher_001,topicA,topicA-234,172.172.1.1:1883,1551651219099,PRODUCED
Publisher_001,topicA,topicA-235,172.172.1.1:1883,1551651219196,PRODUCED
Publisher_001,topicA,topicA-236,172.172.1.1:1883,1551651219297,PRODUCED
Publisher_001,topicA,topicA-237,172.172.1.1:1883,1551651219397,PRODUCED
Publisher_001,topicA,topicA-238,172.172.1.1:1883,1551651219497,PRODUCED
Publisher_001,topicA,topicA-239,172.172.1.1:1883,1551651219598,PRODUCED
Publisher_001,topicA,topicA-240,172.172.1.1:1883,1551651219696,PRODUCED
Publisher_001,topicA,topicA-241,172.172.1.1:1883,1551651219796,PRODUCED
Publisher_001,topicA,topicA-242,172.172.1.1:1883,1551651219897,PRODUCED
Publisher_001,topicA,topicA-243,172.172.1.1:1883,1551651219997,PRODUCED
Publisher_001,topicA,topicA-244,172.172.1.1:1883,1551651220097,PRODUCED
Publisher_001,topicA,topicA-245,172.172.1.1:1883,1551651220197,PRODUCED
Publisher_001,topicA,topicA-246,172.172.1.1:1883,1551651220298,PRODUCED
Publisher_001,topicA,topicA-247,172.172.1.1:1883,1551651220397,PRODUCED
Publisher_001,topicA,topicA-248,172.172.1.1:1883,1551651220497,PRODUCED
Publisher_001,topicA,topicA-249,172.172.1.1:1883,1551651220603,PRODUCED
Publisher_001,topicA,topicA-250,172.172.1.1:1883,1551651220697,PRODUCED
Publisher_001,topicA,topicA-251,172.172.1.1:1883,1551651220797,PRODUCED
Publisher_001,topicA,topicA-252,172.172.1.1:1883,1551651220897,PRODUCED
Publisher_001,topicA,topicA-253,172.172.1.1:1883,1551651220997,PRODUCED
Publisher_001,topicA,topicA-254,172.172.1.1:1883,1551651221096,PRODUCED
Publisher_001,topicA,topicA-255,172.172.1.1:1883,1551651221197,PRODUCED
Publisher_001,topicA,topicA-256,172.172.1.1:1883,1551651221296,PRODUCED
Publisher_001,topicA,topicA-257,172.172.1.1:1883,1551651221396,PRODUCED
Publisher_001,topicA,topicA-258,172.172.1.1:1883,1551651221497,PRODUCED
Publisher_001,topicA,topicA-259,172.172.1.1:1883,1551651221597,PRODUCED
Publisher_001,topicA,topicA-260,172.172.1.1:1883,1551651221696,PRODUCED
Publisher_001,topicA,topicA-261,172.172.1.1:1883,1551651221796,PRODUCED
Publisher_001,topicA,topicA-262,172.172.1.1:1883,1551651221896,PRODUCED
Publisher_001,topicA,topicA-263,172.172.1.1:1883,1551651221996,PRODUCED
Publisher_001,topicA,topicA-264,172.172.1.1:1883,1551651222096,PRODUCED
Publisher_001,topicA,topicA-265,172.172.1.1:1883,1551651222196,PRODUCED
Publisher_001,topicA,topicA-266,172.172.1.1:1883,1551651222296,PRODUCED
Publisher_001,topicA,topicA-267,172.172.1.1:1883,1551651222396,PRODUCED
Publisher_001,topicA,topicA-268,172.172.1.1:1883,1551651222496,PRODUCED
Publisher_001,topicA,topicA-269,172.172.1.1:1883,1551651222596,PRODUCED
Publisher_001,topicA,topicA-270,172.172.1.1:1883,1551651222696,PRODUCED
Publisher_001,topicA,topicA-271,172.172.1.1:1883,1551651222796,PRODUCED
Publisher_001,topicA,topicA-272,172.172.1.1:1883,1551651222896,PRODUCED
Publisher_001,topicA,topicA-273,172.172.1.1:1883,1551651222996,PRODUCED
Publisher_001,topicA,topicA-274,172.172.1.1:1883,1551651223096,PRODUCED
Publisher_001,topicA,topicA-275,172.172.1.1:1883,1551651223196,PRODUCED
Publisher_001,topicA,topicA-276,172.172.1.1:1883,1551651223296,PRODUCED
Publisher_001,topicA,topicA-277,172.172.1.1:1883,1551651223396,PRODUCED
Publisher_001,topicA,topicA-278,172.172.1.1:1883,1551651223496,PRODUCED
Publisher_001,topicA,topicA-279,172.172.1.1:1883,1551651223596,PRODUCED
Publisher_001,topicA,topicA-280,172.172.1.1:1883,1551651223696,PRODUCED
Publisher_001,topicA,topicA-281,172.172.1.1:1883,1551651223796,PRODUCED
Publisher_001,topicA,topicA-282,172.172.1.1:1883,1551651223896,PRODUCED
Publisher_001,topicA,topicA-283,172.172.1.1:1883,1551651223996,PRODUCED
Publisher_001,topicA,topicA-284,172.172.1.1:1883,1551651224096,PRODUCED
Publisher_001,topicA,topicA-285,172.172.1.1:1883,1551651224196,PRODUCED
Publisher_001,topicA,topicA-286,172.172.1.1:1883,1551651224296,PRODUCED
Publisher_001,topicA,topicA-287,172.172.1.1:1883,1551651224396,PRODUCED
Publisher_001,topicA,topicA-288,172.172.1.1:1883,1551651224496,PRODUCED
Publisher_001,topicA,topicA-289,172.172.1.1:1883,1551651224596,PRODUCED
Publisher_001,topicA,topicA-290,172.172.1.1:1883,1551651224696,PRODUCED
Publisher_001,topicA,topicA-291,172.172.1.1:1883,1551651224796,PRODUCED
Publisher_001,topicA,topicA-292,172.172.1.1:1883,1551651224896,PRODUCED
Publisher_001,topicA,topicA-293,172.172.1.1:1883,1551651224996,PRODUCED
Publisher_001,topicA,topicA-294,172.172.1.1:1883,1551651225096,PRODUCED
Publisher_001,topicA,topicA-295,172.172.1.1:1883,1551651225196,PRODUCED
Publisher_001,topicA,topicA-296,172.172.1.1:1883,1551651225296,PRODUCED
Publisher_001,topicA,topicA-297,172.172.1.1:1883,1551651225396,PRODUCED
Publisher_001,topicA,topicA-298,172.172.1.1:1883,1551651225496,PRODUCED
Publisher_001,topicA,topicA-299,172.172.1.1:1883,1551651225596,PRODUCED
Publisher_001,topicA,topicA-300,172.172.1.1:1883,1551651225696,PRODUCED
Publisher_001,topicA,topicA-301,172.172.1.1:1883,1551651225796,PRODUCED
Publisher_001,topicA,topicA-302,172.172.1.1:1883,1551651225896,PRODUCED
Publisher_001,topicA,topicA-303,172.172.1.1:1883,1551651225996,PRODUCED
Publisher_001,topicA,topicA-304,172.172.1.1:1883,1551651226096,PRODUCED
Publisher_001,topicA,topicA-305,172.172.1.1:1883,1551651226196,PRODUCED
Publisher_001,topicA,topicA-306,172.172.1.1:1883,1551651226296,PRODUCED
Publisher_001,topicA,topicA-307,172.172.1.1:1883,1551651226396,PRODUCED
Publisher_001,topicA,topicA-308,172.172.1.1:1883,1551651226496,PRODUCED
Publisher_001,topicA,topicA-309,172.172.1.1:1883,1551651226596,PRODUCED
Publisher_001,topicA,topicA-310,172.172.1.1:1883,1551651226696,PRODUCED
Publisher_001,topicA,topicA-311,172.172.1.1:1883,1551651226796,PRODUCED
Publisher_001,topicA,topicA-312,172.172.1.1:1883,1551651226896,PRODUCED
Publisher_001,topicA,topicA-313,172.172.1.1:1883,1551651226996,PRODUCED
Publisher_001,topicA,topicA-314,172.172.1.1:1883,1551651227096,PRODUCED
Publisher_001,topicA,topicA-315,172.172.1.1:1883,1551651227197,PRODUCED
Publisher_001,topicA,topicA-316,172.172.1.1:1883,1551651227296,PRODUCED
Publisher_001,topicA,topicA-317,172.172.1.1:1883,1551651227396,PRODUCED
Publisher_001,topicA,topicA-318,172.172.1.1:1883,1551651227496,PRODUCED
Publisher_001,topicA,topicA-319,172.172.1.1:1883,1551651227596,PRODUCED
Publisher_001,topicA,topicA-320,172.172.1.1:1883,1551651227696,PRODUCED
Publisher_001,topicA,topicA-321,172.172.1.1:1883,1551651227796,PRODUCED
Publisher_001,topicA,topicA-322,172.172.1.1:1883,1551651227896,PRODUCED
Publisher_001,topicA,topicA-323,172.172.1.1:1883,1551651227996,PRODUCED
Publisher_001,topicA,topicA-324,172.172.1.1:1883,1551651228096,PRODUCED
Publisher_001,topicA,topicA-325,172.172.1.1:1883,1551651228196,PRODUCED
Publisher_001,topicA,topicA-326,172.172.1.1:1883,1551651228296,PRODUCED
Publisher_001,topicA,topicA-327,172.172.1.1:1883,1551651228396,PRODUCED
Publisher_001,topicA,topicA-328,172.172.1.1:1883,1551651228496,PRODUCED
Publisher_001,topicA,topicA-329,172.172.1.1:1883,1551651228596,PRODUCED
Publisher_001,topicA,topicA-330,172.172.1.1:1883,1551651228696,PRODUCED
Publisher_001,topicA,topicA-331,172.172.1.1:1883,1551651228796,PRODUCED
Publisher_001,topicA,topicA-332,172.172.1.1:1883,1551651228896,PRODUCED
Publisher_001,topicA,topicA-333,172.172.1.1:1883,1551651228996,PRODUCED
Publisher_001,topicA,topicA-334,172.172.1.1:1883,1551651229097,PRODUCED
Publisher_001,topicA,topicA-335,172.172.1.1:1883,1551651229196,PRODUCED
Publisher_001,topicA,topicA-336,172.172.1.1:1883,1551651229297,PRODUCED
Publisher_001,topicA,topicA-337,172.172.1.1:1883,1551651229396,PRODUCED
Publisher_001,topicA,topicA-338,172.172.1.1:1883,1551651229496,PRODUCED
Publisher_001,topicA,topicA-339,172.172.1.1:1883,1551651229596,PRODUCED
Publisher_001,topicA,topicA-340,172.172.1.1:1883,1551651229696,PRODUCED
Publisher_001,topicA,topicA-341,172.172.1.1:1883,1551651229796,PRODUCED
Publisher_001,topicA,topicA-342,172.172.1.1:1883,1551651229896,PRODUCED
Publisher_001,topicA,topicA-343,172.172.1.1:1883,1551651229996,PRODUCED
Publisher_001,topicA,topicA-344,172.172.1.1:1883,1551651230096,PRODUCED
Publisher_001,topicA,topicA-345,172.172.1.1:1883,1551651230196,PRODUCED
Publisher_001,topicA,topicA-346,172.172.1.1:1883,1551651230296,PRODUCED
Publisher_001,topicA,topicA-347,172.172.1.1:1883,1551651230396,PRODUCED
Publisher_001,topicA,topicA-348,172.172.1.1:1883,1551651230496,PRODUCED
Publisher_001,topicA,topicA-349,172.172.1.1:1883,1551651230596,PRODUCED
Publisher_001,topicA,topicA-350,172.172.1.1:1883,1551651230696,PRODUCED
Publisher_001,topicA,topicA-351,172.172.1.1:1883,1551651230796,PRODUCED
Publisher_001,topicA,topicA-352,172.172.1.1:1883,1551651230896,PRODUCED
Publisher_001,topicA,topicA-353,172.172.1.1:1883,1551651230996,PRODUCED
Publisher_001,topicA,topicA-354,172.172.1.1:1883,1551651231096,PRODUCED
Publisher_001,topicA,topicA-355,172.172.1.1:1883,1551651231196,PRODUCED
Publisher_001,topicA,topicA-356,172.172.1.1:1883,1551651231296,PRODUCED
Publisher_001,topicA,topicA-357,172.172.1.1:1883,1551651231396,PRODUCED
Publisher_001,topicA,topicA-358,172.172.1.1:1883,1551651231496,PRODUCED
Publisher_001,topicA,topicA-359,172.172.1.1:1883,1551651231596,PRODUCED
Publisher_001,topicA,topicA-360,172.172.1.1:1883,1551651231696,PRODUCED
Publisher_001,topicA,topicA-361,172.172.1.1:1883,1551651231796,PRODUCED
Publisher_001,topicA,topicA-362,172.172.1.1:1883,1551651231896,PRODUCED
Publisher_001,topicA,topicA-363,172.172.1.1:1883,1551651231996,PRODUCED
Publisher_001,topicA,topicA-364,172.172.1.1:1883,1551651232096,PRODUCED
Publisher_001,topicA,topicA-365,172.172.1.1:1883,1551651232196,PRODUCED
Publisher_001,topicA,topicA-366,172.172.1.1:1883,1551651232296,PRODUCED
Publisher_001,topicA,topicA-367,172.172.1.1:1883,1551651232396,PRODUCED
Publisher_001,topicA,topicA-368,172.172.1.1:1883,1551651232496,PRODUCED
Publisher_001,topicA,topicA-369,172.172.1.1:1883,1551651232596,PRODUCED
Publisher_001,topicA,topicA-370,172.172.1.1:1883,1551651232696,PRODUCED
Publisher_001,topicA,topicA-371,172.172.1.1:1883,1551651232796,PRODUCED
Publisher_001,topicA,topicA-372,172.172.1.1:1883,1551651232896,PRODUCED
Publisher_001,topicA,topicA-373,172.172.1.1:1883,1551651232996,PRODUCED
Publisher_001,topicA,topicA-374,172.172.1.1:1883,1551651233096,PRODUCED
Publisher_001,topicA,topicA-375,172.172.1.1:1883,1551651233196,PRODUCED
Publisher_001,topicA,topicA-376,172.172.1.1:1883,1551651233296,PRODUCED
Publisher_001,topicA,topicA-377,172.172.1.1:1883,1551651233396,PRODUCED
Publisher_001,topicA,topicA-378,172.172.1.1:1883,1551651233496,PRODUCED
Publisher_001,topicA,topicA-379,172.172.1.1:1883,1551651233596,PRODUCED
Publisher_001,topicA,topicA-380,172.172.1.1:1883,1551651233696,PRODUCED
Publisher_001,topicA,topicA-381,172.172.1.1:1883,1551651233796,PRODUCED
Publisher_001,topicA,topicA-382,172.172.1.1:1883,1551651233896,PRODUCED
Publisher_001,topicA,topicA-383,172.172.1.1:1883,1551651233996,PRODUCED
Publisher_001,topicA,topicA-384,172.172.1.1:1883,1551651234096,PRODUCED
Publisher_001,topicA,topicA-385,172.172.1.1:1883,1551651234197,PRODUCED
Publisher_001,topicA,topicA-386,172.172.1.1:1883,1551651234296,PRODUCED
Publisher_001,topicA,topicA-387,172.172.1.1:1883,1551651234396,PRODUCED
Publisher_001,topicA,topicA-388,172.172.1.1:1883,1551651234496,PRODUCED
Publisher_001,topicA,topicA-389,172.172.1.1:1883,1551651234596,PRODUCED
Publisher_001,topicA,topicA-390,172.172.1.1:1883,1551651234696,PRODUCED
Publisher_001,topicA,topicA-391,172.172.1.1:1883,1551651234796,PRODUCED
Publisher_001,topicA,topicA-392,172.172.1.1:1883,1551651234896,PRODUCED
Publisher_001,topicA,topicA-393,172.172.1.1:1883,1551651234996,PRODUCED
Publisher_001,topicA,topicA-394,172.172.1.1:1883,1551651235096,PRODUCED
Publisher_001,topicA,topicA-395,172.172.1.1:1883,1551651235196,PRODUCED
Publisher_001,topicA,topicA-396,172.172.1.1:1883,1551651235296,PRODUCED
Publisher_001,topicA,topicA-397,172.172.1.1:1883,1551651235396,PRODUCED
Publisher_001,topicA,topicA-398,172.172.1.1:1883,1551651235496,PRODUCED
Publisher_001,topicA,topicA-399,172.172.1.1:1883,1551651235596,PRODUCED
Publisher_001,topicA,topicA-400,172.172.1.1:1883,1551651235696,PRODUCED
Publisher_001,topicA,topicA-401,172.172.1.1:1883,1551651235796,PRODUCED
Publisher_001,topicA,topicA-402,172.172.1.1:1883,1551651235896,PRODUCED
Publisher_001,topicA,topicA-403,172.172.1.1:1883,1551651235996,PRODUCED
Publisher_001,topicA,topicA-404,172.172.1.1:1883,1551651236096,PRODUCED
Publisher_001,topicA,topicA-405,172.172.1.1:1883,1551651236196,PRODUCED
Publisher_001,topicA,topicA-406,172.172.1.1:1883,1551651236296,PRODUCED
Publisher_001,topicA,topicA-407,172.172.1.1:1883,1551651236396,PRODUCED
Publisher_001,topicA,topicA-408,172.172.1.1:1883,1551651236496,PRODUCED
Publisher_001,topicA,topicA-409,172.172.1.1:1883,1551651236596,PRODUCED
Publisher_001,topicA,topicA-410,172.172.1.1:1883,1551651236696,PRODUCED
Publisher_001,topicA,topicA-411,172.172.1.1:1883,1551651236796,PRODUCED
Publisher_001,topicA,topicA-412,172.172.1.1:1883,1551651236896,PRODUCED
Publisher_001,topicA,topicA-413,172.172.1.1:1883,1551651236996,PRODUCED
Publisher_001,topicA,topicA-414,172.172.1.1:1883,1551651237096,PRODUCED
Publisher_001,topicA,topicA-415,172.172.1.1:1883,1551651237196,PRODUCED
Publisher_001,topicA,topicA-416,172.172.1.1:1883,1551651237296,PRODUCED
Publisher_001,topicA,topicA-417,172.172.1.1:1883,1551651237396,PRODUCED
Publisher_001,topicA,topicA-418,172.172.1.1:1883,1551651237496,PRODUCED
Publisher_001,topicA,topicA-419,172.172.1.1:1883,1551651237596,PRODUCED
Publisher_001,topicA,topicA-420,172.172.1.1:1883,1551651237705,PRODUCED
Publisher_001,topicA,topicA-421,172.172.1.1:1883,1551651237796,PRODUCED
Publisher_001,topicA,topicA-422,172.172.1.1:1883,1551651237896,PRODUCED
Publisher_001,topicA,topicA-423,172.172.1.1:1883,1551651237996,PRODUCED
Publisher_001,topicA,topicA-424,172.172.1.1:1883,1551651238096,PRODUCED
Publisher_001,topicA,topicA-425,172.172.1.1:1883,1551651238196,PRODUCED
Publisher_001,topicA,topicA-426,172.172.1.1:1883,1551651238296,PRODUCED
Publisher_001,topicA,topicA-427,172.172.1.1:1883,1551651238396,PRODUCED
Publisher_001,topicA,topicA-428,172.172.1.1:1883,1551651238496,PRODUCED
Publisher_001,topicA,topicA-429,172.172.1.1:1883,1551651238596,PRODUCED
Publisher_001,topicA,topicA-430,172.172.1.1:1883,1551651238696,PRODUCED
Publisher_001,topicA,topicA-431,172.172.1.1:1883,1551651238796,PRODUCED
Publisher_001,topicA,topicA-432,172.172.1.1:1883,1551651238896,PRODUCED
Publisher_001,topicA,topicA-433,172.172.1.1:1883,1551651238996,PRODUCED
Publisher_001,topicA,topicA-434,172.172.1.1:1883,1551651239096,PRODUCED
Publisher_001,topicA,topicA-435,172.172.1.1:1883,1551651239196,PRODUCED
Publisher_001,topicA,topicA-436,172.172.1.1:1883,1551651239296,PRODUCED
Publisher_001,topicA,topicA-437,172.172.1.1:1883,1551651239396,PRODUCED
Publisher_001,topicA,topicA-438,172.172.1.1:1883,1551651239496,PRODUCED
Publisher_001,topicA,topicA-439,172.172.1.1:1883,1551651239596,PRODUCED
Publisher_001,topicA,topicA-440,172.172.1.1:1883,1551651239696,PRODUCED
Publisher_001,topicA,topicA-441,172.172.1.1:1883,1551651239796,PRODUCED
Publisher_001,topicA,topicA-442,172.172.1.1:1883,1551651239896,PRODUCED
Publisher_001,topicA,topicA-443,172.172.1.1:1883,1551651239996,PRODUCED
Publisher_001,topicA,topicA-444,172.172.1.1:1883,1551651240096,PRODUCED
Publisher_001,topicA,topicA-445,172.172.1.1:1883,1551651240197,PRODUCED
Publisher_001,topicA,topicA-446,172.172.1.1:1883,1551651240296,PRODUCED
Publisher_001,topicA,topicA-447,172.172.1.1:1883,1551651240396,PRODUCED
Publisher_001,topicA,topicA-448,172.172.1.1:1883,1551651240496,PRODUCED
Publisher_001,topicA,topicA-449,172.172.1.1:1883,1551651240596,PRODUCED
Publisher_001,topicA,topicA-450,172.172.1.1:1883,1551651240696,PRODUCED
Publisher_001,topicA,topicA-451,172.172.1.1:1883,1551651240796,PRODUCED
Publisher_001,topicA,topicA-452,172.172.1.1:1883,1551651240896,PRODUCED
Publisher_001,topicA,topicA-453,172.172.1.1:1883,1551651240996,PRODUCED
Publisher_001,topicA,topicA-454,172.172.1.1:1883,1551651241096,PRODUCED
Publisher_001,topicA,topicA-455,172.172.1.1:1883,1551651241196,PRODUCED
Publisher_001,topicA,topicA-456,172.172.1.1:1883,1551651241296,PRODUCED
Publisher_001,topicA,topicA-457,172.172.1.1:1883,1551651241396,PRODUCED
Publisher_001,topicA,topicA-458,172.172.1.1:1883,1551651241496,PRODUCED
Publisher_001,topicA,topicA-459,172.172.1.1:1883,1551651241596,PRODUCED
Publisher_001,topicA,topicA-460,172.172.1.1:1883,1551651241696,PRODUCED
Publisher_001,topicA,topicA-461,172.172.1.1:1883,1551651241796,PRODUCED
Publisher_001,topicA,topicA-462,172.172.1.1:1883,1551651241896,PRODUCED
Publisher_001,topicA,topicA-463,172.172.1.1:1883,1551651241996,PRODUCED
Publisher_001,topicA,topicA-464,172.172.1.1:1883,1551651242096,PRODUCED
Publisher_001,topicA,topicA-465,172.172.1.1:1883,1551651242196,PRODUCED
Publisher_001,topicA,topicA-466,172.172.1.1:1883,1551651242296,PRODUCED
Publisher_001,topicA,topicA-467,172.172.1.1:1883,1551651242396,PRODUCED
Publisher_001,topicA,topicA-468,172.172.1.1:1883,1551651242496,PRODUCED
Publisher_001,topicA,topicA-469,172.172.1.1:1883,1551651242596,PRODUCED
Publisher_001,topicA,topicA-470,172.172.1.1:1883,1551651242696,PRODUCED
Publisher_001,topicA,topicA-471,172.172.1.1:1883,1551651242796,PRODUCED
Publisher_001,topicA,topicA-472,172.172.1.1:1883,1551651242896,PRODUCED
Publisher_001,topicA,topicA-473,172.172.1.1:1883,1551651242996,PRODUCED
Publisher_001,topicA,topicA-474,172.172.1.1:1883,1551651243096,PRODUCED
Publisher_001,topicA,topicA-475,172.172.1.1:1883,1551651243196,PRODUCED
Publisher_001,topicA,topicA-476,172.172.1.1:1883,1551651243296,PRODUCED
Publisher_001,topicA,topicA-477,172.172.1.1:1883,1551651243396,PRODUCED
Publisher_001,topicA,topicA-478,172.172.1.1:1883,1551651243496,PRODUCED
Publisher_001,topicA,topicA-479,172.172.1.1:1883,1551651243596,PRODUCED
Publisher_001,topicA,topicA-480,172.172.1.1:1883,1551651243696,PRODUCED
Publisher_001,topicA,topicA-481,172.172.1.1:1883,1551651243796,PRODUCED
Publisher_001,topicA,topicA-482,172.172.1.1:1883,1551651243897,PRODUCED
Publisher_001,topicA,topicA-483,172.172.1.1:1883,1551651243996,PRODUCED
Publisher_001,topicA,topicA-484,172.172.1.1:1883,1551651244096,PRODUCED
Publisher_001,topicA,topicA-485,172.172.1.1:1883,1551651244196,PRODUCED
Publisher_001,topicA,topicA-486,172.172.1.1:1883,1551651244296,PRODUCED
Publisher_001,topicA,topicA-487,172.172.1.1:1883,1551651244396,PRODUCED
Publisher_001,topicA,topicA-488,172.172.1.1:1883,1551651244496,PRODUCED
Publisher_001,topicA,topicA-489,172.172.1.1:1883,1551651244596,PRODUCED
Publisher_001,topicA,topicA-490,172.172.1.1:1883,1551651244696,PRODUCED
Publisher_001,topicA,topicA-491,172.172.1.1:1883,1551651244796,PRODUCED
Publisher_001,topicA,topicA-492,172.172.1.1:1883,1551651244896,PRODUCED
Publisher_001,topicA,topicA-493,172.172.1.1:1883,1551651244996,PRODUCED
Publisher_001,topicA,topicA-494,172.172.1.1:1883,1551651245096,PRODUCED
Publisher_001,topicA,topicA-495,172.172.1.1:1883,1551651245196,PRODUCED
Publisher_001,topicA,topicA-496,172.172.1.1:1883,1551651245296,PRODUCED
Publisher_001,topicA,topicA-497,172.172.1.1:1883,1551651245396,PRODUCED
Publisher_001,topicA,topicA-498,172.172.1.1:1883,1551651245496,PRODUCED
Publisher_001,topicA,topicA-499,172.172.1.1:1883,1551651245596,PRODUCED
Publisher_001,topicA,topicA-500,172.172.1.1:1883,1551651245696,PRODUCED
Publisher_001,topicA,topicA-501,172.172.1.1:1883,1551651245796,PRODUCED
Publisher_001,topicA,topicA-502,172.172.1.1:1883,1551651245896,PRODUCED
Publisher_001,topicA,topicA-503,172.172.1.1:1883,1551651245996,PRODUCED
Publisher_001,topicA,topicA-504,172.172.1.1:1883,1551651246096,PRODUCED
Publisher_001,topicA,topicA-505,172.172.1.1:1883,1551651246196,PRODUCED
Publisher_001,topicA,topicA-506,172.172.1.1:1883,1551651246296,PRODUCED
Publisher_001,topicA,topicA-507,172.172.1.1:1883,1551651246397,PRODUCED
Publisher_001,topicA,topicA-508,172.172.1.1:1883,1551651246496,PRODUCED
Publisher_001,topicA,topicA-509,172.172.1.1:1883,1551651246596,PRODUCED
Publisher_001,topicA,topicA-510,172.172.1.1:1883,1551651246696,PRODUCED
Publisher_001,topicA,topicA-511,172.172.1.1:1883,1551651246796,PRODUCED
Publisher_001,topicA,topicA-512,172.172.1.1:1883,1551651246896,PRODUCED
Publisher_001,topicA,topicA-513,172.172.1.1:1883,1551651246996,PRODUCED
Publisher_001,topicA,topicA-514,172.172.1.1:1883,1551651247096,PRODUCED
Publisher_001,topicA,topicA-515,172.172.1.1:1883,1551651247196,PRODUCED
Publisher_001,topicA,topicA-516,172.172.1.1:1883,1551651247296,PRODUCED
Publisher_001,topicA,topicA-517,172.172.1.1:1883,1551651247396,PRODUCED
Publisher_001,topicA,topicA-518,172.172.1.1:1883,1551651247496,PRODUCED
Publisher_001,topicA,topicA-519,172.172.1.1:1883,1551651247596,PRODUCED
Publisher_001,topicA,topicA-520,172.172.1.1:1883,1551651247696,PRODUCED
Publisher_001,topicA,topicA-521,172.172.1.1:1883,1551651247796,PRODUCED
Publisher_001,topicA,topicA-522,172.172.1.1:1883,1551651247896,PRODUCED
Publisher_001,topicA,topicA-523,172.172.1.1:1883,1551651247996,PRODUCED
Publisher_001,topicA,topicA-524,172.172.1.1:1883,1551651248096,PRODUCED
Publisher_001,topicA,topicA-525,172.172.1.1:1883,1551651248196,PRODUCED
Publisher_001,topicA,topicA-526,172.172.1.1:1883,1551651248296,PRODUCED
Publisher_001,topicA,topicA-527,172.172.1.1:1883,1551651248396,PRODUCED
Publisher_001,topicA,topicA-528,172.172.1.1:1883,1551651248496,PRODUCED
Publisher_001,topicA,topicA-529,172.172.1.1:1883,1551651248596,PRODUCED
Publisher_001,topicA,topicA-530,172.172.1.1:1883,1551651248696,PRODUCED
Publisher_001,topicA,topicA-531,172.172.1.1:1883,1551651248812,PRODUCED
Publisher_001,topicA,topicA-532,172.172.1.1:1883,1551651248897,PRODUCED
Publisher_001,topicA,topicA-533,172.172.1.1:1883,1551651248996,PRODUCED
Publisher_001,topicA,topicA-534,172.172.1.1:1883,1551651249096,PRODUCED
Publisher_001,topicA,topicA-535,172.172.1.1:1883,1551651249196,PRODUCED
Publisher_001,topicA,topicA-536,172.172.1.1:1883,1551651249296,PRODUCED
Publisher_001,topicA,topicA-537,172.172.1.1:1883,1551651249396,PRODUCED
Publisher_001,topicA,topicA-538,172.172.1.1:1883,1551651249496,PRODUCED
Publisher_001,topicA,topicA-539,172.172.1.1:1883,1551651249596,PRODUCED
Publisher_001,topicA,topicA-540,172.172.1.1:1883,1551651249696,PRODUCED
Publisher_001,topicA,topicA-541,172.172.1.1:1883,1551651249796,PRODUCED
Publisher_001,topicA,topicA-542,172.172.1.1:1883,1551651249896,PRODUCED
Publisher_001,topicA,topicA-543,172.172.1.1:1883,1551651249996,PRODUCED
Publisher_001,topicA,topicA-544,172.172.1.1:1883,1551651250096,PRODUCED
Publisher_001,topicA,topicA-545,172.172.1.1:1883,1551651250196,PRODUCED
Publisher_001,topicA,topicA-546,172.172.1.1:1883,1551651250296,PRODUCED
Publisher_001,topicA,topicA-547,172.172.1.1:1883,1551651250396,PRODUCED
Publisher_001,topicA,topicA-548,172.172.1.1:1883,1551651250496,PRODUCED
Publisher_001,topicA,topicA-549,172.172.1.1:1883,1551651250596,PRODUCED
Publisher_001,topicA,topicA-550,172.172.1.1:1883,1551651250697,PRODUCED
Publisher_001,topicA,topicA-551,172.172.1.1:1883,1551651250796,PRODUCED
Publisher_001,topicA,topicA-552,172.172.1.1:1883,1551651250896,PRODUCED
Publisher_001,topicA,topicA-553,172.172.1.1:1883,1551651250996,PRODUCED
Publisher_001,topicA,topicA-554,172.172.1.1:1883,1551651251096,PRODUCED
Publisher_001,topicA,topicA-555,172.172.1.1:1883,1551651251196,PRODUCED
Publisher_001,topicA,topicA-556,172.172.1.1:1883,1551651251296,PRODUCED
Publisher_001,topicA,topicA-557,172.172.1.1:1883,1551651251396,PRODUCED
Publisher_001,topicA,topicA-558,172.172.1.1:1883,1551651251496,PRODUCED
Publisher_001,topicA,topicA-559,172.172.1.1:1883,1551651251596,PRODUCED
Publisher_001,topicA,topicA-560,172.172.1.1:1883,1551651251696,PRODUCED
Publisher_001,topicA,topicA-561,172.172.1.1:1883,1551651251796,PRODUCED
Publisher_001,topicA,topicA-562,172.172.1.1:1883,1551651251896,PRODUCED
Publisher_001,topicA,topicA-563,172.172.1.1:1883,1551651252002,PRODUCED
Publisher_001,topicA,topicA-564,172.172.1.1:1883,1551651252096,PRODUCED
Publisher_001,topicA,topicA-565,172.172.1.1:1883,1551651252196,PRODUCED
Publisher_001,topicA,topicA-566,172.172.1.1:1883,1551651252296,PRODUCED
Publisher_001,topicA,topicA-567,172.172.1.1:1883,1551651252396,PRODUCED
Publisher_001,topicA,topicA-568,172.172.1.1:1883,1551651252496,PRODUCED
Publisher_001,topicA,topicA-569,172.172.1.1:1883,1551651252596,PRODUCED
Publisher_001,topicA,topicA-570,172.172.1.1:1883,1551651252696,PRODUCED
Publisher_001,topicA,topicA-571,172.172.1.1:1883,1551651252796,PRODUCED
Publisher_001,topicA,topicA-572,172.172.1.1:1883,1551651252896,PRODUCED
Publisher_001,topicA,topicA-573,172.172.1.1:1883,1551651252996,PRODUCED
Publisher_001,topicA,topicA-574,172.172.1.1:1883,1551651253096,PRODUCED
Publisher_001,topicA,topicA-575,172.172.1.1:1883,1551651253196,PRODUCED
Publisher_001,topicA,topicA-576,172.172.1.1:1883,1551651253296,PRODUCED
Publisher_001,topicA,topicA-577,172.172.1.1:1883,1551651253396,PRODUCED
Publisher_001,topicA,topicA-578,172.172.1.1:1883,1551651253496,PRODUCED
Publisher_001,topicA,topicA-579,172.172.1.1:1883,1551651253596,PRODUCED
Publisher_001,topicA,topicA-580,172.172.1.1:1883,1551651253696,PRODUCED
Publisher_001,topicA,topicA-581,172.172.1.1:1883,1551651253796,PRODUCED
Publisher_001,topicA,topicA-582,172.172.1.1:1883,1551651253896,PRODUCED
Publisher_001,topicA,topicA-583,172.172.1.1:1883,1551651253996,PRODUCED
Publisher_001,topicA,topicA-584,172.172.1.1:1883,1551651254103,PRODUCED
Publisher_001,topicA,topicA-585,172.172.1.1:1883,1551651254196,PRODUCED
Publisher_001,topicA,topicA-586,172.172.1.1:1883,1551651254296,PRODUCED
Publisher_001,topicA,topicA-587,172.172.1.1:1883,1551651254396,PRODUCED
Publisher_001,topicA,topicA-588,172.172.1.1:1883,1551651254496,PRODUCED
Publisher_001,topicA,topicA-589,172.172.1.1:1883,1551651254596,PRODUCED
Publisher_001,topicA,topicA-590,172.172.1.1:1883,1551651254696,PRODUCED
Publisher_001,topicA,topicA-591,172.172.1.1:1883,1551651254796,PRODUCED
Publisher_001,topicA,topicA-592,172.172.1.1:1883,1551651254896,PRODUCED
Publisher_001,topicA,topicA-593,172.172.1.1:1883,1551651254996,PRODUCED
Publisher_001,topicA,topicA-594,172.172.1.1:1883,1551651255096,PRODUCED
Publisher_001,topicA,topicA-595,172.172.1.1:1883,1551651255196,PRODUCED
Publisher_001,topicA,topicA-596,172.172.1.1:1883,1551651255296,PRODUCED
Publisher_001,topicA,topicA-597,172.172.1.1:1883,1551651255396,PRODUCED
Publisher_001,topicA,topicA-598,172.172.1.1:1883,1551651255496,PRODUCED
Publisher_001,topicA,topicA-599,172.172.1.1:1883,1551651255596,PRODUCED
Publisher_001,topicA,topicA-600,172.172.1.1:1883,1551651255696,PRODUCED
Publisher_001,topicA,topicA-601,172.172.1.1:1883,1551651255796,PRODUCED
Publisher_001,topicA,topicA-602,172.172.1.1:1883,1551651255896,PRODUCED
Publisher_001,topicA,topicA-603,172.172.1.1:1883,1551651255996,PRODUCED
Publisher_001,topicA,topicA-604,172.172.1.1:1883,1551651256096,PRODUCED
Publisher_001,topicA,topicA-605,172.172.1.1:1883,1551651256196,PRODUCED
Publisher_001,topicA,topicA-606,172.172.1.1:1883,1551651256296,PRODUCED
Publisher_001,topicA,topicA-607,172.172.1.1:1883,1551651256396,PRODUCED
Publisher_001,topicA,topicA-608,172.172.1.1:1883,1551651256496,PRODUCED
Publisher_001,topicA,topicA-609,172.172.1.1:1883,1551651256596,PRODUCED
Publisher_001,topicA,topicA-610,172.172.1.1:1883,1551651256696,PRODUCED
Publisher_001,topicA,topicA-611,172.172.1.1:1883,1551651256796,PRODUCED
Publisher_001,topicA,topicA-612,172.172.1.1:1883,1551651256896,PRODUCED
Publisher_001,topicA,topicA-613,172.172.1.1:1883,1551651256996,PRODUCED
Publisher_001,topicA,topicA-614,172.172.1.1:1883,1551651257096,PRODUCED
Publisher_001,topicA,topicA-615,172.172.1.1:1883,1551651257196,PRODUCED
Publisher_001,topicA,topicA-616,172.172.1.1:1883,1551651257296,PRODUCED
Publisher_001,topicA,topicA-617,172.172.1.1:1883,1551651257396,PRODUCED
Publisher_001,topicA,topicA-618,172.172.1.1:1883,1551651257496,PRODUCED
Publisher_001,topicA,topicA-619,172.172.1.1:1883,1551651257596,PRODUCED
Publisher_001,topicA,topicA-620,172.172.1.1:1883,1551651257696,PRODUCED
Publisher_001,topicA,topicA-621,172.172.1.1:1883,1551651257796,PRODUCED
Publisher_001,topicA,topicA-622,172.172.1.1:1883,1551651257897,PRODUCED
Publisher_001,topicA,topicA-623,172.172.1.1:1883,1551651257996,PRODUCED
Publisher_001,topicA,topicA-624,172.172.1.1:1883,1551651258096,PRODUCED
Publisher_001,topicA,topicA-625,172.172.1.1:1883,1551651258196,PRODUCED
Publisher_001,topicA,topicA-626,172.172.1.1:1883,1551651258296,PRODUCED
Publisher_001,topicA,topicA-627,172.172.1.1:1883,1551651258396,PRODUCED
Publisher_001,topicA,topicA-628,172.172.1.1:1883,1551651258525,PRODUCED
Publisher_001,topicA,topicA-629,172.172.1.1:1883,1551651258596,PRODUCED
Publisher_001,topicA,topicA-630,172.172.1.1:1883,1551651258696,PRODUCED
Publisher_001,topicA,topicA-631,172.172.1.1:1883,1551651258796,PRODUCED
Publisher_001,topicA,topicA-632,172.172.1.1:1883,1551651258896,PRODUCED
Publisher_001,topicA,topicA-633,172.172.1.1:1883,1551651258996,PRODUCED
Publisher_001,topicA,topicA-634,172.172.1.1:1883,1551651259096,PRODUCED
Publisher_001,topicA,topicA-635,172.172.1.1:1883,1551651259196,PRODUCED
Publisher_001,topicA,topicA-636,172.172.1.1:1883,1551651259296,PRODUCED
Publisher_001,topicA,topicA-637,172.172.1.1:1883,1551651259396,PRODUCED
Publisher_001,topicA,topicA-638,172.172.1.1:1883,1551651259496,PRODUCED
Publisher_001,topicA,topicA-639,172.172.1.1:1883,1551651259596,PRODUCED
Publisher_001,topicA,topicA-640,172.172.1.1:1883,1551651259696,PRODUCED
Publisher_001,topicA,topicA-641,172.172.1.1:1883,1551651259796,PRODUCED
Publisher_001,topicA,topicA-642,172.172.1.1:1883,1551651259896,PRODUCED
Publisher_001,topicA,topicA-643,172.172.1.1:1883,1551651259997,PRODUCED
Publisher_001,topicA,topicA-644,172.172.1.1:1883,1551651260096,PRODUCED
