timestamp,event,migrationId
1551652364943,INITIALIZED,704c12af-1080-4c6e-b59e-913a6bfd5496
1551652364952,topicC-INITIALIZED,704c12af-1080-4c6e-b59e-913a6bfd5496
1551652364958,topicA-INITIALIZED,704c12af-1080-4c6e-b59e-913a6bfd5496
1551652364959,topicB-INITIALIZED,704c12af-1080-4c6e-b59e-913a6bfd5496
1551652365203,topicC-SYNCING,704c12af-1080-4c6e-b59e-913a6bfd5496
1551652365207,topicA-SYNCING,704c12af-1080-4c6e-b59e-913a6bfd5496
1551652365208,topicB-SYNCING,704c12af-1080-4c6e-b59e-913a6bfd5496
1551652365212,topicB-SYNCING_OPPONENT,704c12af-1080-4c6e-b59e-913a6bfd5496
1551652365211,topicA-SYNCED,704c12af-1080-4c6e-b59e-913a6bfd5496
1551652365211,topicA-SYNCING_THIS,704c12af-1080-4c6e-b59e-913a6bfd5496
1551652365209,topicC-SYNCING_OPPONENT,704c12af-1080-4c6e-b59e-913a6bfd5496
1551652365208,SYNCING,704c12af-1080-4c6e-b59e-913a6bfd5496
1551652367246,topicC-SYNCED,704c12af-1080-4c6e-b59e-913a6bfd5496
1551652367277,SYNCED,704c12af-1080-4c6e-b59e-913a6bfd5496
1551652367277,topicB-SYNCED,704c12af-1080-4c6e-b59e-913a6bfd5496
1551652367293,topicC-FINISHED,704c12af-1080-4c6e-b59e-913a6bfd5496
1551652367297,FINISHED,704c12af-1080-4c6e-b59e-913a6bfd5496
1551652367295,topicB-FINISHED,704c12af-1080-4c6e-b59e-913a6bfd5496
1551652367295,topicA-FINISHED,704c12af-1080-4c6e-b59e-913a6bfd5496
