clientId,topic,guid,broker,timestamp,type
Publisher_001,topicA,topicA-1,172.172.1.1:1883,1551659230682,PRODUCED
Publisher_001,topicA,topicA-2,172.172.1.1:1883,1551659230900,PRODUCED
Publisher_001,topicA,topicA-3,172.172.1.1:1883,1551659230907,PRODUCED
Publisher_001,topicA,topicA-4,172.172.1.1:1883,1551659230912,PRODUCED
Publisher_001,topicA,topicA-5,172.172.1.1:1883,1551659230933,PRODUCED
Publisher_001,topicA,topicA-6,172.172.1.1:1883,1551659231033,PRODUCED
Publisher_001,topicA,topicA-7,172.172.1.1:1883,1551659231133,PRODUCED
Publisher_001,topicA,topicA-8,172.172.1.1:1883,1551659231233,PRODUCED
Publisher_001,topicA,topicA-9,172.172.1.1:1883,1551659231333,PRODUCED
Publisher_001,topicA,topicA-10,172.172.1.1:1883,1551659231433,PRODUCED
Publisher_001,topicA,topicA-11,172.172.1.1:1883,1551659231535,PRODUCED
Publisher_001,topicA,topicA-12,172.172.1.1:1883,1551659231634,PRODUCED
Publisher_001,topicA,topicA-13,172.172.1.1:1883,1551659231735,PRODUCED
Publisher_001,topicA,topicA-14,172.172.1.1:1883,1551659231834,PRODUCED
Publisher_001,topicA,topicA-15,172.172.1.1:1883,1551659231933,PRODUCED
Publisher_001,topicA,topicA-16,172.172.1.1:1883,1551659232034,PRODUCED
Publisher_001,topicA,topicA-17,172.172.1.1:1883,1551659232134,PRODUCED
Publisher_001,topicA,topicA-18,172.172.1.1:1883,1551659232236,PRODUCED
Publisher_001,topicA,topicA-19,172.172.1.1:1883,1551659232333,PRODUCED
Publisher_001,topicA,topicA-20,172.172.1.1:1883,1551659232433,PRODUCED
Publisher_001,topicA,topicA-21,172.172.1.1:1883,1551659232533,PRODUCED
Publisher_001,topicA,topicA-22,172.172.1.1:1883,1551659232634,PRODUCED
Publisher_001,topicA,topicA-23,172.172.1.1:1883,1551659232733,PRODUCED
Publisher_001,topicA,topicA-24,172.172.1.1:1883,1551659232833,PRODUCED
Publisher_001,topicA,topicA-25,172.172.1.1:1883,1551659232933,PRODUCED
Publisher_001,topicA,topicA-26,172.172.1.1:1883,1551659233033,PRODUCED
Publisher_001,topicA,topicA-27,172.172.1.1:1883,1551659233133,PRODUCED
Publisher_001,topicA,topicA-28,172.172.1.1:1883,1551659233233,PRODUCED
Publisher_001,topicA,topicA-29,172.172.1.1:1883,1551659233334,PRODUCED
Publisher_001,topicA,topicA-30,172.172.1.1:1883,1551659233433,PRODUCED
Publisher_001,topicA,topicA-31,172.172.1.1:1883,1551659233533,PRODUCED
Publisher_001,topicA,topicA-32,172.172.1.1:1883,1551659233633,PRODUCED
Publisher_001,topicA,topicA-33,172.172.1.1:1883,1551659233733,PRODUCED
Publisher_001,topicA,topicA-34,172.172.1.1:1883,1551659233833,PRODUCED
Publisher_001,topicA,topicA-35,172.172.1.1:1883,1551659233933,PRODUCED
Publisher_001,topicA,topicA-36,172.172.1.1:1883,1551659234036,PRODUCED
Publisher_001,topicA,topicA-37,172.172.1.1:1883,1551659234133,PRODUCED
Publisher_001,topicA,topicA-38,172.172.1.1:1883,1551659234234,PRODUCED
Publisher_001,topicA,topicA-39,172.172.1.1:1883,1551659234333,PRODUCED
Publisher_001,topicA,topicA-40,172.172.1.1:1883,1551659234434,PRODUCED
Publisher_001,topicA,topicA-41,172.172.1.1:1883,1551659234533,PRODUCED
Publisher_001,topicA,topicA-42,172.172.1.1:1883,1551659234633,PRODUCED
Publisher_001,topicA,topicA-43,172.172.1.1:1883,1551659234733,PRODUCED
Publisher_001,topicA,topicA-44,172.172.1.1:1883,1551659234833,PRODUCED
Publisher_001,topicA,topicA-45,172.172.1.1:1883,1551659234933,PRODUCED
Publisher_001,topicA,topicA-46,172.172.1.1:1883,1551659235033,PRODUCED
Publisher_001,topicA,topicA-47,172.172.1.1:1883,1551659235133,PRODUCED
Publisher_001,topicA,topicA-48,172.172.1.1:1883,1551659235233,PRODUCED
Publisher_001,topicA,topicA-49,172.172.1.1:1883,1551659235333,PRODUCED
Publisher_001,topicA,topicA-50,172.172.1.1:1883,1551659235433,PRODUCED
Publisher_001,topicA,topicA-51,172.172.1.1:1883,1551659235533,PRODUCED
Publisher_001,topicA,topicA-52,172.172.1.1:1883,1551659235633,PRODUCED
Publisher_001,topicA,topicA-53,172.172.1.1:1883,1551659235733,PRODUCED
Publisher_001,topicA,topicA-54,172.172.1.1:1883,1551659235835,PRODUCED
Publisher_001,topicA,topicA-55,172.172.1.1:1883,1551659235933,PRODUCED
Publisher_001,topicA,topicA-56,172.172.1.1:1883,1551659236033,PRODUCED
Publisher_001,topicA,topicA-57,172.172.1.1:1883,1551659236135,PRODUCED
Publisher_001,topicA,topicA-58,172.172.1.1:1883,1551659236233,PRODUCED
Publisher_001,topicA,topicA-59,172.172.1.1:1883,1551659236333,PRODUCED
Publisher_001,topicA,topicA-60,172.172.1.1:1883,1551659236433,PRODUCED
Publisher_001,topicA,topicA-61,172.172.1.1:1883,1551659236533,PRODUCED
Publisher_001,topicA,topicA-62,172.172.1.1:1883,1551659236633,PRODUCED
Publisher_001,topicA,topicA-63,172.172.1.1:1883,1551659236733,PRODUCED
Publisher_001,topicA,topicA-64,172.172.1.1:1883,1551659236834,PRODUCED
Publisher_001,topicA,topicA-65,172.172.1.1:1883,1551659236933,PRODUCED
Publisher_001,topicA,topicA-66,172.172.1.1:1883,1551659237033,PRODUCED
Publisher_001,topicA,topicA-67,172.172.1.1:1883,1551659237134,PRODUCED
Publisher_001,topicA,topicA-68,172.172.1.1:1883,1551659237233,PRODUCED
Publisher_001,topicA,topicA-69,172.172.1.1:1883,1551659237333,PRODUCED
Publisher_001,topicA,topicA-70,172.172.1.1:1883,1551659237433,PRODUCED
Publisher_001,topicA,topicA-71,172.172.1.1:1883,1551659237533,PRODUCED
Publisher_001,topicA,topicA-72,172.172.1.1:1883,1551659237633,PRODUCED
Publisher_001,topicA,topicA-73,172.172.1.1:1883,1551659237733,PRODUCED
Publisher_001,topicA,topicA-74,172.172.1.1:1883,1551659237833,PRODUCED
Publisher_001,topicA,topicA-75,172.172.1.1:1883,1551659237934,PRODUCED
Publisher_001,topicA,topicA-76,172.172.1.1:1883,1551659238033,PRODUCED
Publisher_001,topicA,topicA-77,172.172.1.1:1883,1551659238133,PRODUCED
Publisher_001,topicA,topicA-78,172.172.1.1:1883,1551659238233,PRODUCED
Publisher_001,topicA,topicA-79,172.172.1.1:1883,1551659238333,PRODUCED
Publisher_001,topicA,topicA-80,172.172.1.1:1883,1551659238433,PRODUCED
Publisher_001,topicA,topicA-81,172.172.1.1:1883,1551659238533,PRODUCED
Publisher_001,topicA,topicA-82,172.172.1.1:1883,1551659238633,PRODUCED
Publisher_001,topicA,topicA-83,172.172.1.1:1883,1551659238733,PRODUCED
Publisher_001,topicA,topicA-84,172.172.1.1:1883,1551659238839,PRODUCED
Publisher_001,topicA,topicA-85,172.172.1.1:1883,1551659238934,PRODUCED
Publisher_001,topicA,topicA-86,172.172.1.1:1883,1551659239033,PRODUCED
Publisher_001,topicA,topicA-87,172.172.1.1:1883,1551659239133,PRODUCED
Publisher_001,topicA,topicA-88,172.172.1.1:1883,1551659239233,PRODUCED
Publisher_001,topicA,topicA-89,172.172.1.1:1883,1551659239333,PRODUCED
Publisher_001,topicA,topicA-90,172.172.1.1:1883,1551659239434,PRODUCED
Publisher_001,topicA,topicA-91,172.172.1.1:1883,1551659239533,PRODUCED
Publisher_001,topicA,topicA-92,172.172.1.1:1883,1551659239633,PRODUCED
Publisher_001,topicA,topicA-93,172.172.1.1:1883,1551659239733,PRODUCED
Publisher_001,topicA,topicA-94,172.172.1.1:1883,1551659239835,PRODUCED
Publisher_001,topicA,topicA-95,172.172.1.1:1883,1551659239933,PRODUCED
Publisher_001,topicA,topicA-96,172.172.1.1:1883,1551659240033,PRODUCED
Publisher_001,topicA,topicA-97,172.172.1.1:1883,1551659240138,PRODUCED
Publisher_001,topicA,topicA-98,172.172.1.1:1883,1551659240233,PRODUCED
Publisher_001,topicA,topicA-99,172.172.1.1:1883,1551659240333,PRODUCED
Publisher_001,topicA,topicA-100,172.172.1.1:1883,1551659240433,PRODUCED
Publisher_001,topicA,topicA-101,172.172.1.1:1883,1551659240533,PRODUCED
Publisher_001,topicA,topicA-102,172.172.1.1:1883,1551659240638,PRODUCED
Publisher_001,topicA,topicA-103,172.172.1.1:1883,1551659240733,PRODUCED
Publisher_001,topicA,topicA-104,172.172.1.1:1883,1551659240835,PRODUCED
Publisher_001,topicA,topicA-105,172.172.1.1:1883,1551659240934,PRODUCED
Publisher_001,topicA,topicA-106,172.172.1.1:1883,1551659241033,PRODUCED
Publisher_001,topicA,topicA-107,172.172.1.1:1883,1551659241133,PRODUCED
Publisher_001,topicA,topicA-108,172.172.1.1:1883,1551659241234,PRODUCED
Publisher_001,topicA,topicA-109,172.172.1.1:1883,1551659241334,PRODUCED
Publisher_001,topicA,topicA-110,172.172.1.1:1883,1551659241433,PRODUCED
Publisher_001,topicA,topicA-111,172.172.1.1:1883,1551659241534,PRODUCED
Publisher_001,topicA,topicA-112,172.172.1.1:1883,1551659241633,PRODUCED
Publisher_001,topicA,topicA-113,172.172.1.1:1883,1551659241733,PRODUCED
Publisher_001,topicA,topicA-114,172.172.1.1:1883,1551659241833,PRODUCED
Publisher_001,topicA,topicA-115,172.172.1.1:1883,1551659241940,PRODUCED
Publisher_001,topicA,topicA-116,172.172.1.1:1883,1551659242033,PRODUCED
Publisher_001,topicA,topicA-117,172.172.1.1:1883,1551659242133,PRODUCED
Publisher_001,topicA,topicA-118,172.172.1.1:1883,1551659242233,PRODUCED
Publisher_001,topicA,topicA-119,172.172.1.1:1883,1551659242334,PRODUCED
Publisher_001,topicA,topicA-120,172.172.1.1:1883,1551659242433,PRODUCED
Publisher_001,topicA,topicA-121,172.172.1.1:1883,1551659242533,PRODUCED
Publisher_001,topicA,topicA-122,172.172.1.1:1883,1551659242633,PRODUCED
Publisher_001,topicA,topicA-123,172.172.1.1:1883,1551659242733,PRODUCED
Publisher_001,topicA,topicA-124,172.172.1.1:1883,1551659242834,PRODUCED
Publisher_001,topicA,topicA-125,172.172.1.1:1883,1551659242933,PRODUCED
Publisher_001,topicA,topicA-126,172.172.1.1:1883,1551659243033,PRODUCED
Publisher_001,topicA,topicA-127,172.172.1.1:1883,1551659243133,PRODUCED
Publisher_001,topicA,topicA-128,172.172.1.1:1883,1551659243233,PRODUCED
Publisher_001,topicA,topicA-129,172.172.1.1:1883,1551659243333,PRODUCED
Publisher_001,topicA,topicA-130,172.172.1.1:1883,1551659243433,PRODUCED
Publisher_001,topicA,topicA-131,172.172.1.1:1883,1551659243533,PRODUCED
Publisher_001,topicA,topicA-132,172.172.1.1:1883,1551659243633,PRODUCED
Publisher_001,topicA,topicA-133,172.172.1.1:1883,1551659243733,PRODUCED
Publisher_001,topicA,topicA-134,172.172.1.1:1883,1551659243833,PRODUCED
Publisher_001,topicA,topicA-135,172.172.1.1:1883,1551659243933,PRODUCED
Publisher_001,topicA,topicA-136,172.172.1.1:1883,1551659244033,PRODUCED
Publisher_001,topicA,topicA-137,172.172.1.1:1883,1551659244133,PRODUCED
Publisher_001,topicA,topicA-138,172.172.1.1:1883,1551659244237,PRODUCED
Publisher_001,topicA,topicA-139,172.172.1.1:1883,1551659244333,PRODUCED
Publisher_001,topicA,topicA-140,172.172.1.1:1883,1551659244433,PRODUCED
Publisher_001,topicA,topicA-141,172.172.1.1:1883,1551659244533,PRODUCED
Publisher_001,topicA,topicA-142,172.172.1.1:1883,1551659244633,PRODUCED
Publisher_001,topicA,topicA-143,172.172.1.1:1883,1551659244734,PRODUCED
Publisher_001,topicA,topicA-144,172.172.1.1:1883,1551659244833,PRODUCED
Publisher_001,topicA,topicA-145,172.172.1.1:1883,1551659244933,PRODUCED
Publisher_001,topicA,topicA-146,172.172.1.1:1883,1551659245033,PRODUCED
Publisher_001,topicA,topicA-147,172.172.1.1:1883,1551659245133,PRODUCED
Publisher_001,topicA,topicA-148,172.172.1.1:1883,1551659245241,PRODUCED
Publisher_001,topicA,topicA-149,172.172.1.1:1883,1551659245339,PRODUCED
Publisher_001,topicA,topicA-150,172.172.1.1:1883,1551659245433,PRODUCED
Publisher_001,topicA,topicA-151,172.172.1.1:1883,1551659245534,PRODUCED
Publisher_001,topicA,topicA-152,172.172.1.1:1883,1551659245633,PRODUCED
Publisher_001,topicA,topicA-153,172.172.1.1:1883,1551659245733,PRODUCED
Publisher_001,topicA,topicA-154,172.172.1.1:1883,1551659245833,PRODUCED
Publisher_001,topicA,topicA-155,172.172.1.1:1883,1551659245933,PRODUCED
Publisher_001,topicA,topicA-156,172.172.1.1:1883,1551659246033,PRODUCED
Publisher_001,topicA,topicA-157,172.172.1.1:1883,1551659246135,PRODUCED
Publisher_001,topicA,topicA-158,172.172.1.1:1883,1551659246233,PRODUCED
Publisher_001,topicA,topicA-159,172.172.1.1:1883,1551659246334,PRODUCED
Publisher_001,topicA,topicA-160,172.172.1.1:1883,1551659246433,PRODUCED
Publisher_001,topicA,topicA-161,172.172.1.1:1883,1551659246534,PRODUCED
Publisher_001,topicA,topicA-162,172.172.1.1:1883,1551659246633,PRODUCED
Publisher_001,topicA,topicA-163,172.172.1.1:1883,1551659246733,PRODUCED
Publisher_001,topicA,topicA-164,172.172.1.1:1883,1551659246833,PRODUCED
Publisher_001,topicA,topicA-165,172.172.1.1:1883,1551659246934,PRODUCED
Publisher_001,topicA,topicA-166,172.172.1.1:1883,1551659247034,PRODUCED
Publisher_001,topicA,topicA-167,172.172.1.1:1883,1551659247133,PRODUCED
Publisher_001,topicA,topicA-168,172.172.1.1:1883,1551659247233,PRODUCED
Publisher_001,topicA,topicA-169,172.172.1.1:1883,1551659247333,PRODUCED
Publisher_001,topicA,topicA-170,172.172.1.1:1883,1551659247433,PRODUCED
Publisher_001,topicA,topicA-171,172.172.1.1:1883,1551659247533,PRODUCED
Publisher_001,topicA,topicA-172,172.172.1.1:1883,1551659247633,PRODUCED
Publisher_001,topicA,topicA-173,172.172.1.1:1883,1551659247733,PRODUCED
Publisher_001,topicA,topicA-174,172.172.1.1:1883,1551659247833,PRODUCED
Publisher_001,topicA,topicA-175,172.172.1.1:1883,1551659247933,PRODUCED
Publisher_001,topicA,topicA-176,172.172.1.1:1883,1551659248033,PRODUCED
Publisher_001,topicA,topicA-177,172.172.1.1:1883,1551659248133,PRODUCED
Publisher_001,topicA,topicA-178,172.172.1.1:1883,1551659248233,PRODUCED
Publisher_001,topicA,topicA-179,172.172.1.1:1883,1551659248333,PRODUCED
Publisher_001,topicA,topicA-180,172.172.1.1:1883,1551659248434,PRODUCED
Publisher_001,topicA,topicA-181,172.172.1.1:1883,1551659248533,PRODUCED
Publisher_001,topicA,topicA-182,172.172.1.1:1883,1551659248634,PRODUCED
Publisher_001,topicA,topicA-183,172.172.1.1:1883,1551659248734,PRODUCED
Publisher_001,topicA,topicA-184,172.172.1.1:1883,1551659248834,PRODUCED
Publisher_001,topicA,topicA-185,172.172.1.1:1883,1551659248933,PRODUCED
Publisher_001,topicA,topicA-186,172.172.1.1:1883,1551659249033,PRODUCED
Publisher_001,topicA,topicA-187,172.172.1.1:1883,1551659249143,PRODUCED
Publisher_001,topicA,topicA-188,172.172.1.1:1883,1551659249233,PRODUCED
Publisher_001,topicA,topicA-189,172.172.1.1:1883,1551659249334,PRODUCED
Publisher_001,topicA,topicA-190,172.172.1.1:1883,1551659249434,PRODUCED
Publisher_001,topicA,topicA-191,172.172.1.1:1883,1551659249533,PRODUCED
Publisher_001,topicA,topicA-192,172.172.1.1:1883,1551659249640,PRODUCED
Publisher_001,topicA,topicA-193,172.172.1.1:1883,1551659249733,PRODUCED
Publisher_001,topicA,topicA-194,172.172.1.1:1883,1551659249835,PRODUCED
Publisher_001,topicA,topicA-195,172.172.1.1:1883,1551659249933,PRODUCED
Publisher_001,topicA,topicA-196,172.172.1.1:1883,1551659250033,PRODUCED
Publisher_001,topicA,topicA-197,172.172.1.1:1883,1551659250133,PRODUCED
Publisher_001,topicA,topicA-198,172.172.1.1:1883,1551659250234,PRODUCED
Publisher_001,topicA,topicA-199,172.172.1.1:1883,1551659250333,PRODUCED
Publisher_001,topicA,topicA-200,172.172.1.1:1883,1551659250433,PRODUCED
Publisher_001,topicA,topicA-201,172.172.1.1:1883,1551659250534,PRODUCED
Publisher_001,topicA,topicA-202,172.172.1.1:1883,1551659250633,PRODUCED
Publisher_001,topicA,topicA-203,172.172.1.1:1883,1551659250733,PRODUCED
Publisher_001,topicA,topicA-204,172.172.1.1:1883,1551659250834,PRODUCED
Publisher_001,topicA,topicA-205,172.172.1.1:1883,1551659250935,PRODUCED
Publisher_001,topicA,topicA-206,172.172.1.1:1883,1551659251033,PRODUCED
Publisher_001,topicA,topicA-207,172.172.1.1:1883,1551659251133,PRODUCED
Publisher_001,topicA,topicA-208,172.172.1.1:1883,1551659251233,PRODUCED
Publisher_001,topicA,topicA-209,172.172.1.1:1883,1551659251335,PRODUCED
Publisher_001,topicA,topicA-210,172.172.1.1:1883,1551659251433,PRODUCED
Publisher_001,topicA,topicA-211,172.172.1.1:1883,1551659251533,PRODUCED
Publisher_001,topicA,topicA-212,172.172.1.1:1883,1551659251633,PRODUCED
Publisher_001,topicA,topicA-213,172.172.1.1:1883,1551659251733,PRODUCED
Publisher_001,topicA,topicA-214,172.172.1.1:1883,1551659251833,PRODUCED
Publisher_001,topicA,topicA-215,172.172.1.1:1883,1551659251933,PRODUCED
Publisher_001,topicA,topicA-216,172.172.1.1:1883,1551659252033,PRODUCED
Publisher_001,topicA,topicA-217,172.172.1.1:1883,1551659252133,PRODUCED
Publisher_001,topicA,topicA-218,172.172.1.1:1883,1551659252233,PRODUCED
Publisher_001,topicA,topicA-219,172.172.1.1:1883,1551659252333,PRODUCED
Publisher_001,topicA,topicA-220,172.172.1.1:1883,1551659252433,PRODUCED
Publisher_001,topicA,topicA-221,172.172.1.1:1883,1551659252533,PRODUCED
Publisher_001,topicA,topicA-222,172.172.1.1:1883,1551659252634,PRODUCED
Publisher_001,topicA,topicA-223,172.172.1.1:1883,1551659252734,PRODUCED
Publisher_001,topicA,topicA-224,172.172.1.1:1883,1551659252833,PRODUCED
Publisher_001,topicA,topicA-225,172.172.1.1:1883,1551659252933,PRODUCED
Publisher_001,topicA,topicA-226,172.172.1.1:1883,1551659253033,PRODUCED
Publisher_001,topicA,topicA-227,172.172.1.1:1883,1551659253133,PRODUCED
Publisher_001,topicA,topicA-228,172.172.1.1:1883,1551659253233,PRODUCED
Publisher_001,topicA,topicA-229,172.172.1.1:1883,1551659253333,PRODUCED
Publisher_001,topicA,topicA-230,172.172.1.1:1883,1551659253434,PRODUCED
Publisher_001,topicA,topicA-231,172.172.1.1:1883,1551659253533,PRODUCED
Publisher_001,topicA,topicA-232,172.172.1.1:1883,1551659253633,PRODUCED
Publisher_001,topicA,topicA-233,172.172.1.1:1883,1551659253734,PRODUCED
Publisher_001,topicA,topicA-234,172.172.1.1:1883,1551659253833,PRODUCED
Publisher_001,topicA,topicA-235,172.172.1.1:1883,1551659253934,PRODUCED
Publisher_001,topicA,topicA-236,172.172.1.1:1883,1551659254035,PRODUCED
Publisher_001,topicA,topicA-237,172.172.1.1:1883,1551659254133,PRODUCED
Publisher_001,topicA,topicA-238,172.172.1.1:1883,1551659254233,PRODUCED
Publisher_001,topicA,topicA-239,172.172.1.1:1883,1551659254334,PRODUCED
Publisher_001,topicA,topicA-240,172.172.1.1:1883,1551659254434,PRODUCED
Publisher_001,topicA,topicA-241,172.172.1.1:1883,1551659254535,PRODUCED
Publisher_001,topicA,topicA-242,172.172.1.1:1883,1551659254633,PRODUCED
Publisher_001,topicA,topicA-243,172.172.1.1:1883,1551659254733,PRODUCED
Publisher_001,topicA,topicA-244,172.172.1.1:1883,1551659254834,PRODUCED
Publisher_001,topicA,topicA-245,172.172.1.1:1883,1551659254933,PRODUCED
Publisher_001,topicA,topicA-246,172.172.1.1:1883,1551659255033,PRODUCED
Publisher_001,topicA,topicA-247,172.172.1.1:1883,1551659255133,PRODUCED
Publisher_001,topicA,topicA-248,172.172.1.1:1883,1551659255233,PRODUCED
Publisher_001,topicA,topicA-249,172.172.1.1:1883,1551659255333,PRODUCED
Publisher_001,topicA,topicA-250,172.172.1.1:1883,1551659255433,PRODUCED
Publisher_001,topicA,topicA-251,172.172.1.1:1883,1551659255533,PRODUCED
Publisher_001,topicA,topicA-252,172.172.1.1:1883,1551659255633,PRODUCED
Publisher_001,topicA,topicA-253,172.172.1.1:1883,1551659255733,PRODUCED
Publisher_001,topicA,topicA-254,172.172.1.1:1883,1551659255833,PRODUCED
Publisher_001,topicA,topicA-255,172.172.1.1:1883,1551659255933,PRODUCED
Publisher_001,topicA,topicA-256,172.172.1.1:1883,1551659256033,PRODUCED
Publisher_001,topicA,topicA-257,172.172.1.1:1883,1551659256134,PRODUCED
Publisher_001,topicA,topicA-258,172.172.1.1:1883,1551659256233,PRODUCED
Publisher_001,topicA,topicA-259,172.172.1.1:1883,1551659256333,PRODUCED
Publisher_001,topicA,topicA-260,172.172.1.1:1883,1551659256433,PRODUCED
Publisher_001,topicA,topicA-261,172.172.1.1:1883,1551659256533,PRODUCED
Publisher_001,topicA,topicA-262,172.172.1.1:1883,1551659256633,PRODUCED
Publisher_001,topicA,topicA-263,172.172.1.1:1883,1551659256733,PRODUCED
Publisher_001,topicA,topicA-264,172.172.1.1:1883,1551659256834,PRODUCED
Publisher_001,topicA,topicA-265,172.172.1.1:1883,1551659256937,PRODUCED
Publisher_001,topicA,topicA-266,172.172.1.1:1883,1551659257033,PRODUCED
Publisher_001,topicA,topicA-267,172.172.1.1:1883,1551659257133,PRODUCED
Publisher_001,topicA,topicA-268,172.172.1.1:1883,1551659257233,PRODUCED
Publisher_001,topicA,topicA-269,172.172.1.1:1883,1551659257333,PRODUCED
Publisher_001,topicA,topicA-270,172.172.1.1:1883,1551659257433,PRODUCED
Publisher_001,topicA,topicA-271,172.172.1.1:1883,1551659257533,PRODUCED
Publisher_001,topicA,topicA-272,172.172.1.1:1883,1551659257633,PRODUCED
Publisher_001,topicA,topicA-273,172.172.1.1:1883,1551659257734,PRODUCED
Publisher_001,topicA,topicA-274,172.172.1.1:1883,1551659257833,PRODUCED
Publisher_001,topicA,topicA-275,172.172.1.1:1883,1551659257933,PRODUCED
Publisher_001,topicA,topicA-276,172.172.1.1:1883,1551659258034,PRODUCED
Publisher_001,topicA,topicA-277,172.172.1.1:1883,1551659258133,PRODUCED
Publisher_001,topicA,topicA-278,172.172.1.1:1883,1551659258233,PRODUCED
Publisher_001,topicA,topicA-279,172.172.1.1:1883,1551659258333,PRODUCED
Publisher_001,topicA,topicA-280,172.172.1.1:1883,1551659258436,PRODUCED
Publisher_001,topicA,topicA-281,172.172.1.1:1883,1551659258533,PRODUCED
Publisher_001,topicA,topicA-282,172.172.1.1:1883,1551659258633,PRODUCED
Publisher_001,topicA,topicA-283,172.172.1.1:1883,1551659258734,PRODUCED
Publisher_001,topicA,topicA-284,172.172.1.1:1883,1551659258833,PRODUCED
Publisher_001,topicA,topicA-285,172.172.1.1:1883,1551659258933,PRODUCED
Publisher_001,topicA,topicA-286,172.172.1.1:1883,1551659259033,PRODUCED
Publisher_001,topicA,topicA-287,172.172.1.1:1883,1551659259133,PRODUCED
Publisher_001,topicA,topicA-288,172.172.1.1:1883,1551659259234,PRODUCED
Publisher_001,topicA,topicA-289,172.172.1.1:1883,1551659259334,PRODUCED
Publisher_001,topicA,topicA-290,172.172.1.1:1883,1551659259434,PRODUCED
Publisher_001,topicA,topicA-291,172.172.1.1:1883,1551659259533,PRODUCED
Publisher_001,topicA,topicA-292,172.172.1.1:1883,1551659259633,PRODUCED
Publisher_001,topicA,topicA-293,172.172.1.1:1883,1551659259734,PRODUCED
Publisher_001,topicA,topicA-294,172.172.1.1:1883,1551659259834,PRODUCED
Publisher_001,topicA,topicA-295,172.172.1.1:1883,1551659259933,PRODUCED
Publisher_001,topicA,topicA-296,172.172.1.1:1883,1551659260033,PRODUCED
Publisher_001,topicA,topicA-297,172.172.1.1:1883,1551659260134,PRODUCED
Publisher_001,topicA,topicA-298,172.172.1.1:1883,1551659260233,PRODUCED
Publisher_001,topicA,topicA-299,172.172.1.1:1883,1551659260334,PRODUCED
Publisher_001,topicA,topicA-300,172.172.1.1:1883,1551659260433,PRODUCED
Publisher_001,topicA,topicA-301,172.172.1.1:1883,1551659260534,PRODUCED
Publisher_001,topicA,topicA-302,172.172.1.1:1883,1551659260634,PRODUCED
Publisher_001,topicA,topicA-303,172.172.1.1:1883,1551659260733,PRODUCED
Publisher_001,topicA,topicA-304,172.172.1.1:1883,1551659260834,PRODUCED
Publisher_001,topicA,topicA-305,172.172.1.1:1883,1551659260933,PRODUCED
Publisher_001,topicA,topicA-306,172.172.1.1:1883,1551659261033,PRODUCED
Publisher_001,topicA,topicA-307,172.172.1.1:1883,1551659261133,PRODUCED
Publisher_001,topicA,topicA-308,172.172.1.1:1883,1551659261233,PRODUCED
Publisher_001,topicA,topicA-309,172.172.1.1:1883,1551659261333,PRODUCED
Publisher_001,topicA,topicA-310,172.172.1.1:1883,1551659261433,PRODUCED
Publisher_001,topicA,topicA-311,172.172.1.1:1883,1551659261533,PRODUCED
Publisher_001,topicA,topicA-312,172.172.1.1:1883,1551659261633,PRODUCED
Publisher_001,topicA,topicA-313,172.172.1.1:1883,1551659261733,PRODUCED
Publisher_001,topicA,topicA-314,172.172.1.1:1883,1551659261835,PRODUCED
Publisher_001,topicA,topicA-315,172.172.1.1:1883,1551659261934,PRODUCED
Publisher_001,topicA,topicA-316,172.172.1.1:1883,1551659262033,PRODUCED
Publisher_001,topicA,topicA-317,172.172.1.1:1883,1551659262133,PRODUCED
Publisher_001,topicA,topicA-318,172.172.1.1:1883,1551659262234,PRODUCED
Publisher_001,topicA,topicA-319,172.172.1.1:1883,1551659262333,PRODUCED
Publisher_001,topicA,topicA-320,172.172.1.1:1883,1551659262433,PRODUCED
Publisher_001,topicA,topicA-321,172.172.1.1:1883,1551659262534,PRODUCED
Publisher_001,topicA,topicA-322,172.172.1.1:1883,1551659262633,PRODUCED
Publisher_001,topicA,topicA-323,172.172.1.1:1883,1551659262733,PRODUCED
Publisher_001,topicA,topicA-324,172.172.1.1:1883,1551659262833,PRODUCED
Publisher_001,topicA,topicA-325,172.172.1.1:1883,1551659262935,PRODUCED
Publisher_001,topicA,topicA-326,172.172.1.1:1883,1551659263034,PRODUCED
Publisher_001,topicA,topicA-327,172.172.1.1:1883,1551659263133,PRODUCED
Publisher_001,topicA,topicA-328,172.172.1.1:1883,1551659263233,PRODUCED
Publisher_001,topicA,topicA-329,172.172.1.1:1883,1551659263333,PRODUCED
Publisher_001,topicA,topicA-330,172.172.1.1:1883,1551659263433,PRODUCED
Publisher_001,topicA,topicA-331,172.172.1.1:1883,1551659263532,PRODUCED
Publisher_001,topicA,topicA-332,172.172.1.1:1883,1551659263633,PRODUCED
Publisher_001,topicA,topicA-333,172.172.1.1:1883,1551659263733,PRODUCED
Publisher_001,topicA,topicA-334,172.172.1.1:1883,1551659263834,PRODUCED
Publisher_001,topicA,topicA-335,172.172.1.1:1883,1551659263933,PRODUCED
Publisher_001,topicA,topicA-336,172.172.1.1:1883,1551659264033,PRODUCED
Publisher_001,topicA,topicA-337,172.172.1.1:1883,1551659264136,PRODUCED
Publisher_001,topicA,topicA-338,172.172.1.1:1883,1551659264233,PRODUCED
Publisher_001,topicA,topicA-339,172.172.1.1:1883,1551659264333,PRODUCED
Publisher_001,topicA,topicA-340,172.172.1.1:1883,1551659264433,PRODUCED
Publisher_001,topicA,topicA-341,172.172.1.1:1883,1551659264533,PRODUCED
Publisher_001,topicA,topicA-342,172.172.1.1:1883,1551659264633,PRODUCED
Publisher_001,topicA,topicA-343,172.172.1.1:1883,1551659264733,PRODUCED
Publisher_001,topicA,topicA-344,172.172.1.1:1883,1551659264833,PRODUCED
Publisher_001,topicA,topicA-345,172.172.1.1:1883,1551659264933,PRODUCED
Publisher_001,topicA,topicA-346,172.172.1.1:1883,1551659265034,PRODUCED
Publisher_001,topicA,topicA-347,172.172.1.1:1883,1551659265133,PRODUCED
Publisher_001,topicA,topicA-348,172.172.1.1:1883,1551659265234,PRODUCED
Publisher_001,topicA,topicA-349,172.172.1.1:1883,1551659265333,PRODUCED
Publisher_001,topicA,topicA-350,172.172.1.1:1883,1551659265433,PRODUCED
Publisher_001,topicA,topicA-351,172.172.1.1:1883,1551659265533,PRODUCED
Publisher_001,topicA,topicA-352,172.172.1.1:1883,1551659265633,PRODUCED
Publisher_001,topicA,topicA-353,172.172.1.1:1883,1551659265734,PRODUCED
Publisher_001,topicA,topicA-354,172.172.1.1:1883,1551659265833,PRODUCED
Publisher_001,topicA,topicA-355,172.172.1.1:1883,1551659265933,PRODUCED
Publisher_001,topicA,topicA-356,172.172.1.1:1883,1551659266033,PRODUCED
Publisher_001,topicA,topicA-357,172.172.1.1:1883,1551659266134,PRODUCED
Publisher_001,topicA,topicA-358,172.172.1.1:1883,1551659266233,PRODUCED
Publisher_001,topicA,topicA-359,172.172.1.1:1883,1551659266333,PRODUCED
Publisher_001,topicA,topicA-360,172.172.1.1:1883,1551659266437,PRODUCED
Publisher_001,topicA,topicA-361,172.172.1.1:1883,1551659266534,PRODUCED
Publisher_001,topicA,topicA-362,172.172.1.1:1883,1551659266633,PRODUCED
Publisher_001,topicA,topicA-363,172.172.1.1:1883,1551659266734,PRODUCED
Publisher_001,topicA,topicA-364,172.172.1.1:1883,1551659266834,PRODUCED
Publisher_001,topicA,topicA-365,172.172.1.1:1883,1551659266933,PRODUCED
Publisher_001,topicA,topicA-366,172.172.1.1:1883,1551659267033,PRODUCED
Publisher_001,topicA,topicA-367,172.172.1.1:1883,1551659267132,PRODUCED
Publisher_001,topicA,topicA-368,172.172.1.1:1883,1551659267233,PRODUCED
Publisher_001,topicA,topicA-369,172.172.1.1:1883,1551659267334,PRODUCED
Publisher_001,topicA,topicA-370,172.172.1.1:1883,1551659267432,PRODUCED
Publisher_001,topicA,topicA-371,172.172.1.1:1883,1551659267533,PRODUCED
Publisher_001,topicA,topicA-372,172.172.1.1:1883,1551659267636,PRODUCED
Publisher_001,topicA,topicA-373,172.172.1.1:1883,1551659267734,PRODUCED
Publisher_001,topicA,topicA-374,172.172.1.1:1883,1551659267834,PRODUCED
Publisher_001,topicA,topicA-375,172.172.1.1:1883,1551659267935,PRODUCED
Publisher_001,topicA,topicA-376,172.172.1.1:1883,1551659268033,PRODUCED
Publisher_001,topicA,topicA-377,172.172.1.1:1883,1551659268133,PRODUCED
Publisher_001,topicA,topicA-378,172.172.1.1:1883,1551659268233,PRODUCED
Publisher_001,topicA,topicA-379,172.172.1.1:1883,1551659268333,PRODUCED
Publisher_001,topicA,topicA-380,172.172.1.1:1883,1551659268433,PRODUCED
Publisher_001,topicA,topicA-381,172.172.1.1:1883,1551659268533,PRODUCED
Publisher_001,topicA,topicA-382,172.172.1.1:1883,1551659268633,PRODUCED
Publisher_001,topicA,topicA-383,172.172.1.1:1883,1551659268735,PRODUCED
Publisher_001,topicA,topicA-384,172.172.1.1:1883,1551659268833,PRODUCED
Publisher_001,topicA,topicA-385,172.172.1.1:1883,1551659268933,PRODUCED
Publisher_001,topicA,topicA-386,172.172.1.1:1883,1551659269034,PRODUCED
Publisher_001,topicA,topicA-387,172.172.1.1:1883,1551659269133,PRODUCED
Publisher_001,topicA,topicA-388,172.172.1.1:1883,1551659269233,PRODUCED
Publisher_001,topicA,topicA-389,172.172.1.1:1883,1551659269333,PRODUCED
Publisher_001,topicA,topicA-390,172.172.1.1:1883,1551659269433,PRODUCED
Publisher_001,topicA,topicA-391,172.172.1.1:1883,1551659269533,PRODUCED
Publisher_001,topicA,topicA-392,172.172.1.1:1883,1551659269633,PRODUCED
Publisher_001,topicA,topicA-393,172.172.1.1:1883,1551659269733,PRODUCED
Publisher_001,topicA,topicA-394,172.172.1.1:1883,1551659269833,PRODUCED
Publisher_001,topicA,topicA-395,172.172.1.1:1883,1551659269934,PRODUCED
Publisher_001,topicA,topicA-396,172.172.1.1:1883,1551659270033,PRODUCED
Publisher_001,topicA,topicA-397,172.172.1.1:1883,1551659270134,PRODUCED
Publisher_001,topicA,topicA-398,172.172.1.1:1883,1551659270233,PRODUCED
Publisher_001,topicA,topicA-399,172.172.1.1:1883,1551659270333,PRODUCED
Publisher_001,topicA,topicA-400,172.172.1.1:1883,1551659270433,PRODUCED
Publisher_001,topicA,topicA-401,172.172.1.1:1883,1551659270533,PRODUCED
Publisher_001,topicA,topicA-402,172.172.1.1:1883,1551659270632,PRODUCED
Publisher_001,topicA,topicA-403,172.172.1.1:1883,1551659270733,PRODUCED
Publisher_001,topicA,topicA-404,172.172.1.1:1883,1551659270833,PRODUCED
Publisher_001,topicA,topicA-405,172.172.1.1:1883,1551659270933,PRODUCED
Publisher_001,topicA,topicA-406,172.172.1.1:1883,1551659271033,PRODUCED
Publisher_001,topicA,topicA-407,172.172.1.1:1883,1551659271133,PRODUCED
Publisher_001,topicA,topicA-408,172.172.1.1:1883,1551659271233,PRODUCED
Publisher_001,topicA,topicA-409,172.172.1.1:1883,1551659271333,PRODUCED
Publisher_001,topicA,topicA-410,172.172.1.1:1883,1551659271433,PRODUCED
Publisher_001,topicA,topicA-411,172.172.1.1:1883,1551659271533,PRODUCED
Publisher_001,topicA,topicA-412,172.172.1.1:1883,1551659271633,PRODUCED
Publisher_001,topicA,topicA-413,172.172.1.1:1883,1551659271736,PRODUCED
Publisher_001,topicA,topicA-414,172.172.1.1:1883,1551659271833,PRODUCED
Publisher_001,topicA,topicA-415,172.172.1.1:1883,1551659271933,PRODUCED
Publisher_001,topicA,topicA-416,172.172.1.1:1883,1551659272033,PRODUCED
Publisher_001,topicA,topicA-417,172.172.1.1:1883,1551659272133,PRODUCED
Publisher_001,topicA,topicA-418,172.172.1.1:1883,1551659272233,PRODUCED
Publisher_001,topicA,topicA-419,172.172.1.1:1883,1551659272333,PRODUCED
Publisher_001,topicA,topicA-420,172.172.1.1:1883,1551659272434,PRODUCED
Publisher_001,topicA,topicA-421,172.172.1.1:1883,1551659272534,PRODUCED
Publisher_001,topicA,topicA-422,172.172.1.1:1883,1551659272634,PRODUCED
Publisher_001,topicA,topicA-423,172.172.1.1:1883,1551659272733,PRODUCED
Publisher_001,topicA,topicA-424,172.172.1.1:1883,1551659272833,PRODUCED
Publisher_001,topicA,topicA-425,172.172.1.1:1883,1551659272933,PRODUCED
Publisher_001,topicA,topicA-426,172.172.1.1:1883,1551659273033,PRODUCED
Publisher_001,topicA,topicA-427,172.172.1.1:1883,1551659273133,PRODUCED
Publisher_001,topicA,topicA-428,172.172.1.1:1883,1551659273233,PRODUCED
Publisher_001,topicA,topicA-429,172.172.1.1:1883,1551659273334,PRODUCED
Publisher_001,topicA,topicA-430,172.172.1.1:1883,1551659273433,PRODUCED
Publisher_001,topicA,topicA-431,172.172.1.1:1883,1551659273534,PRODUCED
Publisher_001,topicA,topicA-432,172.172.1.1:1883,1551659273634,PRODUCED
Publisher_001,topicA,topicA-433,172.172.1.1:1883,1551659273733,PRODUCED
Publisher_001,topicA,topicA-434,172.172.1.1:1883,1551659273834,PRODUCED
Publisher_001,topicA,topicA-435,172.172.1.1:1883,1551659273933,PRODUCED
Publisher_001,topicA,topicA-436,172.172.1.1:1883,1551659274033,PRODUCED
Publisher_001,topicA,topicA-437,172.172.1.1:1883,1551659274133,PRODUCED
Publisher_001,topicA,topicA-438,172.172.1.1:1883,1551659274234,PRODUCED
Publisher_001,topicA,topicA-439,172.172.1.1:1883,1551659274333,PRODUCED
Publisher_001,topicA,topicA-440,172.172.1.1:1883,1551659274433,PRODUCED
Publisher_001,topicA,topicA-441,172.172.1.1:1883,1551659274533,PRODUCED
Publisher_001,topicA,topicA-442,172.172.1.1:1883,1551659274634,PRODUCED
Publisher_001,topicA,topicA-443,172.172.1.1:1883,1551659274734,PRODUCED
Publisher_001,topicA,topicA-444,172.172.1.1:1883,1551659274834,PRODUCED
Publisher_001,topicA,topicA-445,172.172.1.1:1883,1551659274933,PRODUCED
Publisher_001,topicA,topicA-446,172.172.1.1:1883,1551659275033,PRODUCED
Publisher_001,topicA,topicA-447,172.172.1.1:1883,1551659275133,PRODUCED
Publisher_001,topicA,topicA-448,172.172.1.1:1883,1551659275233,PRODUCED
Publisher_001,topicA,topicA-449,172.172.1.1:1883,1551659275333,PRODUCED
Publisher_001,topicA,topicA-450,172.172.1.1:1883,1551659275433,PRODUCED
Publisher_001,topicA,topicA-451,172.172.1.1:1883,1551659275533,PRODUCED
Publisher_001,topicA,topicA-452,172.172.1.1:1883,1551659275633,PRODUCED
Publisher_001,topicA,topicA-453,172.172.1.1:1883,1551659275733,PRODUCED
Publisher_001,topicA,topicA-454,172.172.1.1:1883,1551659275833,PRODUCED
Publisher_001,topicA,topicA-455,172.172.1.1:1883,1551659275933,PRODUCED
Publisher_001,topicA,topicA-456,172.172.1.1:1883,1551659276033,PRODUCED
Publisher_001,topicA,topicA-457,172.172.1.1:1883,1551659276133,PRODUCED
Publisher_001,topicA,topicA-458,172.172.1.1:1883,1551659276233,PRODUCED
Publisher_001,topicA,topicA-459,172.172.1.1:1883,1551659276333,PRODUCED
Publisher_001,topicA,topicA-460,172.172.1.1:1883,1551659276433,PRODUCED
Publisher_001,topicA,topicA-461,172.172.1.1:1883,1551659276533,PRODUCED
Publisher_001,topicA,topicA-462,172.172.1.1:1883,1551659276633,PRODUCED
Publisher_001,topicA,topicA-463,172.172.1.1:1883,1551659276733,PRODUCED
Publisher_001,topicA,topicA-464,172.172.1.1:1883,1551659276839,PRODUCED
Publisher_001,topicA,topicA-465,172.172.1.1:1883,1551659276934,PRODUCED
Publisher_001,topicA,topicA-466,172.172.1.1:1883,1551659277034,PRODUCED
Publisher_001,topicA,topicA-467,172.172.1.1:1883,1551659277134,PRODUCED
Publisher_001,topicA,topicA-468,172.172.1.1:1883,1551659277233,PRODUCED
Publisher_001,topicA,topicA-469,172.172.1.1:1883,1551659277333,PRODUCED
Publisher_001,topicA,topicA-470,172.172.1.1:1883,1551659277434,PRODUCED
Publisher_001,topicA,topicA-471,172.172.1.1:1883,1551659277533,PRODUCED
Publisher_001,topicA,topicA-472,172.172.1.1:1883,1551659277634,PRODUCED
Publisher_001,topicA,topicA-473,172.172.1.1:1883,1551659277734,PRODUCED
Publisher_001,topicA,topicA-474,172.172.1.1:1883,1551659277834,PRODUCED
Publisher_001,topicA,topicA-475,172.172.1.1:1883,1551659277933,PRODUCED
Publisher_001,topicA,topicA-476,172.172.1.1:1883,1551659278032,PRODUCED
Publisher_001,topicA,topicA-477,172.172.1.1:1883,1551659278133,PRODUCED
Publisher_001,topicA,topicA-478,172.172.1.1:1883,1551659278233,PRODUCED
Publisher_001,topicA,topicA-479,172.172.1.1:1883,1551659278333,PRODUCED
Publisher_001,topicA,topicA-480,172.172.1.1:1883,1551659278433,PRODUCED
Publisher_001,topicA,topicA-481,172.172.1.1:1883,1551659278533,PRODUCED
Publisher_001,topicA,topicA-482,172.172.1.1:1883,1551659278633,PRODUCED
Publisher_001,topicA,topicA-483,172.172.1.1:1883,1551659278735,PRODUCED
Publisher_001,topicA,topicA-484,172.172.1.1:1883,1551659278833,PRODUCED
Publisher_001,topicA,topicA-485,172.172.1.1:1883,1551659278933,PRODUCED
Publisher_001,topicA,topicA-486,172.172.1.1:1883,1551659279033,PRODUCED
Publisher_001,topicA,topicA-487,172.172.1.1:1883,1551659279133,PRODUCED
Publisher_001,topicA,topicA-488,172.172.1.1:1883,1551659279234,PRODUCED
Publisher_001,topicA,topicA-489,172.172.1.1:1883,1551659279333,PRODUCED
Publisher_001,topicA,topicA-490,172.172.1.1:1883,1551659279433,PRODUCED
Publisher_001,topicA,topicA-491,172.172.1.1:1883,1551659279534,PRODUCED
Publisher_001,topicA,topicA-492,172.172.1.1:1883,1551659279633,PRODUCED
Publisher_001,topicA,topicA-493,172.172.1.1:1883,1551659279733,PRODUCED
Publisher_001,topicA,topicA-494,172.172.1.1:1883,1551659279833,PRODUCED
Publisher_001,topicA,topicA-495,172.172.1.1:1883,1551659279933,PRODUCED
Publisher_001,topicA,topicA-496,172.172.1.1:1883,1551659280033,PRODUCED
Publisher_001,topicA,topicA-497,172.172.1.1:1883,1551659280133,PRODUCED
Publisher_001,topicA,topicA-498,172.172.1.1:1883,1551659280234,PRODUCED
Publisher_001,topicA,topicA-499,172.172.1.1:1883,1551659280334,PRODUCED
Publisher_001,topicA,topicA-500,172.172.1.1:1883,1551659280433,PRODUCED
Publisher_001,topicA,topicA-501,172.172.1.1:1883,1551659280535,PRODUCED
Publisher_001,topicA,topicA-502,172.172.1.1:1883,1551659280633,PRODUCED
Publisher_001,topicA,topicA-503,172.172.1.1:1883,1551659280733,PRODUCED
Publisher_001,topicA,topicA-504,172.172.1.1:1883,1551659280834,PRODUCED
Publisher_001,topicA,topicA-505,172.172.1.1:1883,1551659280933,PRODUCED
Publisher_001,topicA,topicA-506,172.172.1.1:1883,1551659281034,PRODUCED
Publisher_001,topicA,topicA-507,172.172.1.1:1883,1551659281135,PRODUCED
Publisher_001,topicA,topicA-508,172.172.1.1:1883,1551659281233,PRODUCED
Publisher_001,topicA,topicA-509,172.172.1.1:1883,1551659281333,PRODUCED
Publisher_001,topicA,topicA-510,172.172.1.1:1883,1551659281434,PRODUCED
Publisher_001,topicA,topicA-511,172.172.1.1:1883,1551659281533,PRODUCED
Publisher_001,topicA,topicA-512,172.172.1.1:1883,1551659281633,PRODUCED
Publisher_001,topicA,topicA-513,172.172.1.1:1883,1551659281733,PRODUCED
Publisher_001,topicA,topicA-514,172.172.1.1:1883,1551659281836,PRODUCED
Publisher_001,topicA,topicA-515,172.172.1.1:1883,1551659281933,PRODUCED
Publisher_001,topicA,topicA-516,172.172.1.1:1883,1551659282033,PRODUCED
Publisher_001,topicA,topicA-517,172.172.1.1:1883,1551659282133,PRODUCED
Publisher_001,topicA,topicA-518,172.172.1.1:1883,1551659282233,PRODUCED
Publisher_001,topicA,topicA-519,172.172.1.1:1883,1551659282334,PRODUCED
Publisher_001,topicA,topicA-520,172.172.1.1:1883,1551659282433,PRODUCED
Publisher_001,topicA,topicA-521,172.172.1.1:1883,1551659282534,PRODUCED
Publisher_001,topicA,topicA-522,172.172.1.1:1883,1551659282633,PRODUCED
Publisher_001,topicA,topicA-523,172.172.1.1:1883,1551659282733,PRODUCED
Publisher_001,topicA,topicA-524,172.172.1.1:1883,1551659282833,PRODUCED
Publisher_001,topicA,topicA-525,172.172.1.1:1883,1551659282933,PRODUCED
Publisher_001,topicA,topicA-526,172.172.1.1:1883,1551659283034,PRODUCED
Publisher_001,topicA,topicA-527,172.172.1.1:1883,1551659283133,PRODUCED
Publisher_001,topicA,topicA-528,172.172.1.1:1883,1551659283233,PRODUCED
Publisher_001,topicA,topicA-529,172.172.1.1:1883,1551659283334,PRODUCED
Publisher_001,topicA,topicA-530,172.172.1.1:1883,1551659283433,PRODUCED
Publisher_001,topicA,topicA-531,172.172.1.1:1883,1551659283533,PRODUCED
Publisher_001,topicA,topicA-532,172.172.1.1:1883,1551659283633,PRODUCED
Publisher_001,topicA,topicA-533,172.172.1.1:1883,1551659283733,PRODUCED
Publisher_001,topicA,topicA-534,172.172.1.1:1883,1551659283833,PRODUCED
Publisher_001,topicA,topicA-535,172.172.1.1:1883,1551659283933,PRODUCED
Publisher_001,topicA,topicA-536,172.172.1.1:1883,1551659284033,PRODUCED
Publisher_001,topicA,topicA-537,172.172.1.1:1883,1551659284133,PRODUCED
Publisher_001,topicA,topicA-538,172.172.1.1:1883,1551659284234,PRODUCED
Publisher_001,topicA,topicA-539,172.172.1.1:1883,1551659284334,PRODUCED
Publisher_001,topicA,topicA-540,172.172.1.1:1883,1551659284433,PRODUCED
Publisher_001,topicA,topicA-541,172.172.1.1:1883,1551659284534,PRODUCED
Publisher_001,topicA,topicA-542,172.172.1.1:1883,1551659284633,PRODUCED
Publisher_001,topicA,topicA-543,172.172.1.1:1883,1551659284733,PRODUCED
Publisher_001,topicA,topicA-544,172.172.1.1:1883,1551659284833,PRODUCED
Publisher_001,topicA,topicA-545,172.172.1.1:1883,1551659284934,PRODUCED
Publisher_001,topicA,topicA-546,172.172.1.1:1883,1551659285034,PRODUCED
Publisher_001,topicA,topicA-547,172.172.1.1:1883,1551659285133,PRODUCED
Publisher_001,topicA,topicA-548,172.172.1.1:1883,1551659285233,PRODUCED
Publisher_001,topicA,topicA-549,172.172.1.1:1883,1551659285334,PRODUCED
Publisher_001,topicA,topicA-550,172.172.1.1:1883,1551659285433,PRODUCED
Publisher_001,topicA,topicA-551,172.172.1.1:1883,1551659285533,PRODUCED
Publisher_001,topicA,topicA-552,172.172.1.1:1883,1551659285633,PRODUCED
Publisher_001,topicA,topicA-553,172.172.1.1:1883,1551659285733,PRODUCED
Publisher_001,topicA,topicA-554,172.172.1.1:1883,1551659285834,PRODUCED
Publisher_001,topicA,topicA-555,172.172.1.1:1883,1551659285933,PRODUCED
Publisher_001,topicA,topicA-556,172.172.1.1:1883,1551659286033,PRODUCED
Publisher_001,topicA,topicA-557,172.172.1.1:1883,1551659286133,PRODUCED
Publisher_001,topicA,topicA-558,172.172.1.1:1883,1551659286233,PRODUCED
Publisher_001,topicA,topicA-559,172.172.1.1:1883,1551659286333,PRODUCED
Publisher_001,topicA,topicA-560,172.172.1.1:1883,1551659286434,PRODUCED
Publisher_001,topicA,topicA-561,172.172.1.1:1883,1551659286534,PRODUCED
Publisher_001,topicA,topicA-562,172.172.1.1:1883,1551659286633,PRODUCED
Publisher_001,topicA,topicA-563,172.172.1.1:1883,1551659286733,PRODUCED
Publisher_001,topicA,topicA-564,172.172.1.1:1883,1551659286833,PRODUCED
Publisher_001,topicA,topicA-565,172.172.1.1:1883,1551659286933,PRODUCED
Publisher_001,topicA,topicA-566,172.172.1.1:1883,1551659287033,PRODUCED
Publisher_001,topicA,topicA-567,172.172.1.1:1883,1551659287133,PRODUCED
Publisher_001,topicA,topicA-568,172.172.1.1:1883,1551659287233,PRODUCED
Publisher_001,topicA,topicA-569,172.172.1.1:1883,1551659287333,PRODUCED
Publisher_001,topicA,topicA-570,172.172.1.1:1883,1551659287433,PRODUCED
Publisher_001,topicA,topicA-571,172.172.1.1:1883,1551659287534,PRODUCED
Publisher_001,topicA,topicA-572,172.172.1.1:1883,1551659287634,PRODUCED
Publisher_001,topicA,topicA-573,172.172.1.1:1883,1551659287733,PRODUCED
Publisher_001,topicA,topicA-574,172.172.1.1:1883,1551659287833,PRODUCED
Publisher_001,topicA,topicA-575,172.172.1.1:1883,1551659287933,PRODUCED
Publisher_001,topicA,topicA-576,172.172.1.1:1883,1551659288033,PRODUCED
Publisher_001,topicA,topicA-577,172.172.1.1:1883,1551659288134,PRODUCED
Publisher_001,topicA,topicA-578,172.172.1.1:1883,1551659288234,PRODUCED
Publisher_001,topicA,topicA-579,172.172.1.1:1883,1551659288333,PRODUCED
Publisher_001,topicA,topicA-580,172.172.1.1:1883,1551659288435,PRODUCED
Publisher_001,topicA,topicA-581,172.172.1.1:1883,1551659288533,PRODUCED
Publisher_001,topicA,topicA-582,172.172.1.1:1883,1551659288633,PRODUCED
Publisher_001,topicA,topicA-583,172.172.1.1:1883,1551659288733,PRODUCED
Publisher_001,topicA,topicA-584,172.172.1.1:1883,1551659288833,PRODUCED
Publisher_001,topicA,topicA-585,172.172.1.1:1883,1551659288933,PRODUCED
Publisher_001,topicA,topicA-586,172.172.1.1:1883,1551659289033,PRODUCED
Publisher_001,topicA,topicA-587,172.172.1.1:1883,1551659289133,PRODUCED
Publisher_001,topicA,topicA-588,172.172.1.1:1883,1551659289233,PRODUCED
Publisher_001,topicA,topicA-589,172.172.1.1:1883,1551659289333,PRODUCED
Publisher_001,topicA,topicA-590,172.172.1.1:1883,1551659289434,PRODUCED
Publisher_001,topicA,topicA-591,172.172.1.1:1883,1551659289533,PRODUCED
Publisher_001,topicA,topicA-592,172.172.1.1:1883,1551659289633,PRODUCED
Publisher_001,topicA,topicA-593,172.172.1.1:1883,1551659289734,PRODUCED
Publisher_001,topicA,topicA-594,172.172.1.1:1883,1551659289833,PRODUCED
Publisher_001,topicA,topicA-595,172.172.1.1:1883,1551659289933,PRODUCED
Publisher_001,topicA,topicA-596,172.172.1.1:1883,1551659290033,PRODUCED
Publisher_001,topicA,topicA-597,172.172.1.1:1883,1551659290134,PRODUCED
Publisher_001,topicA,topicA-598,172.172.1.1:1883,1551659290233,PRODUCED
Publisher_001,topicA,topicA-599,172.172.1.1:1883,1551659290333,PRODUCED
Publisher_001,topicA,topicA-600,172.172.1.1:1883,1551659290434,PRODUCED
Publisher_001,topicA,topicA-601,172.172.1.1:1883,1551659290535,PRODUCED
Publisher_001,topicA,topicA-602,172.172.1.1:1883,1551659290633,PRODUCED
Publisher_001,topicA,topicA-603,172.172.1.1:1883,1551659290733,PRODUCED
Publisher_001,topicA,topicA-604,172.172.1.1:1883,1551659290833,PRODUCED
Publisher_001,topicA,topicA-605,172.172.1.1:1883,1551659290933,PRODUCED
Publisher_001,topicA,topicA-606,172.172.1.1:1883,1551659291033,PRODUCED
Publisher_001,topicA,topicA-607,172.172.1.1:1883,1551659291133,PRODUCED
Publisher_001,topicA,topicA-608,172.172.1.1:1883,1551659291233,PRODUCED
Publisher_001,topicA,topicA-609,172.172.1.1:1883,1551659291333,PRODUCED
Publisher_001,topicA,topicA-610,172.172.1.1:1883,1551659291433,PRODUCED
Publisher_001,topicA,topicA-611,172.172.1.1:1883,1551659291533,PRODUCED
Publisher_001,topicA,topicA-612,172.172.1.1:1883,1551659291633,PRODUCED
Publisher_001,topicA,topicA-613,172.172.1.1:1883,1551659291733,PRODUCED
Publisher_001,topicA,topicA-614,172.172.1.1:1883,1551659291833,PRODUCED
Publisher_001,topicA,topicA-615,172.172.1.1:1883,1551659291933,PRODUCED
Publisher_001,topicA,topicA-616,172.172.1.1:1883,1551659292033,PRODUCED
Publisher_001,topicA,topicA-617,172.172.1.1:1883,1551659292133,PRODUCED
Publisher_001,topicA,topicA-618,172.172.1.1:1883,1551659292233,PRODUCED
Publisher_001,topicA,topicA-619,172.172.1.1:1883,1551659292333,PRODUCED
Publisher_001,topicA,topicA-620,172.172.1.1:1883,1551659292433,PRODUCED
Publisher_001,topicA,topicA-621,172.172.1.1:1883,1551659292533,PRODUCED
Publisher_001,topicA,topicA-622,172.172.1.1:1883,1551659292633,PRODUCED
Publisher_001,topicA,topicA-623,172.172.1.1:1883,1551659292736,PRODUCED
Publisher_001,topicA,topicA-624,172.172.1.1:1883,1551659292834,PRODUCED
Publisher_001,topicA,topicA-625,172.172.1.1:1883,1551659292933,PRODUCED
Publisher_001,topicA,topicA-626,172.172.1.1:1883,1551659293033,PRODUCED
Publisher_001,topicA,topicA-627,172.172.1.1:1883,1551659293133,PRODUCED
Publisher_001,topicA,topicA-628,172.172.1.1:1883,1551659293233,PRODUCED
Publisher_001,topicA,topicA-629,172.172.1.1:1883,1551659293333,PRODUCED
Publisher_001,topicA,topicA-630,172.172.1.1:1883,1551659293433,PRODUCED
Publisher_001,topicA,topicA-631,172.172.1.1:1883,1551659293533,PRODUCED
Publisher_001,topicA,topicA-632,172.172.1.1:1883,1551659293633,PRODUCED
Publisher_001,topicA,topicA-633,172.172.1.1:1883,1551659293733,PRODUCED
Publisher_001,topicA,topicA-634,172.172.1.1:1883,1551659293834,PRODUCED
Publisher_001,topicA,topicA-635,172.172.1.1:1883,1551659293933,PRODUCED
Publisher_001,topicA,topicA-636,172.172.1.1:1883,1551659294033,PRODUCED
Publisher_001,topicA,topicA-637,172.172.1.1:1883,1551659294133,PRODUCED
Publisher_001,topicA,topicA-638,172.172.1.1:1883,1551659294234,PRODUCED
Publisher_001,topicA,topicA-639,172.172.1.1:1883,1551659294334,PRODUCED
Publisher_001,topicA,topicA-640,172.172.1.1:1883,1551659294433,PRODUCED
Publisher_001,topicA,topicA-641,172.172.1.1:1883,1551659294534,PRODUCED
Publisher_001,topicA,topicA-642,172.172.1.1:1883,1551659294633,PRODUCED
Publisher_001,topicA,topicA-643,172.172.1.1:1883,1551659294733,PRODUCED
Publisher_001,topicA,topicA-644,172.172.1.1:1883,1551659294834,PRODUCED
Publisher_001,topicA,topicA-645,172.172.1.1:1883,1551659294933,PRODUCED
Publisher_001,topicA,topicA-646,172.172.1.1:1883,1551659295033,PRODUCED
Publisher_001,topicA,topicA-647,172.172.1.1:1883,1551659295133,PRODUCED
Publisher_001,topicA,topicA-648,172.172.1.1:1883,1551659295233,PRODUCED
Publisher_001,topicA,topicA-649,172.172.1.1:1883,1551659295333,PRODUCED
Publisher_001,topicA,topicA-650,172.172.1.1:1883,1551659295433,PRODUCED
Publisher_001,topicA,topicA-651,172.172.1.1:1883,1551659295533,PRODUCED
Publisher_001,topicA,topicA-652,172.172.1.1:1883,1551659295633,PRODUCED
Publisher_001,topicA,topicA-653,172.172.1.1:1883,1551659295733,PRODUCED
Publisher_001,topicA,topicA-654,172.172.1.1:1883,1551659295832,PRODUCED
Publisher_001,topicA,topicA-655,172.172.1.1:1883,1551659295933,PRODUCED
Publisher_001,topicA,topicA-656,172.172.1.1:1883,1551659296033,PRODUCED
Publisher_001,topicA,topicA-657,172.172.1.1:1883,1551659296133,PRODUCED
Publisher_001,topicA,topicA-658,172.172.1.1:1883,1551659296233,PRODUCED
Publisher_001,topicA,topicA-659,172.172.1.1:1883,1551659296333,PRODUCED
Publisher_001,topicA,topicA-660,172.172.1.1:1883,1551659296433,PRODUCED
Publisher_001,topicA,topicA-661,172.172.1.1:1883,1551659296533,PRODUCED
