clientId,topic,guid,broker,timestamp,type
Publisher_001,topicA,topicA-1,172.172.1.1:1883,1551655975831,PRODUCED
Publisher_001,topicA,topicA-2,172.172.1.1:1883,1551655976110,PRODUCED
Publisher_001,topicA,topicA-3,172.172.1.1:1883,1551655976115,PRODUCED
Publisher_001,topicA,topicA-4,172.172.1.1:1883,1551655976120,PRODUCED
Publisher_001,topicA,topicA-5,172.172.1.1:1883,1551655976126,PRODUCED
Publisher_001,topicA,topicA-6,172.172.1.1:1883,1551655976168,PRODUCED
Publisher_001,topicA,topicA-7,172.172.1.1:1883,1551655976268,PRODUCED
Publisher_001,topicA,topicA-8,172.172.1.1:1883,1551655976368,PRODUCED
Publisher_001,topicA,topicA-9,172.172.1.1:1883,1551655976469,PRODUCED
Publisher_001,topicA,topicA-10,172.172.1.1:1883,1551655976568,PRODUCED
Publisher_001,topicA,topicA-11,172.172.1.1:1883,1551655976670,PRODUCED
Publisher_001,topicA,topicA-12,172.172.1.1:1883,1551655976769,PRODUCED
Publisher_001,topicA,topicA-13,172.172.1.1:1883,1551655976869,PRODUCED
Publisher_001,topicA,topicA-14,172.172.1.1:1883,1551655976969,PRODUCED
Publisher_001,topicA,topicA-15,172.172.1.1:1883,1551655977069,PRODUCED
Publisher_001,topicA,topicA-16,172.172.1.1:1883,1551655977169,PRODUCED
Publisher_001,topicA,topicA-17,172.172.1.1:1883,1551655977268,PRODUCED
Publisher_001,topicA,topicA-18,172.172.1.1:1883,1551655977368,PRODUCED
Publisher_001,topicA,topicA-19,172.172.1.1:1883,1551655977467,PRODUCED
Publisher_001,topicA,topicA-20,172.172.1.1:1883,1551655977568,PRODUCED
Publisher_001,topicA,topicA-21,172.172.1.1:1883,1551655977668,PRODUCED
Publisher_001,topicA,topicA-22,172.172.1.1:1883,1551655977769,PRODUCED
Publisher_001,topicA,topicA-23,172.172.1.1:1883,1551655977867,PRODUCED
Publisher_001,topicA,topicA-24,172.172.1.1:1883,1551655977968,PRODUCED
Publisher_001,topicA,topicA-25,172.172.1.1:1883,1551655978067,PRODUCED
Publisher_001,topicA,topicA-26,172.172.1.1:1883,1551655978167,PRODUCED
Publisher_001,topicA,topicA-27,172.172.1.1:1883,1551655978268,PRODUCED
Publisher_001,topicA,topicA-28,172.172.1.1:1883,1551655978367,PRODUCED
Publisher_001,topicA,topicA-29,172.172.1.1:1883,1551655978469,PRODUCED
Publisher_001,topicA,topicA-30,172.172.1.1:1883,1551655978568,PRODUCED
Publisher_001,topicA,topicA-31,172.172.1.1:1883,1551655978668,PRODUCED
Publisher_001,topicA,topicA-32,172.172.1.1:1883,1551655978769,PRODUCED
Publisher_001,topicA,topicA-33,172.172.1.1:1883,1551655978869,PRODUCED
Publisher_001,topicA,topicA-34,172.172.1.1:1883,1551655978969,PRODUCED
Publisher_001,topicA,topicA-35,172.172.1.1:1883,1551655979071,PRODUCED
Publisher_001,topicA,topicA-36,172.172.1.1:1883,1551655979169,PRODUCED
Publisher_001,topicA,topicA-37,172.172.1.1:1883,1551655979268,PRODUCED
Publisher_001,topicA,topicA-38,172.172.1.1:1883,1551655979370,PRODUCED
Publisher_001,topicA,topicA-39,172.172.1.1:1883,1551655979469,PRODUCED
Publisher_001,topicA,topicA-40,172.172.1.1:1883,1551655979568,PRODUCED
Publisher_001,topicA,topicA-41,172.172.1.1:1883,1551655979668,PRODUCED
Publisher_001,topicA,topicA-42,172.172.1.1:1883,1551655979769,PRODUCED
Publisher_001,topicA,topicA-43,172.172.1.1:1883,1551655979868,PRODUCED
Publisher_001,topicA,topicA-44,172.172.1.1:1883,1551655979968,PRODUCED
Publisher_001,topicA,topicA-45,172.172.1.1:1883,1551655980068,PRODUCED
Publisher_001,topicA,topicA-46,172.172.1.1:1883,1551655980167,PRODUCED
Publisher_001,topicA,topicA-47,172.172.1.1:1883,1551655980268,PRODUCED
Publisher_001,topicA,topicA-48,172.172.1.1:1883,1551655980368,PRODUCED
Publisher_001,topicA,topicA-49,172.172.1.1:1883,1551655980468,PRODUCED
Publisher_001,topicA,topicA-50,172.172.1.1:1883,1551655980568,PRODUCED
Publisher_001,topicA,topicA-51,172.172.1.1:1883,1551655980667,PRODUCED
Publisher_001,topicA,topicA-52,172.172.1.1:1883,1551655980768,PRODUCED
Publisher_001,topicA,topicA-53,172.172.1.1:1883,1551655980868,PRODUCED
Publisher_001,topicA,topicA-54,172.172.1.1:1883,1551655980967,PRODUCED
Publisher_001,topicA,topicA-55,172.172.1.1:1883,1551655981068,PRODUCED
Publisher_001,topicA,topicA-56,172.172.1.1:1883,1551655981168,PRODUCED
Publisher_001,topicA,topicA-57,172.172.1.1:1883,1551655981267,PRODUCED
Publisher_001,topicA,topicA-58,172.172.1.1:1883,1551655981372,PRODUCED
Publisher_001,topicA,topicA-59,172.172.1.1:1883,1551655981475,PRODUCED
Publisher_001,topicA,topicA-60,172.172.1.1:1883,1551655981568,PRODUCED
Publisher_001,topicA,topicA-61,172.172.1.1:1883,1551655981668,PRODUCED
Publisher_001,topicA,topicA-62,172.172.1.1:1883,1551655981769,PRODUCED
Publisher_001,topicA,topicA-63,172.172.1.1:1883,1551655981869,PRODUCED
Publisher_001,topicA,topicA-64,172.172.1.1:1883,1551655981968,PRODUCED
Publisher_001,topicA,topicA-65,172.172.1.1:1883,1551655982068,PRODUCED
Publisher_001,topicA,topicA-66,172.172.1.1:1883,1551655982169,PRODUCED
Publisher_001,topicA,topicA-67,172.172.1.1:1883,1551655982268,PRODUCED
Publisher_001,topicA,topicA-68,172.172.1.1:1883,1551655982368,PRODUCED
Publisher_001,topicA,topicA-69,172.172.1.1:1883,1551655982469,PRODUCED
Publisher_001,topicA,topicA-70,172.172.1.1:1883,1551655982568,PRODUCED
Publisher_001,topicA,topicA-71,172.172.1.1:1883,1551655982668,PRODUCED
Publisher_001,topicA,topicA-72,172.172.1.1:1883,1551655982772,PRODUCED
Publisher_001,topicA,topicA-73,172.172.1.1:1883,1551655982868,PRODUCED
Publisher_001,topicA,topicA-74,172.172.1.1:1883,1551655982968,PRODUCED
Publisher_001,topicA,topicA-75,172.172.1.1:1883,1551655983069,PRODUCED
Publisher_001,topicA,topicA-76,172.172.1.1:1883,1551655983170,PRODUCED
Publisher_001,topicA,topicA-77,172.172.1.1:1883,1551655983269,PRODUCED
Publisher_001,topicA,topicA-78,172.172.1.1:1883,1551655983369,PRODUCED
Publisher_001,topicA,topicA-79,172.172.1.1:1883,1551655983468,PRODUCED
Publisher_001,topicA,topicA-80,172.172.1.1:1883,1551655983568,PRODUCED
Publisher_001,topicA,topicA-81,172.172.1.1:1883,1551655983669,PRODUCED
Publisher_001,topicA,topicA-82,172.172.1.1:1883,1551655983773,PRODUCED
Publisher_001,topicA,topicA-83,172.172.1.1:1883,1551655983868,PRODUCED
Publisher_001,topicA,topicA-84,172.172.1.1:1883,1551655983969,PRODUCED
Publisher_001,topicA,topicA-85,172.172.1.1:1883,1551655984069,PRODUCED
Publisher_001,topicA,topicA-86,172.172.1.1:1883,1551655984169,PRODUCED
Publisher_001,topicA,topicA-87,172.172.1.1:1883,1551655984268,PRODUCED
Publisher_001,topicA,topicA-88,172.172.1.1:1883,1551655984369,PRODUCED
Publisher_001,topicA,topicA-89,172.172.1.1:1883,1551655984469,PRODUCED
Publisher_001,topicA,topicA-90,172.172.1.1:1883,1551655984569,PRODUCED
Publisher_001,topicA,topicA-91,172.172.1.1:1883,1551655984669,PRODUCED
Publisher_001,topicA,topicA-92,172.172.1.1:1883,1551655984768,PRODUCED
Publisher_001,topicA,topicA-93,172.172.1.1:1883,1551655984871,PRODUCED
Publisher_001,topicA,topicA-94,172.172.1.1:1883,1551655984969,PRODUCED
Publisher_001,topicA,topicA-95,172.172.1.1:1883,1551655985068,PRODUCED
Publisher_001,topicA,topicA-96,172.172.1.1:1883,1551655985169,PRODUCED
Publisher_001,topicA,topicA-97,172.172.1.1:1883,1551655985268,PRODUCED
Publisher_001,topicA,topicA-98,172.172.1.1:1883,1551655985368,PRODUCED
Publisher_001,topicA,topicA-99,172.172.1.1:1883,1551655985469,PRODUCED
Publisher_001,topicA,topicA-100,172.172.1.1:1883,1551655985569,PRODUCED
Publisher_001,topicA,topicA-101,172.172.1.1:1883,1551655985672,PRODUCED
Publisher_001,topicA,topicA-102,172.172.1.1:1883,1551655985772,PRODUCED
Publisher_001,topicA,topicA-103,172.172.1.1:1883,1551655985870,PRODUCED
Publisher_001,topicA,topicA-104,172.172.1.1:1883,1551655985968,PRODUCED
Publisher_001,topicA,topicA-105,172.172.1.1:1883,1551655986068,PRODUCED
Publisher_001,topicA,topicA-106,172.172.1.1:1883,1551655986168,PRODUCED
Publisher_001,topicA,topicA-107,172.172.1.1:1883,1551655986269,PRODUCED
Publisher_001,topicA,topicA-108,172.172.1.1:1883,1551655986369,PRODUCED
Publisher_001,topicA,topicA-109,172.172.1.1:1883,1551655986470,PRODUCED
Publisher_001,topicA,topicA-110,172.172.1.1:1883,1551655986569,PRODUCED
Publisher_001,topicA,topicA-111,172.172.1.1:1883,1551655986669,PRODUCED
Publisher_001,topicA,topicA-112,172.172.1.1:1883,1551655986769,PRODUCED
Publisher_001,topicA,topicA-113,172.172.1.1:1883,1551655986869,PRODUCED
Publisher_001,topicA,topicA-114,172.172.1.1:1883,1551655986969,PRODUCED
Publisher_001,topicA,topicA-115,172.172.1.1:1883,1551655987070,PRODUCED
Publisher_001,topicA,topicA-116,172.172.1.1:1883,1551655987169,PRODUCED
Publisher_001,topicA,topicA-117,172.172.1.1:1883,1551655987269,PRODUCED
Publisher_001,topicA,topicA-118,172.172.1.1:1883,1551655987369,PRODUCED
Publisher_001,topicA,topicA-119,172.172.1.1:1883,1551655987468,PRODUCED
Publisher_001,topicA,topicA-120,172.172.1.1:1883,1551655987569,PRODUCED
Publisher_001,topicA,topicA-121,172.172.1.1:1883,1551655987669,PRODUCED
Publisher_001,topicA,topicA-122,172.172.1.1:1883,1551655987776,PRODUCED
Publisher_001,topicA,topicA-123,172.172.1.1:1883,1551655987870,PRODUCED
Publisher_001,topicA,topicA-124,172.172.1.1:1883,1551655987969,PRODUCED
Publisher_001,topicA,topicA-125,172.172.1.1:1883,1551655988069,PRODUCED
Publisher_001,topicA,topicA-126,172.172.1.1:1883,1551655988169,PRODUCED
Publisher_001,topicA,topicA-127,172.172.1.1:1883,1551655988269,PRODUCED
Publisher_001,topicA,topicA-128,172.172.1.1:1883,1551655988369,PRODUCED
Publisher_001,topicA,topicA-129,172.172.1.1:1883,1551655988468,PRODUCED
Publisher_001,topicA,topicA-130,172.172.1.1:1883,1551655988571,PRODUCED
Publisher_001,topicA,topicA-131,172.172.1.1:1883,1551655988668,PRODUCED
Publisher_001,topicA,topicA-132,172.172.1.1:1883,1551655988768,PRODUCED
Publisher_001,topicA,topicA-133,172.172.1.1:1883,1551655988876,PRODUCED
Publisher_001,topicA,topicA-134,172.172.1.1:1883,1551655988968,PRODUCED
Publisher_001,topicA,topicA-135,172.172.1.1:1883,1551655989067,PRODUCED
Publisher_001,topicA,topicA-136,172.172.1.1:1883,1551655989168,PRODUCED
Publisher_001,topicA,topicA-137,172.172.1.1:1883,1551655989268,PRODUCED
Publisher_001,topicA,topicA-138,172.172.1.1:1883,1551655989368,PRODUCED
Publisher_001,topicA,topicA-139,172.172.1.1:1883,1551655989468,PRODUCED
Publisher_001,topicA,topicA-140,172.172.1.1:1883,1551655989568,PRODUCED
Publisher_001,topicA,topicA-141,172.172.1.1:1883,1551655989668,PRODUCED
Publisher_001,topicA,topicA-142,172.172.1.1:1883,1551655989768,PRODUCED
Publisher_001,topicA,topicA-143,172.172.1.1:1883,1551655989868,PRODUCED
Publisher_001,topicA,topicA-144,172.172.1.1:1883,1551655989968,PRODUCED
Publisher_001,topicA,topicA-145,172.172.1.1:1883,1551655990068,PRODUCED
Publisher_001,topicA,topicA-146,172.172.1.1:1883,1551655990168,PRODUCED
Publisher_001,topicA,topicA-147,172.172.1.1:1883,1551655990269,PRODUCED
Publisher_001,topicA,topicA-148,172.172.1.1:1883,1551655990368,PRODUCED
Publisher_001,topicA,topicA-149,172.172.1.1:1883,1551655990468,PRODUCED
Publisher_001,topicA,topicA-150,172.172.1.1:1883,1551655990569,PRODUCED
Publisher_001,topicA,topicA-151,172.172.1.1:1883,1551655990668,PRODUCED
Publisher_001,topicA,topicA-152,172.172.1.1:1883,1551655990768,PRODUCED
Publisher_001,topicA,topicA-153,172.172.1.1:1883,1551655990868,PRODUCED
Publisher_001,topicA,topicA-154,172.172.1.1:1883,1551655990969,PRODUCED
Publisher_001,topicA,topicA-155,172.172.1.1:1883,1551655991070,PRODUCED
Publisher_001,topicA,topicA-156,172.172.1.1:1883,1551655991170,PRODUCED
Publisher_001,topicA,topicA-157,172.172.1.1:1883,1551655991268,PRODUCED
Publisher_001,topicA,topicA-158,172.172.1.1:1883,1551655991368,PRODUCED
Publisher_001,topicA,topicA-159,172.172.1.1:1883,1551655991468,PRODUCED
Publisher_001,topicA,topicA-160,172.172.1.1:1883,1551655991568,PRODUCED
Publisher_001,topicA,topicA-161,172.172.1.1:1883,1551655991668,PRODUCED
Publisher_001,topicA,topicA-162,172.172.1.1:1883,1551655991769,PRODUCED
Publisher_001,topicA,topicA-163,172.172.1.1:1883,1551655991868,PRODUCED
Publisher_001,topicA,topicA-164,172.172.1.1:1883,1551655991968,PRODUCED
Publisher_001,topicA,topicA-165,172.172.1.1:1883,1551655992071,PRODUCED
Publisher_001,topicA,topicA-166,172.172.1.1:1883,1551655992168,PRODUCED
Publisher_001,topicA,topicA-167,172.172.1.1:1883,1551655992268,PRODUCED
Publisher_001,topicA,topicA-168,172.172.1.1:1883,1551655992368,PRODUCED
Publisher_001,topicA,topicA-169,172.172.1.1:1883,1551655992468,PRODUCED
Publisher_001,topicA,topicA-170,172.172.1.1:1883,1551655992573,PRODUCED
Publisher_001,topicA,topicA-171,172.172.1.1:1883,1551655992668,PRODUCED
Publisher_001,topicA,topicA-172,172.172.1.1:1883,1551655992774,PRODUCED
Publisher_001,topicA,topicA-173,172.172.1.1:1883,1551655992868,PRODUCED
Publisher_001,topicA,topicA-174,172.172.1.1:1883,1551655992968,PRODUCED
Publisher_001,topicA,topicA-175,172.172.1.1:1883,1551655993068,PRODUCED
Publisher_001,topicA,topicA-176,172.172.1.1:1883,1551655993169,PRODUCED
Publisher_001,topicA,topicA-177,172.172.1.1:1883,1551655993268,PRODUCED
Publisher_001,topicA,topicA-178,172.172.1.1:1883,1551655993368,PRODUCED
Publisher_001,topicA,topicA-179,172.172.1.1:1883,1551655993470,PRODUCED
Publisher_001,topicA,topicA-180,172.172.1.1:1883,1551655993568,PRODUCED
Publisher_001,topicA,topicA-181,172.172.1.1:1883,1551655993668,PRODUCED
Publisher_001,topicA,topicA-182,172.172.1.1:1883,1551655993769,PRODUCED
Publisher_001,topicA,topicA-183,172.172.1.1:1883,1551655993869,PRODUCED
Publisher_001,topicA,topicA-184,172.172.1.1:1883,1551655993975,PRODUCED
Publisher_001,topicA,topicA-185,172.172.1.1:1883,1551655994075,PRODUCED
Publisher_001,topicA,topicA-186,172.172.1.1:1883,1551655994170,PRODUCED
Publisher_001,topicA,topicA-187,172.172.1.1:1883,1551655994268,PRODUCED
Publisher_001,topicA,topicA-188,172.172.1.1:1883,1551655994367,PRODUCED
Publisher_001,topicA,topicA-189,172.172.1.1:1883,1551655994471,PRODUCED
Publisher_001,topicA,topicA-190,172.172.1.1:1883,1551655994569,PRODUCED
Publisher_001,topicA,topicA-191,172.172.1.1:1883,1551655994668,PRODUCED
Publisher_001,topicA,topicA-192,172.172.1.1:1883,1551655994768,PRODUCED
Publisher_001,topicA,topicA-193,172.172.1.1:1883,1551655994868,PRODUCED
Publisher_001,topicA,topicA-194,172.172.1.1:1883,1551655994968,PRODUCED
Publisher_001,topicA,topicA-195,172.172.1.1:1883,1551655995068,PRODUCED
Publisher_001,topicA,topicA-196,172.172.1.1:1883,1551655995169,PRODUCED
Publisher_001,topicA,topicA-197,172.172.1.1:1883,1551655995270,PRODUCED
Publisher_001,topicA,topicA-198,172.172.1.1:1883,1551655995369,PRODUCED
Publisher_001,topicA,topicA-199,172.172.1.1:1883,1551655995468,PRODUCED
Publisher_001,topicA,topicA-200,172.172.1.1:1883,1551655995568,PRODUCED
Publisher_001,topicA,topicA-201,172.172.1.1:1883,1551655995668,PRODUCED
Publisher_001,topicA,topicA-202,172.172.1.1:1883,1551655995770,PRODUCED
Publisher_001,topicA,topicA-203,172.172.1.1:1883,1551655995870,PRODUCED
Publisher_001,topicA,topicA-204,172.172.1.1:1883,1551655995972,PRODUCED
Publisher_001,topicA,topicA-205,172.172.1.1:1883,1551655996068,PRODUCED
Publisher_001,topicA,topicA-206,172.172.1.1:1883,1551655996167,PRODUCED
Publisher_001,topicA,topicA-207,172.172.1.1:1883,1551655996271,PRODUCED
Publisher_001,topicA,topicA-208,172.172.1.1:1883,1551655996370,PRODUCED
Publisher_001,topicA,topicA-209,172.172.1.1:1883,1551655996468,PRODUCED
Publisher_001,topicA,topicA-210,172.172.1.1:1883,1551655996574,PRODUCED
Publisher_001,topicA,topicA-211,172.172.1.1:1883,1551655996669,PRODUCED
Publisher_001,topicA,topicA-212,172.172.1.1:1883,1551655996768,PRODUCED
Publisher_001,topicA,topicA-213,172.172.1.1:1883,1551655996868,PRODUCED
Publisher_001,topicA,topicA-214,172.172.1.1:1883,1551655996969,PRODUCED
Publisher_001,topicA,topicA-215,172.172.1.1:1883,1551655997068,PRODUCED
Publisher_001,topicA,topicA-216,172.172.1.1:1883,1551655997171,PRODUCED
Publisher_001,topicA,topicA-217,172.172.1.1:1883,1551655997268,PRODUCED
Publisher_001,topicA,topicA-218,172.172.1.1:1883,1551655997368,PRODUCED
Publisher_001,topicA,topicA-219,172.172.1.1:1883,1551655997468,PRODUCED
Publisher_001,topicA,topicA-220,172.172.1.1:1883,1551655997568,PRODUCED
Publisher_001,topicA,topicA-221,172.172.1.1:1883,1551655997668,PRODUCED
Publisher_001,topicA,topicA-222,172.172.1.1:1883,1551655997785,PRODUCED
Publisher_001,topicA,topicA-223,172.172.1.1:1883,1551655997868,PRODUCED
Publisher_001,topicA,topicA-224,172.172.1.1:1883,1551655997968,PRODUCED
Publisher_001,topicA,topicA-225,172.172.1.1:1883,1551655998069,PRODUCED
Publisher_001,topicA,topicA-226,172.172.1.1:1883,1551655998167,PRODUCED
Publisher_001,topicA,topicA-227,172.172.1.1:1883,1551655998268,PRODUCED
Publisher_001,topicA,topicA-228,172.172.1.1:1883,1551655998368,PRODUCED
Publisher_001,topicA,topicA-229,172.172.1.1:1883,1551655998472,PRODUCED
Publisher_001,topicA,topicA-230,172.172.1.1:1883,1551655998569,PRODUCED
Publisher_001,topicA,topicA-231,172.172.1.1:1883,1551655998671,PRODUCED
Publisher_001,topicA,topicA-232,172.172.1.1:1883,1551655998768,PRODUCED
Publisher_001,topicA,topicA-233,172.172.1.1:1883,1551655998869,PRODUCED
Publisher_001,topicA,topicA-234,172.172.1.1:1883,1551655998969,PRODUCED
Publisher_001,topicA,topicA-235,172.172.1.1:1883,1551655999073,PRODUCED
Publisher_001,topicA,topicA-236,172.172.1.1:1883,1551655999170,PRODUCED
Publisher_001,topicA,topicA-237,172.172.1.1:1883,1551655999268,PRODUCED
Publisher_001,topicA,topicA-238,172.172.1.1:1883,1551655999368,PRODUCED
Publisher_001,topicA,topicA-239,172.172.1.1:1883,1551655999468,PRODUCED
Publisher_001,topicA,topicA-240,172.172.1.1:1883,1551655999571,PRODUCED
Publisher_001,topicA,topicA-241,172.172.1.1:1883,1551655999668,PRODUCED
Publisher_001,topicA,topicA-242,172.172.1.1:1883,1551655999768,PRODUCED
Publisher_001,topicA,topicA-243,172.172.1.1:1883,1551655999872,PRODUCED
Publisher_001,topicA,topicA-244,172.172.1.1:1883,1551655999969,PRODUCED
Publisher_001,topicA,topicA-245,172.172.1.1:1883,1551656000067,PRODUCED
Publisher_001,topicA,topicA-246,172.172.1.1:1883,1551656000170,PRODUCED
Publisher_001,topicA,topicA-247,172.172.1.1:1883,1551656000268,PRODUCED
Publisher_001,topicA,topicA-248,172.172.1.1:1883,1551656000368,PRODUCED
Publisher_001,topicA,topicA-249,172.172.1.1:1883,1551656000467,PRODUCED
Publisher_001,topicA,topicA-250,172.172.1.1:1883,1551656000568,PRODUCED
Publisher_001,topicA,topicA-251,172.172.1.1:1883,1551656000667,PRODUCED
Publisher_001,topicA,topicA-252,172.172.1.1:1883,1551656000770,PRODUCED
Publisher_001,topicA,topicA-253,172.172.1.1:1883,1551656000868,PRODUCED
Publisher_001,topicA,topicA-254,172.172.1.1:1883,1551656000968,PRODUCED
Publisher_001,topicA,topicA-255,172.172.1.1:1883,1551656001068,PRODUCED
Publisher_001,topicA,topicA-256,172.172.1.1:1883,1551656001176,PRODUCED
Publisher_001,topicA,topicA-257,172.172.1.1:1883,1551656001268,PRODUCED
Publisher_001,topicA,topicA-258,172.172.1.1:1883,1551656001372,PRODUCED
Publisher_001,topicA,topicA-259,172.172.1.1:1883,1551656001468,PRODUCED
Publisher_001,topicA,topicA-260,172.172.1.1:1883,1551656001568,PRODUCED
Publisher_001,topicA,topicA-261,172.172.1.1:1883,1551656001668,PRODUCED
Publisher_001,topicA,topicA-262,172.172.1.1:1883,1551656001769,PRODUCED
Publisher_001,topicA,topicA-263,172.172.1.1:1883,1551656001868,PRODUCED
Publisher_001,topicA,topicA-264,172.172.1.1:1883,1551656001967,PRODUCED
Publisher_001,topicA,topicA-265,172.172.1.1:1883,1551656002067,PRODUCED
Publisher_001,topicA,topicA-266,172.172.1.1:1883,1551656002168,PRODUCED
Publisher_001,topicA,topicA-267,172.172.1.1:1883,1551656002269,PRODUCED
Publisher_001,topicA,topicA-268,172.172.1.1:1883,1551656002368,PRODUCED
Publisher_001,topicA,topicA-269,172.172.1.1:1883,1551656002468,PRODUCED
Publisher_001,topicA,topicA-270,172.172.1.1:1883,1551656002568,PRODUCED
Publisher_001,topicA,topicA-271,172.172.1.1:1883,1551656002668,PRODUCED
Publisher_001,topicA,topicA-272,172.172.1.1:1883,1551656002770,PRODUCED
Publisher_001,topicA,topicA-273,172.172.1.1:1883,1551656002869,PRODUCED
Publisher_001,topicA,topicA-274,172.172.1.1:1883,1551656002968,PRODUCED
Publisher_001,topicA,topicA-275,172.172.1.1:1883,1551656003068,PRODUCED
Publisher_001,topicA,topicA-276,172.172.1.1:1883,1551656003168,PRODUCED
Publisher_001,topicA,topicA-277,172.172.1.1:1883,1551656003268,PRODUCED
Publisher_001,topicA,topicA-278,172.172.1.1:1883,1551656003368,PRODUCED
Publisher_001,topicA,topicA-279,172.172.1.1:1883,1551656003468,PRODUCED
Publisher_001,topicA,topicA-280,172.172.1.1:1883,1551656003567,PRODUCED
Publisher_001,topicA,topicA-281,172.172.1.1:1883,1551656003667,PRODUCED
Publisher_001,topicA,topicA-282,172.172.1.1:1883,1551656003767,PRODUCED
Publisher_001,topicA,topicA-283,172.172.1.1:1883,1551656003868,PRODUCED
Publisher_001,topicA,topicA-284,172.172.1.1:1883,1551656003968,PRODUCED
Publisher_001,topicA,topicA-285,172.172.1.1:1883,1551656004071,PRODUCED
Publisher_001,topicA,topicA-286,172.172.1.1:1883,1551656004168,PRODUCED
Publisher_001,topicA,topicA-287,172.172.1.1:1883,1551656004275,PRODUCED
Publisher_001,topicA,topicA-288,172.172.1.1:1883,1551656004368,PRODUCED
Publisher_001,topicA,topicA-289,172.172.1.1:1883,1551656004475,PRODUCED
Publisher_001,topicA,topicA-290,172.172.1.1:1883,1551656004568,PRODUCED
Publisher_001,topicA,topicA-291,172.172.1.1:1883,1551656004674,PRODUCED
Publisher_001,topicA,topicA-292,172.172.1.1:1883,1551656004768,PRODUCED
Publisher_001,topicA,topicA-293,172.172.1.1:1883,1551656004868,PRODUCED
Publisher_001,topicA,topicA-294,172.172.1.1:1883,1551656004974,PRODUCED
Publisher_001,topicA,topicA-295,172.172.1.1:1883,1551656005069,PRODUCED
Publisher_001,topicA,topicA-296,172.172.1.1:1883,1551656005167,PRODUCED
Publisher_001,topicA,topicA-297,172.172.1.1:1883,1551656005270,PRODUCED
Publisher_001,topicA,topicA-298,172.172.1.1:1883,1551656005367,PRODUCED
Publisher_001,topicA,topicA-299,172.172.1.1:1883,1551656005467,PRODUCED
Publisher_001,topicA,topicA-300,172.172.1.1:1883,1551656005568,PRODUCED
Publisher_001,topicA,topicA-301,172.172.1.1:1883,1551656005671,PRODUCED
Publisher_001,topicA,topicA-302,172.172.1.1:1883,1551656005768,PRODUCED
Publisher_001,topicA,topicA-303,172.172.1.1:1883,1551656005868,PRODUCED
Publisher_001,topicA,topicA-304,172.172.1.1:1883,1551656005968,PRODUCED
Publisher_001,topicA,topicA-305,172.172.1.1:1883,1551656006068,PRODUCED
Publisher_001,topicA,topicA-306,172.172.1.1:1883,1551656006168,PRODUCED
Publisher_001,topicA,topicA-307,172.172.1.1:1883,1551656006271,PRODUCED
Publisher_001,topicA,topicA-308,172.172.1.1:1883,1551656006369,PRODUCED
Publisher_001,topicA,topicA-309,172.172.1.1:1883,1551656006467,PRODUCED
Publisher_001,topicA,topicA-310,172.172.1.1:1883,1551656006568,PRODUCED
Publisher_001,topicA,topicA-311,172.172.1.1:1883,1551656006670,PRODUCED
Publisher_001,topicA,topicA-312,172.172.1.1:1883,1551656006767,PRODUCED
Publisher_001,topicA,topicA-313,172.172.1.1:1883,1551656006867,PRODUCED
Publisher_001,topicA,topicA-314,172.172.1.1:1883,1551656006968,PRODUCED
Publisher_001,topicA,topicA-315,172.172.1.1:1883,1551656007067,PRODUCED
Publisher_001,topicA,topicA-316,172.172.1.1:1883,1551656007170,PRODUCED
Publisher_001,topicA,topicA-317,172.172.1.1:1883,1551656007268,PRODUCED
Publisher_001,topicA,topicA-318,172.172.1.1:1883,1551656007367,PRODUCED
Publisher_001,topicA,topicA-319,172.172.1.1:1883,1551656007469,PRODUCED
Publisher_001,topicA,topicA-320,172.172.1.1:1883,1551656007568,PRODUCED
Publisher_001,topicA,topicA-321,172.172.1.1:1883,1551656007668,PRODUCED
Publisher_001,topicA,topicA-322,172.172.1.1:1883,1551656007769,PRODUCED
Publisher_001,topicA,topicA-323,172.172.1.1:1883,1551656007868,PRODUCED
Publisher_001,topicA,topicA-324,172.172.1.1:1883,1551656007968,PRODUCED
Publisher_001,topicA,topicA-325,172.172.1.1:1883,1551656008068,PRODUCED
Publisher_001,topicA,topicA-326,172.172.1.1:1883,1551656008168,PRODUCED
Publisher_001,topicA,topicA-327,172.172.1.1:1883,1551656008269,PRODUCED
Publisher_001,topicA,topicA-328,172.172.1.1:1883,1551656008368,PRODUCED
Publisher_001,topicA,topicA-329,172.172.1.1:1883,1551656008470,PRODUCED
Publisher_001,topicA,topicA-330,172.172.1.1:1883,1551656008573,PRODUCED
Publisher_001,topicA,topicA-331,172.172.1.1:1883,1551656008668,PRODUCED
Publisher_001,topicA,topicA-332,172.172.1.1:1883,1551656008768,PRODUCED
Publisher_001,topicA,topicA-333,172.172.1.1:1883,1551656008868,PRODUCED
Publisher_001,topicA,topicA-334,172.172.1.1:1883,1551656008968,PRODUCED
Publisher_001,topicA,topicA-335,172.172.1.1:1883,1551656009068,PRODUCED
Publisher_001,topicA,topicA-336,172.172.1.1:1883,1551656009171,PRODUCED
Publisher_001,topicA,topicA-337,172.172.1.1:1883,1551656009268,PRODUCED
Publisher_001,topicA,topicA-338,172.172.1.1:1883,1551656009368,PRODUCED
Publisher_001,topicA,topicA-339,172.172.1.1:1883,1551656009467,PRODUCED
Publisher_001,topicA,topicA-340,172.172.1.1:1883,1551656009569,PRODUCED
Publisher_001,topicA,topicA-341,172.172.1.1:1883,1551656009667,PRODUCED
Publisher_001,topicA,topicA-342,172.172.1.1:1883,1551656009773,PRODUCED
Publisher_001,topicA,topicA-343,172.172.1.1:1883,1551656009874,PRODUCED
Publisher_001,topicA,topicA-344,172.172.1.1:1883,1551656009967,PRODUCED
Publisher_001,topicA,topicA-345,172.172.1.1:1883,1551656010068,PRODUCED
Publisher_001,topicA,topicA-346,172.172.1.1:1883,1551656010168,PRODUCED
Publisher_001,topicA,topicA-347,172.172.1.1:1883,1551656010271,PRODUCED
Publisher_001,topicA,topicA-348,172.172.1.1:1883,1551656010370,PRODUCED
Publisher_001,topicA,topicA-349,172.172.1.1:1883,1551656010468,PRODUCED
Publisher_001,topicA,topicA-350,172.172.1.1:1883,1551656010567,PRODUCED
Publisher_001,topicA,topicA-351,172.172.1.1:1883,1551656010668,PRODUCED
Publisher_001,topicA,topicA-352,172.172.1.1:1883,1551656010771,PRODUCED
Publisher_001,topicA,topicA-353,172.172.1.1:1883,1551656010868,PRODUCED
Publisher_001,topicA,topicA-354,172.172.1.1:1883,1551656010969,PRODUCED
Publisher_001,topicA,topicA-355,172.172.1.1:1883,1551656011069,PRODUCED
Publisher_001,topicA,topicA-356,172.172.1.1:1883,1551656011168,PRODUCED
Publisher_001,topicA,topicA-357,172.172.1.1:1883,1551656011268,PRODUCED
Publisher_001,topicA,topicA-358,172.172.1.1:1883,1551656011368,PRODUCED
Publisher_001,topicA,topicA-359,172.172.1.1:1883,1551656011469,PRODUCED
Publisher_001,topicA,topicA-360,172.172.1.1:1883,1551656011576,PRODUCED
Publisher_001,topicA,topicA-361,172.172.1.1:1883,1551656011668,PRODUCED
Publisher_001,topicA,topicA-362,172.172.1.1:1883,1551656011771,PRODUCED
Publisher_001,topicA,topicA-363,172.172.1.1:1883,1551656011868,PRODUCED
Publisher_001,topicA,topicA-364,172.172.1.1:1883,1551656011969,PRODUCED
Publisher_001,topicA,topicA-365,172.172.1.1:1883,1551656012068,PRODUCED
Publisher_001,topicA,topicA-366,172.172.1.1:1883,1551656012168,PRODUCED
Publisher_001,topicA,topicA-367,172.172.1.1:1883,1551656012269,PRODUCED
Publisher_001,topicA,topicA-368,172.172.1.1:1883,1551656012368,PRODUCED
Publisher_001,topicA,topicA-369,172.172.1.1:1883,1551656012468,PRODUCED
Publisher_001,topicA,topicA-370,172.172.1.1:1883,1551656012568,PRODUCED
Publisher_001,topicA,topicA-371,172.172.1.1:1883,1551656012669,PRODUCED
Publisher_001,topicA,topicA-372,172.172.1.1:1883,1551656012769,PRODUCED
Publisher_001,topicA,topicA-373,172.172.1.1:1883,1551656012868,PRODUCED
Publisher_001,topicA,topicA-374,172.172.1.1:1883,1551656012968,PRODUCED
Publisher_001,topicA,topicA-375,172.172.1.1:1883,1551656013068,PRODUCED
Publisher_001,topicA,topicA-376,172.172.1.1:1883,1551656013168,PRODUCED
Publisher_001,topicA,topicA-377,172.172.1.1:1883,1551656013268,PRODUCED
Publisher_001,topicA,topicA-378,172.172.1.1:1883,1551656013374,PRODUCED
Publisher_001,topicA,topicA-379,172.172.1.1:1883,1551656013468,PRODUCED
Publisher_001,topicA,topicA-380,172.172.1.1:1883,1551656013568,PRODUCED
Publisher_001,topicA,topicA-381,172.172.1.1:1883,1551656013668,PRODUCED
Publisher_001,topicA,topicA-382,172.172.1.1:1883,1551656013773,PRODUCED
Publisher_001,topicA,topicA-383,172.172.1.1:1883,1551656013868,PRODUCED
Publisher_001,topicA,topicA-384,172.172.1.1:1883,1551656013968,PRODUCED
Publisher_001,topicA,topicA-385,172.172.1.1:1883,1551656014069,PRODUCED
Publisher_001,topicA,topicA-386,172.172.1.1:1883,1551656014168,PRODUCED
Publisher_001,topicA,topicA-387,172.172.1.1:1883,1551656014275,PRODUCED
Publisher_001,topicA,topicA-388,172.172.1.1:1883,1551656014368,PRODUCED
Publisher_001,topicA,topicA-389,172.172.1.1:1883,1551656014468,PRODUCED
Publisher_001,topicA,topicA-390,172.172.1.1:1883,1551656014568,PRODUCED
Publisher_001,topicA,topicA-391,172.172.1.1:1883,1551656014668,PRODUCED
Publisher_001,topicA,topicA-392,172.172.1.1:1883,1551656014768,PRODUCED
Publisher_001,topicA,topicA-393,172.172.1.1:1883,1551656014868,PRODUCED
Publisher_001,topicA,topicA-394,172.172.1.1:1883,1551656014969,PRODUCED
Publisher_001,topicA,topicA-395,172.172.1.1:1883,1551656015068,PRODUCED
Publisher_001,topicA,topicA-396,172.172.1.1:1883,1551656015168,PRODUCED
Publisher_001,topicA,topicA-397,172.172.1.1:1883,1551656015268,PRODUCED
Publisher_001,topicA,topicA-398,172.172.1.1:1883,1551656015368,PRODUCED
Publisher_001,topicA,topicA-399,172.172.1.1:1883,1551656015469,PRODUCED
Publisher_001,topicA,topicA-400,172.172.1.1:1883,1551656015568,PRODUCED
Publisher_001,topicA,topicA-401,172.172.1.1:1883,1551656015668,PRODUCED
Publisher_001,topicA,topicA-402,172.172.1.1:1883,1551656015768,PRODUCED
Publisher_001,topicA,topicA-403,172.172.1.1:1883,1551656015870,PRODUCED
Publisher_001,topicA,topicA-404,172.172.1.1:1883,1551656015968,PRODUCED
Publisher_001,topicA,topicA-405,172.172.1.1:1883,1551656016068,PRODUCED
Publisher_001,topicA,topicA-406,172.172.1.1:1883,1551656016168,PRODUCED
Publisher_001,topicA,topicA-407,172.172.1.1:1883,1551656016269,PRODUCED
Publisher_001,topicA,topicA-408,172.172.1.1:1883,1551656016368,PRODUCED
Publisher_001,topicA,topicA-409,172.172.1.1:1883,1551656016468,PRODUCED
Publisher_001,topicA,topicA-410,172.172.1.1:1883,1551656016568,PRODUCED
Publisher_001,topicA,topicA-411,172.172.1.1:1883,1551656016668,PRODUCED
Publisher_001,topicA,topicA-412,172.172.1.1:1883,1551656016769,PRODUCED
Publisher_001,topicA,topicA-413,172.172.1.1:1883,1551656016869,PRODUCED
Publisher_001,topicA,topicA-414,172.172.1.1:1883,1551656016968,PRODUCED
Publisher_001,topicA,topicA-415,172.172.1.1:1883,1551656017070,PRODUCED
Publisher_001,topicA,topicA-416,172.172.1.1:1883,1551656017172,PRODUCED
Publisher_001,topicA,topicA-417,172.172.1.1:1883,1551656017270,PRODUCED
Publisher_001,topicA,topicA-418,172.172.1.1:1883,1551656017368,PRODUCED
Publisher_001,topicA,topicA-419,172.172.1.1:1883,1551656017468,PRODUCED
Publisher_001,topicA,topicA-420,172.172.1.1:1883,1551656017568,PRODUCED
Publisher_001,topicA,topicA-421,172.172.1.1:1883,1551656017668,PRODUCED
Publisher_001,topicA,topicA-422,172.172.1.1:1883,1551656017774,PRODUCED
Publisher_001,topicA,topicA-423,172.172.1.1:1883,1551656017869,PRODUCED
Publisher_001,topicA,topicA-424,172.172.1.1:1883,1551656017968,PRODUCED
Publisher_001,topicA,topicA-425,172.172.1.1:1883,1551656018068,PRODUCED
Publisher_001,topicA,topicA-426,172.172.1.1:1883,1551656018169,PRODUCED
Publisher_001,topicA,topicA-427,172.172.1.1:1883,1551656018267,PRODUCED
Publisher_001,topicA,topicA-428,172.172.1.1:1883,1551656018368,PRODUCED
Publisher_001,topicA,topicA-429,172.172.1.1:1883,1551656018469,PRODUCED
Publisher_001,topicA,topicA-430,172.172.1.1:1883,1551656018568,PRODUCED
Publisher_001,topicA,topicA-431,172.172.1.1:1883,1551656018667,PRODUCED
Publisher_001,topicA,topicA-432,172.172.1.1:1883,1551656018768,PRODUCED
Publisher_001,topicA,topicA-433,172.172.1.1:1883,1551656018868,PRODUCED
Publisher_001,topicA,topicA-434,172.172.1.1:1883,1551656018968,PRODUCED
Publisher_001,topicA,topicA-435,172.172.1.1:1883,1551656019068,PRODUCED
Publisher_001,topicA,topicA-436,172.172.1.1:1883,1551656019168,PRODUCED
Publisher_001,topicA,topicA-437,172.172.1.1:1883,1551656019268,PRODUCED
Publisher_001,topicA,topicA-438,172.172.1.1:1883,1551656019368,PRODUCED
Publisher_001,topicA,topicA-439,172.172.1.1:1883,1551656019468,PRODUCED
Publisher_001,topicA,topicA-440,172.172.1.1:1883,1551656019567,PRODUCED
Publisher_001,topicA,topicA-441,172.172.1.1:1883,1551656019667,PRODUCED
Publisher_001,topicA,topicA-442,172.172.1.1:1883,1551656019768,PRODUCED
Publisher_001,topicA,topicA-443,172.172.1.1:1883,1551656019868,PRODUCED
Publisher_001,topicA,topicA-444,172.172.1.1:1883,1551656019967,PRODUCED
Publisher_001,topicA,topicA-445,172.172.1.1:1883,1551656020067,PRODUCED
Publisher_001,topicA,topicA-446,172.172.1.1:1883,1551656020169,PRODUCED
Publisher_001,topicA,topicA-447,172.172.1.1:1883,1551656020269,PRODUCED
Publisher_001,topicA,topicA-448,172.172.1.1:1883,1551656020368,PRODUCED
Publisher_001,topicA,topicA-449,172.172.1.1:1883,1551656020468,PRODUCED
Publisher_001,topicA,topicA-450,172.172.1.1:1883,1551656020568,PRODUCED
Publisher_001,topicA,topicA-451,172.172.1.1:1883,1551656020669,PRODUCED
Publisher_001,topicA,topicA-452,172.172.1.1:1883,1551656020769,PRODUCED
Publisher_001,topicA,topicA-453,172.172.1.1:1883,1551656020868,PRODUCED
Publisher_001,topicA,topicA-454,172.172.1.1:1883,1551656020968,PRODUCED
Publisher_001,topicA,topicA-455,172.172.1.1:1883,1551656021068,PRODUCED
Publisher_001,topicA,topicA-456,172.172.1.1:1883,1551656021168,PRODUCED
Publisher_001,topicA,topicA-457,172.172.1.1:1883,1551656021269,PRODUCED
Publisher_001,topicA,topicA-458,172.172.1.1:1883,1551656021369,PRODUCED
Publisher_001,topicA,topicA-459,172.172.1.1:1883,1551656021469,PRODUCED
Publisher_001,topicA,topicA-460,172.172.1.1:1883,1551656021569,PRODUCED
Publisher_001,topicA,topicA-461,172.172.1.1:1883,1551656021673,PRODUCED
Publisher_001,topicA,topicA-462,172.172.1.1:1883,1551656021768,PRODUCED
Publisher_001,topicA,topicA-463,172.172.1.1:1883,1551656021868,PRODUCED
Publisher_001,topicA,topicA-464,172.172.1.1:1883,1551656021969,PRODUCED
Publisher_001,topicA,topicA-465,172.172.1.1:1883,1551656022068,PRODUCED
Publisher_001,topicA,topicA-466,172.172.1.1:1883,1551656022167,PRODUCED
Publisher_001,topicA,topicA-467,172.172.1.1:1883,1551656022268,PRODUCED
Publisher_001,topicA,topicA-468,172.172.1.1:1883,1551656022369,PRODUCED
Publisher_001,topicA,topicA-469,172.172.1.1:1883,1551656022469,PRODUCED
Publisher_001,topicA,topicA-470,172.172.1.1:1883,1551656022567,PRODUCED
Publisher_001,topicA,topicA-471,172.172.1.1:1883,1551656022675,PRODUCED
Publisher_001,topicA,topicA-472,172.172.1.1:1883,1551656022768,PRODUCED
Publisher_001,topicA,topicA-473,172.172.1.1:1883,1551656022868,PRODUCED
Publisher_001,topicA,topicA-474,172.172.1.1:1883,1551656022968,PRODUCED
Publisher_001,topicA,topicA-475,172.172.1.1:1883,1551656023070,PRODUCED
Publisher_001,topicA,topicA-476,172.172.1.1:1883,1551656023167,PRODUCED
Publisher_001,topicA,topicA-477,172.172.1.1:1883,1551656023271,PRODUCED
Publisher_001,topicA,topicA-478,172.172.1.1:1883,1551656023369,PRODUCED
Publisher_001,topicA,topicA-479,172.172.1.1:1883,1551656023468,PRODUCED
Publisher_001,topicA,topicA-480,172.172.1.1:1883,1551656023571,PRODUCED
Publisher_001,topicA,topicA-481,172.172.1.1:1883,1551656023668,PRODUCED
Publisher_001,topicA,topicA-482,172.172.1.1:1883,1551656023768,PRODUCED
Publisher_001,topicA,topicA-483,172.172.1.1:1883,1551656023868,PRODUCED
Publisher_001,topicA,topicA-484,172.172.1.1:1883,1551656023967,PRODUCED
Publisher_001,topicA,topicA-485,172.172.1.1:1883,1551656024068,PRODUCED
Publisher_001,topicA,topicA-486,172.172.1.1:1883,1551656024168,PRODUCED
Publisher_001,topicA,topicA-487,172.172.1.1:1883,1551656024268,PRODUCED
Publisher_001,topicA,topicA-488,172.172.1.1:1883,1551656024369,PRODUCED
Publisher_001,topicA,topicA-489,172.172.1.1:1883,1551656024468,PRODUCED
Publisher_001,topicA,topicA-490,172.172.1.1:1883,1551656024569,PRODUCED
Publisher_001,topicA,topicA-491,172.172.1.1:1883,1551656024669,PRODUCED
Publisher_001,topicA,topicA-492,172.172.1.1:1883,1551656024768,PRODUCED
Publisher_001,topicA,topicA-493,172.172.1.1:1883,1551656024868,PRODUCED
Publisher_001,topicA,topicA-494,172.172.1.1:1883,1551656024968,PRODUCED
Publisher_001,topicA,topicA-495,172.172.1.1:1883,1551656025070,PRODUCED
Publisher_001,topicA,topicA-496,172.172.1.1:1883,1551656025168,PRODUCED
Publisher_001,topicA,topicA-497,172.172.1.1:1883,1551656025268,PRODUCED
Publisher_001,topicA,topicA-498,172.172.1.1:1883,1551656025369,PRODUCED
Publisher_001,topicA,topicA-499,172.172.1.1:1883,1551656025472,PRODUCED
Publisher_001,topicA,topicA-500,172.172.1.1:1883,1551656025568,PRODUCED
Publisher_001,topicA,topicA-501,172.172.1.1:1883,1551656025670,PRODUCED
Publisher_001,topicA,topicA-502,172.172.1.1:1883,1551656025771,PRODUCED
Publisher_001,topicA,topicA-503,172.172.1.1:1883,1551656025868,PRODUCED
Publisher_001,topicA,topicA-504,172.172.1.1:1883,1551656025968,PRODUCED
Publisher_001,topicA,topicA-505,172.172.1.1:1883,1551656026069,PRODUCED
Publisher_001,topicA,topicA-506,172.172.1.1:1883,1551656026168,PRODUCED
Publisher_001,topicA,topicA-507,172.172.1.1:1883,1551656026267,PRODUCED
Publisher_001,topicA,topicA-508,172.172.1.1:1883,1551656026368,PRODUCED
Publisher_001,topicA,topicA-509,172.172.1.1:1883,1551656026468,PRODUCED
Publisher_001,topicA,topicA-510,172.172.1.1:1883,1551656026568,PRODUCED
Publisher_001,topicA,topicA-511,172.172.1.1:1883,1551656026668,PRODUCED
Publisher_001,topicA,topicA-512,172.172.1.1:1883,1551656026769,PRODUCED
Publisher_001,topicA,topicA-513,172.172.1.1:1883,1551656026868,PRODUCED
Publisher_001,topicA,topicA-514,172.172.1.1:1883,1551656026968,PRODUCED
Publisher_001,topicA,topicA-515,172.172.1.1:1883,1551656027070,PRODUCED
Publisher_001,topicA,topicA-516,172.172.1.1:1883,1551656027168,PRODUCED
Publisher_001,topicA,topicA-517,172.172.1.1:1883,1551656027269,PRODUCED
Publisher_001,topicA,topicA-518,172.172.1.1:1883,1551656027368,PRODUCED
Publisher_001,topicA,topicA-519,172.172.1.1:1883,1551656027469,PRODUCED
Publisher_001,topicA,topicA-520,172.172.1.1:1883,1551656027568,PRODUCED
Publisher_001,topicA,topicA-521,172.172.1.1:1883,1551656027668,PRODUCED
Publisher_001,topicA,topicA-522,172.172.1.1:1883,1551656027768,PRODUCED
Publisher_001,topicA,topicA-523,172.172.1.1:1883,1551656027868,PRODUCED
Publisher_001,topicA,topicA-524,172.172.1.1:1883,1551656027969,PRODUCED
Publisher_001,topicA,topicA-525,172.172.1.1:1883,1551656028073,PRODUCED
Publisher_001,topicA,topicA-526,172.172.1.1:1883,1551656028168,PRODUCED
Publisher_001,topicA,topicA-527,172.172.1.1:1883,1551656028267,PRODUCED
Publisher_001,topicA,topicA-528,172.172.1.1:1883,1551656028369,PRODUCED
Publisher_001,topicA,topicA-529,172.172.1.1:1883,1551656028475,PRODUCED
Publisher_001,topicA,topicA-530,172.172.1.1:1883,1551656028569,PRODUCED
Publisher_001,topicA,topicA-531,172.172.1.1:1883,1551656028668,PRODUCED
Publisher_001,topicA,topicA-532,172.172.1.1:1883,1551656028770,PRODUCED
Publisher_001,topicA,topicA-533,172.172.1.1:1883,1551656028868,PRODUCED
Publisher_001,topicA,topicA-534,172.172.1.1:1883,1551656028968,PRODUCED
Publisher_001,topicA,topicA-535,172.172.1.1:1883,1551656029069,PRODUCED
Publisher_001,topicA,topicA-536,172.172.1.1:1883,1551656029168,PRODUCED
Publisher_001,topicA,topicA-537,172.172.1.1:1883,1551656029268,PRODUCED
Publisher_001,topicA,topicA-538,172.172.1.1:1883,1551656029369,PRODUCED
Publisher_001,topicA,topicA-539,172.172.1.1:1883,1551656029469,PRODUCED
Publisher_001,topicA,topicA-540,172.172.1.1:1883,1551656029570,PRODUCED
Publisher_001,topicA,topicA-541,172.172.1.1:1883,1551656029668,PRODUCED
Publisher_001,topicA,topicA-542,172.172.1.1:1883,1551656029768,PRODUCED
Publisher_001,topicA,topicA-543,172.172.1.1:1883,1551656029869,PRODUCED
Publisher_001,topicA,topicA-544,172.172.1.1:1883,1551656029968,PRODUCED
Publisher_001,topicA,topicA-545,172.172.1.1:1883,1551656030068,PRODUCED
Publisher_001,topicA,topicA-546,172.172.1.1:1883,1551656030169,PRODUCED
Publisher_001,topicA,topicA-547,172.172.1.1:1883,1551656030268,PRODUCED
Publisher_001,topicA,topicA-548,172.172.1.1:1883,1551656030368,PRODUCED
Publisher_001,topicA,topicA-549,172.172.1.1:1883,1551656030468,PRODUCED
Publisher_001,topicA,topicA-550,172.172.1.1:1883,1551656030568,PRODUCED
Publisher_001,topicA,topicA-551,172.172.1.1:1883,1551656030668,PRODUCED
Publisher_001,topicA,topicA-552,172.172.1.1:1883,1551656030768,PRODUCED
Publisher_001,topicA,topicA-553,172.172.1.1:1883,1551656030868,PRODUCED
Publisher_001,topicA,topicA-554,172.172.1.1:1883,1551656030971,PRODUCED
Publisher_001,topicA,topicA-555,172.172.1.1:1883,1551656031068,PRODUCED
Publisher_001,topicA,topicA-556,172.172.1.1:1883,1551656031168,PRODUCED
Publisher_001,topicA,topicA-557,172.172.1.1:1883,1551656031268,PRODUCED
Publisher_001,topicA,topicA-558,172.172.1.1:1883,1551656031368,PRODUCED
Publisher_001,topicA,topicA-559,172.172.1.1:1883,1551656031468,PRODUCED
Publisher_001,topicA,topicA-560,172.172.1.1:1883,1551656031568,PRODUCED
Publisher_001,topicA,topicA-561,172.172.1.1:1883,1551656031668,PRODUCED
Publisher_001,topicA,topicA-562,172.172.1.1:1883,1551656031768,PRODUCED
Publisher_001,topicA,topicA-563,172.172.1.1:1883,1551656031868,PRODUCED
Publisher_001,topicA,topicA-564,172.172.1.1:1883,1551656031972,PRODUCED
Publisher_001,topicA,topicA-565,172.172.1.1:1883,1551656032068,PRODUCED
Publisher_001,topicA,topicA-566,172.172.1.1:1883,1551656032168,PRODUCED
Publisher_001,topicA,topicA-567,172.172.1.1:1883,1551656032268,PRODUCED
Publisher_001,topicA,topicA-568,172.172.1.1:1883,1551656032368,PRODUCED
Publisher_001,topicA,topicA-569,172.172.1.1:1883,1551656032468,PRODUCED
Publisher_001,topicA,topicA-570,172.172.1.1:1883,1551656032568,PRODUCED
Publisher_001,topicA,topicA-571,172.172.1.1:1883,1551656032668,PRODUCED
Publisher_001,topicA,topicA-572,172.172.1.1:1883,1551656032768,PRODUCED
Publisher_001,topicA,topicA-573,172.172.1.1:1883,1551656032869,PRODUCED
Publisher_001,topicA,topicA-574,172.172.1.1:1883,1551656032970,PRODUCED
Publisher_001,topicA,topicA-575,172.172.1.1:1883,1551656033068,PRODUCED
Publisher_001,topicA,topicA-576,172.172.1.1:1883,1551656033168,PRODUCED
Publisher_001,topicA,topicA-577,172.172.1.1:1883,1551656033273,PRODUCED
Publisher_001,topicA,topicA-578,172.172.1.1:1883,1551656033375,PRODUCED
Publisher_001,topicA,topicA-579,172.172.1.1:1883,1551656033468,PRODUCED
Publisher_001,topicA,topicA-580,172.172.1.1:1883,1551656033568,PRODUCED
Publisher_001,topicA,topicA-581,172.172.1.1:1883,1551656033673,PRODUCED
Publisher_001,topicA,topicA-582,172.172.1.1:1883,1551656033778,PRODUCED
Publisher_001,topicA,topicA-583,172.172.1.1:1883,1551656033868,PRODUCED
Publisher_001,topicA,topicA-584,172.172.1.1:1883,1551656033967,PRODUCED
Publisher_001,topicA,topicA-585,172.172.1.1:1883,1551656034068,PRODUCED
Publisher_001,topicA,topicA-586,172.172.1.1:1883,1551656034168,PRODUCED
Publisher_001,topicA,topicA-587,172.172.1.1:1883,1551656034268,PRODUCED
Publisher_001,topicA,topicA-588,172.172.1.1:1883,1551656034368,PRODUCED
Publisher_001,topicA,topicA-589,172.172.1.1:1883,1551656034473,PRODUCED
Publisher_001,topicA,topicA-590,172.172.1.1:1883,1551656034575,PRODUCED
Publisher_001,topicA,topicA-591,172.172.1.1:1883,1551656034668,PRODUCED
Publisher_001,topicA,topicA-592,172.172.1.1:1883,1551656034769,PRODUCED
Publisher_001,topicA,topicA-593,172.172.1.1:1883,1551656034868,PRODUCED
Publisher_001,topicA,topicA-594,172.172.1.1:1883,1551656034968,PRODUCED
Publisher_001,topicA,topicA-595,172.172.1.1:1883,1551656035068,PRODUCED
Publisher_001,topicA,topicA-596,172.172.1.1:1883,1551656035170,PRODUCED
Publisher_001,topicA,topicA-597,172.172.1.1:1883,1551656035268,PRODUCED
Publisher_001,topicA,topicA-598,172.172.1.1:1883,1551656035368,PRODUCED
Publisher_001,topicA,topicA-599,172.172.1.1:1883,1551656035468,PRODUCED
Publisher_001,topicA,topicA-600,172.172.1.1:1883,1551656035569,PRODUCED
Publisher_001,topicA,topicA-601,172.172.1.1:1883,1551656035669,PRODUCED
Publisher_001,topicA,topicA-602,172.172.1.1:1883,1551656035768,PRODUCED
Publisher_001,topicA,topicA-603,172.172.1.1:1883,1551656035870,PRODUCED
Publisher_001,topicA,topicA-604,172.172.1.1:1883,1551656035968,PRODUCED
Publisher_001,topicA,topicA-605,172.172.1.1:1883,1551656036070,PRODUCED
Publisher_001,topicA,topicA-606,172.172.1.1:1883,1551656036170,PRODUCED
Publisher_001,topicA,topicA-607,172.172.1.1:1883,1551656036268,PRODUCED
Publisher_001,topicA,topicA-608,172.172.1.1:1883,1551656036369,PRODUCED
Publisher_001,topicA,topicA-609,172.172.1.1:1883,1551656036468,PRODUCED
Publisher_001,topicA,topicA-610,172.172.1.1:1883,1551656036568,PRODUCED
Publisher_001,topicA,topicA-611,172.172.1.1:1883,1551656036668,PRODUCED
Publisher_001,topicA,topicA-612,172.172.1.1:1883,1551656036768,PRODUCED
Publisher_001,topicA,topicA-613,172.172.1.1:1883,1551656036868,PRODUCED
Publisher_001,topicA,topicA-614,172.172.1.1:1883,1551656036968,PRODUCED
Publisher_001,topicA,topicA-615,172.172.1.1:1883,1551656037068,PRODUCED
Publisher_001,topicA,topicA-616,172.172.1.1:1883,1551656037169,PRODUCED
Publisher_001,topicA,topicA-617,172.172.1.1:1883,1551656037273,PRODUCED
Publisher_001,topicA,topicA-618,172.172.1.1:1883,1551656037370,PRODUCED
Publisher_001,topicA,topicA-619,172.172.1.1:1883,1551656037468,PRODUCED
Publisher_001,topicA,topicA-620,172.172.1.1:1883,1551656037568,PRODUCED
Publisher_001,topicA,topicA-621,172.172.1.1:1883,1551656037668,PRODUCED
Publisher_001,topicA,topicA-622,172.172.1.1:1883,1551656037768,PRODUCED
Publisher_001,topicA,topicA-623,172.172.1.1:1883,1551656037869,PRODUCED
Publisher_001,topicA,topicA-624,172.172.1.1:1883,1551656037973,PRODUCED
Publisher_001,topicA,topicA-625,172.172.1.1:1883,1551656038069,PRODUCED
Publisher_001,topicA,topicA-626,172.172.1.1:1883,1551656038168,PRODUCED
Publisher_001,topicA,topicA-627,172.172.1.1:1883,1551656038268,PRODUCED
Publisher_001,topicA,topicA-628,172.172.1.1:1883,1551656038372,PRODUCED
Publisher_001,topicA,topicA-629,172.172.1.1:1883,1551656038474,PRODUCED
Publisher_001,topicA,topicA-630,172.172.1.1:1883,1551656038569,PRODUCED
Publisher_001,topicA,topicA-631,172.172.1.1:1883,1551656038670,PRODUCED
Publisher_001,topicA,topicA-632,172.172.1.1:1883,1551656038772,PRODUCED
Publisher_001,topicA,topicA-633,172.172.1.1:1883,1551656038869,PRODUCED
Publisher_001,topicA,topicA-634,172.172.1.1:1883,1551656038968,PRODUCED
Publisher_001,topicA,topicA-635,172.172.1.1:1883,1551656039068,PRODUCED
Publisher_001,topicA,topicA-636,172.172.1.1:1883,1551656039169,PRODUCED
Publisher_001,topicA,topicA-637,172.172.1.1:1883,1551656039275,PRODUCED
Publisher_001,topicA,topicA-638,172.172.1.1:1883,1551656039368,PRODUCED
Publisher_001,topicA,topicA-639,172.172.1.1:1883,1551656039469,PRODUCED
Publisher_001,topicA,topicA-640,172.172.1.1:1883,1551656039568,PRODUCED
Publisher_001,topicA,topicA-641,172.172.1.1:1883,1551656039668,PRODUCED
Publisher_001,topicA,topicA-642,172.172.1.1:1883,1551656039768,PRODUCED
Publisher_001,topicA,topicA-643,172.172.1.1:1883,1551656039868,PRODUCED
Publisher_001,topicA,topicA-644,172.172.1.1:1883,1551656039970,PRODUCED
Publisher_001,topicA,topicA-645,172.172.1.1:1883,1551656040071,PRODUCED
Publisher_001,topicA,topicA-646,172.172.1.1:1883,1551656040173,PRODUCED
Publisher_001,topicA,topicA-647,172.172.1.1:1883,1551656040275,PRODUCED
Publisher_001,topicA,topicA-648,172.172.1.1:1883,1551656040369,PRODUCED
Publisher_001,topicA,topicA-649,172.172.1.1:1883,1551656040473,PRODUCED
Publisher_001,topicA,topicA-650,172.172.1.1:1883,1551656040569,PRODUCED
Publisher_001,topicA,topicA-651,172.172.1.1:1883,1551656040669,PRODUCED
Publisher_001,topicA,topicA-652,172.172.1.1:1883,1551656040767,PRODUCED
Publisher_001,topicA,topicA-653,172.172.1.1:1883,1551656040868,PRODUCED
Publisher_001,topicA,topicA-654,172.172.1.1:1883,1551656040968,PRODUCED
Publisher_001,topicA,topicA-655,172.172.1.1:1883,1551656041068,PRODUCED
Publisher_001,topicA,topicA-656,172.172.1.1:1883,1551656041174,PRODUCED
Publisher_001,topicA,topicA-657,172.172.1.1:1883,1551656041268,PRODUCED
Publisher_001,topicA,topicA-658,172.172.1.1:1883,1551656041368,PRODUCED
Publisher_001,topicA,topicA-659,172.172.1.1:1883,1551656041468,PRODUCED
Publisher_001,topicA,topicA-660,172.172.1.1:1883,1551656041568,PRODUCED
Publisher_001,topicA,topicA-661,172.172.1.1:1883,1551656041667,PRODUCED
Publisher_001,topicA,topicA-662,172.172.1.1:1883,1551656041768,PRODUCED
