clientId,topic,guid,broker,timestamp,type
Subscriber_001,topicA,topicA-55,172.172.1.1:1883,1551654231624,RECEIVED
Subscriber_001,topicA,topicA-56,172.172.1.1:1883,1551654231627,RECEIVED
Subscriber_001,topicA,topicA-57,172.172.1.1:1883,1551654231628,RECEIVED
Subscriber_001,topicA,topicA-58,172.172.1.1:1883,1551654231689,RECEIVED
Subscriber_001,topicA,topicA-59,172.172.1.1:1883,1551654231791,RECEIVED
Subscriber_001,topicA,topicA-60,172.172.1.1:1883,1551654231886,RECEIVED
Subscriber_001,topicA,topicA-61,172.172.1.1:1883,1551654231986,RECEIVED
Subscriber_001,topicA,topicA-62,172.172.1.1:1883,1551654232092,RECEIVED
Subscriber_001,topicA,topicA-63,172.172.1.1:1883,1551654232192,RECEIVED
Subscriber_001,topicA,topicA-64,172.172.1.1:1883,1551654232288,RECEIVED
Subscriber_001,topicA,topicA-65,172.172.1.1:1883,1551654232393,RECEIVED
Subscriber_001,topicA,topicA-66,172.172.1.1:1883,1551654232485,RECEIVED
Subscriber_001,topicA,topicA-67,172.172.1.1:1883,1551654232590,RECEIVED
Subscriber_001,topicA,topicA-68,172.172.1.1:1883,1551654232690,RECEIVED
Subscriber_001,topicA,topicA-69,172.172.1.1:1883,1551654232783,RECEIVED
Subscriber_001,topicA,topicA-70,172.172.1.1:1883,1551654232902,RECEIVED
Subscriber_001,topicA,topicA-71,172.172.1.1:1883,1551654233002,RECEIVED
Subscriber_001,topicA,topicA-72,172.172.1.1:1883,1551654233094,RECEIVED
Subscriber_001,topicA,topicA-73,172.172.1.1:1883,1551654233190,RECEIVED
Subscriber_001,topicA,topicA-74,172.172.1.1:1883,1551654233299,RECEIVED
Subscriber_001,topicA,topicA-75,172.172.1.1:1883,1551654233385,RECEIVED
Subscriber_001,topicA,topicA-76,172.172.1.1:1883,1551654233496,RECEIVED
Subscriber_001,topicA,topicA-77,172.172.1.1:1883,1551654233586,RECEIVED
Subscriber_001,topicA,topicA-78,172.172.1.1:1883,1551654233694,RECEIVED
Subscriber_001,topicA,topicA-79,172.172.1.1:1883,1551654233787,RECEIVED
Subscriber_001,topicA,topicA-80,172.172.1.1:1883,1551654233884,RECEIVED
Subscriber_001,topicA,topicA-81,172.172.1.1:1883,1551654233988,RECEIVED
Subscriber_001,topicA,topicA-82,172.172.1.1:1883,1551654234088,RECEIVED
Subscriber_001,topicA,topicA-83,172.172.1.1:1883,1551654234187,RECEIVED
Subscriber_001,topicA,topicA-84,172.172.1.1:1883,1551654234283,RECEIVED
Subscriber_001,topicA,topicA-85,172.172.1.1:1883,1551654234385,RECEIVED
Subscriber_001,topicA,topicA-86,172.172.1.1:1883,1551654234484,RECEIVED
Subscriber_001,topicA,topicA-87,172.172.1.1:1883,1551654234596,RECEIVED
Subscriber_001,topicA,topicA-88,172.172.1.1:1883,1551654234691,RECEIVED
Subscriber_001,topicA,topicA-89,172.172.1.1:1883,1551654234788,RECEIVED
Subscriber_001,topicA,topicA-90,172.172.1.1:1883,1551654234891,RECEIVED
Subscriber_001,topicA,topicA-91,172.172.1.1:1883,1551654234995,RECEIVED
Subscriber_001,topicA,topicA-92,172.172.1.1:1883,1551654235092,RECEIVED
Subscriber_001,topicA,topicA-93,172.172.1.1:1883,1551654235183,RECEIVED
Subscriber_001,topicA,topicA-94,172.172.1.1:1883,1551654235307,RECEIVED
Subscriber_001,topicA,topicA-95,172.172.1.1:1883,1551654235417,RECEIVED
Subscriber_001,topicA,topicA-96,172.172.1.1:1883,1551654235491,RECEIVED
Subscriber_001,topicA,topicA-97,172.172.1.1:1883,1551654235598,RECEIVED
Subscriber_001,topicA,topicA-98,172.172.1.1:1883,1551654235690,RECEIVED
Subscriber_001,topicA,topicA-99,172.172.1.1:1883,1551654235800,RECEIVED
Subscriber_001,topicA,topicA-100,172.172.1.1:1883,1551654235896,RECEIVED
Subscriber_001,topicA,topicA-101,172.172.1.1:1883,1551654235990,RECEIVED
Subscriber_001,topicA,topicA-102,172.172.1.1:1883,1551654236091,RECEIVED
Subscriber_001,topicA,topicA-103,172.172.1.1:1883,1551654236190,RECEIVED
Subscriber_001,topicA,topicA-104,172.172.1.1:1883,1551654236291,RECEIVED
Subscriber_001,topicA,topicA-105,172.172.1.1:1883,1551654236390,RECEIVED
Subscriber_001,topicA,topicA-106,172.172.1.1:1883,1551654236489,RECEIVED
Subscriber_001,topicA,topicA-107,172.172.1.1:1883,1551654236592,RECEIVED
Subscriber_001,topicA,topicA-108,172.172.1.1:1883,1551654236692,RECEIVED
Subscriber_001,topicA,topicA-109,172.172.1.1:1883,1551654236795,RECEIVED
Subscriber_001,topicA,topicA-110,172.172.1.1:1883,1551654236894,RECEIVED
Subscriber_001,topicA,topicA-111,172.172.1.1:1883,1551654236989,RECEIVED
Subscriber_001,topicA,topicA-112,172.172.1.1:1883,1551654237089,RECEIVED
Subscriber_001,topicA,topicA-113,172.172.1.1:1883,1551654237188,RECEIVED
Subscriber_001,topicA,topicA-114,172.172.1.1:1883,1551654237297,RECEIVED
Subscriber_001,topicA,topicA-115,172.172.1.1:1883,1551654237397,RECEIVED
Subscriber_001,topicA,topicA-116,172.172.1.1:1883,1551654237485,RECEIVED
Subscriber_001,topicA,topicA-117,172.172.1.1:1883,1551654237588,RECEIVED
Subscriber_001,topicA,topicA-118,172.172.1.1:1883,1551654237688,RECEIVED
Subscriber_001,topicA,topicA-119,172.172.1.1:1883,1551654237787,RECEIVED
Subscriber_001,topicA,topicA-120,172.172.1.1:1883,1551654237893,RECEIVED
Subscriber_001,topicA,topicA-121,172.172.1.1:1883,1551654237991,RECEIVED
Subscriber_001,topicA,topicA-122,172.172.1.1:1883,1551654238092,RECEIVED
Subscriber_001,topicA,topicA-123,172.172.1.1:1883,1551654238188,RECEIVED
Subscriber_001,topicA,topicA-124,172.172.1.1:1883,1551654238302,RECEIVED
Subscriber_001,topicA,topicA-125,172.172.1.1:1883,1551654238390,RECEIVED
Subscriber_001,topicA,topicA-126,172.172.1.1:1883,1551654238486,RECEIVED
Subscriber_001,topicA,topicA-127,172.172.1.1:1883,1551654238585,RECEIVED
Subscriber_001,topicA,topicA-128,172.172.1.1:1883,1551654238695,RECEIVED
Subscriber_001,topicA,topicA-129,172.172.1.1:1883,1551654238793,RECEIVED
Subscriber_001,topicA,topicA-130,172.172.1.1:1883,1551654238900,RECEIVED
Subscriber_001,topicA,topicA-131,172.172.1.1:1883,1551654238992,RECEIVED
Subscriber_001,topicA,topicA-132,172.172.1.1:1883,1551654239087,RECEIVED
Subscriber_001,topicA,topicA-133,172.172.1.1:1883,1551654239188,RECEIVED
Subscriber_001,topicA,topicA-134,172.172.1.1:1883,1551654239289,RECEIVED
Subscriber_001,topicA,topicA-135,172.172.1.1:1883,1551654239389,RECEIVED
Subscriber_001,topicA,topicA-136,172.172.1.1:1883,1551654239485,RECEIVED
Subscriber_001,topicA,topicA-137,172.172.1.1:1883,1551654239593,RECEIVED
Subscriber_001,topicA,topicA-138,172.172.1.1:1883,1551654239699,RECEIVED
Subscriber_001,topicA,topicA-139,172.172.1.1:1883,1551654239795,RECEIVED
Subscriber_001,topicA,topicA-140,172.172.1.1:1883,1551654239891,RECEIVED
Subscriber_001,topicA,topicA-141,172.172.1.1:1883,1551654239995,RECEIVED
Subscriber_001,topicA,topicA-142,172.172.1.1:1883,1551654240091,RECEIVED
Subscriber_001,topicA,topicA-143,172.172.1.1:1883,1551654240190,RECEIVED
Subscriber_001,topicA,topicA-144,172.172.1.1:1883,1551654240289,RECEIVED
Subscriber_001,topicA,topicA-145,172.172.1.1:1883,1551654240388,RECEIVED
Subscriber_001,topicA,topicA-146,172.172.1.1:1883,1551654240490,RECEIVED
Subscriber_001,topicA,topicA-147,172.172.1.1:1883,1551654240592,RECEIVED
Subscriber_001,topicA,topicA-148,172.172.1.1:1883,1551654240689,RECEIVED
Subscriber_001,topicA,topicA-149,172.172.1.1:1883,1551654240801,RECEIVED
Subscriber_001,topicA,topicA-150,172.172.1.1:1883,1551654240897,RECEIVED
Subscriber_001,topicA,topicA-151,172.172.1.1:1883,1551654240989,RECEIVED
Subscriber_001,topicA,topicA-152,172.172.1.1:1883,1551654241088,RECEIVED
Subscriber_001,topicA,topicA-153,172.172.1.1:1883,1551654241188,RECEIVED
Subscriber_001,topicA,topicA-154,172.172.1.1:1883,1551654241296,RECEIVED
Subscriber_001,topicA,topicA-155,172.172.1.1:1883,1551654241400,RECEIVED
Subscriber_001,topicA,topicA-156,172.172.1.1:1883,1551654241493,RECEIVED
Subscriber_001,topicA,topicA-157,172.172.1.1:1883,1551654241595,RECEIVED
Subscriber_001,topicA,topicA-158,172.172.1.1:1883,1551654241704,RECEIVED
Subscriber_001,topicA,topicA-159,172.172.1.1:1883,1551654241791,RECEIVED
Subscriber_001,topicA,topicA-160,172.172.1.1:1883,1551654241891,RECEIVED
Subscriber_001,topicA,topicA-161,172.172.1.1:1883,1551654241998,RECEIVED
Subscriber_001,topicA,topicA-162,172.172.1.1:1883,1551654242095,RECEIVED
Subscriber_001,topicA,topicA-163,172.172.1.1:1883,1551654242189,RECEIVED
Subscriber_001,topicA,topicA-164,172.172.1.1:1883,1551654242289,RECEIVED
Subscriber_001,topicA,topicA-165,172.172.1.1:1883,1551654242389,RECEIVED
Subscriber_001,topicA,topicA-166,172.172.1.1:1883,1551654242495,RECEIVED
Subscriber_001,topicA,topicA-167,172.172.1.1:1883,1551654242590,RECEIVED
Subscriber_001,topicA,topicA-168,172.172.1.1:1883,1551654242695,RECEIVED
Subscriber_001,topicA,topicA-169,172.172.1.1:1883,1551654242790,RECEIVED
Subscriber_001,topicA,topicA-170,172.172.1.1:1883,1551654242883,RECEIVED
Subscriber_001,topicA,topicA-171,172.172.1.1:1883,1551654242988,RECEIVED
Subscriber_001,topicA,topicA-172,172.172.1.1:1883,1551654243089,RECEIVED
Subscriber_001,topicA,topicA-173,172.172.1.1:1883,1551654243198,RECEIVED
Subscriber_001,topicA,topicA-174,172.172.1.1:1883,1551654243297,RECEIVED
Subscriber_001,topicA,topicA-175,172.172.1.1:1883,1551654243398,RECEIVED
Subscriber_001,topicA,topicA-176,172.172.1.1:1883,1551654243498,RECEIVED
Subscriber_001,topicA,topicA-177,172.172.1.1:1883,1551654243585,RECEIVED
Subscriber_001,topicA,topicA-178,172.172.1.1:1883,1551654243694,RECEIVED
Subscriber_001,topicA,topicA-179,172.172.1.1:1883,1551654243791,RECEIVED
Subscriber_001,topicA,topicA-180,172.172.1.1:1883,1551654243889,RECEIVED
Subscriber_001,topicA,topicA-181,172.172.1.1:1883,1551654243998,RECEIVED
Subscriber_001,topicA,topicA-182,172.172.1.1:1883,1551654244097,RECEIVED
Subscriber_001,topicA,topicA-183,172.172.1.1:1883,1551654244191,RECEIVED
Subscriber_001,topicA,topicA-184,172.172.1.1:1883,1551654244296,RECEIVED
Subscriber_001,topicA,topicA-185,172.172.1.1:1883,1551654244392,RECEIVED
Subscriber_001,topicA,topicA-186,172.172.1.1:1883,1551654244494,RECEIVED
Subscriber_001,topicA,topicA-187,172.172.1.1:1883,1551654244591,RECEIVED
Subscriber_001,topicA,topicA-188,172.172.1.1:1883,1551654244686,RECEIVED
Subscriber_001,topicA,topicA-189,172.172.1.1:1883,1551654244782,RECEIVED
Subscriber_001,topicA,topicA-190,172.172.1.1:1883,1551654244889,RECEIVED
Subscriber_001,topicA,topicA-191,172.172.1.1:1883,1551654244991,RECEIVED
Subscriber_001,topicA,topicA-192,172.172.1.1:1883,1551654245092,RECEIVED
Subscriber_001,topicA,topicA-193,172.172.1.1:1883,1551654245194,RECEIVED
Subscriber_001,topicA,topicA-194,172.172.1.1:1883,1551654245296,RECEIVED
Subscriber_001,topicA,topicA-195,172.172.1.1:1883,1551654245392,RECEIVED
Subscriber_001,topicA,topicA-196,172.172.1.1:1883,1551654245485,RECEIVED
Subscriber_001,topicA,topicA-197,172.172.1.1:1883,1551654245589,RECEIVED
Subscriber_001,topicA,topicA-198,172.172.1.1:1883,1551654245682,RECEIVED
Subscriber_001,topicA,topicA-199,172.172.1.1:1883,1551654245790,RECEIVED
Subscriber_001,topicA,topicA-200,172.172.1.1:1883,1551654245886,RECEIVED
Subscriber_001,topicA,topicA-201,172.172.1.1:1883,1551654245990,RECEIVED
Subscriber_001,topicA,topicA-202,172.172.1.1:1883,1551654246086,RECEIVED
Subscriber_001,topicA,topicA-203,172.172.1.1:1883,1551654246204,RECEIVED
Subscriber_001,topicA,topicA-204,172.172.1.1:1883,1551654246289,RECEIVED
Subscriber_001,topicA,topicA-205,172.172.1.1:1883,1551654246391,RECEIVED
Subscriber_001,topicA,topicA-206,172.172.1.1:1883,1551654246484,RECEIVED
Subscriber_001,topicA,topicA-207,172.172.1.1:1883,1551654246587,RECEIVED
Subscriber_001,topicA,topicA-208,172.172.1.1:1883,1551654246687,RECEIVED
Subscriber_001,topicA,topicA-209,172.172.1.1:1883,1551654246788,RECEIVED
Subscriber_001,topicA,topicA-210,172.172.1.1:1883,1551654246895,RECEIVED
Subscriber_001,topicA,topicA-211,172.172.1.1:1883,1551654246990,RECEIVED
Subscriber_001,topicA,topicA-212,172.172.1.1:1883,1551654247091,RECEIVED
Subscriber_001,topicA,topicA-213,172.172.1.1:1883,1551654247195,RECEIVED
Subscriber_001,topicA,topicA-214,172.172.1.1:1883,1551654247290,RECEIVED
Subscriber_001,topicA,topicA-215,172.172.1.1:1883,1551654247397,RECEIVED
Subscriber_001,topicA,topicA-216,172.172.1.1:1883,1551654247490,RECEIVED
Subscriber_001,topicA,topicA-217,172.172.1.1:1883,1551654247598,RECEIVED
Subscriber_001,topicA,topicA-218,172.172.1.1:1883,1551654247690,RECEIVED
Subscriber_001,topicA,topicA-219,172.172.1.1:1883,1551654247806,RECEIVED
Subscriber_001,topicA,topicA-220,172.172.1.1:1883,1551654247886,RECEIVED
Subscriber_001,topicA,topicA-221,172.172.1.1:1883,1551654247994,RECEIVED
Subscriber_001,topicA,topicA-222,172.172.1.1:1883,1551654248096,RECEIVED
Subscriber_001,topicA,topicA-223,172.172.1.1:1883,1551654248190,RECEIVED
Subscriber_001,topicA,topicA-224,172.172.1.1:1883,1551654248292,RECEIVED
Subscriber_001,topicA,topicA-225,172.172.1.1:1883,1551654248388,RECEIVED
Subscriber_001,topicA,topicA-226,172.172.1.1:1883,1551654248489,RECEIVED
Subscriber_001,topicA,topicA-227,172.172.1.1:1883,1551654248589,RECEIVED
Subscriber_001,topicA,topicA-228,172.172.1.1:1883,1551654248694,RECEIVED
Subscriber_001,topicA,topicA-229,172.172.1.1:1883,1551654248786,RECEIVED
Subscriber_001,topicA,topicA-230,172.172.1.1:1883,1551654248883,RECEIVED
Subscriber_001,topicA,topicA-231,172.172.1.1:1883,1551654248985,RECEIVED
Subscriber_001,topicA,topicA-232,172.172.1.1:1883,1551654249083,RECEIVED
Subscriber_001,topicA,topicA-233,172.172.1.1:1883,1551654249187,RECEIVED
Subscriber_001,topicA,topicA-234,172.172.1.1:1883,1551654249292,RECEIVED
Subscriber_001,topicA,topicA-235,172.172.1.1:1883,1551654249387,RECEIVED
Subscriber_001,topicA,topicA-236,172.172.1.1:1883,1551654249493,RECEIVED
Subscriber_001,topicA,topicA-237,172.172.1.1:1883,1551654249593,RECEIVED
Subscriber_001,topicA,topicA-238,172.172.1.1:1883,1551654249684,RECEIVED
Subscriber_001,topicA,topicA-239,172.172.1.1:1883,1551654249791,RECEIVED
Subscriber_001,topicA,topicA-240,172.172.1.1:1883,1551654249886,RECEIVED
Subscriber_001,topicA,topicA-241,172.172.1.1:1883,1551654249992,RECEIVED
Subscriber_001,topicA,topicA-242,172.172.1.1:1883,1551654250092,RECEIVED
Subscriber_001,topicA,topicA-243,172.172.1.1:1883,1551654250186,RECEIVED
Subscriber_001,topicA,topicA-244,172.172.1.1:1883,1551654250294,RECEIVED
Subscriber_001,topicA,topicA-245,172.172.1.1:1883,1551654250386,RECEIVED
Subscriber_001,topicA,topicA-246,172.172.1.1:1883,1551654250487,RECEIVED
Subscriber_001,topicA,topicA-247,172.172.1.1:1883,1551654250601,RECEIVED
Subscriber_001,topicA,topicA-248,172.172.1.1:1883,1551654250701,RECEIVED
Subscriber_001,topicA,topicA-249,172.172.1.1:1883,1551654250786,RECEIVED
Subscriber_001,topicA,topicA-250,172.172.1.2:1883,1551654251575,RECEIVED
Subscriber_001,topicA,topicA-251,172.172.1.2:1883,1551654251679,RECEIVED
Subscriber_001,topicA,topicA-252,172.172.1.2:1883,1551654251789,RECEIVED
Subscriber_001,topicA,topicA-253,172.172.1.2:1883,1551654251884,RECEIVED
Subscriber_001,topicA,topicA-254,172.172.1.2:1883,1551654251977,RECEIVED
Subscriber_001,topicA,topicA-255,172.172.1.2:1883,1551654252081,RECEIVED
Subscriber_001,topicA,topicA-256,172.172.1.2:1883,1551654252181,RECEIVED
Subscriber_001,topicA,topicA-257,172.172.1.2:1883,1551654252278,RECEIVED
Subscriber_001,topicA,topicA-258,172.172.1.2:1883,1551654252379,RECEIVED
Subscriber_001,topicA,topicA-259,172.172.1.2:1883,1551654252479,RECEIVED
Subscriber_001,topicA,topicA-260,172.172.1.2:1883,1551654252598,RECEIVED
Subscriber_001,topicA,topicA-261,172.172.1.2:1883,1551654252680,RECEIVED
Subscriber_001,topicA,topicA-262,172.172.1.2:1883,1551654252781,RECEIVED
Subscriber_001,topicA,topicA-263,172.172.1.2:1883,1551654252875,RECEIVED
Subscriber_001,topicA,topicA-264,172.172.1.2:1883,1551654252978,RECEIVED
Subscriber_001,topicA,topicA-265,172.172.1.2:1883,1551654253082,RECEIVED
Subscriber_001,topicA,topicA-266,172.172.1.2:1883,1551654253182,RECEIVED
Subscriber_001,topicA,topicA-267,172.172.1.2:1883,1551654253278,RECEIVED
Subscriber_001,topicA,topicA-268,172.172.1.2:1883,1551654253379,RECEIVED
Subscriber_001,topicA,topicA-269,172.172.1.2:1883,1551654253478,RECEIVED
Subscriber_001,topicA,topicA-270,172.172.1.2:1883,1551654253575,RECEIVED
Subscriber_001,topicA,topicA-271,172.172.1.2:1883,1551654253677,RECEIVED
Subscriber_001,topicA,topicA-272,172.172.1.2:1883,1551654253782,RECEIVED
Subscriber_001,topicA,topicA-273,172.172.1.2:1883,1551654253874,RECEIVED
Subscriber_001,topicA,topicA-274,172.172.1.2:1883,1551654253972,RECEIVED
Subscriber_001,topicA,topicA-275,172.172.1.2:1883,1551654254078,RECEIVED
Subscriber_001,topicA,topicA-276,172.172.1.2:1883,1551654254179,RECEIVED
Subscriber_001,topicA,topicA-277,172.172.1.2:1883,1551654254278,RECEIVED
Subscriber_001,topicA,topicA-278,172.172.1.2:1883,1551654254389,RECEIVED
Subscriber_001,topicA,topicA-279,172.172.1.2:1883,1551654254480,RECEIVED
Subscriber_001,topicA,topicA-280,172.172.1.2:1883,1551654254584,RECEIVED
Subscriber_001,topicA,topicA-281,172.172.1.2:1883,1551654254678,RECEIVED
Subscriber_001,topicA,topicA-282,172.172.1.2:1883,1551654254778,RECEIVED
Subscriber_001,topicA,topicA-283,172.172.1.2:1883,1551654254873,RECEIVED
Subscriber_001,topicA,topicA-284,172.172.1.2:1883,1551654254975,RECEIVED
Subscriber_001,topicA,topicA-285,172.172.1.2:1883,1551654255078,RECEIVED
Subscriber_001,topicA,topicA-286,172.172.1.2:1883,1551654255177,RECEIVED
Subscriber_001,topicA,topicA-287,172.172.1.2:1883,1551654255277,RECEIVED
Subscriber_001,topicA,topicA-288,172.172.1.2:1883,1551654255379,RECEIVED
Subscriber_001,topicA,topicA-289,172.172.1.2:1883,1551654255477,RECEIVED
Subscriber_001,topicA,topicA-290,172.172.1.2:1883,1551654255579,RECEIVED
Subscriber_001,topicA,topicA-291,172.172.1.2:1883,1551654255695,RECEIVED
Subscriber_001,topicA,topicA-292,172.172.1.2:1883,1551654255773,RECEIVED
Subscriber_001,topicA,topicA-293,172.172.1.2:1883,1551654255888,RECEIVED
Subscriber_001,topicA,topicA-294,172.172.1.2:1883,1551654255980,RECEIVED
Subscriber_001,topicA,topicA-295,172.172.1.2:1883,1551654256081,RECEIVED
Subscriber_001,topicA,topicA-296,172.172.1.2:1883,1551654256186,RECEIVED
Subscriber_001,topicA,topicA-297,172.172.1.2:1883,1551654256287,RECEIVED
Subscriber_001,topicA,topicA-298,172.172.1.2:1883,1551654256376,RECEIVED
Subscriber_001,topicA,topicA-299,172.172.1.2:1883,1551654256483,RECEIVED
Subscriber_001,topicA,topicA-300,172.172.1.2:1883,1551654256577,RECEIVED
Subscriber_001,topicA,topicA-301,172.172.1.2:1883,1551654256677,RECEIVED
Subscriber_001,topicA,topicA-302,172.172.1.2:1883,1551654256781,RECEIVED
Subscriber_001,topicA,topicA-303,172.172.1.2:1883,1551654256878,RECEIVED
Subscriber_001,topicA,topicA-304,172.172.1.2:1883,1551654256981,RECEIVED
Subscriber_001,topicA,topicA-305,172.172.1.2:1883,1551654257082,RECEIVED
Subscriber_001,topicA,topicA-306,172.172.1.2:1883,1551654257181,RECEIVED
Subscriber_001,topicA,topicA-307,172.172.1.2:1883,1551654257282,RECEIVED
Subscriber_001,topicA,topicA-308,172.172.1.2:1883,1551654257379,RECEIVED
Subscriber_001,topicA,topicA-309,172.172.1.2:1883,1551654257478,RECEIVED
Subscriber_001,topicA,topicA-310,172.172.1.2:1883,1551654257579,RECEIVED
Subscriber_001,topicA,topicA-311,172.172.1.2:1883,1551654257682,RECEIVED
Subscriber_001,topicA,topicA-312,172.172.1.2:1883,1551654257782,RECEIVED
Subscriber_001,topicA,topicA-313,172.172.1.2:1883,1551654257886,RECEIVED
Subscriber_001,topicA,topicA-314,172.172.1.2:1883,1551654257980,RECEIVED
Subscriber_001,topicA,topicA-315,172.172.1.2:1883,1551654258078,RECEIVED
Subscriber_001,topicA,topicA-316,172.172.1.2:1883,1551654258181,RECEIVED
Subscriber_001,topicA,topicA-317,172.172.1.2:1883,1551654258278,RECEIVED
Subscriber_001,topicA,topicA-318,172.172.1.2:1883,1551654258374,RECEIVED
Subscriber_001,topicA,topicA-319,172.172.1.2:1883,1551654258477,RECEIVED
Subscriber_001,topicA,topicA-320,172.172.1.2:1883,1551654258595,RECEIVED
Subscriber_001,topicA,topicA-321,172.172.1.2:1883,1551654258673,RECEIVED
Subscriber_001,topicA,topicA-322,172.172.1.2:1883,1551654258781,RECEIVED
Subscriber_001,topicA,topicA-323,172.172.1.2:1883,1551654258876,RECEIVED
Subscriber_001,topicA,topicA-324,172.172.1.2:1883,1551654258975,RECEIVED
Subscriber_001,topicA,topicA-325,172.172.1.2:1883,1551654259078,RECEIVED
Subscriber_001,topicA,topicA-326,172.172.1.2:1883,1551654259178,RECEIVED
Subscriber_001,topicA,topicA-327,172.172.1.2:1883,1551654259281,RECEIVED
Subscriber_001,topicA,topicA-328,172.172.1.2:1883,1551654259379,RECEIVED
Subscriber_001,topicA,topicA-329,172.172.1.2:1883,1551654259493,RECEIVED
Subscriber_001,topicA,topicA-330,172.172.1.2:1883,1551654259575,RECEIVED
Subscriber_001,topicA,topicA-331,172.172.1.2:1883,1551654259690,RECEIVED
Subscriber_001,topicA,topicA-332,172.172.1.2:1883,1551654259787,RECEIVED
Subscriber_001,topicA,topicA-333,172.172.1.2:1883,1551654259882,RECEIVED
Subscriber_001,topicA,topicA-334,172.172.1.2:1883,1551654259978,RECEIVED
Subscriber_001,topicA,topicA-335,172.172.1.2:1883,1551654260074,RECEIVED
Subscriber_001,topicA,topicA-336,172.172.1.2:1883,1551654260183,RECEIVED
Subscriber_001,topicA,topicA-337,172.172.1.2:1883,1551654260279,RECEIVED
Subscriber_001,topicA,topicA-338,172.172.1.2:1883,1551654260380,RECEIVED
Subscriber_001,topicA,topicA-339,172.172.1.2:1883,1551654260475,RECEIVED
Subscriber_001,topicA,topicA-340,172.172.1.2:1883,1551654260577,RECEIVED
Subscriber_001,topicA,topicA-341,172.172.1.2:1883,1551654260687,RECEIVED
Subscriber_001,topicA,topicA-342,172.172.1.2:1883,1551654260779,RECEIVED
Subscriber_001,topicA,topicA-343,172.172.1.2:1883,1551654260884,RECEIVED
Subscriber_001,topicA,topicA-344,172.172.1.2:1883,1551654260985,RECEIVED
Subscriber_001,topicA,topicA-345,172.172.1.2:1883,1551654261074,RECEIVED
Subscriber_001,topicA,topicA-346,172.172.1.2:1883,1551654261187,RECEIVED
Subscriber_001,topicA,topicA-347,172.172.1.2:1883,1551654261288,RECEIVED
Subscriber_001,topicA,topicA-348,172.172.1.2:1883,1551654261383,RECEIVED
Subscriber_001,topicA,topicA-349,172.172.1.2:1883,1551654261489,RECEIVED
Subscriber_001,topicA,topicA-350,172.172.1.2:1883,1551654261586,RECEIVED
Subscriber_001,topicA,topicA-351,172.172.1.2:1883,1551654261682,RECEIVED
Subscriber_001,topicA,topicA-352,172.172.1.2:1883,1551654261783,RECEIVED
Subscriber_001,topicA,topicA-353,172.172.1.2:1883,1551654261892,RECEIVED
Subscriber_001,topicA,topicA-354,172.172.1.2:1883,1551654261976,RECEIVED
Subscriber_001,topicA,topicA-355,172.172.1.2:1883,1551654262075,RECEIVED
Subscriber_001,topicA,topicA-356,172.172.1.2:1883,1551654262185,RECEIVED
Subscriber_001,topicA,topicA-357,172.172.1.2:1883,1551654262280,RECEIVED
Subscriber_001,topicA,topicA-358,172.172.1.2:1883,1551654262389,RECEIVED
Subscriber_001,topicA,topicA-359,172.172.1.2:1883,1551654262493,RECEIVED
Subscriber_001,topicA,topicA-360,172.172.1.2:1883,1551654262582,RECEIVED
Subscriber_001,topicA,topicA-361,172.172.1.2:1883,1551654262680,RECEIVED
Subscriber_001,topicA,topicA-362,172.172.1.2:1883,1551654262781,RECEIVED
Subscriber_001,topicA,topicA-363,172.172.1.2:1883,1551654262882,RECEIVED
Subscriber_001,topicA,topicA-364,172.172.1.2:1883,1551654262979,RECEIVED
Subscriber_001,topicA,topicA-365,172.172.1.2:1883,1551654263079,RECEIVED
Subscriber_001,topicA,topicA-366,172.172.1.2:1883,1551654263182,RECEIVED
Subscriber_001,topicA,topicA-367,172.172.1.2:1883,1551654263284,RECEIVED
Subscriber_001,topicA,topicA-368,172.172.1.2:1883,1551654263378,RECEIVED
Subscriber_001,topicA,topicA-369,172.172.1.2:1883,1551654263478,RECEIVED
Subscriber_001,topicA,topicA-370,172.172.1.2:1883,1551654263580,RECEIVED
Subscriber_001,topicA,topicA-371,172.172.1.2:1883,1551654263684,RECEIVED
Subscriber_001,topicA,topicA-372,172.172.1.2:1883,1551654263793,RECEIVED
Subscriber_001,topicA,topicA-373,172.172.1.2:1883,1551654263888,RECEIVED
Subscriber_001,topicA,topicA-374,172.172.1.2:1883,1551654263983,RECEIVED
Subscriber_001,topicA,topicA-375,172.172.1.2:1883,1551654264086,RECEIVED
Subscriber_001,topicA,topicA-376,172.172.1.2:1883,1551654264178,RECEIVED
Subscriber_001,topicA,topicA-377,172.172.1.2:1883,1551654264296,RECEIVED
Subscriber_001,topicA,topicA-378,172.172.1.2:1883,1551654264379,RECEIVED
Subscriber_001,topicA,topicA-379,172.172.1.2:1883,1551654264489,RECEIVED
Subscriber_001,topicA,topicA-380,172.172.1.2:1883,1551654264577,RECEIVED
Subscriber_001,topicA,topicA-381,172.172.1.2:1883,1551654264681,RECEIVED
Subscriber_001,topicA,topicA-382,172.172.1.2:1883,1551654264780,RECEIVED
Subscriber_001,topicA,topicA-383,172.172.1.2:1883,1551654264887,RECEIVED
Subscriber_001,topicA,topicA-384,172.172.1.2:1883,1551654264985,RECEIVED
Subscriber_001,topicA,topicA-385,172.172.1.2:1883,1551654265084,RECEIVED
Subscriber_001,topicA,topicA-386,172.172.1.2:1883,1551654265173,RECEIVED
Subscriber_001,topicA,topicA-387,172.172.1.2:1883,1551654265272,RECEIVED
Subscriber_001,topicA,topicA-388,172.172.1.2:1883,1551654265373,RECEIVED
Subscriber_001,topicA,topicA-389,172.172.1.2:1883,1551654265479,RECEIVED
Subscriber_001,topicA,topicA-390,172.172.1.2:1883,1551654265583,RECEIVED
Subscriber_001,topicA,topicA-391,172.172.1.2:1883,1551654265678,RECEIVED
Subscriber_001,topicA,topicA-392,172.172.1.2:1883,1551654265785,RECEIVED
Subscriber_001,topicA,topicA-393,172.172.1.2:1883,1551654265882,RECEIVED
Subscriber_001,topicA,topicA-394,172.172.1.2:1883,1551654265992,RECEIVED
Subscriber_001,topicA,topicA-395,172.172.1.2:1883,1551654266087,RECEIVED
Subscriber_001,topicA,topicA-396,172.172.1.2:1883,1551654266178,RECEIVED
Subscriber_001,topicA,topicA-397,172.172.1.2:1883,1551654266278,RECEIVED
Subscriber_001,topicA,topicA-398,172.172.1.2:1883,1551654266383,RECEIVED
Subscriber_001,topicA,topicA-399,172.172.1.2:1883,1551654266481,RECEIVED
Subscriber_001,topicA,topicA-400,172.172.1.2:1883,1551654266577,RECEIVED
Subscriber_001,topicA,topicA-401,172.172.1.2:1883,1551654266674,RECEIVED
Subscriber_001,topicA,topicA-402,172.172.1.2:1883,1551654266786,RECEIVED
Subscriber_001,topicA,topicA-403,172.172.1.2:1883,1551654266878,RECEIVED
Subscriber_001,topicA,topicA-404,172.172.1.2:1883,1551654266974,RECEIVED
Subscriber_001,topicA,topicA-405,172.172.1.2:1883,1551654267083,RECEIVED
Subscriber_001,topicA,topicA-406,172.172.1.2:1883,1551654267180,RECEIVED
Subscriber_001,topicA,topicA-407,172.172.1.2:1883,1551654267279,RECEIVED
Subscriber_001,topicA,topicA-408,172.172.1.2:1883,1551654267375,RECEIVED
Subscriber_001,topicA,topicA-409,172.172.1.2:1883,1551654267477,RECEIVED
Subscriber_001,topicA,topicA-410,172.172.1.2:1883,1551654267579,RECEIVED
Subscriber_001,topicA,topicA-411,172.172.1.2:1883,1551654267685,RECEIVED
Subscriber_001,topicA,topicA-412,172.172.1.2:1883,1551654267776,RECEIVED
Subscriber_001,topicA,topicA-413,172.172.1.2:1883,1551654267882,RECEIVED
Subscriber_001,topicA,topicA-414,172.172.1.2:1883,1551654267974,RECEIVED
Subscriber_001,topicA,topicA-415,172.172.1.2:1883,1551654268076,RECEIVED
Subscriber_001,topicA,topicA-416,172.172.1.2:1883,1551654268180,RECEIVED
Subscriber_001,topicA,topicA-417,172.172.1.2:1883,1551654268284,RECEIVED
Subscriber_001,topicA,topicA-418,172.172.1.2:1883,1551654268384,RECEIVED
Subscriber_001,topicA,topicA-419,172.172.1.2:1883,1551654268478,RECEIVED
Subscriber_001,topicA,topicA-420,172.172.1.2:1883,1551654268578,RECEIVED
Subscriber_001,topicA,topicA-421,172.172.1.2:1883,1551654268682,RECEIVED
Subscriber_001,topicA,topicA-422,172.172.1.2:1883,1551654268778,RECEIVED
Subscriber_001,topicA,topicA-423,172.172.1.2:1883,1551654268889,RECEIVED
Subscriber_001,topicA,topicA-424,172.172.1.2:1883,1551654268975,RECEIVED
Subscriber_001,topicA,topicA-425,172.172.1.2:1883,1551654269089,RECEIVED
Subscriber_001,topicA,topicA-426,172.172.1.2:1883,1551654269179,RECEIVED
Subscriber_001,topicA,topicA-427,172.172.1.2:1883,1551654269275,RECEIVED
Subscriber_001,topicA,topicA-428,172.172.1.2:1883,1551654269384,RECEIVED
Subscriber_001,topicA,topicA-429,172.172.1.2:1883,1551654269483,RECEIVED
Subscriber_001,topicA,topicA-430,172.172.1.2:1883,1551654269582,RECEIVED
Subscriber_001,topicA,topicA-431,172.172.1.2:1883,1551654269679,RECEIVED
Subscriber_001,topicA,topicA-432,172.172.1.2:1883,1551654269780,RECEIVED
Subscriber_001,topicA,topicA-433,172.172.1.2:1883,1551654269883,RECEIVED
Subscriber_001,topicA,topicA-434,172.172.1.2:1883,1551654269990,RECEIVED
Subscriber_001,topicA,topicA-435,172.172.1.2:1883,1551654270086,RECEIVED
Subscriber_001,topicA,topicA-436,172.172.1.2:1883,1551654270179,RECEIVED
Subscriber_001,topicA,topicA-437,172.172.1.2:1883,1551654270300,RECEIVED
Subscriber_001,topicA,topicA-438,172.172.1.2:1883,1551654270378,RECEIVED
Subscriber_001,topicA,topicA-439,172.172.1.2:1883,1551654270483,RECEIVED
Subscriber_001,topicA,topicA-440,172.172.1.2:1883,1551654270587,RECEIVED
Subscriber_001,topicA,topicA-441,172.172.1.2:1883,1551654270683,RECEIVED
Subscriber_001,topicA,topicA-442,172.172.1.2:1883,1551654270783,RECEIVED
Subscriber_001,topicA,topicA-443,172.172.1.2:1883,1551654270880,RECEIVED
Subscriber_001,topicA,topicA-444,172.172.1.2:1883,1551654270976,RECEIVED
Subscriber_001,topicA,topicA-445,172.172.1.2:1883,1551654271076,RECEIVED
Subscriber_001,topicA,topicA-446,172.172.1.2:1883,1551654271177,RECEIVED
Subscriber_001,topicA,topicA-447,172.172.1.2:1883,1551654271276,RECEIVED
Subscriber_001,topicA,topicA-448,172.172.1.2:1883,1551654271379,RECEIVED
Subscriber_001,topicA,topicA-449,172.172.1.2:1883,1551654271481,RECEIVED
Subscriber_001,topicA,topicA-450,172.172.1.2:1883,1551654271576,RECEIVED
Subscriber_001,topicA,topicA-451,172.172.1.2:1883,1551654271681,RECEIVED
Subscriber_001,topicA,topicA-452,172.172.1.2:1883,1551654271778,RECEIVED
Subscriber_001,topicA,topicA-453,172.172.1.2:1883,1551654271873,RECEIVED
Subscriber_001,topicA,topicA-454,172.172.1.2:1883,1551654271975,RECEIVED
Subscriber_001,topicA,topicA-455,172.172.1.2:1883,1551654272080,RECEIVED
Subscriber_001,topicA,topicA-456,172.172.1.2:1883,1551654272181,RECEIVED
Subscriber_001,topicA,topicA-457,172.172.1.2:1883,1551654272274,RECEIVED
Subscriber_001,topicA,topicA-458,172.172.1.2:1883,1551654272395,RECEIVED
Subscriber_001,topicA,topicA-459,172.172.1.2:1883,1551654272490,RECEIVED
Subscriber_001,topicA,topicA-460,172.172.1.2:1883,1551654272577,RECEIVED
Subscriber_001,topicA,topicA-461,172.172.1.2:1883,1551654272676,RECEIVED
Subscriber_001,topicA,topicA-462,172.172.1.2:1883,1551654272780,RECEIVED
Subscriber_001,topicA,topicA-463,172.172.1.2:1883,1551654272879,RECEIVED
Subscriber_001,topicA,topicA-464,172.172.1.2:1883,1551654272983,RECEIVED
Subscriber_001,topicA,topicA-465,172.172.1.2:1883,1551654273079,RECEIVED
Subscriber_001,topicA,topicA-466,172.172.1.2:1883,1551654273195,RECEIVED
Subscriber_001,topicA,topicA-467,172.172.1.2:1883,1551654273280,RECEIVED
Subscriber_001,topicA,topicA-468,172.172.1.2:1883,1551654273379,RECEIVED
Subscriber_001,topicA,topicA-469,172.172.1.2:1883,1551654273483,RECEIVED
Subscriber_001,topicA,topicA-470,172.172.1.2:1883,1551654273588,RECEIVED
Subscriber_001,topicA,topicA-471,172.172.1.2:1883,1551654273674,RECEIVED
Subscriber_001,topicA,topicA-472,172.172.1.2:1883,1551654273775,RECEIVED
Subscriber_001,topicA,topicA-473,172.172.1.2:1883,1551654273885,RECEIVED
Subscriber_001,topicA,topicA-474,172.172.1.2:1883,1551654273986,RECEIVED
Subscriber_001,topicA,topicA-475,172.172.1.2:1883,1551654274078,RECEIVED
Subscriber_001,topicA,topicA-476,172.172.1.2:1883,1551654274178,RECEIVED
Subscriber_001,topicA,topicA-477,172.172.1.2:1883,1551654274289,RECEIVED
Subscriber_001,topicA,topicA-478,172.172.1.2:1883,1551654274379,RECEIVED
Subscriber_001,topicA,topicA-479,172.172.1.2:1883,1551654274475,RECEIVED
Subscriber_001,topicA,topicA-480,172.172.1.2:1883,1551654274576,RECEIVED
Subscriber_001,topicA,topicA-481,172.172.1.2:1883,1551654274685,RECEIVED
Subscriber_001,topicA,topicA-482,172.172.1.2:1883,1551654274777,RECEIVED
Subscriber_001,topicA,topicA-483,172.172.1.2:1883,1551654274885,RECEIVED
Subscriber_001,topicA,topicA-484,172.172.1.2:1883,1551654274985,RECEIVED
Subscriber_001,topicA,topicA-485,172.172.1.2:1883,1551654275082,RECEIVED
Subscriber_001,topicA,topicA-486,172.172.1.2:1883,1551654275184,RECEIVED
Subscriber_001,topicA,topicA-487,172.172.1.2:1883,1551654275281,RECEIVED
Subscriber_001,topicA,topicA-488,172.172.1.2:1883,1551654275377,RECEIVED
Subscriber_001,topicA,topicA-489,172.172.1.2:1883,1551654275479,RECEIVED
Subscriber_001,topicA,topicA-490,172.172.1.2:1883,1551654275582,RECEIVED
Subscriber_001,topicA,topicA-491,172.172.1.2:1883,1551654275684,RECEIVED
Subscriber_001,topicA,topicA-492,172.172.1.2:1883,1551654275779,RECEIVED
Subscriber_001,topicA,topicA-493,172.172.1.2:1883,1551654275875,RECEIVED
Subscriber_001,topicA,topicA-494,172.172.1.2:1883,1551654275982,RECEIVED
Subscriber_001,topicA,topicA-495,172.172.1.2:1883,1551654276083,RECEIVED
Subscriber_001,topicA,topicA-496,172.172.1.2:1883,1551654276188,RECEIVED
Subscriber_001,topicA,topicA-497,172.172.1.2:1883,1551654276290,RECEIVED
Subscriber_001,topicA,topicA-498,172.172.1.2:1883,1551654276386,RECEIVED
Subscriber_001,topicA,topicA-499,172.172.1.2:1883,1551654276484,RECEIVED
Subscriber_001,topicA,topicA-500,172.172.1.2:1883,1551654276580,RECEIVED
Subscriber_001,topicA,topicA-501,172.172.1.2:1883,1551654276686,RECEIVED
Subscriber_001,topicA,topicA-502,172.172.1.2:1883,1551654276781,RECEIVED
Subscriber_001,topicA,topicA-503,172.172.1.2:1883,1551654276886,RECEIVED
Subscriber_001,topicA,topicA-504,172.172.1.2:1883,1551654276976,RECEIVED
Subscriber_001,topicA,topicA-505,172.172.1.2:1883,1551654277079,RECEIVED
Subscriber_001,topicA,topicA-506,172.172.1.2:1883,1551654277181,RECEIVED
Subscriber_001,topicA,topicA-507,172.172.1.2:1883,1551654277282,RECEIVED
Subscriber_001,topicA,topicA-508,172.172.1.2:1883,1551654277380,RECEIVED
Subscriber_001,topicA,topicA-509,172.172.1.2:1883,1551654277475,RECEIVED
Subscriber_001,topicA,topicA-510,172.172.1.2:1883,1551654277585,RECEIVED
Subscriber_001,topicA,topicA-511,172.172.1.2:1883,1551654277681,RECEIVED
Subscriber_001,topicA,topicA-512,172.172.1.2:1883,1551654277785,RECEIVED
Subscriber_001,topicA,topicA-513,172.172.1.2:1883,1551654277880,RECEIVED
Subscriber_001,topicA,topicA-514,172.172.1.2:1883,1551654277979,RECEIVED
Subscriber_001,topicA,topicA-515,172.172.1.2:1883,1551654278077,RECEIVED
Subscriber_001,topicA,topicA-516,172.172.1.2:1883,1551654278176,RECEIVED
Subscriber_001,topicA,topicA-517,172.172.1.2:1883,1551654278275,RECEIVED
Subscriber_001,topicA,topicA-518,172.172.1.2:1883,1551654278380,RECEIVED
Subscriber_001,topicA,topicA-519,172.172.1.2:1883,1551654278478,RECEIVED
Subscriber_001,topicA,topicA-520,172.172.1.2:1883,1551654278579,RECEIVED
Subscriber_001,topicA,topicA-521,172.172.1.2:1883,1551654278676,RECEIVED
Subscriber_001,topicA,topicA-522,172.172.1.2:1883,1551654278777,RECEIVED
Subscriber_001,topicA,topicA-523,172.172.1.2:1883,1551654278879,RECEIVED
Subscriber_001,topicA,topicA-524,172.172.1.2:1883,1551654278978,RECEIVED
Subscriber_001,topicA,topicA-525,172.172.1.2:1883,1551654279078,RECEIVED
Subscriber_001,topicA,topicA-526,172.172.1.2:1883,1551654279178,RECEIVED
Subscriber_001,topicA,topicA-527,172.172.1.2:1883,1551654279273,RECEIVED
Subscriber_001,topicA,topicA-528,172.172.1.2:1883,1551654279379,RECEIVED
Subscriber_001,topicA,topicA-529,172.172.1.2:1883,1551654279473,RECEIVED
Subscriber_001,topicA,topicA-530,172.172.1.2:1883,1551654279593,RECEIVED
Subscriber_001,topicA,topicA-531,172.172.1.2:1883,1551654279674,RECEIVED
Subscriber_001,topicA,topicA-532,172.172.1.2:1883,1551654279779,RECEIVED
Subscriber_001,topicA,topicA-533,172.172.1.2:1883,1551654279878,RECEIVED
Subscriber_001,topicA,topicA-534,172.172.1.2:1883,1551654279974,RECEIVED
Subscriber_001,topicA,topicA-535,172.172.1.2:1883,1551654280078,RECEIVED
Subscriber_001,topicA,topicA-536,172.172.1.2:1883,1551654280185,RECEIVED
Subscriber_001,topicA,topicA-537,172.172.1.2:1883,1551654280278,RECEIVED
Subscriber_001,topicA,topicA-538,172.172.1.2:1883,1551654280389,RECEIVED
Subscriber_001,topicA,topicA-539,172.172.1.2:1883,1551654280476,RECEIVED
Subscriber_001,topicA,topicA-540,172.172.1.2:1883,1551654280581,RECEIVED
Subscriber_001,topicA,topicA-541,172.172.1.2:1883,1551654280681,RECEIVED
Subscriber_001,topicA,topicA-542,172.172.1.2:1883,1551654280786,RECEIVED
Subscriber_001,topicA,topicA-543,172.172.1.2:1883,1551654280878,RECEIVED
Subscriber_001,topicA,topicA-544,172.172.1.2:1883,1551654280983,RECEIVED
Subscriber_001,topicA,topicA-545,172.172.1.2:1883,1551654281079,RECEIVED
Subscriber_001,topicA,topicA-546,172.172.1.2:1883,1551654281181,RECEIVED
Subscriber_001,topicA,topicA-547,172.172.1.2:1883,1551654281283,RECEIVED
Subscriber_001,topicA,topicA-548,172.172.1.2:1883,1551654281375,RECEIVED
Subscriber_001,topicA,topicA-549,172.172.1.2:1883,1551654281479,RECEIVED
Subscriber_001,topicA,topicA-550,172.172.1.2:1883,1551654281583,RECEIVED
Subscriber_001,topicA,topicA-551,172.172.1.2:1883,1551654281677,RECEIVED
Subscriber_001,topicA,topicA-552,172.172.1.2:1883,1551654281783,RECEIVED
Subscriber_001,topicA,topicA-553,172.172.1.2:1883,1551654281875,RECEIVED
Subscriber_001,topicA,topicA-554,172.172.1.2:1883,1551654281979,RECEIVED
Subscriber_001,topicA,topicA-555,172.172.1.2:1883,1551654282083,RECEIVED
Subscriber_001,topicA,topicA-556,172.172.1.2:1883,1551654282178,RECEIVED
Subscriber_001,topicA,topicA-557,172.172.1.2:1883,1551654282284,RECEIVED
Subscriber_001,topicA,topicA-558,172.172.1.2:1883,1551654282388,RECEIVED
Subscriber_001,topicA,topicA-559,172.172.1.2:1883,1551654282481,RECEIVED
Subscriber_001,topicA,topicA-560,172.172.1.2:1883,1551654282581,RECEIVED
Subscriber_001,topicA,topicA-561,172.172.1.2:1883,1551654282689,RECEIVED
Subscriber_001,topicA,topicA-562,172.172.1.2:1883,1551654282778,RECEIVED
Subscriber_001,topicA,topicA-563,172.172.1.2:1883,1551654282886,RECEIVED
Subscriber_001,topicA,topicA-564,172.172.1.2:1883,1551654282990,RECEIVED
Subscriber_001,topicA,topicA-565,172.172.1.2:1883,1551654283085,RECEIVED
Subscriber_001,topicA,topicA-566,172.172.1.2:1883,1551654283179,RECEIVED
Subscriber_001,topicA,topicA-567,172.172.1.2:1883,1551654283279,RECEIVED
Subscriber_001,topicA,topicA-568,172.172.1.2:1883,1551654283375,RECEIVED
Subscriber_001,topicA,topicA-569,172.172.1.2:1883,1551654283482,RECEIVED
Subscriber_001,topicA,topicA-570,172.172.1.2:1883,1551654283578,RECEIVED
Subscriber_001,topicA,topicA-571,172.172.1.2:1883,1551654283675,RECEIVED
Subscriber_001,topicA,topicA-572,172.172.1.2:1883,1551654283787,RECEIVED
Subscriber_001,topicA,topicA-573,172.172.1.2:1883,1551654283879,RECEIVED
Subscriber_001,topicA,topicA-574,172.172.1.2:1883,1551654283982,RECEIVED
Subscriber_001,topicA,topicA-575,172.172.1.2:1883,1551654284075,RECEIVED
Subscriber_001,topicA,topicA-576,172.172.1.2:1883,1551654284183,RECEIVED
Subscriber_001,topicA,topicA-577,172.172.1.2:1883,1551654284285,RECEIVED
Subscriber_001,topicA,topicA-578,172.172.1.2:1883,1551654284381,RECEIVED
Subscriber_001,topicA,topicA-579,172.172.1.2:1883,1551654284479,RECEIVED
Subscriber_001,topicA,topicA-580,172.172.1.2:1883,1551654284584,RECEIVED
Subscriber_001,topicA,topicA-581,172.172.1.2:1883,1551654284682,RECEIVED
Subscriber_001,topicA,topicA-582,172.172.1.2:1883,1551654284776,RECEIVED
Subscriber_001,topicA,topicA-583,172.172.1.2:1883,1551654284873,RECEIVED
Subscriber_001,topicA,topicA-584,172.172.1.2:1883,1551654284975,RECEIVED
Subscriber_001,topicA,topicA-585,172.172.1.2:1883,1551654285081,RECEIVED
Subscriber_001,topicA,topicA-586,172.172.1.2:1883,1551654285187,RECEIVED
Subscriber_001,topicA,topicA-587,172.172.1.2:1883,1551654285294,RECEIVED
Subscriber_001,topicA,topicA-588,172.172.1.2:1883,1551654285381,RECEIVED
Subscriber_001,topicA,topicA-589,172.172.1.2:1883,1551654285484,RECEIVED
Subscriber_001,topicA,topicA-590,172.172.1.2:1883,1551654285584,RECEIVED
Subscriber_001,topicA,topicA-591,172.172.1.2:1883,1551654285677,RECEIVED
Subscriber_001,topicA,topicA-592,172.172.1.2:1883,1551654285788,RECEIVED
Subscriber_001,topicA,topicA-593,172.172.1.2:1883,1551654285883,RECEIVED
Subscriber_001,topicA,topicA-594,172.172.1.2:1883,1551654285986,RECEIVED
Subscriber_001,topicA,topicA-595,172.172.1.2:1883,1551654286084,RECEIVED
Subscriber_001,topicA,topicA-596,172.172.1.2:1883,1551654286174,RECEIVED
Subscriber_001,topicA,topicA-597,172.172.1.2:1883,1551654286272,RECEIVED
Subscriber_001,topicA,topicA-598,172.172.1.2:1883,1551654286381,RECEIVED
Subscriber_001,topicA,topicA-599,172.172.1.2:1883,1551654286479,RECEIVED
Subscriber_001,topicA,topicA-600,172.172.1.2:1883,1551654286580,RECEIVED
Subscriber_001,topicA,topicA-601,172.172.1.2:1883,1551654286677,RECEIVED
Subscriber_001,topicA,topicA-602,172.172.1.2:1883,1551654286777,RECEIVED
Subscriber_001,topicA,topicA-603,172.172.1.2:1883,1551654286882,RECEIVED
Subscriber_001,topicA,topicA-604,172.172.1.2:1883,1551654286988,RECEIVED
Subscriber_001,topicA,topicA-605,172.172.1.2:1883,1551654287082,RECEIVED
Subscriber_001,topicA,topicA-606,172.172.1.2:1883,1551654287177,RECEIVED
Subscriber_001,topicA,topicA-607,172.172.1.2:1883,1551654287275,RECEIVED
Subscriber_001,topicA,topicA-608,172.172.1.2:1883,1551654287383,RECEIVED
Subscriber_001,topicA,topicA-609,172.172.1.2:1883,1551654287481,RECEIVED
Subscriber_001,topicA,topicA-610,172.172.1.2:1883,1551654287587,RECEIVED
Subscriber_001,topicA,topicA-611,172.172.1.2:1883,1551654287688,RECEIVED
Subscriber_001,topicA,topicA-612,172.172.1.2:1883,1551654287783,RECEIVED
Subscriber_001,topicA,topicA-613,172.172.1.2:1883,1551654287877,RECEIVED
Subscriber_001,topicA,topicA-614,172.172.1.2:1883,1551654287979,RECEIVED
Subscriber_001,topicA,topicA-615,172.172.1.2:1883,1551654288076,RECEIVED
Subscriber_001,topicA,topicA-616,172.172.1.2:1883,1551654288181,RECEIVED
Subscriber_001,topicA,topicA-617,172.172.1.2:1883,1551654288273,RECEIVED
Subscriber_001,topicA,topicA-618,172.172.1.2:1883,1551654288381,RECEIVED
Subscriber_001,topicA,topicA-619,172.172.1.2:1883,1551654288484,RECEIVED
Subscriber_001,topicA,topicA-620,172.172.1.2:1883,1551654288583,RECEIVED
Subscriber_001,topicA,topicA-621,172.172.1.2:1883,1551654288684,RECEIVED
Subscriber_001,topicA,topicA-622,172.172.1.2:1883,1551654288778,RECEIVED
Subscriber_001,topicA,topicA-623,172.172.1.2:1883,1551654288885,RECEIVED
Subscriber_001,topicA,topicA-624,172.172.1.2:1883,1551654288975,RECEIVED
Subscriber_001,topicA,topicA-625,172.172.1.2:1883,1551654289081,RECEIVED
Subscriber_001,topicA,topicA-626,172.172.1.2:1883,1551654289179,RECEIVED
Subscriber_001,topicA,topicA-627,172.172.1.2:1883,1551654289272,RECEIVED
Subscriber_001,topicA,topicA-628,172.172.1.2:1883,1551654289387,RECEIVED
Subscriber_001,topicA,topicA-629,172.172.1.2:1883,1551654289478,RECEIVED
Subscriber_001,topicA,topicA-630,172.172.1.2:1883,1551654289576,RECEIVED
Subscriber_001,topicA,topicA-631,172.172.1.2:1883,1551654289679,RECEIVED
Subscriber_001,topicA,topicA-632,172.172.1.2:1883,1551654289780,RECEIVED
Subscriber_001,topicA,topicA-633,172.172.1.2:1883,1551654289884,RECEIVED
Subscriber_001,topicA,topicA-634,172.172.1.2:1883,1551654289978,RECEIVED
Subscriber_001,topicA,topicA-635,172.172.1.2:1883,1551654290079,RECEIVED
Subscriber_001,topicA,topicA-636,172.172.1.2:1883,1551654290177,RECEIVED
Subscriber_001,topicA,topicA-637,172.172.1.2:1883,1551654290278,RECEIVED
Subscriber_001,topicA,topicA-638,172.172.1.2:1883,1551654290387,RECEIVED
Subscriber_001,topicA,topicA-639,172.172.1.2:1883,1551654290481,RECEIVED
Subscriber_001,topicA,topicA-640,172.172.1.2:1883,1551654290584,RECEIVED
Subscriber_001,topicA,topicA-641,172.172.1.2:1883,1551654290675,RECEIVED
Subscriber_001,topicA,topicA-642,172.172.1.2:1883,1551654290782,RECEIVED
Subscriber_001,topicA,topicA-643,172.172.1.2:1883,1551654290876,RECEIVED
Subscriber_001,topicA,topicA-644,172.172.1.2:1883,1551654290983,RECEIVED
Subscriber_001,topicA,topicA-645,172.172.1.2:1883,1551654291080,RECEIVED
Subscriber_001,topicA,topicA-646,172.172.1.2:1883,1551654291177,RECEIVED
Subscriber_001,topicA,topicA-647,172.172.1.2:1883,1551654291280,RECEIVED
Subscriber_001,topicA,topicA-648,172.172.1.2:1883,1551654291376,RECEIVED
Subscriber_001,topicA,topicA-649,172.172.1.2:1883,1551654291471,RECEIVED
Subscriber_001,topicA,topicA-650,172.172.1.2:1883,1551654291586,RECEIVED
Subscriber_001,topicA,topicA-651,172.172.1.2:1883,1551654291672,RECEIVED
Subscriber_001,topicA,topicA-652,172.172.1.2:1883,1551654291788,RECEIVED
Subscriber_001,topicA,topicA-653,172.172.1.2:1883,1551654291875,RECEIVED
Subscriber_001,topicA,topicA-654,172.172.1.2:1883,1551654291975,RECEIVED
Subscriber_001,topicA,topicA-655,172.172.1.2:1883,1551654292079,RECEIVED
