clientId,topic,guid,broker,timestamp,type
Publisher_001,topicA,topicA-1,172.172.1.1:1883,1551657248297,PRODUCED
Publisher_001,topicA,topicA-2,172.172.1.1:1883,1551657248586,PRODUCED
Publisher_001,topicA,topicA-3,172.172.1.1:1883,1551657248592,PRODUCED
Publisher_001,topicA,topicA-4,172.172.1.1:1883,1551657248597,PRODUCED
Publisher_001,topicA,topicA-5,172.172.1.1:1883,1551657248602,PRODUCED
Publisher_001,topicA,topicA-6,172.172.1.1:1883,1551657248611,PRODUCED
Publisher_001,topicA,topicA-7,172.172.1.1:1883,1551657248706,PRODUCED
Publisher_001,topicA,topicA-8,172.172.1.1:1883,1551657248806,PRODUCED
Publisher_001,topicA,topicA-9,172.172.1.1:1883,1551657248906,PRODUCED
Publisher_001,topicA,topicA-10,172.172.1.1:1883,1551657249008,PRODUCED
Publisher_001,topicA,topicA-11,172.172.1.1:1883,1551657249106,PRODUCED
Publisher_001,topicA,topicA-12,172.172.1.1:1883,1551657249206,PRODUCED
Publisher_001,topicA,topicA-13,172.172.1.1:1883,1551657249308,PRODUCED
Publisher_001,topicA,topicA-14,172.172.1.1:1883,1551657249408,PRODUCED
Publisher_001,topicA,topicA-15,172.172.1.1:1883,1551657249506,PRODUCED
Publisher_001,topicA,topicA-16,172.172.1.1:1883,1551657249606,PRODUCED
Publisher_001,topicA,topicA-17,172.172.1.1:1883,1551657249708,PRODUCED
Publisher_001,topicA,topicA-18,172.172.1.1:1883,1551657249809,PRODUCED
Publisher_001,topicA,topicA-19,172.172.1.1:1883,1551657249910,PRODUCED
Publisher_001,topicA,topicA-20,172.172.1.1:1883,1551657250010,PRODUCED
Publisher_001,topicA,topicA-21,172.172.1.1:1883,1551657250110,PRODUCED
Publisher_001,topicA,topicA-22,172.172.1.1:1883,1551657250207,PRODUCED
Publisher_001,topicA,topicA-23,172.172.1.1:1883,1551657250306,PRODUCED
Publisher_001,topicA,topicA-24,172.172.1.1:1883,1551657250406,PRODUCED
Publisher_001,topicA,topicA-25,172.172.1.1:1883,1551657250506,PRODUCED
Publisher_001,topicA,topicA-26,172.172.1.1:1883,1551657250606,PRODUCED
Publisher_001,topicA,topicA-27,172.172.1.1:1883,1551657250706,PRODUCED
Publisher_001,topicA,topicA-28,172.172.1.1:1883,1551657250806,PRODUCED
Publisher_001,topicA,topicA-29,172.172.1.1:1883,1551657250907,PRODUCED
Publisher_001,topicA,topicA-30,172.172.1.1:1883,1551657251007,PRODUCED
Publisher_001,topicA,topicA-31,172.172.1.1:1883,1551657251106,PRODUCED
Publisher_001,topicA,topicA-32,172.172.1.1:1883,1551657251206,PRODUCED
Publisher_001,topicA,topicA-33,172.172.1.1:1883,1551657251306,PRODUCED
Publisher_001,topicA,topicA-34,172.172.1.1:1883,1551657251407,PRODUCED
Publisher_001,topicA,topicA-35,172.172.1.1:1883,1551657251507,PRODUCED
Publisher_001,topicA,topicA-36,172.172.1.1:1883,1551657251607,PRODUCED
Publisher_001,topicA,topicA-37,172.172.1.1:1883,1551657251707,PRODUCED
Publisher_001,topicA,topicA-38,172.172.1.1:1883,1551657251807,PRODUCED
Publisher_001,topicA,topicA-39,172.172.1.1:1883,1551657251908,PRODUCED
Publisher_001,topicA,topicA-40,172.172.1.1:1883,1551657252009,PRODUCED
Publisher_001,topicA,topicA-41,172.172.1.1:1883,1551657252108,PRODUCED
Publisher_001,topicA,topicA-42,172.172.1.1:1883,1551657252207,PRODUCED
Publisher_001,topicA,topicA-43,172.172.1.1:1883,1551657252307,PRODUCED
Publisher_001,topicA,topicA-44,172.172.1.1:1883,1551657252407,PRODUCED
Publisher_001,topicA,topicA-45,172.172.1.1:1883,1551657252509,PRODUCED
Publisher_001,topicA,topicA-46,172.172.1.1:1883,1551657252606,PRODUCED
Publisher_001,topicA,topicA-47,172.172.1.1:1883,1551657252706,PRODUCED
Publisher_001,topicA,topicA-48,172.172.1.1:1883,1551657252806,PRODUCED
Publisher_001,topicA,topicA-49,172.172.1.1:1883,1551657252906,PRODUCED
Publisher_001,topicA,topicA-50,172.172.1.1:1883,1551657253006,PRODUCED
Publisher_001,topicA,topicA-51,172.172.1.1:1883,1551657253106,PRODUCED
Publisher_001,topicA,topicA-52,172.172.1.1:1883,1551657253206,PRODUCED
Publisher_001,topicA,topicA-53,172.172.1.1:1883,1551657253309,PRODUCED
Publisher_001,topicA,topicA-54,172.172.1.1:1883,1551657253406,PRODUCED
Publisher_001,topicA,topicA-55,172.172.1.1:1883,1551657253506,PRODUCED
Publisher_001,topicA,topicA-56,172.172.1.1:1883,1551657253606,PRODUCED
Publisher_001,topicA,topicA-57,172.172.1.1:1883,1551657253706,PRODUCED
Publisher_001,topicA,topicA-58,172.172.1.1:1883,1551657253807,PRODUCED
Publisher_001,topicA,topicA-59,172.172.1.1:1883,1551657253907,PRODUCED
Publisher_001,topicA,topicA-60,172.172.1.1:1883,1551657254006,PRODUCED
Publisher_001,topicA,topicA-61,172.172.1.1:1883,1551657254108,PRODUCED
Publisher_001,topicA,topicA-62,172.172.1.1:1883,1551657254210,PRODUCED
Publisher_001,topicA,topicA-63,172.172.1.1:1883,1551657254307,PRODUCED
Publisher_001,topicA,topicA-64,172.172.1.1:1883,1551657254410,PRODUCED
Publisher_001,topicA,topicA-65,172.172.1.1:1883,1551657254510,PRODUCED
Publisher_001,topicA,topicA-66,172.172.1.1:1883,1551657254606,PRODUCED
Publisher_001,topicA,topicA-67,172.172.1.1:1883,1551657254707,PRODUCED
Publisher_001,topicA,topicA-68,172.172.1.1:1883,1551657254809,PRODUCED
Publisher_001,topicA,topicA-69,172.172.1.1:1883,1551657254910,PRODUCED
Publisher_001,topicA,topicA-70,172.172.1.1:1883,1551657255010,PRODUCED
Publisher_001,topicA,topicA-71,172.172.1.1:1883,1551657255106,PRODUCED
Publisher_001,topicA,topicA-72,172.172.1.1:1883,1551657255207,PRODUCED
Publisher_001,topicA,topicA-73,172.172.1.1:1883,1551657255306,PRODUCED
Publisher_001,topicA,topicA-74,172.172.1.1:1883,1551657255407,PRODUCED
Publisher_001,topicA,topicA-75,172.172.1.1:1883,1551657255508,PRODUCED
Publisher_001,topicA,topicA-76,172.172.1.1:1883,1551657255607,PRODUCED
Publisher_001,topicA,topicA-77,172.172.1.1:1883,1551657255710,PRODUCED
Publisher_001,topicA,topicA-78,172.172.1.1:1883,1551657255807,PRODUCED
Publisher_001,topicA,topicA-79,172.172.1.1:1883,1551657255906,PRODUCED
Publisher_001,topicA,topicA-80,172.172.1.1:1883,1551657256010,PRODUCED
Publisher_001,topicA,topicA-81,172.172.1.1:1883,1551657256106,PRODUCED
Publisher_001,topicA,topicA-82,172.172.1.1:1883,1551657256207,PRODUCED
Publisher_001,topicA,topicA-83,172.172.1.1:1883,1551657256306,PRODUCED
Publisher_001,topicA,topicA-84,172.172.1.1:1883,1551657256406,PRODUCED
Publisher_001,topicA,topicA-85,172.172.1.1:1883,1551657256506,PRODUCED
Publisher_001,topicA,topicA-86,172.172.1.1:1883,1551657256606,PRODUCED
Publisher_001,topicA,topicA-87,172.172.1.1:1883,1551657256706,PRODUCED
Publisher_001,topicA,topicA-88,172.172.1.1:1883,1551657256806,PRODUCED
Publisher_001,topicA,topicA-89,172.172.1.1:1883,1551657256907,PRODUCED
Publisher_001,topicA,topicA-90,172.172.1.1:1883,1551657257007,PRODUCED
Publisher_001,topicA,topicA-91,172.172.1.1:1883,1551657257108,PRODUCED
Publisher_001,topicA,topicA-92,172.172.1.1:1883,1551657257208,PRODUCED
Publisher_001,topicA,topicA-93,172.172.1.1:1883,1551657257309,PRODUCED
Publisher_001,topicA,topicA-94,172.172.1.1:1883,1551657257407,PRODUCED
Publisher_001,topicA,topicA-95,172.172.1.1:1883,1551657257506,PRODUCED
Publisher_001,topicA,topicA-96,172.172.1.1:1883,1551657257607,PRODUCED
Publisher_001,topicA,topicA-97,172.172.1.1:1883,1551657257707,PRODUCED
Publisher_001,topicA,topicA-98,172.172.1.1:1883,1551657257807,PRODUCED
Publisher_001,topicA,topicA-99,172.172.1.1:1883,1551657257907,PRODUCED
Publisher_001,topicA,topicA-100,172.172.1.1:1883,1551657258006,PRODUCED
Publisher_001,topicA,topicA-101,172.172.1.1:1883,1551657258108,PRODUCED
Publisher_001,topicA,topicA-102,172.172.1.1:1883,1551657258208,PRODUCED
Publisher_001,topicA,topicA-103,172.172.1.1:1883,1551657258308,PRODUCED
Publisher_001,topicA,topicA-104,172.172.1.1:1883,1551657258406,PRODUCED
Publisher_001,topicA,topicA-105,172.172.1.1:1883,1551657258507,PRODUCED
Publisher_001,topicA,topicA-106,172.172.1.1:1883,1551657258606,PRODUCED
Publisher_001,topicA,topicA-107,172.172.1.1:1883,1551657258706,PRODUCED
Publisher_001,topicA,topicA-108,172.172.1.1:1883,1551657258807,PRODUCED
Publisher_001,topicA,topicA-109,172.172.1.1:1883,1551657258906,PRODUCED
Publisher_001,topicA,topicA-110,172.172.1.1:1883,1551657259008,PRODUCED
Publisher_001,topicA,topicA-111,172.172.1.1:1883,1551657259107,PRODUCED
Publisher_001,topicA,topicA-112,172.172.1.1:1883,1551657259208,PRODUCED
Publisher_001,topicA,topicA-113,172.172.1.1:1883,1551657259307,PRODUCED
Publisher_001,topicA,topicA-114,172.172.1.1:1883,1551657259409,PRODUCED
Publisher_001,topicA,topicA-115,172.172.1.1:1883,1551657259507,PRODUCED
Publisher_001,topicA,topicA-116,172.172.1.1:1883,1551657259606,PRODUCED
Publisher_001,topicA,topicA-117,172.172.1.1:1883,1551657259707,PRODUCED
Publisher_001,topicA,topicA-118,172.172.1.1:1883,1551657259807,PRODUCED
Publisher_001,topicA,topicA-119,172.172.1.1:1883,1551657259906,PRODUCED
Publisher_001,topicA,topicA-120,172.172.1.1:1883,1551657260009,PRODUCED
Publisher_001,topicA,topicA-121,172.172.1.1:1883,1551657260107,PRODUCED
Publisher_001,topicA,topicA-122,172.172.1.1:1883,1551657260208,PRODUCED
Publisher_001,topicA,topicA-123,172.172.1.1:1883,1551657260307,PRODUCED
Publisher_001,topicA,topicA-124,172.172.1.1:1883,1551657260407,PRODUCED
Publisher_001,topicA,topicA-125,172.172.1.1:1883,1551657260507,PRODUCED
Publisher_001,topicA,topicA-126,172.172.1.1:1883,1551657260611,PRODUCED
Publisher_001,topicA,topicA-127,172.172.1.1:1883,1551657260708,PRODUCED
Publisher_001,topicA,topicA-128,172.172.1.1:1883,1551657260809,PRODUCED
Publisher_001,topicA,topicA-129,172.172.1.1:1883,1551657260907,PRODUCED
Publisher_001,topicA,topicA-130,172.172.1.1:1883,1551657261009,PRODUCED
Publisher_001,topicA,topicA-131,172.172.1.1:1883,1551657261107,PRODUCED
Publisher_001,topicA,topicA-132,172.172.1.1:1883,1551657261207,PRODUCED
Publisher_001,topicA,topicA-133,172.172.1.1:1883,1551657261307,PRODUCED
Publisher_001,topicA,topicA-134,172.172.1.1:1883,1551657261406,PRODUCED
Publisher_001,topicA,topicA-135,172.172.1.1:1883,1551657261510,PRODUCED
Publisher_001,topicA,topicA-136,172.172.1.1:1883,1551657261607,PRODUCED
Publisher_001,topicA,topicA-137,172.172.1.1:1883,1551657261709,PRODUCED
Publisher_001,topicA,topicA-138,172.172.1.1:1883,1551657261806,PRODUCED
Publisher_001,topicA,topicA-139,172.172.1.1:1883,1551657261907,PRODUCED
Publisher_001,topicA,topicA-140,172.172.1.1:1883,1551657262009,PRODUCED
Publisher_001,topicA,topicA-141,172.172.1.1:1883,1551657262106,PRODUCED
Publisher_001,topicA,topicA-142,172.172.1.1:1883,1551657262207,PRODUCED
Publisher_001,topicA,topicA-143,172.172.1.1:1883,1551657262309,PRODUCED
Publisher_001,topicA,topicA-144,172.172.1.1:1883,1551657262407,PRODUCED
Publisher_001,topicA,topicA-145,172.172.1.1:1883,1551657262507,PRODUCED
Publisher_001,topicA,topicA-146,172.172.1.1:1883,1551657262607,PRODUCED
Publisher_001,topicA,topicA-147,172.172.1.1:1883,1551657262707,PRODUCED
Publisher_001,topicA,topicA-148,172.172.1.1:1883,1551657262806,PRODUCED
Publisher_001,topicA,topicA-149,172.172.1.1:1883,1551657262909,PRODUCED
Publisher_001,topicA,topicA-150,172.172.1.1:1883,1551657263012,PRODUCED
Publisher_001,topicA,topicA-151,172.172.1.1:1883,1551657263107,PRODUCED
Publisher_001,topicA,topicA-152,172.172.1.1:1883,1551657263206,PRODUCED
Publisher_001,topicA,topicA-153,172.172.1.1:1883,1551657263306,PRODUCED
Publisher_001,topicA,topicA-154,172.172.1.1:1883,1551657263406,PRODUCED
Publisher_001,topicA,topicA-155,172.172.1.1:1883,1551657263510,PRODUCED
Publisher_001,topicA,topicA-156,172.172.1.1:1883,1551657263608,PRODUCED
Publisher_001,topicA,topicA-157,172.172.1.1:1883,1551657263707,PRODUCED
Publisher_001,topicA,topicA-158,172.172.1.1:1883,1551657263808,PRODUCED
Publisher_001,topicA,topicA-159,172.172.1.1:1883,1551657263909,PRODUCED
Publisher_001,topicA,topicA-160,172.172.1.1:1883,1551657264007,PRODUCED
Publisher_001,topicA,topicA-161,172.172.1.1:1883,1551657264112,PRODUCED
Publisher_001,topicA,topicA-162,172.172.1.1:1883,1551657264211,PRODUCED
Publisher_001,topicA,topicA-163,172.172.1.1:1883,1551657264308,PRODUCED
Publisher_001,topicA,topicA-164,172.172.1.1:1883,1551657264407,PRODUCED
Publisher_001,topicA,topicA-165,172.172.1.1:1883,1551657264509,PRODUCED
Publisher_001,topicA,topicA-166,172.172.1.1:1883,1551657264607,PRODUCED
Publisher_001,topicA,topicA-167,172.172.1.1:1883,1551657264710,PRODUCED
Publisher_001,topicA,topicA-168,172.172.1.1:1883,1551657264810,PRODUCED
Publisher_001,topicA,topicA-169,172.172.1.1:1883,1551657264906,PRODUCED
Publisher_001,topicA,topicA-170,172.172.1.1:1883,1551657265009,PRODUCED
Publisher_001,topicA,topicA-171,172.172.1.1:1883,1551657265106,PRODUCED
Publisher_001,topicA,topicA-172,172.172.1.1:1883,1551657265209,PRODUCED
Publisher_001,topicA,topicA-173,172.172.1.1:1883,1551657265307,PRODUCED
Publisher_001,topicA,topicA-174,172.172.1.1:1883,1551657265407,PRODUCED
Publisher_001,topicA,topicA-175,172.172.1.1:1883,1551657265509,PRODUCED
Publisher_001,topicA,topicA-176,172.172.1.1:1883,1551657265607,PRODUCED
Publisher_001,topicA,topicA-177,172.172.1.1:1883,1551657265707,PRODUCED
Publisher_001,topicA,topicA-178,172.172.1.1:1883,1551657265807,PRODUCED
Publisher_001,topicA,topicA-179,172.172.1.1:1883,1551657265909,PRODUCED
Publisher_001,topicA,topicA-180,172.172.1.1:1883,1551657266007,PRODUCED
Publisher_001,topicA,topicA-181,172.172.1.1:1883,1551657266106,PRODUCED
Publisher_001,topicA,topicA-182,172.172.1.1:1883,1551657266208,PRODUCED
Publisher_001,topicA,topicA-183,172.172.1.1:1883,1551657266306,PRODUCED
Publisher_001,topicA,topicA-184,172.172.1.1:1883,1551657266407,PRODUCED
Publisher_001,topicA,topicA-185,172.172.1.1:1883,1551657266509,PRODUCED
Publisher_001,topicA,topicA-186,172.172.1.1:1883,1551657266610,PRODUCED
Publisher_001,topicA,topicA-187,172.172.1.1:1883,1551657266709,PRODUCED
Publisher_001,topicA,topicA-188,172.172.1.1:1883,1551657266806,PRODUCED
Publisher_001,topicA,topicA-189,172.172.1.1:1883,1551657266909,PRODUCED
Publisher_001,topicA,topicA-190,172.172.1.1:1883,1551657267009,PRODUCED
Publisher_001,topicA,topicA-191,172.172.1.1:1883,1551657267107,PRODUCED
Publisher_001,topicA,topicA-192,172.172.1.1:1883,1551657267207,PRODUCED
Publisher_001,topicA,topicA-193,172.172.1.1:1883,1551657267310,PRODUCED
Publisher_001,topicA,topicA-194,172.172.1.1:1883,1551657267406,PRODUCED
Publisher_001,topicA,topicA-195,172.172.1.1:1883,1551657267510,PRODUCED
Publisher_001,topicA,topicA-196,172.172.1.1:1883,1551657267611,PRODUCED
Publisher_001,topicA,topicA-197,172.172.1.1:1883,1551657267706,PRODUCED
Publisher_001,topicA,topicA-198,172.172.1.1:1883,1551657267806,PRODUCED
Publisher_001,topicA,topicA-199,172.172.1.1:1883,1551657267906,PRODUCED
Publisher_001,topicA,topicA-200,172.172.1.1:1883,1551657268006,PRODUCED
Publisher_001,topicA,topicA-201,172.172.1.1:1883,1551657268112,PRODUCED
Publisher_001,topicA,topicA-202,172.172.1.1:1883,1551657268206,PRODUCED
Publisher_001,topicA,topicA-203,172.172.1.1:1883,1551657268308,PRODUCED
Publisher_001,topicA,topicA-204,172.172.1.1:1883,1551657268406,PRODUCED
Publisher_001,topicA,topicA-205,172.172.1.1:1883,1551657268506,PRODUCED
Publisher_001,topicA,topicA-206,172.172.1.1:1883,1551657268607,PRODUCED
Publisher_001,topicA,topicA-207,172.172.1.1:1883,1551657268706,PRODUCED
Publisher_001,topicA,topicA-208,172.172.1.1:1883,1551657268807,PRODUCED
Publisher_001,topicA,topicA-209,172.172.1.1:1883,1551657268906,PRODUCED
Publisher_001,topicA,topicA-210,172.172.1.1:1883,1551657269009,PRODUCED
Publisher_001,topicA,topicA-211,172.172.1.1:1883,1551657269108,PRODUCED
Publisher_001,topicA,topicA-212,172.172.1.1:1883,1551657269213,PRODUCED
Publisher_001,topicA,topicA-213,172.172.1.1:1883,1551657269312,PRODUCED
Publisher_001,topicA,topicA-214,172.172.1.1:1883,1551657269406,PRODUCED
Publisher_001,topicA,topicA-215,172.172.1.1:1883,1551657269506,PRODUCED
Publisher_001,topicA,topicA-216,172.172.1.1:1883,1551657269606,PRODUCED
Publisher_001,topicA,topicA-217,172.172.1.1:1883,1551657269706,PRODUCED
Publisher_001,topicA,topicA-218,172.172.1.1:1883,1551657269806,PRODUCED
Publisher_001,topicA,topicA-219,172.172.1.1:1883,1551657269909,PRODUCED
Publisher_001,topicA,topicA-220,172.172.1.1:1883,1551657270007,PRODUCED
Publisher_001,topicA,topicA-221,172.172.1.1:1883,1551657270106,PRODUCED
Publisher_001,topicA,topicA-222,172.172.1.1:1883,1551657270207,PRODUCED
Publisher_001,topicA,topicA-223,172.172.1.1:1883,1551657270307,PRODUCED
Publisher_001,topicA,topicA-224,172.172.1.1:1883,1551657270408,PRODUCED
Publisher_001,topicA,topicA-225,172.172.1.1:1883,1551657270508,PRODUCED
Publisher_001,topicA,topicA-226,172.172.1.1:1883,1551657270606,PRODUCED
Publisher_001,topicA,topicA-227,172.172.1.1:1883,1551657270708,PRODUCED
Publisher_001,topicA,topicA-228,172.172.1.1:1883,1551657270806,PRODUCED
Publisher_001,topicA,topicA-229,172.172.1.1:1883,1551657270908,PRODUCED
Publisher_001,topicA,topicA-230,172.172.1.1:1883,1551657271006,PRODUCED
Publisher_001,topicA,topicA-231,172.172.1.1:1883,1551657271106,PRODUCED
Publisher_001,topicA,topicA-232,172.172.1.1:1883,1551657271207,PRODUCED
Publisher_001,topicA,topicA-233,172.172.1.1:1883,1551657271306,PRODUCED
Publisher_001,topicA,topicA-234,172.172.1.1:1883,1551657271407,PRODUCED
Publisher_001,topicA,topicA-235,172.172.1.1:1883,1551657271509,PRODUCED
Publisher_001,topicA,topicA-236,172.172.1.1:1883,1551657271607,PRODUCED
Publisher_001,topicA,topicA-237,172.172.1.1:1883,1551657271706,PRODUCED
Publisher_001,topicA,topicA-238,172.172.1.1:1883,1551657271807,PRODUCED
Publisher_001,topicA,topicA-239,172.172.1.1:1883,1551657271906,PRODUCED
Publisher_001,topicA,topicA-240,172.172.1.1:1883,1551657272006,PRODUCED
Publisher_001,topicA,topicA-241,172.172.1.1:1883,1551657272107,PRODUCED
Publisher_001,topicA,topicA-242,172.172.1.1:1883,1551657272207,PRODUCED
Publisher_001,topicA,topicA-243,172.172.1.1:1883,1551657272306,PRODUCED
Publisher_001,topicA,topicA-244,172.172.1.1:1883,1551657272407,PRODUCED
Publisher_001,topicA,topicA-245,172.172.1.1:1883,1551657272506,PRODUCED
Publisher_001,topicA,topicA-246,172.172.1.1:1883,1551657272606,PRODUCED
Publisher_001,topicA,topicA-247,172.172.1.1:1883,1551657272707,PRODUCED
Publisher_001,topicA,topicA-248,172.172.1.1:1883,1551657272806,PRODUCED
Publisher_001,topicA,topicA-249,172.172.1.1:1883,1551657272906,PRODUCED
Publisher_001,topicA,topicA-250,172.172.1.1:1883,1551657273007,PRODUCED
Publisher_001,topicA,topicA-251,172.172.1.1:1883,1551657273107,PRODUCED
Publisher_001,topicA,topicA-252,172.172.1.1:1883,1551657273206,PRODUCED
Publisher_001,topicA,topicA-253,172.172.1.1:1883,1551657273307,PRODUCED
Publisher_001,topicA,topicA-254,172.172.1.1:1883,1551657273406,PRODUCED
Publisher_001,topicA,topicA-255,172.172.1.1:1883,1551657273506,PRODUCED
Publisher_001,topicA,topicA-256,172.172.1.1:1883,1551657273607,PRODUCED
Publisher_001,topicA,topicA-257,172.172.1.1:1883,1551657273707,PRODUCED
Publisher_001,topicA,topicA-258,172.172.1.1:1883,1551657273807,PRODUCED
Publisher_001,topicA,topicA-259,172.172.1.1:1883,1551657273906,PRODUCED
Publisher_001,topicA,topicA-260,172.172.1.1:1883,1551657274007,PRODUCED
Publisher_001,topicA,topicA-261,172.172.1.1:1883,1551657274113,PRODUCED
Publisher_001,topicA,topicA-262,172.172.1.1:1883,1551657274206,PRODUCED
Publisher_001,topicA,topicA-263,172.172.1.1:1883,1551657274306,PRODUCED
Publisher_001,topicA,topicA-264,172.172.1.1:1883,1551657274407,PRODUCED
Publisher_001,topicA,topicA-265,172.172.1.1:1883,1551657274507,PRODUCED
Publisher_001,topicA,topicA-266,172.172.1.1:1883,1551657274606,PRODUCED
Publisher_001,topicA,topicA-267,172.172.1.1:1883,1551657274706,PRODUCED
Publisher_001,topicA,topicA-268,172.172.1.1:1883,1551657274809,PRODUCED
Publisher_001,topicA,topicA-269,172.172.1.1:1883,1551657274906,PRODUCED
Publisher_001,topicA,topicA-270,172.172.1.1:1883,1551657275007,PRODUCED
Publisher_001,topicA,topicA-271,172.172.1.1:1883,1551657275106,PRODUCED
Publisher_001,topicA,topicA-272,172.172.1.1:1883,1551657275206,PRODUCED
Publisher_001,topicA,topicA-273,172.172.1.1:1883,1551657275306,PRODUCED
Publisher_001,topicA,topicA-274,172.172.1.1:1883,1551657275406,PRODUCED
Publisher_001,topicA,topicA-275,172.172.1.1:1883,1551657275506,PRODUCED
Publisher_001,topicA,topicA-276,172.172.1.1:1883,1551657275606,PRODUCED
Publisher_001,topicA,topicA-277,172.172.1.1:1883,1551657275706,PRODUCED
Publisher_001,topicA,topicA-278,172.172.1.1:1883,1551657275806,PRODUCED
Publisher_001,topicA,topicA-279,172.172.1.1:1883,1551657275906,PRODUCED
Publisher_001,topicA,topicA-280,172.172.1.1:1883,1551657276006,PRODUCED
Publisher_001,topicA,topicA-281,172.172.1.1:1883,1551657276106,PRODUCED
Publisher_001,topicA,topicA-282,172.172.1.1:1883,1551657276206,PRODUCED
Publisher_001,topicA,topicA-283,172.172.1.1:1883,1551657276306,PRODUCED
Publisher_001,topicA,topicA-284,172.172.1.1:1883,1551657276406,PRODUCED
Publisher_001,topicA,topicA-285,172.172.1.1:1883,1551657276506,PRODUCED
Publisher_001,topicA,topicA-286,172.172.1.1:1883,1551657276606,PRODUCED
Publisher_001,topicA,topicA-287,172.172.1.1:1883,1551657276706,PRODUCED
Publisher_001,topicA,topicA-288,172.172.1.1:1883,1551657276806,PRODUCED
Publisher_001,topicA,topicA-289,172.172.1.1:1883,1551657276906,PRODUCED
Publisher_001,topicA,topicA-290,172.172.1.1:1883,1551657277006,PRODUCED
Publisher_001,topicA,topicA-291,172.172.1.1:1883,1551657277106,PRODUCED
Publisher_001,topicA,topicA-292,172.172.1.1:1883,1551657277206,PRODUCED
Publisher_001,topicA,topicA-293,172.172.1.1:1883,1551657277311,PRODUCED
Publisher_001,topicA,topicA-294,172.172.1.1:1883,1551657277406,PRODUCED
Publisher_001,topicA,topicA-295,172.172.1.1:1883,1551657277506,PRODUCED
Publisher_001,topicA,topicA-296,172.172.1.1:1883,1551657277606,PRODUCED
Publisher_001,topicA,topicA-297,172.172.1.1:1883,1551657277706,PRODUCED
Publisher_001,topicA,topicA-298,172.172.1.1:1883,1551657277806,PRODUCED
Publisher_001,topicA,topicA-299,172.172.1.1:1883,1551657277906,PRODUCED
Publisher_001,topicA,topicA-300,172.172.1.1:1883,1551657278006,PRODUCED
Publisher_001,topicA,topicA-301,172.172.1.1:1883,1551657278106,PRODUCED
Publisher_001,topicA,topicA-302,172.172.1.1:1883,1551657278206,PRODUCED
Publisher_001,topicA,topicA-303,172.172.1.1:1883,1551657278306,PRODUCED
Publisher_001,topicA,topicA-304,172.172.1.1:1883,1551657278406,PRODUCED
Publisher_001,topicA,topicA-305,172.172.1.1:1883,1551657278506,PRODUCED
Publisher_001,topicA,topicA-306,172.172.1.1:1883,1551657278606,PRODUCED
Publisher_001,topicA,topicA-307,172.172.1.1:1883,1551657278706,PRODUCED
Publisher_001,topicA,topicA-308,172.172.1.1:1883,1551657278806,PRODUCED
Publisher_001,topicA,topicA-309,172.172.1.1:1883,1551657278906,PRODUCED
Publisher_001,topicA,topicA-310,172.172.1.1:1883,1551657279006,PRODUCED
Publisher_001,topicA,topicA-311,172.172.1.1:1883,1551657279106,PRODUCED
Publisher_001,topicA,topicA-312,172.172.1.1:1883,1551657279206,PRODUCED
Publisher_001,topicA,topicA-313,172.172.1.1:1883,1551657279306,PRODUCED
Publisher_001,topicA,topicA-314,172.172.1.1:1883,1551657279406,PRODUCED
Publisher_001,topicA,topicA-315,172.172.1.1:1883,1551657279506,PRODUCED
Publisher_001,topicA,topicA-316,172.172.1.1:1883,1551657279606,PRODUCED
Publisher_001,topicA,topicA-317,172.172.1.1:1883,1551657279706,PRODUCED
Publisher_001,topicA,topicA-318,172.172.1.1:1883,1551657279806,PRODUCED
Publisher_001,topicA,topicA-319,172.172.1.1:1883,1551657279906,PRODUCED
Publisher_001,topicA,topicA-320,172.172.1.1:1883,1551657280006,PRODUCED
Publisher_001,topicA,topicA-321,172.172.1.1:1883,1551657280106,PRODUCED
Publisher_001,topicA,topicA-322,172.172.1.1:1883,1551657280206,PRODUCED
Publisher_001,topicA,topicA-323,172.172.1.1:1883,1551657280306,PRODUCED
Publisher_001,topicA,topicA-324,172.172.1.1:1883,1551657280406,PRODUCED
Publisher_001,topicA,topicA-325,172.172.1.1:1883,1551657280506,PRODUCED
Publisher_001,topicA,topicA-326,172.172.1.1:1883,1551657280606,PRODUCED
Publisher_001,topicA,topicA-327,172.172.1.1:1883,1551657280706,PRODUCED
Publisher_001,topicA,topicA-328,172.172.1.1:1883,1551657280806,PRODUCED
Publisher_001,topicA,topicA-329,172.172.1.1:1883,1551657280906,PRODUCED
Publisher_001,topicA,topicA-330,172.172.1.1:1883,1551657281006,PRODUCED
Publisher_001,topicA,topicA-331,172.172.1.1:1883,1551657281106,PRODUCED
Publisher_001,topicA,topicA-332,172.172.1.1:1883,1551657281206,PRODUCED
Publisher_001,topicA,topicA-333,172.172.1.1:1883,1551657281306,PRODUCED
Publisher_001,topicA,topicA-334,172.172.1.1:1883,1551657281406,PRODUCED
Publisher_001,topicA,topicA-335,172.172.1.1:1883,1551657281506,PRODUCED
Publisher_001,topicA,topicA-336,172.172.1.1:1883,1551657281606,PRODUCED
Publisher_001,topicA,topicA-337,172.172.1.1:1883,1551657281706,PRODUCED
Publisher_001,topicA,topicA-338,172.172.1.1:1883,1551657281806,PRODUCED
Publisher_001,topicA,topicA-339,172.172.1.1:1883,1551657281906,PRODUCED
Publisher_001,topicA,topicA-340,172.172.1.1:1883,1551657282006,PRODUCED
Publisher_001,topicA,topicA-341,172.172.1.1:1883,1551657282106,PRODUCED
Publisher_001,topicA,topicA-342,172.172.1.1:1883,1551657282206,PRODUCED
Publisher_001,topicA,topicA-343,172.172.1.1:1883,1551657282306,PRODUCED
Publisher_001,topicA,topicA-344,172.172.1.1:1883,1551657282406,PRODUCED
Publisher_001,topicA,topicA-345,172.172.1.1:1883,1551657282506,PRODUCED
Publisher_001,topicA,topicA-346,172.172.1.1:1883,1551657282606,PRODUCED
Publisher_001,topicA,topicA-347,172.172.1.1:1883,1551657282706,PRODUCED
Publisher_001,topicA,topicA-348,172.172.1.1:1883,1551657282806,PRODUCED
Publisher_001,topicA,topicA-349,172.172.1.1:1883,1551657282906,PRODUCED
Publisher_001,topicA,topicA-350,172.172.1.1:1883,1551657283006,PRODUCED
Publisher_001,topicA,topicA-351,172.172.1.1:1883,1551657283106,PRODUCED
Publisher_001,topicA,topicA-352,172.172.1.1:1883,1551657283206,PRODUCED
Publisher_001,topicA,topicA-353,172.172.1.1:1883,1551657283306,PRODUCED
Publisher_001,topicA,topicA-354,172.172.1.1:1883,1551657283406,PRODUCED
Publisher_001,topicA,topicA-355,172.172.1.1:1883,1551657283506,PRODUCED
Publisher_001,topicA,topicA-356,172.172.1.1:1883,1551657283606,PRODUCED
Publisher_001,topicA,topicA-357,172.172.1.1:1883,1551657283706,PRODUCED
Publisher_001,topicA,topicA-358,172.172.1.1:1883,1551657283806,PRODUCED
Publisher_001,topicA,topicA-359,172.172.1.1:1883,1551657283906,PRODUCED
Publisher_001,topicA,topicA-360,172.172.1.1:1883,1551657284007,PRODUCED
Publisher_001,topicA,topicA-361,172.172.1.1:1883,1551657284106,PRODUCED
Publisher_001,topicA,topicA-362,172.172.1.1:1883,1551657284206,PRODUCED
Publisher_001,topicA,topicA-363,172.172.1.1:1883,1551657284306,PRODUCED
Publisher_001,topicA,topicA-364,172.172.1.1:1883,1551657284406,PRODUCED
Publisher_001,topicA,topicA-365,172.172.1.1:1883,1551657284506,PRODUCED
Publisher_001,topicA,topicA-366,172.172.1.1:1883,1551657284606,PRODUCED
Publisher_001,topicA,topicA-367,172.172.1.1:1883,1551657284706,PRODUCED
Publisher_001,topicA,topicA-368,172.172.1.1:1883,1551657284806,PRODUCED
Publisher_001,topicA,topicA-369,172.172.1.1:1883,1551657284906,PRODUCED
Publisher_001,topicA,topicA-370,172.172.1.1:1883,1551657285006,PRODUCED
Publisher_001,topicA,topicA-371,172.172.1.1:1883,1551657285106,PRODUCED
Publisher_001,topicA,topicA-372,172.172.1.1:1883,1551657285206,PRODUCED
Publisher_001,topicA,topicA-373,172.172.1.1:1883,1551657285306,PRODUCED
Publisher_001,topicA,topicA-374,172.172.1.1:1883,1551657285406,PRODUCED
Publisher_001,topicA,topicA-375,172.172.1.1:1883,1551657285506,PRODUCED
Publisher_001,topicA,topicA-376,172.172.1.1:1883,1551657285606,PRODUCED
Publisher_001,topicA,topicA-377,172.172.1.1:1883,1551657285706,PRODUCED
Publisher_001,topicA,topicA-378,172.172.1.1:1883,1551657285806,PRODUCED
Publisher_001,topicA,topicA-379,172.172.1.1:1883,1551657285906,PRODUCED
Publisher_001,topicA,topicA-380,172.172.1.1:1883,1551657286006,PRODUCED
Publisher_001,topicA,topicA-381,172.172.1.1:1883,1551657286106,PRODUCED
Publisher_001,topicA,topicA-382,172.172.1.1:1883,1551657286208,PRODUCED
Publisher_001,topicA,topicA-383,172.172.1.1:1883,1551657286307,PRODUCED
Publisher_001,topicA,topicA-384,172.172.1.1:1883,1551657286406,PRODUCED
Publisher_001,topicA,topicA-385,172.172.1.1:1883,1551657286506,PRODUCED
Publisher_001,topicA,topicA-386,172.172.1.1:1883,1551657286606,PRODUCED
Publisher_001,topicA,topicA-387,172.172.1.1:1883,1551657286706,PRODUCED
Publisher_001,topicA,topicA-388,172.172.1.1:1883,1551657286806,PRODUCED
Publisher_001,topicA,topicA-389,172.172.1.1:1883,1551657286906,PRODUCED
Publisher_001,topicA,topicA-390,172.172.1.1:1883,1551657287006,PRODUCED
Publisher_001,topicA,topicA-391,172.172.1.1:1883,1551657287106,PRODUCED
Publisher_001,topicA,topicA-392,172.172.1.1:1883,1551657287206,PRODUCED
Publisher_001,topicA,topicA-393,172.172.1.1:1883,1551657287306,PRODUCED
Publisher_001,topicA,topicA-394,172.172.1.1:1883,1551657287407,PRODUCED
Publisher_001,topicA,topicA-395,172.172.1.1:1883,1551657287506,PRODUCED
Publisher_001,topicA,topicA-396,172.172.1.1:1883,1551657287610,PRODUCED
Publisher_001,topicA,topicA-397,172.172.1.1:1883,1551657287706,PRODUCED
Publisher_001,topicA,topicA-398,172.172.1.1:1883,1551657287806,PRODUCED
Publisher_001,topicA,topicA-399,172.172.1.1:1883,1551657287906,PRODUCED
Publisher_001,topicA,topicA-400,172.172.1.1:1883,1551657288006,PRODUCED
Publisher_001,topicA,topicA-401,172.172.1.1:1883,1551657288106,PRODUCED
Publisher_001,topicA,topicA-402,172.172.1.1:1883,1551657288206,PRODUCED
Publisher_001,topicA,topicA-403,172.172.1.1:1883,1551657288306,PRODUCED
Publisher_001,topicA,topicA-404,172.172.1.1:1883,1551657288406,PRODUCED
Publisher_001,topicA,topicA-405,172.172.1.1:1883,1551657288506,PRODUCED
Publisher_001,topicA,topicA-406,172.172.1.1:1883,1551657288607,PRODUCED
Publisher_001,topicA,topicA-407,172.172.1.1:1883,1551657288706,PRODUCED
Publisher_001,topicA,topicA-408,172.172.1.1:1883,1551657288806,PRODUCED
Publisher_001,topicA,topicA-409,172.172.1.1:1883,1551657288906,PRODUCED
Publisher_001,topicA,topicA-410,172.172.1.1:1883,1551657289006,PRODUCED
Publisher_001,topicA,topicA-411,172.172.1.1:1883,1551657289106,PRODUCED
Publisher_001,topicA,topicA-412,172.172.1.1:1883,1551657289206,PRODUCED
Publisher_001,topicA,topicA-413,172.172.1.1:1883,1551657289306,PRODUCED
Publisher_001,topicA,topicA-414,172.172.1.1:1883,1551657289406,PRODUCED
Publisher_001,topicA,topicA-415,172.172.1.1:1883,1551657289506,PRODUCED
Publisher_001,topicA,topicA-416,172.172.1.1:1883,1551657289606,PRODUCED
Publisher_001,topicA,topicA-417,172.172.1.1:1883,1551657289706,PRODUCED
Publisher_001,topicA,topicA-418,172.172.1.1:1883,1551657289806,PRODUCED
Publisher_001,topicA,topicA-419,172.172.1.1:1883,1551657289915,PRODUCED
Publisher_001,topicA,topicA-420,172.172.1.1:1883,1551657290006,PRODUCED
Publisher_001,topicA,topicA-421,172.172.1.1:1883,1551657290106,PRODUCED
Publisher_001,topicA,topicA-422,172.172.1.1:1883,1551657290206,PRODUCED
Publisher_001,topicA,topicA-423,172.172.1.1:1883,1551657290306,PRODUCED
Publisher_001,topicA,topicA-424,172.172.1.1:1883,1551657290406,PRODUCED
Publisher_001,topicA,topicA-425,172.172.1.1:1883,1551657290506,PRODUCED
Publisher_001,topicA,topicA-426,172.172.1.1:1883,1551657290606,PRODUCED
Publisher_001,topicA,topicA-427,172.172.1.1:1883,1551657290706,PRODUCED
Publisher_001,topicA,topicA-428,172.172.1.1:1883,1551657290806,PRODUCED
Publisher_001,topicA,topicA-429,172.172.1.1:1883,1551657290906,PRODUCED
Publisher_001,topicA,topicA-430,172.172.1.1:1883,1551657291006,PRODUCED
Publisher_001,topicA,topicA-431,172.172.1.1:1883,1551657291106,PRODUCED
Publisher_001,topicA,topicA-432,172.172.1.1:1883,1551657291206,PRODUCED
Publisher_001,topicA,topicA-433,172.172.1.1:1883,1551657291306,PRODUCED
Publisher_001,topicA,topicA-434,172.172.1.1:1883,1551657291406,PRODUCED
Publisher_001,topicA,topicA-435,172.172.1.1:1883,1551657291506,PRODUCED
Publisher_001,topicA,topicA-436,172.172.1.1:1883,1551657291606,PRODUCED
Publisher_001,topicA,topicA-437,172.172.1.1:1883,1551657291706,PRODUCED
Publisher_001,topicA,topicA-438,172.172.1.1:1883,1551657291806,PRODUCED
Publisher_001,topicA,topicA-439,172.172.1.1:1883,1551657291906,PRODUCED
Publisher_001,topicA,topicA-440,172.172.1.1:1883,1551657292006,PRODUCED
Publisher_001,topicA,topicA-441,172.172.1.1:1883,1551657292106,PRODUCED
Publisher_001,topicA,topicA-442,172.172.1.1:1883,1551657292206,PRODUCED
Publisher_001,topicA,topicA-443,172.172.1.1:1883,1551657292306,PRODUCED
Publisher_001,topicA,topicA-444,172.172.1.1:1883,1551657292406,PRODUCED
Publisher_001,topicA,topicA-445,172.172.1.1:1883,1551657292506,PRODUCED
Publisher_001,topicA,topicA-446,172.172.1.1:1883,1551657292606,PRODUCED
Publisher_001,topicA,topicA-447,172.172.1.1:1883,1551657292706,PRODUCED
Publisher_001,topicA,topicA-448,172.172.1.1:1883,1551657292806,PRODUCED
Publisher_001,topicA,topicA-449,172.172.1.1:1883,1551657292906,PRODUCED
Publisher_001,topicA,topicA-450,172.172.1.1:1883,1551657293006,PRODUCED
Publisher_001,topicA,topicA-451,172.172.1.1:1883,1551657293106,PRODUCED
Publisher_001,topicA,topicA-452,172.172.1.1:1883,1551657293206,PRODUCED
Publisher_001,topicA,topicA-453,172.172.1.1:1883,1551657293306,PRODUCED
Publisher_001,topicA,topicA-454,172.172.1.1:1883,1551657293406,PRODUCED
Publisher_001,topicA,topicA-455,172.172.1.1:1883,1551657293506,PRODUCED
Publisher_001,topicA,topicA-456,172.172.1.1:1883,1551657293606,PRODUCED
Publisher_001,topicA,topicA-457,172.172.1.1:1883,1551657293706,PRODUCED
Publisher_001,topicA,topicA-458,172.172.1.1:1883,1551657293806,PRODUCED
Publisher_001,topicA,topicA-459,172.172.1.1:1883,1551657293906,PRODUCED
Publisher_001,topicA,topicA-460,172.172.1.1:1883,1551657294006,PRODUCED
Publisher_001,topicA,topicA-461,172.172.1.1:1883,1551657294106,PRODUCED
Publisher_001,topicA,topicA-462,172.172.1.1:1883,1551657294206,PRODUCED
Publisher_001,topicA,topicA-463,172.172.1.1:1883,1551657294306,PRODUCED
Publisher_001,topicA,topicA-464,172.172.1.1:1883,1551657294406,PRODUCED
Publisher_001,topicA,topicA-465,172.172.1.1:1883,1551657294506,PRODUCED
Publisher_001,topicA,topicA-466,172.172.1.1:1883,1551657294606,PRODUCED
Publisher_001,topicA,topicA-467,172.172.1.1:1883,1551657294706,PRODUCED
Publisher_001,topicA,topicA-468,172.172.1.1:1883,1551657294806,PRODUCED
Publisher_001,topicA,topicA-469,172.172.1.1:1883,1551657294906,PRODUCED
Publisher_001,topicA,topicA-470,172.172.1.1:1883,1551657295006,PRODUCED
Publisher_001,topicA,topicA-471,172.172.1.1:1883,1551657295106,PRODUCED
Publisher_001,topicA,topicA-472,172.172.1.1:1883,1551657295206,PRODUCED
Publisher_001,topicA,topicA-473,172.172.1.1:1883,1551657295306,PRODUCED
Publisher_001,topicA,topicA-474,172.172.1.1:1883,1551657295406,PRODUCED
Publisher_001,topicA,topicA-475,172.172.1.1:1883,1551657295506,PRODUCED
Publisher_001,topicA,topicA-476,172.172.1.1:1883,1551657295606,PRODUCED
Publisher_001,topicA,topicA-477,172.172.1.1:1883,1551657295706,PRODUCED
Publisher_001,topicA,topicA-478,172.172.1.1:1883,1551657295806,PRODUCED
Publisher_001,topicA,topicA-479,172.172.1.1:1883,1551657295906,PRODUCED
Publisher_001,topicA,topicA-480,172.172.1.1:1883,1551657296006,PRODUCED
Publisher_001,topicA,topicA-481,172.172.1.1:1883,1551657296106,PRODUCED
Publisher_001,topicA,topicA-482,172.172.1.1:1883,1551657296206,PRODUCED
Publisher_001,topicA,topicA-483,172.172.1.1:1883,1551657296306,PRODUCED
Publisher_001,topicA,topicA-484,172.172.1.1:1883,1551657296406,PRODUCED
Publisher_001,topicA,topicA-485,172.172.1.1:1883,1551657296506,PRODUCED
Publisher_001,topicA,topicA-486,172.172.1.1:1883,1551657296606,PRODUCED
Publisher_001,topicA,topicA-487,172.172.1.1:1883,1551657296706,PRODUCED
Publisher_001,topicA,topicA-488,172.172.1.1:1883,1551657296806,PRODUCED
Publisher_001,topicA,topicA-489,172.172.1.1:1883,1551657296906,PRODUCED
Publisher_001,topicA,topicA-490,172.172.1.1:1883,1551657297006,PRODUCED
Publisher_001,topicA,topicA-491,172.172.1.1:1883,1551657297106,PRODUCED
Publisher_001,topicA,topicA-492,172.172.1.1:1883,1551657297206,PRODUCED
Publisher_001,topicA,topicA-493,172.172.1.1:1883,1551657297306,PRODUCED
Publisher_001,topicA,topicA-494,172.172.1.1:1883,1551657297406,PRODUCED
Publisher_001,topicA,topicA-495,172.172.1.1:1883,1551657297506,PRODUCED
Publisher_001,topicA,topicA-496,172.172.1.1:1883,1551657297606,PRODUCED
Publisher_001,topicA,topicA-497,172.172.1.1:1883,1551657297706,PRODUCED
Publisher_001,topicA,topicA-498,172.172.1.1:1883,1551657297806,PRODUCED
Publisher_001,topicA,topicA-499,172.172.1.1:1883,1551657297906,PRODUCED
Publisher_001,topicA,topicA-500,172.172.1.1:1883,1551657298006,PRODUCED
Publisher_001,topicA,topicA-501,172.172.1.1:1883,1551657298106,PRODUCED
Publisher_001,topicA,topicA-502,172.172.1.1:1883,1551657298206,PRODUCED
Publisher_001,topicA,topicA-503,172.172.1.1:1883,1551657298306,PRODUCED
Publisher_001,topicA,topicA-504,172.172.1.1:1883,1551657298406,PRODUCED
Publisher_001,topicA,topicA-505,172.172.1.1:1883,1551657298506,PRODUCED
Publisher_001,topicA,topicA-506,172.172.1.1:1883,1551657298606,PRODUCED
Publisher_001,topicA,topicA-507,172.172.1.1:1883,1551657298706,PRODUCED
Publisher_001,topicA,topicA-508,172.172.1.1:1883,1551657298806,PRODUCED
Publisher_001,topicA,topicA-509,172.172.1.1:1883,1551657298906,PRODUCED
Publisher_001,topicA,topicA-510,172.172.1.1:1883,1551657299006,PRODUCED
Publisher_001,topicA,topicA-511,172.172.1.1:1883,1551657299106,PRODUCED
Publisher_001,topicA,topicA-512,172.172.1.1:1883,1551657299206,PRODUCED
Publisher_001,topicA,topicA-513,172.172.1.1:1883,1551657299306,PRODUCED
Publisher_001,topicA,topicA-514,172.172.1.1:1883,1551657299406,PRODUCED
Publisher_001,topicA,topicA-515,172.172.1.1:1883,1551657299506,PRODUCED
Publisher_001,topicA,topicA-516,172.172.1.1:1883,1551657299606,PRODUCED
Publisher_001,topicA,topicA-517,172.172.1.1:1883,1551657299706,PRODUCED
Publisher_001,topicA,topicA-518,172.172.1.1:1883,1551657299806,PRODUCED
Publisher_001,topicA,topicA-519,172.172.1.1:1883,1551657299906,PRODUCED
Publisher_001,topicA,topicA-520,172.172.1.1:1883,1551657300006,PRODUCED
Publisher_001,topicA,topicA-521,172.172.1.1:1883,1551657300106,PRODUCED
Publisher_001,topicA,topicA-522,172.172.1.1:1883,1551657300206,PRODUCED
Publisher_001,topicA,topicA-523,172.172.1.1:1883,1551657300306,PRODUCED
Publisher_001,topicA,topicA-524,172.172.1.1:1883,1551657300406,PRODUCED
Publisher_001,topicA,topicA-525,172.172.1.1:1883,1551657300506,PRODUCED
Publisher_001,topicA,topicA-526,172.172.1.1:1883,1551657300606,PRODUCED
Publisher_001,topicA,topicA-527,172.172.1.1:1883,1551657300706,PRODUCED
Publisher_001,topicA,topicA-528,172.172.1.1:1883,1551657300806,PRODUCED
Publisher_001,topicA,topicA-529,172.172.1.1:1883,1551657300906,PRODUCED
Publisher_001,topicA,topicA-530,172.172.1.1:1883,1551657301006,PRODUCED
Publisher_001,topicA,topicA-531,172.172.1.1:1883,1551657301106,PRODUCED
Publisher_001,topicA,topicA-532,172.172.1.1:1883,1551657301206,PRODUCED
Publisher_001,topicA,topicA-533,172.172.1.1:1883,1551657301306,PRODUCED
Publisher_001,topicA,topicA-534,172.172.1.1:1883,1551657301406,PRODUCED
Publisher_001,topicA,topicA-535,172.172.1.1:1883,1551657301506,PRODUCED
Publisher_001,topicA,topicA-536,172.172.1.1:1883,1551657301606,PRODUCED
Publisher_001,topicA,topicA-537,172.172.1.1:1883,1551657301706,PRODUCED
Publisher_001,topicA,topicA-538,172.172.1.1:1883,1551657301806,PRODUCED
Publisher_001,topicA,topicA-539,172.172.1.1:1883,1551657301906,PRODUCED
Publisher_001,topicA,topicA-540,172.172.1.1:1883,1551657302006,PRODUCED
Publisher_001,topicA,topicA-541,172.172.1.1:1883,1551657302106,PRODUCED
Publisher_001,topicA,topicA-542,172.172.1.1:1883,1551657302206,PRODUCED
Publisher_001,topicA,topicA-543,172.172.1.1:1883,1551657302306,PRODUCED
Publisher_001,topicA,topicA-544,172.172.1.1:1883,1551657302406,PRODUCED
Publisher_001,topicA,topicA-545,172.172.1.1:1883,1551657302506,PRODUCED
Publisher_001,topicA,topicA-546,172.172.1.1:1883,1551657302606,PRODUCED
Publisher_001,topicA,topicA-547,172.172.1.1:1883,1551657302706,PRODUCED
Publisher_001,topicA,topicA-548,172.172.1.1:1883,1551657302806,PRODUCED
Publisher_001,topicA,topicA-549,172.172.1.1:1883,1551657302906,PRODUCED
Publisher_001,topicA,topicA-550,172.172.1.1:1883,1551657303006,PRODUCED
Publisher_001,topicA,topicA-551,172.172.1.1:1883,1551657303106,PRODUCED
Publisher_001,topicA,topicA-552,172.172.1.1:1883,1551657303206,PRODUCED
Publisher_001,topicA,topicA-553,172.172.1.1:1883,1551657303306,PRODUCED
Publisher_001,topicA,topicA-554,172.172.1.1:1883,1551657303406,PRODUCED
Publisher_001,topicA,topicA-555,172.172.1.1:1883,1551657303506,PRODUCED
Publisher_001,topicA,topicA-556,172.172.1.1:1883,1551657303606,PRODUCED
Publisher_001,topicA,topicA-557,172.172.1.1:1883,1551657303706,PRODUCED
Publisher_001,topicA,topicA-558,172.172.1.1:1883,1551657303806,PRODUCED
Publisher_001,topicA,topicA-559,172.172.1.1:1883,1551657303906,PRODUCED
Publisher_001,topicA,topicA-560,172.172.1.1:1883,1551657304006,PRODUCED
Publisher_001,topicA,topicA-561,172.172.1.1:1883,1551657304106,PRODUCED
Publisher_001,topicA,topicA-562,172.172.1.1:1883,1551657304206,PRODUCED
Publisher_001,topicA,topicA-563,172.172.1.1:1883,1551657304306,PRODUCED
Publisher_001,topicA,topicA-564,172.172.1.1:1883,1551657304406,PRODUCED
Publisher_001,topicA,topicA-565,172.172.1.1:1883,1551657304506,PRODUCED
Publisher_001,topicA,topicA-566,172.172.1.1:1883,1551657304606,PRODUCED
Publisher_001,topicA,topicA-567,172.172.1.1:1883,1551657304706,PRODUCED
Publisher_001,topicA,topicA-568,172.172.1.1:1883,1551657304806,PRODUCED
Publisher_001,topicA,topicA-569,172.172.1.1:1883,1551657304906,PRODUCED
Publisher_001,topicA,topicA-570,172.172.1.1:1883,1551657305006,PRODUCED
Publisher_001,topicA,topicA-571,172.172.1.1:1883,1551657305106,PRODUCED
Publisher_001,topicA,topicA-572,172.172.1.1:1883,1551657305206,PRODUCED
Publisher_001,topicA,topicA-573,172.172.1.1:1883,1551657305306,PRODUCED
Publisher_001,topicA,topicA-574,172.172.1.1:1883,1551657305406,PRODUCED
Publisher_001,topicA,topicA-575,172.172.1.1:1883,1551657305506,PRODUCED
Publisher_001,topicA,topicA-576,172.172.1.1:1883,1551657305606,PRODUCED
Publisher_001,topicA,topicA-577,172.172.1.1:1883,1551657305706,PRODUCED
Publisher_001,topicA,topicA-578,172.172.1.1:1883,1551657305806,PRODUCED
Publisher_001,topicA,topicA-579,172.172.1.1:1883,1551657305906,PRODUCED
Publisher_001,topicA,topicA-580,172.172.1.1:1883,1551657306006,PRODUCED
Publisher_001,topicA,topicA-581,172.172.1.1:1883,1551657306106,PRODUCED
Publisher_001,topicA,topicA-582,172.172.1.1:1883,1551657306206,PRODUCED
Publisher_001,topicA,topicA-583,172.172.1.1:1883,1551657306306,PRODUCED
Publisher_001,topicA,topicA-584,172.172.1.1:1883,1551657306406,PRODUCED
Publisher_001,topicA,topicA-585,172.172.1.1:1883,1551657306506,PRODUCED
Publisher_001,topicA,topicA-586,172.172.1.1:1883,1551657306606,PRODUCED
Publisher_001,topicA,topicA-587,172.172.1.1:1883,1551657306706,PRODUCED
Publisher_001,topicA,topicA-588,172.172.1.1:1883,1551657306806,PRODUCED
Publisher_001,topicA,topicA-589,172.172.1.1:1883,1551657306906,PRODUCED
Publisher_001,topicA,topicA-590,172.172.1.1:1883,1551657307006,PRODUCED
Publisher_001,topicA,topicA-591,172.172.1.1:1883,1551657307106,PRODUCED
Publisher_001,topicA,topicA-592,172.172.1.1:1883,1551657307206,PRODUCED
Publisher_001,topicA,topicA-593,172.172.1.1:1883,1551657307306,PRODUCED
Publisher_001,topicA,topicA-594,172.172.1.1:1883,1551657307406,PRODUCED
Publisher_001,topicA,topicA-595,172.172.1.1:1883,1551657307506,PRODUCED
Publisher_001,topicA,topicA-596,172.172.1.1:1883,1551657307606,PRODUCED
Publisher_001,topicA,topicA-597,172.172.1.1:1883,1551657307706,PRODUCED
Publisher_001,topicA,topicA-598,172.172.1.1:1883,1551657307806,PRODUCED
Publisher_001,topicA,topicA-599,172.172.1.1:1883,1551657307906,PRODUCED
Publisher_001,topicA,topicA-600,172.172.1.1:1883,1551657308006,PRODUCED
Publisher_001,topicA,topicA-601,172.172.1.1:1883,1551657308106,PRODUCED
Publisher_001,topicA,topicA-602,172.172.1.1:1883,1551657308206,PRODUCED
Publisher_001,topicA,topicA-603,172.172.1.1:1883,1551657308306,PRODUCED
Publisher_001,topicA,topicA-604,172.172.1.1:1883,1551657308406,PRODUCED
Publisher_001,topicA,topicA-605,172.172.1.1:1883,1551657308506,PRODUCED
Publisher_001,topicA,topicA-606,172.172.1.1:1883,1551657308606,PRODUCED
Publisher_001,topicA,topicA-607,172.172.1.1:1883,1551657308706,PRODUCED
Publisher_001,topicA,topicA-608,172.172.1.1:1883,1551657308806,PRODUCED
Publisher_001,topicA,topicA-609,172.172.1.1:1883,1551657308906,PRODUCED
Publisher_001,topicA,topicA-610,172.172.1.1:1883,1551657309006,PRODUCED
Publisher_001,topicA,topicA-611,172.172.1.1:1883,1551657309106,PRODUCED
Publisher_001,topicA,topicA-612,172.172.1.1:1883,1551657309206,PRODUCED
Publisher_001,topicA,topicA-613,172.172.1.1:1883,1551657309306,PRODUCED
Publisher_001,topicA,topicA-614,172.172.1.1:1883,1551657309406,PRODUCED
Publisher_001,topicA,topicA-615,172.172.1.1:1883,1551657309506,PRODUCED
Publisher_001,topicA,topicA-616,172.172.1.1:1883,1551657309606,PRODUCED
Publisher_001,topicA,topicA-617,172.172.1.1:1883,1551657309706,PRODUCED
Publisher_001,topicA,topicA-618,172.172.1.1:1883,1551657309806,PRODUCED
Publisher_001,topicA,topicA-619,172.172.1.1:1883,1551657309906,PRODUCED
Publisher_001,topicA,topicA-620,172.172.1.1:1883,1551657310006,PRODUCED
Publisher_001,topicA,topicA-621,172.172.1.1:1883,1551657310106,PRODUCED
Publisher_001,topicA,topicA-622,172.172.1.1:1883,1551657310206,PRODUCED
Publisher_001,topicA,topicA-623,172.172.1.1:1883,1551657310306,PRODUCED
Publisher_001,topicA,topicA-624,172.172.1.1:1883,1551657310406,PRODUCED
Publisher_001,topicA,topicA-625,172.172.1.1:1883,1551657310506,PRODUCED
Publisher_001,topicA,topicA-626,172.172.1.1:1883,1551657310607,PRODUCED
Publisher_001,topicA,topicA-627,172.172.1.1:1883,1551657310706,PRODUCED
Publisher_001,topicA,topicA-628,172.172.1.1:1883,1551657310806,PRODUCED
Publisher_001,topicA,topicA-629,172.172.1.1:1883,1551657310906,PRODUCED
Publisher_001,topicA,topicA-630,172.172.1.1:1883,1551657311006,PRODUCED
Publisher_001,topicA,topicA-631,172.172.1.1:1883,1551657311106,PRODUCED
Publisher_001,topicA,topicA-632,172.172.1.1:1883,1551657311206,PRODUCED
Publisher_001,topicA,topicA-633,172.172.1.1:1883,1551657311306,PRODUCED
Publisher_001,topicA,topicA-634,172.172.1.1:1883,1551657311406,PRODUCED
Publisher_001,topicA,topicA-635,172.172.1.1:1883,1551657311506,PRODUCED
Publisher_001,topicA,topicA-636,172.172.1.1:1883,1551657311606,PRODUCED
Publisher_001,topicA,topicA-637,172.172.1.1:1883,1551657311706,PRODUCED
Publisher_001,topicA,topicA-638,172.172.1.1:1883,1551657311806,PRODUCED
Publisher_001,topicA,topicA-639,172.172.1.1:1883,1551657311906,PRODUCED
Publisher_001,topicA,topicA-640,172.172.1.1:1883,1551657312006,PRODUCED
Publisher_001,topicA,topicA-641,172.172.1.1:1883,1551657312106,PRODUCED
Publisher_001,topicA,topicA-642,172.172.1.1:1883,1551657312206,PRODUCED
Publisher_001,topicA,topicA-643,172.172.1.1:1883,1551657312306,PRODUCED
Publisher_001,topicA,topicA-644,172.172.1.1:1883,1551657312406,PRODUCED
Publisher_001,topicA,topicA-645,172.172.1.1:1883,1551657312506,PRODUCED
Publisher_001,topicA,topicA-646,172.172.1.1:1883,1551657312606,PRODUCED
Publisher_001,topicA,topicA-647,172.172.1.1:1883,1551657312706,PRODUCED
Publisher_001,topicA,topicA-648,172.172.1.1:1883,1551657312806,PRODUCED
Publisher_001,topicA,topicA-649,172.172.1.1:1883,1551657312906,PRODUCED
Publisher_001,topicA,topicA-650,172.172.1.1:1883,1551657313006,PRODUCED
Publisher_001,topicA,topicA-651,172.172.1.1:1883,1551657313106,PRODUCED
Publisher_001,topicA,topicA-652,172.172.1.1:1883,1551657313206,PRODUCED
Publisher_001,topicA,topicA-653,172.172.1.1:1883,1551657313306,PRODUCED
Publisher_001,topicA,topicA-654,172.172.1.1:1883,1551657313406,PRODUCED
Publisher_001,topicA,topicA-655,172.172.1.1:1883,1551657313506,PRODUCED
Publisher_001,topicA,topicA-656,172.172.1.1:1883,1551657313606,PRODUCED
Publisher_001,topicA,topicA-657,172.172.1.1:1883,1551657313706,PRODUCED
Publisher_001,topicA,topicA-658,172.172.1.1:1883,1551657313806,PRODUCED
Publisher_001,topicA,topicA-659,172.172.1.1:1883,1551657313906,PRODUCED
Publisher_001,topicA,topicA-660,172.172.1.1:1883,1551657314006,PRODUCED
Publisher_001,topicA,topicA-661,172.172.1.1:1883,1551657314110,PRODUCED
Publisher_001,topicA,topicA-662,172.172.1.1:1883,1551657314206,PRODUCED
