timestamp,event,migrationId
1551651504236,INITIALIZED,79631603-4768-46b0-a389-7d6eee400db4
1551651504241,topicA-INITIALIZED,79631603-4768-46b0-a389-7d6eee400db4
1551651504446,topicA-SYNCING,79631603-4768-46b0-a389-7d6eee400db4
1551651504453,SYNCING,79631603-4768-46b0-a389-7d6eee400db4
1551651504455,topicA-SYNCING_OPPONENT,79631603-4768-46b0-a389-7d6eee400db4
1551651506486,topicA-SYNCED,79631603-4768-46b0-a389-7d6eee400db4
1551651506486,SYNCED,79631603-4768-46b0-a389-7d6eee400db4
1551651506493,topicA-FINISHED,79631603-4768-46b0-a389-7d6eee400db4
1551651506497,FINISHED,79631603-4768-46b0-a389-7d6eee400db4
