clientId,topic,guid,broker,timestamp,type
Publisher_002,topicA,topicA-1,172.172.1.2:1883,1551659515344,PRODUCED
Publisher_002,topicA,topicA-2,172.172.1.2:1883,1551659515617,PRODUCED
Publisher_002,topicA,topicA-3,172.172.1.2:1883,1551659515623,PRODUCED
Publisher_002,topicA,topicA-4,172.172.1.2:1883,1551659515633,PRODUCED
Publisher_002,topicA,topicA-5,172.172.1.2:1883,1551659515639,PRODUCED
Publisher_002,topicA,topicA-6,172.172.1.2:1883,1551659515646,PRODUCED
Publisher_002,topicA,topicA-7,172.172.1.2:1883,1551659515720,PRODUCED
Publisher_002,topicA,topicA-8,172.172.1.2:1883,1551659515819,PRODUCED
Publisher_002,topicA,topicA-9,172.172.1.2:1883,1551659515919,PRODUCED
Publisher_002,topicA,topicA-10,172.172.1.2:1883,1551659516021,PRODUCED
Publisher_002,topicA,topicA-11,172.172.1.2:1883,1551659516121,PRODUCED
Publisher_002,topicA,topicA-12,172.172.1.2:1883,1551659516225,PRODUCED
Publisher_002,topicA,topicA-13,172.172.1.2:1883,1551659516320,PRODUCED
Publisher_002,topicA,topicA-14,172.172.1.2:1883,1551659516420,PRODUCED
Publisher_002,topicA,topicA-15,172.172.1.2:1883,1551659516520,PRODUCED
Publisher_002,topicA,topicA-16,172.172.1.2:1883,1551659516620,PRODUCED
Publisher_002,topicA,topicA-17,172.172.1.2:1883,1551659516719,PRODUCED
Publisher_002,topicA,topicA-18,172.172.1.2:1883,1551659516819,PRODUCED
Publisher_002,topicA,topicA-19,172.172.1.2:1883,1551659516922,PRODUCED
Publisher_002,topicA,topicA-20,172.172.1.2:1883,1551659517021,PRODUCED
Publisher_002,topicA,topicA-21,172.172.1.2:1883,1551659517120,PRODUCED
Publisher_002,topicA,topicA-22,172.172.1.2:1883,1551659517220,PRODUCED
Publisher_002,topicA,topicA-23,172.172.1.2:1883,1551659517321,PRODUCED
Publisher_002,topicA,topicA-24,172.172.1.2:1883,1551659517422,PRODUCED
Publisher_002,topicA,topicA-25,172.172.1.2:1883,1551659517519,PRODUCED
Publisher_002,topicA,topicA-26,172.172.1.2:1883,1551659517619,PRODUCED
Publisher_002,topicA,topicA-27,172.172.1.2:1883,1551659517719,PRODUCED
Publisher_002,topicA,topicA-28,172.172.1.2:1883,1551659517819,PRODUCED
Publisher_002,topicA,topicA-29,172.172.1.2:1883,1551659517919,PRODUCED
Publisher_002,topicA,topicA-30,172.172.1.2:1883,1551659518020,PRODUCED
Publisher_002,topicA,topicA-31,172.172.1.2:1883,1551659518119,PRODUCED
Publisher_002,topicA,topicA-32,172.172.1.2:1883,1551659518220,PRODUCED
Publisher_002,topicA,topicA-33,172.172.1.2:1883,1551659518319,PRODUCED
Publisher_002,topicA,topicA-34,172.172.1.2:1883,1551659518420,PRODUCED
Publisher_002,topicA,topicA-35,172.172.1.2:1883,1551659518520,PRODUCED
Publisher_002,topicA,topicA-36,172.172.1.2:1883,1551659518619,PRODUCED
Publisher_002,topicA,topicA-37,172.172.1.2:1883,1551659518719,PRODUCED
Publisher_002,topicA,topicA-38,172.172.1.2:1883,1551659518820,PRODUCED
Publisher_002,topicA,topicA-39,172.172.1.2:1883,1551659518923,PRODUCED
Publisher_002,topicA,topicA-40,172.172.1.2:1883,1551659519020,PRODUCED
Publisher_002,topicA,topicA-41,172.172.1.2:1883,1551659519124,PRODUCED
Publisher_002,topicA,topicA-42,172.172.1.2:1883,1551659519222,PRODUCED
Publisher_002,topicA,topicA-43,172.172.1.2:1883,1551659519322,PRODUCED
Publisher_002,topicA,topicA-44,172.172.1.2:1883,1551659519420,PRODUCED
Publisher_002,topicA,topicA-45,172.172.1.2:1883,1551659519521,PRODUCED
Publisher_002,topicA,topicA-46,172.172.1.2:1883,1551659519621,PRODUCED
Publisher_002,topicA,topicA-47,172.172.1.2:1883,1551659519720,PRODUCED
Publisher_002,topicA,topicA-48,172.172.1.2:1883,1551659519820,PRODUCED
Publisher_002,topicA,topicA-49,172.172.1.2:1883,1551659519920,PRODUCED
Publisher_002,topicA,topicA-50,172.172.1.2:1883,1551659520019,PRODUCED
Publisher_002,topicA,topicA-51,172.172.1.2:1883,1551659520119,PRODUCED
Publisher_002,topicA,topicA-52,172.172.1.2:1883,1551659520219,PRODUCED
Publisher_002,topicA,topicA-53,172.172.1.2:1883,1551659520319,PRODUCED
Publisher_002,topicA,topicA-54,172.172.1.2:1883,1551659520422,PRODUCED
Publisher_002,topicA,topicA-55,172.172.1.2:1883,1551659520519,PRODUCED
Publisher_002,topicA,topicA-56,172.172.1.2:1883,1551659520620,PRODUCED
Publisher_002,topicA,topicA-57,172.172.1.2:1883,1551659520719,PRODUCED
Publisher_002,topicA,topicA-58,172.172.1.2:1883,1551659520820,PRODUCED
Publisher_002,topicA,topicA-59,172.172.1.2:1883,1551659520920,PRODUCED
Publisher_002,topicA,topicA-60,172.172.1.2:1883,1551659521019,PRODUCED
Publisher_002,topicA,topicA-61,172.172.1.2:1883,1551659521119,PRODUCED
Publisher_002,topicA,topicA-62,172.172.1.2:1883,1551659521220,PRODUCED
Publisher_002,topicA,topicA-63,172.172.1.2:1883,1551659521320,PRODUCED
Publisher_002,topicA,topicA-64,172.172.1.2:1883,1551659521422,PRODUCED
Publisher_002,topicA,topicA-65,172.172.1.2:1883,1551659521519,PRODUCED
Publisher_002,topicA,topicA-66,172.172.1.2:1883,1551659521619,PRODUCED
Publisher_002,topicA,topicA-67,172.172.1.2:1883,1551659521722,PRODUCED
Publisher_002,topicA,topicA-68,172.172.1.2:1883,1551659521820,PRODUCED
Publisher_002,topicA,topicA-69,172.172.1.2:1883,1551659521926,PRODUCED
Publisher_002,topicA,topicA-70,172.172.1.2:1883,1551659522020,PRODUCED
Publisher_002,topicA,topicA-71,172.172.1.2:1883,1551659522122,PRODUCED
Publisher_002,topicA,topicA-72,172.172.1.2:1883,1551659522220,PRODUCED
Publisher_002,topicA,topicA-73,172.172.1.2:1883,1551659522320,PRODUCED
Publisher_002,topicA,topicA-74,172.172.1.2:1883,1551659522421,PRODUCED
Publisher_002,topicA,topicA-75,172.172.1.2:1883,1551659522519,PRODUCED
Publisher_002,topicA,topicA-76,172.172.1.2:1883,1551659522620,PRODUCED
Publisher_002,topicA,topicA-77,172.172.1.2:1883,1551659522720,PRODUCED
Publisher_002,topicA,topicA-78,172.172.1.2:1883,1551659522820,PRODUCED
Publisher_002,topicA,topicA-79,172.172.1.2:1883,1551659522921,PRODUCED
Publisher_002,topicA,topicA-80,172.172.1.2:1883,1551659523020,PRODUCED
Publisher_002,topicA,topicA-81,172.172.1.2:1883,1551659523124,PRODUCED
Publisher_002,topicA,topicA-82,172.172.1.2:1883,1551659523220,PRODUCED
Publisher_002,topicA,topicA-83,172.172.1.2:1883,1551659523322,PRODUCED
Publisher_002,topicA,topicA-84,172.172.1.2:1883,1551659523419,PRODUCED
Publisher_002,topicA,topicA-85,172.172.1.2:1883,1551659523520,PRODUCED
Publisher_002,topicA,topicA-86,172.172.1.2:1883,1551659523620,PRODUCED
Publisher_002,topicA,topicA-87,172.172.1.2:1883,1551659523719,PRODUCED
Publisher_002,topicA,topicA-88,172.172.1.2:1883,1551659523819,PRODUCED
Publisher_002,topicA,topicA-89,172.172.1.2:1883,1551659523919,PRODUCED
Publisher_002,topicA,topicA-90,172.172.1.2:1883,1551659524020,PRODUCED
Publisher_002,topicA,topicA-91,172.172.1.2:1883,1551659524121,PRODUCED
Publisher_002,topicA,topicA-92,172.172.1.2:1883,1551659524222,PRODUCED
Publisher_002,topicA,topicA-93,172.172.1.2:1883,1551659524320,PRODUCED
Publisher_002,topicA,topicA-94,172.172.1.2:1883,1551659524420,PRODUCED
Publisher_002,topicA,topicA-95,172.172.1.2:1883,1551659524520,PRODUCED
Publisher_002,topicA,topicA-96,172.172.1.2:1883,1551659524620,PRODUCED
Publisher_002,topicA,topicA-97,172.172.1.2:1883,1551659524719,PRODUCED
Publisher_002,topicA,topicA-98,172.172.1.2:1883,1551659524819,PRODUCED
Publisher_002,topicA,topicA-99,172.172.1.2:1883,1551659524922,PRODUCED
Publisher_002,topicA,topicA-100,172.172.1.2:1883,1551659525024,PRODUCED
Publisher_002,topicA,topicA-101,172.172.1.2:1883,1551659525124,PRODUCED
Publisher_002,topicA,topicA-102,172.172.1.2:1883,1551659525220,PRODUCED
Publisher_002,topicA,topicA-103,172.172.1.2:1883,1551659525320,PRODUCED
Publisher_002,topicA,topicA-104,172.172.1.2:1883,1551659525421,PRODUCED
Publisher_002,topicA,topicA-105,172.172.1.2:1883,1551659525520,PRODUCED
Publisher_002,topicA,topicA-106,172.172.1.2:1883,1551659525621,PRODUCED
Publisher_002,topicA,topicA-107,172.172.1.2:1883,1551659525725,PRODUCED
Publisher_002,topicA,topicA-108,172.172.1.2:1883,1551659525819,PRODUCED
Publisher_002,topicA,topicA-109,172.172.1.2:1883,1551659525920,PRODUCED
Publisher_002,topicA,topicA-110,172.172.1.2:1883,1551659526020,PRODUCED
Publisher_002,topicA,topicA-111,172.172.1.2:1883,1551659526119,PRODUCED
Publisher_002,topicA,topicA-112,172.172.1.2:1883,1551659526220,PRODUCED
Publisher_002,topicA,topicA-113,172.172.1.2:1883,1551659526319,PRODUCED
Publisher_002,topicA,topicA-114,172.172.1.2:1883,1551659526420,PRODUCED
Publisher_002,topicA,topicA-115,172.172.1.2:1883,1551659526519,PRODUCED
Publisher_002,topicA,topicA-116,172.172.1.2:1883,1551659526620,PRODUCED
Publisher_002,topicA,topicA-117,172.172.1.2:1883,1551659526719,PRODUCED
Publisher_002,topicA,topicA-118,172.172.1.2:1883,1551659526821,PRODUCED
Publisher_002,topicA,topicA-119,172.172.1.2:1883,1551659526920,PRODUCED
Publisher_002,topicA,topicA-120,172.172.1.2:1883,1551659527020,PRODUCED
Publisher_002,topicA,topicA-121,172.172.1.2:1883,1551659527119,PRODUCED
Publisher_002,topicA,topicA-122,172.172.1.2:1883,1551659527220,PRODUCED
Publisher_002,topicA,topicA-123,172.172.1.2:1883,1551659527319,PRODUCED
Publisher_002,topicA,topicA-124,172.172.1.2:1883,1551659527419,PRODUCED
Publisher_002,topicA,topicA-125,172.172.1.2:1883,1551659527519,PRODUCED
Publisher_002,topicA,topicA-126,172.172.1.2:1883,1551659527620,PRODUCED
Publisher_002,topicA,topicA-127,172.172.1.2:1883,1551659527721,PRODUCED
Publisher_002,topicA,topicA-128,172.172.1.2:1883,1551659527820,PRODUCED
Publisher_002,topicA,topicA-129,172.172.1.2:1883,1551659527922,PRODUCED
Publisher_002,topicA,topicA-130,172.172.1.2:1883,1551659528020,PRODUCED
Publisher_002,topicA,topicA-131,172.172.1.2:1883,1551659528121,PRODUCED
Publisher_002,topicA,topicA-132,172.172.1.2:1883,1551659528220,PRODUCED
Publisher_002,topicA,topicA-133,172.172.1.2:1883,1551659528321,PRODUCED
Publisher_002,topicA,topicA-134,172.172.1.2:1883,1551659528420,PRODUCED
Publisher_002,topicA,topicA-135,172.172.1.2:1883,1551659528520,PRODUCED
Publisher_002,topicA,topicA-136,172.172.1.2:1883,1551659528621,PRODUCED
Publisher_002,topicA,topicA-137,172.172.1.2:1883,1551659528720,PRODUCED
Publisher_002,topicA,topicA-138,172.172.1.2:1883,1551659528819,PRODUCED
Publisher_002,topicA,topicA-139,172.172.1.2:1883,1551659528921,PRODUCED
Publisher_002,topicA,topicA-140,172.172.1.2:1883,1551659529020,PRODUCED
Publisher_002,topicA,topicA-141,172.172.1.2:1883,1551659529120,PRODUCED
Publisher_002,topicA,topicA-142,172.172.1.2:1883,1551659529220,PRODUCED
Publisher_002,topicA,topicA-143,172.172.1.2:1883,1551659529320,PRODUCED
Publisher_002,topicA,topicA-144,172.172.1.2:1883,1551659529422,PRODUCED
Publisher_002,topicA,topicA-145,172.172.1.2:1883,1551659529520,PRODUCED
Publisher_002,topicA,topicA-146,172.172.1.2:1883,1551659529619,PRODUCED
Publisher_002,topicA,topicA-147,172.172.1.2:1883,1551659529720,PRODUCED
Publisher_002,topicA,topicA-148,172.172.1.2:1883,1551659529820,PRODUCED
Publisher_002,topicA,topicA-149,172.172.1.2:1883,1551659529920,PRODUCED
Publisher_002,topicA,topicA-150,172.172.1.2:1883,1551659530023,PRODUCED
Publisher_002,topicA,topicA-151,172.172.1.2:1883,1551659530120,PRODUCED
Publisher_002,topicA,topicA-152,172.172.1.2:1883,1551659530222,PRODUCED
Publisher_002,topicA,topicA-153,172.172.1.2:1883,1551659530320,PRODUCED
Publisher_002,topicA,topicA-154,172.172.1.2:1883,1551659530419,PRODUCED
Publisher_002,topicA,topicA-155,172.172.1.2:1883,1551659530522,PRODUCED
Publisher_002,topicA,topicA-156,172.172.1.2:1883,1551659530619,PRODUCED
Publisher_002,topicA,topicA-157,172.172.1.2:1883,1551659530720,PRODUCED
Publisher_002,topicA,topicA-158,172.172.1.2:1883,1551659530820,PRODUCED
Publisher_002,topicA,topicA-159,172.172.1.2:1883,1551659530919,PRODUCED
Publisher_002,topicA,topicA-160,172.172.1.2:1883,1551659531020,PRODUCED
Publisher_002,topicA,topicA-161,172.172.1.2:1883,1551659531119,PRODUCED
Publisher_002,topicA,topicA-162,172.172.1.2:1883,1551659531219,PRODUCED
Publisher_002,topicA,topicA-163,172.172.1.2:1883,1551659531324,PRODUCED
Publisher_002,topicA,topicA-164,172.172.1.2:1883,1551659531420,PRODUCED
Publisher_002,topicA,topicA-165,172.172.1.2:1883,1551659531521,PRODUCED
Publisher_002,topicA,topicA-166,172.172.1.2:1883,1551659531621,PRODUCED
Publisher_002,topicA,topicA-167,172.172.1.2:1883,1551659531720,PRODUCED
Publisher_002,topicA,topicA-168,172.172.1.2:1883,1551659531820,PRODUCED
Publisher_002,topicA,topicA-169,172.172.1.2:1883,1551659531922,PRODUCED
Publisher_002,topicA,topicA-170,172.172.1.2:1883,1551659532021,PRODUCED
Publisher_002,topicA,topicA-171,172.172.1.2:1883,1551659532127,PRODUCED
Publisher_002,topicA,topicA-172,172.172.1.2:1883,1551659532220,PRODUCED
Publisher_002,topicA,topicA-173,172.172.1.2:1883,1551659532322,PRODUCED
Publisher_002,topicA,topicA-174,172.172.1.2:1883,1551659532421,PRODUCED
Publisher_002,topicA,topicA-175,172.172.1.2:1883,1551659532520,PRODUCED
Publisher_002,topicA,topicA-176,172.172.1.2:1883,1551659532620,PRODUCED
Publisher_002,topicA,topicA-177,172.172.1.2:1883,1551659532721,PRODUCED
Publisher_002,topicA,topicA-178,172.172.1.2:1883,1551659532820,PRODUCED
Publisher_002,topicA,topicA-179,172.172.1.2:1883,1551659532919,PRODUCED
Publisher_002,topicA,topicA-180,172.172.1.2:1883,1551659533019,PRODUCED
Publisher_002,topicA,topicA-181,172.172.1.2:1883,1551659533122,PRODUCED
Publisher_002,topicA,topicA-182,172.172.1.2:1883,1551659533219,PRODUCED
Publisher_002,topicA,topicA-183,172.172.1.2:1883,1551659533320,PRODUCED
Publisher_002,topicA,topicA-184,172.172.1.2:1883,1551659533420,PRODUCED
Publisher_002,topicA,topicA-185,172.172.1.2:1883,1551659533520,PRODUCED
Publisher_002,topicA,topicA-186,172.172.1.2:1883,1551659533620,PRODUCED
Publisher_002,topicA,topicA-187,172.172.1.2:1883,1551659533720,PRODUCED
Publisher_002,topicA,topicA-188,172.172.1.2:1883,1551659533820,PRODUCED
Publisher_002,topicA,topicA-189,172.172.1.2:1883,1551659533920,PRODUCED
Publisher_002,topicA,topicA-190,172.172.1.2:1883,1551659534020,PRODUCED
Publisher_002,topicA,topicA-191,172.172.1.2:1883,1551659534120,PRODUCED
Publisher_002,topicA,topicA-192,172.172.1.2:1883,1551659534224,PRODUCED
Publisher_002,topicA,topicA-193,172.172.1.2:1883,1551659534319,PRODUCED
Publisher_002,topicA,topicA-194,172.172.1.2:1883,1551659534420,PRODUCED
Publisher_002,topicA,topicA-195,172.172.1.2:1883,1551659534519,PRODUCED
Publisher_002,topicA,topicA-196,172.172.1.2:1883,1551659534619,PRODUCED
Publisher_002,topicA,topicA-197,172.172.1.2:1883,1551659534719,PRODUCED
Publisher_002,topicA,topicA-198,172.172.1.2:1883,1551659534820,PRODUCED
Publisher_002,topicA,topicA-199,172.172.1.2:1883,1551659534920,PRODUCED
Publisher_002,topicA,topicA-200,172.172.1.2:1883,1551659535020,PRODUCED
Publisher_002,topicA,topicA-201,172.172.1.2:1883,1551659535120,PRODUCED
Publisher_002,topicA,topicA-202,172.172.1.2:1883,1551659535225,PRODUCED
Publisher_002,topicA,topicA-203,172.172.1.2:1883,1551659535319,PRODUCED
Publisher_002,topicA,topicA-204,172.172.1.2:1883,1551659535420,PRODUCED
Publisher_002,topicA,topicA-205,172.172.1.2:1883,1551659535520,PRODUCED
Publisher_002,topicA,topicA-206,172.172.1.2:1883,1551659535621,PRODUCED
Publisher_002,topicA,topicA-207,172.172.1.2:1883,1551659535719,PRODUCED
Publisher_002,topicA,topicA-208,172.172.1.2:1883,1551659535819,PRODUCED
Publisher_002,topicA,topicA-209,172.172.1.2:1883,1551659535920,PRODUCED
Publisher_002,topicA,topicA-210,172.172.1.2:1883,1551659536020,PRODUCED
Publisher_002,topicA,topicA-211,172.172.1.2:1883,1551659536120,PRODUCED
Publisher_002,topicA,topicA-212,172.172.1.2:1883,1551659536219,PRODUCED
Publisher_002,topicA,topicA-213,172.172.1.2:1883,1551659536320,PRODUCED
Publisher_002,topicA,topicA-214,172.172.1.2:1883,1551659536419,PRODUCED
Publisher_002,topicA,topicA-215,172.172.1.2:1883,1551659536520,PRODUCED
Publisher_002,topicA,topicA-216,172.172.1.2:1883,1551659536620,PRODUCED
Publisher_002,topicA,topicA-217,172.172.1.2:1883,1551659536721,PRODUCED
Publisher_002,topicA,topicA-218,172.172.1.2:1883,1551659536820,PRODUCED
Publisher_002,topicA,topicA-219,172.172.1.2:1883,1551659536922,PRODUCED
Publisher_002,topicA,topicA-220,172.172.1.2:1883,1551659537020,PRODUCED
Publisher_002,topicA,topicA-221,172.172.1.2:1883,1551659537120,PRODUCED
Publisher_002,topicA,topicA-222,172.172.1.2:1883,1551659537221,PRODUCED
Publisher_002,topicA,topicA-223,172.172.1.2:1883,1551659537319,PRODUCED
Publisher_002,topicA,topicA-224,172.172.1.2:1883,1551659537424,PRODUCED
Publisher_002,topicA,topicA-225,172.172.1.2:1883,1551659537519,PRODUCED
Publisher_002,topicA,topicA-226,172.172.1.2:1883,1551659537620,PRODUCED
Publisher_002,topicA,topicA-227,172.172.1.2:1883,1551659537719,PRODUCED
Publisher_002,topicA,topicA-228,172.172.1.2:1883,1551659537819,PRODUCED
Publisher_002,topicA,topicA-229,172.172.1.2:1883,1551659537920,PRODUCED
Publisher_002,topicA,topicA-230,172.172.1.2:1883,1551659538019,PRODUCED
Publisher_002,topicA,topicA-231,172.172.1.2:1883,1551659538121,PRODUCED
Publisher_002,topicA,topicA-232,172.172.1.2:1883,1551659538221,PRODUCED
Publisher_002,topicA,topicA-233,172.172.1.2:1883,1551659538319,PRODUCED
Publisher_002,topicA,topicA-234,172.172.1.2:1883,1551659538421,PRODUCED
Publisher_002,topicA,topicA-235,172.172.1.2:1883,1551659538521,PRODUCED
Publisher_002,topicA,topicA-236,172.172.1.2:1883,1551659538620,PRODUCED
Publisher_002,topicA,topicA-237,172.172.1.2:1883,1551659538720,PRODUCED
Publisher_002,topicA,topicA-238,172.172.1.2:1883,1551659538820,PRODUCED
Publisher_002,topicA,topicA-239,172.172.1.2:1883,1551659538922,PRODUCED
Publisher_002,topicA,topicA-240,172.172.1.2:1883,1551659539020,PRODUCED
Publisher_002,topicA,topicA-241,172.172.1.2:1883,1551659539120,PRODUCED
Publisher_002,topicA,topicA-242,172.172.1.2:1883,1551659539221,PRODUCED
Publisher_002,topicA,topicA-243,172.172.1.2:1883,1551659539323,PRODUCED
Publisher_002,topicA,topicA-244,172.172.1.2:1883,1551659539420,PRODUCED
Publisher_002,topicA,topicA-245,172.172.1.2:1883,1551659539520,PRODUCED
Publisher_002,topicA,topicA-246,172.172.1.2:1883,1551659539621,PRODUCED
Publisher_002,topicA,topicA-247,172.172.1.2:1883,1551659539720,PRODUCED
Publisher_002,topicA,topicA-248,172.172.1.2:1883,1551659539820,PRODUCED
Publisher_002,topicA,topicA-249,172.172.1.2:1883,1551659539921,PRODUCED
Publisher_002,topicA,topicA-250,172.172.1.2:1883,1551659540021,PRODUCED
Publisher_002,topicA,topicA-251,172.172.1.2:1883,1551659540121,PRODUCED
Publisher_002,topicA,topicA-252,172.172.1.2:1883,1551659540220,PRODUCED
Publisher_002,topicA,topicA-253,172.172.1.2:1883,1551659540325,PRODUCED
Publisher_002,topicA,topicA-254,172.172.1.2:1883,1551659540420,PRODUCED
Publisher_002,topicA,topicA-255,172.172.1.2:1883,1551659540519,PRODUCED
Publisher_002,topicA,topicA-256,172.172.1.2:1883,1551659540624,PRODUCED
Publisher_002,topicA,topicA-257,172.172.1.2:1883,1551659540721,PRODUCED
Publisher_002,topicA,topicA-258,172.172.1.2:1883,1551659540822,PRODUCED
Publisher_002,topicA,topicA-259,172.172.1.2:1883,1551659540921,PRODUCED
Publisher_002,topicA,topicA-260,172.172.1.2:1883,1551659541022,PRODUCED
Publisher_002,topicA,topicA-261,172.172.1.2:1883,1551659541119,PRODUCED
Publisher_002,topicA,topicA-262,172.172.1.2:1883,1551659541220,PRODUCED
Publisher_002,topicA,topicA-263,172.172.1.2:1883,1551659541319,PRODUCED
Publisher_002,topicA,topicA-264,172.172.1.2:1883,1551659541419,PRODUCED
Publisher_002,topicA,topicA-265,172.172.1.2:1883,1551659541520,PRODUCED
Publisher_002,topicA,topicA-266,172.172.1.2:1883,1551659541620,PRODUCED
Publisher_002,topicA,topicA-267,172.172.1.2:1883,1551659541724,PRODUCED
Publisher_002,topicA,topicA-268,172.172.1.2:1883,1551659541820,PRODUCED
Publisher_002,topicA,topicA-269,172.172.1.2:1883,1551659541920,PRODUCED
Publisher_002,topicA,topicA-270,172.172.1.2:1883,1551659542021,PRODUCED
Publisher_002,topicA,topicA-271,172.172.1.2:1883,1551659542119,PRODUCED
Publisher_002,topicA,topicA-272,172.172.1.2:1883,1551659542220,PRODUCED
Publisher_002,topicA,topicA-273,172.172.1.2:1883,1551659542320,PRODUCED
Publisher_002,topicA,topicA-274,172.172.1.2:1883,1551659542420,PRODUCED
Publisher_002,topicA,topicA-275,172.172.1.2:1883,1551659542520,PRODUCED
Publisher_002,topicA,topicA-276,172.172.1.2:1883,1551659542620,PRODUCED
Publisher_002,topicA,topicA-277,172.172.1.2:1883,1551659542720,PRODUCED
Publisher_002,topicA,topicA-278,172.172.1.2:1883,1551659542820,PRODUCED
Publisher_002,topicA,topicA-279,172.172.1.2:1883,1551659542920,PRODUCED
Publisher_002,topicA,topicA-280,172.172.1.2:1883,1551659543022,PRODUCED
Publisher_002,topicA,topicA-281,172.172.1.2:1883,1551659543123,PRODUCED
Publisher_002,topicA,topicA-282,172.172.1.2:1883,1551659543220,PRODUCED
Publisher_002,topicA,topicA-283,172.172.1.2:1883,1551659543322,PRODUCED
Publisher_002,topicA,topicA-284,172.172.1.2:1883,1551659543420,PRODUCED
Publisher_002,topicA,topicA-285,172.172.1.2:1883,1551659543522,PRODUCED
Publisher_002,topicA,topicA-286,172.172.1.2:1883,1551659543619,PRODUCED
Publisher_002,topicA,topicA-287,172.172.1.2:1883,1551659543720,PRODUCED
Publisher_002,topicA,topicA-288,172.172.1.2:1883,1551659543820,PRODUCED
Publisher_002,topicA,topicA-289,172.172.1.2:1883,1551659543919,PRODUCED
Publisher_002,topicA,topicA-290,172.172.1.2:1883,1551659544024,PRODUCED
Publisher_002,topicA,topicA-291,172.172.1.2:1883,1551659544119,PRODUCED
Publisher_002,topicA,topicA-292,172.172.1.2:1883,1551659544223,PRODUCED
Publisher_002,topicA,topicA-293,172.172.1.2:1883,1551659544320,PRODUCED
Publisher_002,topicA,topicA-294,172.172.1.2:1883,1551659544420,PRODUCED
Publisher_002,topicA,topicA-295,172.172.1.2:1883,1551659544520,PRODUCED
Publisher_002,topicA,topicA-296,172.172.1.2:1883,1551659544619,PRODUCED
Publisher_002,topicA,topicA-297,172.172.1.2:1883,1551659544720,PRODUCED
Publisher_002,topicA,topicA-298,172.172.1.2:1883,1551659544819,PRODUCED
Publisher_002,topicA,topicA-299,172.172.1.2:1883,1551659544920,PRODUCED
Publisher_002,topicA,topicA-300,172.172.1.2:1883,1551659545020,PRODUCED
Publisher_002,topicA,topicA-301,172.172.1.2:1883,1551659545120,PRODUCED
Publisher_002,topicA,topicA-302,172.172.1.2:1883,1551659545220,PRODUCED
Publisher_002,topicA,topicA-303,172.172.1.2:1883,1551659545320,PRODUCED
Publisher_002,topicA,topicA-304,172.172.1.2:1883,1551659545422,PRODUCED
Publisher_002,topicA,topicA-305,172.172.1.2:1883,1551659545520,PRODUCED
Publisher_002,topicA,topicA-306,172.172.1.2:1883,1551659545620,PRODUCED
Publisher_002,topicA,topicA-307,172.172.1.2:1883,1551659545719,PRODUCED
Publisher_002,topicA,topicA-308,172.172.1.2:1883,1551659545820,PRODUCED
Publisher_002,topicA,topicA-309,172.172.1.2:1883,1551659545919,PRODUCED
Publisher_002,topicA,topicA-310,172.172.1.2:1883,1551659546020,PRODUCED
Publisher_002,topicA,topicA-311,172.172.1.2:1883,1551659546121,PRODUCED
Publisher_002,topicA,topicA-312,172.172.1.2:1883,1551659546221,PRODUCED
Publisher_002,topicA,topicA-313,172.172.1.2:1883,1551659546321,PRODUCED
Publisher_002,topicA,topicA-314,172.172.1.2:1883,1551659546420,PRODUCED
Publisher_002,topicA,topicA-315,172.172.1.2:1883,1551659546521,PRODUCED
Publisher_002,topicA,topicA-316,172.172.1.2:1883,1551659546620,PRODUCED
Publisher_002,topicA,topicA-317,172.172.1.2:1883,1551659546720,PRODUCED
Publisher_002,topicA,topicA-318,172.172.1.2:1883,1551659546819,PRODUCED
Publisher_002,topicA,topicA-319,172.172.1.2:1883,1551659546923,PRODUCED
Publisher_002,topicA,topicA-320,172.172.1.2:1883,1551659547020,PRODUCED
Publisher_002,topicA,topicA-321,172.172.1.2:1883,1551659547125,PRODUCED
Publisher_002,topicA,topicA-322,172.172.1.2:1883,1551659547223,PRODUCED
Publisher_002,topicA,topicA-323,172.172.1.2:1883,1551659547321,PRODUCED
Publisher_002,topicA,topicA-324,172.172.1.2:1883,1551659547424,PRODUCED
Publisher_002,topicA,topicA-325,172.172.1.2:1883,1551659547520,PRODUCED
Publisher_002,topicA,topicA-326,172.172.1.2:1883,1551659547621,PRODUCED
Publisher_002,topicA,topicA-327,172.172.1.2:1883,1551659547719,PRODUCED
Publisher_002,topicA,topicA-328,172.172.1.2:1883,1551659547819,PRODUCED
Publisher_002,topicA,topicA-329,172.172.1.2:1883,1551659547919,PRODUCED
Publisher_002,topicA,topicA-330,172.172.1.2:1883,1551659548019,PRODUCED
Publisher_002,topicA,topicA-331,172.172.1.2:1883,1551659548120,PRODUCED
Publisher_002,topicA,topicA-332,172.172.1.2:1883,1551659548229,PRODUCED
Publisher_002,topicA,topicA-333,172.172.1.2:1883,1551659548321,PRODUCED
Publisher_002,topicA,topicA-334,172.172.1.2:1883,1551659548420,PRODUCED
Publisher_002,topicA,topicA-335,172.172.1.2:1883,1551659548520,PRODUCED
Publisher_002,topicA,topicA-336,172.172.1.2:1883,1551659548620,PRODUCED
Publisher_002,topicA,topicA-337,172.172.1.2:1883,1551659548719,PRODUCED
Publisher_002,topicA,topicA-338,172.172.1.2:1883,1551659548820,PRODUCED
Publisher_002,topicA,topicA-339,172.172.1.2:1883,1551659548919,PRODUCED
Publisher_002,topicA,topicA-340,172.172.1.2:1883,1551659549020,PRODUCED
Publisher_002,topicA,topicA-341,172.172.1.2:1883,1551659549119,PRODUCED
Publisher_002,topicA,topicA-342,172.172.1.2:1883,1551659549220,PRODUCED
Publisher_002,topicA,topicA-343,172.172.1.2:1883,1551659549320,PRODUCED
Publisher_002,topicA,topicA-344,172.172.1.2:1883,1551659549419,PRODUCED
Publisher_002,topicA,topicA-345,172.172.1.2:1883,1551659549521,PRODUCED
Publisher_002,topicA,topicA-346,172.172.1.2:1883,1551659549620,PRODUCED
Publisher_002,topicA,topicA-347,172.172.1.2:1883,1551659549723,PRODUCED
Publisher_002,topicA,topicA-348,172.172.1.2:1883,1551659549820,PRODUCED
Publisher_002,topicA,topicA-349,172.172.1.2:1883,1551659549920,PRODUCED
Publisher_002,topicA,topicA-350,172.172.1.2:1883,1551659550024,PRODUCED
Publisher_002,topicA,topicA-351,172.172.1.2:1883,1551659550119,PRODUCED
Publisher_002,topicA,topicA-352,172.172.1.2:1883,1551659550220,PRODUCED
Publisher_002,topicA,topicA-353,172.172.1.2:1883,1551659550319,PRODUCED
Publisher_002,topicA,topicA-354,172.172.1.2:1883,1551659550419,PRODUCED
Publisher_002,topicA,topicA-355,172.172.1.2:1883,1551659550520,PRODUCED
Publisher_002,topicA,topicA-356,172.172.1.2:1883,1551659550623,PRODUCED
Publisher_002,topicA,topicA-357,172.172.1.2:1883,1551659550722,PRODUCED
Publisher_002,topicA,topicA-358,172.172.1.2:1883,1551659550820,PRODUCED
Publisher_002,topicA,topicA-359,172.172.1.2:1883,1551659550925,PRODUCED
Publisher_002,topicA,topicA-360,172.172.1.2:1883,1551659551021,PRODUCED
Publisher_002,topicA,topicA-361,172.172.1.2:1883,1551659551121,PRODUCED
Publisher_002,topicA,topicA-362,172.172.1.2:1883,1551659551220,PRODUCED
Publisher_002,topicA,topicA-363,172.172.1.2:1883,1551659551320,PRODUCED
Publisher_002,topicA,topicA-364,172.172.1.2:1883,1551659551420,PRODUCED
Publisher_002,topicA,topicA-365,172.172.1.2:1883,1551659551519,PRODUCED
Publisher_002,topicA,topicA-366,172.172.1.2:1883,1551659551620,PRODUCED
Publisher_002,topicA,topicA-367,172.172.1.2:1883,1551659551720,PRODUCED
Publisher_002,topicA,topicA-368,172.172.1.2:1883,1551659551820,PRODUCED
Publisher_002,topicA,topicA-369,172.172.1.2:1883,1551659551919,PRODUCED
Publisher_002,topicA,topicA-370,172.172.1.2:1883,1551659552019,PRODUCED
Publisher_002,topicA,topicA-371,172.172.1.2:1883,1551659552120,PRODUCED
Publisher_002,topicA,topicA-372,172.172.1.2:1883,1551659552223,PRODUCED
Publisher_002,topicA,topicA-373,172.172.1.2:1883,1551659552319,PRODUCED
Publisher_002,topicA,topicA-374,172.172.1.2:1883,1551659552420,PRODUCED
Publisher_002,topicA,topicA-375,172.172.1.2:1883,1551659552520,PRODUCED
Publisher_002,topicA,topicA-376,172.172.1.2:1883,1551659552619,PRODUCED
Publisher_002,topicA,topicA-377,172.172.1.2:1883,1551659552720,PRODUCED
Publisher_002,topicA,topicA-378,172.172.1.2:1883,1551659552819,PRODUCED
Publisher_002,topicA,topicA-379,172.172.1.2:1883,1551659552919,PRODUCED
Publisher_002,topicA,topicA-380,172.172.1.2:1883,1551659553019,PRODUCED
Publisher_002,topicA,topicA-381,172.172.1.2:1883,1551659553120,PRODUCED
Publisher_002,topicA,topicA-382,172.172.1.2:1883,1551659553219,PRODUCED
Publisher_002,topicA,topicA-383,172.172.1.2:1883,1551659553320,PRODUCED
Publisher_002,topicA,topicA-384,172.172.1.2:1883,1551659553420,PRODUCED
Publisher_002,topicA,topicA-385,172.172.1.2:1883,1551659553523,PRODUCED
Publisher_002,topicA,topicA-386,172.172.1.2:1883,1551659553619,PRODUCED
Publisher_002,topicA,topicA-387,172.172.1.2:1883,1551659553719,PRODUCED
Publisher_002,topicA,topicA-388,172.172.1.2:1883,1551659553820,PRODUCED
Publisher_002,topicA,topicA-389,172.172.1.2:1883,1551659553921,PRODUCED
Publisher_002,topicA,topicA-390,172.172.1.2:1883,1551659554020,PRODUCED
Publisher_002,topicA,topicA-391,172.172.1.2:1883,1551659554120,PRODUCED
Publisher_002,topicA,topicA-392,172.172.1.2:1883,1551659554219,PRODUCED
Publisher_002,topicA,topicA-393,172.172.1.2:1883,1551659554320,PRODUCED
Publisher_002,topicA,topicA-394,172.172.1.2:1883,1551659554420,PRODUCED
Publisher_002,topicA,topicA-395,172.172.1.2:1883,1551659554520,PRODUCED
Publisher_002,topicA,topicA-396,172.172.1.2:1883,1551659554621,PRODUCED
Publisher_002,topicA,topicA-397,172.172.1.2:1883,1551659554720,PRODUCED
Publisher_002,topicA,topicA-398,172.172.1.2:1883,1551659554824,PRODUCED
Publisher_002,topicA,topicA-399,172.172.1.2:1883,1551659554920,PRODUCED
Publisher_002,topicA,topicA-400,172.172.1.2:1883,1551659555020,PRODUCED
Publisher_002,topicA,topicA-401,172.172.1.2:1883,1551659555120,PRODUCED
Publisher_002,topicA,topicA-402,172.172.1.2:1883,1551659555220,PRODUCED
Publisher_002,topicA,topicA-403,172.172.1.2:1883,1551659555325,PRODUCED
Publisher_002,topicA,topicA-404,172.172.1.2:1883,1551659555420,PRODUCED
Publisher_002,topicA,topicA-405,172.172.1.2:1883,1551659555545,PRODUCED
Publisher_002,topicA,topicA-406,172.172.1.2:1883,1551659555620,PRODUCED
Publisher_002,topicA,topicA-407,172.172.1.2:1883,1551659555719,PRODUCED
Publisher_002,topicA,topicA-408,172.172.1.2:1883,1551659555821,PRODUCED
Publisher_002,topicA,topicA-409,172.172.1.2:1883,1551659555919,PRODUCED
Publisher_002,topicA,topicA-410,172.172.1.2:1883,1551659556023,PRODUCED
Publisher_002,topicA,topicA-411,172.172.1.2:1883,1551659556119,PRODUCED
Publisher_002,topicA,topicA-412,172.172.1.2:1883,1551659556220,PRODUCED
Publisher_002,topicA,topicA-413,172.172.1.2:1883,1551659556319,PRODUCED
Publisher_002,topicA,topicA-414,172.172.1.2:1883,1551659556420,PRODUCED
Publisher_002,topicA,topicA-415,172.172.1.2:1883,1551659556520,PRODUCED
Publisher_002,topicA,topicA-416,172.172.1.2:1883,1551659556619,PRODUCED
Publisher_002,topicA,topicA-417,172.172.1.2:1883,1551659556720,PRODUCED
Publisher_002,topicA,topicA-418,172.172.1.2:1883,1551659556820,PRODUCED
Publisher_002,topicA,topicA-419,172.172.1.2:1883,1551659556921,PRODUCED
Publisher_002,topicA,topicA-420,172.172.1.2:1883,1551659557020,PRODUCED
Publisher_002,topicA,topicA-421,172.172.1.2:1883,1551659557120,PRODUCED
Publisher_002,topicA,topicA-422,172.172.1.2:1883,1551659557219,PRODUCED
Publisher_002,topicA,topicA-423,172.172.1.2:1883,1551659557320,PRODUCED
Publisher_002,topicA,topicA-424,172.172.1.2:1883,1551659557420,PRODUCED
Publisher_002,topicA,topicA-425,172.172.1.2:1883,1551659557520,PRODUCED
Publisher_002,topicA,topicA-426,172.172.1.2:1883,1551659557620,PRODUCED
Publisher_002,topicA,topicA-427,172.172.1.2:1883,1551659557720,PRODUCED
Publisher_002,topicA,topicA-428,172.172.1.2:1883,1551659557819,PRODUCED
Publisher_002,topicA,topicA-429,172.172.1.2:1883,1551659557920,PRODUCED
Publisher_002,topicA,topicA-430,172.172.1.2:1883,1551659558019,PRODUCED
Publisher_002,topicA,topicA-431,172.172.1.2:1883,1551659558119,PRODUCED
Publisher_002,topicA,topicA-432,172.172.1.2:1883,1551659558220,PRODUCED
Publisher_002,topicA,topicA-433,172.172.1.2:1883,1551659558324,PRODUCED
Publisher_002,topicA,topicA-434,172.172.1.2:1883,1551659558419,PRODUCED
Publisher_002,topicA,topicA-435,172.172.1.2:1883,1551659558519,PRODUCED
Publisher_002,topicA,topicA-436,172.172.1.2:1883,1551659558619,PRODUCED
Publisher_002,topicA,topicA-437,172.172.1.2:1883,1551659558719,PRODUCED
Publisher_002,topicA,topicA-438,172.172.1.2:1883,1551659558820,PRODUCED
Publisher_002,topicA,topicA-439,172.172.1.2:1883,1551659558920,PRODUCED
Publisher_002,topicA,topicA-440,172.172.1.2:1883,1551659559020,PRODUCED
Publisher_002,topicA,topicA-441,172.172.1.2:1883,1551659559119,PRODUCED
Publisher_002,topicA,topicA-442,172.172.1.2:1883,1551659559220,PRODUCED
Publisher_002,topicA,topicA-443,172.172.1.2:1883,1551659559324,PRODUCED
Publisher_002,topicA,topicA-444,172.172.1.2:1883,1551659559421,PRODUCED
Publisher_002,topicA,topicA-445,172.172.1.2:1883,1551659559520,PRODUCED
Publisher_002,topicA,topicA-446,172.172.1.2:1883,1551659559620,PRODUCED
Publisher_002,topicA,topicA-447,172.172.1.2:1883,1551659559720,PRODUCED
Publisher_002,topicA,topicA-448,172.172.1.2:1883,1551659559823,PRODUCED
Publisher_002,topicA,topicA-449,172.172.1.2:1883,1551659559920,PRODUCED
Publisher_002,topicA,topicA-450,172.172.1.2:1883,1551659560020,PRODUCED
Publisher_002,topicA,topicA-451,172.172.1.2:1883,1551659560121,PRODUCED
Publisher_002,topicA,topicA-452,172.172.1.2:1883,1551659560219,PRODUCED
Publisher_002,topicA,topicA-453,172.172.1.2:1883,1551659560324,PRODUCED
Publisher_002,topicA,topicA-454,172.172.1.2:1883,1551659560420,PRODUCED
Publisher_002,topicA,topicA-455,172.172.1.2:1883,1551659560519,PRODUCED
Publisher_002,topicA,topicA-456,172.172.1.2:1883,1551659560619,PRODUCED
Publisher_002,topicA,topicA-457,172.172.1.2:1883,1551659560720,PRODUCED
Publisher_002,topicA,topicA-458,172.172.1.2:1883,1551659560820,PRODUCED
Publisher_002,topicA,topicA-459,172.172.1.2:1883,1551659560919,PRODUCED
Publisher_002,topicA,topicA-460,172.172.1.2:1883,1551659561019,PRODUCED
Publisher_002,topicA,topicA-461,172.172.1.2:1883,1551659561119,PRODUCED
Publisher_002,topicA,topicA-462,172.172.1.2:1883,1551659561219,PRODUCED
Publisher_002,topicA,topicA-463,172.172.1.2:1883,1551659561319,PRODUCED
Publisher_002,topicA,topicA-464,172.172.1.2:1883,1551659561419,PRODUCED
Publisher_002,topicA,topicA-465,172.172.1.2:1883,1551659561519,PRODUCED
Publisher_002,topicA,topicA-466,172.172.1.2:1883,1551659561625,PRODUCED
Publisher_002,topicA,topicA-467,172.172.1.2:1883,1551659561720,PRODUCED
Publisher_002,topicA,topicA-468,172.172.1.2:1883,1551659561820,PRODUCED
Publisher_002,topicA,topicA-469,172.172.1.2:1883,1551659561919,PRODUCED
Publisher_002,topicA,topicA-470,172.172.1.2:1883,1551659562019,PRODUCED
Publisher_002,topicA,topicA-471,172.172.1.2:1883,1551659562120,PRODUCED
Publisher_002,topicA,topicA-472,172.172.1.2:1883,1551659562220,PRODUCED
Publisher_002,topicA,topicA-473,172.172.1.2:1883,1551659562323,PRODUCED
Publisher_002,topicA,topicA-474,172.172.1.2:1883,1551659562420,PRODUCED
Publisher_002,topicA,topicA-475,172.172.1.2:1883,1551659562519,PRODUCED
Publisher_002,topicA,topicA-476,172.172.1.2:1883,1551659562619,PRODUCED
Publisher_002,topicA,topicA-477,172.172.1.2:1883,1551659562719,PRODUCED
Publisher_002,topicA,topicA-478,172.172.1.2:1883,1551659562820,PRODUCED
Publisher_002,topicA,topicA-479,172.172.1.2:1883,1551659562919,PRODUCED
Publisher_002,topicA,topicA-480,172.172.1.2:1883,1551659563019,PRODUCED
Publisher_002,topicA,topicA-481,172.172.1.2:1883,1551659563120,PRODUCED
Publisher_002,topicA,topicA-482,172.172.1.2:1883,1551659563219,PRODUCED
Publisher_002,topicA,topicA-483,172.172.1.2:1883,1551659563319,PRODUCED
Publisher_002,topicA,topicA-484,172.172.1.2:1883,1551659563419,PRODUCED
Publisher_002,topicA,topicA-485,172.172.1.2:1883,1551659563520,PRODUCED
Publisher_002,topicA,topicA-486,172.172.1.2:1883,1551659563620,PRODUCED
Publisher_002,topicA,topicA-487,172.172.1.2:1883,1551659563719,PRODUCED
Publisher_002,topicA,topicA-488,172.172.1.2:1883,1551659563820,PRODUCED
Publisher_002,topicA,topicA-489,172.172.1.2:1883,1551659563919,PRODUCED
Publisher_002,topicA,topicA-490,172.172.1.2:1883,1551659564022,PRODUCED
Publisher_002,topicA,topicA-491,172.172.1.2:1883,1551659564119,PRODUCED
Publisher_002,topicA,topicA-492,172.172.1.2:1883,1551659564219,PRODUCED
Publisher_002,topicA,topicA-493,172.172.1.2:1883,1551659564320,PRODUCED
Publisher_002,topicA,topicA-494,172.172.1.2:1883,1551659564423,PRODUCED
Publisher_002,topicA,topicA-495,172.172.1.2:1883,1551659564519,PRODUCED
Publisher_002,topicA,topicA-496,172.172.1.2:1883,1551659564619,PRODUCED
Publisher_002,topicA,topicA-497,172.172.1.2:1883,1551659564720,PRODUCED
Publisher_002,topicA,topicA-498,172.172.1.2:1883,1551659564820,PRODUCED
Publisher_002,topicA,topicA-499,172.172.1.2:1883,1551659564919,PRODUCED
Publisher_002,topicA,topicA-500,172.172.1.2:1883,1551659565023,PRODUCED
Publisher_002,topicA,topicA-501,172.172.1.2:1883,1551659565120,PRODUCED
Publisher_002,topicA,topicA-502,172.172.1.2:1883,1551659565219,PRODUCED
Publisher_002,topicA,topicA-503,172.172.1.2:1883,1551659565320,PRODUCED
Publisher_002,topicA,topicA-504,172.172.1.2:1883,1551659565422,PRODUCED
Publisher_002,topicA,topicA-505,172.172.1.2:1883,1551659565519,PRODUCED
Publisher_002,topicA,topicA-506,172.172.1.2:1883,1551659565621,PRODUCED
Publisher_002,topicA,topicA-507,172.172.1.2:1883,1551659565720,PRODUCED
Publisher_002,topicA,topicA-508,172.172.1.2:1883,1551659565823,PRODUCED
Publisher_002,topicA,topicA-509,172.172.1.2:1883,1551659565919,PRODUCED
Publisher_002,topicA,topicA-510,172.172.1.2:1883,1551659566020,PRODUCED
Publisher_002,topicA,topicA-511,172.172.1.2:1883,1551659566121,PRODUCED
Publisher_002,topicA,topicA-512,172.172.1.2:1883,1551659566222,PRODUCED
Publisher_002,topicA,topicA-513,172.172.1.2:1883,1551659566319,PRODUCED
Publisher_002,topicA,topicA-514,172.172.1.2:1883,1551659566428,PRODUCED
Publisher_002,topicA,topicA-515,172.172.1.2:1883,1551659566519,PRODUCED
Publisher_002,topicA,topicA-516,172.172.1.2:1883,1551659566619,PRODUCED
Publisher_002,topicA,topicA-517,172.172.1.2:1883,1551659566720,PRODUCED
Publisher_002,topicA,topicA-518,172.172.1.2:1883,1551659566820,PRODUCED
Publisher_002,topicA,topicA-519,172.172.1.2:1883,1551659566920,PRODUCED
Publisher_002,topicA,topicA-520,172.172.1.2:1883,1551659567020,PRODUCED
Publisher_002,topicA,topicA-521,172.172.1.2:1883,1551659567120,PRODUCED
Publisher_002,topicA,topicA-522,172.172.1.2:1883,1551659567220,PRODUCED
Publisher_002,topicA,topicA-523,172.172.1.2:1883,1551659567320,PRODUCED
Publisher_002,topicA,topicA-524,172.172.1.2:1883,1551659567420,PRODUCED
Publisher_002,topicA,topicA-525,172.172.1.2:1883,1551659567520,PRODUCED
Publisher_002,topicA,topicA-526,172.172.1.2:1883,1551659567619,PRODUCED
Publisher_002,topicA,topicA-527,172.172.1.2:1883,1551659567724,PRODUCED
Publisher_002,topicA,topicA-528,172.172.1.2:1883,1551659567826,PRODUCED
Publisher_002,topicA,topicA-529,172.172.1.2:1883,1551659567920,PRODUCED
Publisher_002,topicA,topicA-530,172.172.1.2:1883,1551659568022,PRODUCED
Publisher_002,topicA,topicA-531,172.172.1.2:1883,1551659568124,PRODUCED
Publisher_002,topicA,topicA-532,172.172.1.2:1883,1551659568220,PRODUCED
Publisher_002,topicA,topicA-533,172.172.1.2:1883,1551659568321,PRODUCED
Publisher_002,topicA,topicA-534,172.172.1.2:1883,1551659568420,PRODUCED
Publisher_002,topicA,topicA-535,172.172.1.2:1883,1551659568520,PRODUCED
Publisher_002,topicA,topicA-536,172.172.1.2:1883,1551659568619,PRODUCED
Publisher_002,topicA,topicA-537,172.172.1.2:1883,1551659568719,PRODUCED
Publisher_002,topicA,topicA-538,172.172.1.2:1883,1551659568820,PRODUCED
Publisher_002,topicA,topicA-539,172.172.1.2:1883,1551659568920,PRODUCED
Publisher_002,topicA,topicA-540,172.172.1.2:1883,1551659569020,PRODUCED
Publisher_002,topicA,topicA-541,172.172.1.2:1883,1551659569120,PRODUCED
Publisher_002,topicA,topicA-542,172.172.1.2:1883,1551659569220,PRODUCED
Publisher_002,topicA,topicA-543,172.172.1.2:1883,1551659569320,PRODUCED
Publisher_002,topicA,topicA-544,172.172.1.2:1883,1551659569420,PRODUCED
Publisher_002,topicA,topicA-545,172.172.1.2:1883,1551659569519,PRODUCED
Publisher_002,topicA,topicA-546,172.172.1.2:1883,1551659569621,PRODUCED
Publisher_002,topicA,topicA-547,172.172.1.2:1883,1551659569720,PRODUCED
Publisher_002,topicA,topicA-548,172.172.1.2:1883,1551659569820,PRODUCED
Publisher_002,topicA,topicA-549,172.172.1.2:1883,1551659569919,PRODUCED
Publisher_002,topicA,topicA-550,172.172.1.2:1883,1551659570021,PRODUCED
Publisher_002,topicA,topicA-551,172.172.1.2:1883,1551659570119,PRODUCED
Publisher_002,topicA,topicA-552,172.172.1.2:1883,1551659570225,PRODUCED
Publisher_002,topicA,topicA-553,172.172.1.2:1883,1551659570323,PRODUCED
Publisher_002,topicA,topicA-554,172.172.1.2:1883,1551659570420,PRODUCED
Publisher_002,topicA,topicA-555,172.172.1.2:1883,1551659570521,PRODUCED
Publisher_002,topicA,topicA-556,172.172.1.2:1883,1551659570622,PRODUCED
Publisher_002,topicA,topicA-557,172.172.1.2:1883,1551659570719,PRODUCED
Publisher_002,topicA,topicA-558,172.172.1.2:1883,1551659570819,PRODUCED
Publisher_002,topicA,topicA-559,172.172.1.2:1883,1551659570920,PRODUCED
Publisher_002,topicA,topicA-560,172.172.1.2:1883,1551659571019,PRODUCED
Publisher_002,topicA,topicA-561,172.172.1.2:1883,1551659571119,PRODUCED
Publisher_002,topicA,topicA-562,172.172.1.2:1883,1551659571220,PRODUCED
Publisher_002,topicA,topicA-563,172.172.1.2:1883,1551659571319,PRODUCED
Publisher_002,topicA,topicA-564,172.172.1.2:1883,1551659571420,PRODUCED
Publisher_002,topicA,topicA-565,172.172.1.2:1883,1551659571522,PRODUCED
Publisher_002,topicA,topicA-566,172.172.1.2:1883,1551659571621,PRODUCED
Publisher_002,topicA,topicA-567,172.172.1.2:1883,1551659571719,PRODUCED
Publisher_002,topicA,topicA-568,172.172.1.2:1883,1551659571819,PRODUCED
Publisher_002,topicA,topicA-569,172.172.1.2:1883,1551659571922,PRODUCED
Publisher_002,topicA,topicA-570,172.172.1.2:1883,1551659572020,PRODUCED
Publisher_002,topicA,topicA-571,172.172.1.2:1883,1551659572121,PRODUCED
Publisher_002,topicA,topicA-572,172.172.1.2:1883,1551659572219,PRODUCED
Publisher_002,topicA,topicA-573,172.172.1.2:1883,1551659572319,PRODUCED
Publisher_002,topicA,topicA-574,172.172.1.2:1883,1551659572421,PRODUCED
Publisher_002,topicA,topicA-575,172.172.1.2:1883,1551659572520,PRODUCED
Publisher_002,topicA,topicA-576,172.172.1.2:1883,1551659572623,PRODUCED
Publisher_002,topicA,topicA-577,172.172.1.2:1883,1551659572720,PRODUCED
Publisher_002,topicA,topicA-578,172.172.1.2:1883,1551659572820,PRODUCED
Publisher_002,topicA,topicA-579,172.172.1.2:1883,1551659572921,PRODUCED
Publisher_002,topicA,topicA-580,172.172.1.2:1883,1551659573022,PRODUCED
Publisher_002,topicA,topicA-581,172.172.1.2:1883,1551659573120,PRODUCED
Publisher_002,topicA,topicA-582,172.172.1.2:1883,1551659573219,PRODUCED
Publisher_002,topicA,topicA-583,172.172.1.2:1883,1551659573319,PRODUCED
Publisher_002,topicA,topicA-584,172.172.1.2:1883,1551659573419,PRODUCED
Publisher_002,topicA,topicA-585,172.172.1.2:1883,1551659573519,PRODUCED
Publisher_002,topicA,topicA-586,172.172.1.2:1883,1551659573619,PRODUCED
Publisher_002,topicA,topicA-587,172.172.1.2:1883,1551659573719,PRODUCED
Publisher_002,topicA,topicA-588,172.172.1.2:1883,1551659573820,PRODUCED
Publisher_002,topicA,topicA-589,172.172.1.2:1883,1551659573921,PRODUCED
Publisher_002,topicA,topicA-590,172.172.1.2:1883,1551659574020,PRODUCED
Publisher_002,topicA,topicA-591,172.172.1.2:1883,1551659574120,PRODUCED
Publisher_002,topicA,topicA-592,172.172.1.2:1883,1551659574219,PRODUCED
Publisher_002,topicA,topicA-593,172.172.1.2:1883,1551659574321,PRODUCED
Publisher_002,topicA,topicA-594,172.172.1.2:1883,1551659574419,PRODUCED
Publisher_002,topicA,topicA-595,172.172.1.2:1883,1551659574520,PRODUCED
Publisher_002,topicA,topicA-596,172.172.1.2:1883,1551659574623,PRODUCED
Publisher_002,topicA,topicA-597,172.172.1.2:1883,1551659574719,PRODUCED
Publisher_002,topicA,topicA-598,172.172.1.2:1883,1551659574819,PRODUCED
Publisher_002,topicA,topicA-599,172.172.1.2:1883,1551659574922,PRODUCED
Publisher_002,topicA,topicA-600,172.172.1.2:1883,1551659575020,PRODUCED
Publisher_002,topicA,topicA-601,172.172.1.2:1883,1551659575124,PRODUCED
Publisher_002,topicA,topicA-602,172.172.1.2:1883,1551659575219,PRODUCED
Publisher_002,topicA,topicA-603,172.172.1.2:1883,1551659575320,PRODUCED
Publisher_002,topicA,topicA-604,172.172.1.2:1883,1551659575425,PRODUCED
Publisher_002,topicA,topicA-605,172.172.1.2:1883,1551659575525,PRODUCED
Publisher_002,topicA,topicA-606,172.172.1.2:1883,1551659575622,PRODUCED
Publisher_002,topicA,topicA-607,172.172.1.2:1883,1551659575720,PRODUCED
Publisher_002,topicA,topicA-608,172.172.1.2:1883,1551659575820,PRODUCED
Publisher_002,topicA,topicA-609,172.172.1.2:1883,1551659575920,PRODUCED
Publisher_002,topicA,topicA-610,172.172.1.2:1883,1551659576020,PRODUCED
Publisher_002,topicA,topicA-611,172.172.1.2:1883,1551659576119,PRODUCED
Publisher_002,topicA,topicA-612,172.172.1.2:1883,1551659576220,PRODUCED
Publisher_002,topicA,topicA-613,172.172.1.2:1883,1551659576322,PRODUCED
Publisher_002,topicA,topicA-614,172.172.1.2:1883,1551659576420,PRODUCED
Publisher_002,topicA,topicA-615,172.172.1.2:1883,1551659576523,PRODUCED
Publisher_002,topicA,topicA-616,172.172.1.2:1883,1551659576620,PRODUCED
Publisher_002,topicA,topicA-617,172.172.1.2:1883,1551659576720,PRODUCED
Publisher_002,topicA,topicA-618,172.172.1.2:1883,1551659576820,PRODUCED
Publisher_002,topicA,topicA-619,172.172.1.2:1883,1551659576921,PRODUCED
Publisher_002,topicA,topicA-620,172.172.1.2:1883,1551659577020,PRODUCED
Publisher_002,topicA,topicA-621,172.172.1.2:1883,1551659577121,PRODUCED
Publisher_002,topicA,topicA-622,172.172.1.2:1883,1551659577220,PRODUCED
Publisher_002,topicA,topicA-623,172.172.1.2:1883,1551659577322,PRODUCED
Publisher_002,topicA,topicA-624,172.172.1.2:1883,1551659577420,PRODUCED
Publisher_002,topicA,topicA-625,172.172.1.2:1883,1551659577519,PRODUCED
Publisher_002,topicA,topicA-626,172.172.1.2:1883,1551659577625,PRODUCED
Publisher_002,topicA,topicA-627,172.172.1.2:1883,1551659577719,PRODUCED
Publisher_002,topicA,topicA-628,172.172.1.2:1883,1551659577820,PRODUCED
Publisher_002,topicA,topicA-629,172.172.1.2:1883,1551659577920,PRODUCED
Publisher_002,topicA,topicA-630,172.172.1.2:1883,1551659578020,PRODUCED
Publisher_002,topicA,topicA-631,172.172.1.2:1883,1551659578121,PRODUCED
Publisher_002,topicA,topicA-632,172.172.1.2:1883,1551659578220,PRODUCED
Publisher_002,topicA,topicA-633,172.172.1.2:1883,1551659578321,PRODUCED
Publisher_002,topicA,topicA-634,172.172.1.2:1883,1551659578423,PRODUCED
Publisher_002,topicA,topicA-635,172.172.1.2:1883,1551659578519,PRODUCED
Publisher_002,topicA,topicA-636,172.172.1.2:1883,1551659578622,PRODUCED
Publisher_002,topicA,topicA-637,172.172.1.2:1883,1551659578721,PRODUCED
Publisher_002,topicA,topicA-638,172.172.1.2:1883,1551659578819,PRODUCED
Publisher_002,topicA,topicA-639,172.172.1.2:1883,1551659578922,PRODUCED
Publisher_002,topicA,topicA-640,172.172.1.2:1883,1551659579021,PRODUCED
Publisher_002,topicA,topicA-641,172.172.1.2:1883,1551659579120,PRODUCED
Publisher_002,topicA,topicA-642,172.172.1.2:1883,1551659579219,PRODUCED
