timestamp,event,migrationId
1551642208135,INITIALIZED,ed8923b5-9805-4f8d-a2b8-d26b5aab5f9d
1551642208164,topicC-INITIALIZED,ed8923b5-9805-4f8d-a2b8-d26b5aab5f9d
1551642208168,topicD-INITIALIZED,ed8923b5-9805-4f8d-a2b8-d26b5aab5f9d
1551642208168,topicA-INITIALIZED,ed8923b5-9805-4f8d-a2b8-d26b5aab5f9d
1551642208169,topicB-INITIALIZED,ed8923b5-9805-4f8d-a2b8-d26b5aab5f9d
1551642208170,topicE-INITIALIZED,ed8923b5-9805-4f8d-a2b8-d26b5aab5f9d
1551642208170,topicF-INITIALIZED,ed8923b5-9805-4f8d-a2b8-d26b5aab5f9d
1551642208376,topicC-SYNCING,ed8923b5-9805-4f8d-a2b8-d26b5aab5f9d
1551642208378,topicD-SYNCING,ed8923b5-9805-4f8d-a2b8-d26b5aab5f9d
1551642208391,topicB-SYNCING,ed8923b5-9805-4f8d-a2b8-d26b5aab5f9d
1551642208398,topicE-SYNCING,ed8923b5-9805-4f8d-a2b8-d26b5aab5f9d
1551642208401,topicA-SYNCING,ed8923b5-9805-4f8d-a2b8-d26b5aab5f9d
1551642208405,topicB-SYNCING_OPPONENT,ed8923b5-9805-4f8d-a2b8-d26b5aab5f9d
1551642208406,topicE-SYNCING_THIS,ed8923b5-9805-4f8d-a2b8-d26b5aab5f9d
1551642208404,topicA-SYNCED,ed8923b5-9805-4f8d-a2b8-d26b5aab5f9d
1551642208404,topicD-SYNCING_THIS,ed8923b5-9805-4f8d-a2b8-d26b5aab5f9d
1551642208403,topicA-SYNCING_OPPONENT,ed8923b5-9805-4f8d-a2b8-d26b5aab5f9d
1551642208403,topicC-SYNCING_OPPONENT,ed8923b5-9805-4f8d-a2b8-d26b5aab5f9d
1551642208402,SYNCING,ed8923b5-9805-4f8d-a2b8-d26b5aab5f9d
1551642208402,topicF-SYNCING,ed8923b5-9805-4f8d-a2b8-d26b5aab5f9d
1551642208416,topicF-SYNCING_THIS,ed8923b5-9805-4f8d-a2b8-d26b5aab5f9d
1551642209687,topicD-SYNCED,ed8923b5-9805-4f8d-a2b8-d26b5aab5f9d
1551642209689,topicE-SYNCED,ed8923b5-9805-4f8d-a2b8-d26b5aab5f9d
1551642209692,topicF-SYNCED,ed8923b5-9805-4f8d-a2b8-d26b5aab5f9d
1551642210395,topicC-SYNCED,ed8923b5-9805-4f8d-a2b8-d26b5aab5f9d
1551642210395,topicB-SYNCED,ed8923b5-9805-4f8d-a2b8-d26b5aab5f9d
1551642210396,SYNCED,ed8923b5-9805-4f8d-a2b8-d26b5aab5f9d
1551642210401,topicC-FINISHED,ed8923b5-9805-4f8d-a2b8-d26b5aab5f9d
1551642210406,topicD-FINISHED,ed8923b5-9805-4f8d-a2b8-d26b5aab5f9d
1551642210410,topicA-FINISHED,ed8923b5-9805-4f8d-a2b8-d26b5aab5f9d
1551642210411,topicB-FINISHED,ed8923b5-9805-4f8d-a2b8-d26b5aab5f9d
1551642210412,topicE-FINISHED,ed8923b5-9805-4f8d-a2b8-d26b5aab5f9d
1551642210413,FINISHED,ed8923b5-9805-4f8d-a2b8-d26b5aab5f9d
1551642210412,topicF-FINISHED,ed8923b5-9805-4f8d-a2b8-d26b5aab5f9d
