timestamp,event,migrationId
1551661001329,INITIALIZED,eef29a7a-9df6-4c65-aaa3-42d7ec2e577c
1551661001332,topicC-INITIALIZED,eef29a7a-9df6-4c65-aaa3-42d7ec2e577c
1551661001334,topicA-INITIALIZED,eef29a7a-9df6-4c65-aaa3-42d7ec2e577c
1551661001335,topicB-INITIALIZED,eef29a7a-9df6-4c65-aaa3-42d7ec2e577c
1551661001341,topicA-SYNCED,eef29a7a-9df6-4c65-aaa3-42d7ec2e577c
1551661003372,topicC-FINISHED,eef29a7a-9df6-4c65-aaa3-42d7ec2e577c
1551661003397,FINISHED,eef29a7a-9df6-4c65-aaa3-42d7ec2e577c
1551661003396,topicB-FINISHED,eef29a7a-9df6-4c65-aaa3-42d7ec2e577c
1551661003396,topicA-FINISHED,eef29a7a-9df6-4c65-aaa3-42d7ec2e577c
