timestamp,event,migrationId
1551651933385,INITIALIZED,516b19aa-717a-4bf1-bc8a-393366bdabdb
1551651933389,topicC-INITIALIZED,516b19aa-717a-4bf1-bc8a-393366bdabdb
1551651933390,topicB-INITIALIZED,516b19aa-717a-4bf1-bc8a-393366bdabdb
1551651933390,topicA-INITIALIZED,516b19aa-717a-4bf1-bc8a-393366bdabdb
1551651933625,topicC-SYNCING,516b19aa-717a-4bf1-bc8a-393366bdabdb
1551651933626,topicA-SYNCING,516b19aa-717a-4bf1-bc8a-393366bdabdb
1551651933633,topicB-SYNCING,516b19aa-717a-4bf1-bc8a-393366bdabdb
1551651933635,SYNCING,516b19aa-717a-4bf1-bc8a-393366bdabdb
1551651933643,topicC-SYNCING_OPPONENT,516b19aa-717a-4bf1-bc8a-393366bdabdb
1551651933647,topicA-SYNCING_THIS,516b19aa-717a-4bf1-bc8a-393366bdabdb
1551651933648,topicB-SYNCING_OPPONENT,516b19aa-717a-4bf1-bc8a-393366bdabdb
1551651933647,topicA-SYNCED,516b19aa-717a-4bf1-bc8a-393366bdabdb
1551651935615,topicC-SYNCED,516b19aa-717a-4bf1-bc8a-393366bdabdb
1551651935699,topicB-SYNCED,516b19aa-717a-4bf1-bc8a-393366bdabdb
1551651935704,SYNCED,516b19aa-717a-4bf1-bc8a-393366bdabdb
1551651935720,topicC-FINISHED,516b19aa-717a-4bf1-bc8a-393366bdabdb
1551651935742,topicA-FINISHED,516b19aa-717a-4bf1-bc8a-393366bdabdb
1551651935754,topicB-FINISHED,516b19aa-717a-4bf1-bc8a-393366bdabdb
1551651935756,FINISHED,516b19aa-717a-4bf1-bc8a-393366bdabdb
