clientId,topic,guid,broker,timestamp,type
Publisher_001,topicA,topicA-1,172.172.1.1:1883,1551643548740,PRODUCED
Publisher_001,topicA,topicA-2,172.172.1.1:1883,1551643548957,PRODUCED
Publisher_001,topicA,topicA-3,172.172.1.1:1883,1551643548962,PRODUCED
Publisher_001,topicA,topicA-4,172.172.1.1:1883,1551643548967,PRODUCED
Publisher_001,topicA,topicA-5,172.172.1.1:1883,1551643548988,PRODUCED
Publisher_001,topicA,topicA-6,172.172.1.1:1883,1551643549087,PRODUCED
Publisher_001,topicA,topicA-7,172.172.1.1:1883,1551643549187,PRODUCED
Publisher_001,topicA,topicA-8,172.172.1.1:1883,1551643549288,PRODUCED
Publisher_001,topicA,topicA-9,172.172.1.1:1883,1551643549387,PRODUCED
Publisher_001,topicA,topicA-10,172.172.1.1:1883,1551643549487,PRODUCED
Publisher_001,topicA,topicA-11,172.172.1.1:1883,1551643549587,PRODUCED
Publisher_001,topicA,topicA-12,172.172.1.1:1883,1551643549687,PRODUCED
Publisher_001,topicA,topicA-13,172.172.1.1:1883,1551643549788,PRODUCED
Publisher_001,topicA,topicA-14,172.172.1.1:1883,1551643549887,PRODUCED
Publisher_001,topicA,topicA-15,172.172.1.1:1883,1551643549987,PRODUCED
Publisher_001,topicA,topicA-16,172.172.1.1:1883,1551643550087,PRODUCED
Publisher_001,topicA,topicA-17,172.172.1.1:1883,1551643550188,PRODUCED
Publisher_001,topicA,topicA-18,172.172.1.1:1883,1551643550288,PRODUCED
Publisher_001,topicA,topicA-19,172.172.1.1:1883,1551643550387,PRODUCED
Publisher_001,topicA,topicA-20,172.172.1.1:1883,1551643550494,PRODUCED
Publisher_001,topicA,topicA-21,172.172.1.1:1883,1551643550587,PRODUCED
Publisher_001,topicA,topicA-22,172.172.1.1:1883,1551643550690,PRODUCED
Publisher_001,topicA,topicA-23,172.172.1.1:1883,1551643550792,PRODUCED
Publisher_001,topicA,topicA-24,172.172.1.1:1883,1551643550893,PRODUCED
Publisher_001,topicA,topicA-25,172.172.1.1:1883,1551643550989,PRODUCED
Publisher_001,topicA,topicA-26,172.172.1.1:1883,1551643551087,PRODUCED
Publisher_001,topicA,topicA-27,172.172.1.1:1883,1551643551187,PRODUCED
Publisher_001,topicA,topicA-28,172.172.1.1:1883,1551643551287,PRODUCED
Publisher_001,topicA,topicA-29,172.172.1.1:1883,1551643551387,PRODUCED
Publisher_001,topicA,topicA-30,172.172.1.1:1883,1551643551487,PRODUCED
Publisher_001,topicA,topicA-31,172.172.1.1:1883,1551643551591,PRODUCED
Publisher_001,topicA,topicA-32,172.172.1.1:1883,1551643551687,PRODUCED
Publisher_001,topicA,topicA-33,172.172.1.1:1883,1551643551788,PRODUCED
Publisher_001,topicA,topicA-34,172.172.1.1:1883,1551643551888,PRODUCED
Publisher_001,topicA,topicA-35,172.172.1.1:1883,1551643551989,PRODUCED
Publisher_001,topicA,topicA-36,172.172.1.1:1883,1551643552088,PRODUCED
Publisher_001,topicA,topicA-37,172.172.1.1:1883,1551643552189,PRODUCED
Publisher_001,topicA,topicA-38,172.172.1.1:1883,1551643552288,PRODUCED
Publisher_001,topicA,topicA-39,172.172.1.1:1883,1551643552392,PRODUCED
Publisher_001,topicA,topicA-40,172.172.1.1:1883,1551643552488,PRODUCED
Publisher_001,topicA,topicA-41,172.172.1.1:1883,1551643552588,PRODUCED
Publisher_001,topicA,topicA-42,172.172.1.1:1883,1551643552688,PRODUCED
Publisher_001,topicA,topicA-43,172.172.1.1:1883,1551643552788,PRODUCED
Publisher_001,topicA,topicA-44,172.172.1.1:1883,1551643552889,PRODUCED
Publisher_001,topicA,topicA-45,172.172.1.1:1883,1551643552988,PRODUCED
Publisher_001,topicA,topicA-46,172.172.1.1:1883,1551643553087,PRODUCED
Publisher_001,topicA,topicA-47,172.172.1.1:1883,1551643553187,PRODUCED
Publisher_001,topicA,topicA-48,172.172.1.1:1883,1551643553287,PRODUCED
Publisher_001,topicA,topicA-49,172.172.1.1:1883,1551643553387,PRODUCED
Publisher_001,topicA,topicA-50,172.172.1.1:1883,1551643553488,PRODUCED
Publisher_001,topicA,topicA-51,172.172.1.1:1883,1551643553587,PRODUCED
Publisher_001,topicA,topicA-52,172.172.1.1:1883,1551643553687,PRODUCED
Publisher_001,topicA,topicA-53,172.172.1.1:1883,1551643553787,PRODUCED
Publisher_001,topicA,topicA-54,172.172.1.1:1883,1551643553887,PRODUCED
Publisher_001,topicA,topicA-55,172.172.1.1:1883,1551643553987,PRODUCED
Publisher_001,topicA,topicA-56,172.172.1.1:1883,1551643554087,PRODUCED
Publisher_001,topicA,topicA-57,172.172.1.1:1883,1551643554187,PRODUCED
Publisher_001,topicA,topicA-58,172.172.1.1:1883,1551643554288,PRODUCED
Publisher_001,topicA,topicA-59,172.172.1.1:1883,1551643554391,PRODUCED
Publisher_001,topicA,topicA-60,172.172.1.1:1883,1551643554487,PRODUCED
Publisher_001,topicA,topicA-61,172.172.1.1:1883,1551643554589,PRODUCED
Publisher_001,topicA,topicA-62,172.172.1.1:1883,1551643554689,PRODUCED
Publisher_001,topicA,topicA-63,172.172.1.1:1883,1551643554788,PRODUCED
Publisher_001,topicA,topicA-64,172.172.1.1:1883,1551643554888,PRODUCED
Publisher_001,topicA,topicA-65,172.172.1.1:1883,1551643554989,PRODUCED
Publisher_001,topicA,topicA-66,172.172.1.1:1883,1551643555088,PRODUCED
Publisher_001,topicA,topicA-67,172.172.1.1:1883,1551643555188,PRODUCED
Publisher_001,topicA,topicA-68,172.172.1.1:1883,1551643555288,PRODUCED
Publisher_001,topicA,topicA-69,172.172.1.1:1883,1551643555387,PRODUCED
Publisher_001,topicA,topicA-70,172.172.1.1:1883,1551643555487,PRODUCED
Publisher_001,topicA,topicA-71,172.172.1.1:1883,1551643555593,PRODUCED
Publisher_001,topicA,topicA-72,172.172.1.1:1883,1551643555689,PRODUCED
Publisher_001,topicA,topicA-73,172.172.1.1:1883,1551643555787,PRODUCED
Publisher_001,topicA,topicA-74,172.172.1.1:1883,1551643555888,PRODUCED
Publisher_001,topicA,topicA-75,172.172.1.1:1883,1551643555987,PRODUCED
Publisher_001,topicA,topicA-76,172.172.1.1:1883,1551643556087,PRODUCED
Publisher_001,topicA,topicA-77,172.172.1.1:1883,1551643556188,PRODUCED
Publisher_001,topicA,topicA-78,172.172.1.1:1883,1551643556287,PRODUCED
Publisher_001,topicA,topicA-79,172.172.1.1:1883,1551643556387,PRODUCED
Publisher_001,topicA,topicA-80,172.172.1.1:1883,1551643556487,PRODUCED
Publisher_001,topicA,topicA-81,172.172.1.1:1883,1551643556589,PRODUCED
Publisher_001,topicA,topicA-82,172.172.1.1:1883,1551643556690,PRODUCED
Publisher_001,topicA,topicA-83,172.172.1.1:1883,1551643556791,PRODUCED
Publisher_001,topicA,topicA-84,172.172.1.1:1883,1551643556887,PRODUCED
Publisher_001,topicA,topicA-85,172.172.1.1:1883,1551643556987,PRODUCED
Publisher_001,topicA,topicA-86,172.172.1.1:1883,1551643557087,PRODUCED
Publisher_001,topicA,topicA-87,172.172.1.1:1883,1551643557188,PRODUCED
Publisher_001,topicA,topicA-88,172.172.1.1:1883,1551643557291,PRODUCED
Publisher_001,topicA,topicA-89,172.172.1.1:1883,1551643557388,PRODUCED
Publisher_001,topicA,topicA-90,172.172.1.1:1883,1551643557488,PRODUCED
Publisher_001,topicA,topicA-91,172.172.1.1:1883,1551643557588,PRODUCED
Publisher_001,topicA,topicA-92,172.172.1.1:1883,1551643557688,PRODUCED
Publisher_001,topicA,topicA-93,172.172.1.1:1883,1551643557789,PRODUCED
Publisher_001,topicA,topicA-94,172.172.1.1:1883,1551643557888,PRODUCED
Publisher_001,topicA,topicA-95,172.172.1.1:1883,1551643557988,PRODUCED
Publisher_001,topicA,topicA-96,172.172.1.1:1883,1551643558087,PRODUCED
Publisher_001,topicA,topicA-97,172.172.1.1:1883,1551643558188,PRODUCED
Publisher_001,topicA,topicA-98,172.172.1.1:1883,1551643558288,PRODUCED
Publisher_001,topicA,topicA-99,172.172.1.1:1883,1551643558393,PRODUCED
Publisher_001,topicA,topicA-100,172.172.1.1:1883,1551643558488,PRODUCED
Publisher_001,topicA,topicA-101,172.172.1.1:1883,1551643558588,PRODUCED
Publisher_001,topicA,topicA-102,172.172.1.1:1883,1551643558689,PRODUCED
Publisher_001,topicA,topicA-103,172.172.1.1:1883,1551643558787,PRODUCED
Publisher_001,topicA,topicA-104,172.172.1.1:1883,1551643558891,PRODUCED
Publisher_001,topicA,topicA-105,172.172.1.1:1883,1551643558988,PRODUCED
Publisher_001,topicA,topicA-106,172.172.1.1:1883,1551643559087,PRODUCED
Publisher_001,topicA,topicA-107,172.172.1.1:1883,1551643559187,PRODUCED
Publisher_001,topicA,topicA-108,172.172.1.1:1883,1551643559288,PRODUCED
Publisher_001,topicA,topicA-109,172.172.1.1:1883,1551643559387,PRODUCED
Publisher_001,topicA,topicA-110,172.172.1.1:1883,1551643559488,PRODUCED
Publisher_001,topicA,topicA-111,172.172.1.1:1883,1551643559588,PRODUCED
Publisher_001,topicA,topicA-112,172.172.1.1:1883,1551643559689,PRODUCED
Publisher_001,topicA,topicA-113,172.172.1.1:1883,1551643559791,PRODUCED
Publisher_001,topicA,topicA-114,172.172.1.1:1883,1551643559887,PRODUCED
Publisher_001,topicA,topicA-115,172.172.1.1:1883,1551643559987,PRODUCED
Publisher_001,topicA,topicA-116,172.172.1.1:1883,1551643560091,PRODUCED
Publisher_001,topicA,topicA-117,172.172.1.1:1883,1551643560193,PRODUCED
Publisher_001,topicA,topicA-118,172.172.1.1:1883,1551643560289,PRODUCED
Publisher_001,topicA,topicA-119,172.172.1.1:1883,1551643560389,PRODUCED
Publisher_001,topicA,topicA-120,172.172.1.1:1883,1551643560488,PRODUCED
Publisher_001,topicA,topicA-121,172.172.1.1:1883,1551643560588,PRODUCED
Publisher_001,topicA,topicA-122,172.172.1.1:1883,1551643560687,PRODUCED
Publisher_001,topicA,topicA-123,172.172.1.1:1883,1551643560787,PRODUCED
Publisher_001,topicA,topicA-124,172.172.1.1:1883,1551643560887,PRODUCED
Publisher_001,topicA,topicA-125,172.172.1.1:1883,1551643560987,PRODUCED
Publisher_001,topicA,topicA-126,172.172.1.1:1883,1551643561088,PRODUCED
Publisher_001,topicA,topicA-127,172.172.1.1:1883,1551643561192,PRODUCED
Publisher_001,topicA,topicA-128,172.172.1.1:1883,1551643561288,PRODUCED
Publisher_001,topicA,topicA-129,172.172.1.1:1883,1551643561388,PRODUCED
Publisher_001,topicA,topicA-130,172.172.1.1:1883,1551643561487,PRODUCED
Publisher_001,topicA,topicA-131,172.172.1.1:1883,1551643561587,PRODUCED
Publisher_001,topicA,topicA-132,172.172.1.1:1883,1551643561688,PRODUCED
Publisher_001,topicA,topicA-133,172.172.1.1:1883,1551643561788,PRODUCED
Publisher_001,topicA,topicA-134,172.172.1.1:1883,1551643561887,PRODUCED
Publisher_001,topicA,topicA-135,172.172.1.1:1883,1551643561988,PRODUCED
Publisher_001,topicA,topicA-136,172.172.1.1:1883,1551643562088,PRODUCED
Publisher_001,topicA,topicA-137,172.172.1.1:1883,1551643562188,PRODUCED
Publisher_001,topicA,topicA-138,172.172.1.1:1883,1551643562294,PRODUCED
Publisher_001,topicA,topicA-139,172.172.1.1:1883,1551643562388,PRODUCED
Publisher_001,topicA,topicA-140,172.172.1.1:1883,1551643562487,PRODUCED
Publisher_001,topicA,topicA-141,172.172.1.1:1883,1551643562588,PRODUCED
Publisher_001,topicA,topicA-142,172.172.1.1:1883,1551643562692,PRODUCED
Publisher_001,topicA,topicA-143,172.172.1.1:1883,1551643562788,PRODUCED
Publisher_001,topicA,topicA-144,172.172.1.1:1883,1551643562888,PRODUCED
Publisher_001,topicA,topicA-145,172.172.1.1:1883,1551643562989,PRODUCED
Publisher_001,topicA,topicA-146,172.172.1.1:1883,1551643563088,PRODUCED
Publisher_001,topicA,topicA-147,172.172.1.1:1883,1551643563193,PRODUCED
Publisher_001,topicA,topicA-148,172.172.1.1:1883,1551643563294,PRODUCED
Publisher_001,topicA,topicA-149,172.172.1.1:1883,1551643563389,PRODUCED
Publisher_001,topicA,topicA-150,172.172.1.1:1883,1551643563488,PRODUCED
Publisher_001,topicA,topicA-151,172.172.1.1:1883,1551643563588,PRODUCED
Publisher_001,topicA,topicA-152,172.172.1.1:1883,1551643563688,PRODUCED
Publisher_001,topicA,topicA-153,172.172.1.1:1883,1551643563788,PRODUCED
Publisher_001,topicA,topicA-154,172.172.1.1:1883,1551643563888,PRODUCED
Publisher_001,topicA,topicA-155,172.172.1.1:1883,1551643563988,PRODUCED
Publisher_001,topicA,topicA-156,172.172.1.1:1883,1551643564088,PRODUCED
Publisher_001,topicA,topicA-157,172.172.1.1:1883,1551643564188,PRODUCED
Publisher_001,topicA,topicA-158,172.172.1.1:1883,1551643564288,PRODUCED
Publisher_001,topicA,topicA-159,172.172.1.1:1883,1551643564388,PRODUCED
Publisher_001,topicA,topicA-160,172.172.1.1:1883,1551643564488,PRODUCED
Publisher_001,topicA,topicA-161,172.172.1.1:1883,1551643564593,PRODUCED
Publisher_001,topicA,topicA-162,172.172.1.1:1883,1551643564688,PRODUCED
Publisher_001,topicA,topicA-163,172.172.1.1:1883,1551643564789,PRODUCED
Publisher_001,topicA,topicA-164,172.172.1.1:1883,1551643564888,PRODUCED
Publisher_001,topicA,topicA-165,172.172.1.1:1883,1551643564989,PRODUCED
Publisher_001,topicA,topicA-166,172.172.1.1:1883,1551643565093,PRODUCED
Publisher_001,topicA,topicA-167,172.172.1.1:1883,1551643565189,PRODUCED
Publisher_001,topicA,topicA-168,172.172.1.1:1883,1551643565288,PRODUCED
Publisher_001,topicA,topicA-169,172.172.1.1:1883,1551643565388,PRODUCED
Publisher_001,topicA,topicA-170,172.172.1.1:1883,1551643565492,PRODUCED
Publisher_001,topicA,topicA-171,172.172.1.1:1883,1551643565588,PRODUCED
Publisher_001,topicA,topicA-172,172.172.1.1:1883,1551643565688,PRODUCED
Publisher_001,topicA,topicA-173,172.172.1.1:1883,1551643565792,PRODUCED
Publisher_001,topicA,topicA-174,172.172.1.1:1883,1551643565889,PRODUCED
Publisher_001,topicA,topicA-175,172.172.1.1:1883,1551643565993,PRODUCED
Publisher_001,topicA,topicA-176,172.172.1.1:1883,1551643566087,PRODUCED
Publisher_001,topicA,topicA-177,172.172.1.1:1883,1551643566187,PRODUCED
Publisher_001,topicA,topicA-178,172.172.1.1:1883,1551643566287,PRODUCED
Publisher_001,topicA,topicA-179,172.172.1.1:1883,1551643566387,PRODUCED
Publisher_001,topicA,topicA-180,172.172.1.1:1883,1551643566487,PRODUCED
Publisher_001,topicA,topicA-181,172.172.1.1:1883,1551643566587,PRODUCED
Publisher_001,topicA,topicA-182,172.172.1.1:1883,1551643566687,PRODUCED
Publisher_001,topicA,topicA-183,172.172.1.1:1883,1551643566787,PRODUCED
Publisher_001,topicA,topicA-184,172.172.1.1:1883,1551643566888,PRODUCED
Publisher_001,topicA,topicA-185,172.172.1.1:1883,1551643566987,PRODUCED
Publisher_001,topicA,topicA-186,172.172.1.1:1883,1551643567087,PRODUCED
Publisher_001,topicA,topicA-187,172.172.1.1:1883,1551643567188,PRODUCED
Publisher_001,topicA,topicA-188,172.172.1.1:1883,1551643567288,PRODUCED
Publisher_001,topicA,topicA-189,172.172.1.1:1883,1551643567388,PRODUCED
Publisher_001,topicA,topicA-190,172.172.1.1:1883,1551643567489,PRODUCED
Publisher_001,topicA,topicA-191,172.172.1.1:1883,1551643567587,PRODUCED
Publisher_001,topicA,topicA-192,172.172.1.1:1883,1551643567687,PRODUCED
Publisher_001,topicA,topicA-193,172.172.1.1:1883,1551643567789,PRODUCED
Publisher_001,topicA,topicA-194,172.172.1.1:1883,1551643567889,PRODUCED
Publisher_001,topicA,topicA-195,172.172.1.1:1883,1551643567989,PRODUCED
Publisher_001,topicA,topicA-196,172.172.1.1:1883,1551643568088,PRODUCED
Publisher_001,topicA,topicA-197,172.172.1.1:1883,1551643568187,PRODUCED
Publisher_001,topicA,topicA-198,172.172.1.1:1883,1551643568287,PRODUCED
Publisher_001,topicA,topicA-199,172.172.1.1:1883,1551643568390,PRODUCED
Publisher_001,topicA,topicA-200,172.172.1.1:1883,1551643568487,PRODUCED
Publisher_001,topicA,topicA-201,172.172.1.1:1883,1551643568587,PRODUCED
Publisher_001,topicA,topicA-202,172.172.1.1:1883,1551643568687,PRODUCED
Publisher_001,topicA,topicA-203,172.172.1.1:1883,1551643568787,PRODUCED
Publisher_001,topicA,topicA-204,172.172.1.1:1883,1551643568887,PRODUCED
Publisher_001,topicA,topicA-205,172.172.1.1:1883,1551643568988,PRODUCED
Publisher_001,topicA,topicA-206,172.172.1.1:1883,1551643569087,PRODUCED
Publisher_001,topicA,topicA-207,172.172.1.1:1883,1551643569187,PRODUCED
Publisher_001,topicA,topicA-208,172.172.1.1:1883,1551643569288,PRODUCED
Publisher_001,topicA,topicA-209,172.172.1.1:1883,1551643569388,PRODUCED
Publisher_001,topicA,topicA-210,172.172.1.1:1883,1551643569487,PRODUCED
Publisher_001,topicA,topicA-211,172.172.1.1:1883,1551643569587,PRODUCED
Publisher_001,topicA,topicA-212,172.172.1.1:1883,1551643569687,PRODUCED
Publisher_001,topicA,topicA-213,172.172.1.1:1883,1551643569787,PRODUCED
Publisher_001,topicA,topicA-214,172.172.1.1:1883,1551643569887,PRODUCED
Publisher_001,topicA,topicA-215,172.172.1.1:1883,1551643569990,PRODUCED
Publisher_001,topicA,topicA-216,172.172.1.1:1883,1551643570087,PRODUCED
Publisher_001,topicA,topicA-217,172.172.1.1:1883,1551643570187,PRODUCED
Publisher_001,topicA,topicA-218,172.172.1.1:1883,1551643570288,PRODUCED
Publisher_001,topicA,topicA-219,172.172.1.1:1883,1551643570387,PRODUCED
Publisher_001,topicA,topicA-220,172.172.1.1:1883,1551643570493,PRODUCED
Publisher_001,topicA,topicA-221,172.172.1.1:1883,1551643570588,PRODUCED
Publisher_001,topicA,topicA-222,172.172.1.1:1883,1551643570687,PRODUCED
Publisher_001,topicA,topicA-223,172.172.1.1:1883,1551643570787,PRODUCED
Publisher_001,topicA,topicA-224,172.172.1.1:1883,1551643570888,PRODUCED
Publisher_001,topicA,topicA-225,172.172.1.1:1883,1551643570987,PRODUCED
Publisher_001,topicA,topicA-226,172.172.1.1:1883,1551643571090,PRODUCED
Publisher_001,topicA,topicA-227,172.172.1.1:1883,1551643571188,PRODUCED
Publisher_001,topicA,topicA-228,172.172.1.1:1883,1551643571287,PRODUCED
Publisher_001,topicA,topicA-229,172.172.1.1:1883,1551643571388,PRODUCED
Publisher_001,topicA,topicA-230,172.172.1.1:1883,1551643571490,PRODUCED
Publisher_001,topicA,topicA-231,172.172.1.1:1883,1551643571587,PRODUCED
Publisher_001,topicA,topicA-232,172.172.1.1:1883,1551643571687,PRODUCED
Publisher_001,topicA,topicA-233,172.172.1.1:1883,1551643571788,PRODUCED
Publisher_001,topicA,topicA-234,172.172.1.1:1883,1551643571887,PRODUCED
Publisher_001,topicA,topicA-235,172.172.1.1:1883,1551643571988,PRODUCED
Publisher_001,topicA,topicA-236,172.172.1.1:1883,1551643572088,PRODUCED
Publisher_001,topicA,topicA-237,172.172.1.1:1883,1551643572193,PRODUCED
Publisher_001,topicA,topicA-238,172.172.1.1:1883,1551643572289,PRODUCED
Publisher_001,topicA,topicA-239,172.172.1.1:1883,1551643572391,PRODUCED
Publisher_001,topicA,topicA-240,172.172.1.1:1883,1551643572487,PRODUCED
Publisher_001,topicA,topicA-241,172.172.1.1:1883,1551643572593,PRODUCED
Publisher_001,topicA,topicA-242,172.172.1.1:1883,1551643572688,PRODUCED
Publisher_001,topicA,topicA-243,172.172.1.1:1883,1551643572788,PRODUCED
Publisher_001,topicA,topicA-244,172.172.1.1:1883,1551643572888,PRODUCED
Publisher_001,topicA,topicA-245,172.172.1.1:1883,1551643572988,PRODUCED
Publisher_001,topicA,topicA-246,172.172.1.1:1883,1551643573087,PRODUCED
Publisher_001,topicA,topicA-247,172.172.1.1:1883,1551643573187,PRODUCED
Publisher_001,topicA,topicA-248,172.172.1.1:1883,1551643573287,PRODUCED
Publisher_001,topicA,topicA-249,172.172.1.1:1883,1551643573390,PRODUCED
Publisher_001,topicA,topicA-250,172.172.1.1:1883,1551643573487,PRODUCED
Publisher_001,topicA,topicA-251,172.172.1.1:1883,1551643573587,PRODUCED
Publisher_001,topicA,topicA-252,172.172.1.1:1883,1551643573687,PRODUCED
Publisher_001,topicA,topicA-253,172.172.1.1:1883,1551643573787,PRODUCED
Publisher_001,topicA,topicA-254,172.172.1.1:1883,1551643573890,PRODUCED
Publisher_001,topicA,topicA-255,172.172.1.1:1883,1551643573987,PRODUCED
Publisher_001,topicA,topicA-256,172.172.1.1:1883,1551643574088,PRODUCED
Publisher_001,topicA,topicA-257,172.172.1.1:1883,1551643574187,PRODUCED
Publisher_001,topicA,topicA-258,172.172.1.1:1883,1551643574287,PRODUCED
Publisher_001,topicA,topicA-259,172.172.1.1:1883,1551643574388,PRODUCED
Publisher_001,topicA,topicA-260,172.172.1.1:1883,1551643574488,PRODUCED
Publisher_001,topicA,topicA-261,172.172.1.1:1883,1551643574589,PRODUCED
Publisher_001,topicA,topicA-262,172.172.1.1:1883,1551643574687,PRODUCED
Publisher_001,topicA,topicA-263,172.172.1.1:1883,1551643574788,PRODUCED
Publisher_001,topicA,topicA-264,172.172.1.1:1883,1551643574887,PRODUCED
Publisher_001,topicA,topicA-265,172.172.1.1:1883,1551643574987,PRODUCED
Publisher_001,topicA,topicA-266,172.172.1.1:1883,1551643575090,PRODUCED
Publisher_001,topicA,topicA-267,172.172.1.1:1883,1551643575188,PRODUCED
Publisher_001,topicA,topicA-268,172.172.1.1:1883,1551643575287,PRODUCED
Publisher_001,topicA,topicA-269,172.172.1.1:1883,1551643575389,PRODUCED
Publisher_001,topicA,topicA-270,172.172.1.1:1883,1551643575488,PRODUCED
Publisher_001,topicA,topicA-271,172.172.1.1:1883,1551643575592,PRODUCED
Publisher_001,topicA,topicA-272,172.172.1.1:1883,1551643575689,PRODUCED
Publisher_001,topicA,topicA-273,172.172.1.1:1883,1551643575788,PRODUCED
Publisher_001,topicA,topicA-274,172.172.1.1:1883,1551643575889,PRODUCED
Publisher_001,topicA,topicA-275,172.172.1.1:1883,1551643575988,PRODUCED
Publisher_001,topicA,topicA-276,172.172.1.1:1883,1551643576088,PRODUCED
Publisher_001,topicA,topicA-277,172.172.1.1:1883,1551643576188,PRODUCED
Publisher_001,topicA,topicA-278,172.172.1.1:1883,1551643576290,PRODUCED
Publisher_001,topicA,topicA-279,172.172.1.1:1883,1551643576388,PRODUCED
Publisher_001,topicA,topicA-280,172.172.1.1:1883,1551643576488,PRODUCED
Publisher_001,topicA,topicA-281,172.172.1.1:1883,1551643576587,PRODUCED
Publisher_001,topicA,topicA-282,172.172.1.1:1883,1551643576687,PRODUCED
Publisher_001,topicA,topicA-283,172.172.1.1:1883,1551643576787,PRODUCED
Publisher_001,topicA,topicA-284,172.172.1.1:1883,1551643576887,PRODUCED
Publisher_001,topicA,topicA-285,172.172.1.1:1883,1551643576989,PRODUCED
Publisher_001,topicA,topicA-286,172.172.1.1:1883,1551643577089,PRODUCED
Publisher_001,topicA,topicA-287,172.172.1.1:1883,1551643577190,PRODUCED
Publisher_001,topicA,topicA-288,172.172.1.1:1883,1551643577287,PRODUCED
Publisher_001,topicA,topicA-289,172.172.1.1:1883,1551643577387,PRODUCED
Publisher_001,topicA,topicA-290,172.172.1.1:1883,1551643577487,PRODUCED
Publisher_001,topicA,topicA-291,172.172.1.1:1883,1551643577587,PRODUCED
Publisher_001,topicA,topicA-292,172.172.1.1:1883,1551643577688,PRODUCED
Publisher_001,topicA,topicA-293,172.172.1.1:1883,1551643577788,PRODUCED
Publisher_001,topicA,topicA-294,172.172.1.1:1883,1551643577888,PRODUCED
Publisher_001,topicA,topicA-295,172.172.1.1:1883,1551643577988,PRODUCED
Publisher_001,topicA,topicA-296,172.172.1.1:1883,1551643578087,PRODUCED
Publisher_001,topicA,topicA-297,172.172.1.1:1883,1551643578187,PRODUCED
Publisher_001,topicA,topicA-298,172.172.1.1:1883,1551643578288,PRODUCED
Publisher_001,topicA,topicA-299,172.172.1.1:1883,1551643578391,PRODUCED
Publisher_001,topicA,topicA-300,172.172.1.1:1883,1551643578488,PRODUCED
Publisher_001,topicA,topicA-301,172.172.1.1:1883,1551643578587,PRODUCED
Publisher_001,topicA,topicA-302,172.172.1.1:1883,1551643578687,PRODUCED
Publisher_001,topicA,topicA-303,172.172.1.1:1883,1551643578787,PRODUCED
Publisher_001,topicA,topicA-304,172.172.1.1:1883,1551643578887,PRODUCED
Publisher_001,topicA,topicA-305,172.172.1.1:1883,1551643578987,PRODUCED
Publisher_001,topicA,topicA-306,172.172.1.1:1883,1551643579093,PRODUCED
Publisher_001,topicA,topicA-307,172.172.1.1:1883,1551643579189,PRODUCED
Publisher_001,topicA,topicA-308,172.172.1.1:1883,1551643579289,PRODUCED
Publisher_001,topicA,topicA-309,172.172.1.1:1883,1551643579391,PRODUCED
Publisher_001,topicA,topicA-310,172.172.1.1:1883,1551643579487,PRODUCED
Publisher_001,topicA,topicA-311,172.172.1.1:1883,1551643579588,PRODUCED
Publisher_001,topicA,topicA-312,172.172.1.1:1883,1551643579688,PRODUCED
Publisher_001,topicA,topicA-313,172.172.1.1:1883,1551643579793,PRODUCED
Publisher_001,topicA,topicA-314,172.172.1.1:1883,1551643579892,PRODUCED
Publisher_001,topicA,topicA-315,172.172.1.1:1883,1551643579987,PRODUCED
Publisher_001,topicA,topicA-316,172.172.1.1:1883,1551643580091,PRODUCED
Publisher_001,topicA,topicA-317,172.172.1.1:1883,1551643580187,PRODUCED
Publisher_001,topicA,topicA-318,172.172.1.1:1883,1551643580291,PRODUCED
Publisher_001,topicA,topicA-319,172.172.1.1:1883,1551643580388,PRODUCED
Publisher_001,topicA,topicA-320,172.172.1.1:1883,1551643580489,PRODUCED
Publisher_001,topicA,topicA-321,172.172.1.1:1883,1551643580593,PRODUCED
Publisher_001,topicA,topicA-322,172.172.1.1:1883,1551643580694,PRODUCED
Publisher_001,topicA,topicA-323,172.172.1.1:1883,1551643580787,PRODUCED
Publisher_001,topicA,topicA-324,172.172.1.1:1883,1551643580888,PRODUCED
Publisher_001,topicA,topicA-325,172.172.1.1:1883,1551643580992,PRODUCED
Publisher_001,topicA,topicA-326,172.172.1.1:1883,1551643581092,PRODUCED
Publisher_001,topicA,topicA-327,172.172.1.1:1883,1551643581189,PRODUCED
Publisher_001,topicA,topicA-328,172.172.1.1:1883,1551643581288,PRODUCED
Publisher_001,topicA,topicA-329,172.172.1.1:1883,1551643581387,PRODUCED
Publisher_001,topicA,topicA-330,172.172.1.1:1883,1551643581487,PRODUCED
Publisher_001,topicA,topicA-331,172.172.1.1:1883,1551643581587,PRODUCED
Publisher_001,topicA,topicA-332,172.172.1.1:1883,1551643581688,PRODUCED
Publisher_001,topicA,topicA-333,172.172.1.1:1883,1551643581787,PRODUCED
Publisher_001,topicA,topicA-334,172.172.1.1:1883,1551643581888,PRODUCED
Publisher_001,topicA,topicA-335,172.172.1.1:1883,1551643581990,PRODUCED
Publisher_001,topicA,topicA-336,172.172.1.1:1883,1551643582088,PRODUCED
Publisher_001,topicA,topicA-337,172.172.1.1:1883,1551643582187,PRODUCED
Publisher_001,topicA,topicA-338,172.172.1.1:1883,1551643582289,PRODUCED
Publisher_001,topicA,topicA-339,172.172.1.1:1883,1551643582388,PRODUCED
Publisher_001,topicA,topicA-340,172.172.1.1:1883,1551643582487,PRODUCED
Publisher_001,topicA,topicA-341,172.172.1.1:1883,1551643582587,PRODUCED
Publisher_001,topicA,topicA-342,172.172.1.1:1883,1551643582688,PRODUCED
Publisher_001,topicA,topicA-343,172.172.1.1:1883,1551643582787,PRODUCED
Publisher_001,topicA,topicA-344,172.172.1.1:1883,1551643582887,PRODUCED
Publisher_001,topicA,topicA-345,172.172.1.1:1883,1551643582988,PRODUCED
Publisher_001,topicA,topicA-346,172.172.1.1:1883,1551643583089,PRODUCED
Publisher_001,topicA,topicA-347,172.172.1.1:1883,1551643583190,PRODUCED
Publisher_001,topicA,topicA-348,172.172.1.1:1883,1551643583290,PRODUCED
Publisher_001,topicA,topicA-349,172.172.1.1:1883,1551643583389,PRODUCED
Publisher_001,topicA,topicA-350,172.172.1.1:1883,1551643583489,PRODUCED
Publisher_001,topicA,topicA-351,172.172.1.1:1883,1551643583588,PRODUCED
Publisher_001,topicA,topicA-352,172.172.1.1:1883,1551643583689,PRODUCED
Publisher_001,topicA,topicA-353,172.172.1.1:1883,1551643583792,PRODUCED
Publisher_001,topicA,topicA-354,172.172.1.1:1883,1551643583887,PRODUCED
Publisher_001,topicA,topicA-355,172.172.1.1:1883,1551643583993,PRODUCED
Publisher_001,topicA,topicA-356,172.172.1.1:1883,1551643584087,PRODUCED
Publisher_001,topicA,topicA-357,172.172.1.1:1883,1551643584188,PRODUCED
Publisher_001,topicA,topicA-358,172.172.1.1:1883,1551643584287,PRODUCED
Publisher_001,topicA,topicA-359,172.172.1.1:1883,1551643584387,PRODUCED
Publisher_001,topicA,topicA-360,172.172.1.1:1883,1551643584489,PRODUCED
Publisher_001,topicA,topicA-361,172.172.1.1:1883,1551643584587,PRODUCED
Publisher_001,topicA,topicA-362,172.172.1.1:1883,1551643584688,PRODUCED
Publisher_001,topicA,topicA-363,172.172.1.1:1883,1551643584787,PRODUCED
Publisher_001,topicA,topicA-364,172.172.1.1:1883,1551643584887,PRODUCED
Publisher_001,topicA,topicA-365,172.172.1.1:1883,1551643584988,PRODUCED
Publisher_001,topicA,topicA-366,172.172.1.1:1883,1551643585089,PRODUCED
Publisher_001,topicA,topicA-367,172.172.1.1:1883,1551643585191,PRODUCED
Publisher_001,topicA,topicA-368,172.172.1.1:1883,1551643585287,PRODUCED
Publisher_001,topicA,topicA-369,172.172.1.1:1883,1551643585388,PRODUCED
Publisher_001,topicA,topicA-370,172.172.1.1:1883,1551643585490,PRODUCED
Publisher_001,topicA,topicA-371,172.172.1.1:1883,1551643585588,PRODUCED
Publisher_001,topicA,topicA-372,172.172.1.1:1883,1551643585688,PRODUCED
Publisher_001,topicA,topicA-373,172.172.1.1:1883,1551643585791,PRODUCED
Publisher_001,topicA,topicA-374,172.172.1.1:1883,1551643585887,PRODUCED
Publisher_001,topicA,topicA-375,172.172.1.1:1883,1551643585987,PRODUCED
Publisher_001,topicA,topicA-376,172.172.1.1:1883,1551643586087,PRODUCED
Publisher_001,topicA,topicA-377,172.172.1.1:1883,1551643586191,PRODUCED
Publisher_001,topicA,topicA-378,172.172.1.1:1883,1551643586289,PRODUCED
Publisher_001,topicA,topicA-379,172.172.1.1:1883,1551643586387,PRODUCED
Publisher_001,topicA,topicA-380,172.172.1.1:1883,1551643586487,PRODUCED
Publisher_001,topicA,topicA-381,172.172.1.1:1883,1551643586587,PRODUCED
Publisher_001,topicA,topicA-382,172.172.1.1:1883,1551643586688,PRODUCED
Publisher_001,topicA,topicA-383,172.172.1.1:1883,1551643586791,PRODUCED
Publisher_001,topicA,topicA-384,172.172.1.1:1883,1551643586887,PRODUCED
Publisher_001,topicA,topicA-385,172.172.1.1:1883,1551643586988,PRODUCED
Publisher_001,topicA,topicA-386,172.172.1.1:1883,1551643587090,PRODUCED
Publisher_001,topicA,topicA-387,172.172.1.1:1883,1551643587188,PRODUCED
Publisher_001,topicA,topicA-388,172.172.1.1:1883,1551643587287,PRODUCED
Publisher_001,topicA,topicA-389,172.172.1.1:1883,1551643587389,PRODUCED
Publisher_001,topicA,topicA-390,172.172.1.1:1883,1551643587489,PRODUCED
Publisher_001,topicA,topicA-391,172.172.1.1:1883,1551643587587,PRODUCED
Publisher_001,topicA,topicA-392,172.172.1.1:1883,1551643587690,PRODUCED
Publisher_001,topicA,topicA-393,172.172.1.1:1883,1551643587794,PRODUCED
Publisher_001,topicA,topicA-394,172.172.1.1:1883,1551643587893,PRODUCED
Publisher_001,topicA,topicA-395,172.172.1.1:1883,1551643587990,PRODUCED
Publisher_001,topicA,topicA-396,172.172.1.1:1883,1551643588088,PRODUCED
Publisher_001,topicA,topicA-397,172.172.1.1:1883,1551643588188,PRODUCED
Publisher_001,topicA,topicA-398,172.172.1.1:1883,1551643588288,PRODUCED
Publisher_001,topicA,topicA-399,172.172.1.1:1883,1551643588387,PRODUCED
Publisher_001,topicA,topicA-400,172.172.1.1:1883,1551643588487,PRODUCED
Publisher_001,topicA,topicA-401,172.172.1.1:1883,1551643588589,PRODUCED
Publisher_001,topicA,topicA-402,172.172.1.1:1883,1551643588689,PRODUCED
Publisher_001,topicA,topicA-403,172.172.1.1:1883,1551643588792,PRODUCED
Publisher_001,topicA,topicA-404,172.172.1.1:1883,1551643588893,PRODUCED
Publisher_001,topicA,topicA-405,172.172.1.1:1883,1551643588994,PRODUCED
Publisher_001,topicA,topicA-406,172.172.1.1:1883,1551643589087,PRODUCED
Publisher_001,topicA,topicA-407,172.172.1.1:1883,1551643589191,PRODUCED
Publisher_001,topicA,topicA-408,172.172.1.1:1883,1551643589288,PRODUCED
Publisher_001,topicA,topicA-409,172.172.1.1:1883,1551643589391,PRODUCED
Publisher_001,topicA,topicA-410,172.172.1.1:1883,1551643589488,PRODUCED
Publisher_001,topicA,topicA-411,172.172.1.1:1883,1551643589589,PRODUCED
Publisher_001,topicA,topicA-412,172.172.1.1:1883,1551643589687,PRODUCED
Publisher_001,topicA,topicA-413,172.172.1.1:1883,1551643589788,PRODUCED
Publisher_001,topicA,topicA-414,172.172.1.1:1883,1551643589888,PRODUCED
Publisher_001,topicA,topicA-415,172.172.1.1:1883,1551643589988,PRODUCED
Publisher_001,topicA,topicA-416,172.172.1.1:1883,1551643590089,PRODUCED
Publisher_001,topicA,topicA-417,172.172.1.1:1883,1551643590192,PRODUCED
Publisher_001,topicA,topicA-418,172.172.1.1:1883,1551643590287,PRODUCED
Publisher_001,topicA,topicA-419,172.172.1.1:1883,1551643590389,PRODUCED
Publisher_001,topicA,topicA-420,172.172.1.1:1883,1551643590490,PRODUCED
Publisher_001,topicA,topicA-421,172.172.1.1:1883,1551643590587,PRODUCED
Publisher_001,topicA,topicA-422,172.172.1.1:1883,1551643590688,PRODUCED
Publisher_001,topicA,topicA-423,172.172.1.1:1883,1551643590788,PRODUCED
Publisher_001,topicA,topicA-424,172.172.1.1:1883,1551643590888,PRODUCED
Publisher_001,topicA,topicA-425,172.172.1.1:1883,1551643590989,PRODUCED
Publisher_001,topicA,topicA-426,172.172.1.1:1883,1551643591089,PRODUCED
Publisher_001,topicA,topicA-427,172.172.1.1:1883,1551643591187,PRODUCED
Publisher_001,topicA,topicA-428,172.172.1.1:1883,1551643591287,PRODUCED
Publisher_001,topicA,topicA-429,172.172.1.1:1883,1551643591394,PRODUCED
Publisher_001,topicA,topicA-430,172.172.1.1:1883,1551643591494,PRODUCED
Publisher_001,topicA,topicA-431,172.172.1.1:1883,1551643591588,PRODUCED
Publisher_001,topicA,topicA-432,172.172.1.1:1883,1551643591689,PRODUCED
Publisher_001,topicA,topicA-433,172.172.1.1:1883,1551643591792,PRODUCED
Publisher_001,topicA,topicA-434,172.172.1.1:1883,1551643591887,PRODUCED
Publisher_001,topicA,topicA-435,172.172.1.1:1883,1551643591987,PRODUCED
Publisher_001,topicA,topicA-436,172.172.1.1:1883,1551643592087,PRODUCED
Publisher_001,topicA,topicA-437,172.172.1.1:1883,1551643592193,PRODUCED
Publisher_001,topicA,topicA-438,172.172.1.1:1883,1551643592294,PRODUCED
Publisher_001,topicA,topicA-439,172.172.1.1:1883,1551643592393,PRODUCED
Publisher_001,topicA,topicA-440,172.172.1.1:1883,1551643592488,PRODUCED
Publisher_001,topicA,topicA-441,172.172.1.1:1883,1551643592587,PRODUCED
Publisher_001,topicA,topicA-442,172.172.1.1:1883,1551643592690,PRODUCED
Publisher_001,topicA,topicA-443,172.172.1.1:1883,1551643592788,PRODUCED
Publisher_001,topicA,topicA-444,172.172.1.1:1883,1551643592889,PRODUCED
Publisher_001,topicA,topicA-445,172.172.1.1:1883,1551643592987,PRODUCED
Publisher_001,topicA,topicA-446,172.172.1.1:1883,1551643593092,PRODUCED
Publisher_001,topicA,topicA-447,172.172.1.1:1883,1551643593188,PRODUCED
Publisher_001,topicA,topicA-448,172.172.1.1:1883,1551643593288,PRODUCED
Publisher_001,topicA,topicA-449,172.172.1.1:1883,1551643593388,PRODUCED
Publisher_001,topicA,topicA-450,172.172.1.1:1883,1551643593487,PRODUCED
Publisher_001,topicA,topicA-451,172.172.1.1:1883,1551643593587,PRODUCED
Publisher_001,topicA,topicA-452,172.172.1.1:1883,1551643593687,PRODUCED
Publisher_001,topicA,topicA-453,172.172.1.1:1883,1551643593787,PRODUCED
Publisher_001,topicA,topicA-454,172.172.1.1:1883,1551643593887,PRODUCED
Publisher_001,topicA,topicA-455,172.172.1.1:1883,1551643593988,PRODUCED
Publisher_001,topicA,topicA-456,172.172.1.1:1883,1551643594087,PRODUCED
Publisher_001,topicA,topicA-457,172.172.1.1:1883,1551643594187,PRODUCED
Publisher_001,topicA,topicA-458,172.172.1.1:1883,1551643594288,PRODUCED
Publisher_001,topicA,topicA-459,172.172.1.1:1883,1551643594387,PRODUCED
Publisher_001,topicA,topicA-460,172.172.1.1:1883,1551643594488,PRODUCED
Publisher_001,topicA,topicA-461,172.172.1.1:1883,1551643594590,PRODUCED
Publisher_001,topicA,topicA-462,172.172.1.1:1883,1551643594687,PRODUCED
Publisher_001,topicA,topicA-463,172.172.1.1:1883,1551643594794,PRODUCED
Publisher_001,topicA,topicA-464,172.172.1.1:1883,1551643594887,PRODUCED
Publisher_001,topicA,topicA-465,172.172.1.1:1883,1551643594987,PRODUCED
Publisher_001,topicA,topicA-466,172.172.1.1:1883,1551643595087,PRODUCED
Publisher_001,topicA,topicA-467,172.172.1.1:1883,1551643595187,PRODUCED
Publisher_001,topicA,topicA-468,172.172.1.1:1883,1551643595294,PRODUCED
Publisher_001,topicA,topicA-469,172.172.1.1:1883,1551643595387,PRODUCED
Publisher_001,topicA,topicA-470,172.172.1.1:1883,1551643595490,PRODUCED
Publisher_001,topicA,topicA-471,172.172.1.1:1883,1551643595588,PRODUCED
Publisher_001,topicA,topicA-472,172.172.1.1:1883,1551643595687,PRODUCED
Publisher_001,topicA,topicA-473,172.172.1.1:1883,1551643595787,PRODUCED
Publisher_001,topicA,topicA-474,172.172.1.1:1883,1551643595889,PRODUCED
Publisher_001,topicA,topicA-475,172.172.1.1:1883,1551643595987,PRODUCED
Publisher_001,topicA,topicA-476,172.172.1.1:1883,1551643596089,PRODUCED
Publisher_001,topicA,topicA-477,172.172.1.1:1883,1551643596187,PRODUCED
Publisher_001,topicA,topicA-478,172.172.1.1:1883,1551643596287,PRODUCED
Publisher_001,topicA,topicA-479,172.172.1.1:1883,1551643596387,PRODUCED
Publisher_001,topicA,topicA-480,172.172.1.1:1883,1551643596487,PRODUCED
Publisher_001,topicA,topicA-481,172.172.1.1:1883,1551643596587,PRODUCED
Publisher_001,topicA,topicA-482,172.172.1.1:1883,1551643596687,PRODUCED
Publisher_001,topicA,topicA-483,172.172.1.1:1883,1551643596787,PRODUCED
Publisher_001,topicA,topicA-484,172.172.1.1:1883,1551643596887,PRODUCED
Publisher_001,topicA,topicA-485,172.172.1.1:1883,1551643596987,PRODUCED
Publisher_001,topicA,topicA-486,172.172.1.1:1883,1551643597087,PRODUCED
Publisher_001,topicA,topicA-487,172.172.1.1:1883,1551643597187,PRODUCED
Publisher_001,topicA,topicA-488,172.172.1.1:1883,1551643597287,PRODUCED
Publisher_001,topicA,topicA-489,172.172.1.1:1883,1551643597389,PRODUCED
Publisher_001,topicA,topicA-490,172.172.1.1:1883,1551643597487,PRODUCED
Publisher_001,topicA,topicA-491,172.172.1.1:1883,1551643597587,PRODUCED
Publisher_001,topicA,topicA-492,172.172.1.1:1883,1551643597687,PRODUCED
Publisher_001,topicA,topicA-493,172.172.1.1:1883,1551643597787,PRODUCED
Publisher_001,topicA,topicA-494,172.172.1.1:1883,1551643597887,PRODUCED
Publisher_001,topicA,topicA-495,172.172.1.1:1883,1551643597988,PRODUCED
Publisher_001,topicA,topicA-496,172.172.1.1:1883,1551643598088,PRODUCED
Publisher_001,topicA,topicA-497,172.172.1.1:1883,1551643598188,PRODUCED
Publisher_001,topicA,topicA-498,172.172.1.1:1883,1551643598288,PRODUCED
Publisher_001,topicA,topicA-499,172.172.1.1:1883,1551643598394,PRODUCED
Publisher_001,topicA,topicA-500,172.172.1.1:1883,1551643598488,PRODUCED
Publisher_001,topicA,topicA-501,172.172.1.1:1883,1551643598589,PRODUCED
Publisher_001,topicA,topicA-502,172.172.1.1:1883,1551643598688,PRODUCED
Publisher_001,topicA,topicA-503,172.172.1.1:1883,1551643598787,PRODUCED
Publisher_001,topicA,topicA-504,172.172.1.1:1883,1551643598891,PRODUCED
Publisher_001,topicA,topicA-505,172.172.1.1:1883,1551643598987,PRODUCED
Publisher_001,topicA,topicA-506,172.172.1.1:1883,1551643599092,PRODUCED
Publisher_001,topicA,topicA-507,172.172.1.1:1883,1551643599188,PRODUCED
Publisher_001,topicA,topicA-508,172.172.1.1:1883,1551643599290,PRODUCED
Publisher_001,topicA,topicA-509,172.172.1.1:1883,1551643599389,PRODUCED
Publisher_001,topicA,topicA-510,172.172.1.1:1883,1551643599494,PRODUCED
Publisher_001,topicA,topicA-511,172.172.1.1:1883,1551643599593,PRODUCED
Publisher_001,topicA,topicA-512,172.172.1.1:1883,1551643599690,PRODUCED
Publisher_001,topicA,topicA-513,172.172.1.1:1883,1551643599787,PRODUCED
Publisher_001,topicA,topicA-514,172.172.1.1:1883,1551643599888,PRODUCED
Publisher_001,topicA,topicA-515,172.172.1.1:1883,1551643599988,PRODUCED
Publisher_001,topicA,topicA-516,172.172.1.1:1883,1551643600088,PRODUCED
Publisher_001,topicA,topicA-517,172.172.1.1:1883,1551643600188,PRODUCED
Publisher_001,topicA,topicA-518,172.172.1.1:1883,1551643600288,PRODUCED
Publisher_001,topicA,topicA-519,172.172.1.1:1883,1551643600387,PRODUCED
Publisher_001,topicA,topicA-520,172.172.1.1:1883,1551643600487,PRODUCED
Publisher_001,topicA,topicA-521,172.172.1.1:1883,1551643600588,PRODUCED
Publisher_001,topicA,topicA-522,172.172.1.1:1883,1551643600687,PRODUCED
Publisher_001,topicA,topicA-523,172.172.1.1:1883,1551643600787,PRODUCED
Publisher_001,topicA,topicA-524,172.172.1.1:1883,1551643600888,PRODUCED
Publisher_001,topicA,topicA-525,172.172.1.1:1883,1551643600988,PRODUCED
Publisher_001,topicA,topicA-526,172.172.1.1:1883,1551643601088,PRODUCED
Publisher_001,topicA,topicA-527,172.172.1.1:1883,1551643601189,PRODUCED
Publisher_001,topicA,topicA-528,172.172.1.1:1883,1551643601288,PRODUCED
Publisher_001,topicA,topicA-529,172.172.1.1:1883,1551643601388,PRODUCED
Publisher_001,topicA,topicA-530,172.172.1.1:1883,1551643601487,PRODUCED
Publisher_001,topicA,topicA-531,172.172.1.1:1883,1551643601588,PRODUCED
Publisher_001,topicA,topicA-532,172.172.1.1:1883,1551643601689,PRODUCED
Publisher_001,topicA,topicA-533,172.172.1.1:1883,1551643601792,PRODUCED
Publisher_001,topicA,topicA-534,172.172.1.1:1883,1551643601893,PRODUCED
Publisher_001,topicA,topicA-535,172.172.1.1:1883,1551643601991,PRODUCED
Publisher_001,topicA,topicA-536,172.172.1.1:1883,1551643602090,PRODUCED
Publisher_001,topicA,topicA-537,172.172.1.1:1883,1551643602193,PRODUCED
Publisher_001,topicA,topicA-538,172.172.1.1:1883,1551643602294,PRODUCED
Publisher_001,topicA,topicA-539,172.172.1.1:1883,1551643602388,PRODUCED
Publisher_001,topicA,topicA-540,172.172.1.1:1883,1551643602487,PRODUCED
Publisher_001,topicA,topicA-541,172.172.1.1:1883,1551643602588,PRODUCED
Publisher_001,topicA,topicA-542,172.172.1.1:1883,1551643602688,PRODUCED
Publisher_001,topicA,topicA-543,172.172.1.1:1883,1551643602788,PRODUCED
Publisher_001,topicA,topicA-544,172.172.1.1:1883,1551643602888,PRODUCED
Publisher_001,topicA,topicA-545,172.172.1.1:1883,1551643602988,PRODUCED
Publisher_001,topicA,topicA-546,172.172.1.1:1883,1551643603088,PRODUCED
Publisher_001,topicA,topicA-547,172.172.1.1:1883,1551643603188,PRODUCED
Publisher_001,topicA,topicA-548,172.172.1.1:1883,1551643603288,PRODUCED
Publisher_001,topicA,topicA-549,172.172.1.1:1883,1551643603388,PRODUCED
Publisher_001,topicA,topicA-550,172.172.1.1:1883,1551643603488,PRODUCED
Publisher_001,topicA,topicA-551,172.172.1.1:1883,1551643603587,PRODUCED
Publisher_001,topicA,topicA-552,172.172.1.1:1883,1551643603688,PRODUCED
Publisher_001,topicA,topicA-553,172.172.1.1:1883,1551643603787,PRODUCED
Publisher_001,topicA,topicA-554,172.172.1.1:1883,1551643603888,PRODUCED
Publisher_001,topicA,topicA-555,172.172.1.1:1883,1551643603987,PRODUCED
Publisher_001,topicA,topicA-556,172.172.1.1:1883,1551643604088,PRODUCED
Publisher_001,topicA,topicA-557,172.172.1.1:1883,1551643604188,PRODUCED
Publisher_001,topicA,topicA-558,172.172.1.1:1883,1551643604288,PRODUCED
Publisher_001,topicA,topicA-559,172.172.1.1:1883,1551643604392,PRODUCED
Publisher_001,topicA,topicA-560,172.172.1.1:1883,1551643604490,PRODUCED
Publisher_001,topicA,topicA-561,172.172.1.1:1883,1551643604588,PRODUCED
Publisher_001,topicA,topicA-562,172.172.1.1:1883,1551643604687,PRODUCED
Publisher_001,topicA,topicA-563,172.172.1.1:1883,1551643604788,PRODUCED
Publisher_001,topicA,topicA-564,172.172.1.1:1883,1551643604887,PRODUCED
Publisher_001,topicA,topicA-565,172.172.1.1:1883,1551643604987,PRODUCED
Publisher_001,topicA,topicA-566,172.172.1.1:1883,1551643605088,PRODUCED
Publisher_001,topicA,topicA-567,172.172.1.1:1883,1551643605189,PRODUCED
Publisher_001,topicA,topicA-568,172.172.1.1:1883,1551643605290,PRODUCED
Publisher_001,topicA,topicA-569,172.172.1.1:1883,1551643605388,PRODUCED
Publisher_001,topicA,topicA-570,172.172.1.1:1883,1551643605489,PRODUCED
Publisher_001,topicA,topicA-571,172.172.1.1:1883,1551643605592,PRODUCED
Publisher_001,topicA,topicA-572,172.172.1.1:1883,1551643605689,PRODUCED
Publisher_001,topicA,topicA-573,172.172.1.1:1883,1551643605788,PRODUCED
Publisher_001,topicA,topicA-574,172.172.1.1:1883,1551643605889,PRODUCED
Publisher_001,topicA,topicA-575,172.172.1.1:1883,1551643605992,PRODUCED
Publisher_001,topicA,topicA-576,172.172.1.1:1883,1551643606090,PRODUCED
Publisher_001,topicA,topicA-577,172.172.1.1:1883,1551643606194,PRODUCED
Publisher_001,topicA,topicA-578,172.172.1.1:1883,1551643606288,PRODUCED
Publisher_001,topicA,topicA-579,172.172.1.1:1883,1551643606389,PRODUCED
Publisher_001,topicA,topicA-580,172.172.1.1:1883,1551643606488,PRODUCED
Publisher_001,topicA,topicA-581,172.172.1.1:1883,1551643606588,PRODUCED
Publisher_001,topicA,topicA-582,172.172.1.1:1883,1551643606688,PRODUCED
Publisher_001,topicA,topicA-583,172.172.1.1:1883,1551643606788,PRODUCED
Publisher_001,topicA,topicA-584,172.172.1.1:1883,1551643606887,PRODUCED
Publisher_001,topicA,topicA-585,172.172.1.1:1883,1551643606988,PRODUCED
Publisher_001,topicA,topicA-586,172.172.1.1:1883,1551643607092,PRODUCED
Publisher_001,topicA,topicA-587,172.172.1.1:1883,1551643607188,PRODUCED
Publisher_001,topicA,topicA-588,172.172.1.1:1883,1551643607288,PRODUCED
Publisher_001,topicA,topicA-589,172.172.1.1:1883,1551643607389,PRODUCED
Publisher_001,topicA,topicA-590,172.172.1.1:1883,1551643607488,PRODUCED
Publisher_001,topicA,topicA-591,172.172.1.1:1883,1551643607588,PRODUCED
Publisher_001,topicA,topicA-592,172.172.1.1:1883,1551643607689,PRODUCED
Publisher_001,topicA,topicA-593,172.172.1.1:1883,1551643607788,PRODUCED
Publisher_001,topicA,topicA-594,172.172.1.1:1883,1551643607893,PRODUCED
Publisher_001,topicA,topicA-595,172.172.1.1:1883,1551643607987,PRODUCED
Publisher_001,topicA,topicA-596,172.172.1.1:1883,1551643608088,PRODUCED
Publisher_001,topicA,topicA-597,172.172.1.1:1883,1551643608192,PRODUCED
Publisher_001,topicA,topicA-598,172.172.1.1:1883,1551643608291,PRODUCED
Publisher_001,topicA,topicA-599,172.172.1.1:1883,1551643608387,PRODUCED
Publisher_001,topicA,topicA-600,172.172.1.1:1883,1551643608490,PRODUCED
Publisher_001,topicA,topicA-601,172.172.1.1:1883,1551643608588,PRODUCED
Publisher_001,topicA,topicA-602,172.172.1.1:1883,1551643608689,PRODUCED
Publisher_001,topicA,topicA-603,172.172.1.1:1883,1551643608788,PRODUCED
Publisher_001,topicA,topicA-604,172.172.1.1:1883,1551643608888,PRODUCED
Publisher_001,topicA,topicA-605,172.172.1.1:1883,1551643608988,PRODUCED
Publisher_001,topicA,topicA-606,172.172.1.1:1883,1551643609088,PRODUCED
Publisher_001,topicA,topicA-607,172.172.1.1:1883,1551643609188,PRODUCED
Publisher_001,topicA,topicA-608,172.172.1.1:1883,1551643609288,PRODUCED
Publisher_001,topicA,topicA-609,172.172.1.1:1883,1551643609388,PRODUCED
Publisher_001,topicA,topicA-610,172.172.1.1:1883,1551643609489,PRODUCED
Publisher_001,topicA,topicA-611,172.172.1.1:1883,1551643609588,PRODUCED
Publisher_001,topicA,topicA-612,172.172.1.1:1883,1551643609690,PRODUCED
Publisher_001,topicA,topicA-613,172.172.1.1:1883,1551643609788,PRODUCED
Publisher_001,topicA,topicA-614,172.172.1.1:1883,1551643609889,PRODUCED
Publisher_001,topicA,topicA-615,172.172.1.1:1883,1551643609988,PRODUCED
Publisher_001,topicA,topicA-616,172.172.1.1:1883,1551643610093,PRODUCED
Publisher_001,topicA,topicA-617,172.172.1.1:1883,1551643610188,PRODUCED
Publisher_001,topicA,topicA-618,172.172.1.1:1883,1551643610288,PRODUCED
Publisher_001,topicA,topicA-619,172.172.1.1:1883,1551643610388,PRODUCED
Publisher_001,topicA,topicA-620,172.172.1.1:1883,1551643610489,PRODUCED
Publisher_001,topicA,topicA-621,172.172.1.1:1883,1551643610592,PRODUCED
Publisher_001,topicA,topicA-622,172.172.1.1:1883,1551643610693,PRODUCED
Publisher_001,topicA,topicA-623,172.172.1.1:1883,1551643610787,PRODUCED
Publisher_001,topicA,topicA-624,172.172.1.1:1883,1551643610889,PRODUCED
Publisher_001,topicA,topicA-625,172.172.1.1:1883,1551643610992,PRODUCED
Publisher_001,topicA,topicA-626,172.172.1.1:1883,1551643611088,PRODUCED
Publisher_001,topicA,topicA-627,172.172.1.1:1883,1551643611189,PRODUCED
Publisher_001,topicA,topicA-628,172.172.1.1:1883,1551643611288,PRODUCED
Publisher_001,topicA,topicA-629,172.172.1.1:1883,1551643611388,PRODUCED
Publisher_001,topicA,topicA-630,172.172.1.1:1883,1551643611487,PRODUCED
Publisher_001,topicA,topicA-631,172.172.1.1:1883,1551643611590,PRODUCED
Publisher_001,topicA,topicA-632,172.172.1.1:1883,1551643611687,PRODUCED
Publisher_001,topicA,topicA-633,172.172.1.1:1883,1551643611787,PRODUCED
Publisher_001,topicA,topicA-634,172.172.1.1:1883,1551643611887,PRODUCED
Publisher_001,topicA,topicA-635,172.172.1.1:1883,1551643611989,PRODUCED
Publisher_001,topicA,topicA-636,172.172.1.1:1883,1551643612087,PRODUCED
Publisher_001,topicA,topicA-637,172.172.1.1:1883,1551643612187,PRODUCED
Publisher_001,topicA,topicA-638,172.172.1.1:1883,1551643612287,PRODUCED
Publisher_001,topicA,topicA-639,172.172.1.1:1883,1551643612387,PRODUCED
Publisher_001,topicA,topicA-640,172.172.1.1:1883,1551643612492,PRODUCED
Publisher_001,topicA,topicA-641,172.172.1.1:1883,1551643612595,PRODUCED
Publisher_001,topicA,topicA-642,172.172.1.1:1883,1551643612688,PRODUCED
Publisher_001,topicA,topicA-643,172.172.1.1:1883,1551643612788,PRODUCED
Publisher_001,topicA,topicA-644,172.172.1.1:1883,1551643612889,PRODUCED
Publisher_001,topicA,topicA-645,172.172.1.1:1883,1551643612988,PRODUCED
Publisher_001,topicA,topicA-646,172.172.1.1:1883,1551643613088,PRODUCED
Publisher_001,topicA,topicA-647,172.172.1.1:1883,1551643613188,PRODUCED
Publisher_001,topicA,topicA-648,172.172.1.1:1883,1551643613287,PRODUCED
Publisher_001,topicA,topicA-649,172.172.1.1:1883,1551643613387,PRODUCED
Publisher_001,topicA,topicA-650,172.172.1.1:1883,1551643613487,PRODUCED
Publisher_001,topicA,topicA-651,172.172.1.1:1883,1551643613587,PRODUCED
Publisher_001,topicA,topicA-652,172.172.1.1:1883,1551643613687,PRODUCED
Publisher_001,topicA,topicA-653,172.172.1.1:1883,1551643613787,PRODUCED
Publisher_001,topicA,topicA-654,172.172.1.1:1883,1551643613889,PRODUCED
Publisher_001,topicA,topicA-655,172.172.1.1:1883,1551643613987,PRODUCED
Publisher_001,topicA,topicA-656,172.172.1.1:1883,1551643614087,PRODUCED
Publisher_001,topicA,topicA-657,172.172.1.1:1883,1551643614187,PRODUCED
Publisher_001,topicA,topicA-658,172.172.1.1:1883,1551643614293,PRODUCED
Publisher_001,topicA,topicA-659,172.172.1.1:1883,1551643614387,PRODUCED
Publisher_001,topicA,topicA-660,172.172.1.1:1883,1551643614488,PRODUCED
Publisher_001,topicA,topicA-661,172.172.1.1:1883,1551643614589,PRODUCED
Publisher_001,topicA,topicA-662,172.172.1.1:1883,1551643614687,PRODUCED
Publisher_001,topicA,topicA-663,172.172.1.1:1883,1551643614787,PRODUCED
