[1] "Duration B1: 2486"
[1] "Duration B2: 2159"
[1] "Duration MIGRATE: 310"
[1] "Duration MIGACK: 17"
[1] "addrow"
[1] "INITIALIZED"
  timestamp       event                          migrationId
1         0 INITIALIZED 9a580560-311c-4e72-88f7-bd78fe0de377
[1] "addrow"
[1] "SYNCING"
  timestamp   event                          migrationId
3       567 SYNCING 9a580560-311c-4e72-88f7-bd78fe0de377
[1] "addrow"
[1] "SYNCED"
  timestamp  event                          migrationId
6      2414 SYNCED 9a580560-311c-4e72-88f7-bd78fe0de377
[1] "addrow"
[1] "FINISHED"
  timestamp    event                          migrationId
8      2486 FINISHED 9a580560-311c-4e72-88f7-bd78fe0de377
[1] "addrow"
[1] "topicA-INITIALIZED"
  timestamp              event                          migrationId
2         8 topicA-INITIALIZED 9a580560-311c-4e72-88f7-bd78fe0de377
[1] "addrow"
[1] "topicA-SYNCING"
  timestamp          event                          migrationId
4       571 topicA-SYNCING 9a580560-311c-4e72-88f7-bd78fe0de377
[1] "addrow"
[1] "topicA-SYNCED"
  timestamp         event                          migrationId
5      2412 topicA-SYNCED 9a580560-311c-4e72-88f7-bd78fe0de377
[1] "addrow"
[1] "topicA-FINISHED"
  timestamp           event                          migrationId
7      2485 topicA-FINISHED 9a580560-311c-4e72-88f7-bd78fe0de377
[1] "addrow"
[1] "INITIALIZED"
  timestamp       event                          migrationId
1         0 INITIALIZED 9a580560-311c-4e72-88f7-bd78fe0de377
[1] "addrow"
[1] "SYNCING"
  timestamp   event                          migrationId
3       567 SYNCING 9a580560-311c-4e72-88f7-bd78fe0de377
[1] "addrow"
[1] "SYNCED"
  timestamp  event                          migrationId
6      2414 SYNCED 9a580560-311c-4e72-88f7-bd78fe0de377
[1] "addrow"
[1] "FINISHED"
  timestamp    event                          migrationId
8      2486 FINISHED 9a580560-311c-4e72-88f7-bd78fe0de377
[1] "addrow"
[1] "topicA-INITIALIZED"
  timestamp              event                          migrationId
2         8 topicA-INITIALIZED 9a580560-311c-4e72-88f7-bd78fe0de377
[1] "addrow"
[1] "topicA-SYNCING"
  timestamp          event                          migrationId
4       571 topicA-SYNCING 9a580560-311c-4e72-88f7-bd78fe0de377
[1] "addrow"
[1] "topicA-SYNCED"
  timestamp         event                          migrationId
5      2412 topicA-SYNCED 9a580560-311c-4e72-88f7-bd78fe0de377
[1] "addrow"
[1] "topicA-FINISHED"
  timestamp           event                          migrationId
7      2485 topicA-FINISHED 9a580560-311c-4e72-88f7-bd78fe0de377
pdf 
  2 
[1] "addrow"
[1] "INITIALIZED"
  timestamp       event                          migrationId
1         0 INITIALIZED 9a580560-311c-4e72-88f7-bd78fe0de377
[1] "addrow"
[1] "SYNCING"
  timestamp   event                          migrationId
3       567 SYNCING 9a580560-311c-4e72-88f7-bd78fe0de377
[1] "addrow"
[1] "SYNCED"
  timestamp  event                          migrationId
6      2414 SYNCED 9a580560-311c-4e72-88f7-bd78fe0de377
[1] "addrow"
[1] "FINISHED"
  timestamp    event                          migrationId
8      2486 FINISHED 9a580560-311c-4e72-88f7-bd78fe0de377
[1] "addrow"
[1] "topicA-INITIALIZED"
  timestamp              event                          migrationId
2         8 topicA-INITIALIZED 9a580560-311c-4e72-88f7-bd78fe0de377
[1] "addrow"
[1] "topicA-SYNCING"
  timestamp          event                          migrationId
4       571 topicA-SYNCING 9a580560-311c-4e72-88f7-bd78fe0de377
[1] "addrow"
[1] "topicA-SYNCED"
  timestamp         event                          migrationId
5      2412 topicA-SYNCED 9a580560-311c-4e72-88f7-bd78fe0de377
[1] "addrow"
[1] "topicA-FINISHED"
  timestamp           event                          migrationId
7      2485 topicA-FINISHED 9a580560-311c-4e72-88f7-bd78fe0de377
pdf 
  2 
[1] "addrow"
[1] "INITIALIZED"
  timestamp       event                          migrationId
1       310 INITIALIZED 9a580560-311c-4e72-88f7-bd78fe0de377
[1] "addrow"
[1] "SYNCING"
  timestamp   event                          migrationId
4       520 SYNCING 9a580560-311c-4e72-88f7-bd78fe0de377
[1] "addrow"
[1] "SYNCED"
  timestamp  event                          migrationId
8      2460 SYNCED 9a580560-311c-4e72-88f7-bd78fe0de377
[1] "addrow"
[1] "FINISHED"
  timestamp    event                          migrationId
9      2469 FINISHED 9a580560-311c-4e72-88f7-bd78fe0de377
[1] "addrow"
[1] "topicA-INITIALIZED"
  timestamp              event                          migrationId
2       313 topicA-INITIALIZED 9a580560-311c-4e72-88f7-bd78fe0de377
[1] "addrow"
[1] "topicA-SYNCING"
  timestamp          event                          migrationId
3       519 topicA-SYNCING 9a580560-311c-4e72-88f7-bd78fe0de377
[1] "addrow"
[1] "topicA-SYNCED"
  timestamp         event                          migrationId
6      2459 topicA-SYNCED 9a580560-311c-4e72-88f7-bd78fe0de377
[1] "addrow"
[1] "topicA-FINISHED"
  timestamp           event                          migrationId
7      2467 topicA-FINISHED 9a580560-311c-4e72-88f7-bd78fe0de377
pdf 
  2 
[1] "addrow"
[1] "INITIALIZED"
  timestamp       event                          migrationId
1       310 INITIALIZED 9a580560-311c-4e72-88f7-bd78fe0de377
[1] "addrow"
[1] "SYNCING"
  timestamp   event                          migrationId
4       520 SYNCING 9a580560-311c-4e72-88f7-bd78fe0de377
[1] "addrow"
[1] "SYNCED"
  timestamp  event                          migrationId
8      2460 SYNCED 9a580560-311c-4e72-88f7-bd78fe0de377
[1] "addrow"
[1] "FINISHED"
  timestamp    event                          migrationId
9      2469 FINISHED 9a580560-311c-4e72-88f7-bd78fe0de377
[1] "addrow"
[1] "topicA-INITIALIZED"
  timestamp              event                          migrationId
2       313 topicA-INITIALIZED 9a580560-311c-4e72-88f7-bd78fe0de377
[1] "addrow"
[1] "topicA-SYNCING"
  timestamp          event                          migrationId
3       519 topicA-SYNCING 9a580560-311c-4e72-88f7-bd78fe0de377
[1] "addrow"
[1] "topicA-SYNCED"
  timestamp         event                          migrationId
6      2459 topicA-SYNCED 9a580560-311c-4e72-88f7-bd78fe0de377
[1] "addrow"
[1] "topicA-FINISHED"
  timestamp           event                          migrationId
7      2467 topicA-FINISHED 9a580560-311c-4e72-88f7-bd78fe0de377
pdf 
  2 
