clientId,topic,guid,broker,timestamp,type
Publisher_001,topicA,topicA-1,172.172.1.1:1883,1551650348106,PRODUCED
Publisher_001,topicA,topicA-2,172.172.1.1:1883,1551650348378,PRODUCED
Publisher_001,topicA,topicA-3,172.172.1.1:1883,1551650348384,PRODUCED
Publisher_001,topicA,topicA-4,172.172.1.1:1883,1551650348390,PRODUCED
Publisher_001,topicA,topicA-5,172.172.1.1:1883,1551650348396,PRODUCED
Publisher_001,topicA,topicA-6,172.172.1.1:1883,1551650348432,PRODUCED
Publisher_001,topicA,topicA-7,172.172.1.1:1883,1551650348533,PRODUCED
Publisher_001,topicA,topicA-8,172.172.1.1:1883,1551650348633,PRODUCED
Publisher_001,topicA,topicA-9,172.172.1.1:1883,1551650348737,PRODUCED
Publisher_001,topicA,topicA-10,172.172.1.1:1883,1551650348837,PRODUCED
Publisher_001,topicA,topicA-11,172.172.1.1:1883,1551650348936,PRODUCED
Publisher_001,topicA,topicA-12,172.172.1.1:1883,1551650349033,PRODUCED
Publisher_001,topicA,topicA-13,172.172.1.1:1883,1551650349133,PRODUCED
Publisher_001,topicA,topicA-14,172.172.1.1:1883,1551650349238,PRODUCED
Publisher_001,topicA,topicA-15,172.172.1.1:1883,1551650349334,PRODUCED
Publisher_001,topicA,topicA-16,172.172.1.1:1883,1551650349433,PRODUCED
Publisher_001,topicA,topicA-17,172.172.1.1:1883,1551650349534,PRODUCED
Publisher_001,topicA,topicA-18,172.172.1.1:1883,1551650349633,PRODUCED
Publisher_001,topicA,topicA-19,172.172.1.1:1883,1551650349732,PRODUCED
Publisher_001,topicA,topicA-20,172.172.1.1:1883,1551650349833,PRODUCED
Publisher_001,topicA,topicA-21,172.172.1.1:1883,1551650349933,PRODUCED
Publisher_001,topicA,topicA-22,172.172.1.1:1883,1551650350035,PRODUCED
Publisher_001,topicA,topicA-23,172.172.1.1:1883,1551650350134,PRODUCED
Publisher_001,topicA,topicA-24,172.172.1.1:1883,1551650350236,PRODUCED
Publisher_001,topicA,topicA-25,172.172.1.1:1883,1551650350333,PRODUCED
Publisher_001,topicA,topicA-26,172.172.1.1:1883,1551650350432,PRODUCED
Publisher_001,topicA,topicA-27,172.172.1.1:1883,1551650350532,PRODUCED
Publisher_001,topicA,topicA-28,172.172.1.1:1883,1551650350632,PRODUCED
Publisher_001,topicA,topicA-29,172.172.1.1:1883,1551650350732,PRODUCED
Publisher_001,topicA,topicA-30,172.172.1.1:1883,1551650350832,PRODUCED
Publisher_001,topicA,topicA-31,172.172.1.1:1883,1551650350932,PRODUCED
Publisher_001,topicA,topicA-32,172.172.1.1:1883,1551650351033,PRODUCED
Publisher_001,topicA,topicA-33,172.172.1.1:1883,1551650351132,PRODUCED
Publisher_001,topicA,topicA-34,172.172.1.1:1883,1551650351233,PRODUCED
Publisher_001,topicA,topicA-35,172.172.1.1:1883,1551650351333,PRODUCED
Publisher_001,topicA,topicA-36,172.172.1.1:1883,1551650351432,PRODUCED
Publisher_001,topicA,topicA-37,172.172.1.1:1883,1551650351532,PRODUCED
Publisher_001,topicA,topicA-38,172.172.1.1:1883,1551650351632,PRODUCED
Publisher_001,topicA,topicA-39,172.172.1.1:1883,1551650351732,PRODUCED
Publisher_001,topicA,topicA-40,172.172.1.1:1883,1551650351833,PRODUCED
Publisher_001,topicA,topicA-41,172.172.1.1:1883,1551650351933,PRODUCED
Publisher_001,topicA,topicA-42,172.172.1.1:1883,1551650352033,PRODUCED
Publisher_001,topicA,topicA-43,172.172.1.1:1883,1551650352133,PRODUCED
Publisher_001,topicA,topicA-44,172.172.1.1:1883,1551650352236,PRODUCED
Publisher_001,topicA,topicA-45,172.172.1.1:1883,1551650352335,PRODUCED
Publisher_001,topicA,topicA-46,172.172.1.1:1883,1551650352434,PRODUCED
Publisher_001,topicA,topicA-47,172.172.1.1:1883,1551650352533,PRODUCED
Publisher_001,topicA,topicA-48,172.172.1.1:1883,1551650352635,PRODUCED
Publisher_001,topicA,topicA-49,172.172.1.1:1883,1551650352733,PRODUCED
Publisher_001,topicA,topicA-50,172.172.1.1:1883,1551650352832,PRODUCED
Publisher_001,topicA,topicA-51,172.172.1.1:1883,1551650352933,PRODUCED
Publisher_001,topicA,topicA-52,172.172.1.1:1883,1551650353035,PRODUCED
Publisher_001,topicA,topicA-53,172.172.1.1:1883,1551650353132,PRODUCED
Publisher_001,topicA,topicA-54,172.172.1.1:1883,1551650353232,PRODUCED
Publisher_001,topicA,topicA-55,172.172.1.1:1883,1551650353337,PRODUCED
Publisher_001,topicA,topicA-56,172.172.1.1:1883,1551650353434,PRODUCED
Publisher_001,topicA,topicA-57,172.172.1.1:1883,1551650353533,PRODUCED
Publisher_001,topicA,topicA-58,172.172.1.1:1883,1551650353633,PRODUCED
Publisher_001,topicA,topicA-59,172.172.1.1:1883,1551650353732,PRODUCED
Publisher_001,topicA,topicA-60,172.172.1.1:1883,1551650353832,PRODUCED
Publisher_001,topicA,topicA-61,172.172.1.1:1883,1551650353932,PRODUCED
Publisher_001,topicA,topicA-62,172.172.1.1:1883,1551650354032,PRODUCED
Publisher_001,topicA,topicA-63,172.172.1.1:1883,1551650354133,PRODUCED
Publisher_001,topicA,topicA-64,172.172.1.1:1883,1551650354234,PRODUCED
Publisher_001,topicA,topicA-65,172.172.1.1:1883,1551650354332,PRODUCED
Publisher_001,topicA,topicA-66,172.172.1.1:1883,1551650354435,PRODUCED
Publisher_001,topicA,topicA-67,172.172.1.1:1883,1551650354532,PRODUCED
Publisher_001,topicA,topicA-68,172.172.1.1:1883,1551650354635,PRODUCED
Publisher_001,topicA,topicA-69,172.172.1.1:1883,1551650354732,PRODUCED
Publisher_001,topicA,topicA-70,172.172.1.1:1883,1551650354833,PRODUCED
Publisher_001,topicA,topicA-71,172.172.1.1:1883,1551650354932,PRODUCED
Publisher_001,topicA,topicA-72,172.172.1.1:1883,1551650355034,PRODUCED
Publisher_001,topicA,topicA-73,172.172.1.1:1883,1551650355132,PRODUCED
Publisher_001,topicA,topicA-74,172.172.1.1:1883,1551650355232,PRODUCED
Publisher_001,topicA,topicA-75,172.172.1.1:1883,1551650355333,PRODUCED
Publisher_001,topicA,topicA-76,172.172.1.1:1883,1551650355435,PRODUCED
Publisher_001,topicA,topicA-77,172.172.1.1:1883,1551650355532,PRODUCED
Publisher_001,topicA,topicA-78,172.172.1.1:1883,1551650355632,PRODUCED
Publisher_001,topicA,topicA-79,172.172.1.1:1883,1551650355732,PRODUCED
Publisher_001,topicA,topicA-80,172.172.1.1:1883,1551650355834,PRODUCED
Publisher_001,topicA,topicA-81,172.172.1.1:1883,1551650355932,PRODUCED
Publisher_001,topicA,topicA-82,172.172.1.1:1883,1551650356032,PRODUCED
Publisher_001,topicA,topicA-83,172.172.1.1:1883,1551650356132,PRODUCED
Publisher_001,topicA,topicA-84,172.172.1.1:1883,1551650356232,PRODUCED
Publisher_001,topicA,topicA-85,172.172.1.1:1883,1551650356332,PRODUCED
Publisher_001,topicA,topicA-86,172.172.1.1:1883,1551650356438,PRODUCED
Publisher_001,topicA,topicA-87,172.172.1.1:1883,1551650356533,PRODUCED
Publisher_001,topicA,topicA-88,172.172.1.1:1883,1551650356633,PRODUCED
Publisher_001,topicA,topicA-89,172.172.1.1:1883,1551650356737,PRODUCED
Publisher_001,topicA,topicA-90,172.172.1.1:1883,1551650356833,PRODUCED
Publisher_001,topicA,topicA-91,172.172.1.1:1883,1551650356935,PRODUCED
Publisher_001,topicA,topicA-92,172.172.1.1:1883,1551650357033,PRODUCED
Publisher_001,topicA,topicA-93,172.172.1.1:1883,1551650357137,PRODUCED
Publisher_001,topicA,topicA-94,172.172.1.1:1883,1551650357232,PRODUCED
Publisher_001,topicA,topicA-95,172.172.1.1:1883,1551650357334,PRODUCED
Publisher_001,topicA,topicA-96,172.172.1.1:1883,1551650357434,PRODUCED
Publisher_001,topicA,topicA-97,172.172.1.1:1883,1551650357532,PRODUCED
Publisher_001,topicA,topicA-98,172.172.1.1:1883,1551650357634,PRODUCED
Publisher_001,topicA,topicA-99,172.172.1.1:1883,1551650357733,PRODUCED
Publisher_001,topicA,topicA-100,172.172.1.1:1883,1551650357833,PRODUCED
Publisher_001,topicA,topicA-101,172.172.1.1:1883,1551650357932,PRODUCED
Publisher_001,topicA,topicA-102,172.172.1.1:1883,1551650358038,PRODUCED
Publisher_001,topicA,topicA-103,172.172.1.1:1883,1551650358140,PRODUCED
Publisher_001,topicA,topicA-104,172.172.1.1:1883,1551650358233,PRODUCED
Publisher_001,topicA,topicA-105,172.172.1.1:1883,1551650358332,PRODUCED
Publisher_001,topicA,topicA-106,172.172.1.1:1883,1551650358435,PRODUCED
Publisher_001,topicA,topicA-107,172.172.1.1:1883,1551650358533,PRODUCED
Publisher_001,topicA,topicA-108,172.172.1.1:1883,1551650358633,PRODUCED
Publisher_001,topicA,topicA-109,172.172.1.1:1883,1551650358732,PRODUCED
Publisher_001,topicA,topicA-110,172.172.1.1:1883,1551650358832,PRODUCED
Publisher_001,topicA,topicA-111,172.172.1.1:1883,1551650358933,PRODUCED
Publisher_001,topicA,topicA-112,172.172.1.1:1883,1551650359035,PRODUCED
Publisher_001,topicA,topicA-113,172.172.1.1:1883,1551650359132,PRODUCED
Publisher_001,topicA,topicA-114,172.172.1.1:1883,1551650359233,PRODUCED
Publisher_001,topicA,topicA-115,172.172.1.1:1883,1551650359333,PRODUCED
Publisher_001,topicA,topicA-116,172.172.1.1:1883,1551650359433,PRODUCED
Publisher_001,topicA,topicA-117,172.172.1.1:1883,1551650359532,PRODUCED
Publisher_001,topicA,topicA-118,172.172.1.1:1883,1551650359635,PRODUCED
Publisher_001,topicA,topicA-119,172.172.1.1:1883,1551650359732,PRODUCED
Publisher_001,topicA,topicA-120,172.172.1.1:1883,1551650359833,PRODUCED
Publisher_001,topicA,topicA-121,172.172.1.1:1883,1551650359932,PRODUCED
Publisher_001,topicA,topicA-122,172.172.1.1:1883,1551650360032,PRODUCED
Publisher_001,topicA,topicA-123,172.172.1.1:1883,1551650360134,PRODUCED
Publisher_001,topicA,topicA-124,172.172.1.1:1883,1551650360232,PRODUCED
Publisher_001,topicA,topicA-125,172.172.1.1:1883,1551650360342,PRODUCED
Publisher_001,topicA,topicA-126,172.172.1.1:1883,1551650360433,PRODUCED
Publisher_001,topicA,topicA-127,172.172.1.1:1883,1551650360532,PRODUCED
Publisher_001,topicA,topicA-128,172.172.1.1:1883,1551650360633,PRODUCED
Publisher_001,topicA,topicA-129,172.172.1.1:1883,1551650360733,PRODUCED
Publisher_001,topicA,topicA-130,172.172.1.1:1883,1551650360832,PRODUCED
Publisher_001,topicA,topicA-131,172.172.1.1:1883,1551650360932,PRODUCED
Publisher_001,topicA,topicA-132,172.172.1.1:1883,1551650361035,PRODUCED
Publisher_001,topicA,topicA-133,172.172.1.1:1883,1551650361135,PRODUCED
Publisher_001,topicA,topicA-134,172.172.1.1:1883,1551650361233,PRODUCED
Publisher_001,topicA,topicA-135,172.172.1.1:1883,1551650361335,PRODUCED
Publisher_001,topicA,topicA-136,172.172.1.1:1883,1551650361434,PRODUCED
Publisher_001,topicA,topicA-137,172.172.1.1:1883,1551650361532,PRODUCED
Publisher_001,topicA,topicA-138,172.172.1.1:1883,1551650361634,PRODUCED
Publisher_001,topicA,topicA-139,172.172.1.1:1883,1551650361736,PRODUCED
Publisher_001,topicA,topicA-140,172.172.1.1:1883,1551650361832,PRODUCED
Publisher_001,topicA,topicA-141,172.172.1.1:1883,1551650361933,PRODUCED
Publisher_001,topicA,topicA-142,172.172.1.1:1883,1551650362033,PRODUCED
Publisher_001,topicA,topicA-143,172.172.1.1:1883,1551650362133,PRODUCED
Publisher_001,topicA,topicA-144,172.172.1.1:1883,1551650362233,PRODUCED
Publisher_001,topicA,topicA-145,172.172.1.1:1883,1551650362333,PRODUCED
Publisher_001,topicA,topicA-146,172.172.1.1:1883,1551650362433,PRODUCED
Publisher_001,topicA,topicA-147,172.172.1.1:1883,1551650362533,PRODUCED
Publisher_001,topicA,topicA-148,172.172.1.1:1883,1551650362633,PRODUCED
Publisher_001,topicA,topicA-149,172.172.1.1:1883,1551650362733,PRODUCED
Publisher_001,topicA,topicA-150,172.172.1.1:1883,1551650362832,PRODUCED
Publisher_001,topicA,topicA-151,172.172.1.1:1883,1551650362933,PRODUCED
Publisher_001,topicA,topicA-152,172.172.1.1:1883,1551650363033,PRODUCED
Publisher_001,topicA,topicA-153,172.172.1.1:1883,1551650363135,PRODUCED
Publisher_001,topicA,topicA-154,172.172.1.1:1883,1551650363233,PRODUCED
Publisher_001,topicA,topicA-155,172.172.1.1:1883,1551650363333,PRODUCED
Publisher_001,topicA,topicA-156,172.172.1.1:1883,1551650363433,PRODUCED
Publisher_001,topicA,topicA-157,172.172.1.1:1883,1551650363533,PRODUCED
Publisher_001,topicA,topicA-158,172.172.1.1:1883,1551650363633,PRODUCED
Publisher_001,topicA,topicA-159,172.172.1.1:1883,1551650363733,PRODUCED
Publisher_001,topicA,topicA-160,172.172.1.1:1883,1551650363833,PRODUCED
Publisher_001,topicA,topicA-161,172.172.1.1:1883,1551650363936,PRODUCED
Publisher_001,topicA,topicA-162,172.172.1.1:1883,1551650364033,PRODUCED
Publisher_001,topicA,topicA-163,172.172.1.1:1883,1551650364132,PRODUCED
Publisher_001,topicA,topicA-164,172.172.1.1:1883,1551650364232,PRODUCED
Publisher_001,topicA,topicA-165,172.172.1.1:1883,1551650364333,PRODUCED
Publisher_001,topicA,topicA-166,172.172.1.1:1883,1551650364433,PRODUCED
Publisher_001,topicA,topicA-167,172.172.1.1:1883,1551650364534,PRODUCED
Publisher_001,topicA,topicA-168,172.172.1.1:1883,1551650364632,PRODUCED
Publisher_001,topicA,topicA-169,172.172.1.1:1883,1551650364732,PRODUCED
Publisher_001,topicA,topicA-170,172.172.1.1:1883,1551650364832,PRODUCED
Publisher_001,topicA,topicA-171,172.172.1.1:1883,1551650364933,PRODUCED
Publisher_001,topicA,topicA-172,172.172.1.1:1883,1551650365036,PRODUCED
Publisher_001,topicA,topicA-173,172.172.1.1:1883,1551650365134,PRODUCED
Publisher_001,topicA,topicA-174,172.172.1.1:1883,1551650365234,PRODUCED
Publisher_001,topicA,topicA-175,172.172.1.1:1883,1551650365334,PRODUCED
Publisher_001,topicA,topicA-176,172.172.1.1:1883,1551650365433,PRODUCED
Publisher_001,topicA,topicA-177,172.172.1.1:1883,1551650365532,PRODUCED
Publisher_001,topicA,topicA-178,172.172.1.1:1883,1551650365632,PRODUCED
Publisher_001,topicA,topicA-179,172.172.1.1:1883,1551650365736,PRODUCED
Publisher_001,topicA,topicA-180,172.172.1.1:1883,1551650365832,PRODUCED
Publisher_001,topicA,topicA-181,172.172.1.1:1883,1551650365933,PRODUCED
Publisher_001,topicA,topicA-182,172.172.1.1:1883,1551650366033,PRODUCED
Publisher_001,topicA,topicA-183,172.172.1.1:1883,1551650366134,PRODUCED
Publisher_001,topicA,topicA-184,172.172.1.1:1883,1551650366233,PRODUCED
Publisher_001,topicA,topicA-185,172.172.1.1:1883,1551650366333,PRODUCED
Publisher_001,topicA,topicA-186,172.172.1.1:1883,1551650366433,PRODUCED
Publisher_001,topicA,topicA-187,172.172.1.1:1883,1551650366535,PRODUCED
Publisher_001,topicA,topicA-188,172.172.1.1:1883,1551650366634,PRODUCED
Publisher_001,topicA,topicA-189,172.172.1.1:1883,1551650366733,PRODUCED
Publisher_001,topicA,topicA-190,172.172.1.1:1883,1551650366838,PRODUCED
Publisher_001,topicA,topicA-191,172.172.1.1:1883,1551650366933,PRODUCED
Publisher_001,topicA,topicA-192,172.172.1.1:1883,1551650367033,PRODUCED
Publisher_001,topicA,topicA-193,172.172.1.1:1883,1551650367133,PRODUCED
Publisher_001,topicA,topicA-194,172.172.1.1:1883,1551650367233,PRODUCED
Publisher_001,topicA,topicA-195,172.172.1.1:1883,1551650367334,PRODUCED
Publisher_001,topicA,topicA-196,172.172.1.1:1883,1551650367435,PRODUCED
Publisher_001,topicA,topicA-197,172.172.1.1:1883,1551650367533,PRODUCED
Publisher_001,topicA,topicA-198,172.172.1.1:1883,1551650367634,PRODUCED
Publisher_001,topicA,topicA-199,172.172.1.1:1883,1551650367734,PRODUCED
Publisher_001,topicA,topicA-200,172.172.1.1:1883,1551650367833,PRODUCED
Publisher_001,topicA,topicA-201,172.172.1.1:1883,1551650367933,PRODUCED
Publisher_001,topicA,topicA-202,172.172.1.1:1883,1551650368037,PRODUCED
Publisher_001,topicA,topicA-203,172.172.1.1:1883,1551650368133,PRODUCED
Publisher_001,topicA,topicA-204,172.172.1.1:1883,1551650368232,PRODUCED
Publisher_001,topicA,topicA-205,172.172.1.1:1883,1551650368333,PRODUCED
Publisher_001,topicA,topicA-206,172.172.1.1:1883,1551650368433,PRODUCED
Publisher_001,topicA,topicA-207,172.172.1.1:1883,1551650368532,PRODUCED
Publisher_001,topicA,topicA-208,172.172.1.1:1883,1551650368632,PRODUCED
Publisher_001,topicA,topicA-209,172.172.1.1:1883,1551650368732,PRODUCED
Publisher_001,topicA,topicA-210,172.172.1.1:1883,1551650368832,PRODUCED
Publisher_001,topicA,topicA-211,172.172.1.1:1883,1551650368936,PRODUCED
Publisher_001,topicA,topicA-212,172.172.1.1:1883,1551650369032,PRODUCED
Publisher_001,topicA,topicA-213,172.172.1.1:1883,1551650369132,PRODUCED
Publisher_001,topicA,topicA-214,172.172.1.1:1883,1551650369232,PRODUCED
Publisher_001,topicA,topicA-215,172.172.1.1:1883,1551650369332,PRODUCED
Publisher_001,topicA,topicA-216,172.172.1.1:1883,1551650369433,PRODUCED
Publisher_001,topicA,topicA-217,172.172.1.1:1883,1551650369532,PRODUCED
Publisher_001,topicA,topicA-218,172.172.1.1:1883,1551650369632,PRODUCED
Publisher_001,topicA,topicA-219,172.172.1.1:1883,1551650369734,PRODUCED
Publisher_001,topicA,topicA-220,172.172.1.1:1883,1551650369836,PRODUCED
Publisher_001,topicA,topicA-221,172.172.1.1:1883,1551650369932,PRODUCED
Publisher_001,topicA,topicA-222,172.172.1.1:1883,1551650370033,PRODUCED
Publisher_001,topicA,topicA-223,172.172.1.1:1883,1551650370133,PRODUCED
Publisher_001,topicA,topicA-224,172.172.1.1:1883,1551650370232,PRODUCED
Publisher_001,topicA,topicA-225,172.172.1.1:1883,1551650370332,PRODUCED
Publisher_001,topicA,topicA-226,172.172.1.1:1883,1551650370432,PRODUCED
Publisher_001,topicA,topicA-227,172.172.1.1:1883,1551650370532,PRODUCED
Publisher_001,topicA,topicA-228,172.172.1.1:1883,1551650370632,PRODUCED
Publisher_001,topicA,topicA-229,172.172.1.1:1883,1551650370733,PRODUCED
Publisher_001,topicA,topicA-230,172.172.1.1:1883,1551650370836,PRODUCED
Publisher_001,topicA,topicA-231,172.172.1.1:1883,1551650370932,PRODUCED
Publisher_001,topicA,topicA-232,172.172.1.1:1883,1551650371032,PRODUCED
Publisher_001,topicA,topicA-233,172.172.1.1:1883,1551650371132,PRODUCED
Publisher_001,topicA,topicA-234,172.172.1.1:1883,1551650371232,PRODUCED
Publisher_001,topicA,topicA-235,172.172.1.1:1883,1551650371332,PRODUCED
Publisher_001,topicA,topicA-236,172.172.1.1:1883,1551650371432,PRODUCED
Publisher_001,topicA,topicA-237,172.172.1.1:1883,1551650371532,PRODUCED
Publisher_001,topicA,topicA-238,172.172.1.1:1883,1551650371632,PRODUCED
Publisher_001,topicA,topicA-239,172.172.1.1:1883,1551650371732,PRODUCED
Publisher_001,topicA,topicA-240,172.172.1.1:1883,1551650371833,PRODUCED
Publisher_001,topicA,topicA-241,172.172.1.1:1883,1551650371934,PRODUCED
Publisher_001,topicA,topicA-242,172.172.1.1:1883,1551650372032,PRODUCED
Publisher_001,topicA,topicA-243,172.172.1.1:1883,1551650372132,PRODUCED
Publisher_001,topicA,topicA-244,172.172.1.1:1883,1551650372237,PRODUCED
Publisher_001,topicA,topicA-245,172.172.1.1:1883,1551650372332,PRODUCED
Publisher_001,topicA,topicA-246,172.172.1.1:1883,1551650372434,PRODUCED
Publisher_001,topicA,topicA-247,172.172.1.1:1883,1551650372536,PRODUCED
Publisher_001,topicA,topicA-248,172.172.1.1:1883,1551650372633,PRODUCED
Publisher_001,topicA,topicA-249,172.172.1.1:1883,1551650372734,PRODUCED
Publisher_001,topicA,topicA-250,172.172.1.1:1883,1551650372832,PRODUCED
Publisher_001,topicA,topicA-251,172.172.1.1:1883,1551650372933,PRODUCED
Publisher_001,topicA,topicA-252,172.172.1.1:1883,1551650373032,PRODUCED
Publisher_001,topicA,topicA-253,172.172.1.1:1883,1551650373133,PRODUCED
Publisher_001,topicA,topicA-254,172.172.1.1:1883,1551650373234,PRODUCED
Publisher_001,topicA,topicA-255,172.172.1.1:1883,1551650373333,PRODUCED
Publisher_001,topicA,topicA-256,172.172.1.1:1883,1551650373432,PRODUCED
Publisher_001,topicA,topicA-257,172.172.1.1:1883,1551650373532,PRODUCED
Publisher_001,topicA,topicA-258,172.172.1.1:1883,1551650373632,PRODUCED
Publisher_001,topicA,topicA-259,172.172.1.1:1883,1551650373732,PRODUCED
Publisher_001,topicA,topicA-260,172.172.1.1:1883,1551650373832,PRODUCED
Publisher_001,topicA,topicA-261,172.172.1.1:1883,1551650373932,PRODUCED
Publisher_001,topicA,topicA-262,172.172.1.1:1883,1551650374032,PRODUCED
Publisher_001,topicA,topicA-263,172.172.1.1:1883,1551650374132,PRODUCED
Publisher_001,topicA,topicA-264,172.172.1.1:1883,1551650374232,PRODUCED
Publisher_001,topicA,topicA-265,172.172.1.1:1883,1551650374341,PRODUCED
Publisher_001,topicA,topicA-266,172.172.1.1:1883,1551650374432,PRODUCED
Publisher_001,topicA,topicA-267,172.172.1.1:1883,1551650374532,PRODUCED
Publisher_001,topicA,topicA-268,172.172.1.1:1883,1551650374632,PRODUCED
Publisher_001,topicA,topicA-269,172.172.1.1:1883,1551650374732,PRODUCED
Publisher_001,topicA,topicA-270,172.172.1.1:1883,1551650374832,PRODUCED
Publisher_001,topicA,topicA-271,172.172.1.1:1883,1551650374932,PRODUCED
Publisher_001,topicA,topicA-272,172.172.1.1:1883,1551650375032,PRODUCED
Publisher_001,topicA,topicA-273,172.172.1.1:1883,1551650375132,PRODUCED
Publisher_001,topicA,topicA-274,172.172.1.1:1883,1551650375232,PRODUCED
Publisher_001,topicA,topicA-275,172.172.1.1:1883,1551650375332,PRODUCED
Publisher_001,topicA,topicA-276,172.172.1.1:1883,1551650375432,PRODUCED
Publisher_001,topicA,topicA-277,172.172.1.1:1883,1551650375532,PRODUCED
Publisher_001,topicA,topicA-278,172.172.1.1:1883,1551650375632,PRODUCED
Publisher_001,topicA,topicA-279,172.172.1.1:1883,1551650375732,PRODUCED
Publisher_001,topicA,topicA-280,172.172.1.1:1883,1551650375832,PRODUCED
Publisher_001,topicA,topicA-281,172.172.1.1:1883,1551650375933,PRODUCED
Publisher_001,topicA,topicA-282,172.172.1.1:1883,1551650376032,PRODUCED
Publisher_001,topicA,topicA-283,172.172.1.1:1883,1551650376132,PRODUCED
Publisher_001,topicA,topicA-284,172.172.1.1:1883,1551650376232,PRODUCED
Publisher_001,topicA,topicA-285,172.172.1.1:1883,1551650376340,PRODUCED
Publisher_001,topicA,topicA-286,172.172.1.1:1883,1551650376432,PRODUCED
Publisher_001,topicA,topicA-287,172.172.1.1:1883,1551650376532,PRODUCED
Publisher_001,topicA,topicA-288,172.172.1.1:1883,1551650376632,PRODUCED
Publisher_001,topicA,topicA-289,172.172.1.1:1883,1551650376732,PRODUCED
Publisher_001,topicA,topicA-290,172.172.1.1:1883,1551650376832,PRODUCED
Publisher_001,topicA,topicA-291,172.172.1.1:1883,1551650376932,PRODUCED
Publisher_001,topicA,topicA-292,172.172.1.1:1883,1551650377032,PRODUCED
Publisher_001,topicA,topicA-293,172.172.1.1:1883,1551650377132,PRODUCED
Publisher_001,topicA,topicA-294,172.172.1.1:1883,1551650377232,PRODUCED
Publisher_001,topicA,topicA-295,172.172.1.1:1883,1551650377332,PRODUCED
Publisher_001,topicA,topicA-296,172.172.1.1:1883,1551650377432,PRODUCED
Publisher_001,topicA,topicA-297,172.172.1.1:1883,1551650377532,PRODUCED
Publisher_001,topicA,topicA-298,172.172.1.1:1883,1551650377632,PRODUCED
Publisher_001,topicA,topicA-299,172.172.1.1:1883,1551650377732,PRODUCED
Publisher_001,topicA,topicA-300,172.172.1.1:1883,1551650377832,PRODUCED
Publisher_001,topicA,topicA-301,172.172.1.1:1883,1551650377932,PRODUCED
Publisher_001,topicA,topicA-302,172.172.1.1:1883,1551650378032,PRODUCED
Publisher_001,topicA,topicA-303,172.172.1.1:1883,1551650378132,PRODUCED
Publisher_001,topicA,topicA-304,172.172.1.1:1883,1551650378232,PRODUCED
Publisher_001,topicA,topicA-305,172.172.1.1:1883,1551650378342,PRODUCED
Publisher_001,topicA,topicA-306,172.172.1.1:1883,1551650378432,PRODUCED
Publisher_001,topicA,topicA-307,172.172.1.1:1883,1551650378532,PRODUCED
Publisher_001,topicA,topicA-308,172.172.1.1:1883,1551650378632,PRODUCED
Publisher_001,topicA,topicA-309,172.172.1.1:1883,1551650378732,PRODUCED
Publisher_001,topicA,topicA-310,172.172.1.1:1883,1551650378832,PRODUCED
Publisher_001,topicA,topicA-311,172.172.1.1:1883,1551650378932,PRODUCED
Publisher_001,topicA,topicA-312,172.172.1.1:1883,1551650379032,PRODUCED
Publisher_001,topicA,topicA-313,172.172.1.1:1883,1551650379132,PRODUCED
Publisher_001,topicA,topicA-314,172.172.1.1:1883,1551650379232,PRODUCED
Publisher_001,topicA,topicA-315,172.172.1.1:1883,1551650379332,PRODUCED
Publisher_001,topicA,topicA-316,172.172.1.1:1883,1551650379432,PRODUCED
Publisher_001,topicA,topicA-317,172.172.1.1:1883,1551650379532,PRODUCED
Publisher_001,topicA,topicA-318,172.172.1.1:1883,1551650379632,PRODUCED
Publisher_001,topicA,topicA-319,172.172.1.1:1883,1551650379732,PRODUCED
Publisher_001,topicA,topicA-320,172.172.1.1:1883,1551650379832,PRODUCED
Publisher_001,topicA,topicA-321,172.172.1.1:1883,1551650379932,PRODUCED
Publisher_001,topicA,topicA-322,172.172.1.1:1883,1551650380032,PRODUCED
Publisher_001,topicA,topicA-323,172.172.1.1:1883,1551650380132,PRODUCED
Publisher_001,topicA,topicA-324,172.172.1.1:1883,1551650380232,PRODUCED
Publisher_001,topicA,topicA-325,172.172.1.1:1883,1551650380342,PRODUCED
Publisher_001,topicA,topicA-326,172.172.1.1:1883,1551650380432,PRODUCED
Publisher_001,topicA,topicA-327,172.172.1.1:1883,1551650380532,PRODUCED
Publisher_001,topicA,topicA-328,172.172.1.1:1883,1551650380632,PRODUCED
Publisher_001,topicA,topicA-329,172.172.1.1:1883,1551650380732,PRODUCED
Publisher_001,topicA,topicA-330,172.172.1.1:1883,1551650380842,PRODUCED
Publisher_001,topicA,topicA-331,172.172.1.1:1883,1551650380932,PRODUCED
Publisher_001,topicA,topicA-332,172.172.1.1:1883,1551650381032,PRODUCED
Publisher_001,topicA,topicA-333,172.172.1.1:1883,1551650381132,PRODUCED
Publisher_001,topicA,topicA-334,172.172.1.1:1883,1551650381232,PRODUCED
Publisher_001,topicA,topicA-335,172.172.1.1:1883,1551650381332,PRODUCED
Publisher_001,topicA,topicA-336,172.172.1.1:1883,1551650381432,PRODUCED
Publisher_001,topicA,topicA-337,172.172.1.1:1883,1551650381532,PRODUCED
Publisher_001,topicA,topicA-338,172.172.1.1:1883,1551650381632,PRODUCED
Publisher_001,topicA,topicA-339,172.172.1.1:1883,1551650381732,PRODUCED
Publisher_001,topicA,topicA-340,172.172.1.1:1883,1551650381832,PRODUCED
Publisher_001,topicA,topicA-341,172.172.1.1:1883,1551650381932,PRODUCED
Publisher_001,topicA,topicA-342,172.172.1.1:1883,1551650382032,PRODUCED
Publisher_001,topicA,topicA-343,172.172.1.1:1883,1551650382132,PRODUCED
Publisher_001,topicA,topicA-344,172.172.1.1:1883,1551650382232,PRODUCED
Publisher_001,topicA,topicA-345,172.172.1.1:1883,1551650382332,PRODUCED
Publisher_001,topicA,topicA-346,172.172.1.1:1883,1551650382432,PRODUCED
Publisher_001,topicA,topicA-347,172.172.1.1:1883,1551650382532,PRODUCED
Publisher_001,topicA,topicA-348,172.172.1.1:1883,1551650382632,PRODUCED
Publisher_001,topicA,topicA-349,172.172.1.1:1883,1551650382732,PRODUCED
Publisher_001,topicA,topicA-350,172.172.1.1:1883,1551650382832,PRODUCED
Publisher_001,topicA,topicA-351,172.172.1.1:1883,1551650382932,PRODUCED
Publisher_001,topicA,topicA-352,172.172.1.1:1883,1551650383032,PRODUCED
Publisher_001,topicA,topicA-353,172.172.1.1:1883,1551650383132,PRODUCED
Publisher_001,topicA,topicA-354,172.172.1.1:1883,1551650383232,PRODUCED
Publisher_001,topicA,topicA-355,172.172.1.1:1883,1551650383332,PRODUCED
Publisher_001,topicA,topicA-356,172.172.1.1:1883,1551650383432,PRODUCED
Publisher_001,topicA,topicA-357,172.172.1.1:1883,1551650383532,PRODUCED
Publisher_001,topicA,topicA-358,172.172.1.1:1883,1551650383632,PRODUCED
Publisher_001,topicA,topicA-359,172.172.1.1:1883,1551650383732,PRODUCED
Publisher_001,topicA,topicA-360,172.172.1.1:1883,1551650383832,PRODUCED
Publisher_001,topicA,topicA-361,172.172.1.1:1883,1551650383932,PRODUCED
Publisher_001,topicA,topicA-362,172.172.1.1:1883,1551650384032,PRODUCED
Publisher_001,topicA,topicA-363,172.172.1.1:1883,1551650384132,PRODUCED
Publisher_001,topicA,topicA-364,172.172.1.1:1883,1551650384232,PRODUCED
Publisher_001,topicA,topicA-365,172.172.1.1:1883,1551650384332,PRODUCED
Publisher_001,topicA,topicA-366,172.172.1.1:1883,1551650384432,PRODUCED
Publisher_001,topicA,topicA-367,172.172.1.1:1883,1551650384532,PRODUCED
Publisher_001,topicA,topicA-368,172.172.1.1:1883,1551650384632,PRODUCED
Publisher_001,topicA,topicA-369,172.172.1.1:1883,1551650384732,PRODUCED
Publisher_001,topicA,topicA-370,172.172.1.1:1883,1551650384832,PRODUCED
Publisher_001,topicA,topicA-371,172.172.1.1:1883,1551650384932,PRODUCED
Publisher_001,topicA,topicA-372,172.172.1.1:1883,1551650385032,PRODUCED
Publisher_001,topicA,topicA-373,172.172.1.1:1883,1551650385132,PRODUCED
Publisher_001,topicA,topicA-374,172.172.1.1:1883,1551650385232,PRODUCED
Publisher_001,topicA,topicA-375,172.172.1.1:1883,1551650385332,PRODUCED
Publisher_001,topicA,topicA-376,172.172.1.1:1883,1551650385432,PRODUCED
Publisher_001,topicA,topicA-377,172.172.1.1:1883,1551650385532,PRODUCED
Publisher_001,topicA,topicA-378,172.172.1.1:1883,1551650385632,PRODUCED
Publisher_001,topicA,topicA-379,172.172.1.1:1883,1551650385732,PRODUCED
Publisher_001,topicA,topicA-380,172.172.1.1:1883,1551650385832,PRODUCED
Publisher_001,topicA,topicA-381,172.172.1.1:1883,1551650385932,PRODUCED
Publisher_001,topicA,topicA-382,172.172.1.1:1883,1551650386032,PRODUCED
Publisher_001,topicA,topicA-383,172.172.1.1:1883,1551650386132,PRODUCED
Publisher_001,topicA,topicA-384,172.172.1.1:1883,1551650386235,PRODUCED
Publisher_001,topicA,topicA-385,172.172.1.1:1883,1551650386332,PRODUCED
Publisher_001,topicA,topicA-386,172.172.1.1:1883,1551650386432,PRODUCED
Publisher_001,topicA,topicA-387,172.172.1.1:1883,1551650386532,PRODUCED
Publisher_001,topicA,topicA-388,172.172.1.1:1883,1551650386632,PRODUCED
Publisher_001,topicA,topicA-389,172.172.1.1:1883,1551650386732,PRODUCED
Publisher_001,topicA,topicA-390,172.172.1.1:1883,1551650386832,PRODUCED
Publisher_001,topicA,topicA-391,172.172.1.1:1883,1551650386932,PRODUCED
Publisher_001,topicA,topicA-392,172.172.1.1:1883,1551650387032,PRODUCED
Publisher_001,topicA,topicA-393,172.172.1.1:1883,1551650387132,PRODUCED
Publisher_001,topicA,topicA-394,172.172.1.1:1883,1551650387232,PRODUCED
Publisher_001,topicA,topicA-395,172.172.1.1:1883,1551650387332,PRODUCED
Publisher_001,topicA,topicA-396,172.172.1.1:1883,1551650387432,PRODUCED
Publisher_001,topicA,topicA-397,172.172.1.1:1883,1551650387532,PRODUCED
Publisher_001,topicA,topicA-398,172.172.1.1:1883,1551650387632,PRODUCED
Publisher_001,topicA,topicA-399,172.172.1.1:1883,1551650387732,PRODUCED
Publisher_001,topicA,topicA-400,172.172.1.1:1883,1551650387832,PRODUCED
Publisher_001,topicA,topicA-401,172.172.1.1:1883,1551650387932,PRODUCED
Publisher_001,topicA,topicA-402,172.172.1.1:1883,1551650388032,PRODUCED
Publisher_001,topicA,topicA-403,172.172.1.1:1883,1551650388132,PRODUCED
Publisher_001,topicA,topicA-404,172.172.1.1:1883,1551650388232,PRODUCED
Publisher_001,topicA,topicA-405,172.172.1.1:1883,1551650388341,PRODUCED
Publisher_001,topicA,topicA-406,172.172.1.1:1883,1551650388432,PRODUCED
Publisher_001,topicA,topicA-407,172.172.1.1:1883,1551650388532,PRODUCED
Publisher_001,topicA,topicA-408,172.172.1.1:1883,1551650388632,PRODUCED
Publisher_001,topicA,topicA-409,172.172.1.1:1883,1551650388732,PRODUCED
Publisher_001,topicA,topicA-410,172.172.1.1:1883,1551650388832,PRODUCED
Publisher_001,topicA,topicA-411,172.172.1.1:1883,1551650388932,PRODUCED
Publisher_001,topicA,topicA-412,172.172.1.1:1883,1551650389032,PRODUCED
Publisher_001,topicA,topicA-413,172.172.1.1:1883,1551650389132,PRODUCED
Publisher_001,topicA,topicA-414,172.172.1.1:1883,1551650389232,PRODUCED
Publisher_001,topicA,topicA-415,172.172.1.1:1883,1551650389332,PRODUCED
Publisher_001,topicA,topicA-416,172.172.1.1:1883,1551650389432,PRODUCED
Publisher_001,topicA,topicA-417,172.172.1.1:1883,1551650389532,PRODUCED
Publisher_001,topicA,topicA-418,172.172.1.1:1883,1551650389632,PRODUCED
Publisher_001,topicA,topicA-419,172.172.1.1:1883,1551650389732,PRODUCED
Publisher_001,topicA,topicA-420,172.172.1.1:1883,1551650389832,PRODUCED
Publisher_001,topicA,topicA-421,172.172.1.1:1883,1551650389932,PRODUCED
Publisher_001,topicA,topicA-422,172.172.1.1:1883,1551650390032,PRODUCED
Publisher_001,topicA,topicA-423,172.172.1.1:1883,1551650390132,PRODUCED
Publisher_001,topicA,topicA-424,172.172.1.1:1883,1551650390232,PRODUCED
Publisher_001,topicA,topicA-425,172.172.1.1:1883,1551650390332,PRODUCED
Publisher_001,topicA,topicA-426,172.172.1.1:1883,1551650390432,PRODUCED
Publisher_001,topicA,topicA-427,172.172.1.1:1883,1551650390532,PRODUCED
Publisher_001,topicA,topicA-428,172.172.1.1:1883,1551650390632,PRODUCED
Publisher_001,topicA,topicA-429,172.172.1.1:1883,1551650390732,PRODUCED
Publisher_001,topicA,topicA-430,172.172.1.1:1883,1551650390832,PRODUCED
Publisher_001,topicA,topicA-431,172.172.1.1:1883,1551650390932,PRODUCED
Publisher_001,topicA,topicA-432,172.172.1.1:1883,1551650391032,PRODUCED
Publisher_001,topicA,topicA-433,172.172.1.1:1883,1551650391132,PRODUCED
Publisher_001,topicA,topicA-434,172.172.1.1:1883,1551650391232,PRODUCED
Publisher_001,topicA,topicA-435,172.172.1.1:1883,1551650391332,PRODUCED
Publisher_001,topicA,topicA-436,172.172.1.1:1883,1551650391432,PRODUCED
Publisher_001,topicA,topicA-437,172.172.1.1:1883,1551650391532,PRODUCED
Publisher_001,topicA,topicA-438,172.172.1.1:1883,1551650391632,PRODUCED
Publisher_001,topicA,topicA-439,172.172.1.1:1883,1551650391732,PRODUCED
Publisher_001,topicA,topicA-440,172.172.1.1:1883,1551650391832,PRODUCED
Publisher_001,topicA,topicA-441,172.172.1.1:1883,1551650391932,PRODUCED
Publisher_001,topicA,topicA-442,172.172.1.1:1883,1551650392032,PRODUCED
Publisher_001,topicA,topicA-443,172.172.1.1:1883,1551650392132,PRODUCED
Publisher_001,topicA,topicA-444,172.172.1.1:1883,1551650392232,PRODUCED
Publisher_001,topicA,topicA-445,172.172.1.1:1883,1551650392332,PRODUCED
Publisher_001,topicA,topicA-446,172.172.1.1:1883,1551650392432,PRODUCED
Publisher_001,topicA,topicA-447,172.172.1.1:1883,1551650392532,PRODUCED
Publisher_001,topicA,topicA-448,172.172.1.1:1883,1551650392632,PRODUCED
Publisher_001,topicA,topicA-449,172.172.1.1:1883,1551650392732,PRODUCED
Publisher_001,topicA,topicA-450,172.172.1.1:1883,1551650392832,PRODUCED
Publisher_001,topicA,topicA-451,172.172.1.1:1883,1551650392932,PRODUCED
Publisher_001,topicA,topicA-452,172.172.1.1:1883,1551650393032,PRODUCED
Publisher_001,topicA,topicA-453,172.172.1.1:1883,1551650393132,PRODUCED
Publisher_001,topicA,topicA-454,172.172.1.1:1883,1551650393232,PRODUCED
Publisher_001,topicA,topicA-455,172.172.1.1:1883,1551650393332,PRODUCED
Publisher_001,topicA,topicA-456,172.172.1.1:1883,1551650393435,PRODUCED
Publisher_001,topicA,topicA-457,172.172.1.1:1883,1551650393532,PRODUCED
Publisher_001,topicA,topicA-458,172.172.1.1:1883,1551650393632,PRODUCED
Publisher_001,topicA,topicA-459,172.172.1.1:1883,1551650393732,PRODUCED
Publisher_001,topicA,topicA-460,172.172.1.1:1883,1551650393832,PRODUCED
Publisher_001,topicA,topicA-461,172.172.1.1:1883,1551650393932,PRODUCED
Publisher_001,topicA,topicA-462,172.172.1.1:1883,1551650394032,PRODUCED
Publisher_001,topicA,topicA-463,172.172.1.1:1883,1551650394132,PRODUCED
Publisher_001,topicA,topicA-464,172.172.1.1:1883,1551650394232,PRODUCED
Publisher_001,topicA,topicA-465,172.172.1.1:1883,1551650394332,PRODUCED
Publisher_001,topicA,topicA-466,172.172.1.1:1883,1551650394432,PRODUCED
Publisher_001,topicA,topicA-467,172.172.1.1:1883,1551650394532,PRODUCED
Publisher_001,topicA,topicA-468,172.172.1.1:1883,1551650394632,PRODUCED
Publisher_001,topicA,topicA-469,172.172.1.1:1883,1551650394732,PRODUCED
Publisher_001,topicA,topicA-470,172.172.1.1:1883,1551650394832,PRODUCED
Publisher_001,topicA,topicA-471,172.172.1.1:1883,1551650394932,PRODUCED
Publisher_001,topicA,topicA-472,172.172.1.1:1883,1551650395032,PRODUCED
Publisher_001,topicA,topicA-473,172.172.1.1:1883,1551650395132,PRODUCED
Publisher_001,topicA,topicA-474,172.172.1.1:1883,1551650395232,PRODUCED
Publisher_001,topicA,topicA-475,172.172.1.1:1883,1551650395332,PRODUCED
Publisher_001,topicA,topicA-476,172.172.1.1:1883,1551650395432,PRODUCED
Publisher_001,topicA,topicA-477,172.172.1.1:1883,1551650395532,PRODUCED
Publisher_001,topicA,topicA-478,172.172.1.1:1883,1551650395632,PRODUCED
Publisher_001,topicA,topicA-479,172.172.1.1:1883,1551650395732,PRODUCED
Publisher_001,topicA,topicA-480,172.172.1.1:1883,1551650395832,PRODUCED
Publisher_001,topicA,topicA-481,172.172.1.1:1883,1551650395932,PRODUCED
Publisher_001,topicA,topicA-482,172.172.1.1:1883,1551650396032,PRODUCED
Publisher_001,topicA,topicA-483,172.172.1.1:1883,1551650396132,PRODUCED
Publisher_001,topicA,topicA-484,172.172.1.1:1883,1551650396232,PRODUCED
Publisher_001,topicA,topicA-485,172.172.1.1:1883,1551650396342,PRODUCED
Publisher_001,topicA,topicA-486,172.172.1.1:1883,1551650396432,PRODUCED
Publisher_001,topicA,topicA-487,172.172.1.1:1883,1551650396532,PRODUCED
Publisher_001,topicA,topicA-488,172.172.1.1:1883,1551650396632,PRODUCED
Publisher_001,topicA,topicA-489,172.172.1.1:1883,1551650396732,PRODUCED
Publisher_001,topicA,topicA-490,172.172.1.1:1883,1551650396832,PRODUCED
Publisher_001,topicA,topicA-491,172.172.1.1:1883,1551650396932,PRODUCED
Publisher_001,topicA,topicA-492,172.172.1.1:1883,1551650397032,PRODUCED
Publisher_001,topicA,topicA-493,172.172.1.1:1883,1551650397132,PRODUCED
Publisher_001,topicA,topicA-494,172.172.1.1:1883,1551650397232,PRODUCED
Publisher_001,topicA,topicA-495,172.172.1.1:1883,1551650397332,PRODUCED
Publisher_001,topicA,topicA-496,172.172.1.1:1883,1551650397432,PRODUCED
Publisher_001,topicA,topicA-497,172.172.1.1:1883,1551650397532,PRODUCED
Publisher_001,topicA,topicA-498,172.172.1.1:1883,1551650397632,PRODUCED
Publisher_001,topicA,topicA-499,172.172.1.1:1883,1551650397732,PRODUCED
Publisher_001,topicA,topicA-500,172.172.1.1:1883,1551650397832,PRODUCED
Publisher_001,topicA,topicA-501,172.172.1.1:1883,1551650397932,PRODUCED
Publisher_001,topicA,topicA-502,172.172.1.1:1883,1551650398032,PRODUCED
Publisher_001,topicA,topicA-503,172.172.1.1:1883,1551650398132,PRODUCED
Publisher_001,topicA,topicA-504,172.172.1.1:1883,1551650398232,PRODUCED
Publisher_001,topicA,topicA-505,172.172.1.1:1883,1551650398335,PRODUCED
Publisher_001,topicA,topicA-506,172.172.1.1:1883,1551650398432,PRODUCED
Publisher_001,topicA,topicA-507,172.172.1.1:1883,1551650398532,PRODUCED
Publisher_001,topicA,topicA-508,172.172.1.1:1883,1551650398632,PRODUCED
Publisher_001,topicA,topicA-509,172.172.1.1:1883,1551650398732,PRODUCED
Publisher_001,topicA,topicA-510,172.172.1.1:1883,1551650398832,PRODUCED
Publisher_001,topicA,topicA-511,172.172.1.1:1883,1551650398936,PRODUCED
Publisher_001,topicA,topicA-512,172.172.1.1:1883,1551650399032,PRODUCED
Publisher_001,topicA,topicA-513,172.172.1.1:1883,1551650399132,PRODUCED
Publisher_001,topicA,topicA-514,172.172.1.1:1883,1551650399232,PRODUCED
Publisher_001,topicA,topicA-515,172.172.1.1:1883,1551650399332,PRODUCED
Publisher_001,topicA,topicA-516,172.172.1.1:1883,1551650399432,PRODUCED
Publisher_001,topicA,topicA-517,172.172.1.1:1883,1551650399532,PRODUCED
Publisher_001,topicA,topicA-518,172.172.1.1:1883,1551650399632,PRODUCED
Publisher_001,topicA,topicA-519,172.172.1.1:1883,1551650399732,PRODUCED
Publisher_001,topicA,topicA-520,172.172.1.1:1883,1551650399832,PRODUCED
Publisher_001,topicA,topicA-521,172.172.1.1:1883,1551650399932,PRODUCED
Publisher_001,topicA,topicA-522,172.172.1.1:1883,1551650400032,PRODUCED
Publisher_001,topicA,topicA-523,172.172.1.1:1883,1551650400132,PRODUCED
Publisher_001,topicA,topicA-524,172.172.1.1:1883,1551650400232,PRODUCED
Publisher_001,topicA,topicA-525,172.172.1.1:1883,1551650400332,PRODUCED
Publisher_001,topicA,topicA-526,172.172.1.1:1883,1551650400432,PRODUCED
Publisher_001,topicA,topicA-527,172.172.1.1:1883,1551650400532,PRODUCED
Publisher_001,topicA,topicA-528,172.172.1.1:1883,1551650400632,PRODUCED
Publisher_001,topicA,topicA-529,172.172.1.1:1883,1551650400733,PRODUCED
Publisher_001,topicA,topicA-530,172.172.1.1:1883,1551650400833,PRODUCED
Publisher_001,topicA,topicA-531,172.172.1.1:1883,1551650400932,PRODUCED
Publisher_001,topicA,topicA-532,172.172.1.1:1883,1551650401032,PRODUCED
Publisher_001,topicA,topicA-533,172.172.1.1:1883,1551650401132,PRODUCED
Publisher_001,topicA,topicA-534,172.172.1.1:1883,1551650401232,PRODUCED
Publisher_001,topicA,topicA-535,172.172.1.1:1883,1551650401332,PRODUCED
Publisher_001,topicA,topicA-536,172.172.1.1:1883,1551650401432,PRODUCED
Publisher_001,topicA,topicA-537,172.172.1.1:1883,1551650401532,PRODUCED
Publisher_001,topicA,topicA-538,172.172.1.1:1883,1551650401632,PRODUCED
Publisher_001,topicA,topicA-539,172.172.1.1:1883,1551650401732,PRODUCED
Publisher_001,topicA,topicA-540,172.172.1.1:1883,1551650401832,PRODUCED
Publisher_001,topicA,topicA-541,172.172.1.1:1883,1551650401932,PRODUCED
Publisher_001,topicA,topicA-542,172.172.1.1:1883,1551650402032,PRODUCED
Publisher_001,topicA,topicA-543,172.172.1.1:1883,1551650402132,PRODUCED
Publisher_001,topicA,topicA-544,172.172.1.1:1883,1551650402232,PRODUCED
Publisher_001,topicA,topicA-545,172.172.1.1:1883,1551650402332,PRODUCED
Publisher_001,topicA,topicA-546,172.172.1.1:1883,1551650402432,PRODUCED
Publisher_001,topicA,topicA-547,172.172.1.1:1883,1551650402532,PRODUCED
Publisher_001,topicA,topicA-548,172.172.1.1:1883,1551650402632,PRODUCED
Publisher_001,topicA,topicA-549,172.172.1.1:1883,1551650402732,PRODUCED
Publisher_001,topicA,topicA-550,172.172.1.1:1883,1551650402832,PRODUCED
Publisher_001,topicA,topicA-551,172.172.1.1:1883,1551650402932,PRODUCED
Publisher_001,topicA,topicA-552,172.172.1.1:1883,1551650403032,PRODUCED
Publisher_001,topicA,topicA-553,172.172.1.1:1883,1551650403132,PRODUCED
Publisher_001,topicA,topicA-554,172.172.1.1:1883,1551650403232,PRODUCED
Publisher_001,topicA,topicA-555,172.172.1.1:1883,1551650403332,PRODUCED
Publisher_001,topicA,topicA-556,172.172.1.1:1883,1551650403432,PRODUCED
Publisher_001,topicA,topicA-557,172.172.1.1:1883,1551650403532,PRODUCED
Publisher_001,topicA,topicA-558,172.172.1.1:1883,1551650403632,PRODUCED
Publisher_001,topicA,topicA-559,172.172.1.1:1883,1551650403732,PRODUCED
Publisher_001,topicA,topicA-560,172.172.1.1:1883,1551650403832,PRODUCED
Publisher_001,topicA,topicA-561,172.172.1.1:1883,1551650403932,PRODUCED
Publisher_001,topicA,topicA-562,172.172.1.1:1883,1551650404032,PRODUCED
Publisher_001,topicA,topicA-563,172.172.1.1:1883,1551650404132,PRODUCED
Publisher_001,topicA,topicA-564,172.172.1.1:1883,1551650404232,PRODUCED
Publisher_001,topicA,topicA-565,172.172.1.1:1883,1551650404332,PRODUCED
Publisher_001,topicA,topicA-566,172.172.1.1:1883,1551650404432,PRODUCED
Publisher_001,topicA,topicA-567,172.172.1.1:1883,1551650404532,PRODUCED
Publisher_001,topicA,topicA-568,172.172.1.1:1883,1551650404632,PRODUCED
Publisher_001,topicA,topicA-569,172.172.1.1:1883,1551650404732,PRODUCED
Publisher_001,topicA,topicA-570,172.172.1.1:1883,1551650404832,PRODUCED
Publisher_001,topicA,topicA-571,172.172.1.1:1883,1551650404932,PRODUCED
Publisher_001,topicA,topicA-572,172.172.1.1:1883,1551650405032,PRODUCED
Publisher_001,topicA,topicA-573,172.172.1.1:1883,1551650405132,PRODUCED
Publisher_001,topicA,topicA-574,172.172.1.1:1883,1551650405232,PRODUCED
Publisher_001,topicA,topicA-575,172.172.1.1:1883,1551650405332,PRODUCED
Publisher_001,topicA,topicA-576,172.172.1.1:1883,1551650405432,PRODUCED
Publisher_001,topicA,topicA-577,172.172.1.1:1883,1551650405532,PRODUCED
Publisher_001,topicA,topicA-578,172.172.1.1:1883,1551650405632,PRODUCED
Publisher_001,topicA,topicA-579,172.172.1.1:1883,1551650405732,PRODUCED
Publisher_001,topicA,topicA-580,172.172.1.1:1883,1551650405832,PRODUCED
Publisher_001,topicA,topicA-581,172.172.1.1:1883,1551650405932,PRODUCED
Publisher_001,topicA,topicA-582,172.172.1.1:1883,1551650406032,PRODUCED
Publisher_001,topicA,topicA-583,172.172.1.1:1883,1551650406132,PRODUCED
Publisher_001,topicA,topicA-584,172.172.1.1:1883,1551650406232,PRODUCED
Publisher_001,topicA,topicA-585,172.172.1.1:1883,1551650406332,PRODUCED
Publisher_001,topicA,topicA-586,172.172.1.1:1883,1551650406432,PRODUCED
Publisher_001,topicA,topicA-587,172.172.1.1:1883,1551650406532,PRODUCED
Publisher_001,topicA,topicA-588,172.172.1.1:1883,1551650406632,PRODUCED
Publisher_001,topicA,topicA-589,172.172.1.1:1883,1551650406732,PRODUCED
Publisher_001,topicA,topicA-590,172.172.1.1:1883,1551650406832,PRODUCED
Publisher_001,topicA,topicA-591,172.172.1.1:1883,1551650406932,PRODUCED
Publisher_001,topicA,topicA-592,172.172.1.1:1883,1551650407032,PRODUCED
Publisher_001,topicA,topicA-593,172.172.1.1:1883,1551650407132,PRODUCED
Publisher_001,topicA,topicA-594,172.172.1.1:1883,1551650407232,PRODUCED
Publisher_001,topicA,topicA-595,172.172.1.1:1883,1551650407332,PRODUCED
Publisher_001,topicA,topicA-596,172.172.1.1:1883,1551650407432,PRODUCED
Publisher_001,topicA,topicA-597,172.172.1.1:1883,1551650407532,PRODUCED
Publisher_001,topicA,topicA-598,172.172.1.1:1883,1551650407632,PRODUCED
Publisher_001,topicA,topicA-599,172.172.1.1:1883,1551650407732,PRODUCED
Publisher_001,topicA,topicA-600,172.172.1.1:1883,1551650407832,PRODUCED
Publisher_001,topicA,topicA-601,172.172.1.1:1883,1551650407932,PRODUCED
Publisher_001,topicA,topicA-602,172.172.1.1:1883,1551650408032,PRODUCED
Publisher_001,topicA,topicA-603,172.172.1.1:1883,1551650408132,PRODUCED
Publisher_001,topicA,topicA-604,172.172.1.1:1883,1551650408232,PRODUCED
Publisher_001,topicA,topicA-605,172.172.1.1:1883,1551650408332,PRODUCED
Publisher_001,topicA,topicA-606,172.172.1.1:1883,1551650408432,PRODUCED
Publisher_001,topicA,topicA-607,172.172.1.1:1883,1551650408532,PRODUCED
Publisher_001,topicA,topicA-608,172.172.1.1:1883,1551650408632,PRODUCED
Publisher_001,topicA,topicA-609,172.172.1.1:1883,1551650408732,PRODUCED
Publisher_001,topicA,topicA-610,172.172.1.1:1883,1551650408832,PRODUCED
Publisher_001,topicA,topicA-611,172.172.1.1:1883,1551650408932,PRODUCED
Publisher_001,topicA,topicA-612,172.172.1.1:1883,1551650409032,PRODUCED
Publisher_001,topicA,topicA-613,172.172.1.1:1883,1551650409132,PRODUCED
Publisher_001,topicA,topicA-614,172.172.1.1:1883,1551650409232,PRODUCED
Publisher_001,topicA,topicA-615,172.172.1.1:1883,1551650409332,PRODUCED
Publisher_001,topicA,topicA-616,172.172.1.1:1883,1551650409432,PRODUCED
Publisher_001,topicA,topicA-617,172.172.1.1:1883,1551650409532,PRODUCED
Publisher_001,topicA,topicA-618,172.172.1.1:1883,1551650409632,PRODUCED
Publisher_001,topicA,topicA-619,172.172.1.1:1883,1551650409732,PRODUCED
Publisher_001,topicA,topicA-620,172.172.1.1:1883,1551650409832,PRODUCED
Publisher_001,topicA,topicA-621,172.172.1.1:1883,1551650409932,PRODUCED
Publisher_001,topicA,topicA-622,172.172.1.1:1883,1551650410032,PRODUCED
Publisher_001,topicA,topicA-623,172.172.1.1:1883,1551650410132,PRODUCED
Publisher_001,topicA,topicA-624,172.172.1.1:1883,1551650410232,PRODUCED
Publisher_001,topicA,topicA-625,172.172.1.1:1883,1551650410341,PRODUCED
Publisher_001,topicA,topicA-626,172.172.1.1:1883,1551650410432,PRODUCED
Publisher_001,topicA,topicA-627,172.172.1.1:1883,1551650410532,PRODUCED
Publisher_001,topicA,topicA-628,172.172.1.1:1883,1551650410632,PRODUCED
Publisher_001,topicA,topicA-629,172.172.1.1:1883,1551650410732,PRODUCED
Publisher_001,topicA,topicA-630,172.172.1.1:1883,1551650410832,PRODUCED
Publisher_001,topicA,topicA-631,172.172.1.1:1883,1551650410932,PRODUCED
Publisher_001,topicA,topicA-632,172.172.1.1:1883,1551650411032,PRODUCED
Publisher_001,topicA,topicA-633,172.172.1.1:1883,1551650411132,PRODUCED
Publisher_001,topicA,topicA-634,172.172.1.1:1883,1551650411232,PRODUCED
Publisher_001,topicA,topicA-635,172.172.1.1:1883,1551650411332,PRODUCED
Publisher_001,topicA,topicA-636,172.172.1.1:1883,1551650411432,PRODUCED
Publisher_001,topicA,topicA-637,172.172.1.1:1883,1551650411532,PRODUCED
Publisher_001,topicA,topicA-638,172.172.1.1:1883,1551650411632,PRODUCED
Publisher_001,topicA,topicA-639,172.172.1.1:1883,1551650411732,PRODUCED
Publisher_001,topicA,topicA-640,172.172.1.1:1883,1551650411832,PRODUCED
Publisher_001,topicA,topicA-641,172.172.1.1:1883,1551650411932,PRODUCED
Publisher_001,topicA,topicA-642,172.172.1.1:1883,1551650412032,PRODUCED
