clientId,topic,guid,broker,timestamp,type
Subscriber_001,topicA,topicA-34,172.172.1.1:1883,1551650491119,RECEIVED
Subscriber_001,topicA,topicA-35,172.172.1.1:1883,1551650491122,RECEIVED
Subscriber_001,topicA,topicA-36,172.172.1.1:1883,1551650491123,RECEIVED
Subscriber_001,topicA,topicA-37,172.172.1.1:1883,1551650491210,RECEIVED
Subscriber_001,topicA,topicA-38,172.172.1.1:1883,1551650491314,RECEIVED
Subscriber_001,topicA,topicA-39,172.172.1.1:1883,1551650491412,RECEIVED
Subscriber_001,topicA,topicA-40,172.172.1.1:1883,1551650491510,RECEIVED
Subscriber_001,topicA,topicA-41,172.172.1.1:1883,1551650491614,RECEIVED
Subscriber_001,topicA,topicA-42,172.172.1.1:1883,1551650491717,RECEIVED
Subscriber_001,topicA,topicA-43,172.172.1.1:1883,1551650491818,RECEIVED
Subscriber_001,topicA,topicA-44,172.172.1.1:1883,1551650491912,RECEIVED
Subscriber_001,topicA,topicA-45,172.172.1.1:1883,1551650492008,RECEIVED
Subscriber_001,topicA,topicA-46,172.172.1.1:1883,1551650492115,RECEIVED
Subscriber_001,topicA,topicA-47,172.172.1.1:1883,1551650492209,RECEIVED
Subscriber_001,topicA,topicA-48,172.172.1.1:1883,1551650492305,RECEIVED
Subscriber_001,topicA,topicA-49,172.172.1.1:1883,1551650492419,RECEIVED
Subscriber_001,topicA,topicA-50,172.172.1.1:1883,1551650492515,RECEIVED
Subscriber_001,topicA,topicA-51,172.172.1.1:1883,1551650492618,RECEIVED
Subscriber_001,topicA,topicA-52,172.172.1.1:1883,1551650492706,RECEIVED
Subscriber_001,topicA,topicA-53,172.172.1.1:1883,1551650492814,RECEIVED
Subscriber_001,topicA,topicA-54,172.172.1.1:1883,1551650492905,RECEIVED
Subscriber_001,topicA,topicA-55,172.172.1.1:1883,1551650493014,RECEIVED
Subscriber_001,topicA,topicA-56,172.172.1.1:1883,1551650493120,RECEIVED
Subscriber_001,topicA,topicA-57,172.172.1.1:1883,1551650493212,RECEIVED
Subscriber_001,topicA,topicA-58,172.172.1.1:1883,1551650493308,RECEIVED
Subscriber_001,topicA,topicA-59,172.172.1.1:1883,1551650493414,RECEIVED
Subscriber_001,topicA,topicA-60,172.172.1.1:1883,1551650493510,RECEIVED
Subscriber_001,topicA,topicA-61,172.172.1.1:1883,1551650493614,RECEIVED
Subscriber_001,topicA,topicA-62,172.172.1.1:1883,1551650493717,RECEIVED
Subscriber_001,topicA,topicA-63,172.172.1.1:1883,1551650493819,RECEIVED
Subscriber_001,topicA,topicA-64,172.172.1.1:1883,1551650493915,RECEIVED
Subscriber_001,topicA,topicA-65,172.172.1.1:1883,1551650494012,RECEIVED
Subscriber_001,topicA,topicA-66,172.172.1.1:1883,1551650494105,RECEIVED
Subscriber_001,topicA,topicA-67,172.172.1.1:1883,1551650494217,RECEIVED
Subscriber_001,topicA,topicA-68,172.172.1.1:1883,1551650494318,RECEIVED
Subscriber_001,topicA,topicA-69,172.172.1.1:1883,1551650494413,RECEIVED
Subscriber_001,topicA,topicA-70,172.172.1.1:1883,1551650494519,RECEIVED
Subscriber_001,topicA,topicA-71,172.172.1.1:1883,1551650494612,RECEIVED
Subscriber_001,topicA,topicA-72,172.172.1.1:1883,1551650494706,RECEIVED
Subscriber_001,topicA,topicA-73,172.172.1.1:1883,1551650494825,RECEIVED
Subscriber_001,topicA,topicA-74,172.172.1.1:1883,1551650494930,RECEIVED
Subscriber_001,topicA,topicA-75,172.172.1.1:1883,1551650495013,RECEIVED
Subscriber_001,topicA,topicA-76,172.172.1.1:1883,1551650495115,RECEIVED
Subscriber_001,topicA,topicA-77,172.172.1.1:1883,1551650495208,RECEIVED
Subscriber_001,topicA,topicA-78,172.172.1.1:1883,1551650495318,RECEIVED
Subscriber_001,topicA,topicA-79,172.172.1.1:1883,1551650495411,RECEIVED
Subscriber_001,topicA,topicA-80,172.172.1.1:1883,1551650495514,RECEIVED
Subscriber_001,topicA,topicA-81,172.172.1.1:1883,1551650495617,RECEIVED
Subscriber_001,topicA,topicA-82,172.172.1.1:1883,1551650495723,RECEIVED
Subscriber_001,topicA,topicA-83,172.172.1.1:1883,1551650495828,RECEIVED
Subscriber_001,topicA,topicA-84,172.172.1.1:1883,1551650495920,RECEIVED
Subscriber_001,topicA,topicA-85,172.172.1.1:1883,1551650496014,RECEIVED
Subscriber_001,topicA,topicA-86,172.172.1.1:1883,1551650496121,RECEIVED
Subscriber_001,topicA,topicA-87,172.172.1.1:1883,1551650496214,RECEIVED
Subscriber_001,topicA,topicA-88,172.172.1.1:1883,1551650496316,RECEIVED
Subscriber_001,topicA,topicA-89,172.172.1.1:1883,1551650496426,RECEIVED
Subscriber_001,topicA,topicA-90,172.172.1.1:1883,1551650496513,RECEIVED
Subscriber_001,topicA,topicA-91,172.172.1.1:1883,1551650496613,RECEIVED
Subscriber_001,topicA,topicA-92,172.172.1.1:1883,1551650496720,RECEIVED
Subscriber_001,topicA,topicA-93,172.172.1.1:1883,1551650496815,RECEIVED
Subscriber_001,topicA,topicA-94,172.172.1.1:1883,1551650496919,RECEIVED
Subscriber_001,topicA,topicA-95,172.172.1.1:1883,1551650497015,RECEIVED
Subscriber_001,topicA,topicA-96,172.172.1.1:1883,1551650497109,RECEIVED
Subscriber_001,topicA,topicA-97,172.172.1.1:1883,1551650497215,RECEIVED
Subscriber_001,topicA,topicA-98,172.172.1.1:1883,1551650497320,RECEIVED
Subscriber_001,topicA,topicA-99,172.172.1.1:1883,1551650497413,RECEIVED
Subscriber_001,topicA,topicA-100,172.172.1.1:1883,1551650497527,RECEIVED
Subscriber_001,topicA,topicA-101,172.172.1.1:1883,1551650497614,RECEIVED
Subscriber_001,topicA,topicA-102,172.172.1.1:1883,1551650497724,RECEIVED
Subscriber_001,topicA,topicA-103,172.172.1.1:1883,1551650497823,RECEIVED
Subscriber_001,topicA,topicA-104,172.172.1.1:1883,1551650497915,RECEIVED
Subscriber_001,topicA,topicA-105,172.172.1.1:1883,1551650498019,RECEIVED
Subscriber_001,topicA,topicA-106,172.172.1.1:1883,1551650498110,RECEIVED
Subscriber_001,topicA,topicA-107,172.172.1.1:1883,1551650498212,RECEIVED
Subscriber_001,topicA,topicA-108,172.172.1.1:1883,1551650498305,RECEIVED
Subscriber_001,topicA,topicA-109,172.172.1.1:1883,1551650498414,RECEIVED
Subscriber_001,topicA,topicA-110,172.172.1.1:1883,1551650498511,RECEIVED
Subscriber_001,topicA,topicA-111,172.172.1.1:1883,1551650498614,RECEIVED
Subscriber_001,topicA,topicA-112,172.172.1.1:1883,1551650498718,RECEIVED
Subscriber_001,topicA,topicA-113,172.172.1.1:1883,1551650498810,RECEIVED
Subscriber_001,topicA,topicA-114,172.172.1.1:1883,1551650498935,RECEIVED
Subscriber_001,topicA,topicA-115,172.172.1.1:1883,1551650499013,RECEIVED
Subscriber_001,topicA,topicA-116,172.172.1.1:1883,1551650499118,RECEIVED
Subscriber_001,topicA,topicA-117,172.172.1.1:1883,1551650499211,RECEIVED
Subscriber_001,topicA,topicA-118,172.172.1.1:1883,1551650499307,RECEIVED
Subscriber_001,topicA,topicA-119,172.172.1.1:1883,1551650499426,RECEIVED
Subscriber_001,topicA,topicA-120,172.172.1.1:1883,1551650499519,RECEIVED
Subscriber_001,topicA,topicA-121,172.172.1.1:1883,1551650499629,RECEIVED
Subscriber_001,topicA,topicA-122,172.172.1.1:1883,1551650499721,RECEIVED
Subscriber_001,topicA,topicA-123,172.172.1.1:1883,1551650499822,RECEIVED
Subscriber_001,topicA,topicA-124,172.172.1.1:1883,1551650499916,RECEIVED
Subscriber_001,topicA,topicA-125,172.172.1.1:1883,1551650500014,RECEIVED
Subscriber_001,topicA,topicA-126,172.172.1.1:1883,1551650500116,RECEIVED
Subscriber_001,topicA,topicA-127,172.172.1.1:1883,1551650500215,RECEIVED
Subscriber_001,topicA,topicA-128,172.172.1.1:1883,1551650500314,RECEIVED
Subscriber_001,topicA,topicA-129,172.172.1.1:1883,1551650500414,RECEIVED
Subscriber_001,topicA,topicA-130,172.172.1.1:1883,1551650500505,RECEIVED
Subscriber_001,topicA,topicA-131,172.172.1.1:1883,1551650500615,RECEIVED
Subscriber_001,topicA,topicA-132,172.172.1.1:1883,1551650500720,RECEIVED
Subscriber_001,topicA,topicA-133,172.172.1.1:1883,1551650500819,RECEIVED
Subscriber_001,topicA,topicA-134,172.172.1.1:1883,1551650500923,RECEIVED
Subscriber_001,topicA,topicA-135,172.172.1.1:1883,1551650501032,RECEIVED
Subscriber_001,topicA,topicA-136,172.172.1.1:1883,1551650501118,RECEIVED
Subscriber_001,topicA,topicA-137,172.172.1.1:1883,1551650501220,RECEIVED
Subscriber_001,topicA,topicA-138,172.172.1.1:1883,1551650501310,RECEIVED
Subscriber_001,topicA,topicA-139,172.172.1.1:1883,1551650501411,RECEIVED
Subscriber_001,topicA,topicA-140,172.172.1.1:1883,1551650501515,RECEIVED
Subscriber_001,topicA,topicA-141,172.172.1.1:1883,1551650501615,RECEIVED
Subscriber_001,topicA,topicA-142,172.172.1.1:1883,1551650501710,RECEIVED
Subscriber_001,topicA,topicA-143,172.172.1.1:1883,1551650501815,RECEIVED
Subscriber_001,topicA,topicA-144,172.172.1.1:1883,1551650501911,RECEIVED
Subscriber_001,topicA,topicA-145,172.172.1.1:1883,1551650502015,RECEIVED
Subscriber_001,topicA,topicA-146,172.172.1.1:1883,1551650502110,RECEIVED
Subscriber_001,topicA,topicA-147,172.172.1.1:1883,1551650502210,RECEIVED
Subscriber_001,topicA,topicA-148,172.172.1.1:1883,1551650502317,RECEIVED
Subscriber_001,topicA,topicA-149,172.172.1.1:1883,1551650502419,RECEIVED
Subscriber_001,topicA,topicA-150,172.172.1.1:1883,1551650502512,RECEIVED
Subscriber_001,topicA,topicA-151,172.172.1.1:1883,1551650502610,RECEIVED
Subscriber_001,topicA,topicA-152,172.172.1.1:1883,1551650502710,RECEIVED
Subscriber_001,topicA,topicA-153,172.172.1.1:1883,1551650502812,RECEIVED
Subscriber_001,topicA,topicA-154,172.172.1.1:1883,1551650502917,RECEIVED
Subscriber_001,topicA,topicA-155,172.172.1.1:1883,1551650503015,RECEIVED
Subscriber_001,topicA,topicA-156,172.172.1.1:1883,1551650503116,RECEIVED
Subscriber_001,topicA,topicA-157,172.172.1.1:1883,1551650503219,RECEIVED
Subscriber_001,topicA,topicA-158,172.172.1.1:1883,1551650503317,RECEIVED
Subscriber_001,topicA,topicA-159,172.172.1.1:1883,1551650503410,RECEIVED
Subscriber_001,topicA,topicA-160,172.172.1.1:1883,1551650503516,RECEIVED
Subscriber_001,topicA,topicA-161,172.172.1.1:1883,1551650503614,RECEIVED
Subscriber_001,topicA,topicA-162,172.172.1.1:1883,1551650503713,RECEIVED
Subscriber_001,topicA,topicA-163,172.172.1.1:1883,1551650503819,RECEIVED
Subscriber_001,topicA,topicA-164,172.172.1.1:1883,1551650503917,RECEIVED
Subscriber_001,topicA,topicA-165,172.172.1.1:1883,1551650504007,RECEIVED
Subscriber_001,topicA,topicA-166,172.172.1.1:1883,1551650504115,RECEIVED
Subscriber_001,topicA,topicA-167,172.172.1.1:1883,1551650504211,RECEIVED
Subscriber_001,topicA,topicA-168,172.172.1.1:1883,1551650504315,RECEIVED
Subscriber_001,topicA,topicA-169,172.172.1.1:1883,1551650504412,RECEIVED
Subscriber_001,topicA,topicA-170,172.172.1.1:1883,1551650504506,RECEIVED
Subscriber_001,topicA,topicA-171,172.172.1.1:1883,1551650504619,RECEIVED
Subscriber_001,topicA,topicA-172,172.172.1.1:1883,1551650504712,RECEIVED
Subscriber_001,topicA,topicA-173,172.172.1.1:1883,1551650504815,RECEIVED
Subscriber_001,topicA,topicA-174,172.172.1.1:1883,1551650504905,RECEIVED
Subscriber_001,topicA,topicA-175,172.172.1.1:1883,1551650505016,RECEIVED
Subscriber_001,topicA,topicA-176,172.172.1.1:1883,1551650505114,RECEIVED
Subscriber_001,topicA,topicA-177,172.172.1.1:1883,1551650505215,RECEIVED
Subscriber_001,topicA,topicA-178,172.172.1.1:1883,1551650505317,RECEIVED
Subscriber_001,topicA,topicA-179,172.172.1.1:1883,1551650505407,RECEIVED
Subscriber_001,topicA,topicA-180,172.172.1.1:1883,1551650505512,RECEIVED
Subscriber_001,topicA,topicA-181,172.172.1.1:1883,1551650505612,RECEIVED
Subscriber_001,topicA,topicA-182,172.172.1.1:1883,1551650505712,RECEIVED
Subscriber_001,topicA,topicA-183,172.172.1.1:1883,1551650505811,RECEIVED
Subscriber_001,topicA,topicA-184,172.172.1.1:1883,1551650505920,RECEIVED
Subscriber_001,topicA,topicA-185,172.172.1.1:1883,1551650506015,RECEIVED
Subscriber_001,topicA,topicA-186,172.172.1.1:1883,1551650506119,RECEIVED
Subscriber_001,topicA,topicA-187,172.172.1.1:1883,1551650506215,RECEIVED
Subscriber_001,topicA,topicA-188,172.172.1.1:1883,1551650506314,RECEIVED
Subscriber_001,topicA,topicA-189,172.172.1.1:1883,1551650506408,RECEIVED
Subscriber_001,topicA,topicA-190,172.172.1.1:1883,1551650506518,RECEIVED
Subscriber_001,topicA,topicA-191,172.172.1.1:1883,1551650506607,RECEIVED
Subscriber_001,topicA,topicA-192,172.172.1.1:1883,1551650506721,RECEIVED
Subscriber_001,topicA,topicA-193,172.172.1.1:1883,1551650506808,RECEIVED
Subscriber_001,topicA,topicA-194,172.172.1.1:1883,1551650506909,RECEIVED
Subscriber_001,topicA,topicA-195,172.172.1.1:1883,1551650507017,RECEIVED
Subscriber_001,topicA,topicA-196,172.172.1.1:1883,1551650507114,RECEIVED
Subscriber_001,topicA,topicA-197,172.172.1.1:1883,1551650507218,RECEIVED
Subscriber_001,topicA,topicA-198,172.172.1.1:1883,1551650507316,RECEIVED
Subscriber_001,topicA,topicA-199,172.172.1.1:1883,1551650507422,RECEIVED
Subscriber_001,topicA,topicA-200,172.172.1.1:1883,1551650507523,RECEIVED
Subscriber_001,topicA,topicA-201,172.172.1.1:1883,1551650507609,RECEIVED
Subscriber_001,topicA,topicA-202,172.172.1.1:1883,1551650507712,RECEIVED
Subscriber_001,topicA,topicA-203,172.172.1.1:1883,1551650507820,RECEIVED
Subscriber_001,topicA,topicA-204,172.172.1.1:1883,1551650507925,RECEIVED
Subscriber_001,topicA,topicA-205,172.172.1.1:1883,1551650508019,RECEIVED
Subscriber_001,topicA,topicA-206,172.172.1.1:1883,1551650508126,RECEIVED
Subscriber_001,topicA,topicA-207,172.172.1.1:1883,1551650508219,RECEIVED
Subscriber_001,topicA,topicA-208,172.172.1.1:1883,1551650508311,RECEIVED
Subscriber_001,topicA,topicA-209,172.172.1.1:1883,1551650508407,RECEIVED
Subscriber_001,topicA,topicA-210,172.172.1.1:1883,1551650508513,RECEIVED
Subscriber_001,topicA,topicA-211,172.172.1.1:1883,1551650508614,RECEIVED
Subscriber_001,topicA,topicA-212,172.172.1.1:1883,1551650508707,RECEIVED
Subscriber_001,topicA,topicA-213,172.172.1.1:1883,1551650508817,RECEIVED
Subscriber_001,topicA,topicA-214,172.172.1.1:1883,1551650508910,RECEIVED
Subscriber_001,topicA,topicA-215,172.172.1.1:1883,1551650509022,RECEIVED
Subscriber_001,topicA,topicA-216,172.172.1.1:1883,1551650509104,RECEIVED
Subscriber_001,topicA,topicA-217,172.172.1.1:1883,1551650509218,RECEIVED
Subscriber_001,topicA,topicA-218,172.172.1.1:1883,1551650509306,RECEIVED
Subscriber_001,topicA,topicA-219,172.172.1.1:1883,1551650509416,RECEIVED
Subscriber_001,topicA,topicA-220,172.172.1.1:1883,1551650509514,RECEIVED
Subscriber_001,topicA,topicA-221,172.172.1.1:1883,1551650509610,RECEIVED
Subscriber_001,topicA,topicA-222,172.172.1.1:1883,1551650509706,RECEIVED
Subscriber_001,topicA,topicA-223,172.172.1.1:1883,1551650509825,RECEIVED
Subscriber_001,topicA,topicA-224,172.172.1.1:1883,1551650509915,RECEIVED
Subscriber_001,topicA,topicA-225,172.172.1.1:1883,1551650510016,RECEIVED
Subscriber_001,topicA,topicA-226,172.172.1.1:1883,1551650510110,RECEIVED
Subscriber_001,topicA,topicA-227,172.172.1.1:1883,1551650510210,RECEIVED
Subscriber_001,topicA,topicA-228,172.172.1.1:1883,1551650510325,RECEIVED
Subscriber_001,topicA,topicA-254,172.172.1.2:1883,1551650510864,RECEIVED
Subscriber_001,topicA,topicA-229,172.172.1.1:1883,1551650510880,RECEIVED
Subscriber_001,topicA,topicA-230,172.172.1.1:1883,1551650510887,RECEIVED
Subscriber_001,topicA,topicA-231,172.172.1.1:1883,1551650510889,RECEIVED
Subscriber_001,topicA,topicA-232,172.172.1.1:1883,1551650510890,RECEIVED
Subscriber_001,topicA,topicA-233,172.172.1.1:1883,1551650510891,RECEIVED
Subscriber_001,topicA,topicA-234,172.172.1.1:1883,1551650510914,RECEIVED
Subscriber_001,topicA,topicA-255,172.172.1.2:1883,1551650510951,RECEIVED
Subscriber_001,topicA,topicA-235,172.172.1.1:1883,1551650511009,RECEIVED
Subscriber_001,topicA,topicA-256,172.172.1.2:1883,1551650511061,RECEIVED
Subscriber_001,topicA,topicA-236,172.172.1.1:1883,1551650511108,RECEIVED
Subscriber_001,topicA,topicA-257,172.172.1.2:1883,1551650511153,RECEIVED
Subscriber_001,topicA,topicA-237,172.172.1.1:1883,1551650511211,RECEIVED
Subscriber_001,topicA,topicA-258,172.172.1.2:1883,1551650511253,RECEIVED
Subscriber_001,topicA,topicA-238,172.172.1.1:1883,1551650511319,RECEIVED
Subscriber_001,topicA,topicA-259,172.172.1.2:1883,1551650511353,RECEIVED
Subscriber_001,topicA,topicA-239,172.172.1.1:1883,1551650511412,RECEIVED
Subscriber_001,topicA,topicA-260,172.172.1.2:1883,1551650511463,RECEIVED
Subscriber_001,topicA,topicA-240,172.172.1.1:1883,1551650511513,RECEIVED
Subscriber_001,topicA,topicA-261,172.172.1.2:1883,1551650511559,RECEIVED
Subscriber_001,topicA,topicA-241,172.172.1.1:1883,1551650511618,RECEIVED
Subscriber_001,topicA,topicA-262,172.172.1.2:1883,1551650511658,RECEIVED
Subscriber_001,topicA,topicA-242,172.172.1.1:1883,1551650511710,RECEIVED
Subscriber_001,topicA,topicA-263,172.172.1.2:1883,1551650511760,RECEIVED
Subscriber_001,topicA,topicA-243,172.172.1.1:1883,1551650511809,RECEIVED
Subscriber_001,topicA,topicA-264,172.172.1.2:1883,1551650511849,RECEIVED
Subscriber_001,topicA,topicA-244,172.172.1.1:1883,1551650511919,RECEIVED
Subscriber_001,topicA,topicA-265,172.172.1.2:1883,1551650511955,RECEIVED
Subscriber_001,topicA,topicA-245,172.172.1.1:1883,1551650512019,RECEIVED
Subscriber_001,topicA,topicA-266,172.172.1.2:1883,1551650512056,RECEIVED
Subscriber_001,topicA,topicA-246,172.172.1.1:1883,1551650512113,RECEIVED
Subscriber_001,topicA,topicA-267,172.172.1.2:1883,1551650512155,RECEIVED
Subscriber_001,topicA,topicA-247,172.172.1.1:1883,1551650512214,RECEIVED
Subscriber_001,topicA,topicA-268,172.172.1.2:1883,1551650512258,RECEIVED
Subscriber_001,topicA,topicA-248,172.172.1.1:1883,1551650512311,RECEIVED
Subscriber_001,topicA,topicA-269,172.172.1.2:1883,1551650512356,RECEIVED
Subscriber_001,topicA,topicA-249,172.172.1.1:1883,1551650512419,RECEIVED
Subscriber_001,topicA,topicA-270,172.172.1.2:1883,1551650512459,RECEIVED
Subscriber_001,topicA,topicA-250,172.172.1.1:1883,1551650512515,RECEIVED
Subscriber_001,topicA,topicA-271,172.172.1.2:1883,1551650512565,RECEIVED
Subscriber_001,topicA,topicA-251,172.172.1.1:1883,1551650512624,RECEIVED
Subscriber_001,topicA,topicA-272,172.172.1.2:1883,1551650512656,RECEIVED
Subscriber_001,topicA,topicA-252,172.172.1.1:1883,1551650512730,RECEIVED
Subscriber_001,topicA,topicA-273,172.172.1.2:1883,1551650512752,RECEIVED
Subscriber_001,topicA,topicA-253,172.172.1.1:1883,1551650512824,RECEIVED
Subscriber_001,topicA,topicA-274,172.172.1.2:1883,1551650512861,RECEIVED
Subscriber_001,topicA,topicA-275,172.172.1.2:1883,1551650512958,RECEIVED
Subscriber_001,topicA,topicA-276,172.172.1.2:1883,1551650513055,RECEIVED
Subscriber_001,topicA,topicA-277,172.172.1.2:1883,1551650513150,RECEIVED
Subscriber_001,topicA,topicA-278,172.172.1.2:1883,1551650513256,RECEIVED
Subscriber_001,topicA,topicA-279,172.172.1.2:1883,1551650513353,RECEIVED
Subscriber_001,topicA,topicA-280,172.172.1.2:1883,1551650513456,RECEIVED
Subscriber_001,topicA,topicA-281,172.172.1.2:1883,1551650513557,RECEIVED
Subscriber_001,topicA,topicA-282,172.172.1.2:1883,1551650513649,RECEIVED
Subscriber_001,topicA,topicA-283,172.172.1.2:1883,1551650513754,RECEIVED
Subscriber_001,topicA,topicA-284,172.172.1.2:1883,1551650513852,RECEIVED
Subscriber_001,topicA,topicA-285,172.172.1.2:1883,1551650513956,RECEIVED
Subscriber_001,topicA,topicA-286,172.172.1.2:1883,1551650514063,RECEIVED
Subscriber_001,topicA,topicA-287,172.172.1.2:1883,1551650514176,RECEIVED
Subscriber_001,topicA,topicA-288,172.172.1.2:1883,1551650514256,RECEIVED
Subscriber_001,topicA,topicA-289,172.172.1.2:1883,1551650514353,RECEIVED
Subscriber_001,topicA,topicA-290,172.172.1.2:1883,1551650514447,RECEIVED
Subscriber_001,topicA,topicA-291,172.172.1.2:1883,1551650514554,RECEIVED
Subscriber_001,topicA,topicA-292,172.172.1.2:1883,1551650514651,RECEIVED
Subscriber_001,topicA,topicA-293,172.172.1.2:1883,1551650514749,RECEIVED
Subscriber_001,topicA,topicA-294,172.172.1.2:1883,1551650514851,RECEIVED
Subscriber_001,topicA,topicA-295,172.172.1.2:1883,1551650514953,RECEIVED
Subscriber_001,topicA,topicA-296,172.172.1.2:1883,1551650515048,RECEIVED
Subscriber_001,topicA,topicA-297,172.172.1.2:1883,1551650515160,RECEIVED
Subscriber_001,topicA,topicA-298,172.172.1.2:1883,1551650515249,RECEIVED
Subscriber_001,topicA,topicA-299,172.172.1.2:1883,1551650515348,RECEIVED
Subscriber_001,topicA,topicA-300,172.172.1.2:1883,1551650515449,RECEIVED
Subscriber_001,topicA,topicA-301,172.172.1.2:1883,1551650515546,RECEIVED
Subscriber_001,topicA,topicA-302,172.172.1.2:1883,1551650515648,RECEIVED
Subscriber_001,topicA,topicA-303,172.172.1.2:1883,1551650515748,RECEIVED
Subscriber_001,topicA,topicA-304,172.172.1.2:1883,1551650515853,RECEIVED
Subscriber_001,topicA,topicA-305,172.172.1.2:1883,1551650515951,RECEIVED
Subscriber_001,topicA,topicA-306,172.172.1.2:1883,1551650516052,RECEIVED
Subscriber_001,topicA,topicA-307,172.172.1.2:1883,1551650516153,RECEIVED
Subscriber_001,topicA,topicA-308,172.172.1.2:1883,1551650516250,RECEIVED
Subscriber_001,topicA,topicA-309,172.172.1.2:1883,1551650516353,RECEIVED
Subscriber_001,topicA,topicA-310,172.172.1.2:1883,1551650516451,RECEIVED
Subscriber_001,topicA,topicA-311,172.172.1.2:1883,1551650516554,RECEIVED
Subscriber_001,topicA,topicA-312,172.172.1.2:1883,1551650516651,RECEIVED
Subscriber_001,topicA,topicA-313,172.172.1.2:1883,1551650516764,RECEIVED
Subscriber_001,topicA,topicA-314,172.172.1.2:1883,1551650516852,RECEIVED
Subscriber_001,topicA,topicA-315,172.172.1.2:1883,1551650516960,RECEIVED
Subscriber_001,topicA,topicA-316,172.172.1.2:1883,1551650517052,RECEIVED
Subscriber_001,topicA,topicA-317,172.172.1.2:1883,1551650517154,RECEIVED
Subscriber_001,topicA,topicA-318,172.172.1.2:1883,1551650517251,RECEIVED
Subscriber_001,topicA,topicA-319,172.172.1.2:1883,1551650517350,RECEIVED
Subscriber_001,topicA,topicA-320,172.172.1.2:1883,1551650517453,RECEIVED
Subscriber_001,topicA,topicA-321,172.172.1.2:1883,1551650517550,RECEIVED
Subscriber_001,topicA,topicA-322,172.172.1.2:1883,1551650517650,RECEIVED
Subscriber_001,topicA,topicA-323,172.172.1.2:1883,1551650517746,RECEIVED
Subscriber_001,topicA,topicA-324,172.172.1.2:1883,1551650517861,RECEIVED
Subscriber_001,topicA,topicA-325,172.172.1.2:1883,1551650517953,RECEIVED
Subscriber_001,topicA,topicA-326,172.172.1.2:1883,1551650518052,RECEIVED
Subscriber_001,topicA,topicA-327,172.172.1.2:1883,1551650518156,RECEIVED
Subscriber_001,topicA,topicA-328,172.172.1.2:1883,1551650518248,RECEIVED
Subscriber_001,topicA,topicA-329,172.172.1.2:1883,1551650518356,RECEIVED
Subscriber_001,topicA,topicA-330,172.172.1.2:1883,1551650518450,RECEIVED
Subscriber_001,topicA,topicA-331,172.172.1.2:1883,1551650518546,RECEIVED
Subscriber_001,topicA,topicA-332,172.172.1.2:1883,1551650518654,RECEIVED
Subscriber_001,topicA,topicA-333,172.172.1.2:1883,1551650518753,RECEIVED
Subscriber_001,topicA,topicA-334,172.172.1.2:1883,1551650518851,RECEIVED
Subscriber_001,topicA,topicA-335,172.172.1.2:1883,1551650518952,RECEIVED
Subscriber_001,topicA,topicA-336,172.172.1.2:1883,1551650519053,RECEIVED
Subscriber_001,topicA,topicA-337,172.172.1.2:1883,1551650519152,RECEIVED
Subscriber_001,topicA,topicA-338,172.172.1.2:1883,1551650519252,RECEIVED
Subscriber_001,topicA,topicA-339,172.172.1.2:1883,1551650519347,RECEIVED
Subscriber_001,topicA,topicA-340,172.172.1.2:1883,1551650519448,RECEIVED
Subscriber_001,topicA,topicA-341,172.172.1.2:1883,1551650519553,RECEIVED
Subscriber_001,topicA,topicA-342,172.172.1.2:1883,1551650519650,RECEIVED
Subscriber_001,topicA,topicA-343,172.172.1.2:1883,1551650519748,RECEIVED
Subscriber_001,topicA,topicA-344,172.172.1.2:1883,1551650519845,RECEIVED
Subscriber_001,topicA,topicA-345,172.172.1.2:1883,1551650519951,RECEIVED
Subscriber_001,topicA,topicA-346,172.172.1.2:1883,1551650520051,RECEIVED
Subscriber_001,topicA,topicA-347,172.172.1.2:1883,1551650520152,RECEIVED
Subscriber_001,topicA,topicA-348,172.172.1.2:1883,1551650520252,RECEIVED
Subscriber_001,topicA,topicA-349,172.172.1.2:1883,1551650520354,RECEIVED
Subscriber_001,topicA,topicA-350,172.172.1.2:1883,1551650520452,RECEIVED
Subscriber_001,topicA,topicA-351,172.172.1.2:1883,1551650520554,RECEIVED
Subscriber_001,topicA,topicA-352,172.172.1.2:1883,1551650520652,RECEIVED
Subscriber_001,topicA,topicA-353,172.172.1.2:1883,1551650520749,RECEIVED
Subscriber_001,topicA,topicA-354,172.172.1.2:1883,1551650520854,RECEIVED
Subscriber_001,topicA,topicA-355,172.172.1.2:1883,1551650520952,RECEIVED
Subscriber_001,topicA,topicA-356,172.172.1.2:1883,1551650521050,RECEIVED
Subscriber_001,topicA,topicA-357,172.172.1.2:1883,1551650521149,RECEIVED
Subscriber_001,topicA,topicA-358,172.172.1.2:1883,1551650521249,RECEIVED
Subscriber_001,topicA,topicA-359,172.172.1.2:1883,1551650521351,RECEIVED
Subscriber_001,topicA,topicA-360,172.172.1.2:1883,1551650521449,RECEIVED
Subscriber_001,topicA,topicA-361,172.172.1.2:1883,1551650521548,RECEIVED
Subscriber_001,topicA,topicA-362,172.172.1.2:1883,1551650521649,RECEIVED
Subscriber_001,topicA,topicA-363,172.172.1.2:1883,1551650521747,RECEIVED
Subscriber_001,topicA,topicA-364,172.172.1.2:1883,1551650521847,RECEIVED
Subscriber_001,topicA,topicA-365,172.172.1.2:1883,1551650521952,RECEIVED
Subscriber_001,topicA,topicA-366,172.172.1.2:1883,1551650522051,RECEIVED
Subscriber_001,topicA,topicA-367,172.172.1.2:1883,1551650522153,RECEIVED
Subscriber_001,topicA,topicA-368,172.172.1.2:1883,1551650522251,RECEIVED
Subscriber_001,topicA,topicA-369,172.172.1.2:1883,1551650522354,RECEIVED
Subscriber_001,topicA,topicA-370,172.172.1.2:1883,1551650522453,RECEIVED
Subscriber_001,topicA,topicA-371,172.172.1.2:1883,1551650522554,RECEIVED
Subscriber_001,topicA,topicA-372,172.172.1.2:1883,1551650522648,RECEIVED
Subscriber_001,topicA,topicA-373,172.172.1.2:1883,1551650522747,RECEIVED
Subscriber_001,topicA,topicA-374,172.172.1.2:1883,1551650522851,RECEIVED
Subscriber_001,topicA,topicA-375,172.172.1.2:1883,1551650522959,RECEIVED
Subscriber_001,topicA,topicA-376,172.172.1.2:1883,1551650523048,RECEIVED
Subscriber_001,topicA,topicA-377,172.172.1.2:1883,1551650523153,RECEIVED
Subscriber_001,topicA,topicA-378,172.172.1.2:1883,1551650523247,RECEIVED
Subscriber_001,topicA,topicA-379,172.172.1.2:1883,1551650523354,RECEIVED
Subscriber_001,topicA,topicA-380,172.172.1.2:1883,1551650523454,RECEIVED
Subscriber_001,topicA,topicA-381,172.172.1.2:1883,1551650523546,RECEIVED
Subscriber_001,topicA,topicA-382,172.172.1.2:1883,1551650523655,RECEIVED
Subscriber_001,topicA,topicA-383,172.172.1.2:1883,1551650523753,RECEIVED
Subscriber_001,topicA,topicA-384,172.172.1.2:1883,1551650523852,RECEIVED
Subscriber_001,topicA,topicA-385,172.172.1.2:1883,1551650523949,RECEIVED
Subscriber_001,topicA,topicA-386,172.172.1.2:1883,1551650524051,RECEIVED
Subscriber_001,topicA,topicA-387,172.172.1.2:1883,1551650524149,RECEIVED
Subscriber_001,topicA,topicA-388,172.172.1.2:1883,1551650524254,RECEIVED
Subscriber_001,topicA,topicA-389,172.172.1.2:1883,1551650524356,RECEIVED
Subscriber_001,topicA,topicA-390,172.172.1.2:1883,1551650524448,RECEIVED
Subscriber_001,topicA,topicA-391,172.172.1.2:1883,1551650524549,RECEIVED
Subscriber_001,topicA,topicA-392,172.172.1.2:1883,1551650524647,RECEIVED
Subscriber_001,topicA,topicA-393,172.172.1.2:1883,1551650524753,RECEIVED
Subscriber_001,topicA,topicA-394,172.172.1.2:1883,1551650524850,RECEIVED
Subscriber_001,topicA,topicA-395,172.172.1.2:1883,1551650524968,RECEIVED
Subscriber_001,topicA,topicA-396,172.172.1.2:1883,1551650525049,RECEIVED
Subscriber_001,topicA,topicA-397,172.172.1.2:1883,1551650525153,RECEIVED
Subscriber_001,topicA,topicA-398,172.172.1.2:1883,1551650525246,RECEIVED
Subscriber_001,topicA,topicA-399,172.172.1.2:1883,1551650525347,RECEIVED
Subscriber_001,topicA,topicA-400,172.172.1.2:1883,1551650525454,RECEIVED
Subscriber_001,topicA,topicA-401,172.172.1.2:1883,1551650525551,RECEIVED
Subscriber_001,topicA,topicA-402,172.172.1.2:1883,1551650525653,RECEIVED
Subscriber_001,topicA,topicA-403,172.172.1.2:1883,1551650525750,RECEIVED
Subscriber_001,topicA,topicA-404,172.172.1.2:1883,1551650525849,RECEIVED
Subscriber_001,topicA,topicA-405,172.172.1.2:1883,1551650525959,RECEIVED
Subscriber_001,topicA,topicA-406,172.172.1.2:1883,1551650526053,RECEIVED
Subscriber_001,topicA,topicA-407,172.172.1.2:1883,1551650526149,RECEIVED
Subscriber_001,topicA,topicA-408,172.172.1.2:1883,1551650526249,RECEIVED
Subscriber_001,topicA,topicA-409,172.172.1.2:1883,1551650526354,RECEIVED
Subscriber_001,topicA,topicA-410,172.172.1.2:1883,1551650526446,RECEIVED
Subscriber_001,topicA,topicA-411,172.172.1.2:1883,1551650526553,RECEIVED
Subscriber_001,topicA,topicA-412,172.172.1.2:1883,1551650526652,RECEIVED
Subscriber_001,topicA,topicA-413,172.172.1.2:1883,1551650526752,RECEIVED
Subscriber_001,topicA,topicA-414,172.172.1.2:1883,1551650526849,RECEIVED
Subscriber_001,topicA,topicA-415,172.172.1.2:1883,1551650526953,RECEIVED
Subscriber_001,topicA,topicA-416,172.172.1.2:1883,1551650527051,RECEIVED
Subscriber_001,topicA,topicA-417,172.172.1.2:1883,1551650527159,RECEIVED
Subscriber_001,topicA,topicA-418,172.172.1.2:1883,1551650527251,RECEIVED
Subscriber_001,topicA,topicA-419,172.172.1.2:1883,1551650527347,RECEIVED
Subscriber_001,topicA,topicA-420,172.172.1.2:1883,1551650527453,RECEIVED
Subscriber_001,topicA,topicA-421,172.172.1.2:1883,1551650527554,RECEIVED
Subscriber_001,topicA,topicA-422,172.172.1.2:1883,1551650527651,RECEIVED
Subscriber_001,topicA,topicA-423,172.172.1.2:1883,1551650527752,RECEIVED
Subscriber_001,topicA,topicA-424,172.172.1.2:1883,1551650527847,RECEIVED
Subscriber_001,topicA,topicA-425,172.172.1.2:1883,1551650527947,RECEIVED
Subscriber_001,topicA,topicA-426,172.172.1.2:1883,1551650528057,RECEIVED
Subscriber_001,topicA,topicA-427,172.172.1.2:1883,1551650528149,RECEIVED
Subscriber_001,topicA,topicA-428,172.172.1.2:1883,1551650528249,RECEIVED
Subscriber_001,topicA,topicA-429,172.172.1.2:1883,1551650528347,RECEIVED
Subscriber_001,topicA,topicA-430,172.172.1.2:1883,1551650528447,RECEIVED
Subscriber_001,topicA,topicA-431,172.172.1.2:1883,1551650528546,RECEIVED
Subscriber_001,topicA,topicA-432,172.172.1.2:1883,1551650528654,RECEIVED
Subscriber_001,topicA,topicA-433,172.172.1.2:1883,1551650528748,RECEIVED
Subscriber_001,topicA,topicA-434,172.172.1.2:1883,1551650528853,RECEIVED
Subscriber_001,topicA,topicA-435,172.172.1.2:1883,1551650528947,RECEIVED
Subscriber_001,topicA,topicA-436,172.172.1.2:1883,1551650529045,RECEIVED
Subscriber_001,topicA,topicA-437,172.172.1.2:1883,1551650529154,RECEIVED
Subscriber_001,topicA,topicA-438,172.172.1.2:1883,1551650529251,RECEIVED
Subscriber_001,topicA,topicA-439,172.172.1.2:1883,1551650529347,RECEIVED
Subscriber_001,topicA,topicA-440,172.172.1.2:1883,1551650529449,RECEIVED
Subscriber_001,topicA,topicA-441,172.172.1.2:1883,1551650529554,RECEIVED
Subscriber_001,topicA,topicA-442,172.172.1.2:1883,1551650529650,RECEIVED
Subscriber_001,topicA,topicA-443,172.172.1.2:1883,1551650529753,RECEIVED
Subscriber_001,topicA,topicA-444,172.172.1.2:1883,1551650529846,RECEIVED
Subscriber_001,topicA,topicA-445,172.172.1.2:1883,1551650529949,RECEIVED
Subscriber_001,topicA,topicA-446,172.172.1.2:1883,1551650530056,RECEIVED
Subscriber_001,topicA,topicA-447,172.172.1.2:1883,1551650530150,RECEIVED
Subscriber_001,topicA,topicA-448,172.172.1.2:1883,1551650530248,RECEIVED
Subscriber_001,topicA,topicA-449,172.172.1.2:1883,1551650530346,RECEIVED
Subscriber_001,topicA,topicA-450,172.172.1.2:1883,1551650530454,RECEIVED
Subscriber_001,topicA,topicA-451,172.172.1.2:1883,1551650530552,RECEIVED
Subscriber_001,topicA,topicA-452,172.172.1.2:1883,1551650530646,RECEIVED
Subscriber_001,topicA,topicA-453,172.172.1.2:1883,1551650530750,RECEIVED
Subscriber_001,topicA,topicA-454,172.172.1.2:1883,1551650530848,RECEIVED
Subscriber_001,topicA,topicA-455,172.172.1.2:1883,1551650530948,RECEIVED
Subscriber_001,topicA,topicA-456,172.172.1.2:1883,1551650531053,RECEIVED
Subscriber_001,topicA,topicA-457,172.172.1.2:1883,1551650531150,RECEIVED
Subscriber_001,topicA,topicA-458,172.172.1.2:1883,1551650531249,RECEIVED
Subscriber_001,topicA,topicA-459,172.172.1.2:1883,1551650531355,RECEIVED
Subscriber_001,topicA,topicA-460,172.172.1.2:1883,1551650531450,RECEIVED
Subscriber_001,topicA,topicA-461,172.172.1.2:1883,1551650531554,RECEIVED
Subscriber_001,topicA,topicA-462,172.172.1.2:1883,1551650531654,RECEIVED
Subscriber_001,topicA,topicA-463,172.172.1.2:1883,1551650531753,RECEIVED
Subscriber_001,topicA,topicA-464,172.172.1.2:1883,1551650531850,RECEIVED
Subscriber_001,topicA,topicA-465,172.172.1.2:1883,1551650531986,RECEIVED
Subscriber_001,topicA,topicA-466,172.172.1.2:1883,1551650532051,RECEIVED
Subscriber_001,topicA,topicA-467,172.172.1.2:1883,1551650532152,RECEIVED
Subscriber_001,topicA,topicA-468,172.172.1.2:1883,1551650532255,RECEIVED
Subscriber_001,topicA,topicA-469,172.172.1.2:1883,1551650532351,RECEIVED
Subscriber_001,topicA,topicA-470,172.172.1.2:1883,1551650532453,RECEIVED
Subscriber_001,topicA,topicA-471,172.172.1.2:1883,1551650532550,RECEIVED
Subscriber_001,topicA,topicA-472,172.172.1.2:1883,1551650532647,RECEIVED
Subscriber_001,topicA,topicA-473,172.172.1.2:1883,1551650532755,RECEIVED
Subscriber_001,topicA,topicA-474,172.172.1.2:1883,1551650532850,RECEIVED
Subscriber_001,topicA,topicA-475,172.172.1.2:1883,1551650532948,RECEIVED
Subscriber_001,topicA,topicA-476,172.172.1.2:1883,1551650533052,RECEIVED
Subscriber_001,topicA,topicA-477,172.172.1.2:1883,1551650533150,RECEIVED
Subscriber_001,topicA,topicA-478,172.172.1.2:1883,1551650533254,RECEIVED
Subscriber_001,topicA,topicA-479,172.172.1.2:1883,1551650533348,RECEIVED
Subscriber_001,topicA,topicA-480,172.172.1.2:1883,1551650533445,RECEIVED
Subscriber_001,topicA,topicA-481,172.172.1.2:1883,1551650533547,RECEIVED
Subscriber_001,topicA,topicA-482,172.172.1.2:1883,1551650533653,RECEIVED
Subscriber_001,topicA,topicA-483,172.172.1.2:1883,1551650533752,RECEIVED
Subscriber_001,topicA,topicA-484,172.172.1.2:1883,1551650533850,RECEIVED
Subscriber_001,topicA,topicA-485,172.172.1.2:1883,1551650533952,RECEIVED
Subscriber_001,topicA,topicA-486,172.172.1.2:1883,1551650534048,RECEIVED
Subscriber_001,topicA,topicA-487,172.172.1.2:1883,1551650534147,RECEIVED
Subscriber_001,topicA,topicA-488,172.172.1.2:1883,1551650534254,RECEIVED
Subscriber_001,topicA,topicA-489,172.172.1.2:1883,1551650534349,RECEIVED
Subscriber_001,topicA,topicA-490,172.172.1.2:1883,1551650534446,RECEIVED
Subscriber_001,topicA,topicA-491,172.172.1.2:1883,1551650534552,RECEIVED
Subscriber_001,topicA,topicA-492,172.172.1.2:1883,1551650534652,RECEIVED
Subscriber_001,topicA,topicA-493,172.172.1.2:1883,1551650534750,RECEIVED
Subscriber_001,topicA,topicA-494,172.172.1.2:1883,1551650534854,RECEIVED
Subscriber_001,topicA,topicA-495,172.172.1.2:1883,1551650534945,RECEIVED
Subscriber_001,topicA,topicA-496,172.172.1.2:1883,1551650535052,RECEIVED
Subscriber_001,topicA,topicA-497,172.172.1.2:1883,1551650535154,RECEIVED
Subscriber_001,topicA,topicA-498,172.172.1.2:1883,1551650535253,RECEIVED
Subscriber_001,topicA,topicA-499,172.172.1.2:1883,1551650535354,RECEIVED
Subscriber_001,topicA,topicA-500,172.172.1.2:1883,1551650535453,RECEIVED
Subscriber_001,topicA,topicA-501,172.172.1.2:1883,1551650535552,RECEIVED
Subscriber_001,topicA,topicA-502,172.172.1.2:1883,1551650535654,RECEIVED
Subscriber_001,topicA,topicA-503,172.172.1.2:1883,1551650535750,RECEIVED
Subscriber_001,topicA,topicA-504,172.172.1.2:1883,1551650535852,RECEIVED
Subscriber_001,topicA,topicA-505,172.172.1.2:1883,1551650535951,RECEIVED
Subscriber_001,topicA,topicA-506,172.172.1.2:1883,1551650536046,RECEIVED
Subscriber_001,topicA,topicA-507,172.172.1.2:1883,1551650536148,RECEIVED
Subscriber_001,topicA,topicA-508,172.172.1.2:1883,1551650536249,RECEIVED
Subscriber_001,topicA,topicA-509,172.172.1.2:1883,1551650536351,RECEIVED
Subscriber_001,topicA,topicA-510,172.172.1.2:1883,1551650536454,RECEIVED
Subscriber_001,topicA,topicA-511,172.172.1.2:1883,1551650536556,RECEIVED
Subscriber_001,topicA,topicA-512,172.172.1.2:1883,1551650536659,RECEIVED
Subscriber_001,topicA,topicA-513,172.172.1.2:1883,1551650536746,RECEIVED
Subscriber_001,topicA,topicA-514,172.172.1.2:1883,1551650536852,RECEIVED
Subscriber_001,topicA,topicA-515,172.172.1.2:1883,1551650536951,RECEIVED
Subscriber_001,topicA,topicA-516,172.172.1.2:1883,1551650537047,RECEIVED
Subscriber_001,topicA,topicA-517,172.172.1.2:1883,1551650537152,RECEIVED
Subscriber_001,topicA,topicA-518,172.172.1.2:1883,1551650537254,RECEIVED
Subscriber_001,topicA,topicA-519,172.172.1.2:1883,1551650537346,RECEIVED
Subscriber_001,topicA,topicA-520,172.172.1.2:1883,1551650537449,RECEIVED
Subscriber_001,topicA,topicA-521,172.172.1.2:1883,1551650537545,RECEIVED
Subscriber_001,topicA,topicA-522,172.172.1.2:1883,1551650537647,RECEIVED
Subscriber_001,topicA,topicA-523,172.172.1.2:1883,1551650537753,RECEIVED
Subscriber_001,topicA,topicA-524,172.172.1.2:1883,1551650537854,RECEIVED
Subscriber_001,topicA,topicA-525,172.172.1.2:1883,1551650537948,RECEIVED
Subscriber_001,topicA,topicA-526,172.172.1.2:1883,1551650538050,RECEIVED
Subscriber_001,topicA,topicA-527,172.172.1.2:1883,1551650538151,RECEIVED
Subscriber_001,topicA,topicA-528,172.172.1.2:1883,1551650538254,RECEIVED
Subscriber_001,topicA,topicA-529,172.172.1.2:1883,1551650538344,RECEIVED
Subscriber_001,topicA,topicA-530,172.172.1.2:1883,1551650538446,RECEIVED
Subscriber_001,topicA,topicA-531,172.172.1.2:1883,1551650538545,RECEIVED
Subscriber_001,topicA,topicA-532,172.172.1.2:1883,1551650538653,RECEIVED
Subscriber_001,topicA,topicA-533,172.172.1.2:1883,1551650538752,RECEIVED
Subscriber_001,topicA,topicA-534,172.172.1.2:1883,1551650538852,RECEIVED
Subscriber_001,topicA,topicA-535,172.172.1.2:1883,1551650538947,RECEIVED
Subscriber_001,topicA,topicA-536,172.172.1.2:1883,1551650539045,RECEIVED
Subscriber_001,topicA,topicA-537,172.172.1.2:1883,1551650539146,RECEIVED
Subscriber_001,topicA,topicA-538,172.172.1.2:1883,1551650539253,RECEIVED
Subscriber_001,topicA,topicA-539,172.172.1.2:1883,1551650539350,RECEIVED
Subscriber_001,topicA,topicA-540,172.172.1.2:1883,1551650539451,RECEIVED
Subscriber_001,topicA,topicA-541,172.172.1.2:1883,1551650539548,RECEIVED
Subscriber_001,topicA,topicA-542,172.172.1.2:1883,1551650539649,RECEIVED
Subscriber_001,topicA,topicA-543,172.172.1.2:1883,1551650539750,RECEIVED
Subscriber_001,topicA,topicA-544,172.172.1.2:1883,1551650539852,RECEIVED
Subscriber_001,topicA,topicA-545,172.172.1.2:1883,1551650539949,RECEIVED
Subscriber_001,topicA,topicA-546,172.172.1.2:1883,1551650540054,RECEIVED
Subscriber_001,topicA,topicA-547,172.172.1.2:1883,1551650540151,RECEIVED
Subscriber_001,topicA,topicA-548,172.172.1.2:1883,1551650540255,RECEIVED
Subscriber_001,topicA,topicA-549,172.172.1.2:1883,1551650540352,RECEIVED
Subscriber_001,topicA,topicA-550,172.172.1.2:1883,1551650540446,RECEIVED
Subscriber_001,topicA,topicA-551,172.172.1.2:1883,1551650540550,RECEIVED
Subscriber_001,topicA,topicA-552,172.172.1.2:1883,1551650540654,RECEIVED
Subscriber_001,topicA,topicA-553,172.172.1.2:1883,1551650540749,RECEIVED
Subscriber_001,topicA,topicA-554,172.172.1.2:1883,1551650540845,RECEIVED
Subscriber_001,topicA,topicA-555,172.172.1.2:1883,1551650540954,RECEIVED
Subscriber_001,topicA,topicA-556,172.172.1.2:1883,1551650541054,RECEIVED
Subscriber_001,topicA,topicA-557,172.172.1.2:1883,1551650541152,RECEIVED
Subscriber_001,topicA,topicA-558,172.172.1.2:1883,1551650541246,RECEIVED
Subscriber_001,topicA,topicA-559,172.172.1.2:1883,1551650541351,RECEIVED
Subscriber_001,topicA,topicA-560,172.172.1.2:1883,1551650541449,RECEIVED
Subscriber_001,topicA,topicA-561,172.172.1.2:1883,1551650541554,RECEIVED
Subscriber_001,topicA,topicA-562,172.172.1.2:1883,1551650541647,RECEIVED
Subscriber_001,topicA,topicA-563,172.172.1.2:1883,1551650541753,RECEIVED
Subscriber_001,topicA,topicA-564,172.172.1.2:1883,1551650541854,RECEIVED
Subscriber_001,topicA,topicA-565,172.172.1.2:1883,1551650541950,RECEIVED
Subscriber_001,topicA,topicA-566,172.172.1.2:1883,1551650542052,RECEIVED
Subscriber_001,topicA,topicA-567,172.172.1.2:1883,1551650542154,RECEIVED
Subscriber_001,topicA,topicA-568,172.172.1.2:1883,1551650542252,RECEIVED
Subscriber_001,topicA,topicA-569,172.172.1.2:1883,1551650542353,RECEIVED
Subscriber_001,topicA,topicA-570,172.172.1.2:1883,1551650542451,RECEIVED
Subscriber_001,topicA,topicA-571,172.172.1.2:1883,1551650542552,RECEIVED
Subscriber_001,topicA,topicA-572,172.172.1.2:1883,1551650542654,RECEIVED
Subscriber_001,topicA,topicA-573,172.172.1.2:1883,1551650542750,RECEIVED
Subscriber_001,topicA,topicA-574,172.172.1.2:1883,1551650542852,RECEIVED
Subscriber_001,topicA,topicA-575,172.172.1.2:1883,1551650542949,RECEIVED
Subscriber_001,topicA,topicA-576,172.172.1.2:1883,1551650543047,RECEIVED
Subscriber_001,topicA,topicA-577,172.172.1.2:1883,1551650543146,RECEIVED
Subscriber_001,topicA,topicA-578,172.172.1.2:1883,1551650543246,RECEIVED
Subscriber_001,topicA,topicA-579,172.172.1.2:1883,1551650543352,RECEIVED
Subscriber_001,topicA,topicA-580,172.172.1.2:1883,1551650543446,RECEIVED
Subscriber_001,topicA,topicA-581,172.172.1.2:1883,1551650543545,RECEIVED
Subscriber_001,topicA,topicA-582,172.172.1.2:1883,1551650543648,RECEIVED
Subscriber_001,topicA,topicA-583,172.172.1.2:1883,1551650543746,RECEIVED
Subscriber_001,topicA,topicA-584,172.172.1.2:1883,1551650543849,RECEIVED
Subscriber_001,topicA,topicA-585,172.172.1.2:1883,1551650543946,RECEIVED
Subscriber_001,topicA,topicA-586,172.172.1.2:1883,1551650544052,RECEIVED
Subscriber_001,topicA,topicA-587,172.172.1.2:1883,1551650544151,RECEIVED
Subscriber_001,topicA,topicA-588,172.172.1.2:1883,1551650544248,RECEIVED
Subscriber_001,topicA,topicA-589,172.172.1.2:1883,1551650544347,RECEIVED
Subscriber_001,topicA,topicA-590,172.172.1.2:1883,1551650544447,RECEIVED
Subscriber_001,topicA,topicA-591,172.172.1.2:1883,1551650544550,RECEIVED
Subscriber_001,topicA,topicA-592,172.172.1.2:1883,1551650544651,RECEIVED
Subscriber_001,topicA,topicA-593,172.172.1.2:1883,1551650544747,RECEIVED
Subscriber_001,topicA,topicA-594,172.172.1.2:1883,1551650544849,RECEIVED
Subscriber_001,topicA,topicA-595,172.172.1.2:1883,1551650544950,RECEIVED
Subscriber_001,topicA,topicA-596,172.172.1.2:1883,1551650545053,RECEIVED
Subscriber_001,topicA,topicA-597,172.172.1.2:1883,1551650545168,RECEIVED
Subscriber_001,topicA,topicA-598,172.172.1.2:1883,1551650545248,RECEIVED
Subscriber_001,topicA,topicA-599,172.172.1.2:1883,1551650545350,RECEIVED
Subscriber_001,topicA,topicA-600,172.172.1.2:1883,1551650545446,RECEIVED
Subscriber_001,topicA,topicA-601,172.172.1.2:1883,1551650545549,RECEIVED
Subscriber_001,topicA,topicA-602,172.172.1.2:1883,1551650545653,RECEIVED
Subscriber_001,topicA,topicA-603,172.172.1.2:1883,1551650545752,RECEIVED
Subscriber_001,topicA,topicA-604,172.172.1.2:1883,1551650545854,RECEIVED
Subscriber_001,topicA,topicA-605,172.172.1.2:1883,1551650545946,RECEIVED
Subscriber_001,topicA,topicA-606,172.172.1.2:1883,1551650546049,RECEIVED
Subscriber_001,topicA,topicA-607,172.172.1.2:1883,1551650546154,RECEIVED
Subscriber_001,topicA,topicA-608,172.172.1.2:1883,1551650546249,RECEIVED
Subscriber_001,topicA,topicA-609,172.172.1.2:1883,1551650546352,RECEIVED
Subscriber_001,topicA,topicA-610,172.172.1.2:1883,1551650546446,RECEIVED
Subscriber_001,topicA,topicA-611,172.172.1.2:1883,1551650546551,RECEIVED
Subscriber_001,topicA,topicA-612,172.172.1.2:1883,1551650546645,RECEIVED
Subscriber_001,topicA,topicA-613,172.172.1.2:1883,1551650546745,RECEIVED
Subscriber_001,topicA,topicA-614,172.172.1.2:1883,1551650546848,RECEIVED
Subscriber_001,topicA,topicA-615,172.172.1.2:1883,1551650546948,RECEIVED
Subscriber_001,topicA,topicA-616,172.172.1.2:1883,1551650547049,RECEIVED
Subscriber_001,topicA,topicA-617,172.172.1.2:1883,1551650547148,RECEIVED
Subscriber_001,topicA,topicA-618,172.172.1.2:1883,1551650547250,RECEIVED
Subscriber_001,topicA,topicA-619,172.172.1.2:1883,1551650547354,RECEIVED
Subscriber_001,topicA,topicA-620,172.172.1.2:1883,1551650547446,RECEIVED
Subscriber_001,topicA,topicA-621,172.172.1.2:1883,1551650547547,RECEIVED
Subscriber_001,topicA,topicA-622,172.172.1.2:1883,1551650547649,RECEIVED
Subscriber_001,topicA,topicA-623,172.172.1.2:1883,1551650547748,RECEIVED
Subscriber_001,topicA,topicA-624,172.172.1.2:1883,1551650547847,RECEIVED
Subscriber_001,topicA,topicA-625,172.172.1.2:1883,1551650547947,RECEIVED
Subscriber_001,topicA,topicA-626,172.172.1.2:1883,1551650548050,RECEIVED
Subscriber_001,topicA,topicA-627,172.172.1.2:1883,1551650548147,RECEIVED
Subscriber_001,topicA,topicA-628,172.172.1.2:1883,1551650548250,RECEIVED
Subscriber_001,topicA,topicA-629,172.172.1.2:1883,1551650548352,RECEIVED
Subscriber_001,topicA,topicA-630,172.172.1.2:1883,1551650548451,RECEIVED
Subscriber_001,topicA,topicA-631,172.172.1.2:1883,1551650548551,RECEIVED
Subscriber_001,topicA,topicA-632,172.172.1.2:1883,1551650548647,RECEIVED
Subscriber_001,topicA,topicA-633,172.172.1.2:1883,1551650548753,RECEIVED
Subscriber_001,topicA,topicA-634,172.172.1.2:1883,1551650548845,RECEIVED
Subscriber_001,topicA,topicA-635,172.172.1.2:1883,1551650548948,RECEIVED
Subscriber_001,topicA,topicA-636,172.172.1.2:1883,1551650549053,RECEIVED
Subscriber_001,topicA,topicA-637,172.172.1.2:1883,1551650549147,RECEIVED
Subscriber_001,topicA,topicA-638,172.172.1.2:1883,1551650549255,RECEIVED
Subscriber_001,topicA,topicA-639,172.172.1.2:1883,1551650549350,RECEIVED
Subscriber_001,topicA,topicA-640,172.172.1.2:1883,1551650549452,RECEIVED
Subscriber_001,topicA,topicA-641,172.172.1.2:1883,1551650549549,RECEIVED
Subscriber_001,topicA,topicA-642,172.172.1.2:1883,1551650549654,RECEIVED
Subscriber_001,topicA,topicA-643,172.172.1.2:1883,1551650549750,RECEIVED
Subscriber_001,topicA,topicA-644,172.172.1.2:1883,1551650549854,RECEIVED
Subscriber_001,topicA,topicA-645,172.172.1.2:1883,1551650549950,RECEIVED
Subscriber_001,topicA,topicA-646,172.172.1.2:1883,1551650550051,RECEIVED
Subscriber_001,topicA,topicA-647,172.172.1.2:1883,1551650550156,RECEIVED
Subscriber_001,topicA,topicA-648,172.172.1.2:1883,1551650550248,RECEIVED
Subscriber_001,topicA,topicA-649,172.172.1.2:1883,1551650550349,RECEIVED
Subscriber_001,topicA,topicA-650,172.172.1.2:1883,1551650550454,RECEIVED
Subscriber_001,topicA,topicA-651,172.172.1.2:1883,1551650550554,RECEIVED
Subscriber_001,topicA,topicA-652,172.172.1.2:1883,1551650550651,RECEIVED
Subscriber_001,topicA,topicA-653,172.172.1.2:1883,1551650550756,RECEIVED
Subscriber_001,topicA,topicA-654,172.172.1.2:1883,1551650550852,RECEIVED
Subscriber_001,topicA,topicA-655,172.172.1.2:1883,1551650550947,RECEIVED
Subscriber_001,topicA,topicA-656,172.172.1.2:1883,1551650551045,RECEIVED
Subscriber_001,topicA,topicA-657,172.172.1.2:1883,1551650551148,RECEIVED
Subscriber_001,topicA,topicA-658,172.172.1.2:1883,1551650551249,RECEIVED
Subscriber_001,topicA,topicA-659,172.172.1.2:1883,1551650551349,RECEIVED
Subscriber_001,topicA,topicA-660,172.172.1.2:1883,1551650551447,RECEIVED
Subscriber_001,topicA,topicA-661,172.172.1.2:1883,1551650551549,RECEIVED
Subscriber_001,topicA,topicA-662,172.172.1.2:1883,1551650551653,RECEIVED
Subscriber_001,topicA,topicA-663,172.172.1.2:1883,1551650551750,RECEIVED
Subscriber_001,topicA,topicA-664,172.172.1.2:1883,1551650551851,RECEIVED
Subscriber_001,topicA,topicA-665,172.172.1.2:1883,1551650551951,RECEIVED
