timestamp,event,migrationId
1551655091409,INITIALIZED,73804743-ae9d-4c01-b483-24b0d1e2cc6f
1551655091413,topicA-INITIALIZED,73804743-ae9d-4c01-b483-24b0d1e2cc6f
1551655092088,topicA-FINISHED,73804743-ae9d-4c01-b483-24b0d1e2cc6f
1551655092088,FINISHED,73804743-ae9d-4c01-b483-24b0d1e2cc6f
