[1] "Duration B1: 2762"
[1] "Duration B2: 2379"
[1] "Duration MIGRATE: 356"
[1] "Duration MIGACK: 27"
[1] "addrow"
[1] "INITIALIZED"
  timestamp       event                          migrationId
1         0 INITIALIZED a5d504ed-0c61-46c8-a5d8-6423b8db6e66
[1] "addrow"
[1] "SYNCING"
   timestamp   event                          migrationId
10       700 SYNCING a5d504ed-0c61-46c8-a5d8-6423b8db6e66
[1] "addrow"
[1] "SYNCED"
   timestamp  event                          migrationId
14      2645 SYNCED a5d504ed-0c61-46c8-a5d8-6423b8db6e66
[1] "addrow"
[1] "FINISHED"
   timestamp    event                          migrationId
22      2762 FINISHED a5d504ed-0c61-46c8-a5d8-6423b8db6e66
[1] "addrow"
[1] "topicA-INITIALIZED"
  timestamp              event                          migrationId
4        14 topicA-INITIALIZED a5d504ed-0c61-46c8-a5d8-6423b8db6e66
[1] "addrow"
[1] "topicA-SYNCING"
[1] "addrow"
[1] "topicA-SYNCED"
  timestamp         event                          migrationId
9        37 topicA-SYNCED a5d504ed-0c61-46c8-a5d8-6423b8db6e66
[1] "addrow"
[1] "topicA-FINISHED"
   timestamp           event                          migrationId
18      2741 topicA-FINISHED a5d504ed-0c61-46c8-a5d8-6423b8db6e66
[1] "addrow"
[1] "topicB-INITIALIZED"
  timestamp              event                          migrationId
5        21 topicB-INITIALIZED a5d504ed-0c61-46c8-a5d8-6423b8db6e66
[1] "addrow"
[1] "topicB-SYNCING"
   timestamp          event                          migrationId
12       713 topicB-SYNCING a5d504ed-0c61-46c8-a5d8-6423b8db6e66
[1] "addrow"
[1] "topicB-SYNCED"
   timestamp         event                          migrationId
13      2643 topicB-SYNCED a5d504ed-0c61-46c8-a5d8-6423b8db6e66
[1] "addrow"
[1] "topicB-FINISHED"
   timestamp           event                          migrationId
19      2741 topicB-FINISHED a5d504ed-0c61-46c8-a5d8-6423b8db6e66
[1] "addrow"
[1] "topicC-INITIALIZED"
  timestamp              event                          migrationId
2         7 topicC-INITIALIZED a5d504ed-0c61-46c8-a5d8-6423b8db6e66
[1] "addrow"
[1] "topicC-SYNCING"
   timestamp          event                          migrationId
11       701 topicC-SYNCING a5d504ed-0c61-46c8-a5d8-6423b8db6e66
[1] "addrow"
[1] "topicC-SYNCED"
   timestamp         event                          migrationId
15      2666 topicC-SYNCED a5d504ed-0c61-46c8-a5d8-6423b8db6e66
[1] "addrow"
[1] "topicC-FINISHED"
   timestamp           event                          migrationId
16      2732 topicC-FINISHED a5d504ed-0c61-46c8-a5d8-6423b8db6e66
[1] "addrow"
[1] "topicD-INITIALIZED"
  timestamp              event                          migrationId
3        14 topicD-INITIALIZED a5d504ed-0c61-46c8-a5d8-6423b8db6e66
[1] "addrow"
[1] "topicD-SYNCING"
[1] "addrow"
[1] "topicD-SYNCED"
  timestamp         event                          migrationId
8        30 topicD-SYNCED a5d504ed-0c61-46c8-a5d8-6423b8db6e66
[1] "addrow"
[1] "topicD-FINISHED"
   timestamp           event                          migrationId
17      2740 topicD-FINISHED a5d504ed-0c61-46c8-a5d8-6423b8db6e66
[1] "addrow"
[1] "topicE-INITIALIZED"
  timestamp              event                          migrationId
6        23 topicE-INITIALIZED a5d504ed-0c61-46c8-a5d8-6423b8db6e66
[1] "addrow"
[1] "topicE-SYNCING"
[1] "addrow"
[1] "topicE-SYNCED"
[1] "addrow"
[1] "topicE-FINISHED"
   timestamp           event                          migrationId
21      2746 topicE-FINISHED a5d504ed-0c61-46c8-a5d8-6423b8db6e66
[1] "addrow"
[1] "topicF-INITIALIZED"
  timestamp              event                          migrationId
7        24 topicF-INITIALIZED a5d504ed-0c61-46c8-a5d8-6423b8db6e66
[1] "addrow"
[1] "topicF-SYNCING"
[1] "addrow"
[1] "topicF-SYNCED"
[1] "addrow"
[1] "topicF-FINISHED"
   timestamp           event                          migrationId
20      2747 topicF-FINISHED a5d504ed-0c61-46c8-a5d8-6423b8db6e66
[1] "addrow"
[1] "INITIALIZED"
  timestamp       event                          migrationId
1         0 INITIALIZED a5d504ed-0c61-46c8-a5d8-6423b8db6e66
[1] "addrow"
[1] "SYNCING"
   timestamp   event                          migrationId
10       700 SYNCING a5d504ed-0c61-46c8-a5d8-6423b8db6e66
[1] "addrow"
[1] "SYNCED"
   timestamp  event                          migrationId
14      2645 SYNCED a5d504ed-0c61-46c8-a5d8-6423b8db6e66
[1] "addrow"
[1] "FINISHED"
   timestamp    event                          migrationId
22      2762 FINISHED a5d504ed-0c61-46c8-a5d8-6423b8db6e66
[1] "addrow"
[1] "topicA-INITIALIZED"
  timestamp              event                          migrationId
4        14 topicA-INITIALIZED a5d504ed-0c61-46c8-a5d8-6423b8db6e66
[1] "addrow"
[1] "topicA-SYNCING"
[1] "addrow"
[1] "topicA-SYNCED"
  timestamp         event                          migrationId
9        37 topicA-SYNCED a5d504ed-0c61-46c8-a5d8-6423b8db6e66
[1] "addrow"
[1] "topicA-FINISHED"
   timestamp           event                          migrationId
18      2741 topicA-FINISHED a5d504ed-0c61-46c8-a5d8-6423b8db6e66
[1] "addrow"
[1] "topicB-INITIALIZED"
  timestamp              event                          migrationId
5        21 topicB-INITIALIZED a5d504ed-0c61-46c8-a5d8-6423b8db6e66
[1] "addrow"
[1] "topicB-SYNCING"
   timestamp          event                          migrationId
12       713 topicB-SYNCING a5d504ed-0c61-46c8-a5d8-6423b8db6e66
[1] "addrow"
[1] "topicB-SYNCED"
   timestamp         event                          migrationId
13      2643 topicB-SYNCED a5d504ed-0c61-46c8-a5d8-6423b8db6e66
[1] "addrow"
[1] "topicB-FINISHED"
   timestamp           event                          migrationId
19      2741 topicB-FINISHED a5d504ed-0c61-46c8-a5d8-6423b8db6e66
[1] "addrow"
[1] "topicC-INITIALIZED"
  timestamp              event                          migrationId
2         7 topicC-INITIALIZED a5d504ed-0c61-46c8-a5d8-6423b8db6e66
[1] "addrow"
[1] "topicC-SYNCING"
   timestamp          event                          migrationId
11       701 topicC-SYNCING a5d504ed-0c61-46c8-a5d8-6423b8db6e66
[1] "addrow"
[1] "topicC-SYNCED"
   timestamp         event                          migrationId
15      2666 topicC-SYNCED a5d504ed-0c61-46c8-a5d8-6423b8db6e66
[1] "addrow"
[1] "topicC-FINISHED"
   timestamp           event                          migrationId
16      2732 topicC-FINISHED a5d504ed-0c61-46c8-a5d8-6423b8db6e66
[1] "addrow"
[1] "topicD-INITIALIZED"
  timestamp              event                          migrationId
3        14 topicD-INITIALIZED a5d504ed-0c61-46c8-a5d8-6423b8db6e66
[1] "addrow"
[1] "topicD-SYNCING"
[1] "addrow"
[1] "topicD-SYNCED"
  timestamp         event                          migrationId
8        30 topicD-SYNCED a5d504ed-0c61-46c8-a5d8-6423b8db6e66
[1] "addrow"
[1] "topicD-FINISHED"
   timestamp           event                          migrationId
17      2740 topicD-FINISHED a5d504ed-0c61-46c8-a5d8-6423b8db6e66
[1] "addrow"
[1] "topicE-INITIALIZED"
  timestamp              event                          migrationId
6        23 topicE-INITIALIZED a5d504ed-0c61-46c8-a5d8-6423b8db6e66
[1] "addrow"
[1] "topicE-SYNCING"
[1] "addrow"
[1] "topicE-SYNCED"
[1] "addrow"
[1] "topicE-FINISHED"
   timestamp           event                          migrationId
21      2746 topicE-FINISHED a5d504ed-0c61-46c8-a5d8-6423b8db6e66
[1] "addrow"
[1] "topicF-INITIALIZED"
  timestamp              event                          migrationId
7        24 topicF-INITIALIZED a5d504ed-0c61-46c8-a5d8-6423b8db6e66
[1] "addrow"
[1] "topicF-SYNCING"
[1] "addrow"
[1] "topicF-SYNCED"
[1] "addrow"
[1] "topicF-FINISHED"
   timestamp           event                          migrationId
20      2747 topicF-FINISHED a5d504ed-0c61-46c8-a5d8-6423b8db6e66
pdf 
  2 
[1] "addrow"
[1] "INITIALIZED"
  timestamp       event                          migrationId
1         0 INITIALIZED a5d504ed-0c61-46c8-a5d8-6423b8db6e66
[1] "addrow"
[1] "SYNCING"
   timestamp   event                          migrationId
10       700 SYNCING a5d504ed-0c61-46c8-a5d8-6423b8db6e66
[1] "addrow"
[1] "SYNCED"
   timestamp  event                          migrationId
14      2645 SYNCED a5d504ed-0c61-46c8-a5d8-6423b8db6e66
[1] "addrow"
[1] "FINISHED"
   timestamp    event                          migrationId
22      2762 FINISHED a5d504ed-0c61-46c8-a5d8-6423b8db6e66
[1] "addrow"
[1] "topicA-INITIALIZED"
  timestamp              event                          migrationId
4        14 topicA-INITIALIZED a5d504ed-0c61-46c8-a5d8-6423b8db6e66
[1] "addrow"
[1] "topicA-SYNCING"
[1] "addrow"
[1] "topicA-SYNCED"
  timestamp         event                          migrationId
9        37 topicA-SYNCED a5d504ed-0c61-46c8-a5d8-6423b8db6e66
[1] "addrow"
[1] "topicA-FINISHED"
   timestamp           event                          migrationId
18      2741 topicA-FINISHED a5d504ed-0c61-46c8-a5d8-6423b8db6e66
[1] "addrow"
[1] "topicB-INITIALIZED"
  timestamp              event                          migrationId
5        21 topicB-INITIALIZED a5d504ed-0c61-46c8-a5d8-6423b8db6e66
[1] "addrow"
[1] "topicB-SYNCING"
   timestamp          event                          migrationId
12       713 topicB-SYNCING a5d504ed-0c61-46c8-a5d8-6423b8db6e66
[1] "addrow"
[1] "topicB-SYNCED"
   timestamp         event                          migrationId
13      2643 topicB-SYNCED a5d504ed-0c61-46c8-a5d8-6423b8db6e66
[1] "addrow"
[1] "topicB-FINISHED"
   timestamp           event                          migrationId
19      2741 topicB-FINISHED a5d504ed-0c61-46c8-a5d8-6423b8db6e66
[1] "addrow"
[1] "topicC-INITIALIZED"
  timestamp              event                          migrationId
2         7 topicC-INITIALIZED a5d504ed-0c61-46c8-a5d8-6423b8db6e66
[1] "addrow"
[1] "topicC-SYNCING"
   timestamp          event                          migrationId
11       701 topicC-SYNCING a5d504ed-0c61-46c8-a5d8-6423b8db6e66
[1] "addrow"
[1] "topicC-SYNCED"
   timestamp         event                          migrationId
15      2666 topicC-SYNCED a5d504ed-0c61-46c8-a5d8-6423b8db6e66
[1] "addrow"
[1] "topicC-FINISHED"
   timestamp           event                          migrationId
16      2732 topicC-FINISHED a5d504ed-0c61-46c8-a5d8-6423b8db6e66
[1] "addrow"
[1] "topicD-INITIALIZED"
  timestamp              event                          migrationId
3        14 topicD-INITIALIZED a5d504ed-0c61-46c8-a5d8-6423b8db6e66
[1] "addrow"
[1] "topicD-SYNCING"
[1] "addrow"
[1] "topicD-SYNCED"
  timestamp         event                          migrationId
8        30 topicD-SYNCED a5d504ed-0c61-46c8-a5d8-6423b8db6e66
[1] "addrow"
[1] "topicD-FINISHED"
   timestamp           event                          migrationId
17      2740 topicD-FINISHED a5d504ed-0c61-46c8-a5d8-6423b8db6e66
[1] "addrow"
[1] "topicE-INITIALIZED"
  timestamp              event                          migrationId
6        23 topicE-INITIALIZED a5d504ed-0c61-46c8-a5d8-6423b8db6e66
[1] "addrow"
[1] "topicE-SYNCING"
[1] "addrow"
[1] "topicE-SYNCED"
[1] "addrow"
[1] "topicE-FINISHED"
   timestamp           event                          migrationId
21      2746 topicE-FINISHED a5d504ed-0c61-46c8-a5d8-6423b8db6e66
[1] "addrow"
[1] "topicF-INITIALIZED"
  timestamp              event                          migrationId
7        24 topicF-INITIALIZED a5d504ed-0c61-46c8-a5d8-6423b8db6e66
[1] "addrow"
[1] "topicF-SYNCING"
[1] "addrow"
[1] "topicF-SYNCED"
[1] "addrow"
[1] "topicF-FINISHED"
   timestamp           event                          migrationId
20      2747 topicF-FINISHED a5d504ed-0c61-46c8-a5d8-6423b8db6e66
pdf 
  2 
[1] "addrow"
[1] "INITIALIZED"
  timestamp       event                          migrationId
1       356 INITIALIZED a5d504ed-0c61-46c8-a5d8-6423b8db6e66
[1] "addrow"
[1] "SYNCING"
   timestamp   event                          migrationId
14       660 SYNCING a5d504ed-0c61-46c8-a5d8-6423b8db6e66
[1] "addrow"
[1] "SYNCED"
   timestamp  event                          migrationId
27      2710 SYNCED a5d504ed-0c61-46c8-a5d8-6423b8db6e66
[1] "addrow"
[1] "FINISHED"
   timestamp    event                          migrationId
34      2735 FINISHED a5d504ed-0c61-46c8-a5d8-6423b8db6e66
[1] "addrow"
[1] "topicA-INITIALIZED"
  timestamp              event                          migrationId
3       380 topicA-INITIALIZED a5d504ed-0c61-46c8-a5d8-6423b8db6e66
[1] "addrow"
[1] "topicA-SYNCING"
   timestamp          event                          migrationId
10       656 topicA-SYNCING a5d504ed-0c61-46c8-a5d8-6423b8db6e66
[1] "addrow"
[1] "topicA-SYNCED"
   timestamp         event                          migrationId
18       664 topicA-SYNCED a5d504ed-0c61-46c8-a5d8-6423b8db6e66
[1] "addrow"
[1] "topicA-FINISHED"
   timestamp           event                          migrationId
30      2715 topicA-FINISHED a5d504ed-0c61-46c8-a5d8-6423b8db6e66
[1] "addrow"
[1] "topicB-INITIALIZED"
  timestamp              event                          migrationId
5       386 topicB-INITIALIZED a5d504ed-0c61-46c8-a5d8-6423b8db6e66
[1] "addrow"
[1] "topicB-SYNCING"
   timestamp          event                          migrationId
11       657 topicB-SYNCING a5d504ed-0c61-46c8-a5d8-6423b8db6e66
[1] "addrow"
[1] "topicB-SYNCED"
   timestamp         event                          migrationId
26      2710 topicB-SYNCED a5d504ed-0c61-46c8-a5d8-6423b8db6e66
[1] "addrow"
[1] "topicB-FINISHED"
   timestamp           event                          migrationId
31      2716 topicB-FINISHED a5d504ed-0c61-46c8-a5d8-6423b8db6e66
[1] "addrow"
[1] "topicC-INITIALIZED"
  timestamp              event                          migrationId
2       363 topicC-INITIALIZED a5d504ed-0c61-46c8-a5d8-6423b8db6e66
[1] "addrow"
[1] "topicC-SYNCING"
  timestamp          event                          migrationId
8       651 topicC-SYNCING a5d504ed-0c61-46c8-a5d8-6423b8db6e66
[1] "addrow"
[1] "topicC-SYNCED"
   timestamp         event                          migrationId
25      2709 topicC-SYNCED a5d504ed-0c61-46c8-a5d8-6423b8db6e66
[1] "addrow"
[1] "topicC-FINISHED"
   timestamp           event                          migrationId
28      2714 topicC-FINISHED a5d504ed-0c61-46c8-a5d8-6423b8db6e66
[1] "addrow"
[1] "topicD-INITIALIZED"
  timestamp              event                          migrationId
4       379 topicD-INITIALIZED a5d504ed-0c61-46c8-a5d8-6423b8db6e66
[1] "addrow"
[1] "topicD-SYNCING"
  timestamp          event                          migrationId
9       655 topicD-SYNCING a5d504ed-0c61-46c8-a5d8-6423b8db6e66
[1] "addrow"
[1] "topicD-SYNCED"
   timestamp         event                          migrationId
23      1936 topicD-SYNCED a5d504ed-0c61-46c8-a5d8-6423b8db6e66
[1] "addrow"
[1] "topicD-FINISHED"
   timestamp           event                          migrationId
29      2715 topicD-FINISHED a5d504ed-0c61-46c8-a5d8-6423b8db6e66
[1] "addrow"
[1] "topicE-INITIALIZED"
  timestamp              event                          migrationId
6       387 topicE-INITIALIZED a5d504ed-0c61-46c8-a5d8-6423b8db6e66
[1] "addrow"
[1] "topicE-SYNCING"
   timestamp          event                          migrationId
12       658 topicE-SYNCING a5d504ed-0c61-46c8-a5d8-6423b8db6e66
[1] "addrow"
[1] "topicE-SYNCED"
   timestamp         event                          migrationId
24      1939 topicE-SYNCED a5d504ed-0c61-46c8-a5d8-6423b8db6e66
[1] "addrow"
[1] "topicE-FINISHED"
   timestamp           event                          migrationId
32      2722 topicE-FINISHED a5d504ed-0c61-46c8-a5d8-6423b8db6e66
[1] "addrow"
[1] "topicF-INITIALIZED"
  timestamp              event                          migrationId
7       395 topicF-INITIALIZED a5d504ed-0c61-46c8-a5d8-6423b8db6e66
[1] "addrow"
[1] "topicF-SYNCING"
   timestamp          event                          migrationId
13       659 topicF-SYNCING a5d504ed-0c61-46c8-a5d8-6423b8db6e66
[1] "addrow"
[1] "topicF-SYNCED"
   timestamp         event                          migrationId
22      1932 topicF-SYNCED a5d504ed-0c61-46c8-a5d8-6423b8db6e66
[1] "addrow"
[1] "topicF-FINISHED"
   timestamp           event                          migrationId
33      2733 topicF-FINISHED a5d504ed-0c61-46c8-a5d8-6423b8db6e66
pdf 
  2 
[1] "addrow"
[1] "INITIALIZED"
  timestamp       event                          migrationId
1       356 INITIALIZED a5d504ed-0c61-46c8-a5d8-6423b8db6e66
[1] "addrow"
[1] "SYNCING"
   timestamp   event                          migrationId
14       660 SYNCING a5d504ed-0c61-46c8-a5d8-6423b8db6e66
[1] "addrow"
[1] "SYNCED"
   timestamp  event                          migrationId
27      2710 SYNCED a5d504ed-0c61-46c8-a5d8-6423b8db6e66
[1] "addrow"
[1] "FINISHED"
   timestamp    event                          migrationId
34      2735 FINISHED a5d504ed-0c61-46c8-a5d8-6423b8db6e66
[1] "addrow"
[1] "topicA-INITIALIZED"
  timestamp              event                          migrationId
3       380 topicA-INITIALIZED a5d504ed-0c61-46c8-a5d8-6423b8db6e66
[1] "addrow"
[1] "topicA-SYNCING"
   timestamp          event                          migrationId
10       656 topicA-SYNCING a5d504ed-0c61-46c8-a5d8-6423b8db6e66
[1] "addrow"
[1] "topicA-SYNCED"
   timestamp         event                          migrationId
18       664 topicA-SYNCED a5d504ed-0c61-46c8-a5d8-6423b8db6e66
[1] "addrow"
[1] "topicA-FINISHED"
   timestamp           event                          migrationId
30      2715 topicA-FINISHED a5d504ed-0c61-46c8-a5d8-6423b8db6e66
[1] "addrow"
[1] "topicB-INITIALIZED"
  timestamp              event                          migrationId
5       386 topicB-INITIALIZED a5d504ed-0c61-46c8-a5d8-6423b8db6e66
[1] "addrow"
[1] "topicB-SYNCING"
   timestamp          event                          migrationId
11       657 topicB-SYNCING a5d504ed-0c61-46c8-a5d8-6423b8db6e66
[1] "addrow"
[1] "topicB-SYNCED"
   timestamp         event                          migrationId
26      2710 topicB-SYNCED a5d504ed-0c61-46c8-a5d8-6423b8db6e66
[1] "addrow"
[1] "topicB-FINISHED"
   timestamp           event                          migrationId
31      2716 topicB-FINISHED a5d504ed-0c61-46c8-a5d8-6423b8db6e66
[1] "addrow"
[1] "topicC-INITIALIZED"
  timestamp              event                          migrationId
2       363 topicC-INITIALIZED a5d504ed-0c61-46c8-a5d8-6423b8db6e66
[1] "addrow"
[1] "topicC-SYNCING"
  timestamp          event                          migrationId
8       651 topicC-SYNCING a5d504ed-0c61-46c8-a5d8-6423b8db6e66
[1] "addrow"
[1] "topicC-SYNCED"
   timestamp         event                          migrationId
25      2709 topicC-SYNCED a5d504ed-0c61-46c8-a5d8-6423b8db6e66
[1] "addrow"
[1] "topicC-FINISHED"
   timestamp           event                          migrationId
28      2714 topicC-FINISHED a5d504ed-0c61-46c8-a5d8-6423b8db6e66
[1] "addrow"
[1] "topicD-INITIALIZED"
  timestamp              event                          migrationId
4       379 topicD-INITIALIZED a5d504ed-0c61-46c8-a5d8-6423b8db6e66
[1] "addrow"
[1] "topicD-SYNCING"
  timestamp          event                          migrationId
9       655 topicD-SYNCING a5d504ed-0c61-46c8-a5d8-6423b8db6e66
[1] "addrow"
[1] "topicD-SYNCED"
   timestamp         event                          migrationId
23      1936 topicD-SYNCED a5d504ed-0c61-46c8-a5d8-6423b8db6e66
[1] "addrow"
[1] "topicD-FINISHED"
   timestamp           event                          migrationId
29      2715 topicD-FINISHED a5d504ed-0c61-46c8-a5d8-6423b8db6e66
[1] "addrow"
[1] "topicE-INITIALIZED"
  timestamp              event                          migrationId
6       387 topicE-INITIALIZED a5d504ed-0c61-46c8-a5d8-6423b8db6e66
[1] "addrow"
[1] "topicE-SYNCING"
   timestamp          event                          migrationId
12       658 topicE-SYNCING a5d504ed-0c61-46c8-a5d8-6423b8db6e66
[1] "addrow"
[1] "topicE-SYNCED"
   timestamp         event                          migrationId
24      1939 topicE-SYNCED a5d504ed-0c61-46c8-a5d8-6423b8db6e66
[1] "addrow"
[1] "topicE-FINISHED"
   timestamp           event                          migrationId
32      2722 topicE-FINISHED a5d504ed-0c61-46c8-a5d8-6423b8db6e66
[1] "addrow"
[1] "topicF-INITIALIZED"
  timestamp              event                          migrationId
7       395 topicF-INITIALIZED a5d504ed-0c61-46c8-a5d8-6423b8db6e66
[1] "addrow"
[1] "topicF-SYNCING"
   timestamp          event                          migrationId
13       659 topicF-SYNCING a5d504ed-0c61-46c8-a5d8-6423b8db6e66
[1] "addrow"
[1] "topicF-SYNCED"
   timestamp         event                          migrationId
22      1932 topicF-SYNCED a5d504ed-0c61-46c8-a5d8-6423b8db6e66
[1] "addrow"
[1] "topicF-FINISHED"
   timestamp           event                          migrationId
33      2733 topicF-FINISHED a5d504ed-0c61-46c8-a5d8-6423b8db6e66
pdf 
  2 
