[1] "Duration B1: 756"
[1] "Duration B2: 442"
[1] "Duration MIGRATE: 288"
[1] "Duration MIGACK: 26"
[1] "addrow"
[1] "INITIALIZED"
  timestamp       event                          migrationId
1         0 INITIALIZED b3f91574-6517-44be-a46b-00f2c920d1e7
[1] "addrow"
[1] "SYNCING"
[1] "addrow"
[1] "SYNCED"
[1] "addrow"
[1] "FINISHED"
  timestamp    event                          migrationId
4       756 FINISHED b3f91574-6517-44be-a46b-00f2c920d1e7
[1] "addrow"
[1] "topicA-INITIALIZED"
  timestamp              event                          migrationId
2         5 topicA-INITIALIZED b3f91574-6517-44be-a46b-00f2c920d1e7
[1] "addrow"
[1] "topicA-SYNCING"
[1] "addrow"
[1] "topicA-SYNCED"
[1] "addrow"
[1] "topicA-FINISHED"
  timestamp           event                          migrationId
3       755 topicA-FINISHED b3f91574-6517-44be-a46b-00f2c920d1e7
