timestamp,event,migrationId
1551654390743,INITIALIZED,a4339793-d39e-4551-a623-aeeb52553557
1551654390745,topicA-INITIALIZED,a4339793-d39e-4551-a623-aeeb52553557
1551654390946,topicA-SYNCING,a4339793-d39e-4551-a623-aeeb52553557
1551654390946,SYNCING,a4339793-d39e-4551-a623-aeeb52553557
1551654390954,topicA-SYNCING_THIS,a4339793-d39e-4551-a623-aeeb52553557
1551654391190,topicA-SYNCED,a4339793-d39e-4551-a623-aeeb52553557
1551654391196,SYNCED,a4339793-d39e-4551-a623-aeeb52553557
1551654391234,topicA-FINISHED,a4339793-d39e-4551-a623-aeeb52553557
1551654391235,FINISHED,a4339793-d39e-4551-a623-aeeb52553557
