clientId,topic,guid,broker,timestamp,type
Subscriber_001,topicA,topicA-55,172.172.1.1:1883,1551645618272,RECEIVED
Subscriber_001,topicA,topicA-56,172.172.1.1:1883,1551645618274,RECEIVED
Subscriber_001,topicA,topicA-57,172.172.1.1:1883,1551645618275,RECEIVED
Subscriber_001,topicA,topicA-58,172.172.1.1:1883,1551645618336,RECEIVED
Subscriber_001,topicA,topicA-59,172.172.1.1:1883,1551645618440,RECEIVED
Subscriber_001,topicA,topicA-60,172.172.1.1:1883,1551645618535,RECEIVED
Subscriber_001,topicA,topicA-61,172.172.1.1:1883,1551645618637,RECEIVED
Subscriber_001,topicA,topicA-62,172.172.1.1:1883,1551645618741,RECEIVED
Subscriber_001,topicA,topicA-63,172.172.1.1:1883,1551645618830,RECEIVED
Subscriber_001,topicA,topicA-64,172.172.1.1:1883,1551645618930,RECEIVED
Subscriber_001,topicA,topicA-65,172.172.1.1:1883,1551645619027,RECEIVED
Subscriber_001,topicA,topicA-66,172.172.1.1:1883,1551645619137,RECEIVED
Subscriber_001,topicA,topicA-67,172.172.1.1:1883,1551645619232,RECEIVED
Subscriber_001,topicA,topicA-68,172.172.1.1:1883,1551645619331,RECEIVED
Subscriber_001,topicA,topicA-69,172.172.1.1:1883,1551645619432,RECEIVED
Subscriber_001,topicA,topicA-70,172.172.1.1:1883,1551645619533,RECEIVED
Subscriber_001,topicA,topicA-71,172.172.1.1:1883,1551645619639,RECEIVED
Subscriber_001,topicA,topicA-72,172.172.1.1:1883,1551645619732,RECEIVED
Subscriber_001,topicA,topicA-73,172.172.1.1:1883,1551645619839,RECEIVED
Subscriber_001,topicA,topicA-74,172.172.1.1:1883,1551645619938,RECEIVED
Subscriber_001,topicA,topicA-75,172.172.1.1:1883,1551645620033,RECEIVED
Subscriber_001,topicA,topicA-76,172.172.1.1:1883,1551645620134,RECEIVED
Subscriber_001,topicA,topicA-77,172.172.1.1:1883,1551645620234,RECEIVED
Subscriber_001,topicA,topicA-78,172.172.1.1:1883,1551645620336,RECEIVED
Subscriber_001,topicA,topicA-79,172.172.1.1:1883,1551645620435,RECEIVED
Subscriber_001,topicA,topicA-80,172.172.1.1:1883,1551645620540,RECEIVED
Subscriber_001,topicA,topicA-81,172.172.1.1:1883,1551645620637,RECEIVED
Subscriber_001,topicA,topicA-82,172.172.1.1:1883,1551645620742,RECEIVED
Subscriber_001,topicA,topicA-83,172.172.1.1:1883,1551645620834,RECEIVED
Subscriber_001,topicA,topicA-84,172.172.1.1:1883,1551645620939,RECEIVED
Subscriber_001,topicA,topicA-85,172.172.1.1:1883,1551645621033,RECEIVED
Subscriber_001,topicA,topicA-86,172.172.1.1:1883,1551645621138,RECEIVED
Subscriber_001,topicA,topicA-87,172.172.1.1:1883,1551645621240,RECEIVED
Subscriber_001,topicA,topicA-88,172.172.1.1:1883,1551645621335,RECEIVED
Subscriber_001,topicA,topicA-89,172.172.1.1:1883,1551645621435,RECEIVED
Subscriber_001,topicA,topicA-90,172.172.1.1:1883,1551645621531,RECEIVED
Subscriber_001,topicA,topicA-91,172.172.1.1:1883,1551645621640,RECEIVED
Subscriber_001,topicA,topicA-92,172.172.1.1:1883,1551645621736,RECEIVED
Subscriber_001,topicA,topicA-93,172.172.1.1:1883,1551645621843,RECEIVED
Subscriber_001,topicA,topicA-94,172.172.1.1:1883,1551645621939,RECEIVED
Subscriber_001,topicA,topicA-95,172.172.1.1:1883,1551645622035,RECEIVED
Subscriber_001,topicA,topicA-96,172.172.1.1:1883,1551645622135,RECEIVED
Subscriber_001,topicA,topicA-97,172.172.1.1:1883,1551645622234,RECEIVED
Subscriber_001,topicA,topicA-98,172.172.1.1:1883,1551645622332,RECEIVED
Subscriber_001,topicA,topicA-99,172.172.1.1:1883,1551645622436,RECEIVED
Subscriber_001,topicA,topicA-100,172.172.1.1:1883,1551645622533,RECEIVED
Subscriber_001,topicA,topicA-101,172.172.1.1:1883,1551645622641,RECEIVED
Subscriber_001,topicA,topicA-102,172.172.1.1:1883,1551645622731,RECEIVED
Subscriber_001,topicA,topicA-103,172.172.1.1:1883,1551645622832,RECEIVED
Subscriber_001,topicA,topicA-104,172.172.1.1:1883,1551645622928,RECEIVED
Subscriber_001,topicA,topicA-105,172.172.1.1:1883,1551645623026,RECEIVED
Subscriber_001,topicA,topicA-106,172.172.1.1:1883,1551645623136,RECEIVED
Subscriber_001,topicA,topicA-107,172.172.1.1:1883,1551645623229,RECEIVED
Subscriber_001,topicA,topicA-108,172.172.1.1:1883,1551645623330,RECEIVED
Subscriber_001,topicA,topicA-109,172.172.1.1:1883,1551645623440,RECEIVED
Subscriber_001,topicA,topicA-110,172.172.1.1:1883,1551645623538,RECEIVED
Subscriber_001,topicA,topicA-111,172.172.1.1:1883,1551645623640,RECEIVED
Subscriber_001,topicA,topicA-112,172.172.1.1:1883,1551645623741,RECEIVED
Subscriber_001,topicA,topicA-113,172.172.1.1:1883,1551645623835,RECEIVED
Subscriber_001,topicA,topicA-114,172.172.1.1:1883,1551645623945,RECEIVED
Subscriber_001,topicA,topicA-115,172.172.1.1:1883,1551645624030,RECEIVED
Subscriber_001,topicA,topicA-116,172.172.1.1:1883,1551645624141,RECEIVED
Subscriber_001,topicA,topicA-117,172.172.1.1:1883,1551645624237,RECEIVED
Subscriber_001,topicA,topicA-118,172.172.1.1:1883,1551645624342,RECEIVED
Subscriber_001,topicA,topicA-119,172.172.1.1:1883,1551645624434,RECEIVED
Subscriber_001,topicA,topicA-120,172.172.1.1:1883,1551645624532,RECEIVED
Subscriber_001,topicA,topicA-121,172.172.1.1:1883,1551645624640,RECEIVED
Subscriber_001,topicA,topicA-122,172.172.1.1:1883,1551645624736,RECEIVED
Subscriber_001,topicA,topicA-123,172.172.1.1:1883,1551645624840,RECEIVED
Subscriber_001,topicA,topicA-124,172.172.1.1:1883,1551645624929,RECEIVED
Subscriber_001,topicA,topicA-125,172.172.1.1:1883,1551645625030,RECEIVED
Subscriber_001,topicA,topicA-126,172.172.1.1:1883,1551645625135,RECEIVED
Subscriber_001,topicA,topicA-127,172.172.1.1:1883,1551645625235,RECEIVED
Subscriber_001,topicA,topicA-128,172.172.1.1:1883,1551645625331,RECEIVED
Subscriber_001,topicA,topicA-129,172.172.1.1:1883,1551645625431,RECEIVED
Subscriber_001,topicA,topicA-130,172.172.1.1:1883,1551645625539,RECEIVED
Subscriber_001,topicA,topicA-131,172.172.1.1:1883,1551645625629,RECEIVED
Subscriber_001,topicA,topicA-132,172.172.1.1:1883,1551645625731,RECEIVED
Subscriber_001,topicA,topicA-133,172.172.1.1:1883,1551645625835,RECEIVED
Subscriber_001,topicA,topicA-134,172.172.1.1:1883,1551645625929,RECEIVED
Subscriber_001,topicA,topicA-135,172.172.1.1:1883,1551645626036,RECEIVED
Subscriber_001,topicA,topicA-136,172.172.1.1:1883,1551645626154,RECEIVED
Subscriber_001,topicA,topicA-137,172.172.1.1:1883,1551645626239,RECEIVED
Subscriber_001,topicA,topicA-138,172.172.1.1:1883,1551645626337,RECEIVED
Subscriber_001,topicA,topicA-139,172.172.1.1:1883,1551645626440,RECEIVED
Subscriber_001,topicA,topicA-140,172.172.1.1:1883,1551645626543,RECEIVED
Subscriber_001,topicA,topicA-141,172.172.1.1:1883,1551645626631,RECEIVED
Subscriber_001,topicA,topicA-142,172.172.1.1:1883,1551645626730,RECEIVED
Subscriber_001,topicA,topicA-143,172.172.1.1:1883,1551645626839,RECEIVED
Subscriber_001,topicA,topicA-144,172.172.1.1:1883,1551645626941,RECEIVED
Subscriber_001,topicA,topicA-145,172.172.1.1:1883,1551645627026,RECEIVED
Subscriber_001,topicA,topicA-146,172.172.1.1:1883,1551645627130,RECEIVED
Subscriber_001,topicA,topicA-147,172.172.1.1:1883,1551645627241,RECEIVED
Subscriber_001,topicA,topicA-148,172.172.1.1:1883,1551645627335,RECEIVED
Subscriber_001,topicA,topicA-149,172.172.1.1:1883,1551645627442,RECEIVED
Subscriber_001,topicA,topicA-150,172.172.1.1:1883,1551645627541,RECEIVED
Subscriber_001,topicA,topicA-151,172.172.1.1:1883,1551645627640,RECEIVED
Subscriber_001,topicA,topicA-152,172.172.1.1:1883,1551645627735,RECEIVED
Subscriber_001,topicA,topicA-153,172.172.1.1:1883,1551645627836,RECEIVED
Subscriber_001,topicA,topicA-154,172.172.1.1:1883,1551645627933,RECEIVED
Subscriber_001,topicA,topicA-155,172.172.1.1:1883,1551645628026,RECEIVED
Subscriber_001,topicA,topicA-156,172.172.1.1:1883,1551645628129,RECEIVED
Subscriber_001,topicA,topicA-157,172.172.1.1:1883,1551645628231,RECEIVED
Subscriber_001,topicA,topicA-158,172.172.1.1:1883,1551645628329,RECEIVED
Subscriber_001,topicA,topicA-159,172.172.1.1:1883,1551645628434,RECEIVED
Subscriber_001,topicA,topicA-160,172.172.1.1:1883,1551645628529,RECEIVED
Subscriber_001,topicA,topicA-161,172.172.1.1:1883,1551645628637,RECEIVED
Subscriber_001,topicA,topicA-162,172.172.1.1:1883,1551645628736,RECEIVED
Subscriber_001,topicA,topicA-163,172.172.1.1:1883,1551645628827,RECEIVED
Subscriber_001,topicA,topicA-164,172.172.1.1:1883,1551645628934,RECEIVED
Subscriber_001,topicA,topicA-165,172.172.1.1:1883,1551645629029,RECEIVED
Subscriber_001,topicA,topicA-166,172.172.1.1:1883,1551645629137,RECEIVED
Subscriber_001,topicA,topicA-167,172.172.1.1:1883,1551645629241,RECEIVED
Subscriber_001,topicA,topicA-168,172.172.1.1:1883,1551645629336,RECEIVED
Subscriber_001,topicA,topicA-169,172.172.1.1:1883,1551645629436,RECEIVED
Subscriber_001,topicA,topicA-170,172.172.1.1:1883,1551645629535,RECEIVED
Subscriber_001,topicA,topicA-171,172.172.1.1:1883,1551645629641,RECEIVED
Subscriber_001,topicA,topicA-172,172.172.1.1:1883,1551645629737,RECEIVED
Subscriber_001,topicA,topicA-173,172.172.1.1:1883,1551645629867,RECEIVED
Subscriber_001,topicA,topicA-174,172.172.1.1:1883,1551645629927,RECEIVED
Subscriber_001,topicA,topicA-175,172.172.1.1:1883,1551645630034,RECEIVED
Subscriber_001,topicA,topicA-176,172.172.1.1:1883,1551645630126,RECEIVED
Subscriber_001,topicA,topicA-177,172.172.1.1:1883,1551645630236,RECEIVED
Subscriber_001,topicA,topicA-178,172.172.1.1:1883,1551645630331,RECEIVED
Subscriber_001,topicA,topicA-179,172.172.1.1:1883,1551645630432,RECEIVED
Subscriber_001,topicA,topicA-180,172.172.1.1:1883,1551645630536,RECEIVED
Subscriber_001,topicA,topicA-181,172.172.1.1:1883,1551645630637,RECEIVED
Subscriber_001,topicA,topicA-182,172.172.1.1:1883,1551645630740,RECEIVED
Subscriber_001,topicA,topicA-183,172.172.1.1:1883,1551645630829,RECEIVED
Subscriber_001,topicA,topicA-184,172.172.1.1:1883,1551645630930,RECEIVED
Subscriber_001,topicA,topicA-185,172.172.1.1:1883,1551645631038,RECEIVED
Subscriber_001,topicA,topicA-186,172.172.1.1:1883,1551645631131,RECEIVED
Subscriber_001,topicA,topicA-187,172.172.1.1:1883,1551645631239,RECEIVED
Subscriber_001,topicA,topicA-188,172.172.1.1:1883,1551645631350,RECEIVED
Subscriber_001,topicA,topicA-189,172.172.1.1:1883,1551645631428,RECEIVED
Subscriber_001,topicA,topicA-190,172.172.1.1:1883,1551645631530,RECEIVED
Subscriber_001,topicA,topicA-191,172.172.1.1:1883,1551645631634,RECEIVED
Subscriber_001,topicA,topicA-192,172.172.1.1:1883,1551645631736,RECEIVED
Subscriber_001,topicA,topicA-193,172.172.1.1:1883,1551645631839,RECEIVED
Subscriber_001,topicA,topicA-194,172.172.1.1:1883,1551645631927,RECEIVED
Subscriber_001,topicA,topicA-195,172.172.1.1:1883,1551645632038,RECEIVED
Subscriber_001,topicA,topicA-196,172.172.1.1:1883,1551645632142,RECEIVED
Subscriber_001,topicA,topicA-197,172.172.1.1:1883,1551645632233,RECEIVED
Subscriber_001,topicA,topicA-198,172.172.1.1:1883,1551645632338,RECEIVED
Subscriber_001,topicA,topicA-199,172.172.1.1:1883,1551645632431,RECEIVED
Subscriber_001,topicA,topicA-200,172.172.1.1:1883,1551645632533,RECEIVED
Subscriber_001,topicA,topicA-201,172.172.1.1:1883,1551645632634,RECEIVED
Subscriber_001,topicA,topicA-202,172.172.1.1:1883,1551645632737,RECEIVED
Subscriber_001,topicA,topicA-203,172.172.1.1:1883,1551645632841,RECEIVED
Subscriber_001,topicA,topicA-204,172.172.1.1:1883,1551645632935,RECEIVED
Subscriber_001,topicA,topicA-205,172.172.1.1:1883,1551645633031,RECEIVED
Subscriber_001,topicA,topicA-206,172.172.1.1:1883,1551645633126,RECEIVED
Subscriber_001,topicA,topicA-207,172.172.1.1:1883,1551645633236,RECEIVED
Subscriber_001,topicA,topicA-208,172.172.1.1:1883,1551645633337,RECEIVED
Subscriber_001,topicA,topicA-209,172.172.1.1:1883,1551645633435,RECEIVED
Subscriber_001,topicA,topicA-210,172.172.1.1:1883,1551645633536,RECEIVED
Subscriber_001,topicA,topicA-211,172.172.1.1:1883,1551645633633,RECEIVED
Subscriber_001,topicA,topicA-212,172.172.1.1:1883,1551645633729,RECEIVED
Subscriber_001,topicA,topicA-213,172.172.1.1:1883,1551645633829,RECEIVED
Subscriber_001,topicA,topicA-214,172.172.1.1:1883,1551645633928,RECEIVED
Subscriber_001,topicA,topicA-215,172.172.1.1:1883,1551645634034,RECEIVED
Subscriber_001,topicA,topicA-216,172.172.1.1:1883,1551645634134,RECEIVED
Subscriber_001,topicA,topicA-217,172.172.1.1:1883,1551645634237,RECEIVED
Subscriber_001,topicA,topicA-218,172.172.1.1:1883,1551645634336,RECEIVED
Subscriber_001,topicA,topicA-219,172.172.1.1:1883,1551645634431,RECEIVED
Subscriber_001,topicA,topicA-220,172.172.1.1:1883,1551645634533,RECEIVED
Subscriber_001,topicA,topicA-221,172.172.1.1:1883,1551645634628,RECEIVED
Subscriber_001,topicA,topicA-222,172.172.1.1:1883,1551645634733,RECEIVED
Subscriber_001,topicA,topicA-223,172.172.1.1:1883,1551645634837,RECEIVED
Subscriber_001,topicA,topicA-224,172.172.1.1:1883,1551645634954,RECEIVED
Subscriber_001,topicA,topicA-225,172.172.1.1:1883,1551645635027,RECEIVED
Subscriber_001,topicA,topicA-226,172.172.1.1:1883,1551645635131,RECEIVED
Subscriber_001,topicA,topicA-227,172.172.1.1:1883,1551645635256,RECEIVED
Subscriber_001,topicA,topicA-228,172.172.1.1:1883,1551645635338,RECEIVED
Subscriber_001,topicA,topicA-229,172.172.1.1:1883,1551645635440,RECEIVED
Subscriber_001,topicA,topicA-230,172.172.1.1:1883,1551645635536,RECEIVED
Subscriber_001,topicA,topicA-231,172.172.1.1:1883,1551645635636,RECEIVED
Subscriber_001,topicA,topicA-232,172.172.1.1:1883,1551645635739,RECEIVED
Subscriber_001,topicA,topicA-233,172.172.1.1:1883,1551645635832,RECEIVED
Subscriber_001,topicA,topicA-234,172.172.1.1:1883,1551645635944,RECEIVED
Subscriber_001,topicA,topicA-235,172.172.1.1:1883,1551645636035,RECEIVED
Subscriber_001,topicA,topicA-236,172.172.1.1:1883,1551645636138,RECEIVED
Subscriber_001,topicA,topicA-237,172.172.1.1:1883,1551645636229,RECEIVED
Subscriber_001,topicA,topicA-238,172.172.1.1:1883,1551645636331,RECEIVED
Subscriber_001,topicA,topicA-239,172.172.1.1:1883,1551645636434,RECEIVED
Subscriber_001,topicA,topicA-240,172.172.1.1:1883,1551645636526,RECEIVED
Subscriber_001,topicA,topicA-241,172.172.1.1:1883,1551645636642,RECEIVED
Subscriber_001,topicA,topicA-242,172.172.1.1:1883,1551645636737,RECEIVED
Subscriber_001,topicA,topicA-243,172.172.1.1:1883,1551645636827,RECEIVED
Subscriber_001,topicA,topicA-244,172.172.1.1:1883,1551645636935,RECEIVED
Subscriber_001,topicA,topicA-245,172.172.1.1:1883,1551645637035,RECEIVED
Subscriber_001,topicA,topicA-246,172.172.1.1:1883,1551645637130,RECEIVED
Subscriber_001,topicA,topicA-247,172.172.1.1:1883,1551645637227,RECEIVED
Subscriber_001,topicA,topicA-248,172.172.1.1:1883,1551645637331,RECEIVED
Subscriber_001,topicA,topicA-249,172.172.1.1:1883,1551645637431,RECEIVED
Subscriber_001,topicA,topicA-250,172.172.1.1:1883,1551645637530,RECEIVED
Subscriber_001,topicA,topicA-251,172.172.1.1:1883,1551645637631,RECEIVED
Subscriber_001,topicA,topicA-252,172.172.1.1:1883,1551645637732,RECEIVED
Subscriber_001,topicA,topicA-253,172.172.1.1:1883,1551645637832,RECEIVED
Subscriber_001,topicA,topicA-246,172.172.1.2:1883,1551645637886,RECEIVED
Subscriber_001,topicA,topicA-254,172.172.1.1:1883,1551645637934,RECEIVED
Subscriber_001,topicA,topicA-247,172.172.1.2:1883,1551645637971,RECEIVED
Subscriber_001,topicA,topicA-255,172.172.1.1:1883,1551645638033,RECEIVED
Subscriber_001,topicA,topicA-248,172.172.1.2:1883,1551645638119,RECEIVED
Subscriber_001,topicA,topicA-256,172.172.1.1:1883,1551645638141,RECEIVED
Subscriber_001,topicA,topicA-249,172.172.1.2:1883,1551645638175,RECEIVED
Subscriber_001,topicA,topicA-250,172.172.1.2:1883,1551645638273,RECEIVED
Subscriber_001,topicA,topicA-251,172.172.1.2:1883,1551645638375,RECEIVED
Subscriber_001,topicA,topicA-252,172.172.1.2:1883,1551645638474,RECEIVED
Subscriber_001,topicA,topicA-253,172.172.1.2:1883,1551645638593,RECEIVED
Subscriber_001,topicA,topicA-254,172.172.1.2:1883,1551645638673,RECEIVED
Subscriber_001,topicA,topicA-255,172.172.1.2:1883,1551645638780,RECEIVED
Subscriber_001,topicA,topicA-256,172.172.1.2:1883,1551645638876,RECEIVED
Subscriber_001,topicA,topicA-257,172.172.1.2:1883,1551645638977,RECEIVED
Subscriber_001,topicA,topicA-258,172.172.1.2:1883,1551645639070,RECEIVED
Subscriber_001,topicA,topicA-259,172.172.1.2:1883,1551645639174,RECEIVED
Subscriber_001,topicA,topicA-260,172.172.1.2:1883,1551645639272,RECEIVED
Subscriber_001,topicA,topicA-261,172.172.1.2:1883,1551645639371,RECEIVED
Subscriber_001,topicA,topicA-262,172.172.1.2:1883,1551645639475,RECEIVED
Subscriber_001,topicA,topicA-263,172.172.1.2:1883,1551645639571,RECEIVED
Subscriber_001,topicA,topicA-264,172.172.1.2:1883,1551645639671,RECEIVED
Subscriber_001,topicA,topicA-265,172.172.1.2:1883,1551645639775,RECEIVED
Subscriber_001,topicA,topicA-266,172.172.1.2:1883,1551645639876,RECEIVED
Subscriber_001,topicA,topicA-267,172.172.1.2:1883,1551645639968,RECEIVED
Subscriber_001,topicA,topicA-268,172.172.1.2:1883,1551645640076,RECEIVED
Subscriber_001,topicA,topicA-269,172.172.1.2:1883,1551645640176,RECEIVED
Subscriber_001,topicA,topicA-270,172.172.1.2:1883,1551645640270,RECEIVED
Subscriber_001,topicA,topicA-271,172.172.1.2:1883,1551645640367,RECEIVED
Subscriber_001,topicA,topicA-272,172.172.1.2:1883,1551645640467,RECEIVED
Subscriber_001,topicA,topicA-273,172.172.1.2:1883,1551645640576,RECEIVED
Subscriber_001,topicA,topicA-274,172.172.1.2:1883,1551645640668,RECEIVED
Subscriber_001,topicA,topicA-275,172.172.1.2:1883,1551645640768,RECEIVED
Subscriber_001,topicA,topicA-276,172.172.1.2:1883,1551645640866,RECEIVED
Subscriber_001,topicA,topicA-277,172.172.1.2:1883,1551645640974,RECEIVED
Subscriber_001,topicA,topicA-278,172.172.1.2:1883,1551645641069,RECEIVED
Subscriber_001,topicA,topicA-279,172.172.1.2:1883,1551645641176,RECEIVED
Subscriber_001,topicA,topicA-280,172.172.1.2:1883,1551645641270,RECEIVED
Subscriber_001,topicA,topicA-281,172.172.1.2:1883,1551645641370,RECEIVED
Subscriber_001,topicA,topicA-282,172.172.1.2:1883,1551645641473,RECEIVED
Subscriber_001,topicA,topicA-283,172.172.1.2:1883,1551645641573,RECEIVED
Subscriber_001,topicA,topicA-284,172.172.1.2:1883,1551645641669,RECEIVED
Subscriber_001,topicA,topicA-285,172.172.1.2:1883,1551645641774,RECEIVED
Subscriber_001,topicA,topicA-286,172.172.1.2:1883,1551645641876,RECEIVED
Subscriber_001,topicA,topicA-287,172.172.1.2:1883,1551645641976,RECEIVED
Subscriber_001,topicA,topicA-288,172.172.1.2:1883,1551645642068,RECEIVED
Subscriber_001,topicA,topicA-289,172.172.1.2:1883,1551645642174,RECEIVED
Subscriber_001,topicA,topicA-290,172.172.1.2:1883,1551645642268,RECEIVED
Subscriber_001,topicA,topicA-291,172.172.1.2:1883,1551645642373,RECEIVED
Subscriber_001,topicA,topicA-292,172.172.1.2:1883,1551645642470,RECEIVED
Subscriber_001,topicA,topicA-293,172.172.1.2:1883,1551645642571,RECEIVED
Subscriber_001,topicA,topicA-294,172.172.1.2:1883,1551645642672,RECEIVED
Subscriber_001,topicA,topicA-295,172.172.1.2:1883,1551645642773,RECEIVED
Subscriber_001,topicA,topicA-296,172.172.1.2:1883,1551645642876,RECEIVED
Subscriber_001,topicA,topicA-297,172.172.1.2:1883,1551645642967,RECEIVED
Subscriber_001,topicA,topicA-298,172.172.1.2:1883,1551645643067,RECEIVED
Subscriber_001,topicA,topicA-299,172.172.1.2:1883,1551645643177,RECEIVED
Subscriber_001,topicA,topicA-300,172.172.1.2:1883,1551645643270,RECEIVED
Subscriber_001,topicA,topicA-301,172.172.1.2:1883,1551645643366,RECEIVED
Subscriber_001,topicA,topicA-302,172.172.1.2:1883,1551645643475,RECEIVED
Subscriber_001,topicA,topicA-303,172.172.1.2:1883,1551645643573,RECEIVED
Subscriber_001,topicA,topicA-304,172.172.1.2:1883,1551645643671,RECEIVED
Subscriber_001,topicA,topicA-305,172.172.1.2:1883,1551645643768,RECEIVED
Subscriber_001,topicA,topicA-306,172.172.1.2:1883,1551645643870,RECEIVED
Subscriber_001,topicA,topicA-307,172.172.1.2:1883,1551645643971,RECEIVED
Subscriber_001,topicA,topicA-308,172.172.1.2:1883,1551645644068,RECEIVED
Subscriber_001,topicA,topicA-309,172.172.1.2:1883,1551645644170,RECEIVED
Subscriber_001,topicA,topicA-310,172.172.1.2:1883,1551645644270,RECEIVED
Subscriber_001,topicA,topicA-311,172.172.1.2:1883,1551645644371,RECEIVED
Subscriber_001,topicA,topicA-312,172.172.1.2:1883,1551645644484,RECEIVED
Subscriber_001,topicA,topicA-313,172.172.1.2:1883,1551645644574,RECEIVED
Subscriber_001,topicA,topicA-314,172.172.1.2:1883,1551645644668,RECEIVED
Subscriber_001,topicA,topicA-315,172.172.1.2:1883,1551645644770,RECEIVED
Subscriber_001,topicA,topicA-316,172.172.1.2:1883,1551645644867,RECEIVED
Subscriber_001,topicA,topicA-317,172.172.1.2:1883,1551645644972,RECEIVED
Subscriber_001,topicA,topicA-318,172.172.1.2:1883,1551645645076,RECEIVED
Subscriber_001,topicA,topicA-319,172.172.1.2:1883,1551645645175,RECEIVED
Subscriber_001,topicA,topicA-320,172.172.1.2:1883,1551645645279,RECEIVED
Subscriber_001,topicA,topicA-321,172.172.1.2:1883,1551645645375,RECEIVED
Subscriber_001,topicA,topicA-322,172.172.1.2:1883,1551645645473,RECEIVED
Subscriber_001,topicA,topicA-323,172.172.1.2:1883,1551645645573,RECEIVED
Subscriber_001,topicA,topicA-324,172.172.1.2:1883,1551645645676,RECEIVED
Subscriber_001,topicA,topicA-325,172.172.1.2:1883,1551645645771,RECEIVED
Subscriber_001,topicA,topicA-326,172.172.1.2:1883,1551645645868,RECEIVED
Subscriber_001,topicA,topicA-327,172.172.1.2:1883,1551645645968,RECEIVED
Subscriber_001,topicA,topicA-328,172.172.1.2:1883,1551645646075,RECEIVED
Subscriber_001,topicA,topicA-329,172.172.1.2:1883,1551645646168,RECEIVED
Subscriber_001,topicA,topicA-330,172.172.1.2:1883,1551645646272,RECEIVED
Subscriber_001,topicA,topicA-331,172.172.1.2:1883,1551645646369,RECEIVED
Subscriber_001,topicA,topicA-332,172.172.1.2:1883,1551645646472,RECEIVED
Subscriber_001,topicA,topicA-333,172.172.1.2:1883,1551645646576,RECEIVED
Subscriber_001,topicA,topicA-334,172.172.1.2:1883,1551645646668,RECEIVED
Subscriber_001,topicA,topicA-335,172.172.1.2:1883,1551645646776,RECEIVED
Subscriber_001,topicA,topicA-336,172.172.1.2:1883,1551645646868,RECEIVED
Subscriber_001,topicA,topicA-337,172.172.1.2:1883,1551645646977,RECEIVED
Subscriber_001,topicA,topicA-338,172.172.1.2:1883,1551645647066,RECEIVED
Subscriber_001,topicA,topicA-339,172.172.1.2:1883,1551645647172,RECEIVED
Subscriber_001,topicA,topicA-340,172.172.1.2:1883,1551645647274,RECEIVED
Subscriber_001,topicA,topicA-341,172.172.1.2:1883,1551645647369,RECEIVED
Subscriber_001,topicA,topicA-342,172.172.1.2:1883,1551645647468,RECEIVED
Subscriber_001,topicA,topicA-343,172.172.1.2:1883,1551645647576,RECEIVED
Subscriber_001,topicA,topicA-344,172.172.1.2:1883,1551645647669,RECEIVED
Subscriber_001,topicA,topicA-345,172.172.1.2:1883,1551645647769,RECEIVED
Subscriber_001,topicA,topicA-346,172.172.1.2:1883,1551645647876,RECEIVED
Subscriber_001,topicA,topicA-347,172.172.1.2:1883,1551645647975,RECEIVED
Subscriber_001,topicA,topicA-348,172.172.1.2:1883,1551645648075,RECEIVED
Subscriber_001,topicA,topicA-349,172.172.1.2:1883,1551645648169,RECEIVED
Subscriber_001,topicA,topicA-350,172.172.1.2:1883,1551645648275,RECEIVED
Subscriber_001,topicA,topicA-351,172.172.1.2:1883,1551645648372,RECEIVED
Subscriber_001,topicA,topicA-352,172.172.1.2:1883,1551645648470,RECEIVED
Subscriber_001,topicA,topicA-353,172.172.1.2:1883,1551645648574,RECEIVED
Subscriber_001,topicA,topicA-354,172.172.1.2:1883,1551645648674,RECEIVED
Subscriber_001,topicA,topicA-355,172.172.1.2:1883,1551645648772,RECEIVED
Subscriber_001,topicA,topicA-356,172.172.1.2:1883,1551645648871,RECEIVED
Subscriber_001,topicA,topicA-357,172.172.1.2:1883,1551645648977,RECEIVED
Subscriber_001,topicA,topicA-358,172.172.1.2:1883,1551645649067,RECEIVED
Subscriber_001,topicA,topicA-359,172.172.1.2:1883,1551645649169,RECEIVED
Subscriber_001,topicA,topicA-360,172.172.1.2:1883,1551645649272,RECEIVED
Subscriber_001,topicA,topicA-361,172.172.1.2:1883,1551645649369,RECEIVED
Subscriber_001,topicA,topicA-362,172.172.1.2:1883,1551645649472,RECEIVED
Subscriber_001,topicA,topicA-363,172.172.1.2:1883,1551645649569,RECEIVED
Subscriber_001,topicA,topicA-364,172.172.1.2:1883,1551645649674,RECEIVED
Subscriber_001,topicA,topicA-365,172.172.1.2:1883,1551645649770,RECEIVED
Subscriber_001,topicA,topicA-366,172.172.1.2:1883,1551645649872,RECEIVED
Subscriber_001,topicA,topicA-367,172.172.1.2:1883,1551645649974,RECEIVED
Subscriber_001,topicA,topicA-368,172.172.1.2:1883,1551645650071,RECEIVED
Subscriber_001,topicA,topicA-369,172.172.1.2:1883,1551645650176,RECEIVED
Subscriber_001,topicA,topicA-370,172.172.1.2:1883,1551645650276,RECEIVED
Subscriber_001,topicA,topicA-371,172.172.1.2:1883,1551645650373,RECEIVED
Subscriber_001,topicA,topicA-372,172.172.1.2:1883,1551645650476,RECEIVED
Subscriber_001,topicA,topicA-373,172.172.1.2:1883,1551645650570,RECEIVED
Subscriber_001,topicA,topicA-374,172.172.1.2:1883,1551645650675,RECEIVED
Subscriber_001,topicA,topicA-375,172.172.1.2:1883,1551645650771,RECEIVED
Subscriber_001,topicA,topicA-376,172.172.1.2:1883,1551645650876,RECEIVED
Subscriber_001,topicA,topicA-377,172.172.1.2:1883,1551645650975,RECEIVED
Subscriber_001,topicA,topicA-378,172.172.1.2:1883,1551645651067,RECEIVED
Subscriber_001,topicA,topicA-379,172.172.1.2:1883,1551645651182,RECEIVED
Subscriber_001,topicA,topicA-380,172.172.1.2:1883,1551645651275,RECEIVED
Subscriber_001,topicA,topicA-381,172.172.1.2:1883,1551645651374,RECEIVED
Subscriber_001,topicA,topicA-382,172.172.1.2:1883,1551645651470,RECEIVED
Subscriber_001,topicA,topicA-383,172.172.1.2:1883,1551645651574,RECEIVED
Subscriber_001,topicA,topicA-384,172.172.1.2:1883,1551645651677,RECEIVED
Subscriber_001,topicA,topicA-385,172.172.1.2:1883,1551645651772,RECEIVED
Subscriber_001,topicA,topicA-386,172.172.1.2:1883,1551645651872,RECEIVED
Subscriber_001,topicA,topicA-387,172.172.1.2:1883,1551645651968,RECEIVED
Subscriber_001,topicA,topicA-388,172.172.1.2:1883,1551645652067,RECEIVED
Subscriber_001,topicA,topicA-389,172.172.1.2:1883,1551645652173,RECEIVED
Subscriber_001,topicA,topicA-390,172.172.1.2:1883,1551645652274,RECEIVED
Subscriber_001,topicA,topicA-391,172.172.1.2:1883,1551645652372,RECEIVED
Subscriber_001,topicA,topicA-392,172.172.1.2:1883,1551645652474,RECEIVED
Subscriber_001,topicA,topicA-393,172.172.1.2:1883,1551645652570,RECEIVED
Subscriber_001,topicA,topicA-394,172.172.1.2:1883,1551645652668,RECEIVED
Subscriber_001,topicA,topicA-395,172.172.1.2:1883,1551645652774,RECEIVED
Subscriber_001,topicA,topicA-396,172.172.1.2:1883,1551645652868,RECEIVED
Subscriber_001,topicA,topicA-397,172.172.1.2:1883,1551645652968,RECEIVED
Subscriber_001,topicA,topicA-398,172.172.1.2:1883,1551645653069,RECEIVED
Subscriber_001,topicA,topicA-399,172.172.1.2:1883,1551645653173,RECEIVED
Subscriber_001,topicA,topicA-400,172.172.1.2:1883,1551645653280,RECEIVED
Subscriber_001,topicA,topicA-401,172.172.1.2:1883,1551645653373,RECEIVED
Subscriber_001,topicA,topicA-402,172.172.1.2:1883,1551645653470,RECEIVED
Subscriber_001,topicA,topicA-403,172.172.1.2:1883,1551645653569,RECEIVED
Subscriber_001,topicA,topicA-404,172.172.1.2:1883,1551645653670,RECEIVED
Subscriber_001,topicA,topicA-405,172.172.1.2:1883,1551645653786,RECEIVED
Subscriber_001,topicA,topicA-406,172.172.1.2:1883,1551645653872,RECEIVED
Subscriber_001,topicA,topicA-407,172.172.1.2:1883,1551645653975,RECEIVED
Subscriber_001,topicA,topicA-408,172.172.1.2:1883,1551645654075,RECEIVED
Subscriber_001,topicA,topicA-409,172.172.1.2:1883,1551645654167,RECEIVED
Subscriber_001,topicA,topicA-410,172.172.1.2:1883,1551645654271,RECEIVED
Subscriber_001,topicA,topicA-411,172.172.1.2:1883,1551645654382,RECEIVED
Subscriber_001,topicA,topicA-412,172.172.1.2:1883,1551645654473,RECEIVED
Subscriber_001,topicA,topicA-413,172.172.1.2:1883,1551645654571,RECEIVED
Subscriber_001,topicA,topicA-414,172.172.1.2:1883,1551645654671,RECEIVED
Subscriber_001,topicA,topicA-415,172.172.1.2:1883,1551645654773,RECEIVED
Subscriber_001,topicA,topicA-416,172.172.1.2:1883,1551645654873,RECEIVED
Subscriber_001,topicA,topicA-417,172.172.1.2:1883,1551645654986,RECEIVED
Subscriber_001,topicA,topicA-418,172.172.1.2:1883,1551645655075,RECEIVED
Subscriber_001,topicA,topicA-419,172.172.1.2:1883,1551645655167,RECEIVED
Subscriber_001,topicA,topicA-420,172.172.1.2:1883,1551645655272,RECEIVED
Subscriber_001,topicA,topicA-421,172.172.1.2:1883,1551645655370,RECEIVED
Subscriber_001,topicA,topicA-422,172.172.1.2:1883,1551645655480,RECEIVED
Subscriber_001,topicA,topicA-423,172.172.1.2:1883,1551645655567,RECEIVED
Subscriber_001,topicA,topicA-424,172.172.1.2:1883,1551645655669,RECEIVED
Subscriber_001,topicA,topicA-425,172.172.1.2:1883,1551645655770,RECEIVED
Subscriber_001,topicA,topicA-426,172.172.1.2:1883,1551645655872,RECEIVED
Subscriber_001,topicA,topicA-427,172.172.1.2:1883,1551645655968,RECEIVED
Subscriber_001,topicA,topicA-428,172.172.1.2:1883,1551645656067,RECEIVED
Subscriber_001,topicA,topicA-429,172.172.1.2:1883,1551645656171,RECEIVED
Subscriber_001,topicA,topicA-430,172.172.1.2:1883,1551645656275,RECEIVED
Subscriber_001,topicA,topicA-431,172.172.1.2:1883,1551645656370,RECEIVED
Subscriber_001,topicA,topicA-432,172.172.1.2:1883,1551645656473,RECEIVED
Subscriber_001,topicA,topicA-433,172.172.1.2:1883,1551645656569,RECEIVED
Subscriber_001,topicA,topicA-434,172.172.1.2:1883,1551645656667,RECEIVED
Subscriber_001,topicA,topicA-435,172.172.1.2:1883,1551645656771,RECEIVED
Subscriber_001,topicA,topicA-436,172.172.1.2:1883,1551645656866,RECEIVED
Subscriber_001,topicA,topicA-437,172.172.1.2:1883,1551645656973,RECEIVED
Subscriber_001,topicA,topicA-438,172.172.1.2:1883,1551645657074,RECEIVED
Subscriber_001,topicA,topicA-439,172.172.1.2:1883,1551645657175,RECEIVED
Subscriber_001,topicA,topicA-440,172.172.1.2:1883,1551645657271,RECEIVED
Subscriber_001,topicA,topicA-441,172.172.1.2:1883,1551645657375,RECEIVED
Subscriber_001,topicA,topicA-442,172.172.1.2:1883,1551645657479,RECEIVED
Subscriber_001,topicA,topicA-443,172.172.1.2:1883,1551645657572,RECEIVED
Subscriber_001,topicA,topicA-444,172.172.1.2:1883,1551645657671,RECEIVED
Subscriber_001,topicA,topicA-445,172.172.1.2:1883,1551645657772,RECEIVED
Subscriber_001,topicA,topicA-446,172.172.1.2:1883,1551645657869,RECEIVED
Subscriber_001,topicA,topicA-447,172.172.1.2:1883,1551645657971,RECEIVED
Subscriber_001,topicA,topicA-448,172.172.1.2:1883,1551645658072,RECEIVED
Subscriber_001,topicA,topicA-449,172.172.1.2:1883,1551645658171,RECEIVED
Subscriber_001,topicA,topicA-450,172.172.1.2:1883,1551645658274,RECEIVED
Subscriber_001,topicA,topicA-451,172.172.1.2:1883,1551645658367,RECEIVED
Subscriber_001,topicA,topicA-452,172.172.1.2:1883,1551645658477,RECEIVED
Subscriber_001,topicA,topicA-453,172.172.1.2:1883,1551645658566,RECEIVED
Subscriber_001,topicA,topicA-454,172.172.1.2:1883,1551645658670,RECEIVED
Subscriber_001,topicA,topicA-455,172.172.1.2:1883,1551645658766,RECEIVED
Subscriber_001,topicA,topicA-456,172.172.1.2:1883,1551645658874,RECEIVED
Subscriber_001,topicA,topicA-457,172.172.1.2:1883,1551645658968,RECEIVED
Subscriber_001,topicA,topicA-458,172.172.1.2:1883,1551645659076,RECEIVED
Subscriber_001,topicA,topicA-459,172.172.1.2:1883,1551645659171,RECEIVED
Subscriber_001,topicA,topicA-460,172.172.1.2:1883,1551645659275,RECEIVED
Subscriber_001,topicA,topicA-461,172.172.1.2:1883,1551645659373,RECEIVED
Subscriber_001,topicA,topicA-462,172.172.1.2:1883,1551645659473,RECEIVED
Subscriber_001,topicA,topicA-463,172.172.1.2:1883,1551645659566,RECEIVED
Subscriber_001,topicA,topicA-464,172.172.1.2:1883,1551645659676,RECEIVED
Subscriber_001,topicA,topicA-465,172.172.1.2:1883,1551645659767,RECEIVED
Subscriber_001,topicA,topicA-466,172.172.1.2:1883,1551645659869,RECEIVED
Subscriber_001,topicA,topicA-467,172.172.1.2:1883,1551645659970,RECEIVED
Subscriber_001,topicA,topicA-468,172.172.1.2:1883,1551645660069,RECEIVED
Subscriber_001,topicA,topicA-469,172.172.1.2:1883,1551645660179,RECEIVED
Subscriber_001,topicA,topicA-470,172.172.1.2:1883,1551645660267,RECEIVED
Subscriber_001,topicA,topicA-471,172.172.1.2:1883,1551645660370,RECEIVED
Subscriber_001,topicA,topicA-472,172.172.1.2:1883,1551645660471,RECEIVED
Subscriber_001,topicA,topicA-473,172.172.1.2:1883,1551645660566,RECEIVED
Subscriber_001,topicA,topicA-474,172.172.1.2:1883,1551645660666,RECEIVED
Subscriber_001,topicA,topicA-475,172.172.1.2:1883,1551645660774,RECEIVED
Subscriber_001,topicA,topicA-476,172.172.1.2:1883,1551645660873,RECEIVED
Subscriber_001,topicA,topicA-477,172.172.1.2:1883,1551645660970,RECEIVED
Subscriber_001,topicA,topicA-478,172.172.1.2:1883,1551645661067,RECEIVED
Subscriber_001,topicA,topicA-479,172.172.1.2:1883,1551645661171,RECEIVED
Subscriber_001,topicA,topicA-480,172.172.1.2:1883,1551645661270,RECEIVED
Subscriber_001,topicA,topicA-481,172.172.1.2:1883,1551645661369,RECEIVED
Subscriber_001,topicA,topicA-482,172.172.1.2:1883,1551645661467,RECEIVED
Subscriber_001,topicA,topicA-483,172.172.1.2:1883,1551645661568,RECEIVED
Subscriber_001,topicA,topicA-484,172.172.1.2:1883,1551645661671,RECEIVED
Subscriber_001,topicA,topicA-485,172.172.1.2:1883,1551645661773,RECEIVED
Subscriber_001,topicA,topicA-486,172.172.1.2:1883,1551645661872,RECEIVED
Subscriber_001,topicA,topicA-487,172.172.1.2:1883,1551645661970,RECEIVED
Subscriber_001,topicA,topicA-488,172.172.1.2:1883,1551645662076,RECEIVED
Subscriber_001,topicA,topicA-489,172.172.1.2:1883,1551645662172,RECEIVED
Subscriber_001,topicA,topicA-490,172.172.1.2:1883,1551645662268,RECEIVED
Subscriber_001,topicA,topicA-491,172.172.1.2:1883,1551645662372,RECEIVED
Subscriber_001,topicA,topicA-492,172.172.1.2:1883,1551645662474,RECEIVED
Subscriber_001,topicA,topicA-493,172.172.1.2:1883,1551645662575,RECEIVED
Subscriber_001,topicA,topicA-494,172.172.1.2:1883,1551645662666,RECEIVED
Subscriber_001,topicA,topicA-495,172.172.1.2:1883,1551645662773,RECEIVED
Subscriber_001,topicA,topicA-496,172.172.1.2:1883,1551645662871,RECEIVED
Subscriber_001,topicA,topicA-497,172.172.1.2:1883,1551645662968,RECEIVED
Subscriber_001,topicA,topicA-498,172.172.1.2:1883,1551645663067,RECEIVED
Subscriber_001,topicA,topicA-499,172.172.1.2:1883,1551645663168,RECEIVED
Subscriber_001,topicA,topicA-500,172.172.1.2:1883,1551645663275,RECEIVED
Subscriber_001,topicA,topicA-501,172.172.1.2:1883,1551645663369,RECEIVED
Subscriber_001,topicA,topicA-502,172.172.1.2:1883,1551645663473,RECEIVED
Subscriber_001,topicA,topicA-503,172.172.1.2:1883,1551645663569,RECEIVED
Subscriber_001,topicA,topicA-504,172.172.1.2:1883,1551645663667,RECEIVED
Subscriber_001,topicA,topicA-505,172.172.1.2:1883,1551645663777,RECEIVED
Subscriber_001,topicA,topicA-506,172.172.1.2:1883,1551645663875,RECEIVED
Subscriber_001,topicA,topicA-507,172.172.1.2:1883,1551645663977,RECEIVED
Subscriber_001,topicA,topicA-508,172.172.1.2:1883,1551645664072,RECEIVED
Subscriber_001,topicA,topicA-509,172.172.1.2:1883,1551645664175,RECEIVED
Subscriber_001,topicA,topicA-510,172.172.1.2:1883,1551645664274,RECEIVED
Subscriber_001,topicA,topicA-511,172.172.1.2:1883,1551645664376,RECEIVED
Subscriber_001,topicA,topicA-512,172.172.1.2:1883,1551645664475,RECEIVED
Subscriber_001,topicA,topicA-513,172.172.1.2:1883,1551645664568,RECEIVED
Subscriber_001,topicA,topicA-514,172.172.1.2:1883,1551645664668,RECEIVED
Subscriber_001,topicA,topicA-515,172.172.1.2:1883,1551645664775,RECEIVED
Subscriber_001,topicA,topicA-516,172.172.1.2:1883,1551645664871,RECEIVED
Subscriber_001,topicA,topicA-517,172.172.1.2:1883,1551645664973,RECEIVED
Subscriber_001,topicA,topicA-518,172.172.1.2:1883,1551645665066,RECEIVED
Subscriber_001,topicA,topicA-519,172.172.1.2:1883,1551645665172,RECEIVED
Subscriber_001,topicA,topicA-520,172.172.1.2:1883,1551645665271,RECEIVED
Subscriber_001,topicA,topicA-521,172.172.1.2:1883,1551645665368,RECEIVED
Subscriber_001,topicA,topicA-522,172.172.1.2:1883,1551645665473,RECEIVED
Subscriber_001,topicA,topicA-523,172.172.1.2:1883,1551645665566,RECEIVED
Subscriber_001,topicA,topicA-524,172.172.1.2:1883,1551645665669,RECEIVED
Subscriber_001,topicA,topicA-525,172.172.1.2:1883,1551645665768,RECEIVED
Subscriber_001,topicA,topicA-526,172.172.1.2:1883,1551645665868,RECEIVED
Subscriber_001,topicA,topicA-527,172.172.1.2:1883,1551645665973,RECEIVED
Subscriber_001,topicA,topicA-528,172.172.1.2:1883,1551645666071,RECEIVED
Subscriber_001,topicA,topicA-529,172.172.1.2:1883,1551645666169,RECEIVED
Subscriber_001,topicA,topicA-530,172.172.1.2:1883,1551645666277,RECEIVED
Subscriber_001,topicA,topicA-531,172.172.1.2:1883,1551645666371,RECEIVED
Subscriber_001,topicA,topicA-532,172.172.1.2:1883,1551645666483,RECEIVED
Subscriber_001,topicA,topicA-533,172.172.1.2:1883,1551645666566,RECEIVED
Subscriber_001,topicA,topicA-534,172.172.1.2:1883,1551645666672,RECEIVED
Subscriber_001,topicA,topicA-535,172.172.1.2:1883,1551645666769,RECEIVED
Subscriber_001,topicA,topicA-536,172.172.1.2:1883,1551645666870,RECEIVED
Subscriber_001,topicA,topicA-537,172.172.1.2:1883,1551645666972,RECEIVED
Subscriber_001,topicA,topicA-538,172.172.1.2:1883,1551645667066,RECEIVED
Subscriber_001,topicA,topicA-539,172.172.1.2:1883,1551645667176,RECEIVED
Subscriber_001,topicA,topicA-540,172.172.1.2:1883,1551645667271,RECEIVED
Subscriber_001,topicA,topicA-541,172.172.1.2:1883,1551645667376,RECEIVED
Subscriber_001,topicA,topicA-542,172.172.1.2:1883,1551645667475,RECEIVED
Subscriber_001,topicA,topicA-543,172.172.1.2:1883,1551645667572,RECEIVED
Subscriber_001,topicA,topicA-544,172.172.1.2:1883,1551645667670,RECEIVED
Subscriber_001,topicA,topicA-545,172.172.1.2:1883,1551645667772,RECEIVED
Subscriber_001,topicA,topicA-546,172.172.1.2:1883,1551645667875,RECEIVED
Subscriber_001,topicA,topicA-547,172.172.1.2:1883,1551645667970,RECEIVED
Subscriber_001,topicA,topicA-548,172.172.1.2:1883,1551645668070,RECEIVED
Subscriber_001,topicA,topicA-549,172.172.1.2:1883,1551645668171,RECEIVED
Subscriber_001,topicA,topicA-550,172.172.1.2:1883,1551645668271,RECEIVED
Subscriber_001,topicA,topicA-551,172.172.1.2:1883,1551645668370,RECEIVED
Subscriber_001,topicA,topicA-552,172.172.1.2:1883,1551645668467,RECEIVED
Subscriber_001,topicA,topicA-553,172.172.1.2:1883,1551645668571,RECEIVED
Subscriber_001,topicA,topicA-554,172.172.1.2:1883,1551645668671,RECEIVED
Subscriber_001,topicA,topicA-555,172.172.1.2:1883,1551645668774,RECEIVED
Subscriber_001,topicA,topicA-556,172.172.1.2:1883,1551645668873,RECEIVED
Subscriber_001,topicA,topicA-557,172.172.1.2:1883,1551645668973,RECEIVED
Subscriber_001,topicA,topicA-558,172.172.1.2:1883,1551645669068,RECEIVED
Subscriber_001,topicA,topicA-559,172.172.1.2:1883,1551645669173,RECEIVED
Subscriber_001,topicA,topicA-560,172.172.1.2:1883,1551645669275,RECEIVED
Subscriber_001,topicA,topicA-561,172.172.1.2:1883,1551645669369,RECEIVED
Subscriber_001,topicA,topicA-562,172.172.1.2:1883,1551645669473,RECEIVED
Subscriber_001,topicA,topicA-563,172.172.1.2:1883,1551645669572,RECEIVED
Subscriber_001,topicA,topicA-564,172.172.1.2:1883,1551645669674,RECEIVED
Subscriber_001,topicA,topicA-565,172.172.1.2:1883,1551645669769,RECEIVED
Subscriber_001,topicA,topicA-566,172.172.1.2:1883,1551645669871,RECEIVED
Subscriber_001,topicA,topicA-567,172.172.1.2:1883,1551645669969,RECEIVED
Subscriber_001,topicA,topicA-568,172.172.1.2:1883,1551645670075,RECEIVED
Subscriber_001,topicA,topicA-569,172.172.1.2:1883,1551645670168,RECEIVED
Subscriber_001,topicA,topicA-570,172.172.1.2:1883,1551645670266,RECEIVED
Subscriber_001,topicA,topicA-571,172.172.1.2:1883,1551645670371,RECEIVED
Subscriber_001,topicA,topicA-572,172.172.1.2:1883,1551645670467,RECEIVED
Subscriber_001,topicA,topicA-573,172.172.1.2:1883,1551645670569,RECEIVED
Subscriber_001,topicA,topicA-574,172.172.1.2:1883,1551645670667,RECEIVED
Subscriber_001,topicA,topicA-575,172.172.1.2:1883,1551645670769,RECEIVED
Subscriber_001,topicA,topicA-576,172.172.1.2:1883,1551645670872,RECEIVED
Subscriber_001,topicA,topicA-577,172.172.1.2:1883,1551645670972,RECEIVED
Subscriber_001,topicA,topicA-578,172.172.1.2:1883,1551645671071,RECEIVED
Subscriber_001,topicA,topicA-579,172.172.1.2:1883,1551645671173,RECEIVED
Subscriber_001,topicA,topicA-580,172.172.1.2:1883,1551645671271,RECEIVED
Subscriber_001,topicA,topicA-581,172.172.1.2:1883,1551645671368,RECEIVED
Subscriber_001,topicA,topicA-582,172.172.1.2:1883,1551645671466,RECEIVED
Subscriber_001,topicA,topicA-583,172.172.1.2:1883,1551645671567,RECEIVED
Subscriber_001,topicA,topicA-584,172.172.1.2:1883,1551645671666,RECEIVED
Subscriber_001,topicA,topicA-585,172.172.1.2:1883,1551645671771,RECEIVED
Subscriber_001,topicA,topicA-586,172.172.1.2:1883,1551645671874,RECEIVED
Subscriber_001,topicA,topicA-587,172.172.1.2:1883,1551645671974,RECEIVED
Subscriber_001,topicA,topicA-588,172.172.1.2:1883,1551645672068,RECEIVED
Subscriber_001,topicA,topicA-589,172.172.1.2:1883,1551645672166,RECEIVED
Subscriber_001,topicA,topicA-590,172.172.1.2:1883,1551645672300,RECEIVED
Subscriber_001,topicA,topicA-591,172.172.1.2:1883,1551645672366,RECEIVED
Subscriber_001,topicA,topicA-592,172.172.1.2:1883,1551645672470,RECEIVED
Subscriber_001,topicA,topicA-593,172.172.1.2:1883,1551645672568,RECEIVED
Subscriber_001,topicA,topicA-594,172.172.1.2:1883,1551645672675,RECEIVED
Subscriber_001,topicA,topicA-595,172.172.1.2:1883,1551645672774,RECEIVED
Subscriber_001,topicA,topicA-596,172.172.1.2:1883,1551645672869,RECEIVED
Subscriber_001,topicA,topicA-597,172.172.1.2:1883,1551645672976,RECEIVED
Subscriber_001,topicA,topicA-598,172.172.1.2:1883,1551645673072,RECEIVED
Subscriber_001,topicA,topicA-599,172.172.1.2:1883,1551645673175,RECEIVED
Subscriber_001,topicA,topicA-600,172.172.1.2:1883,1551645673273,RECEIVED
Subscriber_001,topicA,topicA-601,172.172.1.2:1883,1551645673381,RECEIVED
Subscriber_001,topicA,topicA-602,172.172.1.2:1883,1551645673473,RECEIVED
Subscriber_001,topicA,topicA-603,172.172.1.2:1883,1551645673567,RECEIVED
Subscriber_001,topicA,topicA-604,172.172.1.2:1883,1551645673666,RECEIVED
Subscriber_001,topicA,topicA-605,172.172.1.2:1883,1551645673766,RECEIVED
Subscriber_001,topicA,topicA-606,172.172.1.2:1883,1551645673873,RECEIVED
Subscriber_001,topicA,topicA-607,172.172.1.2:1883,1551645673968,RECEIVED
Subscriber_001,topicA,topicA-608,172.172.1.2:1883,1551645674068,RECEIVED
Subscriber_001,topicA,topicA-609,172.172.1.2:1883,1551645674172,RECEIVED
Subscriber_001,topicA,topicA-610,172.172.1.2:1883,1551645674270,RECEIVED
Subscriber_001,topicA,topicA-611,172.172.1.2:1883,1551645674371,RECEIVED
Subscriber_001,topicA,topicA-612,172.172.1.2:1883,1551645674471,RECEIVED
Subscriber_001,topicA,topicA-613,172.172.1.2:1883,1551645674568,RECEIVED
Subscriber_001,topicA,topicA-614,172.172.1.2:1883,1551645674670,RECEIVED
Subscriber_001,topicA,topicA-615,172.172.1.2:1883,1551645674775,RECEIVED
Subscriber_001,topicA,topicA-616,172.172.1.2:1883,1551645674874,RECEIVED
Subscriber_001,topicA,topicA-617,172.172.1.2:1883,1551645674966,RECEIVED
Subscriber_001,topicA,topicA-618,172.172.1.2:1883,1551645675066,RECEIVED
Subscriber_001,topicA,topicA-619,172.172.1.2:1883,1551645675174,RECEIVED
Subscriber_001,topicA,topicA-620,172.172.1.2:1883,1551645675271,RECEIVED
Subscriber_001,topicA,topicA-621,172.172.1.2:1883,1551645675373,RECEIVED
Subscriber_001,topicA,topicA-622,172.172.1.2:1883,1551645675476,RECEIVED
Subscriber_001,topicA,topicA-623,172.172.1.2:1883,1551645675570,RECEIVED
Subscriber_001,topicA,topicA-624,172.172.1.2:1883,1551645675671,RECEIVED
Subscriber_001,topicA,topicA-625,172.172.1.2:1883,1551645675772,RECEIVED
Subscriber_001,topicA,topicA-626,172.172.1.2:1883,1551645675870,RECEIVED
Subscriber_001,topicA,topicA-627,172.172.1.2:1883,1551645675977,RECEIVED
Subscriber_001,topicA,topicA-628,172.172.1.2:1883,1551645676069,RECEIVED
Subscriber_001,topicA,topicA-629,172.172.1.2:1883,1551645676167,RECEIVED
Subscriber_001,topicA,topicA-630,172.172.1.2:1883,1551645676275,RECEIVED
Subscriber_001,topicA,topicA-631,172.172.1.2:1883,1551645676371,RECEIVED
Subscriber_001,topicA,topicA-632,172.172.1.2:1883,1551645676472,RECEIVED
Subscriber_001,topicA,topicA-633,172.172.1.2:1883,1551645676574,RECEIVED
Subscriber_001,topicA,topicA-634,172.172.1.2:1883,1551645676672,RECEIVED
Subscriber_001,topicA,topicA-635,172.172.1.2:1883,1551645676775,RECEIVED
Subscriber_001,topicA,topicA-636,172.172.1.2:1883,1551645676866,RECEIVED
Subscriber_001,topicA,topicA-637,172.172.1.2:1883,1551645676972,RECEIVED
Subscriber_001,topicA,topicA-638,172.172.1.2:1883,1551645677072,RECEIVED
Subscriber_001,topicA,topicA-639,172.172.1.2:1883,1551645677176,RECEIVED
Subscriber_001,topicA,topicA-640,172.172.1.2:1883,1551645677272,RECEIVED
Subscriber_001,topicA,topicA-641,172.172.1.2:1883,1551645677375,RECEIVED
Subscriber_001,topicA,topicA-642,172.172.1.2:1883,1551645677467,RECEIVED
Subscriber_001,topicA,topicA-643,172.172.1.2:1883,1551645677570,RECEIVED
Subscriber_001,topicA,topicA-644,172.172.1.2:1883,1551645677670,RECEIVED
Subscriber_001,topicA,topicA-645,172.172.1.2:1883,1551645677769,RECEIVED
Subscriber_001,topicA,topicA-646,172.172.1.2:1883,1551645677869,RECEIVED
Subscriber_001,topicA,topicA-647,172.172.1.2:1883,1551645677972,RECEIVED
Subscriber_001,topicA,topicA-648,172.172.1.2:1883,1551645678066,RECEIVED
Subscriber_001,topicA,topicA-649,172.172.1.2:1883,1551645678176,RECEIVED
Subscriber_001,topicA,topicA-650,172.172.1.2:1883,1551645678271,RECEIVED
Subscriber_001,topicA,topicA-651,172.172.1.2:1883,1551645678372,RECEIVED
Subscriber_001,topicA,topicA-652,172.172.1.2:1883,1551645678471,RECEIVED
Subscriber_001,topicA,topicA-653,172.172.1.2:1883,1551645678567,RECEIVED
Subscriber_001,topicA,topicA-654,172.172.1.2:1883,1551645678676,RECEIVED
