clientId,topic,guid,broker,timestamp,type
Publisher_001,topicA,topicA-1,172.172.1.1:1883,1551656540296,PRODUCED
Publisher_001,topicA,topicA-2,172.172.1.1:1883,1551656540617,PRODUCED
Publisher_001,topicA,topicA-3,172.172.1.1:1883,1551656540623,PRODUCED
Publisher_001,topicA,topicA-4,172.172.1.1:1883,1551656540628,PRODUCED
Publisher_001,topicA,topicA-5,172.172.1.1:1883,1551656540632,PRODUCED
Publisher_001,topicA,topicA-6,172.172.1.1:1883,1551656540640,PRODUCED
Publisher_001,topicA,topicA-7,172.172.1.1:1883,1551656540740,PRODUCED
Publisher_001,topicA,topicA-8,172.172.1.1:1883,1551656540840,PRODUCED
Publisher_001,topicA,topicA-9,172.172.1.1:1883,1551656540941,PRODUCED
Publisher_001,topicA,topicA-10,172.172.1.1:1883,1551656541045,PRODUCED
Publisher_001,topicA,topicA-11,172.172.1.1:1883,1551656541142,PRODUCED
Publisher_001,topicA,topicA-12,172.172.1.1:1883,1551656541241,PRODUCED
Publisher_001,topicA,topicA-13,172.172.1.1:1883,1551656541340,PRODUCED
Publisher_001,topicA,topicA-14,172.172.1.1:1883,1551656541440,PRODUCED
Publisher_001,topicA,topicA-15,172.172.1.1:1883,1551656541541,PRODUCED
Publisher_001,topicA,topicA-16,172.172.1.1:1883,1551656541641,PRODUCED
Publisher_001,topicA,topicA-17,172.172.1.1:1883,1551656541741,PRODUCED
Publisher_001,topicA,topicA-18,172.172.1.1:1883,1551656541844,PRODUCED
Publisher_001,topicA,topicA-19,172.172.1.1:1883,1551656541941,PRODUCED
Publisher_001,topicA,topicA-20,172.172.1.1:1883,1551656542044,PRODUCED
Publisher_001,topicA,topicA-21,172.172.1.1:1883,1551656542141,PRODUCED
Publisher_001,topicA,topicA-22,172.172.1.1:1883,1551656542240,PRODUCED
Publisher_001,topicA,topicA-23,172.172.1.1:1883,1551656542340,PRODUCED
Publisher_001,topicA,topicA-24,172.172.1.1:1883,1551656542440,PRODUCED
Publisher_001,topicA,topicA-25,172.172.1.1:1883,1551656542540,PRODUCED
Publisher_001,topicA,topicA-26,172.172.1.1:1883,1551656542641,PRODUCED
Publisher_001,topicA,topicA-27,172.172.1.1:1883,1551656542740,PRODUCED
Publisher_001,topicA,topicA-28,172.172.1.1:1883,1551656542842,PRODUCED
Publisher_001,topicA,topicA-29,172.172.1.1:1883,1551656542946,PRODUCED
Publisher_001,topicA,topicA-30,172.172.1.1:1883,1551656543041,PRODUCED
Publisher_001,topicA,topicA-31,172.172.1.1:1883,1551656543140,PRODUCED
Publisher_001,topicA,topicA-32,172.172.1.1:1883,1551656543243,PRODUCED
Publisher_001,topicA,topicA-33,172.172.1.1:1883,1551656543340,PRODUCED
Publisher_001,topicA,topicA-34,172.172.1.1:1883,1551656543440,PRODUCED
Publisher_001,topicA,topicA-35,172.172.1.1:1883,1551656543541,PRODUCED
Publisher_001,topicA,topicA-36,172.172.1.1:1883,1551656543641,PRODUCED
Publisher_001,topicA,topicA-37,172.172.1.1:1883,1551656543741,PRODUCED
Publisher_001,topicA,topicA-38,172.172.1.1:1883,1551656543840,PRODUCED
Publisher_001,topicA,topicA-39,172.172.1.1:1883,1551656543940,PRODUCED
Publisher_001,topicA,topicA-40,172.172.1.1:1883,1551656544041,PRODUCED
Publisher_001,topicA,topicA-41,172.172.1.1:1883,1551656544142,PRODUCED
Publisher_001,topicA,topicA-42,172.172.1.1:1883,1551656544241,PRODUCED
Publisher_001,topicA,topicA-43,172.172.1.1:1883,1551656544341,PRODUCED
Publisher_001,topicA,topicA-44,172.172.1.1:1883,1551656544444,PRODUCED
Publisher_001,topicA,topicA-45,172.172.1.1:1883,1551656544543,PRODUCED
Publisher_001,topicA,topicA-46,172.172.1.1:1883,1551656544640,PRODUCED
Publisher_001,topicA,topicA-47,172.172.1.1:1883,1551656544740,PRODUCED
Publisher_001,topicA,topicA-48,172.172.1.1:1883,1551656544840,PRODUCED
Publisher_001,topicA,topicA-49,172.172.1.1:1883,1551656544940,PRODUCED
Publisher_001,topicA,topicA-50,172.172.1.1:1883,1551656545040,PRODUCED
Publisher_001,topicA,topicA-51,172.172.1.1:1883,1551656545140,PRODUCED
Publisher_001,topicA,topicA-52,172.172.1.1:1883,1551656545240,PRODUCED
Publisher_001,topicA,topicA-53,172.172.1.1:1883,1551656545342,PRODUCED
Publisher_001,topicA,topicA-54,172.172.1.1:1883,1551656545441,PRODUCED
Publisher_001,topicA,topicA-55,172.172.1.1:1883,1551656545540,PRODUCED
Publisher_001,topicA,topicA-56,172.172.1.1:1883,1551656545643,PRODUCED
Publisher_001,topicA,topicA-57,172.172.1.1:1883,1551656545740,PRODUCED
Publisher_001,topicA,topicA-58,172.172.1.1:1883,1551656545840,PRODUCED
Publisher_001,topicA,topicA-59,172.172.1.1:1883,1551656545940,PRODUCED
Publisher_001,topicA,topicA-60,172.172.1.1:1883,1551656546044,PRODUCED
Publisher_001,topicA,topicA-61,172.172.1.1:1883,1551656546141,PRODUCED
Publisher_001,topicA,topicA-62,172.172.1.1:1883,1551656546249,PRODUCED
Publisher_001,topicA,topicA-63,172.172.1.1:1883,1551656546341,PRODUCED
Publisher_001,topicA,topicA-64,172.172.1.1:1883,1551656546448,PRODUCED
Publisher_001,topicA,topicA-65,172.172.1.1:1883,1551656546541,PRODUCED
Publisher_001,topicA,topicA-66,172.172.1.1:1883,1551656546641,PRODUCED
Publisher_001,topicA,topicA-67,172.172.1.1:1883,1551656546740,PRODUCED
Publisher_001,topicA,topicA-68,172.172.1.1:1883,1551656546841,PRODUCED
Publisher_001,topicA,topicA-69,172.172.1.1:1883,1551656546941,PRODUCED
Publisher_001,topicA,topicA-70,172.172.1.1:1883,1551656547041,PRODUCED
Publisher_001,topicA,topicA-71,172.172.1.1:1883,1551656547141,PRODUCED
Publisher_001,topicA,topicA-72,172.172.1.1:1883,1551656547240,PRODUCED
Publisher_001,topicA,topicA-73,172.172.1.1:1883,1551656547341,PRODUCED
Publisher_001,topicA,topicA-74,172.172.1.1:1883,1551656547440,PRODUCED
Publisher_001,topicA,topicA-75,172.172.1.1:1883,1551656547541,PRODUCED
Publisher_001,topicA,topicA-76,172.172.1.1:1883,1551656547641,PRODUCED
Publisher_001,topicA,topicA-77,172.172.1.1:1883,1551656547742,PRODUCED
Publisher_001,topicA,topicA-78,172.172.1.1:1883,1551656547840,PRODUCED
Publisher_001,topicA,topicA-79,172.172.1.1:1883,1551656547941,PRODUCED
Publisher_001,topicA,topicA-80,172.172.1.1:1883,1551656548044,PRODUCED
Publisher_001,topicA,topicA-81,172.172.1.1:1883,1551656548141,PRODUCED
Publisher_001,topicA,topicA-82,172.172.1.1:1883,1551656548241,PRODUCED
Publisher_001,topicA,topicA-83,172.172.1.1:1883,1551656548345,PRODUCED
Publisher_001,topicA,topicA-84,172.172.1.1:1883,1551656548441,PRODUCED
Publisher_001,topicA,topicA-85,172.172.1.1:1883,1551656548541,PRODUCED
Publisher_001,topicA,topicA-86,172.172.1.1:1883,1551656548642,PRODUCED
Publisher_001,topicA,topicA-87,172.172.1.1:1883,1551656548741,PRODUCED
Publisher_001,topicA,topicA-88,172.172.1.1:1883,1551656548845,PRODUCED
Publisher_001,topicA,topicA-89,172.172.1.1:1883,1551656548941,PRODUCED
Publisher_001,topicA,topicA-90,172.172.1.1:1883,1551656549042,PRODUCED
Publisher_001,topicA,topicA-91,172.172.1.1:1883,1551656549142,PRODUCED
Publisher_001,topicA,topicA-92,172.172.1.1:1883,1551656549244,PRODUCED
Publisher_001,topicA,topicA-93,172.172.1.1:1883,1551656549341,PRODUCED
Publisher_001,topicA,topicA-94,172.172.1.1:1883,1551656549441,PRODUCED
Publisher_001,topicA,topicA-95,172.172.1.1:1883,1551656549541,PRODUCED
Publisher_001,topicA,topicA-96,172.172.1.1:1883,1551656549646,PRODUCED
Publisher_001,topicA,topicA-97,172.172.1.1:1883,1551656549741,PRODUCED
Publisher_001,topicA,topicA-98,172.172.1.1:1883,1551656549841,PRODUCED
Publisher_001,topicA,topicA-99,172.172.1.1:1883,1551656549942,PRODUCED
Publisher_001,topicA,topicA-100,172.172.1.1:1883,1551656550042,PRODUCED
Publisher_001,topicA,topicA-101,172.172.1.1:1883,1551656550143,PRODUCED
Publisher_001,topicA,topicA-102,172.172.1.1:1883,1551656550243,PRODUCED
Publisher_001,topicA,topicA-103,172.172.1.1:1883,1551656550342,PRODUCED
Publisher_001,topicA,topicA-104,172.172.1.1:1883,1551656550440,PRODUCED
Publisher_001,topicA,topicA-105,172.172.1.1:1883,1551656550544,PRODUCED
Publisher_001,topicA,topicA-106,172.172.1.1:1883,1551656550640,PRODUCED
Publisher_001,topicA,topicA-107,172.172.1.1:1883,1551656550742,PRODUCED
Publisher_001,topicA,topicA-108,172.172.1.1:1883,1551656550840,PRODUCED
Publisher_001,topicA,topicA-109,172.172.1.1:1883,1551656550943,PRODUCED
Publisher_001,topicA,topicA-110,172.172.1.1:1883,1551656551041,PRODUCED
Publisher_001,topicA,topicA-111,172.172.1.1:1883,1551656551141,PRODUCED
Publisher_001,topicA,topicA-112,172.172.1.1:1883,1551656551242,PRODUCED
Publisher_001,topicA,topicA-113,172.172.1.1:1883,1551656551340,PRODUCED
Publisher_001,topicA,topicA-114,172.172.1.1:1883,1551656551442,PRODUCED
Publisher_001,topicA,topicA-115,172.172.1.1:1883,1551656551540,PRODUCED
Publisher_001,topicA,topicA-116,172.172.1.1:1883,1551656551645,PRODUCED
Publisher_001,topicA,topicA-117,172.172.1.1:1883,1551656551742,PRODUCED
Publisher_001,topicA,topicA-118,172.172.1.1:1883,1551656551840,PRODUCED
Publisher_001,topicA,topicA-119,172.172.1.1:1883,1551656551941,PRODUCED
Publisher_001,topicA,topicA-120,172.172.1.1:1883,1551656552040,PRODUCED
Publisher_001,topicA,topicA-121,172.172.1.1:1883,1551656552140,PRODUCED
Publisher_001,topicA,topicA-122,172.172.1.1:1883,1551656552247,PRODUCED
Publisher_001,topicA,topicA-123,172.172.1.1:1883,1551656552340,PRODUCED
Publisher_001,topicA,topicA-124,172.172.1.1:1883,1551656552440,PRODUCED
Publisher_001,topicA,topicA-125,172.172.1.1:1883,1551656552540,PRODUCED
Publisher_001,topicA,topicA-126,172.172.1.1:1883,1551656552642,PRODUCED
Publisher_001,topicA,topicA-127,172.172.1.1:1883,1551656552741,PRODUCED
Publisher_001,topicA,topicA-128,172.172.1.1:1883,1551656552841,PRODUCED
Publisher_001,topicA,topicA-129,172.172.1.1:1883,1551656552942,PRODUCED
Publisher_001,topicA,topicA-130,172.172.1.1:1883,1551656553042,PRODUCED
Publisher_001,topicA,topicA-131,172.172.1.1:1883,1551656553141,PRODUCED
Publisher_001,topicA,topicA-132,172.172.1.1:1883,1551656553246,PRODUCED
Publisher_001,topicA,topicA-133,172.172.1.1:1883,1551656553341,PRODUCED
Publisher_001,topicA,topicA-134,172.172.1.1:1883,1551656553441,PRODUCED
Publisher_001,topicA,topicA-135,172.172.1.1:1883,1551656553541,PRODUCED
Publisher_001,topicA,topicA-136,172.172.1.1:1883,1551656553641,PRODUCED
Publisher_001,topicA,topicA-137,172.172.1.1:1883,1551656553741,PRODUCED
Publisher_001,topicA,topicA-138,172.172.1.1:1883,1551656553841,PRODUCED
Publisher_001,topicA,topicA-139,172.172.1.1:1883,1551656553940,PRODUCED
Publisher_001,topicA,topicA-140,172.172.1.1:1883,1551656554042,PRODUCED
Publisher_001,topicA,topicA-141,172.172.1.1:1883,1551656554141,PRODUCED
Publisher_001,topicA,topicA-142,172.172.1.1:1883,1551656554242,PRODUCED
Publisher_001,topicA,topicA-143,172.172.1.1:1883,1551656554342,PRODUCED
Publisher_001,topicA,topicA-144,172.172.1.1:1883,1551656554441,PRODUCED
Publisher_001,topicA,topicA-145,172.172.1.1:1883,1551656554541,PRODUCED
Publisher_001,topicA,topicA-146,172.172.1.1:1883,1551656554641,PRODUCED
Publisher_001,topicA,topicA-147,172.172.1.1:1883,1551656554741,PRODUCED
Publisher_001,topicA,topicA-148,172.172.1.1:1883,1551656554841,PRODUCED
Publisher_001,topicA,topicA-149,172.172.1.1:1883,1551656554940,PRODUCED
Publisher_001,topicA,topicA-150,172.172.1.1:1883,1551656555040,PRODUCED
Publisher_001,topicA,topicA-151,172.172.1.1:1883,1551656555140,PRODUCED
Publisher_001,topicA,topicA-152,172.172.1.1:1883,1551656555240,PRODUCED
Publisher_001,topicA,topicA-153,172.172.1.1:1883,1551656555348,PRODUCED
Publisher_001,topicA,topicA-154,172.172.1.1:1883,1551656555441,PRODUCED
Publisher_001,topicA,topicA-155,172.172.1.1:1883,1551656555540,PRODUCED
Publisher_001,topicA,topicA-156,172.172.1.1:1883,1551656555641,PRODUCED
Publisher_001,topicA,topicA-157,172.172.1.1:1883,1551656555741,PRODUCED
Publisher_001,topicA,topicA-158,172.172.1.1:1883,1551656555841,PRODUCED
Publisher_001,topicA,topicA-159,172.172.1.1:1883,1551656555941,PRODUCED
Publisher_001,topicA,topicA-160,172.172.1.1:1883,1551656556041,PRODUCED
Publisher_001,topicA,topicA-161,172.172.1.1:1883,1551656556141,PRODUCED
Publisher_001,topicA,topicA-162,172.172.1.1:1883,1551656556241,PRODUCED
Publisher_001,topicA,topicA-163,172.172.1.1:1883,1551656556343,PRODUCED
Publisher_001,topicA,topicA-164,172.172.1.1:1883,1551656556440,PRODUCED
Publisher_001,topicA,topicA-165,172.172.1.1:1883,1551656556540,PRODUCED
Publisher_001,topicA,topicA-166,172.172.1.1:1883,1551656556640,PRODUCED
Publisher_001,topicA,topicA-167,172.172.1.1:1883,1551656556740,PRODUCED
Publisher_001,topicA,topicA-168,172.172.1.1:1883,1551656556841,PRODUCED
Publisher_001,topicA,topicA-169,172.172.1.1:1883,1551656556941,PRODUCED
Publisher_001,topicA,topicA-170,172.172.1.1:1883,1551656557041,PRODUCED
Publisher_001,topicA,topicA-171,172.172.1.1:1883,1551656557142,PRODUCED
Publisher_001,topicA,topicA-172,172.172.1.1:1883,1551656557242,PRODUCED
Publisher_001,topicA,topicA-173,172.172.1.1:1883,1551656557342,PRODUCED
Publisher_001,topicA,topicA-174,172.172.1.1:1883,1551656557441,PRODUCED
Publisher_001,topicA,topicA-175,172.172.1.1:1883,1551656557546,PRODUCED
Publisher_001,topicA,topicA-176,172.172.1.1:1883,1551656557641,PRODUCED
Publisher_001,topicA,topicA-177,172.172.1.1:1883,1551656557741,PRODUCED
Publisher_001,topicA,topicA-178,172.172.1.1:1883,1551656557841,PRODUCED
Publisher_001,topicA,topicA-179,172.172.1.1:1883,1551656557941,PRODUCED
Publisher_001,topicA,topicA-180,172.172.1.1:1883,1551656558041,PRODUCED
Publisher_001,topicA,topicA-181,172.172.1.1:1883,1551656558141,PRODUCED
Publisher_001,topicA,topicA-182,172.172.1.1:1883,1551656558244,PRODUCED
Publisher_001,topicA,topicA-183,172.172.1.1:1883,1551656558343,PRODUCED
Publisher_001,topicA,topicA-184,172.172.1.1:1883,1551656558445,PRODUCED
Publisher_001,topicA,topicA-185,172.172.1.1:1883,1551656558541,PRODUCED
Publisher_001,topicA,topicA-186,172.172.1.1:1883,1551656558641,PRODUCED
Publisher_001,topicA,topicA-187,172.172.1.1:1883,1551656558743,PRODUCED
Publisher_001,topicA,topicA-188,172.172.1.1:1883,1551656558844,PRODUCED
Publisher_001,topicA,topicA-189,172.172.1.1:1883,1551656558941,PRODUCED
Publisher_001,topicA,topicA-190,172.172.1.1:1883,1551656559040,PRODUCED
Publisher_001,topicA,topicA-191,172.172.1.1:1883,1551656559140,PRODUCED
Publisher_001,topicA,topicA-192,172.172.1.1:1883,1551656559242,PRODUCED
Publisher_001,topicA,topicA-193,172.172.1.1:1883,1551656559340,PRODUCED
Publisher_001,topicA,topicA-194,172.172.1.1:1883,1551656559441,PRODUCED
Publisher_001,topicA,topicA-195,172.172.1.1:1883,1551656559541,PRODUCED
Publisher_001,topicA,topicA-196,172.172.1.1:1883,1551656559642,PRODUCED
Publisher_001,topicA,topicA-197,172.172.1.1:1883,1551656559740,PRODUCED
Publisher_001,topicA,topicA-198,172.172.1.1:1883,1551656559841,PRODUCED
Publisher_001,topicA,topicA-199,172.172.1.1:1883,1551656559942,PRODUCED
Publisher_001,topicA,topicA-200,172.172.1.1:1883,1551656560043,PRODUCED
Publisher_001,topicA,topicA-201,172.172.1.1:1883,1551656560140,PRODUCED
Publisher_001,topicA,topicA-202,172.172.1.1:1883,1551656560242,PRODUCED
Publisher_001,topicA,topicA-203,172.172.1.1:1883,1551656560342,PRODUCED
Publisher_001,topicA,topicA-204,172.172.1.1:1883,1551656560440,PRODUCED
Publisher_001,topicA,topicA-205,172.172.1.1:1883,1551656560541,PRODUCED
Publisher_001,topicA,topicA-206,172.172.1.1:1883,1551656560640,PRODUCED
Publisher_001,topicA,topicA-207,172.172.1.1:1883,1551656560742,PRODUCED
Publisher_001,topicA,topicA-208,172.172.1.1:1883,1551656560840,PRODUCED
Publisher_001,topicA,topicA-209,172.172.1.1:1883,1551656560942,PRODUCED
Publisher_001,topicA,topicA-210,172.172.1.1:1883,1551656561042,PRODUCED
Publisher_001,topicA,topicA-211,172.172.1.1:1883,1551656561140,PRODUCED
Publisher_001,topicA,topicA-212,172.172.1.1:1883,1551656561245,PRODUCED
Publisher_001,topicA,topicA-213,172.172.1.1:1883,1551656561340,PRODUCED
Publisher_001,topicA,topicA-214,172.172.1.1:1883,1551656561444,PRODUCED
Publisher_001,topicA,topicA-215,172.172.1.1:1883,1551656561541,PRODUCED
Publisher_001,topicA,topicA-216,172.172.1.1:1883,1551656561644,PRODUCED
Publisher_001,topicA,topicA-217,172.172.1.1:1883,1551656561743,PRODUCED
Publisher_001,topicA,topicA-218,172.172.1.1:1883,1551656561841,PRODUCED
Publisher_001,topicA,topicA-219,172.172.1.1:1883,1551656561942,PRODUCED
Publisher_001,topicA,topicA-220,172.172.1.1:1883,1551656562040,PRODUCED
Publisher_001,topicA,topicA-221,172.172.1.1:1883,1551656562141,PRODUCED
Publisher_001,topicA,topicA-222,172.172.1.1:1883,1551656562243,PRODUCED
Publisher_001,topicA,topicA-223,172.172.1.1:1883,1551656562341,PRODUCED
Publisher_001,topicA,topicA-224,172.172.1.1:1883,1551656562442,PRODUCED
Publisher_001,topicA,topicA-225,172.172.1.1:1883,1551656562542,PRODUCED
Publisher_001,topicA,topicA-226,172.172.1.1:1883,1551656562642,PRODUCED
Publisher_001,topicA,topicA-227,172.172.1.1:1883,1551656562742,PRODUCED
Publisher_001,topicA,topicA-228,172.172.1.1:1883,1551656562841,PRODUCED
Publisher_001,topicA,topicA-229,172.172.1.1:1883,1551656562944,PRODUCED
Publisher_001,topicA,topicA-230,172.172.1.1:1883,1551656563044,PRODUCED
Publisher_001,topicA,topicA-231,172.172.1.1:1883,1551656563141,PRODUCED
Publisher_001,topicA,topicA-232,172.172.1.1:1883,1551656563243,PRODUCED
Publisher_001,topicA,topicA-233,172.172.1.1:1883,1551656563341,PRODUCED
Publisher_001,topicA,topicA-234,172.172.1.1:1883,1551656563441,PRODUCED
Publisher_001,topicA,topicA-235,172.172.1.1:1883,1551656563541,PRODUCED
Publisher_001,topicA,topicA-236,172.172.1.1:1883,1551656563641,PRODUCED
Publisher_001,topicA,topicA-237,172.172.1.1:1883,1551656563741,PRODUCED
Publisher_001,topicA,topicA-238,172.172.1.1:1883,1551656563841,PRODUCED
Publisher_001,topicA,topicA-239,172.172.1.1:1883,1551656563943,PRODUCED
Publisher_001,topicA,topicA-240,172.172.1.1:1883,1551656564041,PRODUCED
Publisher_001,topicA,topicA-241,172.172.1.1:1883,1551656564145,PRODUCED
Publisher_001,topicA,topicA-242,172.172.1.1:1883,1551656564241,PRODUCED
Publisher_001,topicA,topicA-243,172.172.1.1:1883,1551656564341,PRODUCED
Publisher_001,topicA,topicA-244,172.172.1.1:1883,1551656564441,PRODUCED
Publisher_001,topicA,topicA-245,172.172.1.1:1883,1551656564540,PRODUCED
Publisher_001,topicA,topicA-246,172.172.1.1:1883,1551656564640,PRODUCED
Publisher_001,topicA,topicA-247,172.172.1.1:1883,1551656564740,PRODUCED
Publisher_001,topicA,topicA-248,172.172.1.1:1883,1551656564840,PRODUCED
Publisher_001,topicA,topicA-249,172.172.1.1:1883,1551656564940,PRODUCED
Publisher_001,topicA,topicA-250,172.172.1.1:1883,1551656565041,PRODUCED
Publisher_001,topicA,topicA-251,172.172.1.1:1883,1551656565140,PRODUCED
Publisher_001,topicA,topicA-252,172.172.1.1:1883,1551656565240,PRODUCED
Publisher_001,topicA,topicA-253,172.172.1.1:1883,1551656565341,PRODUCED
Publisher_001,topicA,topicA-254,172.172.1.1:1883,1551656565440,PRODUCED
Publisher_001,topicA,topicA-255,172.172.1.1:1883,1551656565541,PRODUCED
Publisher_001,topicA,topicA-256,172.172.1.1:1883,1551656565647,PRODUCED
Publisher_001,topicA,topicA-257,172.172.1.1:1883,1551656565741,PRODUCED
Publisher_001,topicA,topicA-258,172.172.1.1:1883,1551656565842,PRODUCED
Publisher_001,topicA,topicA-259,172.172.1.1:1883,1551656565940,PRODUCED
Publisher_001,topicA,topicA-260,172.172.1.1:1883,1551656566043,PRODUCED
Publisher_001,topicA,topicA-261,172.172.1.1:1883,1551656566141,PRODUCED
Publisher_001,topicA,topicA-262,172.172.1.1:1883,1551656566240,PRODUCED
Publisher_001,topicA,topicA-263,172.172.1.1:1883,1551656566341,PRODUCED
Publisher_001,topicA,topicA-264,172.172.1.1:1883,1551656566440,PRODUCED
Publisher_001,topicA,topicA-265,172.172.1.1:1883,1551656566541,PRODUCED
Publisher_001,topicA,topicA-266,172.172.1.1:1883,1551656566642,PRODUCED
Publisher_001,topicA,topicA-267,172.172.1.1:1883,1551656566740,PRODUCED
Publisher_001,topicA,topicA-268,172.172.1.1:1883,1551656566841,PRODUCED
Publisher_001,topicA,topicA-269,172.172.1.1:1883,1551656566941,PRODUCED
Publisher_001,topicA,topicA-270,172.172.1.1:1883,1551656567040,PRODUCED
Publisher_001,topicA,topicA-271,172.172.1.1:1883,1551656567141,PRODUCED
Publisher_001,topicA,topicA-272,172.172.1.1:1883,1551656567243,PRODUCED
Publisher_001,topicA,topicA-273,172.172.1.1:1883,1551656567341,PRODUCED
Publisher_001,topicA,topicA-274,172.172.1.1:1883,1551656567441,PRODUCED
Publisher_001,topicA,topicA-275,172.172.1.1:1883,1551656567541,PRODUCED
Publisher_001,topicA,topicA-276,172.172.1.1:1883,1551656567641,PRODUCED
Publisher_001,topicA,topicA-277,172.172.1.1:1883,1551656567740,PRODUCED
Publisher_001,topicA,topicA-278,172.172.1.1:1883,1551656567842,PRODUCED
Publisher_001,topicA,topicA-279,172.172.1.1:1883,1551656567941,PRODUCED
Publisher_001,topicA,topicA-280,172.172.1.1:1883,1551656568041,PRODUCED
Publisher_001,topicA,topicA-281,172.172.1.1:1883,1551656568144,PRODUCED
Publisher_001,topicA,topicA-282,172.172.1.1:1883,1551656568241,PRODUCED
Publisher_001,topicA,topicA-283,172.172.1.1:1883,1551656568341,PRODUCED
Publisher_001,topicA,topicA-284,172.172.1.1:1883,1551656568441,PRODUCED
Publisher_001,topicA,topicA-285,172.172.1.1:1883,1551656568540,PRODUCED
Publisher_001,topicA,topicA-286,172.172.1.1:1883,1551656568641,PRODUCED
Publisher_001,topicA,topicA-287,172.172.1.1:1883,1551656568740,PRODUCED
Publisher_001,topicA,topicA-288,172.172.1.1:1883,1551656568841,PRODUCED
Publisher_001,topicA,topicA-289,172.172.1.1:1883,1551656568942,PRODUCED
Publisher_001,topicA,topicA-290,172.172.1.1:1883,1551656569040,PRODUCED
Publisher_001,topicA,topicA-291,172.172.1.1:1883,1551656569141,PRODUCED
Publisher_001,topicA,topicA-292,172.172.1.1:1883,1551656569241,PRODUCED
Publisher_001,topicA,topicA-293,172.172.1.1:1883,1551656569342,PRODUCED
Publisher_001,topicA,topicA-294,172.172.1.1:1883,1551656569443,PRODUCED
Publisher_001,topicA,topicA-295,172.172.1.1:1883,1551656569541,PRODUCED
Publisher_001,topicA,topicA-296,172.172.1.1:1883,1551656569643,PRODUCED
Publisher_001,topicA,topicA-297,172.172.1.1:1883,1551656569740,PRODUCED
Publisher_001,topicA,topicA-298,172.172.1.1:1883,1551656569841,PRODUCED
Publisher_001,topicA,topicA-299,172.172.1.1:1883,1551656569941,PRODUCED
Publisher_001,topicA,topicA-300,172.172.1.1:1883,1551656570043,PRODUCED
Publisher_001,topicA,topicA-301,172.172.1.1:1883,1551656570144,PRODUCED
Publisher_001,topicA,topicA-302,172.172.1.1:1883,1551656570242,PRODUCED
Publisher_001,topicA,topicA-303,172.172.1.1:1883,1551656570343,PRODUCED
Publisher_001,topicA,topicA-304,172.172.1.1:1883,1551656570440,PRODUCED
Publisher_001,topicA,topicA-305,172.172.1.1:1883,1551656570541,PRODUCED
Publisher_001,topicA,topicA-306,172.172.1.1:1883,1551656570641,PRODUCED
Publisher_001,topicA,topicA-307,172.172.1.1:1883,1551656570744,PRODUCED
Publisher_001,topicA,topicA-308,172.172.1.1:1883,1551656570841,PRODUCED
Publisher_001,topicA,topicA-309,172.172.1.1:1883,1551656570941,PRODUCED
Publisher_001,topicA,topicA-310,172.172.1.1:1883,1551656571041,PRODUCED
Publisher_001,topicA,topicA-311,172.172.1.1:1883,1551656571141,PRODUCED
Publisher_001,topicA,topicA-312,172.172.1.1:1883,1551656571240,PRODUCED
Publisher_001,topicA,topicA-313,172.172.1.1:1883,1551656571341,PRODUCED
Publisher_001,topicA,topicA-314,172.172.1.1:1883,1551656571444,PRODUCED
Publisher_001,topicA,topicA-315,172.172.1.1:1883,1551656571541,PRODUCED
Publisher_001,topicA,topicA-316,172.172.1.1:1883,1551656571641,PRODUCED
Publisher_001,topicA,topicA-317,172.172.1.1:1883,1551656571741,PRODUCED
Publisher_001,topicA,topicA-318,172.172.1.1:1883,1551656571842,PRODUCED
Publisher_001,topicA,topicA-319,172.172.1.1:1883,1551656571947,PRODUCED
Publisher_001,topicA,topicA-320,172.172.1.1:1883,1551656572044,PRODUCED
Publisher_001,topicA,topicA-321,172.172.1.1:1883,1551656572140,PRODUCED
Publisher_001,topicA,topicA-322,172.172.1.1:1883,1551656572241,PRODUCED
Publisher_001,topicA,topicA-323,172.172.1.1:1883,1551656572340,PRODUCED
Publisher_001,topicA,topicA-324,172.172.1.1:1883,1551656572441,PRODUCED
Publisher_001,topicA,topicA-325,172.172.1.1:1883,1551656572541,PRODUCED
Publisher_001,topicA,topicA-326,172.172.1.1:1883,1551656572640,PRODUCED
Publisher_001,topicA,topicA-327,172.172.1.1:1883,1551656572741,PRODUCED
Publisher_001,topicA,topicA-328,172.172.1.1:1883,1551656572843,PRODUCED
Publisher_001,topicA,topicA-329,172.172.1.1:1883,1551656572942,PRODUCED
Publisher_001,topicA,topicA-330,172.172.1.1:1883,1551656573040,PRODUCED
Publisher_001,topicA,topicA-331,172.172.1.1:1883,1551656573142,PRODUCED
Publisher_001,topicA,topicA-332,172.172.1.1:1883,1551656573241,PRODUCED
Publisher_001,topicA,topicA-333,172.172.1.1:1883,1551656573343,PRODUCED
Publisher_001,topicA,topicA-334,172.172.1.1:1883,1551656573441,PRODUCED
Publisher_001,topicA,topicA-335,172.172.1.1:1883,1551656573540,PRODUCED
Publisher_001,topicA,topicA-336,172.172.1.1:1883,1551656573642,PRODUCED
Publisher_001,topicA,topicA-337,172.172.1.1:1883,1551656573741,PRODUCED
Publisher_001,topicA,topicA-338,172.172.1.1:1883,1551656573843,PRODUCED
Publisher_001,topicA,topicA-339,172.172.1.1:1883,1551656573945,PRODUCED
Publisher_001,topicA,topicA-340,172.172.1.1:1883,1551656574042,PRODUCED
Publisher_001,topicA,topicA-341,172.172.1.1:1883,1551656574144,PRODUCED
Publisher_001,topicA,topicA-342,172.172.1.1:1883,1551656574241,PRODUCED
Publisher_001,topicA,topicA-343,172.172.1.1:1883,1551656574341,PRODUCED
Publisher_001,topicA,topicA-344,172.172.1.1:1883,1551656574442,PRODUCED
Publisher_001,topicA,topicA-345,172.172.1.1:1883,1551656574541,PRODUCED
Publisher_001,topicA,topicA-346,172.172.1.1:1883,1551656574641,PRODUCED
Publisher_001,topicA,topicA-347,172.172.1.1:1883,1551656574741,PRODUCED
Publisher_001,topicA,topicA-348,172.172.1.1:1883,1551656574841,PRODUCED
Publisher_001,topicA,topicA-349,172.172.1.1:1883,1551656574942,PRODUCED
Publisher_001,topicA,topicA-350,172.172.1.1:1883,1551656575041,PRODUCED
Publisher_001,topicA,topicA-351,172.172.1.1:1883,1551656575140,PRODUCED
Publisher_001,topicA,topicA-352,172.172.1.1:1883,1551656575241,PRODUCED
Publisher_001,topicA,topicA-353,172.172.1.1:1883,1551656575341,PRODUCED
Publisher_001,topicA,topicA-354,172.172.1.1:1883,1551656575441,PRODUCED
Publisher_001,topicA,topicA-355,172.172.1.1:1883,1551656575542,PRODUCED
Publisher_001,topicA,topicA-356,172.172.1.1:1883,1551656575641,PRODUCED
Publisher_001,topicA,topicA-357,172.172.1.1:1883,1551656575742,PRODUCED
Publisher_001,topicA,topicA-358,172.172.1.1:1883,1551656575844,PRODUCED
Publisher_001,topicA,topicA-359,172.172.1.1:1883,1551656575941,PRODUCED
Publisher_001,topicA,topicA-360,172.172.1.1:1883,1551656576046,PRODUCED
Publisher_001,topicA,topicA-361,172.172.1.1:1883,1551656576141,PRODUCED
Publisher_001,topicA,topicA-362,172.172.1.1:1883,1551656576241,PRODUCED
Publisher_001,topicA,topicA-363,172.172.1.1:1883,1551656576341,PRODUCED
Publisher_001,topicA,topicA-364,172.172.1.1:1883,1551656576444,PRODUCED
Publisher_001,topicA,topicA-365,172.172.1.1:1883,1551656576541,PRODUCED
Publisher_001,topicA,topicA-366,172.172.1.1:1883,1551656576641,PRODUCED
Publisher_001,topicA,topicA-367,172.172.1.1:1883,1551656576740,PRODUCED
Publisher_001,topicA,topicA-368,172.172.1.1:1883,1551656576847,PRODUCED
Publisher_001,topicA,topicA-369,172.172.1.1:1883,1551656576941,PRODUCED
Publisher_001,topicA,topicA-370,172.172.1.1:1883,1551656577041,PRODUCED
Publisher_001,topicA,topicA-371,172.172.1.1:1883,1551656577141,PRODUCED
Publisher_001,topicA,topicA-372,172.172.1.1:1883,1551656577242,PRODUCED
Publisher_001,topicA,topicA-373,172.172.1.1:1883,1551656577342,PRODUCED
Publisher_001,topicA,topicA-374,172.172.1.1:1883,1551656577445,PRODUCED
Publisher_001,topicA,topicA-375,172.172.1.1:1883,1551656577542,PRODUCED
Publisher_001,topicA,topicA-376,172.172.1.1:1883,1551656577641,PRODUCED
Publisher_001,topicA,topicA-377,172.172.1.1:1883,1551656577740,PRODUCED
Publisher_001,topicA,topicA-378,172.172.1.1:1883,1551656577841,PRODUCED
Publisher_001,topicA,topicA-379,172.172.1.1:1883,1551656577943,PRODUCED
Publisher_001,topicA,topicA-380,172.172.1.1:1883,1551656578040,PRODUCED
Publisher_001,topicA,topicA-381,172.172.1.1:1883,1551656578141,PRODUCED
Publisher_001,topicA,topicA-382,172.172.1.1:1883,1551656578241,PRODUCED
Publisher_001,topicA,topicA-383,172.172.1.1:1883,1551656578342,PRODUCED
Publisher_001,topicA,topicA-384,172.172.1.1:1883,1551656578446,PRODUCED
Publisher_001,topicA,topicA-385,172.172.1.1:1883,1551656578544,PRODUCED
Publisher_001,topicA,topicA-386,172.172.1.1:1883,1551656578641,PRODUCED
Publisher_001,topicA,topicA-387,172.172.1.1:1883,1551656578743,PRODUCED
Publisher_001,topicA,topicA-388,172.172.1.1:1883,1551656578841,PRODUCED
Publisher_001,topicA,topicA-389,172.172.1.1:1883,1551656578941,PRODUCED
Publisher_001,topicA,topicA-390,172.172.1.1:1883,1551656579042,PRODUCED
Publisher_001,topicA,topicA-391,172.172.1.1:1883,1551656579141,PRODUCED
Publisher_001,topicA,topicA-392,172.172.1.1:1883,1551656579240,PRODUCED
Publisher_001,topicA,topicA-393,172.172.1.1:1883,1551656579340,PRODUCED
Publisher_001,topicA,topicA-394,172.172.1.1:1883,1551656579442,PRODUCED
Publisher_001,topicA,topicA-395,172.172.1.1:1883,1551656579544,PRODUCED
Publisher_001,topicA,topicA-396,172.172.1.1:1883,1551656579641,PRODUCED
Publisher_001,topicA,topicA-397,172.172.1.1:1883,1551656579741,PRODUCED
Publisher_001,topicA,topicA-398,172.172.1.1:1883,1551656579841,PRODUCED
Publisher_001,topicA,topicA-399,172.172.1.1:1883,1551656579941,PRODUCED
Publisher_001,topicA,topicA-400,172.172.1.1:1883,1551656580040,PRODUCED
Publisher_001,topicA,topicA-401,172.172.1.1:1883,1551656580141,PRODUCED
Publisher_001,topicA,topicA-402,172.172.1.1:1883,1551656580247,PRODUCED
Publisher_001,topicA,topicA-403,172.172.1.1:1883,1551656580343,PRODUCED
Publisher_001,topicA,topicA-404,172.172.1.1:1883,1551656580440,PRODUCED
Publisher_001,topicA,topicA-405,172.172.1.1:1883,1551656580544,PRODUCED
Publisher_001,topicA,topicA-406,172.172.1.1:1883,1551656580640,PRODUCED
Publisher_001,topicA,topicA-407,172.172.1.1:1883,1551656580746,PRODUCED
Publisher_001,topicA,topicA-408,172.172.1.1:1883,1551656580848,PRODUCED
Publisher_001,topicA,topicA-409,172.172.1.1:1883,1551656580941,PRODUCED
Publisher_001,topicA,topicA-410,172.172.1.1:1883,1551656581043,PRODUCED
Publisher_001,topicA,topicA-411,172.172.1.1:1883,1551656581141,PRODUCED
Publisher_001,topicA,topicA-412,172.172.1.1:1883,1551656581241,PRODUCED
Publisher_001,topicA,topicA-413,172.172.1.1:1883,1551656581342,PRODUCED
Publisher_001,topicA,topicA-414,172.172.1.1:1883,1551656581441,PRODUCED
Publisher_001,topicA,topicA-415,172.172.1.1:1883,1551656581543,PRODUCED
Publisher_001,topicA,topicA-416,172.172.1.1:1883,1551656581641,PRODUCED
Publisher_001,topicA,topicA-417,172.172.1.1:1883,1551656581741,PRODUCED
Publisher_001,topicA,topicA-418,172.172.1.1:1883,1551656581840,PRODUCED
Publisher_001,topicA,topicA-419,172.172.1.1:1883,1551656581940,PRODUCED
Publisher_001,topicA,topicA-420,172.172.1.1:1883,1551656582043,PRODUCED
Publisher_001,topicA,topicA-421,172.172.1.1:1883,1551656582140,PRODUCED
Publisher_001,topicA,topicA-422,172.172.1.1:1883,1551656582240,PRODUCED
Publisher_001,topicA,topicA-423,172.172.1.1:1883,1551656582340,PRODUCED
Publisher_001,topicA,topicA-424,172.172.1.1:1883,1551656582441,PRODUCED
Publisher_001,topicA,topicA-425,172.172.1.1:1883,1551656582545,PRODUCED
Publisher_001,topicA,topicA-426,172.172.1.1:1883,1551656582642,PRODUCED
Publisher_001,topicA,topicA-427,172.172.1.1:1883,1551656582740,PRODUCED
Publisher_001,topicA,topicA-428,172.172.1.1:1883,1551656582842,PRODUCED
Publisher_001,topicA,topicA-429,172.172.1.1:1883,1551656582941,PRODUCED
Publisher_001,topicA,topicA-430,172.172.1.1:1883,1551656583040,PRODUCED
Publisher_001,topicA,topicA-431,172.172.1.1:1883,1551656583142,PRODUCED
Publisher_001,topicA,topicA-432,172.172.1.1:1883,1551656583240,PRODUCED
Publisher_001,topicA,topicA-433,172.172.1.1:1883,1551656583341,PRODUCED
Publisher_001,topicA,topicA-434,172.172.1.1:1883,1551656583441,PRODUCED
Publisher_001,topicA,topicA-435,172.172.1.1:1883,1551656583540,PRODUCED
Publisher_001,topicA,topicA-436,172.172.1.1:1883,1551656583641,PRODUCED
Publisher_001,topicA,topicA-437,172.172.1.1:1883,1551656583742,PRODUCED
Publisher_001,topicA,topicA-438,172.172.1.1:1883,1551656583841,PRODUCED
Publisher_001,topicA,topicA-439,172.172.1.1:1883,1551656583942,PRODUCED
Publisher_001,topicA,topicA-440,172.172.1.1:1883,1551656584044,PRODUCED
Publisher_001,topicA,topicA-441,172.172.1.1:1883,1551656584141,PRODUCED
Publisher_001,topicA,topicA-442,172.172.1.1:1883,1551656584240,PRODUCED
Publisher_001,topicA,topicA-443,172.172.1.1:1883,1551656584341,PRODUCED
Publisher_001,topicA,topicA-444,172.172.1.1:1883,1551656584441,PRODUCED
Publisher_001,topicA,topicA-445,172.172.1.1:1883,1551656584541,PRODUCED
Publisher_001,topicA,topicA-446,172.172.1.1:1883,1551656584641,PRODUCED
Publisher_001,topicA,topicA-447,172.172.1.1:1883,1551656584740,PRODUCED
Publisher_001,topicA,topicA-448,172.172.1.1:1883,1551656584841,PRODUCED
Publisher_001,topicA,topicA-449,172.172.1.1:1883,1551656584941,PRODUCED
Publisher_001,topicA,topicA-450,172.172.1.1:1883,1551656585040,PRODUCED
Publisher_001,topicA,topicA-451,172.172.1.1:1883,1551656585140,PRODUCED
Publisher_001,topicA,topicA-452,172.172.1.1:1883,1551656585240,PRODUCED
Publisher_001,topicA,topicA-453,172.172.1.1:1883,1551656585340,PRODUCED
Publisher_001,topicA,topicA-454,172.172.1.1:1883,1551656585440,PRODUCED
Publisher_001,topicA,topicA-455,172.172.1.1:1883,1551656585540,PRODUCED
Publisher_001,topicA,topicA-456,172.172.1.1:1883,1551656585640,PRODUCED
Publisher_001,topicA,topicA-457,172.172.1.1:1883,1551656585740,PRODUCED
Publisher_001,topicA,topicA-458,172.172.1.1:1883,1551656585840,PRODUCED
Publisher_001,topicA,topicA-459,172.172.1.1:1883,1551656585941,PRODUCED
Publisher_001,topicA,topicA-460,172.172.1.1:1883,1551656586042,PRODUCED
Publisher_001,topicA,topicA-461,172.172.1.1:1883,1551656586141,PRODUCED
Publisher_001,topicA,topicA-462,172.172.1.1:1883,1551656586241,PRODUCED
Publisher_001,topicA,topicA-463,172.172.1.1:1883,1551656586343,PRODUCED
Publisher_001,topicA,topicA-464,172.172.1.1:1883,1551656586442,PRODUCED
Publisher_001,topicA,topicA-465,172.172.1.1:1883,1551656586540,PRODUCED
Publisher_001,topicA,topicA-466,172.172.1.1:1883,1551656586641,PRODUCED
Publisher_001,topicA,topicA-467,172.172.1.1:1883,1551656586742,PRODUCED
Publisher_001,topicA,topicA-468,172.172.1.1:1883,1551656586843,PRODUCED
Publisher_001,topicA,topicA-469,172.172.1.1:1883,1551656586941,PRODUCED
Publisher_001,topicA,topicA-470,172.172.1.1:1883,1551656587043,PRODUCED
Publisher_001,topicA,topicA-471,172.172.1.1:1883,1551656587141,PRODUCED
Publisher_001,topicA,topicA-472,172.172.1.1:1883,1551656587247,PRODUCED
Publisher_001,topicA,topicA-473,172.172.1.1:1883,1551656587340,PRODUCED
Publisher_001,topicA,topicA-474,172.172.1.1:1883,1551656587440,PRODUCED
Publisher_001,topicA,topicA-475,172.172.1.1:1883,1551656587541,PRODUCED
Publisher_001,topicA,topicA-476,172.172.1.1:1883,1551656587640,PRODUCED
Publisher_001,topicA,topicA-477,172.172.1.1:1883,1551656587742,PRODUCED
Publisher_001,topicA,topicA-478,172.172.1.1:1883,1551656587845,PRODUCED
Publisher_001,topicA,topicA-479,172.172.1.1:1883,1551656587941,PRODUCED
Publisher_001,topicA,topicA-480,172.172.1.1:1883,1551656588041,PRODUCED
Publisher_001,topicA,topicA-481,172.172.1.1:1883,1551656588141,PRODUCED
Publisher_001,topicA,topicA-482,172.172.1.1:1883,1551656588242,PRODUCED
Publisher_001,topicA,topicA-483,172.172.1.1:1883,1551656588345,PRODUCED
Publisher_001,topicA,topicA-484,172.172.1.1:1883,1551656588447,PRODUCED
Publisher_001,topicA,topicA-485,172.172.1.1:1883,1551656588542,PRODUCED
Publisher_001,topicA,topicA-486,172.172.1.1:1883,1551656588642,PRODUCED
Publisher_001,topicA,topicA-487,172.172.1.1:1883,1551656588741,PRODUCED
Publisher_001,topicA,topicA-488,172.172.1.1:1883,1551656588844,PRODUCED
Publisher_001,topicA,topicA-489,172.172.1.1:1883,1551656588941,PRODUCED
Publisher_001,topicA,topicA-490,172.172.1.1:1883,1551656589041,PRODUCED
Publisher_001,topicA,topicA-491,172.172.1.1:1883,1551656589141,PRODUCED
Publisher_001,topicA,topicA-492,172.172.1.1:1883,1551656589240,PRODUCED
Publisher_001,topicA,topicA-493,172.172.1.1:1883,1551656589346,PRODUCED
Publisher_001,topicA,topicA-494,172.172.1.1:1883,1551656589440,PRODUCED
Publisher_001,topicA,topicA-495,172.172.1.1:1883,1551656589543,PRODUCED
Publisher_001,topicA,topicA-496,172.172.1.1:1883,1551656589640,PRODUCED
Publisher_001,topicA,topicA-497,172.172.1.1:1883,1551656589741,PRODUCED
Publisher_001,topicA,topicA-498,172.172.1.1:1883,1551656589841,PRODUCED
Publisher_001,topicA,topicA-499,172.172.1.1:1883,1551656589942,PRODUCED
Publisher_001,topicA,topicA-500,172.172.1.1:1883,1551656590042,PRODUCED
Publisher_001,topicA,topicA-501,172.172.1.1:1883,1551656590141,PRODUCED
Publisher_001,topicA,topicA-502,172.172.1.1:1883,1551656590241,PRODUCED
Publisher_001,topicA,topicA-503,172.172.1.1:1883,1551656590341,PRODUCED
Publisher_001,topicA,topicA-504,172.172.1.1:1883,1551656590445,PRODUCED
Publisher_001,topicA,topicA-505,172.172.1.1:1883,1551656590544,PRODUCED
Publisher_001,topicA,topicA-506,172.172.1.1:1883,1551656590641,PRODUCED
Publisher_001,topicA,topicA-507,172.172.1.1:1883,1551656590742,PRODUCED
Publisher_001,topicA,topicA-508,172.172.1.1:1883,1551656590841,PRODUCED
Publisher_001,topicA,topicA-509,172.172.1.1:1883,1551656590941,PRODUCED
Publisher_001,topicA,topicA-510,172.172.1.1:1883,1551656591042,PRODUCED
Publisher_001,topicA,topicA-511,172.172.1.1:1883,1551656591140,PRODUCED
Publisher_001,topicA,topicA-512,172.172.1.1:1883,1551656591240,PRODUCED
Publisher_001,topicA,topicA-513,172.172.1.1:1883,1551656591341,PRODUCED
Publisher_001,topicA,topicA-514,172.172.1.1:1883,1551656591441,PRODUCED
Publisher_001,topicA,topicA-515,172.172.1.1:1883,1551656591540,PRODUCED
Publisher_001,topicA,topicA-516,172.172.1.1:1883,1551656591640,PRODUCED
Publisher_001,topicA,topicA-517,172.172.1.1:1883,1551656591740,PRODUCED
Publisher_001,topicA,topicA-518,172.172.1.1:1883,1551656591840,PRODUCED
Publisher_001,topicA,topicA-519,172.172.1.1:1883,1551656591940,PRODUCED
Publisher_001,topicA,topicA-520,172.172.1.1:1883,1551656592041,PRODUCED
Publisher_001,topicA,topicA-521,172.172.1.1:1883,1551656592144,PRODUCED
Publisher_001,topicA,topicA-522,172.172.1.1:1883,1551656592241,PRODUCED
Publisher_001,topicA,topicA-523,172.172.1.1:1883,1551656592341,PRODUCED
Publisher_001,topicA,topicA-524,172.172.1.1:1883,1551656592441,PRODUCED
Publisher_001,topicA,topicA-525,172.172.1.1:1883,1551656592541,PRODUCED
Publisher_001,topicA,topicA-526,172.172.1.1:1883,1551656592640,PRODUCED
Publisher_001,topicA,topicA-527,172.172.1.1:1883,1551656592740,PRODUCED
Publisher_001,topicA,topicA-528,172.172.1.1:1883,1551656592842,PRODUCED
Publisher_001,topicA,topicA-529,172.172.1.1:1883,1551656592940,PRODUCED
Publisher_001,topicA,topicA-530,172.172.1.1:1883,1551656593040,PRODUCED
Publisher_001,topicA,topicA-531,172.172.1.1:1883,1551656593140,PRODUCED
Publisher_001,topicA,topicA-532,172.172.1.1:1883,1551656593241,PRODUCED
Publisher_001,topicA,topicA-533,172.172.1.1:1883,1551656593340,PRODUCED
Publisher_001,topicA,topicA-534,172.172.1.1:1883,1551656593441,PRODUCED
Publisher_001,topicA,topicA-535,172.172.1.1:1883,1551656593541,PRODUCED
Publisher_001,topicA,topicA-536,172.172.1.1:1883,1551656593641,PRODUCED
Publisher_001,topicA,topicA-537,172.172.1.1:1883,1551656593741,PRODUCED
Publisher_001,topicA,topicA-538,172.172.1.1:1883,1551656593841,PRODUCED
Publisher_001,topicA,topicA-539,172.172.1.1:1883,1551656593943,PRODUCED
Publisher_001,topicA,topicA-540,172.172.1.1:1883,1551656594043,PRODUCED
Publisher_001,topicA,topicA-541,172.172.1.1:1883,1551656594141,PRODUCED
Publisher_001,topicA,topicA-542,172.172.1.1:1883,1551656594241,PRODUCED
Publisher_001,topicA,topicA-543,172.172.1.1:1883,1551656594341,PRODUCED
Publisher_001,topicA,topicA-544,172.172.1.1:1883,1551656594441,PRODUCED
Publisher_001,topicA,topicA-545,172.172.1.1:1883,1551656594541,PRODUCED
Publisher_001,topicA,topicA-546,172.172.1.1:1883,1551656594642,PRODUCED
Publisher_001,topicA,topicA-547,172.172.1.1:1883,1551656594742,PRODUCED
Publisher_001,topicA,topicA-548,172.172.1.1:1883,1551656594841,PRODUCED
Publisher_001,topicA,topicA-549,172.172.1.1:1883,1551656594942,PRODUCED
Publisher_001,topicA,topicA-550,172.172.1.1:1883,1551656595041,PRODUCED
Publisher_001,topicA,topicA-551,172.172.1.1:1883,1551656595141,PRODUCED
Publisher_001,topicA,topicA-552,172.172.1.1:1883,1551656595241,PRODUCED
Publisher_001,topicA,topicA-553,172.172.1.1:1883,1551656595341,PRODUCED
Publisher_001,topicA,topicA-554,172.172.1.1:1883,1551656595443,PRODUCED
Publisher_001,topicA,topicA-555,172.172.1.1:1883,1551656595541,PRODUCED
Publisher_001,topicA,topicA-556,172.172.1.1:1883,1551656595642,PRODUCED
Publisher_001,topicA,topicA-557,172.172.1.1:1883,1551656595743,PRODUCED
Publisher_001,topicA,topicA-558,172.172.1.1:1883,1551656595855,PRODUCED
Publisher_001,topicA,topicA-559,172.172.1.1:1883,1551656595941,PRODUCED
Publisher_001,topicA,topicA-560,172.172.1.1:1883,1551656596041,PRODUCED
Publisher_001,topicA,topicA-561,172.172.1.1:1883,1551656596141,PRODUCED
Publisher_001,topicA,topicA-562,172.172.1.1:1883,1551656596241,PRODUCED
Publisher_001,topicA,topicA-563,172.172.1.1:1883,1551656596341,PRODUCED
Publisher_001,topicA,topicA-564,172.172.1.1:1883,1551656596442,PRODUCED
Publisher_001,topicA,topicA-565,172.172.1.1:1883,1551656596540,PRODUCED
Publisher_001,topicA,topicA-566,172.172.1.1:1883,1551656596645,PRODUCED
Publisher_001,topicA,topicA-567,172.172.1.1:1883,1551656596741,PRODUCED
Publisher_001,topicA,topicA-568,172.172.1.1:1883,1551656596840,PRODUCED
Publisher_001,topicA,topicA-569,172.172.1.1:1883,1551656596940,PRODUCED
Publisher_001,topicA,topicA-570,172.172.1.1:1883,1551656597040,PRODUCED
Publisher_001,topicA,topicA-571,172.172.1.1:1883,1551656597140,PRODUCED
Publisher_001,topicA,topicA-572,172.172.1.1:1883,1551656597241,PRODUCED
Publisher_001,topicA,topicA-573,172.172.1.1:1883,1551656597341,PRODUCED
Publisher_001,topicA,topicA-574,172.172.1.1:1883,1551656597441,PRODUCED
Publisher_001,topicA,topicA-575,172.172.1.1:1883,1551656597541,PRODUCED
Publisher_001,topicA,topicA-576,172.172.1.1:1883,1551656597641,PRODUCED
Publisher_001,topicA,topicA-577,172.172.1.1:1883,1551656597743,PRODUCED
Publisher_001,topicA,topicA-578,172.172.1.1:1883,1551656597841,PRODUCED
Publisher_001,topicA,topicA-579,172.172.1.1:1883,1551656597941,PRODUCED
Publisher_001,topicA,topicA-580,172.172.1.1:1883,1551656598042,PRODUCED
Publisher_001,topicA,topicA-581,172.172.1.1:1883,1551656598141,PRODUCED
Publisher_001,topicA,topicA-582,172.172.1.1:1883,1551656598241,PRODUCED
Publisher_001,topicA,topicA-583,172.172.1.1:1883,1551656598341,PRODUCED
Publisher_001,topicA,topicA-584,172.172.1.1:1883,1551656598442,PRODUCED
Publisher_001,topicA,topicA-585,172.172.1.1:1883,1551656598541,PRODUCED
Publisher_001,topicA,topicA-586,172.172.1.1:1883,1551656598641,PRODUCED
Publisher_001,topicA,topicA-587,172.172.1.1:1883,1551656598740,PRODUCED
Publisher_001,topicA,topicA-588,172.172.1.1:1883,1551656598841,PRODUCED
Publisher_001,topicA,topicA-589,172.172.1.1:1883,1551656598944,PRODUCED
Publisher_001,topicA,topicA-590,172.172.1.1:1883,1551656599041,PRODUCED
Publisher_001,topicA,topicA-591,172.172.1.1:1883,1551656599146,PRODUCED
Publisher_001,topicA,topicA-592,172.172.1.1:1883,1551656599241,PRODUCED
Publisher_001,topicA,topicA-593,172.172.1.1:1883,1551656599340,PRODUCED
Publisher_001,topicA,topicA-594,172.172.1.1:1883,1551656599447,PRODUCED
Publisher_001,topicA,topicA-595,172.172.1.1:1883,1551656599548,PRODUCED
Publisher_001,topicA,topicA-596,172.172.1.1:1883,1551656599641,PRODUCED
Publisher_001,topicA,topicA-597,172.172.1.1:1883,1551656599740,PRODUCED
Publisher_001,topicA,topicA-598,172.172.1.1:1883,1551656599842,PRODUCED
Publisher_001,topicA,topicA-599,172.172.1.1:1883,1551656599942,PRODUCED
Publisher_001,topicA,topicA-600,172.172.1.1:1883,1551656600041,PRODUCED
Publisher_001,topicA,topicA-601,172.172.1.1:1883,1551656600141,PRODUCED
Publisher_001,topicA,topicA-602,172.172.1.1:1883,1551656600241,PRODUCED
Publisher_001,topicA,topicA-603,172.172.1.1:1883,1551656600342,PRODUCED
Publisher_001,topicA,topicA-604,172.172.1.1:1883,1551656600441,PRODUCED
Publisher_001,topicA,topicA-605,172.172.1.1:1883,1551656600545,PRODUCED
Publisher_001,topicA,topicA-606,172.172.1.1:1883,1551656600644,PRODUCED
Publisher_001,topicA,topicA-607,172.172.1.1:1883,1551656600744,PRODUCED
Publisher_001,topicA,topicA-608,172.172.1.1:1883,1551656600845,PRODUCED
Publisher_001,topicA,topicA-609,172.172.1.1:1883,1551656600941,PRODUCED
Publisher_001,topicA,topicA-610,172.172.1.1:1883,1551656601042,PRODUCED
Publisher_001,topicA,topicA-611,172.172.1.1:1883,1551656601141,PRODUCED
Publisher_001,topicA,topicA-612,172.172.1.1:1883,1551656601240,PRODUCED
Publisher_001,topicA,topicA-613,172.172.1.1:1883,1551656601343,PRODUCED
Publisher_001,topicA,topicA-614,172.172.1.1:1883,1551656601441,PRODUCED
Publisher_001,topicA,topicA-615,172.172.1.1:1883,1551656601541,PRODUCED
Publisher_001,topicA,topicA-616,172.172.1.1:1883,1551656601648,PRODUCED
Publisher_001,topicA,topicA-617,172.172.1.1:1883,1551656601740,PRODUCED
Publisher_001,topicA,topicA-618,172.172.1.1:1883,1551656601841,PRODUCED
Publisher_001,topicA,topicA-619,172.172.1.1:1883,1551656601943,PRODUCED
Publisher_001,topicA,topicA-620,172.172.1.1:1883,1551656602041,PRODUCED
Publisher_001,topicA,topicA-621,172.172.1.1:1883,1551656602141,PRODUCED
Publisher_001,topicA,topicA-622,172.172.1.1:1883,1551656602241,PRODUCED
Publisher_001,topicA,topicA-623,172.172.1.1:1883,1551656602348,PRODUCED
Publisher_001,topicA,topicA-624,172.172.1.1:1883,1551656602442,PRODUCED
Publisher_001,topicA,topicA-625,172.172.1.1:1883,1551656602544,PRODUCED
Publisher_001,topicA,topicA-626,172.172.1.1:1883,1551656602646,PRODUCED
Publisher_001,topicA,topicA-627,172.172.1.1:1883,1551656602749,PRODUCED
Publisher_001,topicA,topicA-628,172.172.1.1:1883,1551656602841,PRODUCED
Publisher_001,topicA,topicA-629,172.172.1.1:1883,1551656602944,PRODUCED
Publisher_001,topicA,topicA-630,172.172.1.1:1883,1551656603043,PRODUCED
Publisher_001,topicA,topicA-631,172.172.1.1:1883,1551656603141,PRODUCED
Publisher_001,topicA,topicA-632,172.172.1.1:1883,1551656603244,PRODUCED
Publisher_001,topicA,topicA-633,172.172.1.1:1883,1551656603341,PRODUCED
Publisher_001,topicA,topicA-634,172.172.1.1:1883,1551656603441,PRODUCED
Publisher_001,topicA,topicA-635,172.172.1.1:1883,1551656603544,PRODUCED
Publisher_001,topicA,topicA-636,172.172.1.1:1883,1551656603646,PRODUCED
Publisher_001,topicA,topicA-637,172.172.1.1:1883,1551656603741,PRODUCED
Publisher_001,topicA,topicA-638,172.172.1.1:1883,1551656603840,PRODUCED
Publisher_001,topicA,topicA-639,172.172.1.1:1883,1551656603940,PRODUCED
Publisher_001,topicA,topicA-640,172.172.1.1:1883,1551656604045,PRODUCED
Publisher_001,topicA,topicA-641,172.172.1.1:1883,1551656604141,PRODUCED
Publisher_001,topicA,topicA-642,172.172.1.1:1883,1551656604242,PRODUCED
Publisher_001,topicA,topicA-643,172.172.1.1:1883,1551656604345,PRODUCED
Publisher_001,topicA,topicA-644,172.172.1.1:1883,1551656604441,PRODUCED
Publisher_001,topicA,topicA-645,172.172.1.1:1883,1551656604542,PRODUCED
Publisher_001,topicA,topicA-646,172.172.1.1:1883,1551656604645,PRODUCED
Publisher_001,topicA,topicA-647,172.172.1.1:1883,1551656604743,PRODUCED
Publisher_001,topicA,topicA-648,172.172.1.1:1883,1551656604841,PRODUCED
Publisher_001,topicA,topicA-649,172.172.1.1:1883,1551656604941,PRODUCED
Publisher_001,topicA,topicA-650,172.172.1.1:1883,1551656605047,PRODUCED
Publisher_001,topicA,topicA-651,172.172.1.1:1883,1551656605147,PRODUCED
Publisher_001,topicA,topicA-652,172.172.1.1:1883,1551656605241,PRODUCED
Publisher_001,topicA,topicA-653,172.172.1.1:1883,1551656605341,PRODUCED
Publisher_001,topicA,topicA-654,172.172.1.1:1883,1551656605440,PRODUCED
Publisher_001,topicA,topicA-655,172.172.1.1:1883,1551656605542,PRODUCED
Publisher_001,topicA,topicA-656,172.172.1.1:1883,1551656605646,PRODUCED
Publisher_001,topicA,topicA-657,172.172.1.1:1883,1551656605743,PRODUCED
Publisher_001,topicA,topicA-658,172.172.1.1:1883,1551656605843,PRODUCED
Publisher_001,topicA,topicA-659,172.172.1.1:1883,1551656605940,PRODUCED
Publisher_001,topicA,topicA-660,172.172.1.1:1883,1551656606045,PRODUCED
Publisher_001,topicA,topicA-661,172.172.1.1:1883,1551656606141,PRODUCED
Publisher_001,topicA,topicA-662,172.172.1.1:1883,1551656606240,PRODUCED
Publisher_001,topicA,topicA-663,172.172.1.1:1883,1551656606340,PRODUCED
