clientId,topic,guid,broker,timestamp,type
Publisher_001,topicA,topicA-1,172.172.1.1:1883,1551645475514,PRODUCED
Publisher_001,topicA,topicA-2,172.172.1.1:1883,1551645475738,PRODUCED
Publisher_001,topicA,topicA-3,172.172.1.1:1883,1551645475743,PRODUCED
Publisher_001,topicA,topicA-4,172.172.1.1:1883,1551645475748,PRODUCED
Publisher_001,topicA,topicA-5,172.172.1.1:1883,1551645475751,PRODUCED
Publisher_001,topicA,topicA-6,172.172.1.1:1883,1551645475851,PRODUCED
Publisher_001,topicA,topicA-7,172.172.1.1:1883,1551645475951,PRODUCED
Publisher_001,topicA,topicA-8,172.172.1.1:1883,1551645476051,PRODUCED
Publisher_001,topicA,topicA-9,172.172.1.1:1883,1551645476151,PRODUCED
Publisher_001,topicA,topicA-10,172.172.1.1:1883,1551645476251,PRODUCED
Publisher_001,topicA,topicA-11,172.172.1.1:1883,1551645476351,PRODUCED
Publisher_001,topicA,topicA-12,172.172.1.1:1883,1551645476451,PRODUCED
Publisher_001,topicA,topicA-13,172.172.1.1:1883,1551645476551,PRODUCED
Publisher_001,topicA,topicA-14,172.172.1.1:1883,1551645476652,PRODUCED
Publisher_001,topicA,topicA-15,172.172.1.1:1883,1551645476751,PRODUCED
Publisher_001,topicA,topicA-16,172.172.1.1:1883,1551645476851,PRODUCED
Publisher_001,topicA,topicA-17,172.172.1.1:1883,1551645476952,PRODUCED
Publisher_001,topicA,topicA-18,172.172.1.1:1883,1551645477052,PRODUCED
Publisher_001,topicA,topicA-19,172.172.1.1:1883,1551645477151,PRODUCED
Publisher_001,topicA,topicA-20,172.172.1.1:1883,1551645477251,PRODUCED
Publisher_001,topicA,topicA-21,172.172.1.1:1883,1551645477351,PRODUCED
Publisher_001,topicA,topicA-22,172.172.1.1:1883,1551645477452,PRODUCED
Publisher_001,topicA,topicA-23,172.172.1.1:1883,1551645477551,PRODUCED
Publisher_001,topicA,topicA-24,172.172.1.1:1883,1551645477651,PRODUCED
Publisher_001,topicA,topicA-25,172.172.1.1:1883,1551645477751,PRODUCED
Publisher_001,topicA,topicA-26,172.172.1.1:1883,1551645477856,PRODUCED
Publisher_001,topicA,topicA-27,172.172.1.1:1883,1551645477953,PRODUCED
Publisher_001,topicA,topicA-28,172.172.1.1:1883,1551645478051,PRODUCED
Publisher_001,topicA,topicA-29,172.172.1.1:1883,1551645478152,PRODUCED
Publisher_001,topicA,topicA-30,172.172.1.1:1883,1551645478252,PRODUCED
Publisher_001,topicA,topicA-31,172.172.1.1:1883,1551645478358,PRODUCED
Publisher_001,topicA,topicA-32,172.172.1.1:1883,1551645478452,PRODUCED
Publisher_001,topicA,topicA-33,172.172.1.1:1883,1551645478552,PRODUCED
Publisher_001,topicA,topicA-34,172.172.1.1:1883,1551645478652,PRODUCED
Publisher_001,topicA,topicA-35,172.172.1.1:1883,1551645478751,PRODUCED
Publisher_001,topicA,topicA-36,172.172.1.1:1883,1551645478851,PRODUCED
Publisher_001,topicA,topicA-37,172.172.1.1:1883,1551645478951,PRODUCED
Publisher_001,topicA,topicA-38,172.172.1.1:1883,1551645479051,PRODUCED
Publisher_001,topicA,topicA-39,172.172.1.1:1883,1551645479151,PRODUCED
Publisher_001,topicA,topicA-40,172.172.1.1:1883,1551645479251,PRODUCED
Publisher_001,topicA,topicA-41,172.172.1.1:1883,1551645479351,PRODUCED
Publisher_001,topicA,topicA-42,172.172.1.1:1883,1551645479452,PRODUCED
Publisher_001,topicA,topicA-43,172.172.1.1:1883,1551645479551,PRODUCED
Publisher_001,topicA,topicA-44,172.172.1.1:1883,1551645479651,PRODUCED
Publisher_001,topicA,topicA-45,172.172.1.1:1883,1551645479751,PRODUCED
Publisher_001,topicA,topicA-46,172.172.1.1:1883,1551645479851,PRODUCED
Publisher_001,topicA,topicA-47,172.172.1.1:1883,1551645479951,PRODUCED
Publisher_001,topicA,topicA-48,172.172.1.1:1883,1551645480051,PRODUCED
Publisher_001,topicA,topicA-49,172.172.1.1:1883,1551645480151,PRODUCED
Publisher_001,topicA,topicA-50,172.172.1.1:1883,1551645480251,PRODUCED
Publisher_001,topicA,topicA-51,172.172.1.1:1883,1551645480351,PRODUCED
Publisher_001,topicA,topicA-52,172.172.1.1:1883,1551645480452,PRODUCED
Publisher_001,topicA,topicA-53,172.172.1.1:1883,1551645480551,PRODUCED
Publisher_001,topicA,topicA-54,172.172.1.1:1883,1551645480651,PRODUCED
Publisher_001,topicA,topicA-55,172.172.1.1:1883,1551645480751,PRODUCED
Publisher_001,topicA,topicA-56,172.172.1.1:1883,1551645480851,PRODUCED
Publisher_001,topicA,topicA-57,172.172.1.1:1883,1551645480955,PRODUCED
Publisher_001,topicA,topicA-58,172.172.1.1:1883,1551645481051,PRODUCED
Publisher_001,topicA,topicA-59,172.172.1.1:1883,1551645481151,PRODUCED
Publisher_001,topicA,topicA-60,172.172.1.1:1883,1551645481251,PRODUCED
Publisher_001,topicA,topicA-61,172.172.1.1:1883,1551645481354,PRODUCED
Publisher_001,topicA,topicA-62,172.172.1.1:1883,1551645481451,PRODUCED
Publisher_001,topicA,topicA-63,172.172.1.1:1883,1551645481552,PRODUCED
Publisher_001,topicA,topicA-64,172.172.1.1:1883,1551645481656,PRODUCED
Publisher_001,topicA,topicA-65,172.172.1.1:1883,1551645481751,PRODUCED
Publisher_001,topicA,topicA-66,172.172.1.1:1883,1551645481851,PRODUCED
Publisher_001,topicA,topicA-67,172.172.1.1:1883,1551645481951,PRODUCED
Publisher_001,topicA,topicA-68,172.172.1.1:1883,1551645482051,PRODUCED
Publisher_001,topicA,topicA-69,172.172.1.1:1883,1551645482151,PRODUCED
Publisher_001,topicA,topicA-70,172.172.1.1:1883,1551645482251,PRODUCED
Publisher_001,topicA,topicA-71,172.172.1.1:1883,1551645482351,PRODUCED
Publisher_001,topicA,topicA-72,172.172.1.1:1883,1551645482451,PRODUCED
Publisher_001,topicA,topicA-73,172.172.1.1:1883,1551645482551,PRODUCED
Publisher_001,topicA,topicA-74,172.172.1.1:1883,1551645482652,PRODUCED
Publisher_001,topicA,topicA-75,172.172.1.1:1883,1551645482751,PRODUCED
Publisher_001,topicA,topicA-76,172.172.1.1:1883,1551645482851,PRODUCED
Publisher_001,topicA,topicA-77,172.172.1.1:1883,1551645482955,PRODUCED
Publisher_001,topicA,topicA-78,172.172.1.1:1883,1551645483051,PRODUCED
Publisher_001,topicA,topicA-79,172.172.1.1:1883,1551645483151,PRODUCED
Publisher_001,topicA,topicA-80,172.172.1.1:1883,1551645483254,PRODUCED
Publisher_001,topicA,topicA-81,172.172.1.1:1883,1551645483354,PRODUCED
Publisher_001,topicA,topicA-82,172.172.1.1:1883,1551645483451,PRODUCED
Publisher_001,topicA,topicA-83,172.172.1.1:1883,1551645483555,PRODUCED
Publisher_001,topicA,topicA-84,172.172.1.1:1883,1551645483651,PRODUCED
Publisher_001,topicA,topicA-85,172.172.1.1:1883,1551645483752,PRODUCED
Publisher_001,topicA,topicA-86,172.172.1.1:1883,1551645483852,PRODUCED
Publisher_001,topicA,topicA-87,172.172.1.1:1883,1551645483951,PRODUCED
Publisher_001,topicA,topicA-88,172.172.1.1:1883,1551645484051,PRODUCED
Publisher_001,topicA,topicA-89,172.172.1.1:1883,1551645484155,PRODUCED
Publisher_001,topicA,topicA-90,172.172.1.1:1883,1551645484252,PRODUCED
Publisher_001,topicA,topicA-91,172.172.1.1:1883,1551645484351,PRODUCED
Publisher_001,topicA,topicA-92,172.172.1.1:1883,1551645484452,PRODUCED
Publisher_001,topicA,topicA-93,172.172.1.1:1883,1551645484551,PRODUCED
Publisher_001,topicA,topicA-94,172.172.1.1:1883,1551645484651,PRODUCED
Publisher_001,topicA,topicA-95,172.172.1.1:1883,1551645484754,PRODUCED
Publisher_001,topicA,topicA-96,172.172.1.1:1883,1551645484851,PRODUCED
Publisher_001,topicA,topicA-97,172.172.1.1:1883,1551645484951,PRODUCED
Publisher_001,topicA,topicA-98,172.172.1.1:1883,1551645485054,PRODUCED
Publisher_001,topicA,topicA-99,172.172.1.1:1883,1551645485152,PRODUCED
Publisher_001,topicA,topicA-100,172.172.1.1:1883,1551645485252,PRODUCED
Publisher_001,topicA,topicA-101,172.172.1.1:1883,1551645485352,PRODUCED
Publisher_001,topicA,topicA-102,172.172.1.1:1883,1551645485455,PRODUCED
Publisher_001,topicA,topicA-103,172.172.1.1:1883,1551645485555,PRODUCED
Publisher_001,topicA,topicA-104,172.172.1.1:1883,1551645485657,PRODUCED
Publisher_001,topicA,topicA-105,172.172.1.1:1883,1551645485758,PRODUCED
Publisher_001,topicA,topicA-106,172.172.1.1:1883,1551645485852,PRODUCED
Publisher_001,topicA,topicA-107,172.172.1.1:1883,1551645485952,PRODUCED
Publisher_001,topicA,topicA-108,172.172.1.1:1883,1551645486060,PRODUCED
Publisher_001,topicA,topicA-109,172.172.1.1:1883,1551645486154,PRODUCED
Publisher_001,topicA,topicA-110,172.172.1.1:1883,1551645486255,PRODUCED
Publisher_001,topicA,topicA-111,172.172.1.1:1883,1551645486352,PRODUCED
Publisher_001,topicA,topicA-112,172.172.1.1:1883,1551645486451,PRODUCED
Publisher_001,topicA,topicA-113,172.172.1.1:1883,1551645486551,PRODUCED
Publisher_001,topicA,topicA-114,172.172.1.1:1883,1551645486655,PRODUCED
Publisher_001,topicA,topicA-115,172.172.1.1:1883,1551645486756,PRODUCED
Publisher_001,topicA,topicA-116,172.172.1.1:1883,1551645486853,PRODUCED
Publisher_001,topicA,topicA-117,172.172.1.1:1883,1551645486952,PRODUCED
Publisher_001,topicA,topicA-118,172.172.1.1:1883,1551645487052,PRODUCED
Publisher_001,topicA,topicA-119,172.172.1.1:1883,1551645487151,PRODUCED
Publisher_001,topicA,topicA-120,172.172.1.1:1883,1551645487254,PRODUCED
Publisher_001,topicA,topicA-121,172.172.1.1:1883,1551645487352,PRODUCED
Publisher_001,topicA,topicA-122,172.172.1.1:1883,1551645487451,PRODUCED
Publisher_001,topicA,topicA-123,172.172.1.1:1883,1551645487551,PRODUCED
Publisher_001,topicA,topicA-124,172.172.1.1:1883,1551645487656,PRODUCED
Publisher_001,topicA,topicA-125,172.172.1.1:1883,1551645487756,PRODUCED
Publisher_001,topicA,topicA-126,172.172.1.1:1883,1551645487851,PRODUCED
Publisher_001,topicA,topicA-127,172.172.1.1:1883,1551645487952,PRODUCED
Publisher_001,topicA,topicA-128,172.172.1.1:1883,1551645488054,PRODUCED
Publisher_001,topicA,topicA-129,172.172.1.1:1883,1551645488151,PRODUCED
Publisher_001,topicA,topicA-130,172.172.1.1:1883,1551645488252,PRODUCED
Publisher_001,topicA,topicA-131,172.172.1.1:1883,1551645488355,PRODUCED
Publisher_001,topicA,topicA-132,172.172.1.1:1883,1551645488457,PRODUCED
Publisher_001,topicA,topicA-133,172.172.1.1:1883,1551645488552,PRODUCED
Publisher_001,topicA,topicA-134,172.172.1.1:1883,1551645488651,PRODUCED
Publisher_001,topicA,topicA-135,172.172.1.1:1883,1551645488753,PRODUCED
Publisher_001,topicA,topicA-136,172.172.1.1:1883,1551645488852,PRODUCED
Publisher_001,topicA,topicA-137,172.172.1.1:1883,1551645488951,PRODUCED
Publisher_001,topicA,topicA-138,172.172.1.1:1883,1551645489051,PRODUCED
Publisher_001,topicA,topicA-139,172.172.1.1:1883,1551645489154,PRODUCED
Publisher_001,topicA,topicA-140,172.172.1.1:1883,1551645489251,PRODUCED
Publisher_001,topicA,topicA-141,172.172.1.1:1883,1551645489353,PRODUCED
Publisher_001,topicA,topicA-142,172.172.1.1:1883,1551645489451,PRODUCED
Publisher_001,topicA,topicA-143,172.172.1.1:1883,1551645489551,PRODUCED
Publisher_001,topicA,topicA-144,172.172.1.1:1883,1551645489652,PRODUCED
Publisher_001,topicA,topicA-145,172.172.1.1:1883,1551645489751,PRODUCED
Publisher_001,topicA,topicA-146,172.172.1.1:1883,1551645489851,PRODUCED
Publisher_001,topicA,topicA-147,172.172.1.1:1883,1551645489951,PRODUCED
Publisher_001,topicA,topicA-148,172.172.1.1:1883,1551645490051,PRODUCED
Publisher_001,topicA,topicA-149,172.172.1.1:1883,1551645490152,PRODUCED
Publisher_001,topicA,topicA-150,172.172.1.1:1883,1551645490251,PRODUCED
Publisher_001,topicA,topicA-151,172.172.1.1:1883,1551645490351,PRODUCED
Publisher_001,topicA,topicA-152,172.172.1.1:1883,1551645490451,PRODUCED
Publisher_001,topicA,topicA-153,172.172.1.1:1883,1551645490551,PRODUCED
Publisher_001,topicA,topicA-154,172.172.1.1:1883,1551645490651,PRODUCED
Publisher_001,topicA,topicA-155,172.172.1.1:1883,1551645490752,PRODUCED
Publisher_001,topicA,topicA-156,172.172.1.1:1883,1551645490852,PRODUCED
Publisher_001,topicA,topicA-157,172.172.1.1:1883,1551645490953,PRODUCED
Publisher_001,topicA,topicA-158,172.172.1.1:1883,1551645491053,PRODUCED
Publisher_001,topicA,topicA-159,172.172.1.1:1883,1551645491153,PRODUCED
Publisher_001,topicA,topicA-160,172.172.1.1:1883,1551645491251,PRODUCED
Publisher_001,topicA,topicA-161,172.172.1.1:1883,1551645491352,PRODUCED
Publisher_001,topicA,topicA-162,172.172.1.1:1883,1551645491451,PRODUCED
Publisher_001,topicA,topicA-163,172.172.1.1:1883,1551645491551,PRODUCED
Publisher_001,topicA,topicA-164,172.172.1.1:1883,1551645491651,PRODUCED
Publisher_001,topicA,topicA-165,172.172.1.1:1883,1551645491751,PRODUCED
Publisher_001,topicA,topicA-166,172.172.1.1:1883,1551645491852,PRODUCED
Publisher_001,topicA,topicA-167,172.172.1.1:1883,1551645491951,PRODUCED
Publisher_001,topicA,topicA-168,172.172.1.1:1883,1551645492051,PRODUCED
Publisher_001,topicA,topicA-169,172.172.1.1:1883,1551645492152,PRODUCED
Publisher_001,topicA,topicA-170,172.172.1.1:1883,1551645492256,PRODUCED
Publisher_001,topicA,topicA-171,172.172.1.1:1883,1551645492351,PRODUCED
Publisher_001,topicA,topicA-172,172.172.1.1:1883,1551645492452,PRODUCED
Publisher_001,topicA,topicA-173,172.172.1.1:1883,1551645492557,PRODUCED
Publisher_001,topicA,topicA-174,172.172.1.1:1883,1551645492652,PRODUCED
Publisher_001,topicA,topicA-175,172.172.1.1:1883,1551645492752,PRODUCED
Publisher_001,topicA,topicA-176,172.172.1.1:1883,1551645492851,PRODUCED
Publisher_001,topicA,topicA-177,172.172.1.1:1883,1551645492951,PRODUCED
Publisher_001,topicA,topicA-178,172.172.1.1:1883,1551645493051,PRODUCED
Publisher_001,topicA,topicA-179,172.172.1.1:1883,1551645493151,PRODUCED
Publisher_001,topicA,topicA-180,172.172.1.1:1883,1551645493252,PRODUCED
Publisher_001,topicA,topicA-181,172.172.1.1:1883,1551645493352,PRODUCED
Publisher_001,topicA,topicA-182,172.172.1.1:1883,1551645493452,PRODUCED
Publisher_001,topicA,topicA-183,172.172.1.1:1883,1551645493551,PRODUCED
Publisher_001,topicA,topicA-184,172.172.1.1:1883,1551645493656,PRODUCED
Publisher_001,topicA,topicA-185,172.172.1.1:1883,1551645493751,PRODUCED
Publisher_001,topicA,topicA-186,172.172.1.1:1883,1551645493853,PRODUCED
Publisher_001,topicA,topicA-187,172.172.1.1:1883,1551645493951,PRODUCED
Publisher_001,topicA,topicA-188,172.172.1.1:1883,1551645494051,PRODUCED
Publisher_001,topicA,topicA-189,172.172.1.1:1883,1551645494151,PRODUCED
Publisher_001,topicA,topicA-190,172.172.1.1:1883,1551645494252,PRODUCED
Publisher_001,topicA,topicA-191,172.172.1.1:1883,1551645494352,PRODUCED
Publisher_001,topicA,topicA-192,172.172.1.1:1883,1551645494451,PRODUCED
Publisher_001,topicA,topicA-193,172.172.1.1:1883,1551645494559,PRODUCED
Publisher_001,topicA,topicA-194,172.172.1.1:1883,1551645494652,PRODUCED
Publisher_001,topicA,topicA-195,172.172.1.1:1883,1551645494752,PRODUCED
Publisher_001,topicA,topicA-196,172.172.1.1:1883,1551645494852,PRODUCED
Publisher_001,topicA,topicA-197,172.172.1.1:1883,1551645494953,PRODUCED
Publisher_001,topicA,topicA-198,172.172.1.1:1883,1551645495053,PRODUCED
Publisher_001,topicA,topicA-199,172.172.1.1:1883,1551645495158,PRODUCED
Publisher_001,topicA,topicA-200,172.172.1.1:1883,1551645495251,PRODUCED
Publisher_001,topicA,topicA-201,172.172.1.1:1883,1551645495352,PRODUCED
Publisher_001,topicA,topicA-202,172.172.1.1:1883,1551645495455,PRODUCED
Publisher_001,topicA,topicA-203,172.172.1.1:1883,1551645495552,PRODUCED
Publisher_001,topicA,topicA-204,172.172.1.1:1883,1551645495654,PRODUCED
Publisher_001,topicA,topicA-205,172.172.1.1:1883,1551645495752,PRODUCED
Publisher_001,topicA,topicA-206,172.172.1.1:1883,1551645495851,PRODUCED
Publisher_001,topicA,topicA-207,172.172.1.1:1883,1551645495951,PRODUCED
Publisher_001,topicA,topicA-208,172.172.1.1:1883,1551645496057,PRODUCED
Publisher_001,topicA,topicA-209,172.172.1.1:1883,1551645496152,PRODUCED
Publisher_001,topicA,topicA-210,172.172.1.1:1883,1551645496252,PRODUCED
Publisher_001,topicA,topicA-211,172.172.1.1:1883,1551645496351,PRODUCED
Publisher_001,topicA,topicA-212,172.172.1.1:1883,1551645496458,PRODUCED
Publisher_001,topicA,topicA-213,172.172.1.1:1883,1551645496552,PRODUCED
Publisher_001,topicA,topicA-214,172.172.1.1:1883,1551645496655,PRODUCED
Publisher_001,topicA,topicA-215,172.172.1.1:1883,1551645496751,PRODUCED
Publisher_001,topicA,topicA-216,172.172.1.1:1883,1551645496851,PRODUCED
Publisher_001,topicA,topicA-217,172.172.1.1:1883,1551645496951,PRODUCED
Publisher_001,topicA,topicA-218,172.172.1.1:1883,1551645497051,PRODUCED
Publisher_001,topicA,topicA-219,172.172.1.1:1883,1551645497151,PRODUCED
Publisher_001,topicA,topicA-220,172.172.1.1:1883,1551645497251,PRODUCED
Publisher_001,topicA,topicA-221,172.172.1.1:1883,1551645497352,PRODUCED
Publisher_001,topicA,topicA-222,172.172.1.1:1883,1551645497451,PRODUCED
Publisher_001,topicA,topicA-223,172.172.1.1:1883,1551645497551,PRODUCED
Publisher_001,topicA,topicA-224,172.172.1.1:1883,1551645497651,PRODUCED
Publisher_001,topicA,topicA-225,172.172.1.1:1883,1551645497751,PRODUCED
Publisher_001,topicA,topicA-226,172.172.1.1:1883,1551645497853,PRODUCED
Publisher_001,topicA,topicA-227,172.172.1.1:1883,1551645497953,PRODUCED
Publisher_001,topicA,topicA-228,172.172.1.1:1883,1551645498057,PRODUCED
Publisher_001,topicA,topicA-229,172.172.1.1:1883,1551645498159,PRODUCED
Publisher_001,topicA,topicA-230,172.172.1.1:1883,1551645498253,PRODUCED
Publisher_001,topicA,topicA-231,172.172.1.1:1883,1551645498351,PRODUCED
Publisher_001,topicA,topicA-232,172.172.1.1:1883,1551645498451,PRODUCED
Publisher_001,topicA,topicA-233,172.172.1.1:1883,1551645498551,PRODUCED
Publisher_001,topicA,topicA-234,172.172.1.1:1883,1551645498651,PRODUCED
Publisher_001,topicA,topicA-235,172.172.1.1:1883,1551645498752,PRODUCED
Publisher_001,topicA,topicA-236,172.172.1.1:1883,1551645498851,PRODUCED
Publisher_001,topicA,topicA-237,172.172.1.1:1883,1551645498960,PRODUCED
Publisher_001,topicA,topicA-238,172.172.1.1:1883,1551645499051,PRODUCED
Publisher_001,topicA,topicA-239,172.172.1.1:1883,1551645499154,PRODUCED
Publisher_001,topicA,topicA-240,172.172.1.1:1883,1551645499251,PRODUCED
Publisher_001,topicA,topicA-241,172.172.1.1:1883,1551645499355,PRODUCED
Publisher_001,topicA,topicA-242,172.172.1.1:1883,1551645499451,PRODUCED
Publisher_001,topicA,topicA-243,172.172.1.1:1883,1551645499554,PRODUCED
Publisher_001,topicA,topicA-244,172.172.1.1:1883,1551645499653,PRODUCED
Publisher_001,topicA,topicA-245,172.172.1.1:1883,1551645499752,PRODUCED
Publisher_001,topicA,topicA-246,172.172.1.1:1883,1551645499851,PRODUCED
Publisher_001,topicA,topicA-247,172.172.1.1:1883,1551645499952,PRODUCED
Publisher_001,topicA,topicA-248,172.172.1.1:1883,1551645500051,PRODUCED
Publisher_001,topicA,topicA-249,172.172.1.1:1883,1551645500151,PRODUCED
Publisher_001,topicA,topicA-250,172.172.1.1:1883,1551645500251,PRODUCED
Publisher_001,topicA,topicA-251,172.172.1.1:1883,1551645500351,PRODUCED
Publisher_001,topicA,topicA-252,172.172.1.1:1883,1551645500451,PRODUCED
Publisher_001,topicA,topicA-253,172.172.1.1:1883,1551645500551,PRODUCED
Publisher_001,topicA,topicA-254,172.172.1.1:1883,1551645500651,PRODUCED
Publisher_001,topicA,topicA-255,172.172.1.1:1883,1551645500752,PRODUCED
Publisher_001,topicA,topicA-256,172.172.1.1:1883,1551645500852,PRODUCED
Publisher_001,topicA,topicA-257,172.172.1.1:1883,1551645500952,PRODUCED
Publisher_001,topicA,topicA-258,172.172.1.1:1883,1551645501052,PRODUCED
Publisher_001,topicA,topicA-259,172.172.1.1:1883,1551645501152,PRODUCED
Publisher_001,topicA,topicA-260,172.172.1.1:1883,1551645501253,PRODUCED
Publisher_001,topicA,topicA-261,172.172.1.1:1883,1551645501355,PRODUCED
Publisher_001,topicA,topicA-262,172.172.1.1:1883,1551645501454,PRODUCED
Publisher_001,topicA,topicA-263,172.172.1.1:1883,1551645501551,PRODUCED
Publisher_001,topicA,topicA-264,172.172.1.1:1883,1551645501652,PRODUCED
Publisher_001,topicA,topicA-265,172.172.1.1:1883,1551645501753,PRODUCED
Publisher_001,topicA,topicA-266,172.172.1.1:1883,1551645501852,PRODUCED
Publisher_001,topicA,topicA-267,172.172.1.1:1883,1551645501952,PRODUCED
Publisher_001,topicA,topicA-268,172.172.1.1:1883,1551645502053,PRODUCED
Publisher_001,topicA,topicA-269,172.172.1.1:1883,1551645502152,PRODUCED
Publisher_001,topicA,topicA-270,172.172.1.1:1883,1551645502251,PRODUCED
Publisher_001,topicA,topicA-271,172.172.1.1:1883,1551645502354,PRODUCED
Publisher_001,topicA,topicA-272,172.172.1.1:1883,1551645502452,PRODUCED
Publisher_001,topicA,topicA-273,172.172.1.1:1883,1551645502552,PRODUCED
Publisher_001,topicA,topicA-274,172.172.1.1:1883,1551645502653,PRODUCED
Publisher_001,topicA,topicA-275,172.172.1.1:1883,1551645502752,PRODUCED
Publisher_001,topicA,topicA-276,172.172.1.1:1883,1551645502853,PRODUCED
Publisher_001,topicA,topicA-277,172.172.1.1:1883,1551645502955,PRODUCED
Publisher_001,topicA,topicA-278,172.172.1.1:1883,1551645503051,PRODUCED
Publisher_001,topicA,topicA-279,172.172.1.1:1883,1551645503152,PRODUCED
Publisher_001,topicA,topicA-280,172.172.1.1:1883,1551645503251,PRODUCED
Publisher_001,topicA,topicA-281,172.172.1.1:1883,1551645503353,PRODUCED
Publisher_001,topicA,topicA-282,172.172.1.1:1883,1551645503451,PRODUCED
Publisher_001,topicA,topicA-283,172.172.1.1:1883,1551645503551,PRODUCED
Publisher_001,topicA,topicA-284,172.172.1.1:1883,1551645503653,PRODUCED
Publisher_001,topicA,topicA-285,172.172.1.1:1883,1551645503751,PRODUCED
Publisher_001,topicA,topicA-286,172.172.1.1:1883,1551645503852,PRODUCED
Publisher_001,topicA,topicA-287,172.172.1.1:1883,1551645503951,PRODUCED
Publisher_001,topicA,topicA-288,172.172.1.1:1883,1551645504051,PRODUCED
Publisher_001,topicA,topicA-289,172.172.1.1:1883,1551645504155,PRODUCED
Publisher_001,topicA,topicA-290,172.172.1.1:1883,1551645504251,PRODUCED
Publisher_001,topicA,topicA-291,172.172.1.1:1883,1551645504351,PRODUCED
Publisher_001,topicA,topicA-292,172.172.1.1:1883,1551645504452,PRODUCED
Publisher_001,topicA,topicA-293,172.172.1.1:1883,1551645504556,PRODUCED
Publisher_001,topicA,topicA-294,172.172.1.1:1883,1551645504652,PRODUCED
Publisher_001,topicA,topicA-295,172.172.1.1:1883,1551645504751,PRODUCED
Publisher_001,topicA,topicA-296,172.172.1.1:1883,1551645504853,PRODUCED
Publisher_001,topicA,topicA-297,172.172.1.1:1883,1551645504952,PRODUCED
Publisher_001,topicA,topicA-298,172.172.1.1:1883,1551645505052,PRODUCED
Publisher_001,topicA,topicA-299,172.172.1.1:1883,1551645505151,PRODUCED
Publisher_001,topicA,topicA-300,172.172.1.1:1883,1551645505256,PRODUCED
Publisher_001,topicA,topicA-301,172.172.1.1:1883,1551645505352,PRODUCED
Publisher_001,topicA,topicA-302,172.172.1.1:1883,1551645505452,PRODUCED
Publisher_001,topicA,topicA-303,172.172.1.1:1883,1551645505552,PRODUCED
Publisher_001,topicA,topicA-304,172.172.1.1:1883,1551645505653,PRODUCED
Publisher_001,topicA,topicA-305,172.172.1.1:1883,1551645505752,PRODUCED
Publisher_001,topicA,topicA-306,172.172.1.1:1883,1551645505852,PRODUCED
Publisher_001,topicA,topicA-307,172.172.1.1:1883,1551645505956,PRODUCED
Publisher_001,topicA,topicA-308,172.172.1.1:1883,1551645506051,PRODUCED
Publisher_001,topicA,topicA-309,172.172.1.1:1883,1551645506151,PRODUCED
Publisher_001,topicA,topicA-310,172.172.1.1:1883,1551645506251,PRODUCED
Publisher_001,topicA,topicA-311,172.172.1.1:1883,1551645506351,PRODUCED
Publisher_001,topicA,topicA-312,172.172.1.1:1883,1551645506451,PRODUCED
Publisher_001,topicA,topicA-313,172.172.1.1:1883,1551645506551,PRODUCED
Publisher_001,topicA,topicA-314,172.172.1.1:1883,1551645506652,PRODUCED
Publisher_001,topicA,topicA-315,172.172.1.1:1883,1551645506751,PRODUCED
Publisher_001,topicA,topicA-316,172.172.1.1:1883,1551645506851,PRODUCED
Publisher_001,topicA,topicA-317,172.172.1.1:1883,1551645506951,PRODUCED
Publisher_001,topicA,topicA-318,172.172.1.1:1883,1551645507051,PRODUCED
Publisher_001,topicA,topicA-319,172.172.1.1:1883,1551645507151,PRODUCED
Publisher_001,topicA,topicA-320,172.172.1.1:1883,1551645507254,PRODUCED
Publisher_001,topicA,topicA-321,172.172.1.1:1883,1551645507351,PRODUCED
Publisher_001,topicA,topicA-322,172.172.1.1:1883,1551645507456,PRODUCED
Publisher_001,topicA,topicA-323,172.172.1.1:1883,1551645507555,PRODUCED
Publisher_001,topicA,topicA-324,172.172.1.1:1883,1551645507652,PRODUCED
Publisher_001,topicA,topicA-325,172.172.1.1:1883,1551645507753,PRODUCED
Publisher_001,topicA,topicA-326,172.172.1.1:1883,1551645507852,PRODUCED
Publisher_001,topicA,topicA-327,172.172.1.1:1883,1551645507955,PRODUCED
Publisher_001,topicA,topicA-328,172.172.1.1:1883,1551645508053,PRODUCED
Publisher_001,topicA,topicA-329,172.172.1.1:1883,1551645508152,PRODUCED
Publisher_001,topicA,topicA-330,172.172.1.1:1883,1551645508255,PRODUCED
Publisher_001,topicA,topicA-331,172.172.1.1:1883,1551645508352,PRODUCED
Publisher_001,topicA,topicA-332,172.172.1.1:1883,1551645508452,PRODUCED
Publisher_001,topicA,topicA-333,172.172.1.1:1883,1551645508556,PRODUCED
Publisher_001,topicA,topicA-334,172.172.1.1:1883,1551645508651,PRODUCED
Publisher_001,topicA,topicA-335,172.172.1.1:1883,1551645508753,PRODUCED
Publisher_001,topicA,topicA-336,172.172.1.1:1883,1551645508852,PRODUCED
Publisher_001,topicA,topicA-337,172.172.1.1:1883,1551645508954,PRODUCED
Publisher_001,topicA,topicA-338,172.172.1.1:1883,1551645509056,PRODUCED
Publisher_001,topicA,topicA-339,172.172.1.1:1883,1551645509152,PRODUCED
Publisher_001,topicA,topicA-340,172.172.1.1:1883,1551645509251,PRODUCED
Publisher_001,topicA,topicA-341,172.172.1.1:1883,1551645509353,PRODUCED
Publisher_001,topicA,topicA-342,172.172.1.1:1883,1551645509452,PRODUCED
Publisher_001,topicA,topicA-343,172.172.1.1:1883,1551645509551,PRODUCED
Publisher_001,topicA,topicA-344,172.172.1.1:1883,1551645509652,PRODUCED
Publisher_001,topicA,topicA-345,172.172.1.1:1883,1551645509753,PRODUCED
Publisher_001,topicA,topicA-346,172.172.1.1:1883,1551645509852,PRODUCED
Publisher_001,topicA,topicA-347,172.172.1.1:1883,1551645509952,PRODUCED
Publisher_001,topicA,topicA-348,172.172.1.1:1883,1551645510052,PRODUCED
Publisher_001,topicA,topicA-349,172.172.1.1:1883,1551645510154,PRODUCED
Publisher_001,topicA,topicA-350,172.172.1.1:1883,1551645510251,PRODUCED
Publisher_001,topicA,topicA-351,172.172.1.1:1883,1551645510353,PRODUCED
Publisher_001,topicA,topicA-352,172.172.1.1:1883,1551645510452,PRODUCED
Publisher_001,topicA,topicA-353,172.172.1.1:1883,1551645510556,PRODUCED
Publisher_001,topicA,topicA-354,172.172.1.1:1883,1551645510652,PRODUCED
Publisher_001,topicA,topicA-355,172.172.1.1:1883,1551645510758,PRODUCED
Publisher_001,topicA,topicA-356,172.172.1.1:1883,1551645510851,PRODUCED
Publisher_001,topicA,topicA-357,172.172.1.1:1883,1551645510954,PRODUCED
Publisher_001,topicA,topicA-358,172.172.1.1:1883,1551645511057,PRODUCED
Publisher_001,topicA,topicA-359,172.172.1.1:1883,1551645511152,PRODUCED
Publisher_001,topicA,topicA-360,172.172.1.1:1883,1551645511251,PRODUCED
Publisher_001,topicA,topicA-361,172.172.1.1:1883,1551645511351,PRODUCED
Publisher_001,topicA,topicA-362,172.172.1.1:1883,1551645511453,PRODUCED
Publisher_001,topicA,topicA-363,172.172.1.1:1883,1551645511551,PRODUCED
Publisher_001,topicA,topicA-364,172.172.1.1:1883,1551645511652,PRODUCED
Publisher_001,topicA,topicA-365,172.172.1.1:1883,1551645511752,PRODUCED
Publisher_001,topicA,topicA-366,172.172.1.1:1883,1551645511852,PRODUCED
Publisher_001,topicA,topicA-367,172.172.1.1:1883,1551645511952,PRODUCED
Publisher_001,topicA,topicA-368,172.172.1.1:1883,1551645512051,PRODUCED
Publisher_001,topicA,topicA-369,172.172.1.1:1883,1551645512152,PRODUCED
Publisher_001,topicA,topicA-370,172.172.1.1:1883,1551645512257,PRODUCED
Publisher_001,topicA,topicA-371,172.172.1.1:1883,1551645512353,PRODUCED
Publisher_001,topicA,topicA-372,172.172.1.1:1883,1551645512452,PRODUCED
Publisher_001,topicA,topicA-373,172.172.1.1:1883,1551645512552,PRODUCED
Publisher_001,topicA,topicA-374,172.172.1.1:1883,1551645512652,PRODUCED
Publisher_001,topicA,topicA-375,172.172.1.1:1883,1551645512753,PRODUCED
Publisher_001,topicA,topicA-376,172.172.1.1:1883,1551645512853,PRODUCED
Publisher_001,topicA,topicA-377,172.172.1.1:1883,1551645512951,PRODUCED
Publisher_001,topicA,topicA-378,172.172.1.1:1883,1551645513052,PRODUCED
Publisher_001,topicA,topicA-379,172.172.1.1:1883,1551645513152,PRODUCED
Publisher_001,topicA,topicA-380,172.172.1.1:1883,1551645513251,PRODUCED
Publisher_001,topicA,topicA-381,172.172.1.1:1883,1551645513353,PRODUCED
Publisher_001,topicA,topicA-382,172.172.1.1:1883,1551645513453,PRODUCED
Publisher_001,topicA,topicA-383,172.172.1.1:1883,1551645513552,PRODUCED
Publisher_001,topicA,topicA-384,172.172.1.1:1883,1551645513652,PRODUCED
Publisher_001,topicA,topicA-385,172.172.1.1:1883,1551645513752,PRODUCED
Publisher_001,topicA,topicA-386,172.172.1.1:1883,1551645513852,PRODUCED
Publisher_001,topicA,topicA-387,172.172.1.1:1883,1551645513951,PRODUCED
Publisher_001,topicA,topicA-388,172.172.1.1:1883,1551645514051,PRODUCED
Publisher_001,topicA,topicA-389,172.172.1.1:1883,1551645514152,PRODUCED
Publisher_001,topicA,topicA-390,172.172.1.1:1883,1551645514252,PRODUCED
Publisher_001,topicA,topicA-391,172.172.1.1:1883,1551645514352,PRODUCED
Publisher_001,topicA,topicA-392,172.172.1.1:1883,1551645514452,PRODUCED
Publisher_001,topicA,topicA-393,172.172.1.1:1883,1551645514556,PRODUCED
Publisher_001,topicA,topicA-394,172.172.1.1:1883,1551645514651,PRODUCED
Publisher_001,topicA,topicA-395,172.172.1.1:1883,1551645514751,PRODUCED
Publisher_001,topicA,topicA-396,172.172.1.1:1883,1551645514853,PRODUCED
Publisher_001,topicA,topicA-397,172.172.1.1:1883,1551645514952,PRODUCED
Publisher_001,topicA,topicA-398,172.172.1.1:1883,1551645515052,PRODUCED
Publisher_001,topicA,topicA-399,172.172.1.1:1883,1551645515154,PRODUCED
Publisher_001,topicA,topicA-400,172.172.1.1:1883,1551645515255,PRODUCED
Publisher_001,topicA,topicA-401,172.172.1.1:1883,1551645515351,PRODUCED
Publisher_001,topicA,topicA-402,172.172.1.1:1883,1551645515452,PRODUCED
Publisher_001,topicA,topicA-403,172.172.1.1:1883,1551645515554,PRODUCED
Publisher_001,topicA,topicA-404,172.172.1.1:1883,1551645515653,PRODUCED
Publisher_001,topicA,topicA-405,172.172.1.1:1883,1551645515751,PRODUCED
Publisher_001,topicA,topicA-406,172.172.1.1:1883,1551645515854,PRODUCED
Publisher_001,topicA,topicA-407,172.172.1.1:1883,1551645515955,PRODUCED
Publisher_001,topicA,topicA-408,172.172.1.1:1883,1551645516051,PRODUCED
Publisher_001,topicA,topicA-409,172.172.1.1:1883,1551645516152,PRODUCED
Publisher_001,topicA,topicA-410,172.172.1.1:1883,1551645516252,PRODUCED
Publisher_001,topicA,topicA-411,172.172.1.1:1883,1551645516353,PRODUCED
Publisher_001,topicA,topicA-412,172.172.1.1:1883,1551645516451,PRODUCED
Publisher_001,topicA,topicA-413,172.172.1.1:1883,1551645516551,PRODUCED
Publisher_001,topicA,topicA-414,172.172.1.1:1883,1551645516652,PRODUCED
Publisher_001,topicA,topicA-415,172.172.1.1:1883,1551645516751,PRODUCED
Publisher_001,topicA,topicA-416,172.172.1.1:1883,1551645516851,PRODUCED
Publisher_001,topicA,topicA-417,172.172.1.1:1883,1551645516951,PRODUCED
Publisher_001,topicA,topicA-418,172.172.1.1:1883,1551645517052,PRODUCED
Publisher_001,topicA,topicA-419,172.172.1.1:1883,1551645517151,PRODUCED
Publisher_001,topicA,topicA-420,172.172.1.1:1883,1551645517251,PRODUCED
Publisher_001,topicA,topicA-421,172.172.1.1:1883,1551645517355,PRODUCED
Publisher_001,topicA,topicA-422,172.172.1.1:1883,1551645517452,PRODUCED
Publisher_001,topicA,topicA-423,172.172.1.1:1883,1551645517551,PRODUCED
Publisher_001,topicA,topicA-424,172.172.1.1:1883,1551645517651,PRODUCED
Publisher_001,topicA,topicA-425,172.172.1.1:1883,1551645517751,PRODUCED
Publisher_001,topicA,topicA-426,172.172.1.1:1883,1551645517852,PRODUCED
Publisher_001,topicA,topicA-427,172.172.1.1:1883,1551645517951,PRODUCED
Publisher_001,topicA,topicA-428,172.172.1.1:1883,1551645518052,PRODUCED
Publisher_001,topicA,topicA-429,172.172.1.1:1883,1551645518153,PRODUCED
Publisher_001,topicA,topicA-430,172.172.1.1:1883,1551645518256,PRODUCED
Publisher_001,topicA,topicA-431,172.172.1.1:1883,1551645518351,PRODUCED
Publisher_001,topicA,topicA-432,172.172.1.1:1883,1551645518451,PRODUCED
Publisher_001,topicA,topicA-433,172.172.1.1:1883,1551645518554,PRODUCED
Publisher_001,topicA,topicA-434,172.172.1.1:1883,1551645518653,PRODUCED
Publisher_001,topicA,topicA-435,172.172.1.1:1883,1551645518751,PRODUCED
Publisher_001,topicA,topicA-436,172.172.1.1:1883,1551645518853,PRODUCED
Publisher_001,topicA,topicA-437,172.172.1.1:1883,1551645518956,PRODUCED
Publisher_001,topicA,topicA-438,172.172.1.1:1883,1551645519052,PRODUCED
Publisher_001,topicA,topicA-439,172.172.1.1:1883,1551645519151,PRODUCED
Publisher_001,topicA,topicA-440,172.172.1.1:1883,1551645519251,PRODUCED
Publisher_001,topicA,topicA-441,172.172.1.1:1883,1551645519352,PRODUCED
Publisher_001,topicA,topicA-442,172.172.1.1:1883,1551645519452,PRODUCED
Publisher_001,topicA,topicA-443,172.172.1.1:1883,1551645519554,PRODUCED
Publisher_001,topicA,topicA-444,172.172.1.1:1883,1551645519661,PRODUCED
Publisher_001,topicA,topicA-445,172.172.1.1:1883,1551645519751,PRODUCED
Publisher_001,topicA,topicA-446,172.172.1.1:1883,1551645519852,PRODUCED
Publisher_001,topicA,topicA-447,172.172.1.1:1883,1551645519953,PRODUCED
Publisher_001,topicA,topicA-448,172.172.1.1:1883,1551645520051,PRODUCED
Publisher_001,topicA,topicA-449,172.172.1.1:1883,1551645520151,PRODUCED
Publisher_001,topicA,topicA-450,172.172.1.1:1883,1551645520251,PRODUCED
Publisher_001,topicA,topicA-451,172.172.1.1:1883,1551645520355,PRODUCED
Publisher_001,topicA,topicA-452,172.172.1.1:1883,1551645520452,PRODUCED
Publisher_001,topicA,topicA-453,172.172.1.1:1883,1551645520552,PRODUCED
Publisher_001,topicA,topicA-454,172.172.1.1:1883,1551645520656,PRODUCED
Publisher_001,topicA,topicA-455,172.172.1.1:1883,1551645520753,PRODUCED
Publisher_001,topicA,topicA-456,172.172.1.1:1883,1551645520852,PRODUCED
Publisher_001,topicA,topicA-457,172.172.1.1:1883,1551645520951,PRODUCED
Publisher_001,topicA,topicA-458,172.172.1.1:1883,1551645521052,PRODUCED
Publisher_001,topicA,topicA-459,172.172.1.1:1883,1551645521157,PRODUCED
Publisher_001,topicA,topicA-460,172.172.1.1:1883,1551645521251,PRODUCED
Publisher_001,topicA,topicA-461,172.172.1.1:1883,1551645521352,PRODUCED
Publisher_001,topicA,topicA-462,172.172.1.1:1883,1551645521454,PRODUCED
Publisher_001,topicA,topicA-463,172.172.1.1:1883,1551645521551,PRODUCED
Publisher_001,topicA,topicA-464,172.172.1.1:1883,1551645521652,PRODUCED
Publisher_001,topicA,topicA-465,172.172.1.1:1883,1551645521752,PRODUCED
Publisher_001,topicA,topicA-466,172.172.1.1:1883,1551645521851,PRODUCED
Publisher_001,topicA,topicA-467,172.172.1.1:1883,1551645521955,PRODUCED
Publisher_001,topicA,topicA-468,172.172.1.1:1883,1551645522053,PRODUCED
Publisher_001,topicA,topicA-469,172.172.1.1:1883,1551645522153,PRODUCED
Publisher_001,topicA,topicA-470,172.172.1.1:1883,1551645522252,PRODUCED
Publisher_001,topicA,topicA-471,172.172.1.1:1883,1551645522352,PRODUCED
Publisher_001,topicA,topicA-472,172.172.1.1:1883,1551645522453,PRODUCED
Publisher_001,topicA,topicA-473,172.172.1.1:1883,1551645522553,PRODUCED
Publisher_001,topicA,topicA-474,172.172.1.1:1883,1551645522651,PRODUCED
Publisher_001,topicA,topicA-475,172.172.1.1:1883,1551645522753,PRODUCED
Publisher_001,topicA,topicA-476,172.172.1.1:1883,1551645522851,PRODUCED
Publisher_001,topicA,topicA-477,172.172.1.1:1883,1551645522952,PRODUCED
Publisher_001,topicA,topicA-478,172.172.1.1:1883,1551645523055,PRODUCED
Publisher_001,topicA,topicA-479,172.172.1.1:1883,1551645523152,PRODUCED
Publisher_001,topicA,topicA-480,172.172.1.1:1883,1551645523257,PRODUCED
Publisher_001,topicA,topicA-481,172.172.1.1:1883,1551645523352,PRODUCED
Publisher_001,topicA,topicA-482,172.172.1.1:1883,1551645523452,PRODUCED
Publisher_001,topicA,topicA-483,172.172.1.1:1883,1551645523555,PRODUCED
Publisher_001,topicA,topicA-484,172.172.1.1:1883,1551645523652,PRODUCED
Publisher_001,topicA,topicA-485,172.172.1.1:1883,1551645523751,PRODUCED
Publisher_001,topicA,topicA-486,172.172.1.1:1883,1551645523852,PRODUCED
Publisher_001,topicA,topicA-487,172.172.1.1:1883,1551645523952,PRODUCED
Publisher_001,topicA,topicA-488,172.172.1.1:1883,1551645524052,PRODUCED
Publisher_001,topicA,topicA-489,172.172.1.1:1883,1551645524152,PRODUCED
Publisher_001,topicA,topicA-490,172.172.1.1:1883,1551645524252,PRODUCED
Publisher_001,topicA,topicA-491,172.172.1.1:1883,1551645524351,PRODUCED
Publisher_001,topicA,topicA-492,172.172.1.1:1883,1551645524452,PRODUCED
Publisher_001,topicA,topicA-493,172.172.1.1:1883,1551645524551,PRODUCED
Publisher_001,topicA,topicA-494,172.172.1.1:1883,1551645524651,PRODUCED
Publisher_001,topicA,topicA-495,172.172.1.1:1883,1551645524757,PRODUCED
Publisher_001,topicA,topicA-496,172.172.1.1:1883,1551645524851,PRODUCED
Publisher_001,topicA,topicA-497,172.172.1.1:1883,1551645524951,PRODUCED
Publisher_001,topicA,topicA-498,172.172.1.1:1883,1551645525052,PRODUCED
Publisher_001,topicA,topicA-499,172.172.1.1:1883,1551645525151,PRODUCED
Publisher_001,topicA,topicA-500,172.172.1.1:1883,1551645525252,PRODUCED
Publisher_001,topicA,topicA-501,172.172.1.1:1883,1551645525354,PRODUCED
Publisher_001,topicA,topicA-502,172.172.1.1:1883,1551645525451,PRODUCED
Publisher_001,topicA,topicA-503,172.172.1.1:1883,1551645525551,PRODUCED
Publisher_001,topicA,topicA-504,172.172.1.1:1883,1551645525651,PRODUCED
Publisher_001,topicA,topicA-505,172.172.1.1:1883,1551645525753,PRODUCED
Publisher_001,topicA,topicA-506,172.172.1.1:1883,1551645525851,PRODUCED
Publisher_001,topicA,topicA-507,172.172.1.1:1883,1551645525951,PRODUCED
Publisher_001,topicA,topicA-508,172.172.1.1:1883,1551645526052,PRODUCED
Publisher_001,topicA,topicA-509,172.172.1.1:1883,1551645526152,PRODUCED
Publisher_001,topicA,topicA-510,172.172.1.1:1883,1551645526256,PRODUCED
Publisher_001,topicA,topicA-511,172.172.1.1:1883,1551645526354,PRODUCED
Publisher_001,topicA,topicA-512,172.172.1.1:1883,1551645526451,PRODUCED
Publisher_001,topicA,topicA-513,172.172.1.1:1883,1551645526555,PRODUCED
Publisher_001,topicA,topicA-514,172.172.1.1:1883,1551645526653,PRODUCED
Publisher_001,topicA,topicA-515,172.172.1.1:1883,1551645526752,PRODUCED
Publisher_001,topicA,topicA-516,172.172.1.1:1883,1551645526851,PRODUCED
Publisher_001,topicA,topicA-517,172.172.1.1:1883,1551645526951,PRODUCED
Publisher_001,topicA,topicA-518,172.172.1.1:1883,1551645527051,PRODUCED
Publisher_001,topicA,topicA-519,172.172.1.1:1883,1551645527151,PRODUCED
Publisher_001,topicA,topicA-520,172.172.1.1:1883,1551645527251,PRODUCED
Publisher_001,topicA,topicA-521,172.172.1.1:1883,1551645527352,PRODUCED
Publisher_001,topicA,topicA-522,172.172.1.1:1883,1551645527453,PRODUCED
Publisher_001,topicA,topicA-523,172.172.1.1:1883,1551645527554,PRODUCED
Publisher_001,topicA,topicA-524,172.172.1.1:1883,1551645527651,PRODUCED
Publisher_001,topicA,topicA-525,172.172.1.1:1883,1551645527752,PRODUCED
Publisher_001,topicA,topicA-526,172.172.1.1:1883,1551645527851,PRODUCED
Publisher_001,topicA,topicA-527,172.172.1.1:1883,1551645527952,PRODUCED
Publisher_001,topicA,topicA-528,172.172.1.1:1883,1551645528055,PRODUCED
Publisher_001,topicA,topicA-529,172.172.1.1:1883,1551645528151,PRODUCED
Publisher_001,topicA,topicA-530,172.172.1.1:1883,1551645528251,PRODUCED
Publisher_001,topicA,topicA-531,172.172.1.1:1883,1551645528351,PRODUCED
Publisher_001,topicA,topicA-532,172.172.1.1:1883,1551645528458,PRODUCED
Publisher_001,topicA,topicA-533,172.172.1.1:1883,1551645528552,PRODUCED
Publisher_001,topicA,topicA-534,172.172.1.1:1883,1551645528655,PRODUCED
Publisher_001,topicA,topicA-535,172.172.1.1:1883,1551645528751,PRODUCED
Publisher_001,topicA,topicA-536,172.172.1.1:1883,1551645528852,PRODUCED
Publisher_001,topicA,topicA-537,172.172.1.1:1883,1551645528951,PRODUCED
Publisher_001,topicA,topicA-538,172.172.1.1:1883,1551645529059,PRODUCED
Publisher_001,topicA,topicA-539,172.172.1.1:1883,1551645529153,PRODUCED
Publisher_001,topicA,topicA-540,172.172.1.1:1883,1551645529251,PRODUCED
Publisher_001,topicA,topicA-541,172.172.1.1:1883,1551645529352,PRODUCED
Publisher_001,topicA,topicA-542,172.172.1.1:1883,1551645529452,PRODUCED
Publisher_001,topicA,topicA-543,172.172.1.1:1883,1551645529559,PRODUCED
Publisher_001,topicA,topicA-544,172.172.1.1:1883,1551645529652,PRODUCED
Publisher_001,topicA,topicA-545,172.172.1.1:1883,1551645529752,PRODUCED
Publisher_001,topicA,topicA-546,172.172.1.1:1883,1551645529851,PRODUCED
Publisher_001,topicA,topicA-547,172.172.1.1:1883,1551645529952,PRODUCED
Publisher_001,topicA,topicA-548,172.172.1.1:1883,1551645530051,PRODUCED
Publisher_001,topicA,topicA-549,172.172.1.1:1883,1551645530153,PRODUCED
Publisher_001,topicA,topicA-550,172.172.1.1:1883,1551645530252,PRODUCED
Publisher_001,topicA,topicA-551,172.172.1.1:1883,1551645530353,PRODUCED
Publisher_001,topicA,topicA-552,172.172.1.1:1883,1551645530452,PRODUCED
Publisher_001,topicA,topicA-553,172.172.1.1:1883,1551645530551,PRODUCED
Publisher_001,topicA,topicA-554,172.172.1.1:1883,1551645530656,PRODUCED
Publisher_001,topicA,topicA-555,172.172.1.1:1883,1551645530752,PRODUCED
Publisher_001,topicA,topicA-556,172.172.1.1:1883,1551645530860,PRODUCED
Publisher_001,topicA,topicA-557,172.172.1.1:1883,1551645530952,PRODUCED
Publisher_001,topicA,topicA-558,172.172.1.1:1883,1551645531052,PRODUCED
Publisher_001,topicA,topicA-559,172.172.1.1:1883,1551645531152,PRODUCED
Publisher_001,topicA,topicA-560,172.172.1.1:1883,1551645531255,PRODUCED
Publisher_001,topicA,topicA-561,172.172.1.1:1883,1551645531351,PRODUCED
Publisher_001,topicA,topicA-562,172.172.1.1:1883,1551645531452,PRODUCED
Publisher_001,topicA,topicA-563,172.172.1.1:1883,1551645531552,PRODUCED
Publisher_001,topicA,topicA-564,172.172.1.1:1883,1551645531652,PRODUCED
Publisher_001,topicA,topicA-565,172.172.1.1:1883,1551645531755,PRODUCED
Publisher_001,topicA,topicA-566,172.172.1.1:1883,1551645531852,PRODUCED
Publisher_001,topicA,topicA-567,172.172.1.1:1883,1551645531952,PRODUCED
Publisher_001,topicA,topicA-568,172.172.1.1:1883,1551645532051,PRODUCED
Publisher_001,topicA,topicA-569,172.172.1.1:1883,1551645532151,PRODUCED
Publisher_001,topicA,topicA-570,172.172.1.1:1883,1551645532254,PRODUCED
Publisher_001,topicA,topicA-571,172.172.1.1:1883,1551645532352,PRODUCED
Publisher_001,topicA,topicA-572,172.172.1.1:1883,1551645532451,PRODUCED
Publisher_001,topicA,topicA-573,172.172.1.1:1883,1551645532552,PRODUCED
Publisher_001,topicA,topicA-574,172.172.1.1:1883,1551645532652,PRODUCED
Publisher_001,topicA,topicA-575,172.172.1.1:1883,1551645532751,PRODUCED
Publisher_001,topicA,topicA-576,172.172.1.1:1883,1551645532854,PRODUCED
Publisher_001,topicA,topicA-577,172.172.1.1:1883,1551645532952,PRODUCED
Publisher_001,topicA,topicA-578,172.172.1.1:1883,1551645533052,PRODUCED
Publisher_001,topicA,topicA-579,172.172.1.1:1883,1551645533153,PRODUCED
Publisher_001,topicA,topicA-580,172.172.1.1:1883,1551645533256,PRODUCED
Publisher_001,topicA,topicA-581,172.172.1.1:1883,1551645533352,PRODUCED
Publisher_001,topicA,topicA-582,172.172.1.1:1883,1551645533452,PRODUCED
Publisher_001,topicA,topicA-583,172.172.1.1:1883,1551645533552,PRODUCED
Publisher_001,topicA,topicA-584,172.172.1.1:1883,1551645533651,PRODUCED
Publisher_001,topicA,topicA-585,172.172.1.1:1883,1551645533753,PRODUCED
Publisher_001,topicA,topicA-586,172.172.1.1:1883,1551645533861,PRODUCED
Publisher_001,topicA,topicA-587,172.172.1.1:1883,1551645533951,PRODUCED
Publisher_001,topicA,topicA-588,172.172.1.1:1883,1551645534051,PRODUCED
Publisher_001,topicA,topicA-589,172.172.1.1:1883,1551645534152,PRODUCED
Publisher_001,topicA,topicA-590,172.172.1.1:1883,1551645534253,PRODUCED
Publisher_001,topicA,topicA-591,172.172.1.1:1883,1551645534352,PRODUCED
Publisher_001,topicA,topicA-592,172.172.1.1:1883,1551645534452,PRODUCED
Publisher_001,topicA,topicA-593,172.172.1.1:1883,1551645534554,PRODUCED
Publisher_001,topicA,topicA-594,172.172.1.1:1883,1551645534653,PRODUCED
Publisher_001,topicA,topicA-595,172.172.1.1:1883,1551645534758,PRODUCED
Publisher_001,topicA,topicA-596,172.172.1.1:1883,1551645534855,PRODUCED
Publisher_001,topicA,topicA-597,172.172.1.1:1883,1551645534952,PRODUCED
Publisher_001,topicA,topicA-598,172.172.1.1:1883,1551645535051,PRODUCED
Publisher_001,topicA,topicA-599,172.172.1.1:1883,1551645535152,PRODUCED
Publisher_001,topicA,topicA-600,172.172.1.1:1883,1551645535252,PRODUCED
Publisher_001,topicA,topicA-601,172.172.1.1:1883,1551645535355,PRODUCED
Publisher_001,topicA,topicA-602,172.172.1.1:1883,1551645535452,PRODUCED
Publisher_001,topicA,topicA-603,172.172.1.1:1883,1551645535554,PRODUCED
Publisher_001,topicA,topicA-604,172.172.1.1:1883,1551645535655,PRODUCED
Publisher_001,topicA,topicA-605,172.172.1.1:1883,1551645535754,PRODUCED
Publisher_001,topicA,topicA-606,172.172.1.1:1883,1551645535851,PRODUCED
Publisher_001,topicA,topicA-607,172.172.1.1:1883,1551645535951,PRODUCED
Publisher_001,topicA,topicA-608,172.172.1.1:1883,1551645536056,PRODUCED
Publisher_001,topicA,topicA-609,172.172.1.1:1883,1551645536152,PRODUCED
Publisher_001,topicA,topicA-610,172.172.1.1:1883,1551645536251,PRODUCED
Publisher_001,topicA,topicA-611,172.172.1.1:1883,1551645536351,PRODUCED
Publisher_001,topicA,topicA-612,172.172.1.1:1883,1551645536455,PRODUCED
Publisher_001,topicA,topicA-613,172.172.1.1:1883,1551645536551,PRODUCED
Publisher_001,topicA,topicA-614,172.172.1.1:1883,1551645536651,PRODUCED
Publisher_001,topicA,topicA-615,172.172.1.1:1883,1551645536751,PRODUCED
Publisher_001,topicA,topicA-616,172.172.1.1:1883,1551645536851,PRODUCED
Publisher_001,topicA,topicA-617,172.172.1.1:1883,1551645536953,PRODUCED
Publisher_001,topicA,topicA-618,172.172.1.1:1883,1551645537054,PRODUCED
Publisher_001,topicA,topicA-619,172.172.1.1:1883,1551645537151,PRODUCED
Publisher_001,topicA,topicA-620,172.172.1.1:1883,1551645537251,PRODUCED
Publisher_001,topicA,topicA-621,172.172.1.1:1883,1551645537352,PRODUCED
Publisher_001,topicA,topicA-622,172.172.1.1:1883,1551645537451,PRODUCED
Publisher_001,topicA,topicA-623,172.172.1.1:1883,1551645537551,PRODUCED
Publisher_001,topicA,topicA-624,172.172.1.1:1883,1551645537651,PRODUCED
Publisher_001,topicA,topicA-625,172.172.1.1:1883,1551645537754,PRODUCED
Publisher_001,topicA,topicA-626,172.172.1.1:1883,1551645537851,PRODUCED
Publisher_001,topicA,topicA-627,172.172.1.1:1883,1551645537953,PRODUCED
Publisher_001,topicA,topicA-628,172.172.1.1:1883,1551645538055,PRODUCED
Publisher_001,topicA,topicA-629,172.172.1.1:1883,1551645538151,PRODUCED
Publisher_001,topicA,topicA-630,172.172.1.1:1883,1551645538254,PRODUCED
Publisher_001,topicA,topicA-631,172.172.1.1:1883,1551645538352,PRODUCED
Publisher_001,topicA,topicA-632,172.172.1.1:1883,1551645538451,PRODUCED
Publisher_001,topicA,topicA-633,172.172.1.1:1883,1551645538554,PRODUCED
Publisher_001,topicA,topicA-634,172.172.1.1:1883,1551645538651,PRODUCED
Publisher_001,topicA,topicA-635,172.172.1.1:1883,1551645538753,PRODUCED
Publisher_001,topicA,topicA-636,172.172.1.1:1883,1551645538853,PRODUCED
Publisher_001,topicA,topicA-637,172.172.1.1:1883,1551645538952,PRODUCED
Publisher_001,topicA,topicA-638,172.172.1.1:1883,1551645539051,PRODUCED
Publisher_001,topicA,topicA-639,172.172.1.1:1883,1551645539152,PRODUCED
Publisher_001,topicA,topicA-640,172.172.1.1:1883,1551645539252,PRODUCED
Publisher_001,topicA,topicA-641,172.172.1.1:1883,1551645539352,PRODUCED
Publisher_001,topicA,topicA-642,172.172.1.1:1883,1551645539453,PRODUCED
Publisher_001,topicA,topicA-643,172.172.1.1:1883,1551645539552,PRODUCED
Publisher_001,topicA,topicA-644,172.172.1.1:1883,1551645539651,PRODUCED
Publisher_001,topicA,topicA-645,172.172.1.1:1883,1551645539752,PRODUCED
Publisher_001,topicA,topicA-646,172.172.1.1:1883,1551645539855,PRODUCED
Publisher_001,topicA,topicA-647,172.172.1.1:1883,1551645539953,PRODUCED
Publisher_001,topicA,topicA-648,172.172.1.1:1883,1551645540051,PRODUCED
Publisher_001,topicA,topicA-649,172.172.1.1:1883,1551645540151,PRODUCED
Publisher_001,topicA,topicA-650,172.172.1.1:1883,1551645540254,PRODUCED
Publisher_001,topicA,topicA-651,172.172.1.1:1883,1551645540351,PRODUCED
Publisher_001,topicA,topicA-652,172.172.1.1:1883,1551645540451,PRODUCED
Publisher_001,topicA,topicA-653,172.172.1.1:1883,1551645540551,PRODUCED
Publisher_001,topicA,topicA-654,172.172.1.1:1883,1551645540651,PRODUCED
Publisher_001,topicA,topicA-655,172.172.1.1:1883,1551645540751,PRODUCED
Publisher_001,topicA,topicA-656,172.172.1.1:1883,1551645540851,PRODUCED
Publisher_001,topicA,topicA-657,172.172.1.1:1883,1551645540951,PRODUCED
Publisher_001,topicA,topicA-658,172.172.1.1:1883,1551645541051,PRODUCED
Publisher_001,topicA,topicA-659,172.172.1.1:1883,1551645541151,PRODUCED
