timestamp,event,migrationId
1551659396440,INITIALIZED,25008794-a74d-4c6f-973b-7a1ebea9dcab
1551659396443,topicA-INITIALIZED,25008794-a74d-4c6f-973b-7a1ebea9dcab
1551659398494,topicA-FINISHED,25008794-a74d-4c6f-973b-7a1ebea9dcab
1551659398495,FINISHED,25008794-a74d-4c6f-973b-7a1ebea9dcab
