[1] "Duration B1: 2628"
[1] "Duration B2: 2371"
[1] "Duration MIGRATE: 270"
[1] "Duration MIGACK: -13"
[1] "addrow"
[1] "INITIALIZED"
  timestamp       event                          migrationId
1         0 INITIALIZED 516b19aa-717a-4bf1-bc8a-393366bdabdb
[1] "addrow"
[1] "SYNCING"
  timestamp   event                          migrationId
6       606 SYNCING 516b19aa-717a-4bf1-bc8a-393366bdabdb
[1] "addrow"
[1] "SYNCED"
   timestamp  event                          migrationId
11      2456 SYNCED 516b19aa-717a-4bf1-bc8a-393366bdabdb
[1] "addrow"
[1] "FINISHED"
   timestamp    event                          migrationId
15      2628 FINISHED 516b19aa-717a-4bf1-bc8a-393366bdabdb
[1] "addrow"
[1] "topicA-INITIALIZED"
  timestamp              event                          migrationId
3         4 topicA-INITIALIZED 516b19aa-717a-4bf1-bc8a-393366bdabdb
[1] "addrow"
[1] "topicA-SYNCING"
[1] "addrow"
[1] "topicA-SYNCED"
  timestamp         event                          migrationId
5        13 topicA-SYNCED 516b19aa-717a-4bf1-bc8a-393366bdabdb
[1] "addrow"
[1] "topicA-FINISHED"
   timestamp           event                          migrationId
13      2627 topicA-FINISHED 516b19aa-717a-4bf1-bc8a-393366bdabdb
[1] "addrow"
[1] "topicB-INITIALIZED"
  timestamp              event                          migrationId
4        10 topicB-INITIALIZED 516b19aa-717a-4bf1-bc8a-393366bdabdb
[1] "addrow"
[1] "topicB-SYNCING"
  timestamp          event                          migrationId
8       624 topicB-SYNCING 516b19aa-717a-4bf1-bc8a-393366bdabdb
[1] "addrow"
[1] "topicB-SYNCED"
  timestamp         event                          migrationId
9      2445 topicB-SYNCED 516b19aa-717a-4bf1-bc8a-393366bdabdb
[1] "addrow"
[1] "topicB-FINISHED"
   timestamp           event                          migrationId
14      2628 topicB-FINISHED 516b19aa-717a-4bf1-bc8a-393366bdabdb
[1] "addrow"
[1] "topicC-INITIALIZED"
  timestamp              event                          migrationId
2         2 topicC-INITIALIZED 516b19aa-717a-4bf1-bc8a-393366bdabdb
[1] "addrow"
[1] "topicC-SYNCING"
  timestamp          event                          migrationId
7       609 topicC-SYNCING 516b19aa-717a-4bf1-bc8a-393366bdabdb
[1] "addrow"
[1] "topicC-SYNCED"
   timestamp         event                          migrationId
10      2448 topicC-SYNCED 516b19aa-717a-4bf1-bc8a-393366bdabdb
[1] "addrow"
[1] "topicC-FINISHED"
   timestamp           event                          migrationId
12      2626 topicC-FINISHED 516b19aa-717a-4bf1-bc8a-393366bdabdb
[1] "addrow"
[1] "INITIALIZED"
  timestamp       event                          migrationId
1         0 INITIALIZED 516b19aa-717a-4bf1-bc8a-393366bdabdb
[1] "addrow"
[1] "SYNCING"
  timestamp   event                          migrationId
6       606 SYNCING 516b19aa-717a-4bf1-bc8a-393366bdabdb
[1] "addrow"
[1] "SYNCED"
   timestamp  event                          migrationId
11      2456 SYNCED 516b19aa-717a-4bf1-bc8a-393366bdabdb
[1] "addrow"
[1] "FINISHED"
   timestamp    event                          migrationId
15      2628 FINISHED 516b19aa-717a-4bf1-bc8a-393366bdabdb
[1] "addrow"
[1] "topicA-INITIALIZED"
  timestamp              event                          migrationId
3         4 topicA-INITIALIZED 516b19aa-717a-4bf1-bc8a-393366bdabdb
[1] "addrow"
[1] "topicA-SYNCING"
[1] "addrow"
[1] "topicA-SYNCED"
  timestamp         event                          migrationId
5        13 topicA-SYNCED 516b19aa-717a-4bf1-bc8a-393366bdabdb
[1] "addrow"
[1] "topicA-FINISHED"
   timestamp           event                          migrationId
13      2627 topicA-FINISHED 516b19aa-717a-4bf1-bc8a-393366bdabdb
[1] "addrow"
[1] "topicB-INITIALIZED"
  timestamp              event                          migrationId
4        10 topicB-INITIALIZED 516b19aa-717a-4bf1-bc8a-393366bdabdb
[1] "addrow"
[1] "topicB-SYNCING"
  timestamp          event                          migrationId
8       624 topicB-SYNCING 516b19aa-717a-4bf1-bc8a-393366bdabdb
[1] "addrow"
[1] "topicB-SYNCED"
  timestamp         event                          migrationId
9      2445 topicB-SYNCED 516b19aa-717a-4bf1-bc8a-393366bdabdb
[1] "addrow"
[1] "topicB-FINISHED"
   timestamp           event                          migrationId
14      2628 topicB-FINISHED 516b19aa-717a-4bf1-bc8a-393366bdabdb
[1] "addrow"
[1] "topicC-INITIALIZED"
  timestamp              event                          migrationId
2         2 topicC-INITIALIZED 516b19aa-717a-4bf1-bc8a-393366bdabdb
[1] "addrow"
[1] "topicC-SYNCING"
  timestamp          event                          migrationId
7       609 topicC-SYNCING 516b19aa-717a-4bf1-bc8a-393366bdabdb
[1] "addrow"
[1] "topicC-SYNCED"
   timestamp         event                          migrationId
10      2448 topicC-SYNCED 516b19aa-717a-4bf1-bc8a-393366bdabdb
[1] "addrow"
[1] "topicC-FINISHED"
   timestamp           event                          migrationId
12      2626 topicC-FINISHED 516b19aa-717a-4bf1-bc8a-393366bdabdb
pdf 
  2 
[1] "addrow"
[1] "INITIALIZED"
  timestamp       event                          migrationId
1         0 INITIALIZED 516b19aa-717a-4bf1-bc8a-393366bdabdb
[1] "addrow"
[1] "SYNCING"
  timestamp   event                          migrationId
6       606 SYNCING 516b19aa-717a-4bf1-bc8a-393366bdabdb
[1] "addrow"
[1] "SYNCED"
   timestamp  event                          migrationId
11      2456 SYNCED 516b19aa-717a-4bf1-bc8a-393366bdabdb
[1] "addrow"
[1] "FINISHED"
   timestamp    event                          migrationId
15      2628 FINISHED 516b19aa-717a-4bf1-bc8a-393366bdabdb
[1] "addrow"
[1] "topicA-INITIALIZED"
  timestamp              event                          migrationId
3         4 topicA-INITIALIZED 516b19aa-717a-4bf1-bc8a-393366bdabdb
[1] "addrow"
[1] "topicA-SYNCING"
[1] "addrow"
[1] "topicA-SYNCED"
  timestamp         event                          migrationId
5        13 topicA-SYNCED 516b19aa-717a-4bf1-bc8a-393366bdabdb
[1] "addrow"
[1] "topicA-FINISHED"
   timestamp           event                          migrationId
13      2627 topicA-FINISHED 516b19aa-717a-4bf1-bc8a-393366bdabdb
[1] "addrow"
[1] "topicB-INITIALIZED"
  timestamp              event                          migrationId
4        10 topicB-INITIALIZED 516b19aa-717a-4bf1-bc8a-393366bdabdb
[1] "addrow"
[1] "topicB-SYNCING"
  timestamp          event                          migrationId
8       624 topicB-SYNCING 516b19aa-717a-4bf1-bc8a-393366bdabdb
[1] "addrow"
[1] "topicB-SYNCED"
  timestamp         event                          migrationId
9      2445 topicB-SYNCED 516b19aa-717a-4bf1-bc8a-393366bdabdb
[1] "addrow"
[1] "topicB-FINISHED"
   timestamp           event                          migrationId
14      2628 topicB-FINISHED 516b19aa-717a-4bf1-bc8a-393366bdabdb
[1] "addrow"
[1] "topicC-INITIALIZED"
  timestamp              event                          migrationId
2         2 topicC-INITIALIZED 516b19aa-717a-4bf1-bc8a-393366bdabdb
[1] "addrow"
[1] "topicC-SYNCING"
  timestamp          event                          migrationId
7       609 topicC-SYNCING 516b19aa-717a-4bf1-bc8a-393366bdabdb
[1] "addrow"
[1] "topicC-SYNCED"
   timestamp         event                          migrationId
10      2448 topicC-SYNCED 516b19aa-717a-4bf1-bc8a-393366bdabdb
[1] "addrow"
[1] "topicC-FINISHED"
   timestamp           event                          migrationId
12      2626 topicC-FINISHED 516b19aa-717a-4bf1-bc8a-393366bdabdb
pdf 
  2 
[1] "addrow"
[1] "INITIALIZED"
  timestamp       event                          migrationId
1       270 INITIALIZED 516b19aa-717a-4bf1-bc8a-393366bdabdb
[1] "addrow"
[1] "SYNCING"
  timestamp   event                          migrationId
8       520 SYNCING 516b19aa-717a-4bf1-bc8a-393366bdabdb
[1] "addrow"
[1] "SYNCED"
   timestamp  event                          migrationId
15      2589 SYNCED 516b19aa-717a-4bf1-bc8a-393366bdabdb
[1] "addrow"
[1] "FINISHED"
   timestamp    event                          migrationId
19      2641 FINISHED 516b19aa-717a-4bf1-bc8a-393366bdabdb
[1] "addrow"
[1] "topicA-INITIALIZED"
  timestamp              event                          migrationId
4       275 topicA-INITIALIZED 516b19aa-717a-4bf1-bc8a-393366bdabdb
[1] "addrow"
[1] "topicA-SYNCING"
  timestamp          event                          migrationId
6       511 topicA-SYNCING 516b19aa-717a-4bf1-bc8a-393366bdabdb
[1] "addrow"
[1] "topicA-SYNCED"
   timestamp         event                          migrationId
12       532 topicA-SYNCED 516b19aa-717a-4bf1-bc8a-393366bdabdb
[1] "addrow"
[1] "topicA-FINISHED"
   timestamp           event                          migrationId
17      2627 topicA-FINISHED 516b19aa-717a-4bf1-bc8a-393366bdabdb
[1] "addrow"
[1] "topicB-INITIALIZED"
  timestamp              event                          migrationId
3       275 topicB-INITIALIZED 516b19aa-717a-4bf1-bc8a-393366bdabdb
[1] "addrow"
[1] "topicB-SYNCING"
  timestamp          event                          migrationId
7       518 topicB-SYNCING 516b19aa-717a-4bf1-bc8a-393366bdabdb
[1] "addrow"
[1] "topicB-SYNCED"
   timestamp         event                          migrationId
14      2584 topicB-SYNCED 516b19aa-717a-4bf1-bc8a-393366bdabdb
[1] "addrow"
[1] "topicB-FINISHED"
   timestamp           event                          migrationId
18      2639 topicB-FINISHED 516b19aa-717a-4bf1-bc8a-393366bdabdb
[1] "addrow"
[1] "topicC-INITIALIZED"
  timestamp              event                          migrationId
2       274 topicC-INITIALIZED 516b19aa-717a-4bf1-bc8a-393366bdabdb
[1] "addrow"
[1] "topicC-SYNCING"
  timestamp          event                          migrationId
5       510 topicC-SYNCING 516b19aa-717a-4bf1-bc8a-393366bdabdb
[1] "addrow"
[1] "topicC-SYNCED"
   timestamp         event                          migrationId
13      2500 topicC-SYNCED 516b19aa-717a-4bf1-bc8a-393366bdabdb
[1] "addrow"
[1] "topicC-FINISHED"
   timestamp           event                          migrationId
16      2605 topicC-FINISHED 516b19aa-717a-4bf1-bc8a-393366bdabdb
pdf 
  2 
[1] "addrow"
[1] "INITIALIZED"
  timestamp       event                          migrationId
1       270 INITIALIZED 516b19aa-717a-4bf1-bc8a-393366bdabdb
[1] "addrow"
[1] "SYNCING"
  timestamp   event                          migrationId
8       520 SYNCING 516b19aa-717a-4bf1-bc8a-393366bdabdb
[1] "addrow"
[1] "SYNCED"
   timestamp  event                          migrationId
15      2589 SYNCED 516b19aa-717a-4bf1-bc8a-393366bdabdb
[1] "addrow"
[1] "FINISHED"
   timestamp    event                          migrationId
19      2641 FINISHED 516b19aa-717a-4bf1-bc8a-393366bdabdb
[1] "addrow"
[1] "topicA-INITIALIZED"
  timestamp              event                          migrationId
4       275 topicA-INITIALIZED 516b19aa-717a-4bf1-bc8a-393366bdabdb
[1] "addrow"
[1] "topicA-SYNCING"
  timestamp          event                          migrationId
6       511 topicA-SYNCING 516b19aa-717a-4bf1-bc8a-393366bdabdb
[1] "addrow"
[1] "topicA-SYNCED"
   timestamp         event                          migrationId
12       532 topicA-SYNCED 516b19aa-717a-4bf1-bc8a-393366bdabdb
[1] "addrow"
[1] "topicA-FINISHED"
   timestamp           event                          migrationId
17      2627 topicA-FINISHED 516b19aa-717a-4bf1-bc8a-393366bdabdb
[1] "addrow"
[1] "topicB-INITIALIZED"
  timestamp              event                          migrationId
3       275 topicB-INITIALIZED 516b19aa-717a-4bf1-bc8a-393366bdabdb
[1] "addrow"
[1] "topicB-SYNCING"
  timestamp          event                          migrationId
7       518 topicB-SYNCING 516b19aa-717a-4bf1-bc8a-393366bdabdb
[1] "addrow"
[1] "topicB-SYNCED"
   timestamp         event                          migrationId
14      2584 topicB-SYNCED 516b19aa-717a-4bf1-bc8a-393366bdabdb
[1] "addrow"
[1] "topicB-FINISHED"
   timestamp           event                          migrationId
18      2639 topicB-FINISHED 516b19aa-717a-4bf1-bc8a-393366bdabdb
[1] "addrow"
[1] "topicC-INITIALIZED"
  timestamp              event                          migrationId
2       274 topicC-INITIALIZED 516b19aa-717a-4bf1-bc8a-393366bdabdb
[1] "addrow"
[1] "topicC-SYNCING"
  timestamp          event                          migrationId
5       510 topicC-SYNCING 516b19aa-717a-4bf1-bc8a-393366bdabdb
[1] "addrow"
[1] "topicC-SYNCED"
   timestamp         event                          migrationId
13      2500 topicC-SYNCED 516b19aa-717a-4bf1-bc8a-393366bdabdb
[1] "addrow"
[1] "topicC-FINISHED"
   timestamp           event                          migrationId
16      2605 topicC-FINISHED 516b19aa-717a-4bf1-bc8a-393366bdabdb
pdf 
  2 
