timestamp,event,migrationId
1551643155576,INITIALIZED,c5c45abb-9c7a-403b-87f1-5d2dea21728e
1551643155611,topicC-INITIALIZED,c5c45abb-9c7a-403b-87f1-5d2dea21728e
1551643155629,topicD-INITIALIZED,c5c45abb-9c7a-403b-87f1-5d2dea21728e
1551643155645,topicA-INITIALIZED,c5c45abb-9c7a-403b-87f1-5d2dea21728e
1551643155646,topicB-INITIALIZED,c5c45abb-9c7a-403b-87f1-5d2dea21728e
1551643155651,topicF-INITIALIZED,c5c45abb-9c7a-403b-87f1-5d2dea21728e
1551643155650,topicE-INITIALIZED,c5c45abb-9c7a-403b-87f1-5d2dea21728e
1551643155955,topicC-SYNCING,c5c45abb-9c7a-403b-87f1-5d2dea21728e
1551643155955,topicD-SYNCING,c5c45abb-9c7a-403b-87f1-5d2dea21728e
1551643155956,topicA-SYNCING,c5c45abb-9c7a-403b-87f1-5d2dea21728e
1551643155957,topicB-SYNCING,c5c45abb-9c7a-403b-87f1-5d2dea21728e
1551643155958,topicE-SYNCING,c5c45abb-9c7a-403b-87f1-5d2dea21728e
1551643155959,topicF-SYNCING,c5c45abb-9c7a-403b-87f1-5d2dea21728e
1551643155959,SYNCING,c5c45abb-9c7a-403b-87f1-5d2dea21728e
1551643155961,topicC-SYNCING_OPPONENT,c5c45abb-9c7a-403b-87f1-5d2dea21728e
1551643155962,topicD-SYNCING_THIS,c5c45abb-9c7a-403b-87f1-5d2dea21728e
1551643155962,topicA-SYNCING_THIS,c5c45abb-9c7a-403b-87f1-5d2dea21728e
1551643155964,topicA-SYNCED,c5c45abb-9c7a-403b-87f1-5d2dea21728e
1551643155966,topicE-SYNCING_THIS,c5c45abb-9c7a-403b-87f1-5d2dea21728e
1551643155966,topicF-SYNCING_THIS,c5c45abb-9c7a-403b-87f1-5d2dea21728e
1551643155978,topicB-SYNCING_OPPONENT,c5c45abb-9c7a-403b-87f1-5d2dea21728e
1551643156988,topicD-SYNCED,c5c45abb-9c7a-403b-87f1-5d2dea21728e
1551643157003,topicE-SYNCED,c5c45abb-9c7a-403b-87f1-5d2dea21728e
1551643157012,topicF-SYNCED,c5c45abb-9c7a-403b-87f1-5d2dea21728e
1551643157891,topicC-SYNCED,c5c45abb-9c7a-403b-87f1-5d2dea21728e
1551643157892,topicB-SYNCED,c5c45abb-9c7a-403b-87f1-5d2dea21728e
1551643157892,SYNCED,c5c45abb-9c7a-403b-87f1-5d2dea21728e
1551643157898,topicC-FINISHED,c5c45abb-9c7a-403b-87f1-5d2dea21728e
1551643157902,topicD-FINISHED,c5c45abb-9c7a-403b-87f1-5d2dea21728e
1551643157903,topicB-FINISHED,c5c45abb-9c7a-403b-87f1-5d2dea21728e
1551643157902,topicA-FINISHED,c5c45abb-9c7a-403b-87f1-5d2dea21728e
1551643157907,topicE-FINISHED,c5c45abb-9c7a-403b-87f1-5d2dea21728e
1551643157907,topicF-FINISHED,c5c45abb-9c7a-403b-87f1-5d2dea21728e
1551643157908,FINISHED,c5c45abb-9c7a-403b-87f1-5d2dea21728e
