clientId,topic,guid,broker,timestamp,type
Subscriber_001,topicA,topicA-34,172.172.1.1:1883,1551647842159,RECEIVED
Subscriber_001,topicA,topicA-35,172.172.1.1:1883,1551647842162,RECEIVED
Subscriber_001,topicA,topicA-36,172.172.1.1:1883,1551647842162,RECEIVED
Subscriber_001,topicA,topicA-37,172.172.1.1:1883,1551647842195,RECEIVED
Subscriber_001,topicA,topicA-38,172.172.1.1:1883,1551647842296,RECEIVED
Subscriber_001,topicA,topicA-39,172.172.1.1:1883,1551647842400,RECEIVED
Subscriber_001,topicA,topicA-40,172.172.1.1:1883,1551647842500,RECEIVED
Subscriber_001,topicA,topicA-41,172.172.1.1:1883,1551647842608,RECEIVED
Subscriber_001,topicA,topicA-42,172.172.1.1:1883,1551647842696,RECEIVED
Subscriber_001,topicA,topicA-43,172.172.1.1:1883,1551647842798,RECEIVED
Subscriber_001,topicA,topicA-44,172.172.1.1:1883,1551647842899,RECEIVED
Subscriber_001,topicA,topicA-45,172.172.1.1:1883,1551647842998,RECEIVED
Subscriber_001,topicA,topicA-46,172.172.1.1:1883,1551647843096,RECEIVED
Subscriber_001,topicA,topicA-47,172.172.1.1:1883,1551647843195,RECEIVED
Subscriber_001,topicA,topicA-48,172.172.1.1:1883,1551647843298,RECEIVED
Subscriber_001,topicA,topicA-49,172.172.1.1:1883,1551647843399,RECEIVED
Subscriber_001,topicA,topicA-50,172.172.1.1:1883,1551647843502,RECEIVED
Subscriber_001,topicA,topicA-51,172.172.1.1:1883,1551647843608,RECEIVED
Subscriber_001,topicA,topicA-52,172.172.1.1:1883,1551647843705,RECEIVED
Subscriber_001,topicA,topicA-53,172.172.1.1:1883,1551647843797,RECEIVED
Subscriber_001,topicA,topicA-54,172.172.1.1:1883,1551647843894,RECEIVED
Subscriber_001,topicA,topicA-55,172.172.1.1:1883,1551647843998,RECEIVED
Subscriber_001,topicA,topicA-56,172.172.1.1:1883,1551647844103,RECEIVED
Subscriber_001,topicA,topicA-57,172.172.1.1:1883,1551647844207,RECEIVED
Subscriber_001,topicA,topicA-58,172.172.1.1:1883,1551647844314,RECEIVED
Subscriber_001,topicA,topicA-59,172.172.1.1:1883,1551647844415,RECEIVED
Subscriber_001,topicA,topicA-60,172.172.1.1:1883,1551647844506,RECEIVED
Subscriber_001,topicA,topicA-61,172.172.1.1:1883,1551647844604,RECEIVED
Subscriber_001,topicA,topicA-62,172.172.1.1:1883,1551647844721,RECEIVED
Subscriber_001,topicA,topicA-63,172.172.1.1:1883,1551647844816,RECEIVED
Subscriber_001,topicA,topicA-64,172.172.1.1:1883,1551647844906,RECEIVED
Subscriber_001,topicA,topicA-65,172.172.1.1:1883,1551647844999,RECEIVED
Subscriber_001,topicA,topicA-66,172.172.1.1:1883,1551647845096,RECEIVED
Subscriber_001,topicA,topicA-67,172.172.1.1:1883,1551647845199,RECEIVED
Subscriber_001,topicA,topicA-68,172.172.1.1:1883,1551647845298,RECEIVED
Subscriber_001,topicA,topicA-69,172.172.1.1:1883,1551647845401,RECEIVED
Subscriber_001,topicA,topicA-70,172.172.1.1:1883,1551647845505,RECEIVED
Subscriber_001,topicA,topicA-71,172.172.1.1:1883,1551647845606,RECEIVED
Subscriber_001,topicA,topicA-72,172.172.1.1:1883,1551647845712,RECEIVED
Subscriber_001,topicA,topicA-73,172.172.1.1:1883,1551647845796,RECEIVED
Subscriber_001,topicA,topicA-74,172.172.1.1:1883,1551647845905,RECEIVED
Subscriber_001,topicA,topicA-75,172.172.1.1:1883,1551647846006,RECEIVED
Subscriber_001,topicA,topicA-76,172.172.1.1:1883,1551647846104,RECEIVED
Subscriber_001,topicA,topicA-77,172.172.1.1:1883,1551647846200,RECEIVED
Subscriber_001,topicA,topicA-78,172.172.1.1:1883,1551647846306,RECEIVED
Subscriber_001,topicA,topicA-79,172.172.1.1:1883,1551647846401,RECEIVED
Subscriber_001,topicA,topicA-80,172.172.1.1:1883,1551647846503,RECEIVED
Subscriber_001,topicA,topicA-81,172.172.1.1:1883,1551647846602,RECEIVED
Subscriber_001,topicA,topicA-82,172.172.1.1:1883,1551647846700,RECEIVED
Subscriber_001,topicA,topicA-83,172.172.1.1:1883,1551647846805,RECEIVED
Subscriber_001,topicA,topicA-84,172.172.1.1:1883,1551647846903,RECEIVED
Subscriber_001,topicA,topicA-85,172.172.1.1:1883,1551647847012,RECEIVED
Subscriber_001,topicA,topicA-86,172.172.1.1:1883,1551647847100,RECEIVED
Subscriber_001,topicA,topicA-87,172.172.1.1:1883,1551647847196,RECEIVED
Subscriber_001,topicA,topicA-88,172.172.1.1:1883,1551647847302,RECEIVED
Subscriber_001,topicA,topicA-89,172.172.1.1:1883,1551647847406,RECEIVED
Subscriber_001,topicA,topicA-90,172.172.1.1:1883,1551647847503,RECEIVED
Subscriber_001,topicA,topicA-91,172.172.1.1:1883,1551647847599,RECEIVED
Subscriber_001,topicA,topicA-92,172.172.1.1:1883,1551647847699,RECEIVED
Subscriber_001,topicA,topicA-93,172.172.1.1:1883,1551647847808,RECEIVED
Subscriber_001,topicA,topicA-94,172.172.1.1:1883,1551647847908,RECEIVED
Subscriber_001,topicA,topicA-95,172.172.1.1:1883,1551647848003,RECEIVED
Subscriber_001,topicA,topicA-96,172.172.1.1:1883,1551647848100,RECEIVED
Subscriber_001,topicA,topicA-97,172.172.1.1:1883,1551647848195,RECEIVED
Subscriber_001,topicA,topicA-98,172.172.1.1:1883,1551647848298,RECEIVED
Subscriber_001,topicA,topicA-99,172.172.1.1:1883,1551647848402,RECEIVED
Subscriber_001,topicA,topicA-100,172.172.1.1:1883,1551647848498,RECEIVED
Subscriber_001,topicA,topicA-101,172.172.1.1:1883,1551647848601,RECEIVED
Subscriber_001,topicA,topicA-102,172.172.1.1:1883,1551647848697,RECEIVED
Subscriber_001,topicA,topicA-103,172.172.1.1:1883,1551647848794,RECEIVED
Subscriber_001,topicA,topicA-104,172.172.1.1:1883,1551647848905,RECEIVED
Subscriber_001,topicA,topicA-105,172.172.1.1:1883,1551647849003,RECEIVED
Subscriber_001,topicA,topicA-106,172.172.1.1:1883,1551647849103,RECEIVED
Subscriber_001,topicA,topicA-107,172.172.1.1:1883,1551647849207,RECEIVED
Subscriber_001,topicA,topicA-108,172.172.1.1:1883,1551647849300,RECEIVED
Subscriber_001,topicA,topicA-109,172.172.1.1:1883,1551647849399,RECEIVED
Subscriber_001,topicA,topicA-110,172.172.1.1:1883,1551647849503,RECEIVED
Subscriber_001,topicA,topicA-111,172.172.1.1:1883,1551647849603,RECEIVED
Subscriber_001,topicA,topicA-112,172.172.1.1:1883,1551647849703,RECEIVED
Subscriber_001,topicA,topicA-113,172.172.1.1:1883,1551647849809,RECEIVED
Subscriber_001,topicA,topicA-114,172.172.1.1:1883,1551647849923,RECEIVED
Subscriber_001,topicA,topicA-115,172.172.1.1:1883,1551647850005,RECEIVED
Subscriber_001,topicA,topicA-116,172.172.1.1:1883,1551647850106,RECEIVED
Subscriber_001,topicA,topicA-117,172.172.1.1:1883,1551647850213,RECEIVED
Subscriber_001,topicA,topicA-118,172.172.1.1:1883,1551647850302,RECEIVED
Subscriber_001,topicA,topicA-119,172.172.1.1:1883,1551647850398,RECEIVED
Subscriber_001,topicA,topicA-120,172.172.1.1:1883,1551647850497,RECEIVED
Subscriber_001,topicA,topicA-121,172.172.1.1:1883,1551647850596,RECEIVED
Subscriber_001,topicA,topicA-122,172.172.1.1:1883,1551647850700,RECEIVED
Subscriber_001,topicA,topicA-123,172.172.1.1:1883,1551647850803,RECEIVED
Subscriber_001,topicA,topicA-124,172.172.1.1:1883,1551647850901,RECEIVED
Subscriber_001,topicA,topicA-125,172.172.1.1:1883,1551647851004,RECEIVED
Subscriber_001,topicA,topicA-126,172.172.1.1:1883,1551647851105,RECEIVED
Subscriber_001,topicA,topicA-127,172.172.1.1:1883,1551647851211,RECEIVED
Subscriber_001,topicA,topicA-128,172.172.1.1:1883,1551647851313,RECEIVED
Subscriber_001,topicA,topicA-129,172.172.1.1:1883,1551647851398,RECEIVED
Subscriber_001,topicA,topicA-130,172.172.1.1:1883,1551647851496,RECEIVED
Subscriber_001,topicA,topicA-131,172.172.1.1:1883,1551647851594,RECEIVED
Subscriber_001,topicA,topicA-132,172.172.1.1:1883,1551647851702,RECEIVED
Subscriber_001,topicA,topicA-133,172.172.1.1:1883,1551647851802,RECEIVED
Subscriber_001,topicA,topicA-134,172.172.1.1:1883,1551647851905,RECEIVED
Subscriber_001,topicA,topicA-135,172.172.1.1:1883,1551647852003,RECEIVED
Subscriber_001,topicA,topicA-136,172.172.1.1:1883,1551647852097,RECEIVED
Subscriber_001,topicA,topicA-137,172.172.1.1:1883,1551647852207,RECEIVED
Subscriber_001,topicA,topicA-138,172.172.1.1:1883,1551647852299,RECEIVED
Subscriber_001,topicA,topicA-139,172.172.1.1:1883,1551647852404,RECEIVED
Subscriber_001,topicA,topicA-140,172.172.1.1:1883,1551647852491,RECEIVED
Subscriber_001,topicA,topicA-141,172.172.1.1:1883,1551647852604,RECEIVED
Subscriber_001,topicA,topicA-142,172.172.1.1:1883,1551647852693,RECEIVED
Subscriber_001,topicA,topicA-143,172.172.1.1:1883,1551647852796,RECEIVED
Subscriber_001,topicA,topicA-144,172.172.1.1:1883,1551647852898,RECEIVED
Subscriber_001,topicA,topicA-145,172.172.1.1:1883,1551647853001,RECEIVED
Subscriber_001,topicA,topicA-146,172.172.1.1:1883,1551647853099,RECEIVED
Subscriber_001,topicA,topicA-147,172.172.1.1:1883,1551647853195,RECEIVED
Subscriber_001,topicA,topicA-148,172.172.1.1:1883,1551647853298,RECEIVED
Subscriber_001,topicA,topicA-149,172.172.1.1:1883,1551647853399,RECEIVED
Subscriber_001,topicA,topicA-150,172.172.1.1:1883,1551647853494,RECEIVED
Subscriber_001,topicA,topicA-151,172.172.1.1:1883,1551647853597,RECEIVED
Subscriber_001,topicA,topicA-152,172.172.1.1:1883,1551647853695,RECEIVED
Subscriber_001,topicA,topicA-153,172.172.1.1:1883,1551647853797,RECEIVED
Subscriber_001,topicA,topicA-154,172.172.1.1:1883,1551647853894,RECEIVED
Subscriber_001,topicA,topicA-155,172.172.1.1:1883,1551647853991,RECEIVED
Subscriber_001,topicA,topicA-156,172.172.1.1:1883,1551647854098,RECEIVED
Subscriber_001,topicA,topicA-157,172.172.1.1:1883,1551647854202,RECEIVED
Subscriber_001,topicA,topicA-158,172.172.1.1:1883,1551647854305,RECEIVED
Subscriber_001,topicA,topicA-159,172.172.1.1:1883,1551647854397,RECEIVED
Subscriber_001,topicA,topicA-160,172.172.1.1:1883,1551647854506,RECEIVED
Subscriber_001,topicA,topicA-161,172.172.1.1:1883,1551647854604,RECEIVED
Subscriber_001,topicA,topicA-162,172.172.1.1:1883,1551647854698,RECEIVED
Subscriber_001,topicA,topicA-163,172.172.1.1:1883,1551647854796,RECEIVED
Subscriber_001,topicA,topicA-164,172.172.1.1:1883,1551647854898,RECEIVED
Subscriber_001,topicA,topicA-165,172.172.1.1:1883,1551647854995,RECEIVED
Subscriber_001,topicA,topicA-166,172.172.1.1:1883,1551647855097,RECEIVED
Subscriber_001,topicA,topicA-167,172.172.1.1:1883,1551647855199,RECEIVED
Subscriber_001,topicA,topicA-168,172.172.1.1:1883,1551647855295,RECEIVED
Subscriber_001,topicA,topicA-169,172.172.1.1:1883,1551647855395,RECEIVED
Subscriber_001,topicA,topicA-170,172.172.1.1:1883,1551647855491,RECEIVED
Subscriber_001,topicA,topicA-171,172.172.1.1:1883,1551647855594,RECEIVED
Subscriber_001,topicA,topicA-172,172.172.1.1:1883,1551647855702,RECEIVED
Subscriber_001,topicA,topicA-173,172.172.1.1:1883,1551647855791,RECEIVED
Subscriber_001,topicA,topicA-174,172.172.1.1:1883,1551647855892,RECEIVED
Subscriber_001,topicA,topicA-175,172.172.1.1:1883,1551647856001,RECEIVED
Subscriber_001,topicA,topicA-176,172.172.1.1:1883,1551647856108,RECEIVED
Subscriber_001,topicA,topicA-177,172.172.1.1:1883,1551647856198,RECEIVED
Subscriber_001,topicA,topicA-178,172.172.1.1:1883,1551647856307,RECEIVED
Subscriber_001,topicA,topicA-179,172.172.1.1:1883,1551647856395,RECEIVED
Subscriber_001,topicA,topicA-180,172.172.1.1:1883,1551647856495,RECEIVED
Subscriber_001,topicA,topicA-181,172.172.1.1:1883,1551647856602,RECEIVED
Subscriber_001,topicA,topicA-182,172.172.1.1:1883,1551647856718,RECEIVED
Subscriber_001,topicA,topicA-183,172.172.1.1:1883,1551647856795,RECEIVED
Subscriber_001,topicA,topicA-184,172.172.1.1:1883,1551647856892,RECEIVED
Subscriber_001,topicA,topicA-185,172.172.1.1:1883,1551647856999,RECEIVED
Subscriber_001,topicA,topicA-186,172.172.1.1:1883,1551647857092,RECEIVED
Subscriber_001,topicA,topicA-187,172.172.1.1:1883,1551647857200,RECEIVED
Subscriber_001,topicA,topicA-188,172.172.1.1:1883,1551647857304,RECEIVED
Subscriber_001,topicA,topicA-189,172.172.1.1:1883,1551647857410,RECEIVED
Subscriber_001,topicA,topicA-190,172.172.1.1:1883,1551647857506,RECEIVED
Subscriber_001,topicA,topicA-191,172.172.1.1:1883,1551647857619,RECEIVED
Subscriber_001,topicA,topicA-192,172.172.1.1:1883,1551647857703,RECEIVED
Subscriber_001,topicA,topicA-193,172.172.1.1:1883,1551647857806,RECEIVED
Subscriber_001,topicA,topicA-194,172.172.1.1:1883,1551647857896,RECEIVED
Subscriber_001,topicA,topicA-195,172.172.1.1:1883,1551647858006,RECEIVED
Subscriber_001,topicA,topicA-196,172.172.1.1:1883,1551647858106,RECEIVED
Subscriber_001,topicA,topicA-197,172.172.1.1:1883,1551647858207,RECEIVED
Subscriber_001,topicA,topicA-198,172.172.1.1:1883,1551647858295,RECEIVED
Subscriber_001,topicA,topicA-199,172.172.1.1:1883,1551647858397,RECEIVED
Subscriber_001,topicA,topicA-200,172.172.1.1:1883,1551647858497,RECEIVED
Subscriber_001,topicA,topicA-201,172.172.1.1:1883,1551647858596,RECEIVED
Subscriber_001,topicA,topicA-202,172.172.1.1:1883,1551647858705,RECEIVED
Subscriber_001,topicA,topicA-203,172.172.1.1:1883,1551647858799,RECEIVED
Subscriber_001,topicA,topicA-204,172.172.1.1:1883,1551647858892,RECEIVED
Subscriber_001,topicA,topicA-205,172.172.1.1:1883,1551647858995,RECEIVED
Subscriber_001,topicA,topicA-206,172.172.1.1:1883,1551647859093,RECEIVED
Subscriber_001,topicA,topicA-207,172.172.1.1:1883,1551647859202,RECEIVED
Subscriber_001,topicA,topicA-208,172.172.1.1:1883,1551647859306,RECEIVED
Subscriber_001,topicA,topicA-209,172.172.1.1:1883,1551647859403,RECEIVED
Subscriber_001,topicA,topicA-210,172.172.1.1:1883,1551647859508,RECEIVED
Subscriber_001,topicA,topicA-211,172.172.1.1:1883,1551647859603,RECEIVED
Subscriber_001,topicA,topicA-212,172.172.1.1:1883,1551647859700,RECEIVED
Subscriber_001,topicA,topicA-213,172.172.1.1:1883,1551647859807,RECEIVED
Subscriber_001,topicA,topicA-214,172.172.1.1:1883,1551647859899,RECEIVED
Subscriber_001,topicA,topicA-215,172.172.1.1:1883,1551647860012,RECEIVED
Subscriber_001,topicA,topicA-216,172.172.1.1:1883,1551647860103,RECEIVED
Subscriber_001,topicA,topicA-217,172.172.1.1:1883,1551647860201,RECEIVED
Subscriber_001,topicA,topicA-218,172.172.1.1:1883,1551647860302,RECEIVED
Subscriber_001,topicA,topicA-219,172.172.1.1:1883,1551647860395,RECEIVED
Subscriber_001,topicA,topicA-220,172.172.1.1:1883,1551647860499,RECEIVED
Subscriber_001,topicA,topicA-221,172.172.1.1:1883,1551647860598,RECEIVED
Subscriber_001,topicA,topicA-222,172.172.1.1:1883,1551647860708,RECEIVED
Subscriber_001,topicA,topicA-223,172.172.1.1:1883,1551647860799,RECEIVED
Subscriber_001,topicA,topicA-224,172.172.1.1:1883,1551647860905,RECEIVED
Subscriber_001,topicA,topicA-225,172.172.1.1:1883,1551647860992,RECEIVED
Subscriber_001,topicA,topicA-226,172.172.1.1:1883,1551647861093,RECEIVED
Subscriber_001,topicA,topicA-227,172.172.1.1:1883,1551647861192,RECEIVED
Subscriber_001,topicA,topicA-228,172.172.1.1:1883,1551647861297,RECEIVED
Subscriber_001,topicA,topicA-254,172.172.1.2:1883,1551647861843,RECEIVED
Subscriber_001,topicA,topicA-255,172.172.1.2:1883,1551647861936,RECEIVED
Subscriber_001,topicA,topicA-256,172.172.1.2:1883,1551647862032,RECEIVED
Subscriber_001,topicA,topicA-257,172.172.1.2:1883,1551647862147,RECEIVED
Subscriber_001,topicA,topicA-258,172.172.1.2:1883,1551647862243,RECEIVED
Subscriber_001,topicA,topicA-259,172.172.1.2:1883,1551647862338,RECEIVED
Subscriber_001,topicA,topicA-260,172.172.1.2:1883,1551647862434,RECEIVED
Subscriber_001,topicA,topicA-261,172.172.1.2:1883,1551647862531,RECEIVED
Subscriber_001,topicA,topicA-262,172.172.1.2:1883,1551647862636,RECEIVED
Subscriber_001,topicA,topicA-263,172.172.1.2:1883,1551647862746,RECEIVED
Subscriber_001,topicA,topicA-264,172.172.1.2:1883,1551647862850,RECEIVED
Subscriber_001,topicA,topicA-265,172.172.1.2:1883,1551647862939,RECEIVED
Subscriber_001,topicA,topicA-266,172.172.1.2:1883,1551647863039,RECEIVED
Subscriber_001,topicA,topicA-267,172.172.1.2:1883,1551647863142,RECEIVED
Subscriber_001,topicA,topicA-268,172.172.1.2:1883,1551647863236,RECEIVED
Subscriber_001,topicA,topicA-269,172.172.1.2:1883,1551647863348,RECEIVED
Subscriber_001,topicA,topicA-270,172.172.1.2:1883,1551647863439,RECEIVED
Subscriber_001,topicA,topicA-271,172.172.1.2:1883,1551647863544,RECEIVED
Subscriber_001,topicA,topicA-272,172.172.1.2:1883,1551647863649,RECEIVED
Subscriber_001,topicA,topicA-273,172.172.1.2:1883,1551647863741,RECEIVED
Subscriber_001,topicA,topicA-274,172.172.1.2:1883,1551647863846,RECEIVED
Subscriber_001,topicA,topicA-275,172.172.1.2:1883,1551647863944,RECEIVED
Subscriber_001,topicA,topicA-276,172.172.1.2:1883,1551647864037,RECEIVED
Subscriber_001,topicA,topicA-277,172.172.1.2:1883,1551647864139,RECEIVED
Subscriber_001,topicA,topicA-278,172.172.1.2:1883,1551647864235,RECEIVED
Subscriber_001,topicA,topicA-279,172.172.1.2:1883,1551647864340,RECEIVED
Subscriber_001,topicA,topicA-280,172.172.1.2:1883,1551647864439,RECEIVED
Subscriber_001,topicA,topicA-281,172.172.1.2:1883,1551647864532,RECEIVED
Subscriber_001,topicA,topicA-282,172.172.1.2:1883,1551647864638,RECEIVED
Subscriber_001,topicA,topicA-283,172.172.1.2:1883,1551647864745,RECEIVED
Subscriber_001,topicA,topicA-284,172.172.1.2:1883,1551647864832,RECEIVED
Subscriber_001,topicA,topicA-285,172.172.1.2:1883,1551647864930,RECEIVED
Subscriber_001,topicA,topicA-286,172.172.1.2:1883,1551647865033,RECEIVED
Subscriber_001,topicA,topicA-287,172.172.1.2:1883,1551647865151,RECEIVED
Subscriber_001,topicA,topicA-288,172.172.1.2:1883,1551647865238,RECEIVED
Subscriber_001,topicA,topicA-289,172.172.1.2:1883,1551647865349,RECEIVED
Subscriber_001,topicA,topicA-290,172.172.1.2:1883,1551647865444,RECEIVED
Subscriber_001,topicA,topicA-291,172.172.1.2:1883,1551647865548,RECEIVED
Subscriber_001,topicA,topicA-292,172.172.1.2:1883,1551647865641,RECEIVED
Subscriber_001,topicA,topicA-293,172.172.1.2:1883,1551647865741,RECEIVED
Subscriber_001,topicA,topicA-294,172.172.1.2:1883,1551647865850,RECEIVED
Subscriber_001,topicA,topicA-295,172.172.1.2:1883,1551647865942,RECEIVED
Subscriber_001,topicA,topicA-296,172.172.1.2:1883,1551647866047,RECEIVED
Subscriber_001,topicA,topicA-297,172.172.1.2:1883,1551647866133,RECEIVED
Subscriber_001,topicA,topicA-298,172.172.1.2:1883,1551647866239,RECEIVED
Subscriber_001,topicA,topicA-299,172.172.1.2:1883,1551647866346,RECEIVED
Subscriber_001,topicA,topicA-300,172.172.1.2:1883,1551647866439,RECEIVED
Subscriber_001,topicA,topicA-301,172.172.1.2:1883,1551647866532,RECEIVED
Subscriber_001,topicA,topicA-302,172.172.1.2:1883,1551647866638,RECEIVED
Subscriber_001,topicA,topicA-303,172.172.1.2:1883,1551647866737,RECEIVED
Subscriber_001,topicA,topicA-304,172.172.1.2:1883,1551647866838,RECEIVED
Subscriber_001,topicA,topicA-305,172.172.1.2:1883,1551647866947,RECEIVED
Subscriber_001,topicA,topicA-306,172.172.1.2:1883,1551647867041,RECEIVED
Subscriber_001,topicA,topicA-307,172.172.1.2:1883,1551647867142,RECEIVED
Subscriber_001,topicA,topicA-308,172.172.1.2:1883,1551647867238,RECEIVED
Subscriber_001,topicA,topicA-309,172.172.1.2:1883,1551647867334,RECEIVED
Subscriber_001,topicA,topicA-310,172.172.1.2:1883,1551647867438,RECEIVED
Subscriber_001,topicA,topicA-311,172.172.1.2:1883,1551647867535,RECEIVED
Subscriber_001,topicA,topicA-312,172.172.1.2:1883,1551647867639,RECEIVED
Subscriber_001,topicA,topicA-313,172.172.1.2:1883,1551647867736,RECEIVED
Subscriber_001,topicA,topicA-314,172.172.1.2:1883,1551647867840,RECEIVED
Subscriber_001,topicA,topicA-315,172.172.1.2:1883,1551647867933,RECEIVED
Subscriber_001,topicA,topicA-316,172.172.1.2:1883,1551647868040,RECEIVED
Subscriber_001,topicA,topicA-317,172.172.1.2:1883,1551647868138,RECEIVED
Subscriber_001,topicA,topicA-318,172.172.1.2:1883,1551647868234,RECEIVED
Subscriber_001,topicA,topicA-319,172.172.1.2:1883,1551647868338,RECEIVED
Subscriber_001,topicA,topicA-320,172.172.1.2:1883,1551647868442,RECEIVED
Subscriber_001,topicA,topicA-321,172.172.1.2:1883,1551647868536,RECEIVED
Subscriber_001,topicA,topicA-322,172.172.1.2:1883,1551647868641,RECEIVED
Subscriber_001,topicA,topicA-323,172.172.1.2:1883,1551647868744,RECEIVED
Subscriber_001,topicA,topicA-324,172.172.1.2:1883,1551647868841,RECEIVED
Subscriber_001,topicA,topicA-325,172.172.1.2:1883,1551647868941,RECEIVED
Subscriber_001,topicA,topicA-326,172.172.1.2:1883,1551647869049,RECEIVED
Subscriber_001,topicA,topicA-327,172.172.1.2:1883,1551647869149,RECEIVED
Subscriber_001,topicA,topicA-328,172.172.1.2:1883,1551647869247,RECEIVED
Subscriber_001,topicA,topicA-329,172.172.1.2:1883,1551647869334,RECEIVED
Subscriber_001,topicA,topicA-330,172.172.1.2:1883,1551647869440,RECEIVED
Subscriber_001,topicA,topicA-331,172.172.1.2:1883,1551647869541,RECEIVED
Subscriber_001,topicA,topicA-332,172.172.1.2:1883,1551647869641,RECEIVED
Subscriber_001,topicA,topicA-333,172.172.1.2:1883,1551647869733,RECEIVED
Subscriber_001,topicA,topicA-334,172.172.1.2:1883,1551647869838,RECEIVED
Subscriber_001,topicA,topicA-335,172.172.1.2:1883,1551647869937,RECEIVED
Subscriber_001,topicA,topicA-336,172.172.1.2:1883,1551647870043,RECEIVED
Subscriber_001,topicA,topicA-337,172.172.1.2:1883,1551647870140,RECEIVED
Subscriber_001,topicA,topicA-338,172.172.1.2:1883,1551647870240,RECEIVED
Subscriber_001,topicA,topicA-339,172.172.1.2:1883,1551647870344,RECEIVED
Subscriber_001,topicA,topicA-340,172.172.1.2:1883,1551647870443,RECEIVED
Subscriber_001,topicA,topicA-341,172.172.1.2:1883,1551647870548,RECEIVED
Subscriber_001,topicA,topicA-342,172.172.1.2:1883,1551647870639,RECEIVED
Subscriber_001,topicA,topicA-343,172.172.1.2:1883,1551647870740,RECEIVED
Subscriber_001,topicA,topicA-344,172.172.1.2:1883,1551647870841,RECEIVED
Subscriber_001,topicA,topicA-345,172.172.1.2:1883,1551647870943,RECEIVED
Subscriber_001,topicA,topicA-346,172.172.1.2:1883,1551647871041,RECEIVED
Subscriber_001,topicA,topicA-347,172.172.1.2:1883,1551647871145,RECEIVED
Subscriber_001,topicA,topicA-348,172.172.1.2:1883,1551647871239,RECEIVED
Subscriber_001,topicA,topicA-349,172.172.1.2:1883,1551647871336,RECEIVED
Subscriber_001,topicA,topicA-350,172.172.1.2:1883,1551647871441,RECEIVED
Subscriber_001,topicA,topicA-351,172.172.1.2:1883,1551647871540,RECEIVED
Subscriber_001,topicA,topicA-352,172.172.1.2:1883,1551647871638,RECEIVED
Subscriber_001,topicA,topicA-353,172.172.1.2:1883,1551647871745,RECEIVED
Subscriber_001,topicA,topicA-354,172.172.1.2:1883,1551647871838,RECEIVED
Subscriber_001,topicA,topicA-355,172.172.1.2:1883,1551647871938,RECEIVED
Subscriber_001,topicA,topicA-356,172.172.1.2:1883,1551647872040,RECEIVED
Subscriber_001,topicA,topicA-357,172.172.1.2:1883,1551647872139,RECEIVED
Subscriber_001,topicA,topicA-358,172.172.1.2:1883,1551647872233,RECEIVED
Subscriber_001,topicA,topicA-359,172.172.1.2:1883,1551647872334,RECEIVED
Subscriber_001,topicA,topicA-360,172.172.1.2:1883,1551647872440,RECEIVED
Subscriber_001,topicA,topicA-361,172.172.1.2:1883,1551647872537,RECEIVED
Subscriber_001,topicA,topicA-362,172.172.1.2:1883,1551647872638,RECEIVED
Subscriber_001,topicA,topicA-363,172.172.1.2:1883,1551647872732,RECEIVED
Subscriber_001,topicA,topicA-364,172.172.1.2:1883,1551647872833,RECEIVED
Subscriber_001,topicA,topicA-365,172.172.1.2:1883,1551647872937,RECEIVED
Subscriber_001,topicA,topicA-366,172.172.1.2:1883,1551647873029,RECEIVED
Subscriber_001,topicA,topicA-367,172.172.1.2:1883,1551647873134,RECEIVED
Subscriber_001,topicA,topicA-368,172.172.1.2:1883,1551647873242,RECEIVED
Subscriber_001,topicA,topicA-369,172.172.1.2:1883,1551647873336,RECEIVED
Subscriber_001,topicA,topicA-370,172.172.1.2:1883,1551647873432,RECEIVED
Subscriber_001,topicA,topicA-371,172.172.1.2:1883,1551647873540,RECEIVED
Subscriber_001,topicA,topicA-372,172.172.1.2:1883,1551647873631,RECEIVED
Subscriber_001,topicA,topicA-373,172.172.1.2:1883,1551647873735,RECEIVED
Subscriber_001,topicA,topicA-374,172.172.1.2:1883,1551647873830,RECEIVED
Subscriber_001,topicA,topicA-375,172.172.1.2:1883,1551647873934,RECEIVED
Subscriber_001,topicA,topicA-376,172.172.1.2:1883,1551647874038,RECEIVED
Subscriber_001,topicA,topicA-377,172.172.1.2:1883,1551647874132,RECEIVED
Subscriber_001,topicA,topicA-378,172.172.1.2:1883,1551647874233,RECEIVED
Subscriber_001,topicA,topicA-379,172.172.1.2:1883,1551647874335,RECEIVED
Subscriber_001,topicA,topicA-380,172.172.1.2:1883,1551647874430,RECEIVED
Subscriber_001,topicA,topicA-381,172.172.1.2:1883,1551647874538,RECEIVED
Subscriber_001,topicA,topicA-382,172.172.1.2:1883,1551647874638,RECEIVED
Subscriber_001,topicA,topicA-383,172.172.1.2:1883,1551647874737,RECEIVED
Subscriber_001,topicA,topicA-384,172.172.1.2:1883,1551647874842,RECEIVED
Subscriber_001,topicA,topicA-385,172.172.1.2:1883,1551647874932,RECEIVED
Subscriber_001,topicA,topicA-386,172.172.1.2:1883,1551647875032,RECEIVED
Subscriber_001,topicA,topicA-387,172.172.1.2:1883,1551647875137,RECEIVED
Subscriber_001,topicA,topicA-388,172.172.1.2:1883,1551647875241,RECEIVED
Subscriber_001,topicA,topicA-389,172.172.1.2:1883,1551647875341,RECEIVED
Subscriber_001,topicA,topicA-390,172.172.1.2:1883,1551647875435,RECEIVED
Subscriber_001,topicA,topicA-391,172.172.1.2:1883,1551647875539,RECEIVED
Subscriber_001,topicA,topicA-392,172.172.1.2:1883,1551647875642,RECEIVED
Subscriber_001,topicA,topicA-393,172.172.1.2:1883,1551647875741,RECEIVED
Subscriber_001,topicA,topicA-394,172.172.1.2:1883,1551647875841,RECEIVED
Subscriber_001,topicA,topicA-395,172.172.1.2:1883,1551647875943,RECEIVED
Subscriber_001,topicA,topicA-396,172.172.1.2:1883,1551647876038,RECEIVED
Subscriber_001,topicA,topicA-397,172.172.1.2:1883,1551647876129,RECEIVED
Subscriber_001,topicA,topicA-398,172.172.1.2:1883,1551647876229,RECEIVED
Subscriber_001,topicA,topicA-399,172.172.1.2:1883,1551647876336,RECEIVED
Subscriber_001,topicA,topicA-400,172.172.1.2:1883,1551647876440,RECEIVED
Subscriber_001,topicA,topicA-401,172.172.1.2:1883,1551647876530,RECEIVED
Subscriber_001,topicA,topicA-402,172.172.1.2:1883,1551647876640,RECEIVED
Subscriber_001,topicA,topicA-403,172.172.1.2:1883,1551647876749,RECEIVED
Subscriber_001,topicA,topicA-404,172.172.1.2:1883,1551647876835,RECEIVED
Subscriber_001,topicA,topicA-405,172.172.1.2:1883,1551647876931,RECEIVED
Subscriber_001,topicA,topicA-406,172.172.1.2:1883,1551647877031,RECEIVED
Subscriber_001,topicA,topicA-407,172.172.1.2:1883,1551647877130,RECEIVED
Subscriber_001,topicA,topicA-408,172.172.1.2:1883,1551647877244,RECEIVED
Subscriber_001,topicA,topicA-409,172.172.1.2:1883,1551647877337,RECEIVED
Subscriber_001,topicA,topicA-410,172.172.1.2:1883,1551647877441,RECEIVED
Subscriber_001,topicA,topicA-411,172.172.1.2:1883,1551647877540,RECEIVED
Subscriber_001,topicA,topicA-412,172.172.1.2:1883,1551647877632,RECEIVED
Subscriber_001,topicA,topicA-413,172.172.1.2:1883,1551647877737,RECEIVED
Subscriber_001,topicA,topicA-414,172.172.1.2:1883,1551647877836,RECEIVED
Subscriber_001,topicA,topicA-415,172.172.1.2:1883,1551647877944,RECEIVED
Subscriber_001,topicA,topicA-416,172.172.1.2:1883,1551647878037,RECEIVED
Subscriber_001,topicA,topicA-417,172.172.1.2:1883,1551647878138,RECEIVED
Subscriber_001,topicA,topicA-418,172.172.1.2:1883,1551647878241,RECEIVED
Subscriber_001,topicA,topicA-419,172.172.1.2:1883,1551647878338,RECEIVED
Subscriber_001,topicA,topicA-420,172.172.1.2:1883,1551647878443,RECEIVED
Subscriber_001,topicA,topicA-421,172.172.1.2:1883,1551647878542,RECEIVED
Subscriber_001,topicA,topicA-422,172.172.1.2:1883,1551647878640,RECEIVED
Subscriber_001,topicA,topicA-423,172.172.1.2:1883,1551647878740,RECEIVED
Subscriber_001,topicA,topicA-424,172.172.1.2:1883,1551647878831,RECEIVED
Subscriber_001,topicA,topicA-425,172.172.1.2:1883,1551647878940,RECEIVED
Subscriber_001,topicA,topicA-426,172.172.1.2:1883,1551647879053,RECEIVED
Subscriber_001,topicA,topicA-427,172.172.1.2:1883,1551647879137,RECEIVED
Subscriber_001,topicA,topicA-428,172.172.1.2:1883,1551647879240,RECEIVED
Subscriber_001,topicA,topicA-429,172.172.1.2:1883,1551647879339,RECEIVED
Subscriber_001,topicA,topicA-430,172.172.1.2:1883,1551647879445,RECEIVED
Subscriber_001,topicA,topicA-431,172.172.1.2:1883,1551647879540,RECEIVED
Subscriber_001,topicA,topicA-432,172.172.1.2:1883,1551647879642,RECEIVED
Subscriber_001,topicA,topicA-433,172.172.1.2:1883,1551647879744,RECEIVED
Subscriber_001,topicA,topicA-434,172.172.1.2:1883,1551647879836,RECEIVED
Subscriber_001,topicA,topicA-435,172.172.1.2:1883,1551647879936,RECEIVED
Subscriber_001,topicA,topicA-436,172.172.1.2:1883,1551647880041,RECEIVED
Subscriber_001,topicA,topicA-437,172.172.1.2:1883,1551647880142,RECEIVED
Subscriber_001,topicA,topicA-438,172.172.1.2:1883,1551647880241,RECEIVED
Subscriber_001,topicA,topicA-439,172.172.1.2:1883,1551647880335,RECEIVED
Subscriber_001,topicA,topicA-440,172.172.1.2:1883,1551647880431,RECEIVED
Subscriber_001,topicA,topicA-441,172.172.1.2:1883,1551647880539,RECEIVED
Subscriber_001,topicA,topicA-442,172.172.1.2:1883,1551647880638,RECEIVED
Subscriber_001,topicA,topicA-443,172.172.1.2:1883,1551647880736,RECEIVED
Subscriber_001,topicA,topicA-444,172.172.1.2:1883,1551647880846,RECEIVED
Subscriber_001,topicA,topicA-445,172.172.1.2:1883,1551647880939,RECEIVED
Subscriber_001,topicA,topicA-446,172.172.1.2:1883,1551647881039,RECEIVED
Subscriber_001,topicA,topicA-447,172.172.1.2:1883,1551647881141,RECEIVED
Subscriber_001,topicA,topicA-448,172.172.1.2:1883,1551647881239,RECEIVED
Subscriber_001,topicA,topicA-449,172.172.1.2:1883,1551647881346,RECEIVED
Subscriber_001,topicA,topicA-450,172.172.1.2:1883,1551647881447,RECEIVED
Subscriber_001,topicA,topicA-451,172.172.1.2:1883,1551647881543,RECEIVED
Subscriber_001,topicA,topicA-452,172.172.1.2:1883,1551647881639,RECEIVED
Subscriber_001,topicA,topicA-453,172.172.1.2:1883,1551647881745,RECEIVED
Subscriber_001,topicA,topicA-454,172.172.1.2:1883,1551647881837,RECEIVED
Subscriber_001,topicA,topicA-455,172.172.1.2:1883,1551647881937,RECEIVED
Subscriber_001,topicA,topicA-456,172.172.1.2:1883,1551647882045,RECEIVED
Subscriber_001,topicA,topicA-457,172.172.1.2:1883,1551647882144,RECEIVED
Subscriber_001,topicA,topicA-458,172.172.1.2:1883,1551647882248,RECEIVED
Subscriber_001,topicA,topicA-459,172.172.1.2:1883,1551647882338,RECEIVED
Subscriber_001,topicA,topicA-460,172.172.1.2:1883,1551647882431,RECEIVED
Subscriber_001,topicA,topicA-461,172.172.1.2:1883,1551647882537,RECEIVED
Subscriber_001,topicA,topicA-462,172.172.1.2:1883,1551647882635,RECEIVED
Subscriber_001,topicA,topicA-463,172.172.1.2:1883,1551647882732,RECEIVED
Subscriber_001,topicA,topicA-464,172.172.1.2:1883,1551647882847,RECEIVED
Subscriber_001,topicA,topicA-465,172.172.1.2:1883,1551647882950,RECEIVED
Subscriber_001,topicA,topicA-466,172.172.1.2:1883,1551647883043,RECEIVED
Subscriber_001,topicA,topicA-467,172.172.1.2:1883,1551647883152,RECEIVED
Subscriber_001,topicA,topicA-468,172.172.1.2:1883,1551647883245,RECEIVED
Subscriber_001,topicA,topicA-469,172.172.1.2:1883,1551647883333,RECEIVED
Subscriber_001,topicA,topicA-470,172.172.1.2:1883,1551647883452,RECEIVED
Subscriber_001,topicA,topicA-471,172.172.1.2:1883,1551647883546,RECEIVED
Subscriber_001,topicA,topicA-472,172.172.1.2:1883,1551647883638,RECEIVED
Subscriber_001,topicA,topicA-473,172.172.1.2:1883,1551647883744,RECEIVED
Subscriber_001,topicA,topicA-474,172.172.1.2:1883,1551647883842,RECEIVED
Subscriber_001,topicA,topicA-475,172.172.1.2:1883,1551647883942,RECEIVED
Subscriber_001,topicA,topicA-476,172.172.1.2:1883,1551647884037,RECEIVED
Subscriber_001,topicA,topicA-477,172.172.1.2:1883,1551647884139,RECEIVED
Subscriber_001,topicA,topicA-478,172.172.1.2:1883,1551647884238,RECEIVED
Subscriber_001,topicA,topicA-479,172.172.1.2:1883,1551647884341,RECEIVED
Subscriber_001,topicA,topicA-480,172.172.1.2:1883,1551647884431,RECEIVED
Subscriber_001,topicA,topicA-481,172.172.1.2:1883,1551647884540,RECEIVED
Subscriber_001,topicA,topicA-482,172.172.1.2:1883,1551647884637,RECEIVED
Subscriber_001,topicA,topicA-483,172.172.1.2:1883,1551647884737,RECEIVED
Subscriber_001,topicA,topicA-484,172.172.1.2:1883,1551647884837,RECEIVED
Subscriber_001,topicA,topicA-485,172.172.1.2:1883,1551647884948,RECEIVED
Subscriber_001,topicA,topicA-486,172.172.1.2:1883,1551647885038,RECEIVED
Subscriber_001,topicA,topicA-487,172.172.1.2:1883,1551647885135,RECEIVED
Subscriber_001,topicA,topicA-488,172.172.1.2:1883,1551647885237,RECEIVED
Subscriber_001,topicA,topicA-489,172.172.1.2:1883,1551647885341,RECEIVED
Subscriber_001,topicA,topicA-490,172.172.1.2:1883,1551647885445,RECEIVED
Subscriber_001,topicA,topicA-491,172.172.1.2:1883,1551647885542,RECEIVED
Subscriber_001,topicA,topicA-492,172.172.1.2:1883,1551647885640,RECEIVED
Subscriber_001,topicA,topicA-493,172.172.1.2:1883,1551647885743,RECEIVED
Subscriber_001,topicA,topicA-494,172.172.1.2:1883,1551647885836,RECEIVED
Subscriber_001,topicA,topicA-495,172.172.1.2:1883,1551647885948,RECEIVED
Subscriber_001,topicA,topicA-496,172.172.1.2:1883,1551647886049,RECEIVED
Subscriber_001,topicA,topicA-497,172.172.1.2:1883,1551647886145,RECEIVED
Subscriber_001,topicA,topicA-498,172.172.1.2:1883,1551647886240,RECEIVED
Subscriber_001,topicA,topicA-499,172.172.1.2:1883,1551647886349,RECEIVED
Subscriber_001,topicA,topicA-500,172.172.1.2:1883,1551647886448,RECEIVED
Subscriber_001,topicA,topicA-501,172.172.1.2:1883,1551647886541,RECEIVED
Subscriber_001,topicA,topicA-502,172.172.1.2:1883,1551647886650,RECEIVED
Subscriber_001,topicA,topicA-503,172.172.1.2:1883,1551647886746,RECEIVED
Subscriber_001,topicA,topicA-504,172.172.1.2:1883,1551647886844,RECEIVED
Subscriber_001,topicA,topicA-505,172.172.1.2:1883,1551647886940,RECEIVED
Subscriber_001,topicA,topicA-506,172.172.1.2:1883,1551647887035,RECEIVED
Subscriber_001,topicA,topicA-507,172.172.1.2:1883,1551647887134,RECEIVED
Subscriber_001,topicA,topicA-508,172.172.1.2:1883,1551647887237,RECEIVED
Subscriber_001,topicA,topicA-509,172.172.1.2:1883,1551647887344,RECEIVED
Subscriber_001,topicA,topicA-510,172.172.1.2:1883,1551647887448,RECEIVED
Subscriber_001,topicA,topicA-511,172.172.1.2:1883,1551647887550,RECEIVED
Subscriber_001,topicA,topicA-512,172.172.1.2:1883,1551647887630,RECEIVED
Subscriber_001,topicA,topicA-513,172.172.1.2:1883,1551647887742,RECEIVED
Subscriber_001,topicA,topicA-514,172.172.1.2:1883,1551647887848,RECEIVED
Subscriber_001,topicA,topicA-515,172.172.1.2:1883,1551647887939,RECEIVED
Subscriber_001,topicA,topicA-516,172.172.1.2:1883,1551647888042,RECEIVED
Subscriber_001,topicA,topicA-517,172.172.1.2:1883,1551647888137,RECEIVED
Subscriber_001,topicA,topicA-518,172.172.1.2:1883,1551647888241,RECEIVED
Subscriber_001,topicA,topicA-519,172.172.1.2:1883,1551647888343,RECEIVED
Subscriber_001,topicA,topicA-520,172.172.1.2:1883,1551647888444,RECEIVED
Subscriber_001,topicA,topicA-521,172.172.1.2:1883,1551647888550,RECEIVED
Subscriber_001,topicA,topicA-522,172.172.1.2:1883,1551647888651,RECEIVED
Subscriber_001,topicA,topicA-523,172.172.1.2:1883,1551647888741,RECEIVED
Subscriber_001,topicA,topicA-524,172.172.1.2:1883,1551647888847,RECEIVED
Subscriber_001,topicA,topicA-525,172.172.1.2:1883,1551647888945,RECEIVED
Subscriber_001,topicA,topicA-526,172.172.1.2:1883,1551647889048,RECEIVED
Subscriber_001,topicA,topicA-527,172.172.1.2:1883,1551647889142,RECEIVED
Subscriber_001,topicA,topicA-528,172.172.1.2:1883,1551647889242,RECEIVED
Subscriber_001,topicA,topicA-529,172.172.1.2:1883,1551647889346,RECEIVED
Subscriber_001,topicA,topicA-530,172.172.1.2:1883,1551647889440,RECEIVED
Subscriber_001,topicA,topicA-531,172.172.1.2:1883,1551647889549,RECEIVED
Subscriber_001,topicA,topicA-532,172.172.1.2:1883,1551647889637,RECEIVED
Subscriber_001,topicA,topicA-533,172.172.1.2:1883,1551647889749,RECEIVED
Subscriber_001,topicA,topicA-534,172.172.1.2:1883,1551647889842,RECEIVED
Subscriber_001,topicA,topicA-535,172.172.1.2:1883,1551647889942,RECEIVED
Subscriber_001,topicA,topicA-536,172.172.1.2:1883,1551647890046,RECEIVED
Subscriber_001,topicA,topicA-537,172.172.1.2:1883,1551647890142,RECEIVED
Subscriber_001,topicA,topicA-538,172.172.1.2:1883,1551647890236,RECEIVED
Subscriber_001,topicA,topicA-539,172.172.1.2:1883,1551647890341,RECEIVED
Subscriber_001,topicA,topicA-540,172.172.1.2:1883,1551647890441,RECEIVED
Subscriber_001,topicA,topicA-541,172.172.1.2:1883,1551647890547,RECEIVED
Subscriber_001,topicA,topicA-542,172.172.1.2:1883,1551647890639,RECEIVED
Subscriber_001,topicA,topicA-543,172.172.1.2:1883,1551647890738,RECEIVED
Subscriber_001,topicA,topicA-544,172.172.1.2:1883,1551647890843,RECEIVED
Subscriber_001,topicA,topicA-545,172.172.1.2:1883,1551647890944,RECEIVED
Subscriber_001,topicA,topicA-546,172.172.1.2:1883,1551647891039,RECEIVED
Subscriber_001,topicA,topicA-547,172.172.1.2:1883,1551647891143,RECEIVED
Subscriber_001,topicA,topicA-548,172.172.1.2:1883,1551647891244,RECEIVED
Subscriber_001,topicA,topicA-549,172.172.1.2:1883,1551647891337,RECEIVED
Subscriber_001,topicA,topicA-550,172.172.1.2:1883,1551647891429,RECEIVED
Subscriber_001,topicA,topicA-551,172.172.1.2:1883,1551647891538,RECEIVED
Subscriber_001,topicA,topicA-552,172.172.1.2:1883,1551647891637,RECEIVED
Subscriber_001,topicA,topicA-553,172.172.1.2:1883,1551647891743,RECEIVED
Subscriber_001,topicA,topicA-554,172.172.1.2:1883,1551647891846,RECEIVED
Subscriber_001,topicA,topicA-555,172.172.1.2:1883,1551647891944,RECEIVED
Subscriber_001,topicA,topicA-556,172.172.1.2:1883,1551647892040,RECEIVED
Subscriber_001,topicA,topicA-557,172.172.1.2:1883,1551647892145,RECEIVED
Subscriber_001,topicA,topicA-558,172.172.1.2:1883,1551647892242,RECEIVED
Subscriber_001,topicA,topicA-559,172.172.1.2:1883,1551647892347,RECEIVED
Subscriber_001,topicA,topicA-560,172.172.1.2:1883,1551647892439,RECEIVED
Subscriber_001,topicA,topicA-561,172.172.1.2:1883,1551647892545,RECEIVED
Subscriber_001,topicA,topicA-562,172.172.1.2:1883,1551647892648,RECEIVED
Subscriber_001,topicA,topicA-563,172.172.1.2:1883,1551647892756,RECEIVED
Subscriber_001,topicA,topicA-564,172.172.1.2:1883,1551647892838,RECEIVED
Subscriber_001,topicA,topicA-565,172.172.1.2:1883,1551647892952,RECEIVED
Subscriber_001,topicA,topicA-566,172.172.1.2:1883,1551647893047,RECEIVED
Subscriber_001,topicA,topicA-567,172.172.1.2:1883,1551647893140,RECEIVED
Subscriber_001,topicA,topicA-568,172.172.1.2:1883,1551647893242,RECEIVED
Subscriber_001,topicA,topicA-569,172.172.1.2:1883,1551647893351,RECEIVED
Subscriber_001,topicA,topicA-570,172.172.1.2:1883,1551647893440,RECEIVED
Subscriber_001,topicA,topicA-571,172.172.1.2:1883,1551647893531,RECEIVED
Subscriber_001,topicA,topicA-572,172.172.1.2:1883,1551647893639,RECEIVED
Subscriber_001,topicA,topicA-573,172.172.1.2:1883,1551647893742,RECEIVED
Subscriber_001,topicA,topicA-574,172.172.1.2:1883,1551647893839,RECEIVED
Subscriber_001,topicA,topicA-575,172.172.1.2:1883,1551647893937,RECEIVED
Subscriber_001,topicA,topicA-576,172.172.1.2:1883,1551647894038,RECEIVED
Subscriber_001,topicA,topicA-577,172.172.1.2:1883,1551647894144,RECEIVED
Subscriber_001,topicA,topicA-578,172.172.1.2:1883,1551647894249,RECEIVED
Subscriber_001,topicA,topicA-579,172.172.1.2:1883,1551647894345,RECEIVED
Subscriber_001,topicA,topicA-580,172.172.1.2:1883,1551647894448,RECEIVED
Subscriber_001,topicA,topicA-581,172.172.1.2:1883,1551647894544,RECEIVED
Subscriber_001,topicA,topicA-582,172.172.1.2:1883,1551647894648,RECEIVED
Subscriber_001,topicA,topicA-583,172.172.1.2:1883,1551647894739,RECEIVED
Subscriber_001,topicA,topicA-584,172.172.1.2:1883,1551647894837,RECEIVED
Subscriber_001,topicA,topicA-585,172.172.1.2:1883,1551647894951,RECEIVED
Subscriber_001,topicA,topicA-586,172.172.1.2:1883,1551647895037,RECEIVED
Subscriber_001,topicA,topicA-587,172.172.1.2:1883,1551647895145,RECEIVED
Subscriber_001,topicA,topicA-588,172.172.1.2:1883,1551647895248,RECEIVED
Subscriber_001,topicA,topicA-589,172.172.1.2:1883,1551647895342,RECEIVED
Subscriber_001,topicA,topicA-590,172.172.1.2:1883,1551647895441,RECEIVED
Subscriber_001,topicA,topicA-591,172.172.1.2:1883,1551647895539,RECEIVED
Subscriber_001,topicA,topicA-592,172.172.1.2:1883,1551647895640,RECEIVED
Subscriber_001,topicA,topicA-593,172.172.1.2:1883,1551647895738,RECEIVED
Subscriber_001,topicA,topicA-594,172.172.1.2:1883,1551647895838,RECEIVED
Subscriber_001,topicA,topicA-595,172.172.1.2:1883,1551647895946,RECEIVED
Subscriber_001,topicA,topicA-596,172.172.1.2:1883,1551647896055,RECEIVED
Subscriber_001,topicA,topicA-597,172.172.1.2:1883,1551647896140,RECEIVED
Subscriber_001,topicA,topicA-598,172.172.1.2:1883,1551647896238,RECEIVED
Subscriber_001,topicA,topicA-599,172.172.1.2:1883,1551647896337,RECEIVED
Subscriber_001,topicA,topicA-600,172.172.1.2:1883,1551647896437,RECEIVED
Subscriber_001,topicA,topicA-601,172.172.1.2:1883,1551647896543,RECEIVED
Subscriber_001,topicA,topicA-602,172.172.1.2:1883,1551647896638,RECEIVED
Subscriber_001,topicA,topicA-603,172.172.1.2:1883,1551647896741,RECEIVED
Subscriber_001,topicA,topicA-604,172.172.1.2:1883,1551647896840,RECEIVED
Subscriber_001,topicA,topicA-605,172.172.1.2:1883,1551647896935,RECEIVED
Subscriber_001,topicA,topicA-606,172.172.1.2:1883,1551647897041,RECEIVED
Subscriber_001,topicA,topicA-607,172.172.1.2:1883,1551647897140,RECEIVED
Subscriber_001,topicA,topicA-608,172.172.1.2:1883,1551647897242,RECEIVED
Subscriber_001,topicA,topicA-609,172.172.1.2:1883,1551647897338,RECEIVED
Subscriber_001,topicA,topicA-610,172.172.1.2:1883,1551647897444,RECEIVED
Subscriber_001,topicA,topicA-611,172.172.1.2:1883,1551647897539,RECEIVED
Subscriber_001,topicA,topicA-612,172.172.1.2:1883,1551647897640,RECEIVED
Subscriber_001,topicA,topicA-613,172.172.1.2:1883,1551647897731,RECEIVED
Subscriber_001,topicA,topicA-614,172.172.1.2:1883,1551647897835,RECEIVED
Subscriber_001,topicA,topicA-615,172.172.1.2:1883,1551647897936,RECEIVED
Subscriber_001,topicA,topicA-616,172.172.1.2:1883,1551647898040,RECEIVED
Subscriber_001,topicA,topicA-617,172.172.1.2:1883,1551647898139,RECEIVED
Subscriber_001,topicA,topicA-618,172.172.1.2:1883,1551647898243,RECEIVED
Subscriber_001,topicA,topicA-619,172.172.1.2:1883,1551647898337,RECEIVED
Subscriber_001,topicA,topicA-620,172.172.1.2:1883,1551647898434,RECEIVED
Subscriber_001,topicA,topicA-621,172.172.1.2:1883,1551647898540,RECEIVED
Subscriber_001,topicA,topicA-622,172.172.1.2:1883,1551647898635,RECEIVED
Subscriber_001,topicA,topicA-623,172.172.1.2:1883,1551647898742,RECEIVED
Subscriber_001,topicA,topicA-624,172.172.1.2:1883,1551647898851,RECEIVED
Subscriber_001,topicA,topicA-625,172.172.1.2:1883,1551647898942,RECEIVED
Subscriber_001,topicA,topicA-626,172.172.1.2:1883,1551647899040,RECEIVED
Subscriber_001,topicA,topicA-627,172.172.1.2:1883,1551647899144,RECEIVED
Subscriber_001,topicA,topicA-628,172.172.1.2:1883,1551647899236,RECEIVED
Subscriber_001,topicA,topicA-629,172.172.1.2:1883,1551647899338,RECEIVED
Subscriber_001,topicA,topicA-630,172.172.1.2:1883,1551647899437,RECEIVED
Subscriber_001,topicA,topicA-631,172.172.1.2:1883,1551647899535,RECEIVED
Subscriber_001,topicA,topicA-632,172.172.1.2:1883,1551647899632,RECEIVED
Subscriber_001,topicA,topicA-633,172.172.1.2:1883,1551647899742,RECEIVED
Subscriber_001,topicA,topicA-634,172.172.1.2:1883,1551647899840,RECEIVED
Subscriber_001,topicA,topicA-635,172.172.1.2:1883,1551647899948,RECEIVED
Subscriber_001,topicA,topicA-636,172.172.1.2:1883,1551647900045,RECEIVED
Subscriber_001,topicA,topicA-637,172.172.1.2:1883,1551647900136,RECEIVED
Subscriber_001,topicA,topicA-638,172.172.1.2:1883,1551647900234,RECEIVED
Subscriber_001,topicA,topicA-639,172.172.1.2:1883,1551647900334,RECEIVED
Subscriber_001,topicA,topicA-640,172.172.1.2:1883,1551647900438,RECEIVED
Subscriber_001,topicA,topicA-641,172.172.1.2:1883,1551647900539,RECEIVED
Subscriber_001,topicA,topicA-642,172.172.1.2:1883,1551647900637,RECEIVED
Subscriber_001,topicA,topicA-643,172.172.1.2:1883,1551647900743,RECEIVED
Subscriber_001,topicA,topicA-644,172.172.1.2:1883,1551647900833,RECEIVED
Subscriber_001,topicA,topicA-645,172.172.1.2:1883,1551647900936,RECEIVED
Subscriber_001,topicA,topicA-646,172.172.1.2:1883,1551647901031,RECEIVED
Subscriber_001,topicA,topicA-647,172.172.1.2:1883,1551647901136,RECEIVED
Subscriber_001,topicA,topicA-648,172.172.1.2:1883,1551647901233,RECEIVED
Subscriber_001,topicA,topicA-649,172.172.1.2:1883,1551647901346,RECEIVED
Subscriber_001,topicA,topicA-650,172.172.1.2:1883,1551647901440,RECEIVED
Subscriber_001,topicA,topicA-651,172.172.1.2:1883,1551647901548,RECEIVED
Subscriber_001,topicA,topicA-652,172.172.1.2:1883,1551647901636,RECEIVED
Subscriber_001,topicA,topicA-653,172.172.1.2:1883,1551647901738,RECEIVED
Subscriber_001,topicA,topicA-654,172.172.1.2:1883,1551647901837,RECEIVED
Subscriber_001,topicA,topicA-655,172.172.1.2:1883,1551647901935,RECEIVED
Subscriber_001,topicA,topicA-656,172.172.1.2:1883,1551647902035,RECEIVED
Subscriber_001,topicA,topicA-657,172.172.1.2:1883,1551647902143,RECEIVED
Subscriber_001,topicA,topicA-658,172.172.1.2:1883,1551647902235,RECEIVED
Subscriber_001,topicA,topicA-659,172.172.1.2:1883,1551647902332,RECEIVED
Subscriber_001,topicA,topicA-660,172.172.1.2:1883,1551647902429,RECEIVED
Subscriber_001,topicA,topicA-661,172.172.1.2:1883,1551647902534,RECEIVED
Subscriber_001,topicA,topicA-662,172.172.1.2:1883,1551647902629,RECEIVED
