timestamp,event,migrationId
1551648138672,INITIALIZED,e59ad77d-a906-49f2-b799-0dcfae811f8e
1551648138674,topicA-INITIALIZED,e59ad77d-a906-49f2-b799-0dcfae811f8e
1551648138889,topicA-SYNCING,e59ad77d-a906-49f2-b799-0dcfae811f8e
1551648138889,SYNCING,e59ad77d-a906-49f2-b799-0dcfae811f8e
1551648138897,topicA-SYNCING_THIS,e59ad77d-a906-49f2-b799-0dcfae811f8e
1551648138898,topicA-SYNCED,e59ad77d-a906-49f2-b799-0dcfae811f8e
1551648138909,SYNCED,e59ad77d-a906-49f2-b799-0dcfae811f8e
1551648138917,topicA-FINISHED,e59ad77d-a906-49f2-b799-0dcfae811f8e
1551648138918,FINISHED,e59ad77d-a906-49f2-b799-0dcfae811f8e
