clientId,topic,guid,broker,timestamp,type
Publisher_002,topicA,topicA-1,172.172.1.2:1883,1551658383641,PRODUCED
Publisher_002,topicA,topicA-2,172.172.1.2:1883,1551658383871,PRODUCED
Publisher_002,topicA,topicA-3,172.172.1.2:1883,1551658383876,PRODUCED
Publisher_002,topicA,topicA-4,172.172.1.2:1883,1551658383879,PRODUCED
Publisher_002,topicA,topicA-5,172.172.1.2:1883,1551658383884,PRODUCED
Publisher_002,topicA,topicA-6,172.172.1.2:1883,1551658383955,PRODUCED
Publisher_002,topicA,topicA-7,172.172.1.2:1883,1551658384054,PRODUCED
Publisher_002,topicA,topicA-8,172.172.1.2:1883,1551658384155,PRODUCED
Publisher_002,topicA,topicA-9,172.172.1.2:1883,1551658384255,PRODUCED
Publisher_002,topicA,topicA-10,172.172.1.2:1883,1551658384355,PRODUCED
Publisher_002,topicA,topicA-11,172.172.1.2:1883,1551658384455,PRODUCED
Publisher_002,topicA,topicA-12,172.172.1.2:1883,1551658384556,PRODUCED
Publisher_002,topicA,topicA-13,172.172.1.2:1883,1551658384656,PRODUCED
Publisher_002,topicA,topicA-14,172.172.1.2:1883,1551658384756,PRODUCED
Publisher_002,topicA,topicA-15,172.172.1.2:1883,1551658384855,PRODUCED
Publisher_002,topicA,topicA-16,172.172.1.2:1883,1551658384956,PRODUCED
Publisher_002,topicA,topicA-17,172.172.1.2:1883,1551658385055,PRODUCED
Publisher_002,topicA,topicA-18,172.172.1.2:1883,1551658385155,PRODUCED
Publisher_002,topicA,topicA-19,172.172.1.2:1883,1551658385258,PRODUCED
Publisher_002,topicA,topicA-20,172.172.1.2:1883,1551658385356,PRODUCED
Publisher_002,topicA,topicA-21,172.172.1.2:1883,1551658385456,PRODUCED
Publisher_002,topicA,topicA-22,172.172.1.2:1883,1551658385558,PRODUCED
Publisher_002,topicA,topicA-23,172.172.1.2:1883,1551658385655,PRODUCED
Publisher_002,topicA,topicA-24,172.172.1.2:1883,1551658385754,PRODUCED
Publisher_002,topicA,topicA-25,172.172.1.2:1883,1551658385855,PRODUCED
Publisher_002,topicA,topicA-26,172.172.1.2:1883,1551658385955,PRODUCED
Publisher_002,topicA,topicA-27,172.172.1.2:1883,1551658386054,PRODUCED
Publisher_002,topicA,topicA-28,172.172.1.2:1883,1551658386154,PRODUCED
Publisher_002,topicA,topicA-29,172.172.1.2:1883,1551658386257,PRODUCED
Publisher_002,topicA,topicA-30,172.172.1.2:1883,1551658386354,PRODUCED
Publisher_002,topicA,topicA-31,172.172.1.2:1883,1551658386455,PRODUCED
Publisher_002,topicA,topicA-32,172.172.1.2:1883,1551658386554,PRODUCED
Publisher_002,topicA,topicA-33,172.172.1.2:1883,1551658386655,PRODUCED
Publisher_002,topicA,topicA-34,172.172.1.2:1883,1551658386756,PRODUCED
Publisher_002,topicA,topicA-35,172.172.1.2:1883,1551658386854,PRODUCED
Publisher_002,topicA,topicA-36,172.172.1.2:1883,1551658386954,PRODUCED
Publisher_002,topicA,topicA-37,172.172.1.2:1883,1551658387055,PRODUCED
Publisher_002,topicA,topicA-38,172.172.1.2:1883,1551658387154,PRODUCED
Publisher_002,topicA,topicA-39,172.172.1.2:1883,1551658387254,PRODUCED
Publisher_002,topicA,topicA-40,172.172.1.2:1883,1551658387355,PRODUCED
Publisher_002,topicA,topicA-41,172.172.1.2:1883,1551658387455,PRODUCED
Publisher_002,topicA,topicA-42,172.172.1.2:1883,1551658387554,PRODUCED
Publisher_002,topicA,topicA-43,172.172.1.2:1883,1551658387655,PRODUCED
Publisher_002,topicA,topicA-44,172.172.1.2:1883,1551658387755,PRODUCED
Publisher_002,topicA,topicA-45,172.172.1.2:1883,1551658387854,PRODUCED
Publisher_002,topicA,topicA-46,172.172.1.2:1883,1551658387954,PRODUCED
Publisher_002,topicA,topicA-47,172.172.1.2:1883,1551658388054,PRODUCED
Publisher_002,topicA,topicA-48,172.172.1.2:1883,1551658388154,PRODUCED
Publisher_002,topicA,topicA-49,172.172.1.2:1883,1551658388255,PRODUCED
Publisher_002,topicA,topicA-50,172.172.1.2:1883,1551658388355,PRODUCED
Publisher_002,topicA,topicA-51,172.172.1.2:1883,1551658388457,PRODUCED
Publisher_002,topicA,topicA-52,172.172.1.2:1883,1551658388556,PRODUCED
Publisher_002,topicA,topicA-53,172.172.1.2:1883,1551658388655,PRODUCED
Publisher_002,topicA,topicA-54,172.172.1.2:1883,1551658388755,PRODUCED
Publisher_002,topicA,topicA-55,172.172.1.2:1883,1551658388855,PRODUCED
Publisher_002,topicA,topicA-56,172.172.1.2:1883,1551658388954,PRODUCED
Publisher_002,topicA,topicA-57,172.172.1.2:1883,1551658389056,PRODUCED
Publisher_002,topicA,topicA-58,172.172.1.2:1883,1551658389155,PRODUCED
Publisher_002,topicA,topicA-59,172.172.1.2:1883,1551658389255,PRODUCED
Publisher_002,topicA,topicA-60,172.172.1.2:1883,1551658389355,PRODUCED
Publisher_002,topicA,topicA-61,172.172.1.2:1883,1551658389455,PRODUCED
Publisher_002,topicA,topicA-62,172.172.1.2:1883,1551658389555,PRODUCED
Publisher_002,topicA,topicA-63,172.172.1.2:1883,1551658389658,PRODUCED
Publisher_002,topicA,topicA-64,172.172.1.2:1883,1551658389754,PRODUCED
Publisher_002,topicA,topicA-65,172.172.1.2:1883,1551658389854,PRODUCED
Publisher_002,topicA,topicA-66,172.172.1.2:1883,1551658389955,PRODUCED
Publisher_002,topicA,topicA-67,172.172.1.2:1883,1551658390055,PRODUCED
Publisher_002,topicA,topicA-68,172.172.1.2:1883,1551658390154,PRODUCED
Publisher_002,topicA,topicA-69,172.172.1.2:1883,1551658390255,PRODUCED
Publisher_002,topicA,topicA-70,172.172.1.2:1883,1551658390354,PRODUCED
Publisher_002,topicA,topicA-71,172.172.1.2:1883,1551658390455,PRODUCED
Publisher_002,topicA,topicA-72,172.172.1.2:1883,1551658390555,PRODUCED
Publisher_002,topicA,topicA-73,172.172.1.2:1883,1551658390655,PRODUCED
Publisher_002,topicA,topicA-74,172.172.1.2:1883,1551658390757,PRODUCED
Publisher_002,topicA,topicA-75,172.172.1.2:1883,1551658390856,PRODUCED
Publisher_002,topicA,topicA-76,172.172.1.2:1883,1551658390957,PRODUCED
Publisher_002,topicA,topicA-77,172.172.1.2:1883,1551658391055,PRODUCED
Publisher_002,topicA,topicA-78,172.172.1.2:1883,1551658391154,PRODUCED
Publisher_002,topicA,topicA-79,172.172.1.2:1883,1551658391255,PRODUCED
Publisher_002,topicA,topicA-80,172.172.1.2:1883,1551658391354,PRODUCED
Publisher_002,topicA,topicA-81,172.172.1.2:1883,1551658391455,PRODUCED
Publisher_002,topicA,topicA-82,172.172.1.2:1883,1551658391555,PRODUCED
Publisher_002,topicA,topicA-83,172.172.1.2:1883,1551658391655,PRODUCED
Publisher_002,topicA,topicA-84,172.172.1.2:1883,1551658391755,PRODUCED
Publisher_002,topicA,topicA-85,172.172.1.2:1883,1551658391854,PRODUCED
Publisher_002,topicA,topicA-86,172.172.1.2:1883,1551658391956,PRODUCED
Publisher_002,topicA,topicA-87,172.172.1.2:1883,1551658392055,PRODUCED
Publisher_002,topicA,topicA-88,172.172.1.2:1883,1551658392155,PRODUCED
Publisher_002,topicA,topicA-89,172.172.1.2:1883,1551658392255,PRODUCED
Publisher_002,topicA,topicA-90,172.172.1.2:1883,1551658392355,PRODUCED
Publisher_002,topicA,topicA-91,172.172.1.2:1883,1551658392455,PRODUCED
Publisher_002,topicA,topicA-92,172.172.1.2:1883,1551658392555,PRODUCED
Publisher_002,topicA,topicA-93,172.172.1.2:1883,1551658392655,PRODUCED
Publisher_002,topicA,topicA-94,172.172.1.2:1883,1551658392760,PRODUCED
Publisher_002,topicA,topicA-95,172.172.1.2:1883,1551658392854,PRODUCED
Publisher_002,topicA,topicA-96,172.172.1.2:1883,1551658392955,PRODUCED
Publisher_002,topicA,topicA-97,172.172.1.2:1883,1551658393055,PRODUCED
Publisher_002,topicA,topicA-98,172.172.1.2:1883,1551658393155,PRODUCED
Publisher_002,topicA,topicA-99,172.172.1.2:1883,1551658393254,PRODUCED
Publisher_002,topicA,topicA-100,172.172.1.2:1883,1551658393355,PRODUCED
Publisher_002,topicA,topicA-101,172.172.1.2:1883,1551658393455,PRODUCED
Publisher_002,topicA,topicA-102,172.172.1.2:1883,1551658393559,PRODUCED
Publisher_002,topicA,topicA-103,172.172.1.2:1883,1551658393654,PRODUCED
Publisher_002,topicA,topicA-104,172.172.1.2:1883,1551658393755,PRODUCED
Publisher_002,topicA,topicA-105,172.172.1.2:1883,1551658393855,PRODUCED
Publisher_002,topicA,topicA-106,172.172.1.2:1883,1551658393955,PRODUCED
Publisher_002,topicA,topicA-107,172.172.1.2:1883,1551658394055,PRODUCED
Publisher_002,topicA,topicA-108,172.172.1.2:1883,1551658394155,PRODUCED
Publisher_002,topicA,topicA-109,172.172.1.2:1883,1551658394255,PRODUCED
Publisher_002,topicA,topicA-110,172.172.1.2:1883,1551658394355,PRODUCED
Publisher_002,topicA,topicA-111,172.172.1.2:1883,1551658394455,PRODUCED
Publisher_002,topicA,topicA-112,172.172.1.2:1883,1551658394555,PRODUCED
Publisher_002,topicA,topicA-113,172.172.1.2:1883,1551658394655,PRODUCED
Publisher_002,topicA,topicA-114,172.172.1.2:1883,1551658394755,PRODUCED
Publisher_002,topicA,topicA-115,172.172.1.2:1883,1551658394855,PRODUCED
Publisher_002,topicA,topicA-116,172.172.1.2:1883,1551658394954,PRODUCED
Publisher_002,topicA,topicA-117,172.172.1.2:1883,1551658395055,PRODUCED
Publisher_002,topicA,topicA-118,172.172.1.2:1883,1551658395155,PRODUCED
Publisher_002,topicA,topicA-119,172.172.1.2:1883,1551658395255,PRODUCED
Publisher_002,topicA,topicA-120,172.172.1.2:1883,1551658395354,PRODUCED
Publisher_002,topicA,topicA-121,172.172.1.2:1883,1551658395454,PRODUCED
Publisher_002,topicA,topicA-122,172.172.1.2:1883,1551658395555,PRODUCED
Publisher_002,topicA,topicA-123,172.172.1.2:1883,1551658395654,PRODUCED
Publisher_002,topicA,topicA-124,172.172.1.2:1883,1551658395755,PRODUCED
Publisher_002,topicA,topicA-125,172.172.1.2:1883,1551658395858,PRODUCED
Publisher_002,topicA,topicA-126,172.172.1.2:1883,1551658395955,PRODUCED
Publisher_002,topicA,topicA-127,172.172.1.2:1883,1551658396055,PRODUCED
Publisher_002,topicA,topicA-128,172.172.1.2:1883,1551658396155,PRODUCED
Publisher_002,topicA,topicA-129,172.172.1.2:1883,1551658396255,PRODUCED
Publisher_002,topicA,topicA-130,172.172.1.2:1883,1551658396354,PRODUCED
Publisher_002,topicA,topicA-131,172.172.1.2:1883,1551658396455,PRODUCED
Publisher_002,topicA,topicA-132,172.172.1.2:1883,1551658396555,PRODUCED
Publisher_002,topicA,topicA-133,172.172.1.2:1883,1551658396654,PRODUCED
Publisher_002,topicA,topicA-134,172.172.1.2:1883,1551658396755,PRODUCED
Publisher_002,topicA,topicA-135,172.172.1.2:1883,1551658396855,PRODUCED
Publisher_002,topicA,topicA-136,172.172.1.2:1883,1551658396955,PRODUCED
Publisher_002,topicA,topicA-137,172.172.1.2:1883,1551658397056,PRODUCED
Publisher_002,topicA,topicA-138,172.172.1.2:1883,1551658397155,PRODUCED
Publisher_002,topicA,topicA-139,172.172.1.2:1883,1551658397255,PRODUCED
Publisher_002,topicA,topicA-140,172.172.1.2:1883,1551658397355,PRODUCED
Publisher_002,topicA,topicA-141,172.172.1.2:1883,1551658397454,PRODUCED
Publisher_002,topicA,topicA-142,172.172.1.2:1883,1551658397555,PRODUCED
Publisher_002,topicA,topicA-143,172.172.1.2:1883,1551658397655,PRODUCED
Publisher_002,topicA,topicA-144,172.172.1.2:1883,1551658397755,PRODUCED
Publisher_002,topicA,topicA-145,172.172.1.2:1883,1551658397856,PRODUCED
Publisher_002,topicA,topicA-146,172.172.1.2:1883,1551658397954,PRODUCED
Publisher_002,topicA,topicA-147,172.172.1.2:1883,1551658398055,PRODUCED
Publisher_002,topicA,topicA-148,172.172.1.2:1883,1551658398155,PRODUCED
Publisher_002,topicA,topicA-149,172.172.1.2:1883,1551658398255,PRODUCED
Publisher_002,topicA,topicA-150,172.172.1.2:1883,1551658398355,PRODUCED
Publisher_002,topicA,topicA-151,172.172.1.2:1883,1551658398455,PRODUCED
Publisher_002,topicA,topicA-152,172.172.1.2:1883,1551658398555,PRODUCED
Publisher_002,topicA,topicA-153,172.172.1.2:1883,1551658398655,PRODUCED
Publisher_002,topicA,topicA-154,172.172.1.2:1883,1551658398756,PRODUCED
Publisher_002,topicA,topicA-155,172.172.1.2:1883,1551658398856,PRODUCED
Publisher_002,topicA,topicA-156,172.172.1.2:1883,1551658398955,PRODUCED
Publisher_002,topicA,topicA-157,172.172.1.2:1883,1551658399056,PRODUCED
Publisher_002,topicA,topicA-158,172.172.1.2:1883,1551658399154,PRODUCED
Publisher_002,topicA,topicA-159,172.172.1.2:1883,1551658399254,PRODUCED
Publisher_002,topicA,topicA-160,172.172.1.2:1883,1551658399355,PRODUCED
Publisher_002,topicA,topicA-161,172.172.1.2:1883,1551658399455,PRODUCED
Publisher_002,topicA,topicA-162,172.172.1.2:1883,1551658399554,PRODUCED
Publisher_002,topicA,topicA-163,172.172.1.2:1883,1551658399654,PRODUCED
Publisher_002,topicA,topicA-164,172.172.1.2:1883,1551658399755,PRODUCED
Publisher_002,topicA,topicA-165,172.172.1.2:1883,1551658399854,PRODUCED
Publisher_002,topicA,topicA-166,172.172.1.2:1883,1551658399955,PRODUCED
Publisher_002,topicA,topicA-167,172.172.1.2:1883,1551658400055,PRODUCED
Publisher_002,topicA,topicA-168,172.172.1.2:1883,1551658400155,PRODUCED
Publisher_002,topicA,topicA-169,172.172.1.2:1883,1551658400254,PRODUCED
Publisher_002,topicA,topicA-170,172.172.1.2:1883,1551658400355,PRODUCED
Publisher_002,topicA,topicA-171,172.172.1.2:1883,1551658400455,PRODUCED
Publisher_002,topicA,topicA-172,172.172.1.2:1883,1551658400554,PRODUCED
Publisher_002,topicA,topicA-173,172.172.1.2:1883,1551658400654,PRODUCED
Publisher_002,topicA,topicA-174,172.172.1.2:1883,1551658400755,PRODUCED
Publisher_002,topicA,topicA-175,172.172.1.2:1883,1551658400854,PRODUCED
Publisher_002,topicA,topicA-176,172.172.1.2:1883,1551658400954,PRODUCED
Publisher_002,topicA,topicA-177,172.172.1.2:1883,1551658401054,PRODUCED
Publisher_002,topicA,topicA-178,172.172.1.2:1883,1551658401155,PRODUCED
Publisher_002,topicA,topicA-179,172.172.1.2:1883,1551658401255,PRODUCED
Publisher_002,topicA,topicA-180,172.172.1.2:1883,1551658401354,PRODUCED
Publisher_002,topicA,topicA-181,172.172.1.2:1883,1551658401455,PRODUCED
Publisher_002,topicA,topicA-182,172.172.1.2:1883,1551658401555,PRODUCED
Publisher_002,topicA,topicA-183,172.172.1.2:1883,1551658401655,PRODUCED
Publisher_002,topicA,topicA-184,172.172.1.2:1883,1551658401754,PRODUCED
Publisher_002,topicA,topicA-185,172.172.1.2:1883,1551658401854,PRODUCED
Publisher_002,topicA,topicA-186,172.172.1.2:1883,1551658401955,PRODUCED
Publisher_002,topicA,topicA-187,172.172.1.2:1883,1551658402055,PRODUCED
Publisher_002,topicA,topicA-188,172.172.1.2:1883,1551658402155,PRODUCED
Publisher_002,topicA,topicA-189,172.172.1.2:1883,1551658402254,PRODUCED
Publisher_002,topicA,topicA-190,172.172.1.2:1883,1551658402354,PRODUCED
Publisher_002,topicA,topicA-191,172.172.1.2:1883,1551658402455,PRODUCED
Publisher_002,topicA,topicA-192,172.172.1.2:1883,1551658402554,PRODUCED
Publisher_002,topicA,topicA-193,172.172.1.2:1883,1551658402655,PRODUCED
Publisher_002,topicA,topicA-194,172.172.1.2:1883,1551658402757,PRODUCED
Publisher_002,topicA,topicA-195,172.172.1.2:1883,1551658402855,PRODUCED
Publisher_002,topicA,topicA-196,172.172.1.2:1883,1551658402954,PRODUCED
Publisher_002,topicA,topicA-197,172.172.1.2:1883,1551658403054,PRODUCED
Publisher_002,topicA,topicA-198,172.172.1.2:1883,1551658403154,PRODUCED
Publisher_002,topicA,topicA-199,172.172.1.2:1883,1551658403254,PRODUCED
Publisher_002,topicA,topicA-200,172.172.1.2:1883,1551658403354,PRODUCED
Publisher_002,topicA,topicA-201,172.172.1.2:1883,1551658403455,PRODUCED
Publisher_002,topicA,topicA-202,172.172.1.2:1883,1551658403555,PRODUCED
Publisher_002,topicA,topicA-203,172.172.1.2:1883,1551658403654,PRODUCED
Publisher_002,topicA,topicA-204,172.172.1.2:1883,1551658403755,PRODUCED
Publisher_002,topicA,topicA-205,172.172.1.2:1883,1551658403854,PRODUCED
Publisher_002,topicA,topicA-206,172.172.1.2:1883,1551658403955,PRODUCED
Publisher_002,topicA,topicA-207,172.172.1.2:1883,1551658404055,PRODUCED
Publisher_002,topicA,topicA-208,172.172.1.2:1883,1551658404154,PRODUCED
Publisher_002,topicA,topicA-209,172.172.1.2:1883,1551658404254,PRODUCED
Publisher_002,topicA,topicA-210,172.172.1.2:1883,1551658404355,PRODUCED
Publisher_002,topicA,topicA-211,172.172.1.2:1883,1551658404454,PRODUCED
Publisher_002,topicA,topicA-212,172.172.1.2:1883,1551658404554,PRODUCED
Publisher_002,topicA,topicA-213,172.172.1.2:1883,1551658404654,PRODUCED
Publisher_002,topicA,topicA-214,172.172.1.2:1883,1551658404755,PRODUCED
Publisher_002,topicA,topicA-215,172.172.1.2:1883,1551658404855,PRODUCED
Publisher_002,topicA,topicA-216,172.172.1.2:1883,1551658404955,PRODUCED
Publisher_002,topicA,topicA-217,172.172.1.2:1883,1551658405055,PRODUCED
Publisher_002,topicA,topicA-218,172.172.1.2:1883,1551658405155,PRODUCED
Publisher_002,topicA,topicA-219,172.172.1.2:1883,1551658405255,PRODUCED
Publisher_002,topicA,topicA-220,172.172.1.2:1883,1551658405355,PRODUCED
Publisher_002,topicA,topicA-221,172.172.1.2:1883,1551658405455,PRODUCED
Publisher_002,topicA,topicA-222,172.172.1.2:1883,1551658405555,PRODUCED
Publisher_002,topicA,topicA-223,172.172.1.2:1883,1551658405655,PRODUCED
Publisher_002,topicA,topicA-224,172.172.1.2:1883,1551658405755,PRODUCED
Publisher_002,topicA,topicA-225,172.172.1.2:1883,1551658405855,PRODUCED
Publisher_002,topicA,topicA-226,172.172.1.2:1883,1551658405957,PRODUCED
Publisher_002,topicA,topicA-227,172.172.1.2:1883,1551658406054,PRODUCED
Publisher_002,topicA,topicA-228,172.172.1.2:1883,1551658406155,PRODUCED
Publisher_002,topicA,topicA-229,172.172.1.2:1883,1551658406266,PRODUCED
Publisher_002,topicA,topicA-230,172.172.1.2:1883,1551658406354,PRODUCED
Publisher_002,topicA,topicA-231,172.172.1.2:1883,1551658406454,PRODUCED
Publisher_002,topicA,topicA-232,172.172.1.2:1883,1551658406555,PRODUCED
Publisher_002,topicA,topicA-233,172.172.1.2:1883,1551658406655,PRODUCED
Publisher_002,topicA,topicA-234,172.172.1.2:1883,1551658406754,PRODUCED
Publisher_002,topicA,topicA-235,172.172.1.2:1883,1551658406856,PRODUCED
Publisher_002,topicA,topicA-236,172.172.1.2:1883,1551658406954,PRODUCED
Publisher_002,topicA,topicA-237,172.172.1.2:1883,1551658407054,PRODUCED
Publisher_002,topicA,topicA-238,172.172.1.2:1883,1551658407155,PRODUCED
Publisher_002,topicA,topicA-239,172.172.1.2:1883,1551658407255,PRODUCED
Publisher_002,topicA,topicA-240,172.172.1.2:1883,1551658407354,PRODUCED
Publisher_002,topicA,topicA-241,172.172.1.2:1883,1551658407455,PRODUCED
Publisher_002,topicA,topicA-242,172.172.1.2:1883,1551658407558,PRODUCED
Publisher_002,topicA,topicA-243,172.172.1.2:1883,1551658407654,PRODUCED
Publisher_002,topicA,topicA-244,172.172.1.2:1883,1551658407755,PRODUCED
Publisher_002,topicA,topicA-245,172.172.1.2:1883,1551658407855,PRODUCED
Publisher_002,topicA,topicA-246,172.172.1.2:1883,1551658407955,PRODUCED
Publisher_002,topicA,topicA-247,172.172.1.2:1883,1551658408054,PRODUCED
Publisher_002,topicA,topicA-248,172.172.1.2:1883,1551658408154,PRODUCED
Publisher_002,topicA,topicA-249,172.172.1.2:1883,1551658408255,PRODUCED
Publisher_002,topicA,topicA-250,172.172.1.2:1883,1551658408355,PRODUCED
Publisher_002,topicA,topicA-251,172.172.1.2:1883,1551658408455,PRODUCED
Publisher_002,topicA,topicA-252,172.172.1.2:1883,1551658408554,PRODUCED
Publisher_002,topicA,topicA-253,172.172.1.2:1883,1551658408655,PRODUCED
Publisher_002,topicA,topicA-254,172.172.1.2:1883,1551658408755,PRODUCED
Publisher_002,topicA,topicA-255,172.172.1.2:1883,1551658408855,PRODUCED
Publisher_002,topicA,topicA-256,172.172.1.2:1883,1551658408956,PRODUCED
Publisher_002,topicA,topicA-257,172.172.1.2:1883,1551658409055,PRODUCED
Publisher_002,topicA,topicA-258,172.172.1.2:1883,1551658409154,PRODUCED
Publisher_002,topicA,topicA-259,172.172.1.2:1883,1551658409255,PRODUCED
Publisher_002,topicA,topicA-260,172.172.1.2:1883,1551658409355,PRODUCED
Publisher_002,topicA,topicA-261,172.172.1.2:1883,1551658409455,PRODUCED
Publisher_002,topicA,topicA-262,172.172.1.2:1883,1551658409555,PRODUCED
Publisher_002,topicA,topicA-263,172.172.1.2:1883,1551658409655,PRODUCED
Publisher_002,topicA,topicA-264,172.172.1.2:1883,1551658409755,PRODUCED
Publisher_002,topicA,topicA-265,172.172.1.2:1883,1551658409855,PRODUCED
Publisher_002,topicA,topicA-266,172.172.1.2:1883,1551658409954,PRODUCED
Publisher_002,topicA,topicA-267,172.172.1.2:1883,1551658410055,PRODUCED
Publisher_002,topicA,topicA-268,172.172.1.2:1883,1551658410155,PRODUCED
Publisher_002,topicA,topicA-269,172.172.1.2:1883,1551658410254,PRODUCED
Publisher_002,topicA,topicA-270,172.172.1.2:1883,1551658410355,PRODUCED
Publisher_002,topicA,topicA-271,172.172.1.2:1883,1551658410455,PRODUCED
Publisher_002,topicA,topicA-272,172.172.1.2:1883,1551658410555,PRODUCED
Publisher_002,topicA,topicA-273,172.172.1.2:1883,1551658410655,PRODUCED
Publisher_002,topicA,topicA-274,172.172.1.2:1883,1551658410758,PRODUCED
Publisher_002,topicA,topicA-275,172.172.1.2:1883,1551658410855,PRODUCED
Publisher_002,topicA,topicA-276,172.172.1.2:1883,1551658410954,PRODUCED
Publisher_002,topicA,topicA-277,172.172.1.2:1883,1551658411055,PRODUCED
Publisher_002,topicA,topicA-278,172.172.1.2:1883,1551658411155,PRODUCED
Publisher_002,topicA,topicA-279,172.172.1.2:1883,1551658411255,PRODUCED
Publisher_002,topicA,topicA-280,172.172.1.2:1883,1551658411355,PRODUCED
Publisher_002,topicA,topicA-281,172.172.1.2:1883,1551658411456,PRODUCED
Publisher_002,topicA,topicA-282,172.172.1.2:1883,1551658411555,PRODUCED
Publisher_002,topicA,topicA-283,172.172.1.2:1883,1551658411655,PRODUCED
Publisher_002,topicA,topicA-284,172.172.1.2:1883,1551658411755,PRODUCED
Publisher_002,topicA,topicA-285,172.172.1.2:1883,1551658411855,PRODUCED
Publisher_002,topicA,topicA-286,172.172.1.2:1883,1551658411955,PRODUCED
Publisher_002,topicA,topicA-287,172.172.1.2:1883,1551658412055,PRODUCED
Publisher_002,topicA,topicA-288,172.172.1.2:1883,1551658412154,PRODUCED
Publisher_002,topicA,topicA-289,172.172.1.2:1883,1551658412255,PRODUCED
Publisher_002,topicA,topicA-290,172.172.1.2:1883,1551658412355,PRODUCED
Publisher_002,topicA,topicA-291,172.172.1.2:1883,1551658412455,PRODUCED
Publisher_002,topicA,topicA-292,172.172.1.2:1883,1551658412555,PRODUCED
Publisher_002,topicA,topicA-293,172.172.1.2:1883,1551658412655,PRODUCED
Publisher_002,topicA,topicA-294,172.172.1.2:1883,1551658412755,PRODUCED
Publisher_002,topicA,topicA-295,172.172.1.2:1883,1551658412854,PRODUCED
Publisher_002,topicA,topicA-296,172.172.1.2:1883,1551658412955,PRODUCED
Publisher_002,topicA,topicA-297,172.172.1.2:1883,1551658413054,PRODUCED
Publisher_002,topicA,topicA-298,172.172.1.2:1883,1551658413162,PRODUCED
Publisher_002,topicA,topicA-299,172.172.1.2:1883,1551658413255,PRODUCED
Publisher_002,topicA,topicA-300,172.172.1.2:1883,1551658413355,PRODUCED
Publisher_002,topicA,topicA-301,172.172.1.2:1883,1551658413456,PRODUCED
Publisher_002,topicA,topicA-302,172.172.1.2:1883,1551658413555,PRODUCED
Publisher_002,topicA,topicA-303,172.172.1.2:1883,1551658413655,PRODUCED
Publisher_002,topicA,topicA-304,172.172.1.2:1883,1551658413756,PRODUCED
Publisher_002,topicA,topicA-305,172.172.1.2:1883,1551658413855,PRODUCED
Publisher_002,topicA,topicA-306,172.172.1.2:1883,1551658413955,PRODUCED
Publisher_002,topicA,topicA-307,172.172.1.2:1883,1551658414055,PRODUCED
Publisher_002,topicA,topicA-308,172.172.1.2:1883,1551658414156,PRODUCED
Publisher_002,topicA,topicA-309,172.172.1.2:1883,1551658414255,PRODUCED
Publisher_002,topicA,topicA-310,172.172.1.2:1883,1551658414355,PRODUCED
Publisher_002,topicA,topicA-311,172.172.1.2:1883,1551658414454,PRODUCED
Publisher_002,topicA,topicA-312,172.172.1.2:1883,1551658414555,PRODUCED
Publisher_002,topicA,topicA-313,172.172.1.2:1883,1551658414655,PRODUCED
Publisher_002,topicA,topicA-314,172.172.1.2:1883,1551658414757,PRODUCED
Publisher_002,topicA,topicA-315,172.172.1.2:1883,1551658414855,PRODUCED
Publisher_002,topicA,topicA-316,172.172.1.2:1883,1551658414955,PRODUCED
Publisher_002,topicA,topicA-317,172.172.1.2:1883,1551658415055,PRODUCED
Publisher_002,topicA,topicA-318,172.172.1.2:1883,1551658415155,PRODUCED
Publisher_002,topicA,topicA-319,172.172.1.2:1883,1551658415255,PRODUCED
Publisher_002,topicA,topicA-320,172.172.1.2:1883,1551658415355,PRODUCED
Publisher_002,topicA,topicA-321,172.172.1.2:1883,1551658415454,PRODUCED
Publisher_002,topicA,topicA-322,172.172.1.2:1883,1551658415555,PRODUCED
Publisher_002,topicA,topicA-323,172.172.1.2:1883,1551658415654,PRODUCED
Publisher_002,topicA,topicA-324,172.172.1.2:1883,1551658415755,PRODUCED
Publisher_002,topicA,topicA-325,172.172.1.2:1883,1551658415856,PRODUCED
Publisher_002,topicA,topicA-326,172.172.1.2:1883,1551658415955,PRODUCED
Publisher_002,topicA,topicA-327,172.172.1.2:1883,1551658416055,PRODUCED
Publisher_002,topicA,topicA-328,172.172.1.2:1883,1551658416155,PRODUCED
Publisher_002,topicA,topicA-329,172.172.1.2:1883,1551658416255,PRODUCED
Publisher_002,topicA,topicA-330,172.172.1.2:1883,1551658416360,PRODUCED
Publisher_002,topicA,topicA-331,172.172.1.2:1883,1551658416455,PRODUCED
Publisher_002,topicA,topicA-332,172.172.1.2:1883,1551658416554,PRODUCED
Publisher_002,topicA,topicA-333,172.172.1.2:1883,1551658416655,PRODUCED
Publisher_002,topicA,topicA-334,172.172.1.2:1883,1551658416755,PRODUCED
Publisher_002,topicA,topicA-335,172.172.1.2:1883,1551658416854,PRODUCED
Publisher_002,topicA,topicA-336,172.172.1.2:1883,1551658416955,PRODUCED
Publisher_002,topicA,topicA-337,172.172.1.2:1883,1551658417055,PRODUCED
Publisher_002,topicA,topicA-338,172.172.1.2:1883,1551658417155,PRODUCED
Publisher_002,topicA,topicA-339,172.172.1.2:1883,1551658417255,PRODUCED
Publisher_002,topicA,topicA-340,172.172.1.2:1883,1551658417355,PRODUCED
Publisher_002,topicA,topicA-341,172.172.1.2:1883,1551658417455,PRODUCED
Publisher_002,topicA,topicA-342,172.172.1.2:1883,1551658417554,PRODUCED
Publisher_002,topicA,topicA-343,172.172.1.2:1883,1551658417654,PRODUCED
Publisher_002,topicA,topicA-344,172.172.1.2:1883,1551658417755,PRODUCED
Publisher_002,topicA,topicA-345,172.172.1.2:1883,1551658417854,PRODUCED
Publisher_002,topicA,topicA-346,172.172.1.2:1883,1551658417955,PRODUCED
Publisher_002,topicA,topicA-347,172.172.1.2:1883,1551658418055,PRODUCED
Publisher_002,topicA,topicA-348,172.172.1.2:1883,1551658418154,PRODUCED
Publisher_002,topicA,topicA-349,172.172.1.2:1883,1551658418255,PRODUCED
Publisher_002,topicA,topicA-350,172.172.1.2:1883,1551658418355,PRODUCED
Publisher_002,topicA,topicA-351,172.172.1.2:1883,1551658418454,PRODUCED
Publisher_002,topicA,topicA-352,172.172.1.2:1883,1551658418555,PRODUCED
Publisher_002,topicA,topicA-353,172.172.1.2:1883,1551658418655,PRODUCED
Publisher_002,topicA,topicA-354,172.172.1.2:1883,1551658418756,PRODUCED
Publisher_002,topicA,topicA-355,172.172.1.2:1883,1551658418855,PRODUCED
Publisher_002,topicA,topicA-356,172.172.1.2:1883,1551658418956,PRODUCED
Publisher_002,topicA,topicA-357,172.172.1.2:1883,1551658419054,PRODUCED
Publisher_002,topicA,topicA-358,172.172.1.2:1883,1551658419154,PRODUCED
Publisher_002,topicA,topicA-359,172.172.1.2:1883,1551658419256,PRODUCED
Publisher_002,topicA,topicA-360,172.172.1.2:1883,1551658419358,PRODUCED
Publisher_002,topicA,topicA-361,172.172.1.2:1883,1551658419455,PRODUCED
Publisher_002,topicA,topicA-362,172.172.1.2:1883,1551658419556,PRODUCED
Publisher_002,topicA,topicA-363,172.172.1.2:1883,1551658419657,PRODUCED
Publisher_002,topicA,topicA-364,172.172.1.2:1883,1551658419754,PRODUCED
Publisher_002,topicA,topicA-365,172.172.1.2:1883,1551658419855,PRODUCED
Publisher_002,topicA,topicA-366,172.172.1.2:1883,1551658419955,PRODUCED
Publisher_002,topicA,topicA-367,172.172.1.2:1883,1551658420056,PRODUCED
Publisher_002,topicA,topicA-368,172.172.1.2:1883,1551658420156,PRODUCED
Publisher_002,topicA,topicA-369,172.172.1.2:1883,1551658420260,PRODUCED
Publisher_002,topicA,topicA-370,172.172.1.2:1883,1551658420355,PRODUCED
Publisher_002,topicA,topicA-371,172.172.1.2:1883,1551658420455,PRODUCED
Publisher_002,topicA,topicA-372,172.172.1.2:1883,1551658420556,PRODUCED
Publisher_002,topicA,topicA-373,172.172.1.2:1883,1551658420655,PRODUCED
Publisher_002,topicA,topicA-374,172.172.1.2:1883,1551658420756,PRODUCED
Publisher_002,topicA,topicA-375,172.172.1.2:1883,1551658420855,PRODUCED
Publisher_002,topicA,topicA-376,172.172.1.2:1883,1551658420955,PRODUCED
Publisher_002,topicA,topicA-377,172.172.1.2:1883,1551658421055,PRODUCED
Publisher_002,topicA,topicA-378,172.172.1.2:1883,1551658421155,PRODUCED
Publisher_002,topicA,topicA-379,172.172.1.2:1883,1551658421256,PRODUCED
Publisher_002,topicA,topicA-380,172.172.1.2:1883,1551658421355,PRODUCED
Publisher_002,topicA,topicA-381,172.172.1.2:1883,1551658421455,PRODUCED
Publisher_002,topicA,topicA-382,172.172.1.2:1883,1551658421556,PRODUCED
Publisher_002,topicA,topicA-383,172.172.1.2:1883,1551658421655,PRODUCED
Publisher_002,topicA,topicA-384,172.172.1.2:1883,1551658421755,PRODUCED
Publisher_002,topicA,topicA-385,172.172.1.2:1883,1551658421855,PRODUCED
Publisher_002,topicA,topicA-386,172.172.1.2:1883,1551658421954,PRODUCED
Publisher_002,topicA,topicA-387,172.172.1.2:1883,1551658422055,PRODUCED
Publisher_002,topicA,topicA-388,172.172.1.2:1883,1551658422156,PRODUCED
Publisher_002,topicA,topicA-389,172.172.1.2:1883,1551658422260,PRODUCED
Publisher_002,topicA,topicA-390,172.172.1.2:1883,1551658422356,PRODUCED
Publisher_002,topicA,topicA-391,172.172.1.2:1883,1551658422455,PRODUCED
Publisher_002,topicA,topicA-392,172.172.1.2:1883,1551658422555,PRODUCED
Publisher_002,topicA,topicA-393,172.172.1.2:1883,1551658422655,PRODUCED
Publisher_002,topicA,topicA-394,172.172.1.2:1883,1551658422755,PRODUCED
Publisher_002,topicA,topicA-395,172.172.1.2:1883,1551658422855,PRODUCED
Publisher_002,topicA,topicA-396,172.172.1.2:1883,1551658422955,PRODUCED
Publisher_002,topicA,topicA-397,172.172.1.2:1883,1551658423055,PRODUCED
Publisher_002,topicA,topicA-398,172.172.1.2:1883,1551658423155,PRODUCED
Publisher_002,topicA,topicA-399,172.172.1.2:1883,1551658423255,PRODUCED
Publisher_002,topicA,topicA-400,172.172.1.2:1883,1551658423355,PRODUCED
Publisher_002,topicA,topicA-401,172.172.1.2:1883,1551658423455,PRODUCED
Publisher_002,topicA,topicA-402,172.172.1.2:1883,1551658423555,PRODUCED
Publisher_002,topicA,topicA-403,172.172.1.2:1883,1551658423655,PRODUCED
Publisher_002,topicA,topicA-404,172.172.1.2:1883,1551658423755,PRODUCED
Publisher_002,topicA,topicA-405,172.172.1.2:1883,1551658423864,PRODUCED
Publisher_002,topicA,topicA-406,172.172.1.2:1883,1551658423956,PRODUCED
Publisher_002,topicA,topicA-407,172.172.1.2:1883,1551658424055,PRODUCED
Publisher_002,topicA,topicA-408,172.172.1.2:1883,1551658424155,PRODUCED
Publisher_002,topicA,topicA-409,172.172.1.2:1883,1551658424255,PRODUCED
Publisher_002,topicA,topicA-410,172.172.1.2:1883,1551658424355,PRODUCED
Publisher_002,topicA,topicA-411,172.172.1.2:1883,1551658424455,PRODUCED
Publisher_002,topicA,topicA-412,172.172.1.2:1883,1551658424555,PRODUCED
Publisher_002,topicA,topicA-413,172.172.1.2:1883,1551658424655,PRODUCED
Publisher_002,topicA,topicA-414,172.172.1.2:1883,1551658424755,PRODUCED
Publisher_002,topicA,topicA-415,172.172.1.2:1883,1551658424855,PRODUCED
Publisher_002,topicA,topicA-416,172.172.1.2:1883,1551658424955,PRODUCED
Publisher_002,topicA,topicA-417,172.172.1.2:1883,1551658425055,PRODUCED
Publisher_002,topicA,topicA-418,172.172.1.2:1883,1551658425155,PRODUCED
Publisher_002,topicA,topicA-419,172.172.1.2:1883,1551658425255,PRODUCED
Publisher_002,topicA,topicA-420,172.172.1.2:1883,1551658425365,PRODUCED
Publisher_002,topicA,topicA-421,172.172.1.2:1883,1551658425455,PRODUCED
Publisher_002,topicA,topicA-422,172.172.1.2:1883,1551658425555,PRODUCED
Publisher_002,topicA,topicA-423,172.172.1.2:1883,1551658425654,PRODUCED
Publisher_002,topicA,topicA-424,172.172.1.2:1883,1551658425755,PRODUCED
Publisher_002,topicA,topicA-425,172.172.1.2:1883,1551658425855,PRODUCED
Publisher_002,topicA,topicA-426,172.172.1.2:1883,1551658425955,PRODUCED
Publisher_002,topicA,topicA-427,172.172.1.2:1883,1551658426055,PRODUCED
Publisher_002,topicA,topicA-428,172.172.1.2:1883,1551658426155,PRODUCED
Publisher_002,topicA,topicA-429,172.172.1.2:1883,1551658426255,PRODUCED
Publisher_002,topicA,topicA-430,172.172.1.2:1883,1551658426355,PRODUCED
Publisher_002,topicA,topicA-431,172.172.1.2:1883,1551658426455,PRODUCED
Publisher_002,topicA,topicA-432,172.172.1.2:1883,1551658426555,PRODUCED
Publisher_002,topicA,topicA-433,172.172.1.2:1883,1551658426655,PRODUCED
Publisher_002,topicA,topicA-434,172.172.1.2:1883,1551658426755,PRODUCED
Publisher_002,topicA,topicA-435,172.172.1.2:1883,1551658426856,PRODUCED
Publisher_002,topicA,topicA-436,172.172.1.2:1883,1551658426955,PRODUCED
Publisher_002,topicA,topicA-437,172.172.1.2:1883,1551658427055,PRODUCED
Publisher_002,topicA,topicA-438,172.172.1.2:1883,1551658427155,PRODUCED
Publisher_002,topicA,topicA-439,172.172.1.2:1883,1551658427255,PRODUCED
Publisher_002,topicA,topicA-440,172.172.1.2:1883,1551658427354,PRODUCED
Publisher_002,topicA,topicA-441,172.172.1.2:1883,1551658427455,PRODUCED
Publisher_002,topicA,topicA-442,172.172.1.2:1883,1551658427555,PRODUCED
Publisher_002,topicA,topicA-443,172.172.1.2:1883,1551658427655,PRODUCED
Publisher_002,topicA,topicA-444,172.172.1.2:1883,1551658427755,PRODUCED
Publisher_002,topicA,topicA-445,172.172.1.2:1883,1551658427855,PRODUCED
Publisher_002,topicA,topicA-446,172.172.1.2:1883,1551658427955,PRODUCED
Publisher_002,topicA,topicA-447,172.172.1.2:1883,1551658428055,PRODUCED
Publisher_002,topicA,topicA-448,172.172.1.2:1883,1551658428155,PRODUCED
Publisher_002,topicA,topicA-449,172.172.1.2:1883,1551658428254,PRODUCED
Publisher_002,topicA,topicA-450,172.172.1.2:1883,1551658428355,PRODUCED
Publisher_002,topicA,topicA-451,172.172.1.2:1883,1551658428455,PRODUCED
Publisher_002,topicA,topicA-452,172.172.1.2:1883,1551658428554,PRODUCED
Publisher_002,topicA,topicA-453,172.172.1.2:1883,1551658428655,PRODUCED
Publisher_002,topicA,topicA-454,172.172.1.2:1883,1551658428755,PRODUCED
Publisher_002,topicA,topicA-455,172.172.1.2:1883,1551658428855,PRODUCED
Publisher_002,topicA,topicA-456,172.172.1.2:1883,1551658428955,PRODUCED
Publisher_002,topicA,topicA-457,172.172.1.2:1883,1551658429055,PRODUCED
Publisher_002,topicA,topicA-458,172.172.1.2:1883,1551658429155,PRODUCED
Publisher_002,topicA,topicA-459,172.172.1.2:1883,1551658429255,PRODUCED
Publisher_002,topicA,topicA-460,172.172.1.2:1883,1551658429355,PRODUCED
Publisher_002,topicA,topicA-461,172.172.1.2:1883,1551658429455,PRODUCED
Publisher_002,topicA,topicA-462,172.172.1.2:1883,1551658429555,PRODUCED
Publisher_002,topicA,topicA-463,172.172.1.2:1883,1551658429655,PRODUCED
Publisher_002,topicA,topicA-464,172.172.1.2:1883,1551658429756,PRODUCED
Publisher_002,topicA,topicA-465,172.172.1.2:1883,1551658429855,PRODUCED
Publisher_002,topicA,topicA-466,172.172.1.2:1883,1551658429955,PRODUCED
Publisher_002,topicA,topicA-467,172.172.1.2:1883,1551658430055,PRODUCED
Publisher_002,topicA,topicA-468,172.172.1.2:1883,1551658430154,PRODUCED
Publisher_002,topicA,topicA-469,172.172.1.2:1883,1551658430256,PRODUCED
Publisher_002,topicA,topicA-470,172.172.1.2:1883,1551658430355,PRODUCED
Publisher_002,topicA,topicA-471,172.172.1.2:1883,1551658430456,PRODUCED
Publisher_002,topicA,topicA-472,172.172.1.2:1883,1551658430555,PRODUCED
Publisher_002,topicA,topicA-473,172.172.1.2:1883,1551658430655,PRODUCED
Publisher_002,topicA,topicA-474,172.172.1.2:1883,1551658430755,PRODUCED
Publisher_002,topicA,topicA-475,172.172.1.2:1883,1551658430862,PRODUCED
Publisher_002,topicA,topicA-476,172.172.1.2:1883,1551658430956,PRODUCED
Publisher_002,topicA,topicA-477,172.172.1.2:1883,1551658431055,PRODUCED
Publisher_002,topicA,topicA-478,172.172.1.2:1883,1551658431155,PRODUCED
Publisher_002,topicA,topicA-479,172.172.1.2:1883,1551658431255,PRODUCED
Publisher_002,topicA,topicA-480,172.172.1.2:1883,1551658431355,PRODUCED
Publisher_002,topicA,topicA-481,172.172.1.2:1883,1551658431455,PRODUCED
Publisher_002,topicA,topicA-482,172.172.1.2:1883,1551658431555,PRODUCED
Publisher_002,topicA,topicA-483,172.172.1.2:1883,1551658431655,PRODUCED
Publisher_002,topicA,topicA-484,172.172.1.2:1883,1551658431755,PRODUCED
Publisher_002,topicA,topicA-485,172.172.1.2:1883,1551658431855,PRODUCED
Publisher_002,topicA,topicA-486,172.172.1.2:1883,1551658431955,PRODUCED
Publisher_002,topicA,topicA-487,172.172.1.2:1883,1551658432055,PRODUCED
Publisher_002,topicA,topicA-488,172.172.1.2:1883,1551658432154,PRODUCED
Publisher_002,topicA,topicA-489,172.172.1.2:1883,1551658432255,PRODUCED
Publisher_002,topicA,topicA-490,172.172.1.2:1883,1551658432355,PRODUCED
Publisher_002,topicA,topicA-491,172.172.1.2:1883,1551658432455,PRODUCED
Publisher_002,topicA,topicA-492,172.172.1.2:1883,1551658432555,PRODUCED
Publisher_002,topicA,topicA-493,172.172.1.2:1883,1551658432656,PRODUCED
Publisher_002,topicA,topicA-494,172.172.1.2:1883,1551658432755,PRODUCED
Publisher_002,topicA,topicA-495,172.172.1.2:1883,1551658432855,PRODUCED
Publisher_002,topicA,topicA-496,172.172.1.2:1883,1551658432955,PRODUCED
Publisher_002,topicA,topicA-497,172.172.1.2:1883,1551658433056,PRODUCED
Publisher_002,topicA,topicA-498,172.172.1.2:1883,1551658433154,PRODUCED
Publisher_002,topicA,topicA-499,172.172.1.2:1883,1551658433255,PRODUCED
Publisher_002,topicA,topicA-500,172.172.1.2:1883,1551658433355,PRODUCED
Publisher_002,topicA,topicA-501,172.172.1.2:1883,1551658433455,PRODUCED
Publisher_002,topicA,topicA-502,172.172.1.2:1883,1551658433555,PRODUCED
Publisher_002,topicA,topicA-503,172.172.1.2:1883,1551658433655,PRODUCED
Publisher_002,topicA,topicA-504,172.172.1.2:1883,1551658433755,PRODUCED
Publisher_002,topicA,topicA-505,172.172.1.2:1883,1551658433855,PRODUCED
Publisher_002,topicA,topicA-506,172.172.1.2:1883,1551658433955,PRODUCED
Publisher_002,topicA,topicA-507,172.172.1.2:1883,1551658434055,PRODUCED
Publisher_002,topicA,topicA-508,172.172.1.2:1883,1551658434155,PRODUCED
Publisher_002,topicA,topicA-509,172.172.1.2:1883,1551658434255,PRODUCED
Publisher_002,topicA,topicA-510,172.172.1.2:1883,1551658434354,PRODUCED
Publisher_002,topicA,topicA-511,172.172.1.2:1883,1551658434455,PRODUCED
Publisher_002,topicA,topicA-512,172.172.1.2:1883,1551658434555,PRODUCED
Publisher_002,topicA,topicA-513,172.172.1.2:1883,1551658434655,PRODUCED
Publisher_002,topicA,topicA-514,172.172.1.2:1883,1551658434756,PRODUCED
Publisher_002,topicA,topicA-515,172.172.1.2:1883,1551658434856,PRODUCED
Publisher_002,topicA,topicA-516,172.172.1.2:1883,1551658434954,PRODUCED
Publisher_002,topicA,topicA-517,172.172.1.2:1883,1551658435054,PRODUCED
Publisher_002,topicA,topicA-518,172.172.1.2:1883,1551658435155,PRODUCED
Publisher_002,topicA,topicA-519,172.172.1.2:1883,1551658435254,PRODUCED
Publisher_002,topicA,topicA-520,172.172.1.2:1883,1551658435354,PRODUCED
Publisher_002,topicA,topicA-521,172.172.1.2:1883,1551658435455,PRODUCED
Publisher_002,topicA,topicA-522,172.172.1.2:1883,1551658435554,PRODUCED
Publisher_002,topicA,topicA-523,172.172.1.2:1883,1551658435654,PRODUCED
Publisher_002,topicA,topicA-524,172.172.1.2:1883,1551658435755,PRODUCED
Publisher_002,topicA,topicA-525,172.172.1.2:1883,1551658435859,PRODUCED
Publisher_002,topicA,topicA-526,172.172.1.2:1883,1551658435957,PRODUCED
Publisher_002,topicA,topicA-527,172.172.1.2:1883,1551658436054,PRODUCED
Publisher_002,topicA,topicA-528,172.172.1.2:1883,1551658436155,PRODUCED
Publisher_002,topicA,topicA-529,172.172.1.2:1883,1551658436255,PRODUCED
Publisher_002,topicA,topicA-530,172.172.1.2:1883,1551658436355,PRODUCED
Publisher_002,topicA,topicA-531,172.172.1.2:1883,1551658436455,PRODUCED
Publisher_002,topicA,topicA-532,172.172.1.2:1883,1551658436555,PRODUCED
Publisher_002,topicA,topicA-533,172.172.1.2:1883,1551658436655,PRODUCED
Publisher_002,topicA,topicA-534,172.172.1.2:1883,1551658436755,PRODUCED
Publisher_002,topicA,topicA-535,172.172.1.2:1883,1551658436855,PRODUCED
Publisher_002,topicA,topicA-536,172.172.1.2:1883,1551658436955,PRODUCED
Publisher_002,topicA,topicA-537,172.172.1.2:1883,1551658437055,PRODUCED
Publisher_002,topicA,topicA-538,172.172.1.2:1883,1551658437155,PRODUCED
Publisher_002,topicA,topicA-539,172.172.1.2:1883,1551658437255,PRODUCED
Publisher_002,topicA,topicA-540,172.172.1.2:1883,1551658437355,PRODUCED
Publisher_002,topicA,topicA-541,172.172.1.2:1883,1551658437456,PRODUCED
Publisher_002,topicA,topicA-542,172.172.1.2:1883,1551658437555,PRODUCED
Publisher_002,topicA,topicA-543,172.172.1.2:1883,1551658437655,PRODUCED
Publisher_002,topicA,topicA-544,172.172.1.2:1883,1551658437755,PRODUCED
Publisher_002,topicA,topicA-545,172.172.1.2:1883,1551658437854,PRODUCED
Publisher_002,topicA,topicA-546,172.172.1.2:1883,1551658437955,PRODUCED
Publisher_002,topicA,topicA-547,172.172.1.2:1883,1551658438055,PRODUCED
Publisher_002,topicA,topicA-548,172.172.1.2:1883,1551658438154,PRODUCED
Publisher_002,topicA,topicA-549,172.172.1.2:1883,1551658438254,PRODUCED
Publisher_002,topicA,topicA-550,172.172.1.2:1883,1551658438355,PRODUCED
Publisher_002,topicA,topicA-551,172.172.1.2:1883,1551658438455,PRODUCED
Publisher_002,topicA,topicA-552,172.172.1.2:1883,1551658438556,PRODUCED
Publisher_002,topicA,topicA-553,172.172.1.2:1883,1551658438654,PRODUCED
Publisher_002,topicA,topicA-554,172.172.1.2:1883,1551658438754,PRODUCED
Publisher_002,topicA,topicA-555,172.172.1.2:1883,1551658438854,PRODUCED
Publisher_002,topicA,topicA-556,172.172.1.2:1883,1551658438955,PRODUCED
Publisher_002,topicA,topicA-557,172.172.1.2:1883,1551658439055,PRODUCED
Publisher_002,topicA,topicA-558,172.172.1.2:1883,1551658439155,PRODUCED
Publisher_002,topicA,topicA-559,172.172.1.2:1883,1551658439256,PRODUCED
Publisher_002,topicA,topicA-560,172.172.1.2:1883,1551658439355,PRODUCED
Publisher_002,topicA,topicA-561,172.172.1.2:1883,1551658439455,PRODUCED
Publisher_002,topicA,topicA-562,172.172.1.2:1883,1551658439555,PRODUCED
Publisher_002,topicA,topicA-563,172.172.1.2:1883,1551658439655,PRODUCED
Publisher_002,topicA,topicA-564,172.172.1.2:1883,1551658439754,PRODUCED
Publisher_002,topicA,topicA-565,172.172.1.2:1883,1551658439855,PRODUCED
Publisher_002,topicA,topicA-566,172.172.1.2:1883,1551658439955,PRODUCED
Publisher_002,topicA,topicA-567,172.172.1.2:1883,1551658440055,PRODUCED
Publisher_002,topicA,topicA-568,172.172.1.2:1883,1551658440155,PRODUCED
Publisher_002,topicA,topicA-569,172.172.1.2:1883,1551658440254,PRODUCED
Publisher_002,topicA,topicA-570,172.172.1.2:1883,1551658440354,PRODUCED
Publisher_002,topicA,topicA-571,172.172.1.2:1883,1551658440455,PRODUCED
Publisher_002,topicA,topicA-572,172.172.1.2:1883,1551658440555,PRODUCED
Publisher_002,topicA,topicA-573,172.172.1.2:1883,1551658440655,PRODUCED
Publisher_002,topicA,topicA-574,172.172.1.2:1883,1551658440755,PRODUCED
Publisher_002,topicA,topicA-575,172.172.1.2:1883,1551658440855,PRODUCED
Publisher_002,topicA,topicA-576,172.172.1.2:1883,1551658440956,PRODUCED
Publisher_002,topicA,topicA-577,172.172.1.2:1883,1551658441055,PRODUCED
Publisher_002,topicA,topicA-578,172.172.1.2:1883,1551658441155,PRODUCED
Publisher_002,topicA,topicA-579,172.172.1.2:1883,1551658441255,PRODUCED
Publisher_002,topicA,topicA-580,172.172.1.2:1883,1551658441355,PRODUCED
Publisher_002,topicA,topicA-581,172.172.1.2:1883,1551658441455,PRODUCED
Publisher_002,topicA,topicA-582,172.172.1.2:1883,1551658441554,PRODUCED
Publisher_002,topicA,topicA-583,172.172.1.2:1883,1551658441654,PRODUCED
Publisher_002,topicA,topicA-584,172.172.1.2:1883,1551658441754,PRODUCED
Publisher_002,topicA,topicA-585,172.172.1.2:1883,1551658441855,PRODUCED
Publisher_002,topicA,topicA-586,172.172.1.2:1883,1551658441955,PRODUCED
Publisher_002,topicA,topicA-587,172.172.1.2:1883,1551658442055,PRODUCED
Publisher_002,topicA,topicA-588,172.172.1.2:1883,1551658442155,PRODUCED
Publisher_002,topicA,topicA-589,172.172.1.2:1883,1551658442254,PRODUCED
Publisher_002,topicA,topicA-590,172.172.1.2:1883,1551658442355,PRODUCED
Publisher_002,topicA,topicA-591,172.172.1.2:1883,1551658442454,PRODUCED
Publisher_002,topicA,topicA-592,172.172.1.2:1883,1551658442554,PRODUCED
Publisher_002,topicA,topicA-593,172.172.1.2:1883,1551658442655,PRODUCED
Publisher_002,topicA,topicA-594,172.172.1.2:1883,1551658442754,PRODUCED
Publisher_002,topicA,topicA-595,172.172.1.2:1883,1551658442856,PRODUCED
Publisher_002,topicA,topicA-596,172.172.1.2:1883,1551658442956,PRODUCED
Publisher_002,topicA,topicA-597,172.172.1.2:1883,1551658443055,PRODUCED
Publisher_002,topicA,topicA-598,172.172.1.2:1883,1551658443155,PRODUCED
Publisher_002,topicA,topicA-599,172.172.1.2:1883,1551658443255,PRODUCED
Publisher_002,topicA,topicA-600,172.172.1.2:1883,1551658443354,PRODUCED
Publisher_002,topicA,topicA-601,172.172.1.2:1883,1551658443455,PRODUCED
Publisher_002,topicA,topicA-602,172.172.1.2:1883,1551658443555,PRODUCED
Publisher_002,topicA,topicA-603,172.172.1.2:1883,1551658443654,PRODUCED
Publisher_002,topicA,topicA-604,172.172.1.2:1883,1551658443755,PRODUCED
Publisher_002,topicA,topicA-605,172.172.1.2:1883,1551658443855,PRODUCED
Publisher_002,topicA,topicA-606,172.172.1.2:1883,1551658443955,PRODUCED
Publisher_002,topicA,topicA-607,172.172.1.2:1883,1551658444055,PRODUCED
Publisher_002,topicA,topicA-608,172.172.1.2:1883,1551658444155,PRODUCED
Publisher_002,topicA,topicA-609,172.172.1.2:1883,1551658444255,PRODUCED
Publisher_002,topicA,topicA-610,172.172.1.2:1883,1551658444355,PRODUCED
Publisher_002,topicA,topicA-611,172.172.1.2:1883,1551658444455,PRODUCED
Publisher_002,topicA,topicA-612,172.172.1.2:1883,1551658444555,PRODUCED
Publisher_002,topicA,topicA-613,172.172.1.2:1883,1551658444655,PRODUCED
Publisher_002,topicA,topicA-614,172.172.1.2:1883,1551658444755,PRODUCED
Publisher_002,topicA,topicA-615,172.172.1.2:1883,1551658444855,PRODUCED
Publisher_002,topicA,topicA-616,172.172.1.2:1883,1551658444955,PRODUCED
Publisher_002,topicA,topicA-617,172.172.1.2:1883,1551658445055,PRODUCED
Publisher_002,topicA,topicA-618,172.172.1.2:1883,1551658445155,PRODUCED
Publisher_002,topicA,topicA-619,172.172.1.2:1883,1551658445255,PRODUCED
Publisher_002,topicA,topicA-620,172.172.1.2:1883,1551658445355,PRODUCED
Publisher_002,topicA,topicA-621,172.172.1.2:1883,1551658445455,PRODUCED
Publisher_002,topicA,topicA-622,172.172.1.2:1883,1551658445555,PRODUCED
Publisher_002,topicA,topicA-623,172.172.1.2:1883,1551658445655,PRODUCED
Publisher_002,topicA,topicA-624,172.172.1.2:1883,1551658445755,PRODUCED
Publisher_002,topicA,topicA-625,172.172.1.2:1883,1551658445855,PRODUCED
Publisher_002,topicA,topicA-626,172.172.1.2:1883,1551658445955,PRODUCED
Publisher_002,topicA,topicA-627,172.172.1.2:1883,1551658446055,PRODUCED
Publisher_002,topicA,topicA-628,172.172.1.2:1883,1551658446155,PRODUCED
Publisher_002,topicA,topicA-629,172.172.1.2:1883,1551658446255,PRODUCED
Publisher_002,topicA,topicA-630,172.172.1.2:1883,1551658446355,PRODUCED
Publisher_002,topicA,topicA-631,172.172.1.2:1883,1551658446455,PRODUCED
Publisher_002,topicA,topicA-632,172.172.1.2:1883,1551658446555,PRODUCED
Publisher_002,topicA,topicA-633,172.172.1.2:1883,1551658446655,PRODUCED
Publisher_002,topicA,topicA-634,172.172.1.2:1883,1551658446760,PRODUCED
Publisher_002,topicA,topicA-635,172.172.1.2:1883,1551658446855,PRODUCED
Publisher_002,topicA,topicA-636,172.172.1.2:1883,1551658446955,PRODUCED
Publisher_002,topicA,topicA-637,172.172.1.2:1883,1551658447055,PRODUCED
Publisher_002,topicA,topicA-638,172.172.1.2:1883,1551658447154,PRODUCED
Publisher_002,topicA,topicA-639,172.172.1.2:1883,1551658447254,PRODUCED
Publisher_002,topicA,topicA-640,172.172.1.2:1883,1551658447354,PRODUCED
Publisher_002,topicA,topicA-641,172.172.1.2:1883,1551658447454,PRODUCED
Publisher_002,topicA,topicA-642,172.172.1.2:1883,1551658447556,PRODUCED
Publisher_002,topicA,topicA-643,172.172.1.2:1883,1551658447654,PRODUCED
Publisher_002,topicA,topicA-644,172.172.1.2:1883,1551658447754,PRODUCED
