timestamp,event,migrationId
1551656988666,INITIALIZED,c0314a4c-d031-478a-8242-f4c2448135ae
1551656988670,topicA-INITIALIZED,c0314a4c-d031-478a-8242-f4c2448135ae
1551656990701,topicA-FINISHED,c0314a4c-d031-478a-8242-f4c2448135ae
1551656990701,FINISHED,c0314a4c-d031-478a-8242-f4c2448135ae
