clientId,topic,guid,broker,timestamp,type
Publisher_002,topicA,topicA-1,172.172.1.2:1883,1551657675216,PRODUCED
Publisher_002,topicA,topicA-2,172.172.1.2:1883,1551657675456,PRODUCED
Publisher_002,topicA,topicA-3,172.172.1.2:1883,1551657675466,PRODUCED
Publisher_002,topicA,topicA-4,172.172.1.2:1883,1551657675473,PRODUCED
Publisher_002,topicA,topicA-5,172.172.1.2:1883,1551657675484,PRODUCED
Publisher_002,topicA,topicA-6,172.172.1.2:1883,1551657675563,PRODUCED
Publisher_002,topicA,topicA-7,172.172.1.2:1883,1551657675663,PRODUCED
Publisher_002,topicA,topicA-8,172.172.1.2:1883,1551657675764,PRODUCED
Publisher_002,topicA,topicA-9,172.172.1.2:1883,1551657675863,PRODUCED
Publisher_002,topicA,topicA-10,172.172.1.2:1883,1551657675964,PRODUCED
Publisher_002,topicA,topicA-11,172.172.1.2:1883,1551657676064,PRODUCED
Publisher_002,topicA,topicA-12,172.172.1.2:1883,1551657676164,PRODUCED
Publisher_002,topicA,topicA-13,172.172.1.2:1883,1551657676264,PRODUCED
Publisher_002,topicA,topicA-14,172.172.1.2:1883,1551657676364,PRODUCED
Publisher_002,topicA,topicA-15,172.172.1.2:1883,1551657676464,PRODUCED
Publisher_002,topicA,topicA-16,172.172.1.2:1883,1551657676564,PRODUCED
Publisher_002,topicA,topicA-17,172.172.1.2:1883,1551657676665,PRODUCED
Publisher_002,topicA,topicA-18,172.172.1.2:1883,1551657676764,PRODUCED
Publisher_002,topicA,topicA-19,172.172.1.2:1883,1551657676863,PRODUCED
Publisher_002,topicA,topicA-20,172.172.1.2:1883,1551657676963,PRODUCED
Publisher_002,topicA,topicA-21,172.172.1.2:1883,1551657677063,PRODUCED
Publisher_002,topicA,topicA-22,172.172.1.2:1883,1551657677165,PRODUCED
Publisher_002,topicA,topicA-23,172.172.1.2:1883,1551657677263,PRODUCED
Publisher_002,topicA,topicA-24,172.172.1.2:1883,1551657677363,PRODUCED
Publisher_002,topicA,topicA-25,172.172.1.2:1883,1551657677464,PRODUCED
Publisher_002,topicA,topicA-26,172.172.1.2:1883,1551657677563,PRODUCED
Publisher_002,topicA,topicA-27,172.172.1.2:1883,1551657677663,PRODUCED
Publisher_002,topicA,topicA-28,172.172.1.2:1883,1551657677763,PRODUCED
Publisher_002,topicA,topicA-29,172.172.1.2:1883,1551657677863,PRODUCED
Publisher_002,topicA,topicA-30,172.172.1.2:1883,1551657677963,PRODUCED
Publisher_002,topicA,topicA-31,172.172.1.2:1883,1551657678063,PRODUCED
Publisher_002,topicA,topicA-32,172.172.1.2:1883,1551657678163,PRODUCED
Publisher_002,topicA,topicA-33,172.172.1.2:1883,1551657678263,PRODUCED
Publisher_002,topicA,topicA-34,172.172.1.2:1883,1551657678363,PRODUCED
Publisher_002,topicA,topicA-35,172.172.1.2:1883,1551657678464,PRODUCED
Publisher_002,topicA,topicA-36,172.172.1.2:1883,1551657678563,PRODUCED
Publisher_002,topicA,topicA-37,172.172.1.2:1883,1551657678667,PRODUCED
Publisher_002,topicA,topicA-38,172.172.1.2:1883,1551657678765,PRODUCED
Publisher_002,topicA,topicA-39,172.172.1.2:1883,1551657678864,PRODUCED
Publisher_002,topicA,topicA-40,172.172.1.2:1883,1551657678964,PRODUCED
Publisher_002,topicA,topicA-41,172.172.1.2:1883,1551657679064,PRODUCED
Publisher_002,topicA,topicA-42,172.172.1.2:1883,1551657679165,PRODUCED
Publisher_002,topicA,topicA-43,172.172.1.2:1883,1551657679263,PRODUCED
Publisher_002,topicA,topicA-44,172.172.1.2:1883,1551657679364,PRODUCED
Publisher_002,topicA,topicA-45,172.172.1.2:1883,1551657679463,PRODUCED
Publisher_002,topicA,topicA-46,172.172.1.2:1883,1551657679564,PRODUCED
Publisher_002,topicA,topicA-47,172.172.1.2:1883,1551657679663,PRODUCED
Publisher_002,topicA,topicA-48,172.172.1.2:1883,1551657679763,PRODUCED
Publisher_002,topicA,topicA-49,172.172.1.2:1883,1551657679863,PRODUCED
Publisher_002,topicA,topicA-50,172.172.1.2:1883,1551657679963,PRODUCED
Publisher_002,topicA,topicA-51,172.172.1.2:1883,1551657680063,PRODUCED
Publisher_002,topicA,topicA-52,172.172.1.2:1883,1551657680163,PRODUCED
Publisher_002,topicA,topicA-53,172.172.1.2:1883,1551657680263,PRODUCED
Publisher_002,topicA,topicA-54,172.172.1.2:1883,1551657680363,PRODUCED
Publisher_002,topicA,topicA-55,172.172.1.2:1883,1551657680463,PRODUCED
Publisher_002,topicA,topicA-56,172.172.1.2:1883,1551657680563,PRODUCED
Publisher_002,topicA,topicA-57,172.172.1.2:1883,1551657680663,PRODUCED
Publisher_002,topicA,topicA-58,172.172.1.2:1883,1551657680765,PRODUCED
Publisher_002,topicA,topicA-59,172.172.1.2:1883,1551657680863,PRODUCED
Publisher_002,topicA,topicA-60,172.172.1.2:1883,1551657680963,PRODUCED
Publisher_002,topicA,topicA-61,172.172.1.2:1883,1551657681064,PRODUCED
Publisher_002,topicA,topicA-62,172.172.1.2:1883,1551657681164,PRODUCED
Publisher_002,topicA,topicA-63,172.172.1.2:1883,1551657681264,PRODUCED
Publisher_002,topicA,topicA-64,172.172.1.2:1883,1551657681364,PRODUCED
Publisher_002,topicA,topicA-65,172.172.1.2:1883,1551657681464,PRODUCED
Publisher_002,topicA,topicA-66,172.172.1.2:1883,1551657681563,PRODUCED
Publisher_002,topicA,topicA-67,172.172.1.2:1883,1551657681664,PRODUCED
Publisher_002,topicA,topicA-68,172.172.1.2:1883,1551657681764,PRODUCED
Publisher_002,topicA,topicA-69,172.172.1.2:1883,1551657681865,PRODUCED
Publisher_002,topicA,topicA-70,172.172.1.2:1883,1551657681964,PRODUCED
Publisher_002,topicA,topicA-71,172.172.1.2:1883,1551657682063,PRODUCED
Publisher_002,topicA,topicA-72,172.172.1.2:1883,1551657682163,PRODUCED
Publisher_002,topicA,topicA-73,172.172.1.2:1883,1551657682264,PRODUCED
Publisher_002,topicA,topicA-74,172.172.1.2:1883,1551657682364,PRODUCED
Publisher_002,topicA,topicA-75,172.172.1.2:1883,1551657682463,PRODUCED
Publisher_002,topicA,topicA-76,172.172.1.2:1883,1551657682564,PRODUCED
Publisher_002,topicA,topicA-77,172.172.1.2:1883,1551657682663,PRODUCED
Publisher_002,topicA,topicA-78,172.172.1.2:1883,1551657682763,PRODUCED
Publisher_002,topicA,topicA-79,172.172.1.2:1883,1551657682868,PRODUCED
Publisher_002,topicA,topicA-80,172.172.1.2:1883,1551657682965,PRODUCED
Publisher_002,topicA,topicA-81,172.172.1.2:1883,1551657683064,PRODUCED
Publisher_002,topicA,topicA-82,172.172.1.2:1883,1551657683163,PRODUCED
Publisher_002,topicA,topicA-83,172.172.1.2:1883,1551657683264,PRODUCED
Publisher_002,topicA,topicA-84,172.172.1.2:1883,1551657683364,PRODUCED
Publisher_002,topicA,topicA-85,172.172.1.2:1883,1551657683468,PRODUCED
Publisher_002,topicA,topicA-86,172.172.1.2:1883,1551657683563,PRODUCED
Publisher_002,topicA,topicA-87,172.172.1.2:1883,1551657683663,PRODUCED
Publisher_002,topicA,topicA-88,172.172.1.2:1883,1551657683764,PRODUCED
Publisher_002,topicA,topicA-89,172.172.1.2:1883,1551657683863,PRODUCED
Publisher_002,topicA,topicA-90,172.172.1.2:1883,1551657683963,PRODUCED
Publisher_002,topicA,topicA-91,172.172.1.2:1883,1551657684063,PRODUCED
Publisher_002,topicA,topicA-92,172.172.1.2:1883,1551657684163,PRODUCED
Publisher_002,topicA,topicA-93,172.172.1.2:1883,1551657684263,PRODUCED
Publisher_002,topicA,topicA-94,172.172.1.2:1883,1551657684363,PRODUCED
Publisher_002,topicA,topicA-95,172.172.1.2:1883,1551657684463,PRODUCED
Publisher_002,topicA,topicA-96,172.172.1.2:1883,1551657684564,PRODUCED
Publisher_002,topicA,topicA-97,172.172.1.2:1883,1551657684663,PRODUCED
Publisher_002,topicA,topicA-98,172.172.1.2:1883,1551657684764,PRODUCED
Publisher_002,topicA,topicA-99,172.172.1.2:1883,1551657684863,PRODUCED
Publisher_002,topicA,topicA-100,172.172.1.2:1883,1551657684965,PRODUCED
Publisher_002,topicA,topicA-101,172.172.1.2:1883,1551657685063,PRODUCED
Publisher_002,topicA,topicA-102,172.172.1.2:1883,1551657685165,PRODUCED
Publisher_002,topicA,topicA-103,172.172.1.2:1883,1551657685263,PRODUCED
Publisher_002,topicA,topicA-104,172.172.1.2:1883,1551657685364,PRODUCED
Publisher_002,topicA,topicA-105,172.172.1.2:1883,1551657685465,PRODUCED
Publisher_002,topicA,topicA-106,172.172.1.2:1883,1551657685565,PRODUCED
Publisher_002,topicA,topicA-107,172.172.1.2:1883,1551657685664,PRODUCED
Publisher_002,topicA,topicA-108,172.172.1.2:1883,1551657685763,PRODUCED
Publisher_002,topicA,topicA-109,172.172.1.2:1883,1551657685863,PRODUCED
Publisher_002,topicA,topicA-110,172.172.1.2:1883,1551657685963,PRODUCED
Publisher_002,topicA,topicA-111,172.172.1.2:1883,1551657686063,PRODUCED
Publisher_002,topicA,topicA-112,172.172.1.2:1883,1551657686163,PRODUCED
Publisher_002,topicA,topicA-113,172.172.1.2:1883,1551657686263,PRODUCED
Publisher_002,topicA,topicA-114,172.172.1.2:1883,1551657686363,PRODUCED
Publisher_002,topicA,topicA-115,172.172.1.2:1883,1551657686463,PRODUCED
Publisher_002,topicA,topicA-116,172.172.1.2:1883,1551657686563,PRODUCED
Publisher_002,topicA,topicA-117,172.172.1.2:1883,1551657686663,PRODUCED
Publisher_002,topicA,topicA-118,172.172.1.2:1883,1551657686763,PRODUCED
Publisher_002,topicA,topicA-119,172.172.1.2:1883,1551657686863,PRODUCED
Publisher_002,topicA,topicA-120,172.172.1.2:1883,1551657686964,PRODUCED
Publisher_002,topicA,topicA-121,172.172.1.2:1883,1551657687064,PRODUCED
Publisher_002,topicA,topicA-122,172.172.1.2:1883,1551657687165,PRODUCED
Publisher_002,topicA,topicA-123,172.172.1.2:1883,1551657687264,PRODUCED
Publisher_002,topicA,topicA-124,172.172.1.2:1883,1551657687363,PRODUCED
Publisher_002,topicA,topicA-125,172.172.1.2:1883,1551657687464,PRODUCED
Publisher_002,topicA,topicA-126,172.172.1.2:1883,1551657687564,PRODUCED
Publisher_002,topicA,topicA-127,172.172.1.2:1883,1551657687664,PRODUCED
Publisher_002,topicA,topicA-128,172.172.1.2:1883,1551657687769,PRODUCED
Publisher_002,topicA,topicA-129,172.172.1.2:1883,1551657687864,PRODUCED
Publisher_002,topicA,topicA-130,172.172.1.2:1883,1551657687964,PRODUCED
Publisher_002,topicA,topicA-131,172.172.1.2:1883,1551657688063,PRODUCED
Publisher_002,topicA,topicA-132,172.172.1.2:1883,1551657688164,PRODUCED
Publisher_002,topicA,topicA-133,172.172.1.2:1883,1551657688263,PRODUCED
Publisher_002,topicA,topicA-134,172.172.1.2:1883,1551657688363,PRODUCED
Publisher_002,topicA,topicA-135,172.172.1.2:1883,1551657688463,PRODUCED
Publisher_002,topicA,topicA-136,172.172.1.2:1883,1551657688564,PRODUCED
Publisher_002,topicA,topicA-137,172.172.1.2:1883,1551657688664,PRODUCED
Publisher_002,topicA,topicA-138,172.172.1.2:1883,1551657688763,PRODUCED
Publisher_002,topicA,topicA-139,172.172.1.2:1883,1551657688864,PRODUCED
Publisher_002,topicA,topicA-140,172.172.1.2:1883,1551657688963,PRODUCED
Publisher_002,topicA,topicA-141,172.172.1.2:1883,1551657689065,PRODUCED
Publisher_002,topicA,topicA-142,172.172.1.2:1883,1551657689164,PRODUCED
Publisher_002,topicA,topicA-143,172.172.1.2:1883,1551657689267,PRODUCED
Publisher_002,topicA,topicA-144,172.172.1.2:1883,1551657689363,PRODUCED
Publisher_002,topicA,topicA-145,172.172.1.2:1883,1551657689464,PRODUCED
Publisher_002,topicA,topicA-146,172.172.1.2:1883,1551657689565,PRODUCED
Publisher_002,topicA,topicA-147,172.172.1.2:1883,1551657689663,PRODUCED
Publisher_002,topicA,topicA-148,172.172.1.2:1883,1551657689763,PRODUCED
Publisher_002,topicA,topicA-149,172.172.1.2:1883,1551657689863,PRODUCED
Publisher_002,topicA,topicA-150,172.172.1.2:1883,1551657689964,PRODUCED
Publisher_002,topicA,topicA-151,172.172.1.2:1883,1551657690063,PRODUCED
Publisher_002,topicA,topicA-152,172.172.1.2:1883,1551657690163,PRODUCED
Publisher_002,topicA,topicA-153,172.172.1.2:1883,1551657690263,PRODUCED
Publisher_002,topicA,topicA-154,172.172.1.2:1883,1551657690364,PRODUCED
Publisher_002,topicA,topicA-155,172.172.1.2:1883,1551657690465,PRODUCED
Publisher_002,topicA,topicA-156,172.172.1.2:1883,1551657690565,PRODUCED
Publisher_002,topicA,topicA-157,172.172.1.2:1883,1551657690663,PRODUCED
Publisher_002,topicA,topicA-158,172.172.1.2:1883,1551657690763,PRODUCED
Publisher_002,topicA,topicA-159,172.172.1.2:1883,1551657690864,PRODUCED
Publisher_002,topicA,topicA-160,172.172.1.2:1883,1551657690963,PRODUCED
Publisher_002,topicA,topicA-161,172.172.1.2:1883,1551657691064,PRODUCED
Publisher_002,topicA,topicA-162,172.172.1.2:1883,1551657691165,PRODUCED
Publisher_002,topicA,topicA-163,172.172.1.2:1883,1551657691263,PRODUCED
Publisher_002,topicA,topicA-164,172.172.1.2:1883,1551657691364,PRODUCED
Publisher_002,topicA,topicA-165,172.172.1.2:1883,1551657691463,PRODUCED
Publisher_002,topicA,topicA-166,172.172.1.2:1883,1551657691563,PRODUCED
Publisher_002,topicA,topicA-167,172.172.1.2:1883,1551657691664,PRODUCED
Publisher_002,topicA,topicA-168,172.172.1.2:1883,1551657691763,PRODUCED
Publisher_002,topicA,topicA-169,172.172.1.2:1883,1551657691865,PRODUCED
Publisher_002,topicA,topicA-170,172.172.1.2:1883,1551657691963,PRODUCED
Publisher_002,topicA,topicA-171,172.172.1.2:1883,1551657692063,PRODUCED
Publisher_002,topicA,topicA-172,172.172.1.2:1883,1551657692163,PRODUCED
Publisher_002,topicA,topicA-173,172.172.1.2:1883,1551657692263,PRODUCED
Publisher_002,topicA,topicA-174,172.172.1.2:1883,1551657692364,PRODUCED
Publisher_002,topicA,topicA-175,172.172.1.2:1883,1551657692465,PRODUCED
Publisher_002,topicA,topicA-176,172.172.1.2:1883,1551657692564,PRODUCED
Publisher_002,topicA,topicA-177,172.172.1.2:1883,1551657692664,PRODUCED
Publisher_002,topicA,topicA-178,172.172.1.2:1883,1551657692764,PRODUCED
Publisher_002,topicA,topicA-179,172.172.1.2:1883,1551657692863,PRODUCED
Publisher_002,topicA,topicA-180,172.172.1.2:1883,1551657692963,PRODUCED
Publisher_002,topicA,topicA-181,172.172.1.2:1883,1551657693063,PRODUCED
Publisher_002,topicA,topicA-182,172.172.1.2:1883,1551657693163,PRODUCED
Publisher_002,topicA,topicA-183,172.172.1.2:1883,1551657693263,PRODUCED
Publisher_002,topicA,topicA-184,172.172.1.2:1883,1551657693363,PRODUCED
Publisher_002,topicA,topicA-185,172.172.1.2:1883,1551657693463,PRODUCED
Publisher_002,topicA,topicA-186,172.172.1.2:1883,1551657693564,PRODUCED
Publisher_002,topicA,topicA-187,172.172.1.2:1883,1551657693663,PRODUCED
Publisher_002,topicA,topicA-188,172.172.1.2:1883,1551657693763,PRODUCED
Publisher_002,topicA,topicA-189,172.172.1.2:1883,1551657693864,PRODUCED
Publisher_002,topicA,topicA-190,172.172.1.2:1883,1551657693963,PRODUCED
Publisher_002,topicA,topicA-191,172.172.1.2:1883,1551657694063,PRODUCED
Publisher_002,topicA,topicA-192,172.172.1.2:1883,1551657694165,PRODUCED
Publisher_002,topicA,topicA-193,172.172.1.2:1883,1551657694264,PRODUCED
Publisher_002,topicA,topicA-194,172.172.1.2:1883,1551657694364,PRODUCED
Publisher_002,topicA,topicA-195,172.172.1.2:1883,1551657694463,PRODUCED
Publisher_002,topicA,topicA-196,172.172.1.2:1883,1551657694565,PRODUCED
Publisher_002,topicA,topicA-197,172.172.1.2:1883,1551657694665,PRODUCED
Publisher_002,topicA,topicA-198,172.172.1.2:1883,1551657694764,PRODUCED
Publisher_002,topicA,topicA-199,172.172.1.2:1883,1551657694864,PRODUCED
Publisher_002,topicA,topicA-200,172.172.1.2:1883,1551657694964,PRODUCED
Publisher_002,topicA,topicA-201,172.172.1.2:1883,1551657695064,PRODUCED
Publisher_002,topicA,topicA-202,172.172.1.2:1883,1551657695163,PRODUCED
Publisher_002,topicA,topicA-203,172.172.1.2:1883,1551657695263,PRODUCED
Publisher_002,topicA,topicA-204,172.172.1.2:1883,1551657695364,PRODUCED
Publisher_002,topicA,topicA-205,172.172.1.2:1883,1551657695463,PRODUCED
Publisher_002,topicA,topicA-206,172.172.1.2:1883,1551657695563,PRODUCED
Publisher_002,topicA,topicA-207,172.172.1.2:1883,1551657695664,PRODUCED
Publisher_002,topicA,topicA-208,172.172.1.2:1883,1551657695763,PRODUCED
Publisher_002,topicA,topicA-209,172.172.1.2:1883,1551657695864,PRODUCED
Publisher_002,topicA,topicA-210,172.172.1.2:1883,1551657695963,PRODUCED
Publisher_002,topicA,topicA-211,172.172.1.2:1883,1551657696064,PRODUCED
Publisher_002,topicA,topicA-212,172.172.1.2:1883,1551657696163,PRODUCED
Publisher_002,topicA,topicA-213,172.172.1.2:1883,1551657696263,PRODUCED
Publisher_002,topicA,topicA-214,172.172.1.2:1883,1551657696363,PRODUCED
Publisher_002,topicA,topicA-215,172.172.1.2:1883,1551657696464,PRODUCED
Publisher_002,topicA,topicA-216,172.172.1.2:1883,1551657696563,PRODUCED
Publisher_002,topicA,topicA-217,172.172.1.2:1883,1551657696663,PRODUCED
Publisher_002,topicA,topicA-218,172.172.1.2:1883,1551657696764,PRODUCED
Publisher_002,topicA,topicA-219,172.172.1.2:1883,1551657696864,PRODUCED
Publisher_002,topicA,topicA-220,172.172.1.2:1883,1551657696963,PRODUCED
Publisher_002,topicA,topicA-221,172.172.1.2:1883,1551657697064,PRODUCED
Publisher_002,topicA,topicA-222,172.172.1.2:1883,1551657697164,PRODUCED
Publisher_002,topicA,topicA-223,172.172.1.2:1883,1551657697264,PRODUCED
Publisher_002,topicA,topicA-224,172.172.1.2:1883,1551657697363,PRODUCED
Publisher_002,topicA,topicA-225,172.172.1.2:1883,1551657697464,PRODUCED
Publisher_002,topicA,topicA-226,172.172.1.2:1883,1551657697563,PRODUCED
Publisher_002,topicA,topicA-227,172.172.1.2:1883,1551657697663,PRODUCED
Publisher_002,topicA,topicA-228,172.172.1.2:1883,1551657697764,PRODUCED
Publisher_002,topicA,topicA-229,172.172.1.2:1883,1551657697863,PRODUCED
Publisher_002,topicA,topicA-230,172.172.1.2:1883,1551657697964,PRODUCED
Publisher_002,topicA,topicA-231,172.172.1.2:1883,1551657698063,PRODUCED
Publisher_002,topicA,topicA-232,172.172.1.2:1883,1551657698164,PRODUCED
Publisher_002,topicA,topicA-233,172.172.1.2:1883,1551657698264,PRODUCED
Publisher_002,topicA,topicA-234,172.172.1.2:1883,1551657698363,PRODUCED
Publisher_002,topicA,topicA-235,172.172.1.2:1883,1551657698464,PRODUCED
Publisher_002,topicA,topicA-236,172.172.1.2:1883,1551657698564,PRODUCED
Publisher_002,topicA,topicA-237,172.172.1.2:1883,1551657698663,PRODUCED
Publisher_002,topicA,topicA-238,172.172.1.2:1883,1551657698763,PRODUCED
Publisher_002,topicA,topicA-239,172.172.1.2:1883,1551657698863,PRODUCED
Publisher_002,topicA,topicA-240,172.172.1.2:1883,1551657698963,PRODUCED
Publisher_002,topicA,topicA-241,172.172.1.2:1883,1551657699064,PRODUCED
Publisher_002,topicA,topicA-242,172.172.1.2:1883,1551657699163,PRODUCED
Publisher_002,topicA,topicA-243,172.172.1.2:1883,1551657699264,PRODUCED
Publisher_002,topicA,topicA-244,172.172.1.2:1883,1551657699363,PRODUCED
Publisher_002,topicA,topicA-245,172.172.1.2:1883,1551657699463,PRODUCED
Publisher_002,topicA,topicA-246,172.172.1.2:1883,1551657699563,PRODUCED
Publisher_002,topicA,topicA-247,172.172.1.2:1883,1551657699663,PRODUCED
Publisher_002,topicA,topicA-248,172.172.1.2:1883,1551657699763,PRODUCED
Publisher_002,topicA,topicA-249,172.172.1.2:1883,1551657699863,PRODUCED
Publisher_002,topicA,topicA-250,172.172.1.2:1883,1551657699963,PRODUCED
Publisher_002,topicA,topicA-251,172.172.1.2:1883,1551657700063,PRODUCED
Publisher_002,topicA,topicA-252,172.172.1.2:1883,1551657700163,PRODUCED
Publisher_002,topicA,topicA-253,172.172.1.2:1883,1551657700263,PRODUCED
Publisher_002,topicA,topicA-254,172.172.1.2:1883,1551657700363,PRODUCED
Publisher_002,topicA,topicA-255,172.172.1.2:1883,1551657700464,PRODUCED
Publisher_002,topicA,topicA-256,172.172.1.2:1883,1551657700564,PRODUCED
Publisher_002,topicA,topicA-257,172.172.1.2:1883,1551657700663,PRODUCED
Publisher_002,topicA,topicA-258,172.172.1.2:1883,1551657700763,PRODUCED
Publisher_002,topicA,topicA-259,172.172.1.2:1883,1551657700864,PRODUCED
Publisher_002,topicA,topicA-260,172.172.1.2:1883,1551657700964,PRODUCED
Publisher_002,topicA,topicA-261,172.172.1.2:1883,1551657701066,PRODUCED
Publisher_002,topicA,topicA-262,172.172.1.2:1883,1551657701163,PRODUCED
Publisher_002,topicA,topicA-263,172.172.1.2:1883,1551657701263,PRODUCED
Publisher_002,topicA,topicA-264,172.172.1.2:1883,1551657701363,PRODUCED
Publisher_002,topicA,topicA-265,172.172.1.2:1883,1551657701463,PRODUCED
Publisher_002,topicA,topicA-266,172.172.1.2:1883,1551657701563,PRODUCED
Publisher_002,topicA,topicA-267,172.172.1.2:1883,1551657701664,PRODUCED
Publisher_002,topicA,topicA-268,172.172.1.2:1883,1551657701764,PRODUCED
Publisher_002,topicA,topicA-269,172.172.1.2:1883,1551657701864,PRODUCED
Publisher_002,topicA,topicA-270,172.172.1.2:1883,1551657701964,PRODUCED
Publisher_002,topicA,topicA-271,172.172.1.2:1883,1551657702063,PRODUCED
Publisher_002,topicA,topicA-272,172.172.1.2:1883,1551657702163,PRODUCED
Publisher_002,topicA,topicA-273,172.172.1.2:1883,1551657702263,PRODUCED
Publisher_002,topicA,topicA-274,172.172.1.2:1883,1551657702363,PRODUCED
Publisher_002,topicA,topicA-275,172.172.1.2:1883,1551657702464,PRODUCED
Publisher_002,topicA,topicA-276,172.172.1.2:1883,1551657702563,PRODUCED
Publisher_002,topicA,topicA-277,172.172.1.2:1883,1551657702664,PRODUCED
Publisher_002,topicA,topicA-278,172.172.1.2:1883,1551657702765,PRODUCED
Publisher_002,topicA,topicA-279,172.172.1.2:1883,1551657702864,PRODUCED
Publisher_002,topicA,topicA-280,172.172.1.2:1883,1551657702964,PRODUCED
Publisher_002,topicA,topicA-281,172.172.1.2:1883,1551657703064,PRODUCED
Publisher_002,topicA,topicA-282,172.172.1.2:1883,1551657703163,PRODUCED
Publisher_002,topicA,topicA-283,172.172.1.2:1883,1551657703263,PRODUCED
Publisher_002,topicA,topicA-284,172.172.1.2:1883,1551657703364,PRODUCED
Publisher_002,topicA,topicA-285,172.172.1.2:1883,1551657703464,PRODUCED
Publisher_002,topicA,topicA-286,172.172.1.2:1883,1551657703565,PRODUCED
Publisher_002,topicA,topicA-287,172.172.1.2:1883,1551657703664,PRODUCED
Publisher_002,topicA,topicA-288,172.172.1.2:1883,1551657703765,PRODUCED
Publisher_002,topicA,topicA-289,172.172.1.2:1883,1551657703864,PRODUCED
Publisher_002,topicA,topicA-290,172.172.1.2:1883,1551657703963,PRODUCED
Publisher_002,topicA,topicA-291,172.172.1.2:1883,1551657704064,PRODUCED
Publisher_002,topicA,topicA-292,172.172.1.2:1883,1551657704163,PRODUCED
Publisher_002,topicA,topicA-293,172.172.1.2:1883,1551657704263,PRODUCED
Publisher_002,topicA,topicA-294,172.172.1.2:1883,1551657704364,PRODUCED
Publisher_002,topicA,topicA-295,172.172.1.2:1883,1551657704464,PRODUCED
Publisher_002,topicA,topicA-296,172.172.1.2:1883,1551657704565,PRODUCED
Publisher_002,topicA,topicA-297,172.172.1.2:1883,1551657704664,PRODUCED
Publisher_002,topicA,topicA-298,172.172.1.2:1883,1551657704764,PRODUCED
Publisher_002,topicA,topicA-299,172.172.1.2:1883,1551657704864,PRODUCED
Publisher_002,topicA,topicA-300,172.172.1.2:1883,1551657704963,PRODUCED
Publisher_002,topicA,topicA-301,172.172.1.2:1883,1551657705064,PRODUCED
Publisher_002,topicA,topicA-302,172.172.1.2:1883,1551657705163,PRODUCED
Publisher_002,topicA,topicA-303,172.172.1.2:1883,1551657705263,PRODUCED
Publisher_002,topicA,topicA-304,172.172.1.2:1883,1551657705366,PRODUCED
Publisher_002,topicA,topicA-305,172.172.1.2:1883,1551657705463,PRODUCED
Publisher_002,topicA,topicA-306,172.172.1.2:1883,1551657705563,PRODUCED
Publisher_002,topicA,topicA-307,172.172.1.2:1883,1551657705663,PRODUCED
Publisher_002,topicA,topicA-308,172.172.1.2:1883,1551657705763,PRODUCED
Publisher_002,topicA,topicA-309,172.172.1.2:1883,1551657705863,PRODUCED
Publisher_002,topicA,topicA-310,172.172.1.2:1883,1551657705963,PRODUCED
Publisher_002,topicA,topicA-311,172.172.1.2:1883,1551657706063,PRODUCED
Publisher_002,topicA,topicA-312,172.172.1.2:1883,1551657706163,PRODUCED
Publisher_002,topicA,topicA-313,172.172.1.2:1883,1551657706264,PRODUCED
Publisher_002,topicA,topicA-314,172.172.1.2:1883,1551657706363,PRODUCED
Publisher_002,topicA,topicA-315,172.172.1.2:1883,1551657706463,PRODUCED
Publisher_002,topicA,topicA-316,172.172.1.2:1883,1551657706563,PRODUCED
Publisher_002,topicA,topicA-317,172.172.1.2:1883,1551657706669,PRODUCED
Publisher_002,topicA,topicA-318,172.172.1.2:1883,1551657706764,PRODUCED
Publisher_002,topicA,topicA-319,172.172.1.2:1883,1551657706864,PRODUCED
Publisher_002,topicA,topicA-320,172.172.1.2:1883,1551657706964,PRODUCED
Publisher_002,topicA,topicA-321,172.172.1.2:1883,1551657707064,PRODUCED
Publisher_002,topicA,topicA-322,172.172.1.2:1883,1551657707163,PRODUCED
Publisher_002,topicA,topicA-323,172.172.1.2:1883,1551657707264,PRODUCED
Publisher_002,topicA,topicA-324,172.172.1.2:1883,1551657707364,PRODUCED
Publisher_002,topicA,topicA-325,172.172.1.2:1883,1551657707463,PRODUCED
Publisher_002,topicA,topicA-326,172.172.1.2:1883,1551657707567,PRODUCED
Publisher_002,topicA,topicA-327,172.172.1.2:1883,1551657707664,PRODUCED
Publisher_002,topicA,topicA-328,172.172.1.2:1883,1551657707764,PRODUCED
Publisher_002,topicA,topicA-329,172.172.1.2:1883,1551657707864,PRODUCED
Publisher_002,topicA,topicA-330,172.172.1.2:1883,1551657707964,PRODUCED
Publisher_002,topicA,topicA-331,172.172.1.2:1883,1551657708064,PRODUCED
Publisher_002,topicA,topicA-332,172.172.1.2:1883,1551657708163,PRODUCED
Publisher_002,topicA,topicA-333,172.172.1.2:1883,1551657708263,PRODUCED
Publisher_002,topicA,topicA-334,172.172.1.2:1883,1551657708364,PRODUCED
Publisher_002,topicA,topicA-335,172.172.1.2:1883,1551657708463,PRODUCED
Publisher_002,topicA,topicA-336,172.172.1.2:1883,1551657708563,PRODUCED
Publisher_002,topicA,topicA-337,172.172.1.2:1883,1551657708663,PRODUCED
Publisher_002,topicA,topicA-338,172.172.1.2:1883,1551657708763,PRODUCED
Publisher_002,topicA,topicA-339,172.172.1.2:1883,1551657708863,PRODUCED
Publisher_002,topicA,topicA-340,172.172.1.2:1883,1551657708964,PRODUCED
Publisher_002,topicA,topicA-341,172.172.1.2:1883,1551657709064,PRODUCED
Publisher_002,topicA,topicA-342,172.172.1.2:1883,1551657709164,PRODUCED
Publisher_002,topicA,topicA-343,172.172.1.2:1883,1551657709263,PRODUCED
Publisher_002,topicA,topicA-344,172.172.1.2:1883,1551657709364,PRODUCED
Publisher_002,topicA,topicA-345,172.172.1.2:1883,1551657709464,PRODUCED
Publisher_002,topicA,topicA-346,172.172.1.2:1883,1551657709564,PRODUCED
Publisher_002,topicA,topicA-347,172.172.1.2:1883,1551657709663,PRODUCED
Publisher_002,topicA,topicA-348,172.172.1.2:1883,1551657709763,PRODUCED
Publisher_002,topicA,topicA-349,172.172.1.2:1883,1551657709866,PRODUCED
Publisher_002,topicA,topicA-350,172.172.1.2:1883,1551657709963,PRODUCED
Publisher_002,topicA,topicA-351,172.172.1.2:1883,1551657710065,PRODUCED
Publisher_002,topicA,topicA-352,172.172.1.2:1883,1551657710163,PRODUCED
Publisher_002,topicA,topicA-353,172.172.1.2:1883,1551657710265,PRODUCED
Publisher_002,topicA,topicA-354,172.172.1.2:1883,1551657710363,PRODUCED
Publisher_002,topicA,topicA-355,172.172.1.2:1883,1551657710464,PRODUCED
Publisher_002,topicA,topicA-356,172.172.1.2:1883,1551657710564,PRODUCED
Publisher_002,topicA,topicA-357,172.172.1.2:1883,1551657710663,PRODUCED
Publisher_002,topicA,topicA-358,172.172.1.2:1883,1551657710764,PRODUCED
Publisher_002,topicA,topicA-359,172.172.1.2:1883,1551657710863,PRODUCED
Publisher_002,topicA,topicA-360,172.172.1.2:1883,1551657710965,PRODUCED
Publisher_002,topicA,topicA-361,172.172.1.2:1883,1551657711063,PRODUCED
Publisher_002,topicA,topicA-362,172.172.1.2:1883,1551657711163,PRODUCED
Publisher_002,topicA,topicA-363,172.172.1.2:1883,1551657711264,PRODUCED
Publisher_002,topicA,topicA-364,172.172.1.2:1883,1551657711363,PRODUCED
Publisher_002,topicA,topicA-365,172.172.1.2:1883,1551657711463,PRODUCED
Publisher_002,topicA,topicA-366,172.172.1.2:1883,1551657711563,PRODUCED
Publisher_002,topicA,topicA-367,172.172.1.2:1883,1551657711664,PRODUCED
Publisher_002,topicA,topicA-368,172.172.1.2:1883,1551657711764,PRODUCED
Publisher_002,topicA,topicA-369,172.172.1.2:1883,1551657711864,PRODUCED
Publisher_002,topicA,topicA-370,172.172.1.2:1883,1551657711963,PRODUCED
Publisher_002,topicA,topicA-371,172.172.1.2:1883,1551657712064,PRODUCED
Publisher_002,topicA,topicA-372,172.172.1.2:1883,1551657712167,PRODUCED
Publisher_002,topicA,topicA-373,172.172.1.2:1883,1551657712264,PRODUCED
Publisher_002,topicA,topicA-374,172.172.1.2:1883,1551657712364,PRODUCED
Publisher_002,topicA,topicA-375,172.172.1.2:1883,1551657712464,PRODUCED
Publisher_002,topicA,topicA-376,172.172.1.2:1883,1551657712563,PRODUCED
Publisher_002,topicA,topicA-377,172.172.1.2:1883,1551657712664,PRODUCED
Publisher_002,topicA,topicA-378,172.172.1.2:1883,1551657712764,PRODUCED
Publisher_002,topicA,topicA-379,172.172.1.2:1883,1551657712864,PRODUCED
Publisher_002,topicA,topicA-380,172.172.1.2:1883,1551657712964,PRODUCED
Publisher_002,topicA,topicA-381,172.172.1.2:1883,1551657713066,PRODUCED
Publisher_002,topicA,topicA-382,172.172.1.2:1883,1551657713165,PRODUCED
Publisher_002,topicA,topicA-383,172.172.1.2:1883,1551657713264,PRODUCED
Publisher_002,topicA,topicA-384,172.172.1.2:1883,1551657713364,PRODUCED
Publisher_002,topicA,topicA-385,172.172.1.2:1883,1551657713463,PRODUCED
Publisher_002,topicA,topicA-386,172.172.1.2:1883,1551657713563,PRODUCED
Publisher_002,topicA,topicA-387,172.172.1.2:1883,1551657713664,PRODUCED
Publisher_002,topicA,topicA-388,172.172.1.2:1883,1551657713765,PRODUCED
Publisher_002,topicA,topicA-389,172.172.1.2:1883,1551657713864,PRODUCED
Publisher_002,topicA,topicA-390,172.172.1.2:1883,1551657713964,PRODUCED
Publisher_002,topicA,topicA-391,172.172.1.2:1883,1551657714063,PRODUCED
Publisher_002,topicA,topicA-392,172.172.1.2:1883,1551657714164,PRODUCED
Publisher_002,topicA,topicA-393,172.172.1.2:1883,1551657714263,PRODUCED
Publisher_002,topicA,topicA-394,172.172.1.2:1883,1551657714364,PRODUCED
Publisher_002,topicA,topicA-395,172.172.1.2:1883,1551657714464,PRODUCED
Publisher_002,topicA,topicA-396,172.172.1.2:1883,1551657714564,PRODUCED
Publisher_002,topicA,topicA-397,172.172.1.2:1883,1551657714664,PRODUCED
Publisher_002,topicA,topicA-398,172.172.1.2:1883,1551657714764,PRODUCED
Publisher_002,topicA,topicA-399,172.172.1.2:1883,1551657714863,PRODUCED
Publisher_002,topicA,topicA-400,172.172.1.2:1883,1551657714963,PRODUCED
Publisher_002,topicA,topicA-401,172.172.1.2:1883,1551657715064,PRODUCED
Publisher_002,topicA,topicA-402,172.172.1.2:1883,1551657715163,PRODUCED
Publisher_002,topicA,topicA-403,172.172.1.2:1883,1551657715265,PRODUCED
Publisher_002,topicA,topicA-404,172.172.1.2:1883,1551657715364,PRODUCED
Publisher_002,topicA,topicA-405,172.172.1.2:1883,1551657715464,PRODUCED
Publisher_002,topicA,topicA-406,172.172.1.2:1883,1551657715563,PRODUCED
Publisher_002,topicA,topicA-407,172.172.1.2:1883,1551657715663,PRODUCED
Publisher_002,topicA,topicA-408,172.172.1.2:1883,1551657715763,PRODUCED
Publisher_002,topicA,topicA-409,172.172.1.2:1883,1551657715864,PRODUCED
Publisher_002,topicA,topicA-410,172.172.1.2:1883,1551657715963,PRODUCED
Publisher_002,topicA,topicA-411,172.172.1.2:1883,1551657716063,PRODUCED
Publisher_002,topicA,topicA-412,172.172.1.2:1883,1551657716166,PRODUCED
Publisher_002,topicA,topicA-413,172.172.1.2:1883,1551657716264,PRODUCED
Publisher_002,topicA,topicA-414,172.172.1.2:1883,1551657716364,PRODUCED
Publisher_002,topicA,topicA-415,172.172.1.2:1883,1551657716464,PRODUCED
Publisher_002,topicA,topicA-416,172.172.1.2:1883,1551657716563,PRODUCED
Publisher_002,topicA,topicA-417,172.172.1.2:1883,1551657716664,PRODUCED
Publisher_002,topicA,topicA-418,172.172.1.2:1883,1551657716764,PRODUCED
Publisher_002,topicA,topicA-419,172.172.1.2:1883,1551657716863,PRODUCED
Publisher_002,topicA,topicA-420,172.172.1.2:1883,1551657716964,PRODUCED
Publisher_002,topicA,topicA-421,172.172.1.2:1883,1551657717064,PRODUCED
Publisher_002,topicA,topicA-422,172.172.1.2:1883,1551657717163,PRODUCED
Publisher_002,topicA,topicA-423,172.172.1.2:1883,1551657717263,PRODUCED
Publisher_002,topicA,topicA-424,172.172.1.2:1883,1551657717363,PRODUCED
Publisher_002,topicA,topicA-425,172.172.1.2:1883,1551657717463,PRODUCED
Publisher_002,topicA,topicA-426,172.172.1.2:1883,1551657717564,PRODUCED
Publisher_002,topicA,topicA-427,172.172.1.2:1883,1551657717664,PRODUCED
Publisher_002,topicA,topicA-428,172.172.1.2:1883,1551657717764,PRODUCED
Publisher_002,topicA,topicA-429,172.172.1.2:1883,1551657717863,PRODUCED
Publisher_002,topicA,topicA-430,172.172.1.2:1883,1551657717963,PRODUCED
Publisher_002,topicA,topicA-431,172.172.1.2:1883,1551657718065,PRODUCED
Publisher_002,topicA,topicA-432,172.172.1.2:1883,1551657718163,PRODUCED
Publisher_002,topicA,topicA-433,172.172.1.2:1883,1551657718263,PRODUCED
Publisher_002,topicA,topicA-434,172.172.1.2:1883,1551657718363,PRODUCED
Publisher_002,topicA,topicA-435,172.172.1.2:1883,1551657718463,PRODUCED
Publisher_002,topicA,topicA-436,172.172.1.2:1883,1551657718563,PRODUCED
Publisher_002,topicA,topicA-437,172.172.1.2:1883,1551657718663,PRODUCED
Publisher_002,topicA,topicA-438,172.172.1.2:1883,1551657718764,PRODUCED
Publisher_002,topicA,topicA-439,172.172.1.2:1883,1551657718864,PRODUCED
Publisher_002,topicA,topicA-440,172.172.1.2:1883,1551657718963,PRODUCED
Publisher_002,topicA,topicA-441,172.172.1.2:1883,1551657719064,PRODUCED
Publisher_002,topicA,topicA-442,172.172.1.2:1883,1551657719164,PRODUCED
Publisher_002,topicA,topicA-443,172.172.1.2:1883,1551657719264,PRODUCED
Publisher_002,topicA,topicA-444,172.172.1.2:1883,1551657719363,PRODUCED
Publisher_002,topicA,topicA-445,172.172.1.2:1883,1551657719463,PRODUCED
Publisher_002,topicA,topicA-446,172.172.1.2:1883,1551657719563,PRODUCED
Publisher_002,topicA,topicA-447,172.172.1.2:1883,1551657719663,PRODUCED
Publisher_002,topicA,topicA-448,172.172.1.2:1883,1551657719763,PRODUCED
Publisher_002,topicA,topicA-449,172.172.1.2:1883,1551657719863,PRODUCED
Publisher_002,topicA,topicA-450,172.172.1.2:1883,1551657719963,PRODUCED
Publisher_002,topicA,topicA-451,172.172.1.2:1883,1551657720064,PRODUCED
Publisher_002,topicA,topicA-452,172.172.1.2:1883,1551657720164,PRODUCED
Publisher_002,topicA,topicA-453,172.172.1.2:1883,1551657720264,PRODUCED
Publisher_002,topicA,topicA-454,172.172.1.2:1883,1551657720364,PRODUCED
Publisher_002,topicA,topicA-455,172.172.1.2:1883,1551657720465,PRODUCED
Publisher_002,topicA,topicA-456,172.172.1.2:1883,1551657720564,PRODUCED
Publisher_002,topicA,topicA-457,172.172.1.2:1883,1551657720665,PRODUCED
Publisher_002,topicA,topicA-458,172.172.1.2:1883,1551657720764,PRODUCED
Publisher_002,topicA,topicA-459,172.172.1.2:1883,1551657720864,PRODUCED
Publisher_002,topicA,topicA-460,172.172.1.2:1883,1551657720964,PRODUCED
Publisher_002,topicA,topicA-461,172.172.1.2:1883,1551657721064,PRODUCED
Publisher_002,topicA,topicA-462,172.172.1.2:1883,1551657721164,PRODUCED
Publisher_002,topicA,topicA-463,172.172.1.2:1883,1551657721264,PRODUCED
Publisher_002,topicA,topicA-464,172.172.1.2:1883,1551657721364,PRODUCED
Publisher_002,topicA,topicA-465,172.172.1.2:1883,1551657721464,PRODUCED
Publisher_002,topicA,topicA-466,172.172.1.2:1883,1551657721564,PRODUCED
Publisher_002,topicA,topicA-467,172.172.1.2:1883,1551657721664,PRODUCED
Publisher_002,topicA,topicA-468,172.172.1.2:1883,1551657721763,PRODUCED
Publisher_002,topicA,topicA-469,172.172.1.2:1883,1551657721864,PRODUCED
Publisher_002,topicA,topicA-470,172.172.1.2:1883,1551657721963,PRODUCED
Publisher_002,topicA,topicA-471,172.172.1.2:1883,1551657722073,PRODUCED
Publisher_002,topicA,topicA-472,172.172.1.2:1883,1551657722164,PRODUCED
Publisher_002,topicA,topicA-473,172.172.1.2:1883,1551657722263,PRODUCED
Publisher_002,topicA,topicA-474,172.172.1.2:1883,1551657722363,PRODUCED
Publisher_002,topicA,topicA-475,172.172.1.2:1883,1551657722475,PRODUCED
Publisher_002,topicA,topicA-476,172.172.1.2:1883,1551657722563,PRODUCED
Publisher_002,topicA,topicA-477,172.172.1.2:1883,1551657722664,PRODUCED
Publisher_002,topicA,topicA-478,172.172.1.2:1883,1551657722764,PRODUCED
Publisher_002,topicA,topicA-479,172.172.1.2:1883,1551657722864,PRODUCED
Publisher_002,topicA,topicA-480,172.172.1.2:1883,1551657722963,PRODUCED
Publisher_002,topicA,topicA-481,172.172.1.2:1883,1551657723063,PRODUCED
Publisher_002,topicA,topicA-482,172.172.1.2:1883,1551657723164,PRODUCED
Publisher_002,topicA,topicA-483,172.172.1.2:1883,1551657723263,PRODUCED
Publisher_002,topicA,topicA-484,172.172.1.2:1883,1551657723363,PRODUCED
Publisher_002,topicA,topicA-485,172.172.1.2:1883,1551657723464,PRODUCED
Publisher_002,topicA,topicA-486,172.172.1.2:1883,1551657723564,PRODUCED
Publisher_002,topicA,topicA-487,172.172.1.2:1883,1551657723666,PRODUCED
Publisher_002,topicA,topicA-488,172.172.1.2:1883,1551657723763,PRODUCED
Publisher_002,topicA,topicA-489,172.172.1.2:1883,1551657723863,PRODUCED
Publisher_002,topicA,topicA-490,172.172.1.2:1883,1551657723963,PRODUCED
Publisher_002,topicA,topicA-491,172.172.1.2:1883,1551657724074,PRODUCED
Publisher_002,topicA,topicA-492,172.172.1.2:1883,1551657724163,PRODUCED
Publisher_002,topicA,topicA-493,172.172.1.2:1883,1551657724263,PRODUCED
Publisher_002,topicA,topicA-494,172.172.1.2:1883,1551657724365,PRODUCED
Publisher_002,topicA,topicA-495,172.172.1.2:1883,1551657724463,PRODUCED
Publisher_002,topicA,topicA-496,172.172.1.2:1883,1551657724563,PRODUCED
Publisher_002,topicA,topicA-497,172.172.1.2:1883,1551657724663,PRODUCED
Publisher_002,topicA,topicA-498,172.172.1.2:1883,1551657724763,PRODUCED
Publisher_002,topicA,topicA-499,172.172.1.2:1883,1551657724863,PRODUCED
Publisher_002,topicA,topicA-500,172.172.1.2:1883,1551657724963,PRODUCED
Publisher_002,topicA,topicA-501,172.172.1.2:1883,1551657725064,PRODUCED
Publisher_002,topicA,topicA-502,172.172.1.2:1883,1551657725163,PRODUCED
Publisher_002,topicA,topicA-503,172.172.1.2:1883,1551657725263,PRODUCED
Publisher_002,topicA,topicA-504,172.172.1.2:1883,1551657725363,PRODUCED
Publisher_002,topicA,topicA-505,172.172.1.2:1883,1551657725464,PRODUCED
Publisher_002,topicA,topicA-506,172.172.1.2:1883,1551657725563,PRODUCED
Publisher_002,topicA,topicA-507,172.172.1.2:1883,1551657725664,PRODUCED
Publisher_002,topicA,topicA-508,172.172.1.2:1883,1551657725764,PRODUCED
Publisher_002,topicA,topicA-509,172.172.1.2:1883,1551657725864,PRODUCED
Publisher_002,topicA,topicA-510,172.172.1.2:1883,1551657725963,PRODUCED
Publisher_002,topicA,topicA-511,172.172.1.2:1883,1551657726063,PRODUCED
Publisher_002,topicA,topicA-512,172.172.1.2:1883,1551657726163,PRODUCED
Publisher_002,topicA,topicA-513,172.172.1.2:1883,1551657726264,PRODUCED
Publisher_002,topicA,topicA-514,172.172.1.2:1883,1551657726364,PRODUCED
Publisher_002,topicA,topicA-515,172.172.1.2:1883,1551657726464,PRODUCED
Publisher_002,topicA,topicA-516,172.172.1.2:1883,1551657726564,PRODUCED
Publisher_002,topicA,topicA-517,172.172.1.2:1883,1551657726664,PRODUCED
Publisher_002,topicA,topicA-518,172.172.1.2:1883,1551657726763,PRODUCED
Publisher_002,topicA,topicA-519,172.172.1.2:1883,1551657726863,PRODUCED
Publisher_002,topicA,topicA-520,172.172.1.2:1883,1551657726964,PRODUCED
Publisher_002,topicA,topicA-521,172.172.1.2:1883,1551657727063,PRODUCED
Publisher_002,topicA,topicA-522,172.172.1.2:1883,1551657727163,PRODUCED
Publisher_002,topicA,topicA-523,172.172.1.2:1883,1551657727265,PRODUCED
Publisher_002,topicA,topicA-524,172.172.1.2:1883,1551657727363,PRODUCED
Publisher_002,topicA,topicA-525,172.172.1.2:1883,1551657727463,PRODUCED
Publisher_002,topicA,topicA-526,172.172.1.2:1883,1551657727563,PRODUCED
Publisher_002,topicA,topicA-527,172.172.1.2:1883,1551657727663,PRODUCED
Publisher_002,topicA,topicA-528,172.172.1.2:1883,1551657727777,PRODUCED
Publisher_002,topicA,topicA-529,172.172.1.2:1883,1551657727863,PRODUCED
Publisher_002,topicA,topicA-530,172.172.1.2:1883,1551657727964,PRODUCED
Publisher_002,topicA,topicA-531,172.172.1.2:1883,1551657728063,PRODUCED
Publisher_002,topicA,topicA-532,172.172.1.2:1883,1551657728163,PRODUCED
Publisher_002,topicA,topicA-533,172.172.1.2:1883,1551657728263,PRODUCED
Publisher_002,topicA,topicA-534,172.172.1.2:1883,1551657728363,PRODUCED
Publisher_002,topicA,topicA-535,172.172.1.2:1883,1551657728464,PRODUCED
Publisher_002,topicA,topicA-536,172.172.1.2:1883,1551657728564,PRODUCED
Publisher_002,topicA,topicA-537,172.172.1.2:1883,1551657728664,PRODUCED
Publisher_002,topicA,topicA-538,172.172.1.2:1883,1551657728763,PRODUCED
Publisher_002,topicA,topicA-539,172.172.1.2:1883,1551657728865,PRODUCED
Publisher_002,topicA,topicA-540,172.172.1.2:1883,1551657728963,PRODUCED
Publisher_002,topicA,topicA-541,172.172.1.2:1883,1551657729063,PRODUCED
Publisher_002,topicA,topicA-542,172.172.1.2:1883,1551657729163,PRODUCED
Publisher_002,topicA,topicA-543,172.172.1.2:1883,1551657729263,PRODUCED
Publisher_002,topicA,topicA-544,172.172.1.2:1883,1551657729363,PRODUCED
Publisher_002,topicA,topicA-545,172.172.1.2:1883,1551657729463,PRODUCED
Publisher_002,topicA,topicA-546,172.172.1.2:1883,1551657729563,PRODUCED
Publisher_002,topicA,topicA-547,172.172.1.2:1883,1551657729663,PRODUCED
Publisher_002,topicA,topicA-548,172.172.1.2:1883,1551657729763,PRODUCED
Publisher_002,topicA,topicA-549,172.172.1.2:1883,1551657729863,PRODUCED
Publisher_002,topicA,topicA-550,172.172.1.2:1883,1551657729964,PRODUCED
Publisher_002,topicA,topicA-551,172.172.1.2:1883,1551657730063,PRODUCED
Publisher_002,topicA,topicA-552,172.172.1.2:1883,1551657730164,PRODUCED
Publisher_002,topicA,topicA-553,172.172.1.2:1883,1551657730264,PRODUCED
Publisher_002,topicA,topicA-554,172.172.1.2:1883,1551657730364,PRODUCED
Publisher_002,topicA,topicA-555,172.172.1.2:1883,1551657730463,PRODUCED
Publisher_002,topicA,topicA-556,172.172.1.2:1883,1551657730563,PRODUCED
Publisher_002,topicA,topicA-557,172.172.1.2:1883,1551657730663,PRODUCED
Publisher_002,topicA,topicA-558,172.172.1.2:1883,1551657730764,PRODUCED
Publisher_002,topicA,topicA-559,172.172.1.2:1883,1551657730863,PRODUCED
Publisher_002,topicA,topicA-560,172.172.1.2:1883,1551657730963,PRODUCED
Publisher_002,topicA,topicA-561,172.172.1.2:1883,1551657731064,PRODUCED
Publisher_002,topicA,topicA-562,172.172.1.2:1883,1551657731164,PRODUCED
Publisher_002,topicA,topicA-563,172.172.1.2:1883,1551657731264,PRODUCED
Publisher_002,topicA,topicA-564,172.172.1.2:1883,1551657731364,PRODUCED
Publisher_002,topicA,topicA-565,172.172.1.2:1883,1551657731464,PRODUCED
Publisher_002,topicA,topicA-566,172.172.1.2:1883,1551657731563,PRODUCED
Publisher_002,topicA,topicA-567,172.172.1.2:1883,1551657731663,PRODUCED
Publisher_002,topicA,topicA-568,172.172.1.2:1883,1551657731763,PRODUCED
Publisher_002,topicA,topicA-569,172.172.1.2:1883,1551657731863,PRODUCED
Publisher_002,topicA,topicA-570,172.172.1.2:1883,1551657731963,PRODUCED
Publisher_002,topicA,topicA-571,172.172.1.2:1883,1551657732064,PRODUCED
Publisher_002,topicA,topicA-572,172.172.1.2:1883,1551657732165,PRODUCED
Publisher_002,topicA,topicA-573,172.172.1.2:1883,1551657732263,PRODUCED
Publisher_002,topicA,topicA-574,172.172.1.2:1883,1551657732365,PRODUCED
Publisher_002,topicA,topicA-575,172.172.1.2:1883,1551657732463,PRODUCED
Publisher_002,topicA,topicA-576,172.172.1.2:1883,1551657732571,PRODUCED
Publisher_002,topicA,topicA-577,172.172.1.2:1883,1551657732664,PRODUCED
Publisher_002,topicA,topicA-578,172.172.1.2:1883,1551657732764,PRODUCED
Publisher_002,topicA,topicA-579,172.172.1.2:1883,1551657732863,PRODUCED
Publisher_002,topicA,topicA-580,172.172.1.2:1883,1551657732964,PRODUCED
Publisher_002,topicA,topicA-581,172.172.1.2:1883,1551657733067,PRODUCED
Publisher_002,topicA,topicA-582,172.172.1.2:1883,1551657733164,PRODUCED
Publisher_002,topicA,topicA-583,172.172.1.2:1883,1551657733263,PRODUCED
Publisher_002,topicA,topicA-584,172.172.1.2:1883,1551657733363,PRODUCED
Publisher_002,topicA,topicA-585,172.172.1.2:1883,1551657733463,PRODUCED
Publisher_002,topicA,topicA-586,172.172.1.2:1883,1551657733563,PRODUCED
Publisher_002,topicA,topicA-587,172.172.1.2:1883,1551657733664,PRODUCED
Publisher_002,topicA,topicA-588,172.172.1.2:1883,1551657733763,PRODUCED
Publisher_002,topicA,topicA-589,172.172.1.2:1883,1551657733863,PRODUCED
Publisher_002,topicA,topicA-590,172.172.1.2:1883,1551657733963,PRODUCED
Publisher_002,topicA,topicA-591,172.172.1.2:1883,1551657734064,PRODUCED
Publisher_002,topicA,topicA-592,172.172.1.2:1883,1551657734164,PRODUCED
Publisher_002,topicA,topicA-593,172.172.1.2:1883,1551657734264,PRODUCED
Publisher_002,topicA,topicA-594,172.172.1.2:1883,1551657734363,PRODUCED
Publisher_002,topicA,topicA-595,172.172.1.2:1883,1551657734464,PRODUCED
Publisher_002,topicA,topicA-596,172.172.1.2:1883,1551657734563,PRODUCED
Publisher_002,topicA,topicA-597,172.172.1.2:1883,1551657734663,PRODUCED
Publisher_002,topicA,topicA-598,172.172.1.2:1883,1551657734763,PRODUCED
Publisher_002,topicA,topicA-599,172.172.1.2:1883,1551657734863,PRODUCED
Publisher_002,topicA,topicA-600,172.172.1.2:1883,1551657734965,PRODUCED
Publisher_002,topicA,topicA-601,172.172.1.2:1883,1551657735064,PRODUCED
Publisher_002,topicA,topicA-602,172.172.1.2:1883,1551657735164,PRODUCED
Publisher_002,topicA,topicA-603,172.172.1.2:1883,1551657735263,PRODUCED
Publisher_002,topicA,topicA-604,172.172.1.2:1883,1551657735363,PRODUCED
Publisher_002,topicA,topicA-605,172.172.1.2:1883,1551657735463,PRODUCED
Publisher_002,topicA,topicA-606,172.172.1.2:1883,1551657735564,PRODUCED
Publisher_002,topicA,topicA-607,172.172.1.2:1883,1551657735663,PRODUCED
Publisher_002,topicA,topicA-608,172.172.1.2:1883,1551657735764,PRODUCED
Publisher_002,topicA,topicA-609,172.172.1.2:1883,1551657735863,PRODUCED
Publisher_002,topicA,topicA-610,172.172.1.2:1883,1551657735963,PRODUCED
Publisher_002,topicA,topicA-611,172.172.1.2:1883,1551657736065,PRODUCED
Publisher_002,topicA,topicA-612,172.172.1.2:1883,1551657736163,PRODUCED
Publisher_002,topicA,topicA-613,172.172.1.2:1883,1551657736264,PRODUCED
Publisher_002,topicA,topicA-614,172.172.1.2:1883,1551657736364,PRODUCED
Publisher_002,topicA,topicA-615,172.172.1.2:1883,1551657736463,PRODUCED
Publisher_002,topicA,topicA-616,172.172.1.2:1883,1551657736565,PRODUCED
Publisher_002,topicA,topicA-617,172.172.1.2:1883,1551657736664,PRODUCED
Publisher_002,topicA,topicA-618,172.172.1.2:1883,1551657736763,PRODUCED
Publisher_002,topicA,topicA-619,172.172.1.2:1883,1551657736863,PRODUCED
Publisher_002,topicA,topicA-620,172.172.1.2:1883,1551657736963,PRODUCED
Publisher_002,topicA,topicA-621,172.172.1.2:1883,1551657737064,PRODUCED
Publisher_002,topicA,topicA-622,172.172.1.2:1883,1551657737163,PRODUCED
Publisher_002,topicA,topicA-623,172.172.1.2:1883,1551657737263,PRODUCED
Publisher_002,topicA,topicA-624,172.172.1.2:1883,1551657737364,PRODUCED
Publisher_002,topicA,topicA-625,172.172.1.2:1883,1551657737463,PRODUCED
Publisher_002,topicA,topicA-626,172.172.1.2:1883,1551657737563,PRODUCED
Publisher_002,topicA,topicA-627,172.172.1.2:1883,1551657737664,PRODUCED
Publisher_002,topicA,topicA-628,172.172.1.2:1883,1551657737763,PRODUCED
Publisher_002,topicA,topicA-629,172.172.1.2:1883,1551657737863,PRODUCED
Publisher_002,topicA,topicA-630,172.172.1.2:1883,1551657737963,PRODUCED
Publisher_002,topicA,topicA-631,172.172.1.2:1883,1551657738064,PRODUCED
Publisher_002,topicA,topicA-632,172.172.1.2:1883,1551657738170,PRODUCED
Publisher_002,topicA,topicA-633,172.172.1.2:1883,1551657738264,PRODUCED
Publisher_002,topicA,topicA-634,172.172.1.2:1883,1551657738363,PRODUCED
Publisher_002,topicA,topicA-635,172.172.1.2:1883,1551657738463,PRODUCED
Publisher_002,topicA,topicA-636,172.172.1.2:1883,1551657738567,PRODUCED
Publisher_002,topicA,topicA-637,172.172.1.2:1883,1551657738663,PRODUCED
Publisher_002,topicA,topicA-638,172.172.1.2:1883,1551657738763,PRODUCED
Publisher_002,topicA,topicA-639,172.172.1.2:1883,1551657738863,PRODUCED
Publisher_002,topicA,topicA-640,172.172.1.2:1883,1551657738963,PRODUCED
Publisher_002,topicA,topicA-641,172.172.1.2:1883,1551657739063,PRODUCED
Publisher_002,topicA,topicA-642,172.172.1.2:1883,1551657739164,PRODUCED
