clientId,topic,guid,broker,timestamp,type
Subscriber_001,topicA,topicA-54,172.172.1.1:1883,1551654930560,RECEIVED
Subscriber_001,topicA,topicA-55,172.172.1.1:1883,1551654930565,RECEIVED
Subscriber_001,topicA,topicA-56,172.172.1.1:1883,1551654930566,RECEIVED
Subscriber_001,topicA,topicA-57,172.172.1.1:1883,1551654930625,RECEIVED
Subscriber_001,topicA,topicA-58,172.172.1.1:1883,1551654930720,RECEIVED
Subscriber_001,topicA,topicA-59,172.172.1.1:1883,1551654930817,RECEIVED
Subscriber_001,topicA,topicA-60,172.172.1.1:1883,1551654930931,RECEIVED
Subscriber_001,topicA,topicA-61,172.172.1.1:1883,1551654931017,RECEIVED
Subscriber_001,topicA,topicA-62,172.172.1.1:1883,1551654931120,RECEIVED
Subscriber_001,topicA,topicA-63,172.172.1.1:1883,1551654931219,RECEIVED
Subscriber_001,topicA,topicA-64,172.172.1.1:1883,1551654931320,RECEIVED
Subscriber_001,topicA,topicA-65,172.172.1.1:1883,1551654931426,RECEIVED
Subscriber_001,topicA,topicA-66,172.172.1.1:1883,1551654931531,RECEIVED
Subscriber_001,topicA,topicA-67,172.172.1.1:1883,1551654931625,RECEIVED
Subscriber_001,topicA,topicA-68,172.172.1.1:1883,1551654931715,RECEIVED
Subscriber_001,topicA,topicA-69,172.172.1.1:1883,1551654931840,RECEIVED
Subscriber_001,topicA,topicA-70,172.172.1.1:1883,1551654931929,RECEIVED
Subscriber_001,topicA,topicA-71,172.172.1.1:1883,1551654932025,RECEIVED
Subscriber_001,topicA,topicA-72,172.172.1.1:1883,1551654932133,RECEIVED
Subscriber_001,topicA,topicA-73,172.172.1.1:1883,1551654932229,RECEIVED
Subscriber_001,topicA,topicA-74,172.172.1.1:1883,1551654932340,RECEIVED
Subscriber_001,topicA,topicA-75,172.172.1.1:1883,1551654932416,RECEIVED
Subscriber_001,topicA,topicA-76,172.172.1.1:1883,1551654932522,RECEIVED
Subscriber_001,topicA,topicA-77,172.172.1.1:1883,1551654932634,RECEIVED
Subscriber_001,topicA,topicA-78,172.172.1.1:1883,1551654932722,RECEIVED
Subscriber_001,topicA,topicA-79,172.172.1.1:1883,1551654932821,RECEIVED
Subscriber_001,topicA,topicA-80,172.172.1.1:1883,1551654932924,RECEIVED
Subscriber_001,topicA,topicA-81,172.172.1.1:1883,1551654933036,RECEIVED
Subscriber_001,topicA,topicA-82,172.172.1.1:1883,1551654933129,RECEIVED
Subscriber_001,topicA,topicA-83,172.172.1.1:1883,1551654933220,RECEIVED
Subscriber_001,topicA,topicA-84,172.172.1.1:1883,1551654933319,RECEIVED
Subscriber_001,topicA,topicA-85,172.172.1.1:1883,1551654933427,RECEIVED
Subscriber_001,topicA,topicA-86,172.172.1.1:1883,1551654933520,RECEIVED
Subscriber_001,topicA,topicA-87,172.172.1.1:1883,1551654933626,RECEIVED
Subscriber_001,topicA,topicA-88,172.172.1.1:1883,1551654933725,RECEIVED
Subscriber_001,topicA,topicA-89,172.172.1.1:1883,1551654933819,RECEIVED
Subscriber_001,topicA,topicA-90,172.172.1.1:1883,1551654933938,RECEIVED
Subscriber_001,topicA,topicA-91,172.172.1.1:1883,1551654934035,RECEIVED
Subscriber_001,topicA,topicA-92,172.172.1.1:1883,1551654934136,RECEIVED
Subscriber_001,topicA,topicA-93,172.172.1.1:1883,1551654934218,RECEIVED
Subscriber_001,topicA,topicA-94,172.172.1.1:1883,1551654934326,RECEIVED
Subscriber_001,topicA,topicA-95,172.172.1.1:1883,1551654934445,RECEIVED
Subscriber_001,topicA,topicA-96,172.172.1.1:1883,1551654934520,RECEIVED
Subscriber_001,topicA,topicA-97,172.172.1.1:1883,1551654934615,RECEIVED
Subscriber_001,topicA,topicA-98,172.172.1.1:1883,1551654934715,RECEIVED
Subscriber_001,topicA,topicA-99,172.172.1.1:1883,1551654934830,RECEIVED
Subscriber_001,topicA,topicA-100,172.172.1.1:1883,1551654934926,RECEIVED
Subscriber_001,topicA,topicA-101,172.172.1.1:1883,1551654935042,RECEIVED
Subscriber_001,topicA,topicA-102,172.172.1.1:1883,1551654935127,RECEIVED
Subscriber_001,topicA,topicA-103,172.172.1.1:1883,1551654935219,RECEIVED
Subscriber_001,topicA,topicA-104,172.172.1.1:1883,1551654935316,RECEIVED
Subscriber_001,topicA,topicA-105,172.172.1.1:1883,1551654935428,RECEIVED
Subscriber_001,topicA,topicA-106,172.172.1.1:1883,1551654935526,RECEIVED
Subscriber_001,topicA,topicA-107,172.172.1.1:1883,1551654935630,RECEIVED
Subscriber_001,topicA,topicA-108,172.172.1.1:1883,1551654935728,RECEIVED
Subscriber_001,topicA,topicA-109,172.172.1.1:1883,1551654935831,RECEIVED
Subscriber_001,topicA,topicA-110,172.172.1.1:1883,1551654935931,RECEIVED
Subscriber_001,topicA,topicA-111,172.172.1.1:1883,1551654936025,RECEIVED
Subscriber_001,topicA,topicA-112,172.172.1.1:1883,1551654936115,RECEIVED
Subscriber_001,topicA,topicA-113,172.172.1.1:1883,1551654936223,RECEIVED
Subscriber_001,topicA,topicA-114,172.172.1.1:1883,1551654936331,RECEIVED
Subscriber_001,topicA,topicA-115,172.172.1.1:1883,1551654936437,RECEIVED
Subscriber_001,topicA,topicA-116,172.172.1.1:1883,1551654936533,RECEIVED
Subscriber_001,topicA,topicA-117,172.172.1.1:1883,1551654936616,RECEIVED
Subscriber_001,topicA,topicA-118,172.172.1.1:1883,1551654936719,RECEIVED
Subscriber_001,topicA,topicA-119,172.172.1.1:1883,1551654936825,RECEIVED
Subscriber_001,topicA,topicA-120,172.172.1.1:1883,1551654936919,RECEIVED
Subscriber_001,topicA,topicA-121,172.172.1.1:1883,1551654937021,RECEIVED
Subscriber_001,topicA,topicA-122,172.172.1.1:1883,1551654937133,RECEIVED
Subscriber_001,topicA,topicA-123,172.172.1.1:1883,1551654937225,RECEIVED
Subscriber_001,topicA,topicA-124,172.172.1.1:1883,1551654937320,RECEIVED
Subscriber_001,topicA,topicA-125,172.172.1.1:1883,1551654937413,RECEIVED
Subscriber_001,topicA,topicA-126,172.172.1.1:1883,1551654937523,RECEIVED
Subscriber_001,topicA,topicA-127,172.172.1.1:1883,1551654937622,RECEIVED
Subscriber_001,topicA,topicA-128,172.172.1.1:1883,1551654937721,RECEIVED
Subscriber_001,topicA,topicA-129,172.172.1.1:1883,1551654937817,RECEIVED
Subscriber_001,topicA,topicA-130,172.172.1.1:1883,1551654937913,RECEIVED
Subscriber_001,topicA,topicA-131,172.172.1.1:1883,1551654938019,RECEIVED
Subscriber_001,topicA,topicA-132,172.172.1.1:1883,1551654938111,RECEIVED
Subscriber_001,topicA,topicA-133,172.172.1.1:1883,1551654938217,RECEIVED
Subscriber_001,topicA,topicA-134,172.172.1.1:1883,1551654938319,RECEIVED
Subscriber_001,topicA,topicA-135,172.172.1.1:1883,1551654938413,RECEIVED
Subscriber_001,topicA,topicA-136,172.172.1.1:1883,1551654938519,RECEIVED
Subscriber_001,topicA,topicA-137,172.172.1.1:1883,1551654938616,RECEIVED
Subscriber_001,topicA,topicA-138,172.172.1.1:1883,1551654938724,RECEIVED
Subscriber_001,topicA,topicA-139,172.172.1.1:1883,1551654938815,RECEIVED
Subscriber_001,topicA,topicA-140,172.172.1.1:1883,1551654938918,RECEIVED
Subscriber_001,topicA,topicA-141,172.172.1.1:1883,1551654939020,RECEIVED
Subscriber_001,topicA,topicA-142,172.172.1.1:1883,1551654939123,RECEIVED
Subscriber_001,topicA,topicA-143,172.172.1.1:1883,1551654939218,RECEIVED
Subscriber_001,topicA,topicA-144,172.172.1.1:1883,1551654939321,RECEIVED
Subscriber_001,topicA,topicA-145,172.172.1.1:1883,1551654939417,RECEIVED
Subscriber_001,topicA,topicA-146,172.172.1.1:1883,1551654939520,RECEIVED
Subscriber_001,topicA,topicA-147,172.172.1.1:1883,1551654939617,RECEIVED
Subscriber_001,topicA,topicA-148,172.172.1.1:1883,1551654939722,RECEIVED
Subscriber_001,topicA,topicA-149,172.172.1.1:1883,1551654939840,RECEIVED
Subscriber_001,topicA,topicA-150,172.172.1.1:1883,1551654939927,RECEIVED
Subscriber_001,topicA,topicA-151,172.172.1.1:1883,1551654940023,RECEIVED
Subscriber_001,topicA,topicA-152,172.172.1.1:1883,1551654940124,RECEIVED
Subscriber_001,topicA,topicA-153,172.172.1.1:1883,1551654940218,RECEIVED
Subscriber_001,topicA,topicA-154,172.172.1.1:1883,1551654940329,RECEIVED
Subscriber_001,topicA,topicA-155,172.172.1.1:1883,1551654940413,RECEIVED
Subscriber_001,topicA,topicA-156,172.172.1.1:1883,1551654940522,RECEIVED
Subscriber_001,topicA,topicA-157,172.172.1.1:1883,1551654940620,RECEIVED
Subscriber_001,topicA,topicA-158,172.172.1.1:1883,1551654940719,RECEIVED
Subscriber_001,topicA,topicA-159,172.172.1.1:1883,1551654940828,RECEIVED
Subscriber_001,topicA,topicA-160,172.172.1.1:1883,1551654940932,RECEIVED
Subscriber_001,topicA,topicA-161,172.172.1.1:1883,1551654941023,RECEIVED
Subscriber_001,topicA,topicA-162,172.172.1.1:1883,1551654941140,RECEIVED
Subscriber_001,topicA,topicA-163,172.172.1.1:1883,1551654941212,RECEIVED
Subscriber_001,topicA,topicA-164,172.172.1.1:1883,1551654941313,RECEIVED
Subscriber_001,topicA,topicA-165,172.172.1.1:1883,1551654941417,RECEIVED
Subscriber_001,topicA,topicA-166,172.172.1.1:1883,1551654941535,RECEIVED
Subscriber_001,topicA,topicA-167,172.172.1.1:1883,1551654941621,RECEIVED
Subscriber_001,topicA,topicA-168,172.172.1.1:1883,1551654941729,RECEIVED
Subscriber_001,topicA,topicA-169,172.172.1.1:1883,1551654941819,RECEIVED
Subscriber_001,topicA,topicA-170,172.172.1.1:1883,1551654941918,RECEIVED
Subscriber_001,topicA,topicA-171,172.172.1.1:1883,1551654942029,RECEIVED
Subscriber_001,topicA,topicA-172,172.172.1.1:1883,1551654942113,RECEIVED
Subscriber_001,topicA,topicA-173,172.172.1.1:1883,1551654942222,RECEIVED
Subscriber_001,topicA,topicA-174,172.172.1.1:1883,1551654942321,RECEIVED
Subscriber_001,topicA,topicA-175,172.172.1.1:1883,1551654942421,RECEIVED
Subscriber_001,topicA,topicA-176,172.172.1.1:1883,1551654942520,RECEIVED
Subscriber_001,topicA,topicA-177,172.172.1.1:1883,1551654942634,RECEIVED
Subscriber_001,topicA,topicA-178,172.172.1.1:1883,1551654942736,RECEIVED
Subscriber_001,topicA,topicA-179,172.172.1.1:1883,1551654942820,RECEIVED
Subscriber_001,topicA,topicA-180,172.172.1.1:1883,1551654942919,RECEIVED
Subscriber_001,topicA,topicA-181,172.172.1.1:1883,1551654943028,RECEIVED
Subscriber_001,topicA,topicA-182,172.172.1.1:1883,1551654943155,RECEIVED
Subscriber_001,topicA,topicA-183,172.172.1.1:1883,1551654943212,RECEIVED
Subscriber_001,topicA,topicA-184,172.172.1.1:1883,1551654943325,RECEIVED
Subscriber_001,topicA,topicA-185,172.172.1.1:1883,1551654943433,RECEIVED
Subscriber_001,topicA,topicA-186,172.172.1.1:1883,1551654943513,RECEIVED
Subscriber_001,topicA,topicA-187,172.172.1.1:1883,1551654943626,RECEIVED
Subscriber_001,topicA,topicA-188,172.172.1.1:1883,1551654943713,RECEIVED
Subscriber_001,topicA,topicA-189,172.172.1.1:1883,1551654943820,RECEIVED
Subscriber_001,topicA,topicA-190,172.172.1.1:1883,1551654943924,RECEIVED
Subscriber_001,topicA,topicA-191,172.172.1.1:1883,1551654944018,RECEIVED
Subscriber_001,topicA,topicA-192,172.172.1.1:1883,1551654944121,RECEIVED
Subscriber_001,topicA,topicA-193,172.172.1.1:1883,1551654944219,RECEIVED
Subscriber_001,topicA,topicA-194,172.172.1.1:1883,1551654944315,RECEIVED
Subscriber_001,topicA,topicA-195,172.172.1.1:1883,1551654944419,RECEIVED
Subscriber_001,topicA,topicA-196,172.172.1.1:1883,1551654944518,RECEIVED
Subscriber_001,topicA,topicA-197,172.172.1.1:1883,1551654944617,RECEIVED
Subscriber_001,topicA,topicA-198,172.172.1.1:1883,1551654944720,RECEIVED
Subscriber_001,topicA,topicA-199,172.172.1.1:1883,1551654944816,RECEIVED
Subscriber_001,topicA,topicA-200,172.172.1.1:1883,1551654944919,RECEIVED
Subscriber_001,topicA,topicA-201,172.172.1.1:1883,1551654945019,RECEIVED
Subscriber_001,topicA,topicA-202,172.172.1.1:1883,1551654945115,RECEIVED
Subscriber_001,topicA,topicA-203,172.172.1.1:1883,1551654945214,RECEIVED
Subscriber_001,topicA,topicA-204,172.172.1.1:1883,1551654945320,RECEIVED
Subscriber_001,topicA,topicA-205,172.172.1.1:1883,1551654945414,RECEIVED
Subscriber_001,topicA,topicA-206,172.172.1.1:1883,1551654945520,RECEIVED
Subscriber_001,topicA,topicA-207,172.172.1.1:1883,1551654945615,RECEIVED
Subscriber_001,topicA,topicA-208,172.172.1.1:1883,1551654945725,RECEIVED
Subscriber_001,topicA,topicA-209,172.172.1.1:1883,1551654945816,RECEIVED
Subscriber_001,topicA,topicA-210,172.172.1.1:1883,1551654945915,RECEIVED
Subscriber_001,topicA,topicA-211,172.172.1.1:1883,1551654946012,RECEIVED
Subscriber_001,topicA,topicA-212,172.172.1.1:1883,1551654946121,RECEIVED
Subscriber_001,topicA,topicA-213,172.172.1.1:1883,1551654946224,RECEIVED
Subscriber_001,topicA,topicA-214,172.172.1.1:1883,1551654946323,RECEIVED
Subscriber_001,topicA,topicA-215,172.172.1.1:1883,1551654946419,RECEIVED
Subscriber_001,topicA,topicA-216,172.172.1.1:1883,1551654946520,RECEIVED
Subscriber_001,topicA,topicA-217,172.172.1.1:1883,1551654946619,RECEIVED
Subscriber_001,topicA,topicA-218,172.172.1.1:1883,1551654946730,RECEIVED
Subscriber_001,topicA,topicA-219,172.172.1.1:1883,1551654946820,RECEIVED
Subscriber_001,topicA,topicA-220,172.172.1.1:1883,1551654946919,RECEIVED
Subscriber_001,topicA,topicA-221,172.172.1.1:1883,1551654947014,RECEIVED
Subscriber_001,topicA,topicA-222,172.172.1.1:1883,1551654947112,RECEIVED
Subscriber_001,topicA,topicA-223,172.172.1.1:1883,1551654947214,RECEIVED
Subscriber_001,topicA,topicA-224,172.172.1.1:1883,1551654947312,RECEIVED
Subscriber_001,topicA,topicA-225,172.172.1.1:1883,1551654947416,RECEIVED
Subscriber_001,topicA,topicA-226,172.172.1.1:1883,1551654947532,RECEIVED
Subscriber_001,topicA,topicA-227,172.172.1.1:1883,1551654947612,RECEIVED
Subscriber_001,topicA,topicA-228,172.172.1.1:1883,1551654947715,RECEIVED
Subscriber_001,topicA,topicA-229,172.172.1.1:1883,1551654947814,RECEIVED
Subscriber_001,topicA,topicA-230,172.172.1.1:1883,1551654947913,RECEIVED
Subscriber_001,topicA,topicA-231,172.172.1.1:1883,1551654948016,RECEIVED
Subscriber_001,topicA,topicA-232,172.172.1.1:1883,1551654948121,RECEIVED
Subscriber_001,topicA,topicA-233,172.172.1.1:1883,1551654948216,RECEIVED
Subscriber_001,topicA,topicA-234,172.172.1.1:1883,1551654948320,RECEIVED
Subscriber_001,topicA,topicA-235,172.172.1.1:1883,1551654948414,RECEIVED
Subscriber_001,topicA,topicA-236,172.172.1.1:1883,1551654948516,RECEIVED
Subscriber_001,topicA,topicA-237,172.172.1.1:1883,1551654948615,RECEIVED
Subscriber_001,topicA,topicA-238,172.172.1.1:1883,1551654948714,RECEIVED
Subscriber_001,topicA,topicA-239,172.172.1.1:1883,1551654948820,RECEIVED
Subscriber_001,topicA,topicA-240,172.172.1.1:1883,1551654948923,RECEIVED
Subscriber_001,topicA,topicA-241,172.172.1.1:1883,1551654949025,RECEIVED
Subscriber_001,topicA,topicA-242,172.172.1.1:1883,1551654949120,RECEIVED
Subscriber_001,topicA,topicA-243,172.172.1.1:1883,1551654949220,RECEIVED
Subscriber_001,topicA,topicA-244,172.172.1.1:1883,1551654949328,RECEIVED
Subscriber_001,topicA,topicA-245,172.172.1.1:1883,1551654949420,RECEIVED
Subscriber_001,topicA,topicA-246,172.172.1.1:1883,1551654949521,RECEIVED
Subscriber_001,topicA,topicA-247,172.172.1.1:1883,1551654949621,RECEIVED
Subscriber_001,topicA,topicA-248,172.172.1.1:1883,1551654949715,RECEIVED
Subscriber_001,topicA,topicA-249,172.172.1.1:1883,1551654949815,RECEIVED
Subscriber_001,topicA,topicA-250,172.172.1.1:1883,1551654949919,RECEIVED
Subscriber_001,topicA,topicA-251,172.172.1.1:1883,1551654950022,RECEIVED
Subscriber_001,topicA,topicA-252,172.172.1.2:1883,1551654950900,RECEIVED
Subscriber_001,topicA,topicA-253,172.172.1.2:1883,1551654950987,RECEIVED
Subscriber_001,topicA,topicA-254,172.172.1.2:1883,1551654951097,RECEIVED
Subscriber_001,topicA,topicA-255,172.172.1.2:1883,1551654951196,RECEIVED
Subscriber_001,topicA,topicA-256,172.172.1.2:1883,1551654951293,RECEIVED
Subscriber_001,topicA,topicA-257,172.172.1.2:1883,1551654951390,RECEIVED
Subscriber_001,topicA,topicA-258,172.172.1.2:1883,1551654951496,RECEIVED
Subscriber_001,topicA,topicA-259,172.172.1.2:1883,1551654951595,RECEIVED
Subscriber_001,topicA,topicA-260,172.172.1.2:1883,1551654951696,RECEIVED
Subscriber_001,topicA,topicA-261,172.172.1.2:1883,1551654951789,RECEIVED
Subscriber_001,topicA,topicA-262,172.172.1.2:1883,1551654951887,RECEIVED
Subscriber_001,topicA,topicA-263,172.172.1.2:1883,1551654951990,RECEIVED
Subscriber_001,topicA,topicA-264,172.172.1.2:1883,1551654952088,RECEIVED
Subscriber_001,topicA,topicA-265,172.172.1.2:1883,1551654952181,RECEIVED
Subscriber_001,topicA,topicA-266,172.172.1.2:1883,1551654952285,RECEIVED
Subscriber_001,topicA,topicA-267,172.172.1.2:1883,1551654952407,RECEIVED
Subscriber_001,topicA,topicA-268,172.172.1.2:1883,1551654952496,RECEIVED
Subscriber_001,topicA,topicA-269,172.172.1.2:1883,1551654952596,RECEIVED
Subscriber_001,topicA,topicA-270,172.172.1.2:1883,1551654952684,RECEIVED
Subscriber_001,topicA,topicA-271,172.172.1.2:1883,1551654952799,RECEIVED
Subscriber_001,topicA,topicA-272,172.172.1.2:1883,1551654952900,RECEIVED
Subscriber_001,topicA,topicA-273,172.172.1.2:1883,1551654953001,RECEIVED
Subscriber_001,topicA,topicA-274,172.172.1.2:1883,1551654953101,RECEIVED
Subscriber_001,topicA,topicA-275,172.172.1.2:1883,1551654953200,RECEIVED
Subscriber_001,topicA,topicA-276,172.172.1.2:1883,1551654953301,RECEIVED
Subscriber_001,topicA,topicA-277,172.172.1.2:1883,1551654953395,RECEIVED
Subscriber_001,topicA,topicA-278,172.172.1.2:1883,1551654953501,RECEIVED
Subscriber_001,topicA,topicA-279,172.172.1.2:1883,1551654953599,RECEIVED
Subscriber_001,topicA,topicA-280,172.172.1.2:1883,1551654953696,RECEIVED
Subscriber_001,topicA,topicA-281,172.172.1.2:1883,1551654953800,RECEIVED
Subscriber_001,topicA,topicA-282,172.172.1.2:1883,1551654953895,RECEIVED
Subscriber_001,topicA,topicA-283,172.172.1.2:1883,1551654953995,RECEIVED
Subscriber_001,topicA,topicA-284,172.172.1.2:1883,1551654954098,RECEIVED
Subscriber_001,topicA,topicA-285,172.172.1.2:1883,1551654954186,RECEIVED
Subscriber_001,topicA,topicA-286,172.172.1.2:1883,1551654954285,RECEIVED
Subscriber_001,topicA,topicA-287,172.172.1.2:1883,1551654954388,RECEIVED
Subscriber_001,topicA,topicA-288,172.172.1.2:1883,1551654954489,RECEIVED
Subscriber_001,topicA,topicA-289,172.172.1.2:1883,1551654954589,RECEIVED
Subscriber_001,topicA,topicA-290,172.172.1.2:1883,1551654954687,RECEIVED
Subscriber_001,topicA,topicA-291,172.172.1.2:1883,1551654954792,RECEIVED
Subscriber_001,topicA,topicA-292,172.172.1.2:1883,1551654954885,RECEIVED
Subscriber_001,topicA,topicA-293,172.172.1.2:1883,1551654954985,RECEIVED
Subscriber_001,topicA,topicA-294,172.172.1.2:1883,1551654955086,RECEIVED
Subscriber_001,topicA,topicA-295,172.172.1.2:1883,1551654955189,RECEIVED
Subscriber_001,topicA,topicA-296,172.172.1.2:1883,1551654955292,RECEIVED
Subscriber_001,topicA,topicA-297,172.172.1.2:1883,1551654955386,RECEIVED
Subscriber_001,topicA,topicA-298,172.172.1.2:1883,1551654955501,RECEIVED
Subscriber_001,topicA,topicA-299,172.172.1.2:1883,1551654955604,RECEIVED
Subscriber_001,topicA,topicA-300,172.172.1.2:1883,1551654955695,RECEIVED
Subscriber_001,topicA,topicA-301,172.172.1.2:1883,1551654955793,RECEIVED
Subscriber_001,topicA,topicA-302,172.172.1.2:1883,1551654955898,RECEIVED
Subscriber_001,topicA,topicA-303,172.172.1.2:1883,1551654955999,RECEIVED
Subscriber_001,topicA,topicA-304,172.172.1.2:1883,1551654956102,RECEIVED
Subscriber_001,topicA,topicA-305,172.172.1.2:1883,1551654956195,RECEIVED
Subscriber_001,topicA,topicA-306,172.172.1.2:1883,1551654956294,RECEIVED
Subscriber_001,topicA,topicA-307,172.172.1.2:1883,1551654956387,RECEIVED
Subscriber_001,topicA,topicA-308,172.172.1.2:1883,1551654956492,RECEIVED
Subscriber_001,topicA,topicA-309,172.172.1.2:1883,1551654956586,RECEIVED
Subscriber_001,topicA,topicA-310,172.172.1.2:1883,1551654956699,RECEIVED
Subscriber_001,topicA,topicA-311,172.172.1.2:1883,1551654956791,RECEIVED
Subscriber_001,topicA,topicA-312,172.172.1.2:1883,1551654956893,RECEIVED
Subscriber_001,topicA,topicA-313,172.172.1.2:1883,1551654957007,RECEIVED
Subscriber_001,topicA,topicA-314,172.172.1.2:1883,1551654957096,RECEIVED
Subscriber_001,topicA,topicA-315,172.172.1.2:1883,1551654957206,RECEIVED
Subscriber_001,topicA,topicA-316,172.172.1.2:1883,1551654957290,RECEIVED
Subscriber_001,topicA,topicA-317,172.172.1.2:1883,1551654957394,RECEIVED
Subscriber_001,topicA,topicA-318,172.172.1.2:1883,1551654957488,RECEIVED
Subscriber_001,topicA,topicA-319,172.172.1.2:1883,1551654957589,RECEIVED
Subscriber_001,topicA,topicA-320,172.172.1.2:1883,1551654957701,RECEIVED
Subscriber_001,topicA,topicA-321,172.172.1.2:1883,1551654957799,RECEIVED
Subscriber_001,topicA,topicA-322,172.172.1.2:1883,1551654957885,RECEIVED
Subscriber_001,topicA,topicA-323,172.172.1.2:1883,1551654957994,RECEIVED
Subscriber_001,topicA,topicA-324,172.172.1.2:1883,1551654958088,RECEIVED
Subscriber_001,topicA,topicA-325,172.172.1.2:1883,1551654958190,RECEIVED
Subscriber_001,topicA,topicA-326,172.172.1.2:1883,1551654958291,RECEIVED
Subscriber_001,topicA,topicA-327,172.172.1.2:1883,1551654958392,RECEIVED
Subscriber_001,topicA,topicA-328,172.172.1.2:1883,1551654958490,RECEIVED
Subscriber_001,topicA,topicA-329,172.172.1.2:1883,1551654958604,RECEIVED
Subscriber_001,topicA,topicA-330,172.172.1.2:1883,1551654958705,RECEIVED
Subscriber_001,topicA,topicA-331,172.172.1.2:1883,1551654958797,RECEIVED
Subscriber_001,topicA,topicA-332,172.172.1.2:1883,1551654958894,RECEIVED
Subscriber_001,topicA,topicA-333,172.172.1.2:1883,1551654958997,RECEIVED
Subscriber_001,topicA,topicA-334,172.172.1.2:1883,1551654959089,RECEIVED
Subscriber_001,topicA,topicA-335,172.172.1.2:1883,1551654959185,RECEIVED
Subscriber_001,topicA,topicA-336,172.172.1.2:1883,1551654959292,RECEIVED
Subscriber_001,topicA,topicA-337,172.172.1.2:1883,1551654959401,RECEIVED
Subscriber_001,topicA,topicA-338,172.172.1.2:1883,1551654959501,RECEIVED
Subscriber_001,topicA,topicA-339,172.172.1.2:1883,1551654959589,RECEIVED
Subscriber_001,topicA,topicA-340,172.172.1.2:1883,1551654959688,RECEIVED
Subscriber_001,topicA,topicA-341,172.172.1.2:1883,1551654959799,RECEIVED
Subscriber_001,topicA,topicA-342,172.172.1.2:1883,1551654959897,RECEIVED
Subscriber_001,topicA,topicA-343,172.172.1.2:1883,1551654959995,RECEIVED
Subscriber_001,topicA,topicA-344,172.172.1.2:1883,1551654960100,RECEIVED
Subscriber_001,topicA,topicA-345,172.172.1.2:1883,1551654960195,RECEIVED
Subscriber_001,topicA,topicA-346,172.172.1.2:1883,1551654960304,RECEIVED
Subscriber_001,topicA,topicA-347,172.172.1.2:1883,1551654960400,RECEIVED
Subscriber_001,topicA,topicA-348,172.172.1.2:1883,1551654960494,RECEIVED
Subscriber_001,topicA,topicA-349,172.172.1.2:1883,1551654960591,RECEIVED
Subscriber_001,topicA,topicA-350,172.172.1.2:1883,1551654960686,RECEIVED
Subscriber_001,topicA,topicA-351,172.172.1.2:1883,1551654960791,RECEIVED
Subscriber_001,topicA,topicA-352,172.172.1.2:1883,1551654960892,RECEIVED
Subscriber_001,topicA,topicA-353,172.172.1.2:1883,1551654960993,RECEIVED
Subscriber_001,topicA,topicA-354,172.172.1.2:1883,1551654961087,RECEIVED
Subscriber_001,topicA,topicA-355,172.172.1.2:1883,1551654961191,RECEIVED
Subscriber_001,topicA,topicA-356,172.172.1.2:1883,1551654961290,RECEIVED
Subscriber_001,topicA,topicA-357,172.172.1.2:1883,1551654961397,RECEIVED
Subscriber_001,topicA,topicA-358,172.172.1.2:1883,1551654961501,RECEIVED
Subscriber_001,topicA,topicA-359,172.172.1.2:1883,1551654961589,RECEIVED
Subscriber_001,topicA,topicA-360,172.172.1.2:1883,1551654961685,RECEIVED
Subscriber_001,topicA,topicA-361,172.172.1.2:1883,1551654961794,RECEIVED
Subscriber_001,topicA,topicA-362,172.172.1.2:1883,1551654961899,RECEIVED
Subscriber_001,topicA,topicA-363,172.172.1.2:1883,1551654961985,RECEIVED
Subscriber_001,topicA,topicA-364,172.172.1.2:1883,1551654962090,RECEIVED
Subscriber_001,topicA,topicA-365,172.172.1.2:1883,1551654962191,RECEIVED
Subscriber_001,topicA,topicA-366,172.172.1.2:1883,1551654962290,RECEIVED
Subscriber_001,topicA,topicA-367,172.172.1.2:1883,1551654962393,RECEIVED
Subscriber_001,topicA,topicA-368,172.172.1.2:1883,1551654962489,RECEIVED
Subscriber_001,topicA,topicA-369,172.172.1.2:1883,1551654962589,RECEIVED
Subscriber_001,topicA,topicA-370,172.172.1.2:1883,1551654962691,RECEIVED
Subscriber_001,topicA,topicA-371,172.172.1.2:1883,1551654962791,RECEIVED
Subscriber_001,topicA,topicA-372,172.172.1.2:1883,1551654962899,RECEIVED
Subscriber_001,topicA,topicA-373,172.172.1.2:1883,1551654962997,RECEIVED
Subscriber_001,topicA,topicA-374,172.172.1.2:1883,1551654963090,RECEIVED
Subscriber_001,topicA,topicA-375,172.172.1.2:1883,1551654963198,RECEIVED
Subscriber_001,topicA,topicA-376,172.172.1.2:1883,1551654963299,RECEIVED
Subscriber_001,topicA,topicA-377,172.172.1.2:1883,1551654963395,RECEIVED
Subscriber_001,topicA,topicA-378,172.172.1.2:1883,1551654963486,RECEIVED
Subscriber_001,topicA,topicA-379,172.172.1.2:1883,1551654963591,RECEIVED
Subscriber_001,topicA,topicA-380,172.172.1.2:1883,1551654963683,RECEIVED
Subscriber_001,topicA,topicA-381,172.172.1.2:1883,1551654963794,RECEIVED
Subscriber_001,topicA,topicA-382,172.172.1.2:1883,1551654963908,RECEIVED
Subscriber_001,topicA,topicA-383,172.172.1.2:1883,1551654963996,RECEIVED
Subscriber_001,topicA,topicA-384,172.172.1.2:1883,1551654964120,RECEIVED
Subscriber_001,topicA,topicA-385,172.172.1.2:1883,1551654964196,RECEIVED
Subscriber_001,topicA,topicA-386,172.172.1.2:1883,1551654964304,RECEIVED
Subscriber_001,topicA,topicA-387,172.172.1.2:1883,1551654964392,RECEIVED
Subscriber_001,topicA,topicA-388,172.172.1.2:1883,1551654964487,RECEIVED
Subscriber_001,topicA,topicA-389,172.172.1.2:1883,1551654964589,RECEIVED
Subscriber_001,topicA,topicA-390,172.172.1.2:1883,1551654964689,RECEIVED
Subscriber_001,topicA,topicA-391,172.172.1.2:1883,1551654964800,RECEIVED
Subscriber_001,topicA,topicA-392,172.172.1.2:1883,1551654964890,RECEIVED
Subscriber_001,topicA,topicA-393,172.172.1.2:1883,1551654965001,RECEIVED
Subscriber_001,topicA,topicA-394,172.172.1.2:1883,1551654965101,RECEIVED
Subscriber_001,topicA,topicA-395,172.172.1.2:1883,1551654965196,RECEIVED
Subscriber_001,topicA,topicA-396,172.172.1.2:1883,1551654965297,RECEIVED
Subscriber_001,topicA,topicA-397,172.172.1.2:1883,1551654965399,RECEIVED
Subscriber_001,topicA,topicA-398,172.172.1.2:1883,1551654965496,RECEIVED
Subscriber_001,topicA,topicA-399,172.172.1.2:1883,1551654965591,RECEIVED
Subscriber_001,topicA,topicA-400,172.172.1.2:1883,1551654965693,RECEIVED
Subscriber_001,topicA,topicA-401,172.172.1.2:1883,1551654965810,RECEIVED
Subscriber_001,topicA,topicA-402,172.172.1.2:1883,1551654965900,RECEIVED
Subscriber_001,topicA,topicA-403,172.172.1.2:1883,1551654965991,RECEIVED
Subscriber_001,topicA,topicA-404,172.172.1.2:1883,1551654966096,RECEIVED
Subscriber_001,topicA,topicA-405,172.172.1.2:1883,1551654966185,RECEIVED
Subscriber_001,topicA,topicA-406,172.172.1.2:1883,1551654966299,RECEIVED
Subscriber_001,topicA,topicA-407,172.172.1.2:1883,1551654966391,RECEIVED
Subscriber_001,topicA,topicA-408,172.172.1.2:1883,1551654966509,RECEIVED
Subscriber_001,topicA,topicA-409,172.172.1.2:1883,1551654966597,RECEIVED
Subscriber_001,topicA,topicA-410,172.172.1.2:1883,1551654966699,RECEIVED
Subscriber_001,topicA,topicA-411,172.172.1.2:1883,1551654966801,RECEIVED
Subscriber_001,topicA,topicA-412,172.172.1.2:1883,1551654966898,RECEIVED
Subscriber_001,topicA,topicA-413,172.172.1.2:1883,1551654966984,RECEIVED
Subscriber_001,topicA,topicA-414,172.172.1.2:1883,1551654967084,RECEIVED
Subscriber_001,topicA,topicA-415,172.172.1.2:1883,1551654967190,RECEIVED
Subscriber_001,topicA,topicA-416,172.172.1.2:1883,1551654967287,RECEIVED
Subscriber_001,topicA,topicA-417,172.172.1.2:1883,1551654967394,RECEIVED
Subscriber_001,topicA,topicA-418,172.172.1.2:1883,1551654967483,RECEIVED
Subscriber_001,topicA,topicA-419,172.172.1.2:1883,1551654967592,RECEIVED
Subscriber_001,topicA,topicA-420,172.172.1.2:1883,1551654967693,RECEIVED
Subscriber_001,topicA,topicA-421,172.172.1.2:1883,1551654967800,RECEIVED
Subscriber_001,topicA,topicA-422,172.172.1.2:1883,1551654967900,RECEIVED
Subscriber_001,topicA,topicA-423,172.172.1.2:1883,1551654967995,RECEIVED
Subscriber_001,topicA,topicA-424,172.172.1.2:1883,1551654968097,RECEIVED
Subscriber_001,topicA,topicA-425,172.172.1.2:1883,1551654968190,RECEIVED
Subscriber_001,topicA,topicA-426,172.172.1.2:1883,1551654968286,RECEIVED
Subscriber_001,topicA,topicA-427,172.172.1.2:1883,1551654968385,RECEIVED
Subscriber_001,topicA,topicA-428,172.172.1.2:1883,1551654968498,RECEIVED
Subscriber_001,topicA,topicA-429,172.172.1.2:1883,1551654968589,RECEIVED
Subscriber_001,topicA,topicA-430,172.172.1.2:1883,1551654968686,RECEIVED
Subscriber_001,topicA,topicA-431,172.172.1.2:1883,1551654968789,RECEIVED
Subscriber_001,topicA,topicA-432,172.172.1.2:1883,1551654968900,RECEIVED
Subscriber_001,topicA,topicA-433,172.172.1.2:1883,1551654968992,RECEIVED
Subscriber_001,topicA,topicA-434,172.172.1.2:1883,1551654969102,RECEIVED
Subscriber_001,topicA,topicA-435,172.172.1.2:1883,1551654969194,RECEIVED
Subscriber_001,topicA,topicA-436,172.172.1.2:1883,1551654969294,RECEIVED
Subscriber_001,topicA,topicA-437,172.172.1.2:1883,1551654969393,RECEIVED
Subscriber_001,topicA,topicA-438,172.172.1.2:1883,1551654969495,RECEIVED
Subscriber_001,topicA,topicA-439,172.172.1.2:1883,1551654969589,RECEIVED
Subscriber_001,topicA,topicA-440,172.172.1.2:1883,1551654969696,RECEIVED
Subscriber_001,topicA,topicA-441,172.172.1.2:1883,1551654969792,RECEIVED
Subscriber_001,topicA,topicA-442,172.172.1.2:1883,1551654969891,RECEIVED
Subscriber_001,topicA,topicA-443,172.172.1.2:1883,1551654969995,RECEIVED
Subscriber_001,topicA,topicA-444,172.172.1.2:1883,1551654970084,RECEIVED
Subscriber_001,topicA,topicA-445,172.172.1.2:1883,1551654970193,RECEIVED
Subscriber_001,topicA,topicA-446,172.172.1.2:1883,1551654970305,RECEIVED
Subscriber_001,topicA,topicA-447,172.172.1.2:1883,1551654970401,RECEIVED
Subscriber_001,topicA,topicA-448,172.172.1.2:1883,1551654970490,RECEIVED
Subscriber_001,topicA,topicA-449,172.172.1.2:1883,1551654970599,RECEIVED
Subscriber_001,topicA,topicA-450,172.172.1.2:1883,1551654970693,RECEIVED
Subscriber_001,topicA,topicA-451,172.172.1.2:1883,1551654970792,RECEIVED
Subscriber_001,topicA,topicA-452,172.172.1.2:1883,1551654970902,RECEIVED
Subscriber_001,topicA,topicA-453,172.172.1.2:1883,1551654970995,RECEIVED
Subscriber_001,topicA,topicA-454,172.172.1.2:1883,1551654971093,RECEIVED
Subscriber_001,topicA,topicA-455,172.172.1.2:1883,1551654971182,RECEIVED
Subscriber_001,topicA,topicA-456,172.172.1.2:1883,1551654971289,RECEIVED
Subscriber_001,topicA,topicA-457,172.172.1.2:1883,1551654971389,RECEIVED
Subscriber_001,topicA,topicA-458,172.172.1.2:1883,1551654971499,RECEIVED
Subscriber_001,topicA,topicA-459,172.172.1.2:1883,1551654971594,RECEIVED
Subscriber_001,topicA,topicA-460,172.172.1.2:1883,1551654971684,RECEIVED
Subscriber_001,topicA,topicA-461,172.172.1.2:1883,1551654971785,RECEIVED
Subscriber_001,topicA,topicA-462,172.172.1.2:1883,1551654971885,RECEIVED
Subscriber_001,topicA,topicA-463,172.172.1.2:1883,1551654971990,RECEIVED
Subscriber_001,topicA,topicA-464,172.172.1.2:1883,1551654972090,RECEIVED
Subscriber_001,topicA,topicA-465,172.172.1.2:1883,1551654972189,RECEIVED
Subscriber_001,topicA,topicA-466,172.172.1.2:1883,1551654972288,RECEIVED
Subscriber_001,topicA,topicA-467,172.172.1.2:1883,1551654972386,RECEIVED
Subscriber_001,topicA,topicA-468,172.172.1.2:1883,1551654972490,RECEIVED
Subscriber_001,topicA,topicA-469,172.172.1.2:1883,1551654972597,RECEIVED
Subscriber_001,topicA,topicA-470,172.172.1.2:1883,1551654972693,RECEIVED
Subscriber_001,topicA,topicA-471,172.172.1.2:1883,1551654972785,RECEIVED
Subscriber_001,topicA,topicA-472,172.172.1.2:1883,1551654972892,RECEIVED
Subscriber_001,topicA,topicA-473,172.172.1.2:1883,1551654972998,RECEIVED
Subscriber_001,topicA,topicA-474,172.172.1.2:1883,1551654973093,RECEIVED
Subscriber_001,topicA,topicA-475,172.172.1.2:1883,1551654973189,RECEIVED
Subscriber_001,topicA,topicA-476,172.172.1.2:1883,1551654973289,RECEIVED
Subscriber_001,topicA,topicA-477,172.172.1.2:1883,1551654973393,RECEIVED
Subscriber_001,topicA,topicA-478,172.172.1.2:1883,1551654973484,RECEIVED
Subscriber_001,topicA,topicA-479,172.172.1.2:1883,1551654973584,RECEIVED
Subscriber_001,topicA,topicA-480,172.172.1.2:1883,1551654973689,RECEIVED
Subscriber_001,topicA,topicA-481,172.172.1.2:1883,1551654973791,RECEIVED
Subscriber_001,topicA,topicA-482,172.172.1.2:1883,1551654973894,RECEIVED
Subscriber_001,topicA,topicA-483,172.172.1.2:1883,1551654973995,RECEIVED
Subscriber_001,topicA,topicA-484,172.172.1.2:1883,1551654974091,RECEIVED
Subscriber_001,topicA,topicA-485,172.172.1.2:1883,1551654974191,RECEIVED
Subscriber_001,topicA,topicA-486,172.172.1.2:1883,1551654974293,RECEIVED
Subscriber_001,topicA,topicA-487,172.172.1.2:1883,1551654974389,RECEIVED
Subscriber_001,topicA,topicA-488,172.172.1.2:1883,1551654974493,RECEIVED
Subscriber_001,topicA,topicA-489,172.172.1.2:1883,1551654974588,RECEIVED
Subscriber_001,topicA,topicA-490,172.172.1.2:1883,1551654974685,RECEIVED
Subscriber_001,topicA,topicA-491,172.172.1.2:1883,1551654974783,RECEIVED
Subscriber_001,topicA,topicA-492,172.172.1.2:1883,1551654974886,RECEIVED
Subscriber_001,topicA,topicA-493,172.172.1.2:1883,1551654974997,RECEIVED
Subscriber_001,topicA,topicA-494,172.172.1.2:1883,1551654975101,RECEIVED
Subscriber_001,topicA,topicA-495,172.172.1.2:1883,1551654975193,RECEIVED
Subscriber_001,topicA,topicA-496,172.172.1.2:1883,1551654975299,RECEIVED
Subscriber_001,topicA,topicA-497,172.172.1.2:1883,1551654975390,RECEIVED
Subscriber_001,topicA,topicA-498,172.172.1.2:1883,1551654975510,RECEIVED
Subscriber_001,topicA,topicA-499,172.172.1.2:1883,1551654975594,RECEIVED
Subscriber_001,topicA,topicA-500,172.172.1.2:1883,1551654975692,RECEIVED
Subscriber_001,topicA,topicA-501,172.172.1.2:1883,1551654975796,RECEIVED
Subscriber_001,topicA,topicA-502,172.172.1.2:1883,1551654975899,RECEIVED
Subscriber_001,topicA,topicA-503,172.172.1.2:1883,1551654976000,RECEIVED
Subscriber_001,topicA,topicA-504,172.172.1.2:1883,1551654976102,RECEIVED
Subscriber_001,topicA,topicA-505,172.172.1.2:1883,1551654976189,RECEIVED
Subscriber_001,topicA,topicA-506,172.172.1.2:1883,1551654976285,RECEIVED
Subscriber_001,topicA,topicA-507,172.172.1.2:1883,1551654976388,RECEIVED
Subscriber_001,topicA,topicA-508,172.172.1.2:1883,1551654976487,RECEIVED
Subscriber_001,topicA,topicA-509,172.172.1.2:1883,1551654976595,RECEIVED
Subscriber_001,topicA,topicA-510,172.172.1.2:1883,1551654976691,RECEIVED
Subscriber_001,topicA,topicA-511,172.172.1.2:1883,1551654976791,RECEIVED
Subscriber_001,topicA,topicA-512,172.172.1.2:1883,1551654976894,RECEIVED
Subscriber_001,topicA,topicA-513,172.172.1.2:1883,1551654976999,RECEIVED
Subscriber_001,topicA,topicA-514,172.172.1.2:1883,1551654977089,RECEIVED
Subscriber_001,topicA,topicA-515,172.172.1.2:1883,1551654977192,RECEIVED
Subscriber_001,topicA,topicA-516,172.172.1.2:1883,1551654977288,RECEIVED
Subscriber_001,topicA,topicA-517,172.172.1.2:1883,1551654977391,RECEIVED
Subscriber_001,topicA,topicA-518,172.172.1.2:1883,1551654977493,RECEIVED
Subscriber_001,topicA,topicA-519,172.172.1.2:1883,1551654977591,RECEIVED
Subscriber_001,topicA,topicA-520,172.172.1.2:1883,1551654977692,RECEIVED
Subscriber_001,topicA,topicA-521,172.172.1.2:1883,1551654977789,RECEIVED
Subscriber_001,topicA,topicA-522,172.172.1.2:1883,1551654977893,RECEIVED
Subscriber_001,topicA,topicA-523,172.172.1.2:1883,1551654977988,RECEIVED
Subscriber_001,topicA,topicA-524,172.172.1.2:1883,1551654978102,RECEIVED
Subscriber_001,topicA,topicA-525,172.172.1.2:1883,1551654978188,RECEIVED
Subscriber_001,topicA,topicA-526,172.172.1.2:1883,1551654978290,RECEIVED
Subscriber_001,topicA,topicA-527,172.172.1.2:1883,1551654978385,RECEIVED
Subscriber_001,topicA,topicA-528,172.172.1.2:1883,1551654978483,RECEIVED
Subscriber_001,topicA,topicA-529,172.172.1.2:1883,1551654978588,RECEIVED
Subscriber_001,topicA,topicA-530,172.172.1.2:1883,1551654978685,RECEIVED
Subscriber_001,topicA,topicA-531,172.172.1.2:1883,1551654978794,RECEIVED
Subscriber_001,topicA,topicA-532,172.172.1.2:1883,1551654978884,RECEIVED
Subscriber_001,topicA,topicA-533,172.172.1.2:1883,1551654978995,RECEIVED
Subscriber_001,topicA,topicA-534,172.172.1.2:1883,1551654979084,RECEIVED
Subscriber_001,topicA,topicA-535,172.172.1.2:1883,1551654979191,RECEIVED
Subscriber_001,topicA,topicA-536,172.172.1.2:1883,1551654979290,RECEIVED
Subscriber_001,topicA,topicA-537,172.172.1.2:1883,1551654979396,RECEIVED
Subscriber_001,topicA,topicA-538,172.172.1.2:1883,1551654979491,RECEIVED
Subscriber_001,topicA,topicA-539,172.172.1.2:1883,1551654979591,RECEIVED
Subscriber_001,topicA,topicA-540,172.172.1.2:1883,1551654979689,RECEIVED
Subscriber_001,topicA,topicA-541,172.172.1.2:1883,1551654979785,RECEIVED
Subscriber_001,topicA,topicA-542,172.172.1.2:1883,1551654979891,RECEIVED
Subscriber_001,topicA,topicA-543,172.172.1.2:1883,1551654979995,RECEIVED
Subscriber_001,topicA,topicA-544,172.172.1.2:1883,1551654980091,RECEIVED
Subscriber_001,topicA,topicA-545,172.172.1.2:1883,1551654980199,RECEIVED
Subscriber_001,topicA,topicA-546,172.172.1.2:1883,1551654980293,RECEIVED
Subscriber_001,topicA,topicA-547,172.172.1.2:1883,1551654980395,RECEIVED
Subscriber_001,topicA,topicA-548,172.172.1.2:1883,1551654980489,RECEIVED
Subscriber_001,topicA,topicA-549,172.172.1.2:1883,1551654980590,RECEIVED
Subscriber_001,topicA,topicA-550,172.172.1.2:1883,1551654980687,RECEIVED
Subscriber_001,topicA,topicA-551,172.172.1.2:1883,1551654980793,RECEIVED
Subscriber_001,topicA,topicA-552,172.172.1.2:1883,1551654980901,RECEIVED
Subscriber_001,topicA,topicA-553,172.172.1.2:1883,1551654980989,RECEIVED
Subscriber_001,topicA,topicA-554,172.172.1.2:1883,1551654981095,RECEIVED
Subscriber_001,topicA,topicA-555,172.172.1.2:1883,1551654981193,RECEIVED
Subscriber_001,topicA,topicA-556,172.172.1.2:1883,1551654981300,RECEIVED
Subscriber_001,topicA,topicA-557,172.172.1.2:1883,1551654981390,RECEIVED
Subscriber_001,topicA,topicA-558,172.172.1.2:1883,1551654981490,RECEIVED
Subscriber_001,topicA,topicA-559,172.172.1.2:1883,1551654981592,RECEIVED
Subscriber_001,topicA,topicA-560,172.172.1.2:1883,1551654981688,RECEIVED
Subscriber_001,topicA,topicA-561,172.172.1.2:1883,1551654981787,RECEIVED
Subscriber_001,topicA,topicA-562,172.172.1.2:1883,1551654981889,RECEIVED
Subscriber_001,topicA,topicA-563,172.172.1.2:1883,1551654981991,RECEIVED
Subscriber_001,topicA,topicA-564,172.172.1.2:1883,1551654982100,RECEIVED
Subscriber_001,topicA,topicA-565,172.172.1.2:1883,1551654982202,RECEIVED
Subscriber_001,topicA,topicA-566,172.172.1.2:1883,1551654982289,RECEIVED
Subscriber_001,topicA,topicA-567,172.172.1.2:1883,1551654982396,RECEIVED
Subscriber_001,topicA,topicA-568,172.172.1.2:1883,1551654982498,RECEIVED
Subscriber_001,topicA,topicA-569,172.172.1.2:1883,1551654982593,RECEIVED
Subscriber_001,topicA,topicA-570,172.172.1.2:1883,1551654982700,RECEIVED
Subscriber_001,topicA,topicA-571,172.172.1.2:1883,1551654982797,RECEIVED
Subscriber_001,topicA,topicA-572,172.172.1.2:1883,1551654982900,RECEIVED
Subscriber_001,topicA,topicA-573,172.172.1.2:1883,1551654982995,RECEIVED
Subscriber_001,topicA,topicA-574,172.172.1.2:1883,1551654983096,RECEIVED
Subscriber_001,topicA,topicA-575,172.172.1.2:1883,1551654983192,RECEIVED
Subscriber_001,topicA,topicA-576,172.172.1.2:1883,1551654983306,RECEIVED
Subscriber_001,topicA,topicA-577,172.172.1.2:1883,1551654983396,RECEIVED
Subscriber_001,topicA,topicA-578,172.172.1.2:1883,1551654983495,RECEIVED
Subscriber_001,topicA,topicA-579,172.172.1.2:1883,1551654983592,RECEIVED
Subscriber_001,topicA,topicA-580,172.172.1.2:1883,1551654983699,RECEIVED
Subscriber_001,topicA,topicA-581,172.172.1.2:1883,1551654983798,RECEIVED
Subscriber_001,topicA,topicA-582,172.172.1.2:1883,1551654983887,RECEIVED
Subscriber_001,topicA,topicA-583,172.172.1.2:1883,1551654983998,RECEIVED
Subscriber_001,topicA,topicA-584,172.172.1.2:1883,1551654984086,RECEIVED
Subscriber_001,topicA,topicA-585,172.172.1.2:1883,1551654984200,RECEIVED
Subscriber_001,topicA,topicA-586,172.172.1.2:1883,1551654984292,RECEIVED
Subscriber_001,topicA,topicA-587,172.172.1.2:1883,1551654984395,RECEIVED
Subscriber_001,topicA,topicA-588,172.172.1.2:1883,1551654984489,RECEIVED
Subscriber_001,topicA,topicA-589,172.172.1.2:1883,1551654984599,RECEIVED
Subscriber_001,topicA,topicA-590,172.172.1.2:1883,1551654984689,RECEIVED
Subscriber_001,topicA,topicA-591,172.172.1.2:1883,1551654984789,RECEIVED
Subscriber_001,topicA,topicA-592,172.172.1.2:1883,1551654984884,RECEIVED
Subscriber_001,topicA,topicA-593,172.172.1.2:1883,1551654984993,RECEIVED
Subscriber_001,topicA,topicA-594,172.172.1.2:1883,1551654985085,RECEIVED
Subscriber_001,topicA,topicA-595,172.172.1.2:1883,1551654985182,RECEIVED
Subscriber_001,topicA,topicA-596,172.172.1.2:1883,1551654985291,RECEIVED
Subscriber_001,topicA,topicA-597,172.172.1.2:1883,1551654985390,RECEIVED
Subscriber_001,topicA,topicA-598,172.172.1.2:1883,1551654985496,RECEIVED
Subscriber_001,topicA,topicA-599,172.172.1.2:1883,1551654985594,RECEIVED
Subscriber_001,topicA,topicA-600,172.172.1.2:1883,1551654985690,RECEIVED
Subscriber_001,topicA,topicA-601,172.172.1.2:1883,1551654985798,RECEIVED
Subscriber_001,topicA,topicA-602,172.172.1.2:1883,1551654985895,RECEIVED
Subscriber_001,topicA,topicA-603,172.172.1.2:1883,1551654985994,RECEIVED
Subscriber_001,topicA,topicA-604,172.172.1.2:1883,1551654986093,RECEIVED
Subscriber_001,topicA,topicA-605,172.172.1.2:1883,1551654986184,RECEIVED
Subscriber_001,topicA,topicA-606,172.172.1.2:1883,1551654986282,RECEIVED
Subscriber_001,topicA,topicA-607,172.172.1.2:1883,1551654986386,RECEIVED
Subscriber_001,topicA,topicA-608,172.172.1.2:1883,1551654986490,RECEIVED
Subscriber_001,topicA,topicA-609,172.172.1.2:1883,1551654986592,RECEIVED
Subscriber_001,topicA,topicA-610,172.172.1.2:1883,1551654986695,RECEIVED
Subscriber_001,topicA,topicA-611,172.172.1.2:1883,1551654986794,RECEIVED
Subscriber_001,topicA,topicA-612,172.172.1.2:1883,1551654986895,RECEIVED
Subscriber_001,topicA,topicA-613,172.172.1.2:1883,1551654986998,RECEIVED
Subscriber_001,topicA,topicA-614,172.172.1.2:1883,1551654987093,RECEIVED
Subscriber_001,topicA,topicA-615,172.172.1.2:1883,1551654987185,RECEIVED
Subscriber_001,topicA,topicA-616,172.172.1.2:1883,1551654987296,RECEIVED
Subscriber_001,topicA,topicA-617,172.172.1.2:1883,1551654987394,RECEIVED
Subscriber_001,topicA,topicA-618,172.172.1.2:1883,1551654987493,RECEIVED
Subscriber_001,topicA,topicA-619,172.172.1.2:1883,1551654987613,RECEIVED
Subscriber_001,topicA,topicA-620,172.172.1.2:1883,1551654987685,RECEIVED
Subscriber_001,topicA,topicA-621,172.172.1.2:1883,1551654987785,RECEIVED
Subscriber_001,topicA,topicA-622,172.172.1.2:1883,1551654987883,RECEIVED
Subscriber_001,topicA,topicA-623,172.172.1.2:1883,1551654987991,RECEIVED
Subscriber_001,topicA,topicA-624,172.172.1.2:1883,1551654988099,RECEIVED
Subscriber_001,topicA,topicA-625,172.172.1.2:1883,1551654988199,RECEIVED
Subscriber_001,topicA,topicA-626,172.172.1.2:1883,1551654988295,RECEIVED
Subscriber_001,topicA,topicA-627,172.172.1.2:1883,1551654988392,RECEIVED
Subscriber_001,topicA,topicA-628,172.172.1.2:1883,1551654988490,RECEIVED
Subscriber_001,topicA,topicA-629,172.172.1.2:1883,1551654988622,RECEIVED
Subscriber_001,topicA,topicA-630,172.172.1.2:1883,1551654988696,RECEIVED
Subscriber_001,topicA,topicA-631,172.172.1.2:1883,1551654988798,RECEIVED
Subscriber_001,topicA,topicA-632,172.172.1.2:1883,1551654988888,RECEIVED
Subscriber_001,topicA,topicA-633,172.172.1.2:1883,1551654988983,RECEIVED
Subscriber_001,topicA,topicA-634,172.172.1.2:1883,1551654989091,RECEIVED
Subscriber_001,topicA,topicA-635,172.172.1.2:1883,1551654989188,RECEIVED
Subscriber_001,topicA,topicA-636,172.172.1.2:1883,1551654989289,RECEIVED
Subscriber_001,topicA,topicA-637,172.172.1.2:1883,1551654989388,RECEIVED
Subscriber_001,topicA,topicA-638,172.172.1.2:1883,1551654989484,RECEIVED
Subscriber_001,topicA,topicA-639,172.172.1.2:1883,1551654989588,RECEIVED
Subscriber_001,topicA,topicA-640,172.172.1.2:1883,1551654989689,RECEIVED
Subscriber_001,topicA,topicA-641,172.172.1.2:1883,1551654989785,RECEIVED
Subscriber_001,topicA,topicA-642,172.172.1.2:1883,1551654989890,RECEIVED
Subscriber_001,topicA,topicA-643,172.172.1.2:1883,1551654989988,RECEIVED
Subscriber_001,topicA,topicA-644,172.172.1.2:1883,1551654990093,RECEIVED
Subscriber_001,topicA,topicA-645,172.172.1.2:1883,1551654990190,RECEIVED
Subscriber_001,topicA,topicA-646,172.172.1.2:1883,1551654990302,RECEIVED
Subscriber_001,topicA,topicA-647,172.172.1.2:1883,1551654990382,RECEIVED
Subscriber_001,topicA,topicA-648,172.172.1.2:1883,1551654990487,RECEIVED
Subscriber_001,topicA,topicA-649,172.172.1.2:1883,1551654990594,RECEIVED
Subscriber_001,topicA,topicA-650,172.172.1.2:1883,1551654990685,RECEIVED
Subscriber_001,topicA,topicA-651,172.172.1.2:1883,1551654990787,RECEIVED
Subscriber_001,topicA,topicA-652,172.172.1.2:1883,1551654990885,RECEIVED
Subscriber_001,topicA,topicA-653,172.172.1.2:1883,1551654990986,RECEIVED
Subscriber_001,topicA,topicA-654,172.172.1.2:1883,1551654991084,RECEIVED
Subscriber_001,topicA,topicA-655,172.172.1.2:1883,1551654991186,RECEIVED
Subscriber_001,topicA,topicA-656,172.172.1.2:1883,1551654991286,RECEIVED
Subscriber_001,topicA,topicA-657,172.172.1.2:1883,1551654991390,RECEIVED
