timestamp,event,migrationId
1551646470778,INITIALIZED,c4bb807c-eac1-4858-afe6-114716a411b3
1551646470780,topicC-INITIALIZED,c4bb807c-eac1-4858-afe6-114716a411b3
1551646470782,topicA-INITIALIZED,c4bb807c-eac1-4858-afe6-114716a411b3
1551646470782,topicB-INITIALIZED,c4bb807c-eac1-4858-afe6-114716a411b3
1551646470996,topicC-SYNCING,c4bb807c-eac1-4858-afe6-114716a411b3
1551646470996,topicA-SYNCING,c4bb807c-eac1-4858-afe6-114716a411b3
1551646470997,topicB-SYNCING,c4bb807c-eac1-4858-afe6-114716a411b3
1551646470999,SYNCING,c4bb807c-eac1-4858-afe6-114716a411b3
1551646471000,topicC-SYNCING_THIS,c4bb807c-eac1-4858-afe6-114716a411b3
1551646471000,topicA-SYNCING_THIS,c4bb807c-eac1-4858-afe6-114716a411b3
1551646471001,topicB-SYNCING_THIS,c4bb807c-eac1-4858-afe6-114716a411b3
1551646471329,topicA-SYNCED,c4bb807c-eac1-4858-afe6-114716a411b3
1551646471332,topicC-SYNCED,c4bb807c-eac1-4858-afe6-114716a411b3
1551646471335,topicB-SYNCED,c4bb807c-eac1-4858-afe6-114716a411b3
1551646471336,SYNCED,c4bb807c-eac1-4858-afe6-114716a411b3
1551646471343,topicC-FINISHED,c4bb807c-eac1-4858-afe6-114716a411b3
1551646471343,topicA-FINISHED,c4bb807c-eac1-4858-afe6-114716a411b3
1551646471404,FINISHED,c4bb807c-eac1-4858-afe6-114716a411b3
1551646471419,topicB-FINISHED,c4bb807c-eac1-4858-afe6-114716a411b3
