[1] "Duration B1: 2580"
[1] "Duration B2: 2261"
[1] "Duration MIGRATE: 297"
[1] "Duration MIGACK: 22"
[1] "addrow"
[1] "INITIALIZED"
  timestamp       event                          migrationId
1         0 INITIALIZED 79631603-4768-46b0-a389-7d6eee400db4
[1] "addrow"
[1] "SYNCING"
  timestamp   event                          migrationId
3       549 SYNCING 79631603-4768-46b0-a389-7d6eee400db4
[1] "addrow"
[1] "SYNCED"
  timestamp  event                          migrationId
6      2493 SYNCED 79631603-4768-46b0-a389-7d6eee400db4
[1] "addrow"
[1] "FINISHED"
  timestamp    event                          migrationId
8      2580 FINISHED 79631603-4768-46b0-a389-7d6eee400db4
[1] "addrow"
[1] "topicA-INITIALIZED"
  timestamp              event                          migrationId
2         3 topicA-INITIALIZED 79631603-4768-46b0-a389-7d6eee400db4
[1] "addrow"
[1] "topicA-SYNCING"
  timestamp          event                          migrationId
4       549 topicA-SYNCING 79631603-4768-46b0-a389-7d6eee400db4
[1] "addrow"
[1] "topicA-SYNCED"
  timestamp         event                          migrationId
5      2486 topicA-SYNCED 79631603-4768-46b0-a389-7d6eee400db4
[1] "addrow"
[1] "topicA-FINISHED"
  timestamp           event                          migrationId
7      2575 topicA-FINISHED 79631603-4768-46b0-a389-7d6eee400db4
[1] "addrow"
[1] "INITIALIZED"
  timestamp       event                          migrationId
1         0 INITIALIZED 79631603-4768-46b0-a389-7d6eee400db4
[1] "addrow"
[1] "SYNCING"
  timestamp   event                          migrationId
3       549 SYNCING 79631603-4768-46b0-a389-7d6eee400db4
[1] "addrow"
[1] "SYNCED"
  timestamp  event                          migrationId
6      2493 SYNCED 79631603-4768-46b0-a389-7d6eee400db4
[1] "addrow"
[1] "FINISHED"
  timestamp    event                          migrationId
8      2580 FINISHED 79631603-4768-46b0-a389-7d6eee400db4
[1] "addrow"
[1] "topicA-INITIALIZED"
  timestamp              event                          migrationId
2         3 topicA-INITIALIZED 79631603-4768-46b0-a389-7d6eee400db4
[1] "addrow"
[1] "topicA-SYNCING"
  timestamp          event                          migrationId
4       549 topicA-SYNCING 79631603-4768-46b0-a389-7d6eee400db4
[1] "addrow"
[1] "topicA-SYNCED"
  timestamp         event                          migrationId
5      2486 topicA-SYNCED 79631603-4768-46b0-a389-7d6eee400db4
[1] "addrow"
[1] "topicA-FINISHED"
  timestamp           event                          migrationId
7      2575 topicA-FINISHED 79631603-4768-46b0-a389-7d6eee400db4
pdf 
  2 
[1] "addrow"
[1] "INITIALIZED"
  timestamp       event                          migrationId
1         0 INITIALIZED 79631603-4768-46b0-a389-7d6eee400db4
[1] "addrow"
[1] "SYNCING"
  timestamp   event                          migrationId
3       549 SYNCING 79631603-4768-46b0-a389-7d6eee400db4
[1] "addrow"
[1] "SYNCED"
  timestamp  event                          migrationId
6      2493 SYNCED 79631603-4768-46b0-a389-7d6eee400db4
[1] "addrow"
[1] "FINISHED"
  timestamp    event                          migrationId
8      2580 FINISHED 79631603-4768-46b0-a389-7d6eee400db4
[1] "addrow"
[1] "topicA-INITIALIZED"
  timestamp              event                          migrationId
2         3 topicA-INITIALIZED 79631603-4768-46b0-a389-7d6eee400db4
[1] "addrow"
[1] "topicA-SYNCING"
  timestamp          event                          migrationId
4       549 topicA-SYNCING 79631603-4768-46b0-a389-7d6eee400db4
[1] "addrow"
[1] "topicA-SYNCED"
  timestamp         event                          migrationId
5      2486 topicA-SYNCED 79631603-4768-46b0-a389-7d6eee400db4
[1] "addrow"
[1] "topicA-FINISHED"
  timestamp           event                          migrationId
7      2575 topicA-FINISHED 79631603-4768-46b0-a389-7d6eee400db4
pdf 
  2 
[1] "addrow"
[1] "INITIALIZED"
  timestamp       event                          migrationId
1       297 INITIALIZED 79631603-4768-46b0-a389-7d6eee400db4
[1] "addrow"
[1] "SYNCING"
  timestamp   event                          migrationId
4       514 SYNCING 79631603-4768-46b0-a389-7d6eee400db4
[1] "addrow"
[1] "SYNCED"
  timestamp  event                          migrationId
7      2547 SYNCED 79631603-4768-46b0-a389-7d6eee400db4
[1] "addrow"
[1] "FINISHED"
  timestamp    event                          migrationId
9      2558 FINISHED 79631603-4768-46b0-a389-7d6eee400db4
[1] "addrow"
[1] "topicA-INITIALIZED"
  timestamp              event                          migrationId
2       302 topicA-INITIALIZED 79631603-4768-46b0-a389-7d6eee400db4
[1] "addrow"
[1] "topicA-SYNCING"
  timestamp          event                          migrationId
3       507 topicA-SYNCING 79631603-4768-46b0-a389-7d6eee400db4
[1] "addrow"
[1] "topicA-SYNCED"
  timestamp         event                          migrationId
6      2547 topicA-SYNCED 79631603-4768-46b0-a389-7d6eee400db4
[1] "addrow"
[1] "topicA-FINISHED"
  timestamp           event                          migrationId
8      2554 topicA-FINISHED 79631603-4768-46b0-a389-7d6eee400db4
pdf 
  2 
[1] "addrow"
[1] "INITIALIZED"
  timestamp       event                          migrationId
1       297 INITIALIZED 79631603-4768-46b0-a389-7d6eee400db4
[1] "addrow"
[1] "SYNCING"
  timestamp   event                          migrationId
4       514 SYNCING 79631603-4768-46b0-a389-7d6eee400db4
[1] "addrow"
[1] "SYNCED"
  timestamp  event                          migrationId
7      2547 SYNCED 79631603-4768-46b0-a389-7d6eee400db4
[1] "addrow"
[1] "FINISHED"
  timestamp    event                          migrationId
9      2558 FINISHED 79631603-4768-46b0-a389-7d6eee400db4
[1] "addrow"
[1] "topicA-INITIALIZED"
  timestamp              event                          migrationId
2       302 topicA-INITIALIZED 79631603-4768-46b0-a389-7d6eee400db4
[1] "addrow"
[1] "topicA-SYNCING"
  timestamp          event                          migrationId
3       507 topicA-SYNCING 79631603-4768-46b0-a389-7d6eee400db4
[1] "addrow"
[1] "topicA-SYNCED"
  timestamp         event                          migrationId
6      2547 topicA-SYNCED 79631603-4768-46b0-a389-7d6eee400db4
[1] "addrow"
[1] "topicA-FINISHED"
  timestamp           event                          migrationId
8      2554 topicA-FINISHED 79631603-4768-46b0-a389-7d6eee400db4
pdf 
  2 
