[1] "Duration B1: 784"
[1] "Duration B2: 485"
[1] "Duration MIGRATE: 295"
[1] "Duration MIGACK: 4"
[1] "addrow"
[1] "INITIALIZED"
  timestamp       event                          migrationId
1         0 INITIALIZED 79d7ae55-ca1f-4541-a527-2a1812232d5c
[1] "addrow"
[1] "SYNCING"
[1] "addrow"
[1] "SYNCED"
[1] "addrow"
[1] "FINISHED"
  timestamp    event                          migrationId
9       784 FINISHED 79d7ae55-ca1f-4541-a527-2a1812232d5c
[1] "addrow"
[1] "topicA-INITIALIZED"
  timestamp              event                          migrationId
3        14 topicA-INITIALIZED 79d7ae55-ca1f-4541-a527-2a1812232d5c
[1] "addrow"
[1] "topicA-SYNCING"
[1] "addrow"
[1] "topicA-SYNCED"
  timestamp         event                          migrationId
5        21 topicA-SYNCED 79d7ae55-ca1f-4541-a527-2a1812232d5c
[1] "addrow"
[1] "topicA-FINISHED"
  timestamp           event                          migrationId
7       783 topicA-FINISHED 79d7ae55-ca1f-4541-a527-2a1812232d5c
[1] "addrow"
[1] "topicB-INITIALIZED"
  timestamp              event                          migrationId
4        15 topicB-INITIALIZED 79d7ae55-ca1f-4541-a527-2a1812232d5c
[1] "addrow"
[1] "topicB-SYNCING"
[1] "addrow"
[1] "topicB-SYNCED"
[1] "addrow"
[1] "topicB-FINISHED"
  timestamp           event                          migrationId
8       784 topicB-FINISHED 79d7ae55-ca1f-4541-a527-2a1812232d5c
[1] "addrow"
[1] "topicC-INITIALIZED"
  timestamp              event                          migrationId
2        10 topicC-INITIALIZED 79d7ae55-ca1f-4541-a527-2a1812232d5c
[1] "addrow"
[1] "topicC-SYNCING"
[1] "addrow"
[1] "topicC-SYNCED"
[1] "addrow"
[1] "topicC-FINISHED"
  timestamp           event                          migrationId
6       783 topicC-FINISHED 79d7ae55-ca1f-4541-a527-2a1812232d5c
