timestamp,event,migrationId
1551650935705,INITIALIZED,034259e5-3f88-4f7a-89eb-c0a3ff20b846
1551650935708,topicA-INITIALIZED,034259e5-3f88-4f7a-89eb-c0a3ff20b846
1551650935895,topicA-SYNCING,034259e5-3f88-4f7a-89eb-c0a3ff20b846
1551650935898,SYNCING,034259e5-3f88-4f7a-89eb-c0a3ff20b846
1551650935899,topicA-SYNCING_OPPONENT,034259e5-3f88-4f7a-89eb-c0a3ff20b846
1551650937899,topicA-SYNCED,034259e5-3f88-4f7a-89eb-c0a3ff20b846
1551650937899,SYNCED,034259e5-3f88-4f7a-89eb-c0a3ff20b846
1551650937905,topicA-FINISHED,034259e5-3f88-4f7a-89eb-c0a3ff20b846
1551650937912,FINISHED,034259e5-3f88-4f7a-89eb-c0a3ff20b846
