timestamp,event,migrationId
1551659396688,INITIALIZED,25008794-a74d-4c6f-973b-7a1ebea9dcab
1551659396689,topicA-INITIALIZED,25008794-a74d-4c6f-973b-7a1ebea9dcab
1551659396910,topicA-SYNCING,25008794-a74d-4c6f-973b-7a1ebea9dcab
1551659396910,SYNCING,25008794-a74d-4c6f-973b-7a1ebea9dcab
1551659396912,topicA-SYNCING_THIS,25008794-a74d-4c6f-973b-7a1ebea9dcab
1551659398415,topicA-SYNCED,25008794-a74d-4c6f-973b-7a1ebea9dcab
1551659398416,SYNCED,25008794-a74d-4c6f-973b-7a1ebea9dcab
1551659398450,topicA-FINISHED,25008794-a74d-4c6f-973b-7a1ebea9dcab
1551659398453,FINISHED,25008794-a74d-4c6f-973b-7a1ebea9dcab
