[1] "Duration B1: 2180"
[1] "Duration B2: 1824"
[1] "Duration MIGRATE: 315"
[1] "Duration MIGACK: 41"
[1] "addrow"
[1] "INITIALIZED"
  timestamp       event                          migrationId
1         0 INITIALIZED d68ab99c-07ba-49d4-ba75-75ad32362323
[1] "addrow"
[1] "SYNCING"
[1] "addrow"
[1] "SYNCED"
[1] "addrow"
[1] "FINISHED"
  timestamp    event                          migrationId
9      2180 FINISHED d68ab99c-07ba-49d4-ba75-75ad32362323
[1] "addrow"
[1] "topicA-INITIALIZED"
  timestamp              event                          migrationId
3        10 topicA-INITIALIZED d68ab99c-07ba-49d4-ba75-75ad32362323
[1] "addrow"
[1] "topicA-SYNCING"
[1] "addrow"
[1] "topicA-SYNCED"
  timestamp         event                          migrationId
5        24 topicA-SYNCED d68ab99c-07ba-49d4-ba75-75ad32362323
[1] "addrow"
[1] "topicA-FINISHED"
  timestamp           event                          migrationId
7      2179 topicA-FINISHED d68ab99c-07ba-49d4-ba75-75ad32362323
[1] "addrow"
[1] "topicB-INITIALIZED"
  timestamp              event                          migrationId
4        17 topicB-INITIALIZED d68ab99c-07ba-49d4-ba75-75ad32362323
[1] "addrow"
[1] "topicB-SYNCING"
[1] "addrow"
[1] "topicB-SYNCED"
[1] "addrow"
[1] "topicB-FINISHED"
  timestamp           event                          migrationId
8      2180 topicB-FINISHED d68ab99c-07ba-49d4-ba75-75ad32362323
[1] "addrow"
[1] "topicC-INITIALIZED"
  timestamp              event                          migrationId
2         4 topicC-INITIALIZED d68ab99c-07ba-49d4-ba75-75ad32362323
[1] "addrow"
[1] "topicC-SYNCING"
[1] "addrow"
[1] "topicC-SYNCED"
[1] "addrow"
[1] "topicC-FINISHED"
  timestamp           event                          migrationId
6      2133 topicC-FINISHED d68ab99c-07ba-49d4-ba75-75ad32362323
