[1] "Duration B1: 2508"
[1] "Duration B2: 2206"
[1] "Duration MIGRATE: 272"
[1] "Duration MIGACK: 30"
[1] "addrow"
[1] "INITIALIZED"
  timestamp       event                          migrationId
1         0 INITIALIZED 93cbb2b4-40ca-4098-8b6e-bf74dd178ba6
[1] "addrow"
[1] "SYNCING"
  timestamp   event                          migrationId
3       532 SYNCING 93cbb2b4-40ca-4098-8b6e-bf74dd178ba6
[1] "addrow"
[1] "SYNCED"
  timestamp  event                          migrationId
6      2411 SYNCED 93cbb2b4-40ca-4098-8b6e-bf74dd178ba6
[1] "addrow"
[1] "FINISHED"
  timestamp    event                          migrationId
7      2508 FINISHED 93cbb2b4-40ca-4098-8b6e-bf74dd178ba6
[1] "addrow"
[1] "topicA-INITIALIZED"
  timestamp              event                          migrationId
2         2 topicA-INITIALIZED 93cbb2b4-40ca-4098-8b6e-bf74dd178ba6
[1] "addrow"
[1] "topicA-SYNCING"
  timestamp          event                          migrationId
4       533 topicA-SYNCING 93cbb2b4-40ca-4098-8b6e-bf74dd178ba6
[1] "addrow"
[1] "topicA-SYNCED"
  timestamp         event                          migrationId
5      2408 topicA-SYNCED 93cbb2b4-40ca-4098-8b6e-bf74dd178ba6
[1] "addrow"
[1] "topicA-FINISHED"
  timestamp           event                          migrationId
8      2511 topicA-FINISHED 93cbb2b4-40ca-4098-8b6e-bf74dd178ba6
[1] "addrow"
[1] "INITIALIZED"
  timestamp       event                          migrationId
1         0 INITIALIZED 93cbb2b4-40ca-4098-8b6e-bf74dd178ba6
[1] "addrow"
[1] "SYNCING"
  timestamp   event                          migrationId
3       532 SYNCING 93cbb2b4-40ca-4098-8b6e-bf74dd178ba6
[1] "addrow"
[1] "SYNCED"
  timestamp  event                          migrationId
6      2411 SYNCED 93cbb2b4-40ca-4098-8b6e-bf74dd178ba6
[1] "addrow"
[1] "FINISHED"
  timestamp    event                          migrationId
7      2508 FINISHED 93cbb2b4-40ca-4098-8b6e-bf74dd178ba6
[1] "addrow"
[1] "topicA-INITIALIZED"
  timestamp              event                          migrationId
2         2 topicA-INITIALIZED 93cbb2b4-40ca-4098-8b6e-bf74dd178ba6
[1] "addrow"
[1] "topicA-SYNCING"
  timestamp          event                          migrationId
4       533 topicA-SYNCING 93cbb2b4-40ca-4098-8b6e-bf74dd178ba6
[1] "addrow"
[1] "topicA-SYNCED"
  timestamp         event                          migrationId
5      2408 topicA-SYNCED 93cbb2b4-40ca-4098-8b6e-bf74dd178ba6
[1] "addrow"
[1] "topicA-FINISHED"
  timestamp           event                          migrationId
8      2511 topicA-FINISHED 93cbb2b4-40ca-4098-8b6e-bf74dd178ba6
pdf 
  2 
[1] "addrow"
[1] "INITIALIZED"
  timestamp       event                          migrationId
1         0 INITIALIZED 93cbb2b4-40ca-4098-8b6e-bf74dd178ba6
[1] "addrow"
[1] "SYNCING"
  timestamp   event                          migrationId
3       532 SYNCING 93cbb2b4-40ca-4098-8b6e-bf74dd178ba6
[1] "addrow"
[1] "SYNCED"
  timestamp  event                          migrationId
6      2411 SYNCED 93cbb2b4-40ca-4098-8b6e-bf74dd178ba6
[1] "addrow"
[1] "FINISHED"
  timestamp    event                          migrationId
7      2508 FINISHED 93cbb2b4-40ca-4098-8b6e-bf74dd178ba6
[1] "addrow"
[1] "topicA-INITIALIZED"
  timestamp              event                          migrationId
2         2 topicA-INITIALIZED 93cbb2b4-40ca-4098-8b6e-bf74dd178ba6
[1] "addrow"
[1] "topicA-SYNCING"
  timestamp          event                          migrationId
4       533 topicA-SYNCING 93cbb2b4-40ca-4098-8b6e-bf74dd178ba6
[1] "addrow"
[1] "topicA-SYNCED"
  timestamp         event                          migrationId
5      2408 topicA-SYNCED 93cbb2b4-40ca-4098-8b6e-bf74dd178ba6
[1] "addrow"
[1] "topicA-FINISHED"
  timestamp           event                          migrationId
8      2511 topicA-FINISHED 93cbb2b4-40ca-4098-8b6e-bf74dd178ba6
pdf 
  2 
[1] "addrow"
[1] "INITIALIZED"
  timestamp       event                          migrationId
1       272 INITIALIZED 93cbb2b4-40ca-4098-8b6e-bf74dd178ba6
[1] "addrow"
[1] "SYNCING"
  timestamp   event                          migrationId
4       481 SYNCING 93cbb2b4-40ca-4098-8b6e-bf74dd178ba6
[1] "addrow"
[1] "SYNCED"
  timestamp  event                          migrationId
7      2465 SYNCED 93cbb2b4-40ca-4098-8b6e-bf74dd178ba6
[1] "addrow"
[1] "FINISHED"
  timestamp    event                          migrationId
9      2478 FINISHED 93cbb2b4-40ca-4098-8b6e-bf74dd178ba6
[1] "addrow"
[1] "topicA-INITIALIZED"
  timestamp              event                          migrationId
2       281 topicA-INITIALIZED 93cbb2b4-40ca-4098-8b6e-bf74dd178ba6
[1] "addrow"
[1] "topicA-SYNCING"
  timestamp          event                          migrationId
3       481 topicA-SYNCING 93cbb2b4-40ca-4098-8b6e-bf74dd178ba6
[1] "addrow"
[1] "topicA-SYNCED"
  timestamp         event                          migrationId
6      2464 topicA-SYNCED 93cbb2b4-40ca-4098-8b6e-bf74dd178ba6
[1] "addrow"
[1] "topicA-FINISHED"
  timestamp           event                          migrationId
8      2477 topicA-FINISHED 93cbb2b4-40ca-4098-8b6e-bf74dd178ba6
pdf 
  2 
[1] "addrow"
[1] "INITIALIZED"
  timestamp       event                          migrationId
1       272 INITIALIZED 93cbb2b4-40ca-4098-8b6e-bf74dd178ba6
[1] "addrow"
[1] "SYNCING"
  timestamp   event                          migrationId
4       481 SYNCING 93cbb2b4-40ca-4098-8b6e-bf74dd178ba6
[1] "addrow"
[1] "SYNCED"
  timestamp  event                          migrationId
7      2465 SYNCED 93cbb2b4-40ca-4098-8b6e-bf74dd178ba6
[1] "addrow"
[1] "FINISHED"
  timestamp    event                          migrationId
9      2478 FINISHED 93cbb2b4-40ca-4098-8b6e-bf74dd178ba6
[1] "addrow"
[1] "topicA-INITIALIZED"
  timestamp              event                          migrationId
2       281 topicA-INITIALIZED 93cbb2b4-40ca-4098-8b6e-bf74dd178ba6
[1] "addrow"
[1] "topicA-SYNCING"
  timestamp          event                          migrationId
3       481 topicA-SYNCING 93cbb2b4-40ca-4098-8b6e-bf74dd178ba6
[1] "addrow"
[1] "topicA-SYNCED"
  timestamp         event                          migrationId
6      2464 topicA-SYNCED 93cbb2b4-40ca-4098-8b6e-bf74dd178ba6
[1] "addrow"
[1] "topicA-FINISHED"
  timestamp           event                          migrationId
8      2477 topicA-FINISHED 93cbb2b4-40ca-4098-8b6e-bf74dd178ba6
pdf 
  2 
