clientId,topic,guid,broker,timestamp,type
Publisher_002,topicA,topicA-1,172.172.1.2:1883,1551644373631,PRODUCED
Publisher_002,topicA,topicA-2,172.172.1.2:1883,1551644373871,PRODUCED
Publisher_002,topicA,topicA-3,172.172.1.2:1883,1551644373876,PRODUCED
Publisher_002,topicA,topicA-4,172.172.1.2:1883,1551644373880,PRODUCED
Publisher_002,topicA,topicA-5,172.172.1.2:1883,1551644373884,PRODUCED
Publisher_002,topicA,topicA-6,172.172.1.2:1883,1551644373916,PRODUCED
Publisher_002,topicA,topicA-7,172.172.1.2:1883,1551644374016,PRODUCED
Publisher_002,topicA,topicA-8,172.172.1.2:1883,1551644374116,PRODUCED
Publisher_002,topicA,topicA-9,172.172.1.2:1883,1551644374216,PRODUCED
Publisher_002,topicA,topicA-10,172.172.1.2:1883,1551644374319,PRODUCED
Publisher_002,topicA,topicA-11,172.172.1.2:1883,1551644374417,PRODUCED
Publisher_002,topicA,topicA-12,172.172.1.2:1883,1551644374516,PRODUCED
Publisher_002,topicA,topicA-13,172.172.1.2:1883,1551644374617,PRODUCED
Publisher_002,topicA,topicA-14,172.172.1.2:1883,1551644374716,PRODUCED
Publisher_002,topicA,topicA-15,172.172.1.2:1883,1551644374816,PRODUCED
Publisher_002,topicA,topicA-16,172.172.1.2:1883,1551644374920,PRODUCED
Publisher_002,topicA,topicA-17,172.172.1.2:1883,1551644375016,PRODUCED
Publisher_002,topicA,topicA-18,172.172.1.2:1883,1551644375117,PRODUCED
Publisher_002,topicA,topicA-19,172.172.1.2:1883,1551644375218,PRODUCED
Publisher_002,topicA,topicA-20,172.172.1.2:1883,1551644375318,PRODUCED
Publisher_002,topicA,topicA-21,172.172.1.2:1883,1551644375417,PRODUCED
Publisher_002,topicA,topicA-22,172.172.1.2:1883,1551644375517,PRODUCED
Publisher_002,topicA,topicA-23,172.172.1.2:1883,1551644375616,PRODUCED
Publisher_002,topicA,topicA-24,172.172.1.2:1883,1551644375717,PRODUCED
Publisher_002,topicA,topicA-25,172.172.1.2:1883,1551644375818,PRODUCED
Publisher_002,topicA,topicA-26,172.172.1.2:1883,1551644375922,PRODUCED
Publisher_002,topicA,topicA-27,172.172.1.2:1883,1551644376017,PRODUCED
Publisher_002,topicA,topicA-28,172.172.1.2:1883,1551644376116,PRODUCED
Publisher_002,topicA,topicA-29,172.172.1.2:1883,1551644376216,PRODUCED
Publisher_002,topicA,topicA-30,172.172.1.2:1883,1551644376317,PRODUCED
Publisher_002,topicA,topicA-31,172.172.1.2:1883,1551644376417,PRODUCED
Publisher_002,topicA,topicA-32,172.172.1.2:1883,1551644376520,PRODUCED
Publisher_002,topicA,topicA-33,172.172.1.2:1883,1551644376618,PRODUCED
Publisher_002,topicA,topicA-34,172.172.1.2:1883,1551644376717,PRODUCED
Publisher_002,topicA,topicA-35,172.172.1.2:1883,1551644376816,PRODUCED
Publisher_002,topicA,topicA-36,172.172.1.2:1883,1551644376921,PRODUCED
Publisher_002,topicA,topicA-37,172.172.1.2:1883,1551644377016,PRODUCED
Publisher_002,topicA,topicA-38,172.172.1.2:1883,1551644377120,PRODUCED
Publisher_002,topicA,topicA-39,172.172.1.2:1883,1551644377216,PRODUCED
Publisher_002,topicA,topicA-40,172.172.1.2:1883,1551644377316,PRODUCED
Publisher_002,topicA,topicA-41,172.172.1.2:1883,1551644377416,PRODUCED
Publisher_002,topicA,topicA-42,172.172.1.2:1883,1551644377516,PRODUCED
Publisher_002,topicA,topicA-43,172.172.1.2:1883,1551644377616,PRODUCED
Publisher_002,topicA,topicA-44,172.172.1.2:1883,1551644377716,PRODUCED
Publisher_002,topicA,topicA-45,172.172.1.2:1883,1551644377816,PRODUCED
Publisher_002,topicA,topicA-46,172.172.1.2:1883,1551644377917,PRODUCED
Publisher_002,topicA,topicA-47,172.172.1.2:1883,1551644378016,PRODUCED
Publisher_002,topicA,topicA-48,172.172.1.2:1883,1551644378117,PRODUCED
Publisher_002,topicA,topicA-49,172.172.1.2:1883,1551644378216,PRODUCED
Publisher_002,topicA,topicA-50,172.172.1.2:1883,1551644378316,PRODUCED
Publisher_002,topicA,topicA-51,172.172.1.2:1883,1551644378416,PRODUCED
Publisher_002,topicA,topicA-52,172.172.1.2:1883,1551644378518,PRODUCED
Publisher_002,topicA,topicA-53,172.172.1.2:1883,1551644378616,PRODUCED
Publisher_002,topicA,topicA-54,172.172.1.2:1883,1551644378718,PRODUCED
Publisher_002,topicA,topicA-55,172.172.1.2:1883,1551644378818,PRODUCED
Publisher_002,topicA,topicA-56,172.172.1.2:1883,1551644378916,PRODUCED
Publisher_002,topicA,topicA-57,172.172.1.2:1883,1551644379017,PRODUCED
Publisher_002,topicA,topicA-58,172.172.1.2:1883,1551644379118,PRODUCED
Publisher_002,topicA,topicA-59,172.172.1.2:1883,1551644379219,PRODUCED
Publisher_002,topicA,topicA-60,172.172.1.2:1883,1551644379322,PRODUCED
Publisher_002,topicA,topicA-61,172.172.1.2:1883,1551644379416,PRODUCED
Publisher_002,topicA,topicA-62,172.172.1.2:1883,1551644379518,PRODUCED
Publisher_002,topicA,topicA-63,172.172.1.2:1883,1551644379616,PRODUCED
Publisher_002,topicA,topicA-64,172.172.1.2:1883,1551644379716,PRODUCED
Publisher_002,topicA,topicA-65,172.172.1.2:1883,1551644379816,PRODUCED
Publisher_002,topicA,topicA-66,172.172.1.2:1883,1551644379919,PRODUCED
Publisher_002,topicA,topicA-67,172.172.1.2:1883,1551644380016,PRODUCED
Publisher_002,topicA,topicA-68,172.172.1.2:1883,1551644380117,PRODUCED
Publisher_002,topicA,topicA-69,172.172.1.2:1883,1551644380219,PRODUCED
Publisher_002,topicA,topicA-70,172.172.1.2:1883,1551644380317,PRODUCED
Publisher_002,topicA,topicA-71,172.172.1.2:1883,1551644380416,PRODUCED
Publisher_002,topicA,topicA-72,172.172.1.2:1883,1551644380518,PRODUCED
Publisher_002,topicA,topicA-73,172.172.1.2:1883,1551644380617,PRODUCED
Publisher_002,topicA,topicA-74,172.172.1.2:1883,1551644380719,PRODUCED
Publisher_002,topicA,topicA-75,172.172.1.2:1883,1551644380816,PRODUCED
Publisher_002,topicA,topicA-76,172.172.1.2:1883,1551644380916,PRODUCED
Publisher_002,topicA,topicA-77,172.172.1.2:1883,1551644381016,PRODUCED
Publisher_002,topicA,topicA-78,172.172.1.2:1883,1551644381119,PRODUCED
Publisher_002,topicA,topicA-79,172.172.1.2:1883,1551644381216,PRODUCED
Publisher_002,topicA,topicA-80,172.172.1.2:1883,1551644381317,PRODUCED
Publisher_002,topicA,topicA-81,172.172.1.2:1883,1551644381416,PRODUCED
Publisher_002,topicA,topicA-82,172.172.1.2:1883,1551644381517,PRODUCED
Publisher_002,topicA,topicA-83,172.172.1.2:1883,1551644381616,PRODUCED
Publisher_002,topicA,topicA-84,172.172.1.2:1883,1551644381720,PRODUCED
Publisher_002,topicA,topicA-85,172.172.1.2:1883,1551644381818,PRODUCED
Publisher_002,topicA,topicA-86,172.172.1.2:1883,1551644381922,PRODUCED
Publisher_002,topicA,topicA-87,172.172.1.2:1883,1551644382021,PRODUCED
Publisher_002,topicA,topicA-88,172.172.1.2:1883,1551644382118,PRODUCED
Publisher_002,topicA,topicA-89,172.172.1.2:1883,1551644382218,PRODUCED
Publisher_002,topicA,topicA-90,172.172.1.2:1883,1551644382324,PRODUCED
Publisher_002,topicA,topicA-91,172.172.1.2:1883,1551644382416,PRODUCED
Publisher_002,topicA,topicA-92,172.172.1.2:1883,1551644382517,PRODUCED
Publisher_002,topicA,topicA-93,172.172.1.2:1883,1551644382618,PRODUCED
Publisher_002,topicA,topicA-94,172.172.1.2:1883,1551644382716,PRODUCED
Publisher_002,topicA,topicA-95,172.172.1.2:1883,1551644382817,PRODUCED
Publisher_002,topicA,topicA-96,172.172.1.2:1883,1551644382916,PRODUCED
Publisher_002,topicA,topicA-97,172.172.1.2:1883,1551644383016,PRODUCED
Publisher_002,topicA,topicA-98,172.172.1.2:1883,1551644383119,PRODUCED
Publisher_002,topicA,topicA-99,172.172.1.2:1883,1551644383216,PRODUCED
Publisher_002,topicA,topicA-100,172.172.1.2:1883,1551644383316,PRODUCED
Publisher_002,topicA,topicA-101,172.172.1.2:1883,1551644383418,PRODUCED
Publisher_002,topicA,topicA-102,172.172.1.2:1883,1551644383522,PRODUCED
Publisher_002,topicA,topicA-103,172.172.1.2:1883,1551644383616,PRODUCED
Publisher_002,topicA,topicA-104,172.172.1.2:1883,1551644383718,PRODUCED
Publisher_002,topicA,topicA-105,172.172.1.2:1883,1551644383816,PRODUCED
Publisher_002,topicA,topicA-106,172.172.1.2:1883,1551644383916,PRODUCED
Publisher_002,topicA,topicA-107,172.172.1.2:1883,1551644384017,PRODUCED
Publisher_002,topicA,topicA-108,172.172.1.2:1883,1551644384117,PRODUCED
Publisher_002,topicA,topicA-109,172.172.1.2:1883,1551644384216,PRODUCED
Publisher_002,topicA,topicA-110,172.172.1.2:1883,1551644384317,PRODUCED
Publisher_002,topicA,topicA-111,172.172.1.2:1883,1551644384425,PRODUCED
Publisher_002,topicA,topicA-112,172.172.1.2:1883,1551644384517,PRODUCED
Publisher_002,topicA,topicA-113,172.172.1.2:1883,1551644384617,PRODUCED
Publisher_002,topicA,topicA-114,172.172.1.2:1883,1551644384717,PRODUCED
Publisher_002,topicA,topicA-115,172.172.1.2:1883,1551644384818,PRODUCED
Publisher_002,topicA,topicA-116,172.172.1.2:1883,1551644384917,PRODUCED
Publisher_002,topicA,topicA-117,172.172.1.2:1883,1551644385016,PRODUCED
Publisher_002,topicA,topicA-118,172.172.1.2:1883,1551644385117,PRODUCED
Publisher_002,topicA,topicA-119,172.172.1.2:1883,1551644385218,PRODUCED
Publisher_002,topicA,topicA-120,172.172.1.2:1883,1551644385318,PRODUCED
Publisher_002,topicA,topicA-121,172.172.1.2:1883,1551644385417,PRODUCED
Publisher_002,topicA,topicA-122,172.172.1.2:1883,1551644385522,PRODUCED
Publisher_002,topicA,topicA-123,172.172.1.2:1883,1551644385618,PRODUCED
Publisher_002,topicA,topicA-124,172.172.1.2:1883,1551644385718,PRODUCED
Publisher_002,topicA,topicA-125,172.172.1.2:1883,1551644385816,PRODUCED
Publisher_002,topicA,topicA-126,172.172.1.2:1883,1551644385917,PRODUCED
Publisher_002,topicA,topicA-127,172.172.1.2:1883,1551644386017,PRODUCED
Publisher_002,topicA,topicA-128,172.172.1.2:1883,1551644386118,PRODUCED
Publisher_002,topicA,topicA-129,172.172.1.2:1883,1551644386216,PRODUCED
Publisher_002,topicA,topicA-130,172.172.1.2:1883,1551644386316,PRODUCED
Publisher_002,topicA,topicA-131,172.172.1.2:1883,1551644386416,PRODUCED
Publisher_002,topicA,topicA-132,172.172.1.2:1883,1551644386516,PRODUCED
Publisher_002,topicA,topicA-133,172.172.1.2:1883,1551644386616,PRODUCED
Publisher_002,topicA,topicA-134,172.172.1.2:1883,1551644386716,PRODUCED
Publisher_002,topicA,topicA-135,172.172.1.2:1883,1551644386816,PRODUCED
Publisher_002,topicA,topicA-136,172.172.1.2:1883,1551644386916,PRODUCED
Publisher_002,topicA,topicA-137,172.172.1.2:1883,1551644387017,PRODUCED
Publisher_002,topicA,topicA-138,172.172.1.2:1883,1551644387117,PRODUCED
Publisher_002,topicA,topicA-139,172.172.1.2:1883,1551644387216,PRODUCED
Publisher_002,topicA,topicA-140,172.172.1.2:1883,1551644387319,PRODUCED
Publisher_002,topicA,topicA-141,172.172.1.2:1883,1551644387420,PRODUCED
Publisher_002,topicA,topicA-142,172.172.1.2:1883,1551644387521,PRODUCED
Publisher_002,topicA,topicA-143,172.172.1.2:1883,1551644387618,PRODUCED
Publisher_002,topicA,topicA-144,172.172.1.2:1883,1551644387720,PRODUCED
Publisher_002,topicA,topicA-145,172.172.1.2:1883,1551644387816,PRODUCED
Publisher_002,topicA,topicA-146,172.172.1.2:1883,1551644387917,PRODUCED
Publisher_002,topicA,topicA-147,172.172.1.2:1883,1551644388016,PRODUCED
Publisher_002,topicA,topicA-148,172.172.1.2:1883,1551644388116,PRODUCED
Publisher_002,topicA,topicA-149,172.172.1.2:1883,1551644388218,PRODUCED
Publisher_002,topicA,topicA-150,172.172.1.2:1883,1551644388317,PRODUCED
Publisher_002,topicA,topicA-151,172.172.1.2:1883,1551644388418,PRODUCED
Publisher_002,topicA,topicA-152,172.172.1.2:1883,1551644388519,PRODUCED
Publisher_002,topicA,topicA-153,172.172.1.2:1883,1551644388616,PRODUCED
Publisher_002,topicA,topicA-154,172.172.1.2:1883,1551644388716,PRODUCED
Publisher_002,topicA,topicA-155,172.172.1.2:1883,1551644388818,PRODUCED
Publisher_002,topicA,topicA-156,172.172.1.2:1883,1551644388918,PRODUCED
Publisher_002,topicA,topicA-157,172.172.1.2:1883,1551644389017,PRODUCED
Publisher_002,topicA,topicA-158,172.172.1.2:1883,1551644389117,PRODUCED
Publisher_002,topicA,topicA-159,172.172.1.2:1883,1551644389218,PRODUCED
Publisher_002,topicA,topicA-160,172.172.1.2:1883,1551644389316,PRODUCED
Publisher_002,topicA,topicA-161,172.172.1.2:1883,1551644389423,PRODUCED
Publisher_002,topicA,topicA-162,172.172.1.2:1883,1551644389518,PRODUCED
Publisher_002,topicA,topicA-163,172.172.1.2:1883,1551644389616,PRODUCED
Publisher_002,topicA,topicA-164,172.172.1.2:1883,1551644389718,PRODUCED
Publisher_002,topicA,topicA-165,172.172.1.2:1883,1551644389818,PRODUCED
Publisher_002,topicA,topicA-166,172.172.1.2:1883,1551644389917,PRODUCED
Publisher_002,topicA,topicA-167,172.172.1.2:1883,1551644390016,PRODUCED
Publisher_002,topicA,topicA-168,172.172.1.2:1883,1551644390116,PRODUCED
Publisher_002,topicA,topicA-169,172.172.1.2:1883,1551644390216,PRODUCED
Publisher_002,topicA,topicA-170,172.172.1.2:1883,1551644390317,PRODUCED
Publisher_002,topicA,topicA-171,172.172.1.2:1883,1551644390417,PRODUCED
Publisher_002,topicA,topicA-172,172.172.1.2:1883,1551644390517,PRODUCED
Publisher_002,topicA,topicA-173,172.172.1.2:1883,1551644390618,PRODUCED
Publisher_002,topicA,topicA-174,172.172.1.2:1883,1551644390718,PRODUCED
Publisher_002,topicA,topicA-175,172.172.1.2:1883,1551644390816,PRODUCED
Publisher_002,topicA,topicA-176,172.172.1.2:1883,1551644390917,PRODUCED
Publisher_002,topicA,topicA-177,172.172.1.2:1883,1551644391016,PRODUCED
Publisher_002,topicA,topicA-178,172.172.1.2:1883,1551644391116,PRODUCED
Publisher_002,topicA,topicA-179,172.172.1.2:1883,1551644391218,PRODUCED
Publisher_002,topicA,topicA-180,172.172.1.2:1883,1551644391318,PRODUCED
Publisher_002,topicA,topicA-181,172.172.1.2:1883,1551644391417,PRODUCED
Publisher_002,topicA,topicA-182,172.172.1.2:1883,1551644391519,PRODUCED
Publisher_002,topicA,topicA-183,172.172.1.2:1883,1551644391618,PRODUCED
Publisher_002,topicA,topicA-184,172.172.1.2:1883,1551644391717,PRODUCED
Publisher_002,topicA,topicA-185,172.172.1.2:1883,1551644391817,PRODUCED
Publisher_002,topicA,topicA-186,172.172.1.2:1883,1551644391916,PRODUCED
Publisher_002,topicA,topicA-187,172.172.1.2:1883,1551644392018,PRODUCED
Publisher_002,topicA,topicA-188,172.172.1.2:1883,1551644392119,PRODUCED
Publisher_002,topicA,topicA-189,172.172.1.2:1883,1551644392217,PRODUCED
Publisher_002,topicA,topicA-190,172.172.1.2:1883,1551644392318,PRODUCED
Publisher_002,topicA,topicA-191,172.172.1.2:1883,1551644392417,PRODUCED
Publisher_002,topicA,topicA-192,172.172.1.2:1883,1551644392516,PRODUCED
Publisher_002,topicA,topicA-193,172.172.1.2:1883,1551644392616,PRODUCED
Publisher_002,topicA,topicA-194,172.172.1.2:1883,1551644392719,PRODUCED
Publisher_002,topicA,topicA-195,172.172.1.2:1883,1551644392817,PRODUCED
Publisher_002,topicA,topicA-196,172.172.1.2:1883,1551644392916,PRODUCED
Publisher_002,topicA,topicA-197,172.172.1.2:1883,1551644393016,PRODUCED
Publisher_002,topicA,topicA-198,172.172.1.2:1883,1551644393116,PRODUCED
Publisher_002,topicA,topicA-199,172.172.1.2:1883,1551644393218,PRODUCED
Publisher_002,topicA,topicA-200,172.172.1.2:1883,1551644393318,PRODUCED
Publisher_002,topicA,topicA-201,172.172.1.2:1883,1551644393417,PRODUCED
Publisher_002,topicA,topicA-202,172.172.1.2:1883,1551644393520,PRODUCED
Publisher_002,topicA,topicA-203,172.172.1.2:1883,1551644393616,PRODUCED
Publisher_002,topicA,topicA-204,172.172.1.2:1883,1551644393718,PRODUCED
Publisher_002,topicA,topicA-205,172.172.1.2:1883,1551644393819,PRODUCED
Publisher_002,topicA,topicA-206,172.172.1.2:1883,1551644393918,PRODUCED
Publisher_002,topicA,topicA-207,172.172.1.2:1883,1551644394028,PRODUCED
Publisher_002,topicA,topicA-208,172.172.1.2:1883,1551644394117,PRODUCED
Publisher_002,topicA,topicA-209,172.172.1.2:1883,1551644394217,PRODUCED
Publisher_002,topicA,topicA-210,172.172.1.2:1883,1551644394319,PRODUCED
Publisher_002,topicA,topicA-211,172.172.1.2:1883,1551644394418,PRODUCED
Publisher_002,topicA,topicA-212,172.172.1.2:1883,1551644394517,PRODUCED
Publisher_002,topicA,topicA-213,172.172.1.2:1883,1551644394616,PRODUCED
Publisher_002,topicA,topicA-214,172.172.1.2:1883,1551644394718,PRODUCED
Publisher_002,topicA,topicA-215,172.172.1.2:1883,1551644394816,PRODUCED
Publisher_002,topicA,topicA-216,172.172.1.2:1883,1551644394918,PRODUCED
Publisher_002,topicA,topicA-217,172.172.1.2:1883,1551644395016,PRODUCED
Publisher_002,topicA,topicA-218,172.172.1.2:1883,1551644395117,PRODUCED
Publisher_002,topicA,topicA-219,172.172.1.2:1883,1551644395219,PRODUCED
Publisher_002,topicA,topicA-220,172.172.1.2:1883,1551644395317,PRODUCED
Publisher_002,topicA,topicA-221,172.172.1.2:1883,1551644395418,PRODUCED
Publisher_002,topicA,topicA-222,172.172.1.2:1883,1551644395517,PRODUCED
Publisher_002,topicA,topicA-223,172.172.1.2:1883,1551644395618,PRODUCED
Publisher_002,topicA,topicA-224,172.172.1.2:1883,1551644395719,PRODUCED
Publisher_002,topicA,topicA-225,172.172.1.2:1883,1551644395816,PRODUCED
Publisher_002,topicA,topicA-226,172.172.1.2:1883,1551644395916,PRODUCED
Publisher_002,topicA,topicA-227,172.172.1.2:1883,1551644396018,PRODUCED
Publisher_002,topicA,topicA-228,172.172.1.2:1883,1551644396117,PRODUCED
Publisher_002,topicA,topicA-229,172.172.1.2:1883,1551644396216,PRODUCED
Publisher_002,topicA,topicA-230,172.172.1.2:1883,1551644396317,PRODUCED
Publisher_002,topicA,topicA-231,172.172.1.2:1883,1551644396418,PRODUCED
Publisher_002,topicA,topicA-232,172.172.1.2:1883,1551644396516,PRODUCED
Publisher_002,topicA,topicA-233,172.172.1.2:1883,1551644396616,PRODUCED
Publisher_002,topicA,topicA-234,172.172.1.2:1883,1551644396717,PRODUCED
Publisher_002,topicA,topicA-235,172.172.1.2:1883,1551644396816,PRODUCED
Publisher_002,topicA,topicA-236,172.172.1.2:1883,1551644396916,PRODUCED
Publisher_002,topicA,topicA-237,172.172.1.2:1883,1551644397016,PRODUCED
Publisher_002,topicA,topicA-238,172.172.1.2:1883,1551644397117,PRODUCED
Publisher_002,topicA,topicA-239,172.172.1.2:1883,1551644397216,PRODUCED
Publisher_002,topicA,topicA-240,172.172.1.2:1883,1551644397317,PRODUCED
Publisher_002,topicA,topicA-241,172.172.1.2:1883,1551644397416,PRODUCED
Publisher_002,topicA,topicA-242,172.172.1.2:1883,1551644397516,PRODUCED
Publisher_002,topicA,topicA-243,172.172.1.2:1883,1551644397616,PRODUCED
Publisher_002,topicA,topicA-244,172.172.1.2:1883,1551644397716,PRODUCED
Publisher_002,topicA,topicA-245,172.172.1.2:1883,1551644397816,PRODUCED
Publisher_002,topicA,topicA-246,172.172.1.2:1883,1551644397916,PRODUCED
Publisher_002,topicA,topicA-247,172.172.1.2:1883,1551644398016,PRODUCED
Publisher_002,topicA,topicA-248,172.172.1.2:1883,1551644398118,PRODUCED
Publisher_002,topicA,topicA-249,172.172.1.2:1883,1551644398217,PRODUCED
Publisher_002,topicA,topicA-250,172.172.1.2:1883,1551644398316,PRODUCED
Publisher_002,topicA,topicA-251,172.172.1.2:1883,1551644398416,PRODUCED
Publisher_002,topicA,topicA-252,172.172.1.2:1883,1551644398519,PRODUCED
Publisher_002,topicA,topicA-253,172.172.1.2:1883,1551644398617,PRODUCED
Publisher_002,topicA,topicA-254,172.172.1.2:1883,1551644398716,PRODUCED
Publisher_002,topicA,topicA-255,172.172.1.2:1883,1551644398817,PRODUCED
Publisher_002,topicA,topicA-256,172.172.1.2:1883,1551644398920,PRODUCED
Publisher_002,topicA,topicA-257,172.172.1.2:1883,1551644399018,PRODUCED
Publisher_002,topicA,topicA-258,172.172.1.2:1883,1551644399116,PRODUCED
Publisher_002,topicA,topicA-259,172.172.1.2:1883,1551644399218,PRODUCED
Publisher_002,topicA,topicA-260,172.172.1.2:1883,1551644399316,PRODUCED
Publisher_002,topicA,topicA-261,172.172.1.2:1883,1551644399416,PRODUCED
Publisher_002,topicA,topicA-262,172.172.1.2:1883,1551644399516,PRODUCED
Publisher_002,topicA,topicA-263,172.172.1.2:1883,1551644399617,PRODUCED
Publisher_002,topicA,topicA-264,172.172.1.2:1883,1551644399717,PRODUCED
Publisher_002,topicA,topicA-265,172.172.1.2:1883,1551644399818,PRODUCED
Publisher_002,topicA,topicA-266,172.172.1.2:1883,1551644399917,PRODUCED
Publisher_002,topicA,topicA-267,172.172.1.2:1883,1551644400016,PRODUCED
Publisher_002,topicA,topicA-268,172.172.1.2:1883,1551644400116,PRODUCED
Publisher_002,topicA,topicA-269,172.172.1.2:1883,1551644400216,PRODUCED
Publisher_002,topicA,topicA-270,172.172.1.2:1883,1551644400316,PRODUCED
Publisher_002,topicA,topicA-271,172.172.1.2:1883,1551644400416,PRODUCED
Publisher_002,topicA,topicA-272,172.172.1.2:1883,1551644400517,PRODUCED
Publisher_002,topicA,topicA-273,172.172.1.2:1883,1551644400617,PRODUCED
Publisher_002,topicA,topicA-274,172.172.1.2:1883,1551644400716,PRODUCED
Publisher_002,topicA,topicA-275,172.172.1.2:1883,1551644400818,PRODUCED
Publisher_002,topicA,topicA-276,172.172.1.2:1883,1551644400916,PRODUCED
Publisher_002,topicA,topicA-277,172.172.1.2:1883,1551644401016,PRODUCED
Publisher_002,topicA,topicA-278,172.172.1.2:1883,1551644401120,PRODUCED
Publisher_002,topicA,topicA-279,172.172.1.2:1883,1551644401216,PRODUCED
Publisher_002,topicA,topicA-280,172.172.1.2:1883,1551644401318,PRODUCED
Publisher_002,topicA,topicA-281,172.172.1.2:1883,1551644401416,PRODUCED
Publisher_002,topicA,topicA-282,172.172.1.2:1883,1551644401518,PRODUCED
Publisher_002,topicA,topicA-283,172.172.1.2:1883,1551644401616,PRODUCED
Publisher_002,topicA,topicA-284,172.172.1.2:1883,1551644401717,PRODUCED
Publisher_002,topicA,topicA-285,172.172.1.2:1883,1551644401818,PRODUCED
Publisher_002,topicA,topicA-286,172.172.1.2:1883,1551644401916,PRODUCED
Publisher_002,topicA,topicA-287,172.172.1.2:1883,1551644402017,PRODUCED
Publisher_002,topicA,topicA-288,172.172.1.2:1883,1551644402117,PRODUCED
Publisher_002,topicA,topicA-289,172.172.1.2:1883,1551644402216,PRODUCED
Publisher_002,topicA,topicA-290,172.172.1.2:1883,1551644402316,PRODUCED
Publisher_002,topicA,topicA-291,172.172.1.2:1883,1551644402416,PRODUCED
Publisher_002,topicA,topicA-292,172.172.1.2:1883,1551644402517,PRODUCED
Publisher_002,topicA,topicA-293,172.172.1.2:1883,1551644402616,PRODUCED
Publisher_002,topicA,topicA-294,172.172.1.2:1883,1551644402718,PRODUCED
Publisher_002,topicA,topicA-295,172.172.1.2:1883,1551644402816,PRODUCED
Publisher_002,topicA,topicA-296,172.172.1.2:1883,1551644402917,PRODUCED
Publisher_002,topicA,topicA-297,172.172.1.2:1883,1551644403017,PRODUCED
Publisher_002,topicA,topicA-298,172.172.1.2:1883,1551644403117,PRODUCED
Publisher_002,topicA,topicA-299,172.172.1.2:1883,1551644403216,PRODUCED
Publisher_002,topicA,topicA-300,172.172.1.2:1883,1551644403317,PRODUCED
Publisher_002,topicA,topicA-301,172.172.1.2:1883,1551644403417,PRODUCED
Publisher_002,topicA,topicA-302,172.172.1.2:1883,1551644403517,PRODUCED
Publisher_002,topicA,topicA-303,172.172.1.2:1883,1551644403616,PRODUCED
Publisher_002,topicA,topicA-304,172.172.1.2:1883,1551644403717,PRODUCED
Publisher_002,topicA,topicA-305,172.172.1.2:1883,1551644403819,PRODUCED
Publisher_002,topicA,topicA-306,172.172.1.2:1883,1551644403917,PRODUCED
Publisher_002,topicA,topicA-307,172.172.1.2:1883,1551644404016,PRODUCED
Publisher_002,topicA,topicA-308,172.172.1.2:1883,1551644404116,PRODUCED
Publisher_002,topicA,topicA-309,172.172.1.2:1883,1551644404216,PRODUCED
Publisher_002,topicA,topicA-310,172.172.1.2:1883,1551644404316,PRODUCED
Publisher_002,topicA,topicA-311,172.172.1.2:1883,1551644404419,PRODUCED
Publisher_002,topicA,topicA-312,172.172.1.2:1883,1551644404516,PRODUCED
Publisher_002,topicA,topicA-313,172.172.1.2:1883,1551644404616,PRODUCED
Publisher_002,topicA,topicA-314,172.172.1.2:1883,1551644404716,PRODUCED
Publisher_002,topicA,topicA-315,172.172.1.2:1883,1551644404816,PRODUCED
Publisher_002,topicA,topicA-316,172.172.1.2:1883,1551644404920,PRODUCED
Publisher_002,topicA,topicA-317,172.172.1.2:1883,1551644405016,PRODUCED
Publisher_002,topicA,topicA-318,172.172.1.2:1883,1551644405116,PRODUCED
Publisher_002,topicA,topicA-319,172.172.1.2:1883,1551644405217,PRODUCED
Publisher_002,topicA,topicA-320,172.172.1.2:1883,1551644405316,PRODUCED
Publisher_002,topicA,topicA-321,172.172.1.2:1883,1551644405417,PRODUCED
Publisher_002,topicA,topicA-322,172.172.1.2:1883,1551644405517,PRODUCED
Publisher_002,topicA,topicA-323,172.172.1.2:1883,1551644405622,PRODUCED
Publisher_002,topicA,topicA-324,172.172.1.2:1883,1551644405719,PRODUCED
Publisher_002,topicA,topicA-325,172.172.1.2:1883,1551644405817,PRODUCED
Publisher_002,topicA,topicA-326,172.172.1.2:1883,1551644405916,PRODUCED
Publisher_002,topicA,topicA-327,172.172.1.2:1883,1551644406019,PRODUCED
Publisher_002,topicA,topicA-328,172.172.1.2:1883,1551644406116,PRODUCED
Publisher_002,topicA,topicA-329,172.172.1.2:1883,1551644406217,PRODUCED
Publisher_002,topicA,topicA-330,172.172.1.2:1883,1551644406316,PRODUCED
Publisher_002,topicA,topicA-331,172.172.1.2:1883,1551644406417,PRODUCED
Publisher_002,topicA,topicA-332,172.172.1.2:1883,1551644406516,PRODUCED
Publisher_002,topicA,topicA-333,172.172.1.2:1883,1551644406616,PRODUCED
Publisher_002,topicA,topicA-334,172.172.1.2:1883,1551644406718,PRODUCED
Publisher_002,topicA,topicA-335,172.172.1.2:1883,1551644406817,PRODUCED
Publisher_002,topicA,topicA-336,172.172.1.2:1883,1551644406917,PRODUCED
Publisher_002,topicA,topicA-337,172.172.1.2:1883,1551644407016,PRODUCED
Publisher_002,topicA,topicA-338,172.172.1.2:1883,1551644407118,PRODUCED
Publisher_002,topicA,topicA-339,172.172.1.2:1883,1551644407217,PRODUCED
Publisher_002,topicA,topicA-340,172.172.1.2:1883,1551644407318,PRODUCED
Publisher_002,topicA,topicA-341,172.172.1.2:1883,1551644407418,PRODUCED
Publisher_002,topicA,topicA-342,172.172.1.2:1883,1551644407516,PRODUCED
Publisher_002,topicA,topicA-343,172.172.1.2:1883,1551644407617,PRODUCED
Publisher_002,topicA,topicA-344,172.172.1.2:1883,1551644407717,PRODUCED
Publisher_002,topicA,topicA-345,172.172.1.2:1883,1551644407816,PRODUCED
Publisher_002,topicA,topicA-346,172.172.1.2:1883,1551644407916,PRODUCED
Publisher_002,topicA,topicA-347,172.172.1.2:1883,1551644408016,PRODUCED
Publisher_002,topicA,topicA-348,172.172.1.2:1883,1551644408116,PRODUCED
Publisher_002,topicA,topicA-349,172.172.1.2:1883,1551644408218,PRODUCED
Publisher_002,topicA,topicA-350,172.172.1.2:1883,1551644408316,PRODUCED
Publisher_002,topicA,topicA-351,172.172.1.2:1883,1551644408416,PRODUCED
Publisher_002,topicA,topicA-352,172.172.1.2:1883,1551644408516,PRODUCED
Publisher_002,topicA,topicA-353,172.172.1.2:1883,1551644408616,PRODUCED
Publisher_002,topicA,topicA-354,172.172.1.2:1883,1551644408716,PRODUCED
Publisher_002,topicA,topicA-355,172.172.1.2:1883,1551644408816,PRODUCED
Publisher_002,topicA,topicA-356,172.172.1.2:1883,1551644408915,PRODUCED
Publisher_002,topicA,topicA-357,172.172.1.2:1883,1551644409016,PRODUCED
Publisher_002,topicA,topicA-358,172.172.1.2:1883,1551644409116,PRODUCED
Publisher_002,topicA,topicA-359,172.172.1.2:1883,1551644409217,PRODUCED
Publisher_002,topicA,topicA-360,172.172.1.2:1883,1551644409317,PRODUCED
Publisher_002,topicA,topicA-361,172.172.1.2:1883,1551644409416,PRODUCED
Publisher_002,topicA,topicA-362,172.172.1.2:1883,1551644409516,PRODUCED
Publisher_002,topicA,topicA-363,172.172.1.2:1883,1551644409617,PRODUCED
Publisher_002,topicA,topicA-364,172.172.1.2:1883,1551644409716,PRODUCED
Publisher_002,topicA,topicA-365,172.172.1.2:1883,1551644409816,PRODUCED
Publisher_002,topicA,topicA-366,172.172.1.2:1883,1551644409917,PRODUCED
Publisher_002,topicA,topicA-367,172.172.1.2:1883,1551644410018,PRODUCED
Publisher_002,topicA,topicA-368,172.172.1.2:1883,1551644410116,PRODUCED
Publisher_002,topicA,topicA-369,172.172.1.2:1883,1551644410216,PRODUCED
Publisher_002,topicA,topicA-370,172.172.1.2:1883,1551644410315,PRODUCED
Publisher_002,topicA,topicA-371,172.172.1.2:1883,1551644410417,PRODUCED
Publisher_002,topicA,topicA-372,172.172.1.2:1883,1551644410517,PRODUCED
Publisher_002,topicA,topicA-373,172.172.1.2:1883,1551644410616,PRODUCED
Publisher_002,topicA,topicA-374,172.172.1.2:1883,1551644410717,PRODUCED
Publisher_002,topicA,topicA-375,172.172.1.2:1883,1551644410817,PRODUCED
Publisher_002,topicA,topicA-376,172.172.1.2:1883,1551644410916,PRODUCED
Publisher_002,topicA,topicA-377,172.172.1.2:1883,1551644411017,PRODUCED
Publisher_002,topicA,topicA-378,172.172.1.2:1883,1551644411120,PRODUCED
Publisher_002,topicA,topicA-379,172.172.1.2:1883,1551644411216,PRODUCED
Publisher_002,topicA,topicA-380,172.172.1.2:1883,1551644411316,PRODUCED
Publisher_002,topicA,topicA-381,172.172.1.2:1883,1551644411418,PRODUCED
Publisher_002,topicA,topicA-382,172.172.1.2:1883,1551644411516,PRODUCED
Publisher_002,topicA,topicA-383,172.172.1.2:1883,1551644411616,PRODUCED
Publisher_002,topicA,topicA-384,172.172.1.2:1883,1551644411716,PRODUCED
Publisher_002,topicA,topicA-385,172.172.1.2:1883,1551644411817,PRODUCED
Publisher_002,topicA,topicA-386,172.172.1.2:1883,1551644411917,PRODUCED
Publisher_002,topicA,topicA-387,172.172.1.2:1883,1551644412017,PRODUCED
Publisher_002,topicA,topicA-388,172.172.1.2:1883,1551644412116,PRODUCED
Publisher_002,topicA,topicA-389,172.172.1.2:1883,1551644412216,PRODUCED
Publisher_002,topicA,topicA-390,172.172.1.2:1883,1551644412317,PRODUCED
Publisher_002,topicA,topicA-391,172.172.1.2:1883,1551644412417,PRODUCED
Publisher_002,topicA,topicA-392,172.172.1.2:1883,1551644412516,PRODUCED
Publisher_002,topicA,topicA-393,172.172.1.2:1883,1551644412618,PRODUCED
Publisher_002,topicA,topicA-394,172.172.1.2:1883,1551644412716,PRODUCED
Publisher_002,topicA,topicA-395,172.172.1.2:1883,1551644412817,PRODUCED
Publisher_002,topicA,topicA-396,172.172.1.2:1883,1551644412916,PRODUCED
Publisher_002,topicA,topicA-397,172.172.1.2:1883,1551644413017,PRODUCED
Publisher_002,topicA,topicA-398,172.172.1.2:1883,1551644413119,PRODUCED
Publisher_002,topicA,topicA-399,172.172.1.2:1883,1551644413216,PRODUCED
Publisher_002,topicA,topicA-400,172.172.1.2:1883,1551644413318,PRODUCED
Publisher_002,topicA,topicA-401,172.172.1.2:1883,1551644413417,PRODUCED
Publisher_002,topicA,topicA-402,172.172.1.2:1883,1551644413517,PRODUCED
Publisher_002,topicA,topicA-403,172.172.1.2:1883,1551644413619,PRODUCED
Publisher_002,topicA,topicA-404,172.172.1.2:1883,1551644413716,PRODUCED
Publisher_002,topicA,topicA-405,172.172.1.2:1883,1551644413816,PRODUCED
Publisher_002,topicA,topicA-406,172.172.1.2:1883,1551644413916,PRODUCED
Publisher_002,topicA,topicA-407,172.172.1.2:1883,1551644414016,PRODUCED
Publisher_002,topicA,topicA-408,172.172.1.2:1883,1551644414124,PRODUCED
Publisher_002,topicA,topicA-409,172.172.1.2:1883,1551644414216,PRODUCED
Publisher_002,topicA,topicA-410,172.172.1.2:1883,1551644414316,PRODUCED
Publisher_002,topicA,topicA-411,172.172.1.2:1883,1551644414416,PRODUCED
Publisher_002,topicA,topicA-412,172.172.1.2:1883,1551644414516,PRODUCED
Publisher_002,topicA,topicA-413,172.172.1.2:1883,1551644414618,PRODUCED
Publisher_002,topicA,topicA-414,172.172.1.2:1883,1551644414716,PRODUCED
Publisher_002,topicA,topicA-415,172.172.1.2:1883,1551644414817,PRODUCED
Publisher_002,topicA,topicA-416,172.172.1.2:1883,1551644414918,PRODUCED
Publisher_002,topicA,topicA-417,172.172.1.2:1883,1551644415016,PRODUCED
Publisher_002,topicA,topicA-418,172.172.1.2:1883,1551644415117,PRODUCED
Publisher_002,topicA,topicA-419,172.172.1.2:1883,1551644415218,PRODUCED
Publisher_002,topicA,topicA-420,172.172.1.2:1883,1551644415316,PRODUCED
Publisher_002,topicA,topicA-421,172.172.1.2:1883,1551644415417,PRODUCED
Publisher_002,topicA,topicA-422,172.172.1.2:1883,1551644415516,PRODUCED
Publisher_002,topicA,topicA-423,172.172.1.2:1883,1551644415618,PRODUCED
Publisher_002,topicA,topicA-424,172.172.1.2:1883,1551644415717,PRODUCED
Publisher_002,topicA,topicA-425,172.172.1.2:1883,1551644415818,PRODUCED
Publisher_002,topicA,topicA-426,172.172.1.2:1883,1551644415916,PRODUCED
Publisher_002,topicA,topicA-427,172.172.1.2:1883,1551644416016,PRODUCED
Publisher_002,topicA,topicA-428,172.172.1.2:1883,1551644416118,PRODUCED
Publisher_002,topicA,topicA-429,172.172.1.2:1883,1551644416217,PRODUCED
Publisher_002,topicA,topicA-430,172.172.1.2:1883,1551644416316,PRODUCED
Publisher_002,topicA,topicA-431,172.172.1.2:1883,1551644416416,PRODUCED
Publisher_002,topicA,topicA-432,172.172.1.2:1883,1551644416516,PRODUCED
Publisher_002,topicA,topicA-433,172.172.1.2:1883,1551644416616,PRODUCED
Publisher_002,topicA,topicA-434,172.172.1.2:1883,1551644416716,PRODUCED
Publisher_002,topicA,topicA-435,172.172.1.2:1883,1551644416818,PRODUCED
Publisher_002,topicA,topicA-436,172.172.1.2:1883,1551644416918,PRODUCED
Publisher_002,topicA,topicA-437,172.172.1.2:1883,1551644417020,PRODUCED
Publisher_002,topicA,topicA-438,172.172.1.2:1883,1551644417116,PRODUCED
Publisher_002,topicA,topicA-439,172.172.1.2:1883,1551644417217,PRODUCED
Publisher_002,topicA,topicA-440,172.172.1.2:1883,1551644417316,PRODUCED
Publisher_002,topicA,topicA-441,172.172.1.2:1883,1551644417416,PRODUCED
Publisher_002,topicA,topicA-442,172.172.1.2:1883,1551644417516,PRODUCED
Publisher_002,topicA,topicA-443,172.172.1.2:1883,1551644417617,PRODUCED
Publisher_002,topicA,topicA-444,172.172.1.2:1883,1551644417716,PRODUCED
Publisher_002,topicA,topicA-445,172.172.1.2:1883,1551644417816,PRODUCED
Publisher_002,topicA,topicA-446,172.172.1.2:1883,1551644417918,PRODUCED
Publisher_002,topicA,topicA-447,172.172.1.2:1883,1551644418018,PRODUCED
Publisher_002,topicA,topicA-448,172.172.1.2:1883,1551644418117,PRODUCED
Publisher_002,topicA,topicA-449,172.172.1.2:1883,1551644418217,PRODUCED
Publisher_002,topicA,topicA-450,172.172.1.2:1883,1551644418316,PRODUCED
Publisher_002,topicA,topicA-451,172.172.1.2:1883,1551644418416,PRODUCED
Publisher_002,topicA,topicA-452,172.172.1.2:1883,1551644418516,PRODUCED
Publisher_002,topicA,topicA-453,172.172.1.2:1883,1551644418619,PRODUCED
Publisher_002,topicA,topicA-454,172.172.1.2:1883,1551644418716,PRODUCED
Publisher_002,topicA,topicA-455,172.172.1.2:1883,1551644418816,PRODUCED
Publisher_002,topicA,topicA-456,172.172.1.2:1883,1551644418916,PRODUCED
Publisher_002,topicA,topicA-457,172.172.1.2:1883,1551644419017,PRODUCED
Publisher_002,topicA,topicA-458,172.172.1.2:1883,1551644419116,PRODUCED
Publisher_002,topicA,topicA-459,172.172.1.2:1883,1551644419222,PRODUCED
Publisher_002,topicA,topicA-460,172.172.1.2:1883,1551644419318,PRODUCED
Publisher_002,topicA,topicA-461,172.172.1.2:1883,1551644419416,PRODUCED
Publisher_002,topicA,topicA-462,172.172.1.2:1883,1551644419516,PRODUCED
Publisher_002,topicA,topicA-463,172.172.1.2:1883,1551644419618,PRODUCED
Publisher_002,topicA,topicA-464,172.172.1.2:1883,1551644419716,PRODUCED
Publisher_002,topicA,topicA-465,172.172.1.2:1883,1551644419817,PRODUCED
Publisher_002,topicA,topicA-466,172.172.1.2:1883,1551644419916,PRODUCED
Publisher_002,topicA,topicA-467,172.172.1.2:1883,1551644420016,PRODUCED
Publisher_002,topicA,topicA-468,172.172.1.2:1883,1551644420122,PRODUCED
Publisher_002,topicA,topicA-469,172.172.1.2:1883,1551644420217,PRODUCED
Publisher_002,topicA,topicA-470,172.172.1.2:1883,1551644420320,PRODUCED
Publisher_002,topicA,topicA-471,172.172.1.2:1883,1551644420416,PRODUCED
Publisher_002,topicA,topicA-472,172.172.1.2:1883,1551644420517,PRODUCED
Publisher_002,topicA,topicA-473,172.172.1.2:1883,1551644420616,PRODUCED
Publisher_002,topicA,topicA-474,172.172.1.2:1883,1551644420717,PRODUCED
Publisher_002,topicA,topicA-475,172.172.1.2:1883,1551644420818,PRODUCED
Publisher_002,topicA,topicA-476,172.172.1.2:1883,1551644420916,PRODUCED
Publisher_002,topicA,topicA-477,172.172.1.2:1883,1551644421016,PRODUCED
Publisher_002,topicA,topicA-478,172.172.1.2:1883,1551644421118,PRODUCED
Publisher_002,topicA,topicA-479,172.172.1.2:1883,1551644421217,PRODUCED
Publisher_002,topicA,topicA-480,172.172.1.2:1883,1551644421316,PRODUCED
Publisher_002,topicA,topicA-481,172.172.1.2:1883,1551644421416,PRODUCED
Publisher_002,topicA,topicA-482,172.172.1.2:1883,1551644421516,PRODUCED
Publisher_002,topicA,topicA-483,172.172.1.2:1883,1551644421616,PRODUCED
Publisher_002,topicA,topicA-484,172.172.1.2:1883,1551644421716,PRODUCED
Publisher_002,topicA,topicA-485,172.172.1.2:1883,1551644421818,PRODUCED
Publisher_002,topicA,topicA-486,172.172.1.2:1883,1551644421916,PRODUCED
Publisher_002,topicA,topicA-487,172.172.1.2:1883,1551644422021,PRODUCED
Publisher_002,topicA,topicA-488,172.172.1.2:1883,1551644422116,PRODUCED
Publisher_002,topicA,topicA-489,172.172.1.2:1883,1551644422216,PRODUCED
Publisher_002,topicA,topicA-490,172.172.1.2:1883,1551644422316,PRODUCED
Publisher_002,topicA,topicA-491,172.172.1.2:1883,1551644422417,PRODUCED
Publisher_002,topicA,topicA-492,172.172.1.2:1883,1551644422516,PRODUCED
Publisher_002,topicA,topicA-493,172.172.1.2:1883,1551644422621,PRODUCED
Publisher_002,topicA,topicA-494,172.172.1.2:1883,1551644422717,PRODUCED
Publisher_002,topicA,topicA-495,172.172.1.2:1883,1551644422819,PRODUCED
Publisher_002,topicA,topicA-496,172.172.1.2:1883,1551644422918,PRODUCED
Publisher_002,topicA,topicA-497,172.172.1.2:1883,1551644423016,PRODUCED
Publisher_002,topicA,topicA-498,172.172.1.2:1883,1551644423117,PRODUCED
Publisher_002,topicA,topicA-499,172.172.1.2:1883,1551644423217,PRODUCED
Publisher_002,topicA,topicA-500,172.172.1.2:1883,1551644423319,PRODUCED
Publisher_002,topicA,topicA-501,172.172.1.2:1883,1551644423418,PRODUCED
Publisher_002,topicA,topicA-502,172.172.1.2:1883,1551644423516,PRODUCED
Publisher_002,topicA,topicA-503,172.172.1.2:1883,1551644423621,PRODUCED
Publisher_002,topicA,topicA-504,172.172.1.2:1883,1551644423716,PRODUCED
Publisher_002,topicA,topicA-505,172.172.1.2:1883,1551644423816,PRODUCED
Publisher_002,topicA,topicA-506,172.172.1.2:1883,1551644423918,PRODUCED
Publisher_002,topicA,topicA-507,172.172.1.2:1883,1551644424020,PRODUCED
Publisher_002,topicA,topicA-508,172.172.1.2:1883,1551644424117,PRODUCED
Publisher_002,topicA,topicA-509,172.172.1.2:1883,1551644424216,PRODUCED
Publisher_002,topicA,topicA-510,172.172.1.2:1883,1551644424316,PRODUCED
Publisher_002,topicA,topicA-511,172.172.1.2:1883,1551644424416,PRODUCED
Publisher_002,topicA,topicA-512,172.172.1.2:1883,1551644424516,PRODUCED
Publisher_002,topicA,topicA-513,172.172.1.2:1883,1551644424618,PRODUCED
Publisher_002,topicA,topicA-514,172.172.1.2:1883,1551644424717,PRODUCED
Publisher_002,topicA,topicA-515,172.172.1.2:1883,1551644424817,PRODUCED
Publisher_002,topicA,topicA-516,172.172.1.2:1883,1551644424917,PRODUCED
Publisher_002,topicA,topicA-517,172.172.1.2:1883,1551644425018,PRODUCED
Publisher_002,topicA,topicA-518,172.172.1.2:1883,1551644425118,PRODUCED
Publisher_002,topicA,topicA-519,172.172.1.2:1883,1551644425217,PRODUCED
Publisher_002,topicA,topicA-520,172.172.1.2:1883,1551644425317,PRODUCED
Publisher_002,topicA,topicA-521,172.172.1.2:1883,1551644425416,PRODUCED
Publisher_002,topicA,topicA-522,172.172.1.2:1883,1551644425516,PRODUCED
Publisher_002,topicA,topicA-523,172.172.1.2:1883,1551644425616,PRODUCED
Publisher_002,topicA,topicA-524,172.172.1.2:1883,1551644425717,PRODUCED
Publisher_002,topicA,topicA-525,172.172.1.2:1883,1551644425820,PRODUCED
Publisher_002,topicA,topicA-526,172.172.1.2:1883,1551644425917,PRODUCED
Publisher_002,topicA,topicA-527,172.172.1.2:1883,1551644426017,PRODUCED
Publisher_002,topicA,topicA-528,172.172.1.2:1883,1551644426117,PRODUCED
Publisher_002,topicA,topicA-529,172.172.1.2:1883,1551644426216,PRODUCED
Publisher_002,topicA,topicA-530,172.172.1.2:1883,1551644426316,PRODUCED
Publisher_002,topicA,topicA-531,172.172.1.2:1883,1551644426417,PRODUCED
Publisher_002,topicA,topicA-532,172.172.1.2:1883,1551644426516,PRODUCED
Publisher_002,topicA,topicA-533,172.172.1.2:1883,1551644426616,PRODUCED
Publisher_002,topicA,topicA-534,172.172.1.2:1883,1551644426720,PRODUCED
Publisher_002,topicA,topicA-535,172.172.1.2:1883,1551644426817,PRODUCED
Publisher_002,topicA,topicA-536,172.172.1.2:1883,1551644426916,PRODUCED
Publisher_002,topicA,topicA-537,172.172.1.2:1883,1551644427018,PRODUCED
Publisher_002,topicA,topicA-538,172.172.1.2:1883,1551644427116,PRODUCED
Publisher_002,topicA,topicA-539,172.172.1.2:1883,1551644427216,PRODUCED
Publisher_002,topicA,topicA-540,172.172.1.2:1883,1551644427316,PRODUCED
Publisher_002,topicA,topicA-541,172.172.1.2:1883,1551644427416,PRODUCED
Publisher_002,topicA,topicA-542,172.172.1.2:1883,1551644427518,PRODUCED
Publisher_002,topicA,topicA-543,172.172.1.2:1883,1551644427619,PRODUCED
Publisher_002,topicA,topicA-544,172.172.1.2:1883,1551644427716,PRODUCED
Publisher_002,topicA,topicA-545,172.172.1.2:1883,1551644427817,PRODUCED
Publisher_002,topicA,topicA-546,172.172.1.2:1883,1551644427917,PRODUCED
Publisher_002,topicA,topicA-547,172.172.1.2:1883,1551644428017,PRODUCED
Publisher_002,topicA,topicA-548,172.172.1.2:1883,1551644428121,PRODUCED
Publisher_002,topicA,topicA-549,172.172.1.2:1883,1551644428217,PRODUCED
Publisher_002,topicA,topicA-550,172.172.1.2:1883,1551644428316,PRODUCED
Publisher_002,topicA,topicA-551,172.172.1.2:1883,1551644428422,PRODUCED
Publisher_002,topicA,topicA-552,172.172.1.2:1883,1551644428517,PRODUCED
Publisher_002,topicA,topicA-553,172.172.1.2:1883,1551644428617,PRODUCED
Publisher_002,topicA,topicA-554,172.172.1.2:1883,1551644428717,PRODUCED
Publisher_002,topicA,topicA-555,172.172.1.2:1883,1551644428820,PRODUCED
Publisher_002,topicA,topicA-556,172.172.1.2:1883,1551644428920,PRODUCED
Publisher_002,topicA,topicA-557,172.172.1.2:1883,1551644429018,PRODUCED
Publisher_002,topicA,topicA-558,172.172.1.2:1883,1551644429117,PRODUCED
Publisher_002,topicA,topicA-559,172.172.1.2:1883,1551644429217,PRODUCED
Publisher_002,topicA,topicA-560,172.172.1.2:1883,1551644429319,PRODUCED
Publisher_002,topicA,topicA-561,172.172.1.2:1883,1551644429419,PRODUCED
Publisher_002,topicA,topicA-562,172.172.1.2:1883,1551644429516,PRODUCED
Publisher_002,topicA,topicA-563,172.172.1.2:1883,1551644429618,PRODUCED
Publisher_002,topicA,topicA-564,172.172.1.2:1883,1551644429717,PRODUCED
Publisher_002,topicA,topicA-565,172.172.1.2:1883,1551644429816,PRODUCED
Publisher_002,topicA,topicA-566,172.172.1.2:1883,1551644429916,PRODUCED
Publisher_002,topicA,topicA-567,172.172.1.2:1883,1551644430017,PRODUCED
Publisher_002,topicA,topicA-568,172.172.1.2:1883,1551644430121,PRODUCED
Publisher_002,topicA,topicA-569,172.172.1.2:1883,1551644430216,PRODUCED
Publisher_002,topicA,topicA-570,172.172.1.2:1883,1551644430317,PRODUCED
Publisher_002,topicA,topicA-571,172.172.1.2:1883,1551644430416,PRODUCED
Publisher_002,topicA,topicA-572,172.172.1.2:1883,1551644430518,PRODUCED
Publisher_002,topicA,topicA-573,172.172.1.2:1883,1551644430616,PRODUCED
Publisher_002,topicA,topicA-574,172.172.1.2:1883,1551644430716,PRODUCED
Publisher_002,topicA,topicA-575,172.172.1.2:1883,1551644430816,PRODUCED
Publisher_002,topicA,topicA-576,172.172.1.2:1883,1551644430916,PRODUCED
Publisher_002,topicA,topicA-577,172.172.1.2:1883,1551644431019,PRODUCED
Publisher_002,topicA,topicA-578,172.172.1.2:1883,1551644431116,PRODUCED
Publisher_002,topicA,topicA-579,172.172.1.2:1883,1551644431217,PRODUCED
Publisher_002,topicA,topicA-580,172.172.1.2:1883,1551644431320,PRODUCED
Publisher_002,topicA,topicA-581,172.172.1.2:1883,1551644431416,PRODUCED
Publisher_002,topicA,topicA-582,172.172.1.2:1883,1551644431517,PRODUCED
Publisher_002,topicA,topicA-583,172.172.1.2:1883,1551644431617,PRODUCED
Publisher_002,topicA,topicA-584,172.172.1.2:1883,1551644431717,PRODUCED
Publisher_002,topicA,topicA-585,172.172.1.2:1883,1551644431817,PRODUCED
Publisher_002,topicA,topicA-586,172.172.1.2:1883,1551644431916,PRODUCED
Publisher_002,topicA,topicA-587,172.172.1.2:1883,1551644432020,PRODUCED
Publisher_002,topicA,topicA-588,172.172.1.2:1883,1551644432117,PRODUCED
Publisher_002,topicA,topicA-589,172.172.1.2:1883,1551644432216,PRODUCED
Publisher_002,topicA,topicA-590,172.172.1.2:1883,1551644432316,PRODUCED
Publisher_002,topicA,topicA-591,172.172.1.2:1883,1551644432417,PRODUCED
Publisher_002,topicA,topicA-592,172.172.1.2:1883,1551644432518,PRODUCED
Publisher_002,topicA,topicA-593,172.172.1.2:1883,1551644432620,PRODUCED
Publisher_002,topicA,topicA-594,172.172.1.2:1883,1551644432717,PRODUCED
Publisher_002,topicA,topicA-595,172.172.1.2:1883,1551644432817,PRODUCED
Publisher_002,topicA,topicA-596,172.172.1.2:1883,1551644432917,PRODUCED
Publisher_002,topicA,topicA-597,172.172.1.2:1883,1551644433016,PRODUCED
Publisher_002,topicA,topicA-598,172.172.1.2:1883,1551644433118,PRODUCED
Publisher_002,topicA,topicA-599,172.172.1.2:1883,1551644433217,PRODUCED
Publisher_002,topicA,topicA-600,172.172.1.2:1883,1551644433319,PRODUCED
Publisher_002,topicA,topicA-601,172.172.1.2:1883,1551644433416,PRODUCED
Publisher_002,topicA,topicA-602,172.172.1.2:1883,1551644433517,PRODUCED
Publisher_002,topicA,topicA-603,172.172.1.2:1883,1551644433616,PRODUCED
Publisher_002,topicA,topicA-604,172.172.1.2:1883,1551644433716,PRODUCED
Publisher_002,topicA,topicA-605,172.172.1.2:1883,1551644433818,PRODUCED
Publisher_002,topicA,topicA-606,172.172.1.2:1883,1551644433917,PRODUCED
Publisher_002,topicA,topicA-607,172.172.1.2:1883,1551644434017,PRODUCED
Publisher_002,topicA,topicA-608,172.172.1.2:1883,1551644434117,PRODUCED
Publisher_002,topicA,topicA-609,172.172.1.2:1883,1551644434222,PRODUCED
Publisher_002,topicA,topicA-610,172.172.1.2:1883,1551644434316,PRODUCED
Publisher_002,topicA,topicA-611,172.172.1.2:1883,1551644434417,PRODUCED
Publisher_002,topicA,topicA-612,172.172.1.2:1883,1551644434518,PRODUCED
Publisher_002,topicA,topicA-613,172.172.1.2:1883,1551644434617,PRODUCED
Publisher_002,topicA,topicA-614,172.172.1.2:1883,1551644434721,PRODUCED
Publisher_002,topicA,topicA-615,172.172.1.2:1883,1551644434818,PRODUCED
Publisher_002,topicA,topicA-616,172.172.1.2:1883,1551644434918,PRODUCED
Publisher_002,topicA,topicA-617,172.172.1.2:1883,1551644435016,PRODUCED
Publisher_002,topicA,topicA-618,172.172.1.2:1883,1551644435117,PRODUCED
Publisher_002,topicA,topicA-619,172.172.1.2:1883,1551644435216,PRODUCED
Publisher_002,topicA,topicA-620,172.172.1.2:1883,1551644435319,PRODUCED
Publisher_002,topicA,topicA-621,172.172.1.2:1883,1551644435417,PRODUCED
Publisher_002,topicA,topicA-622,172.172.1.2:1883,1551644435516,PRODUCED
Publisher_002,topicA,topicA-623,172.172.1.2:1883,1551644435616,PRODUCED
Publisher_002,topicA,topicA-624,172.172.1.2:1883,1551644435716,PRODUCED
Publisher_002,topicA,topicA-625,172.172.1.2:1883,1551644435817,PRODUCED
Publisher_002,topicA,topicA-626,172.172.1.2:1883,1551644435918,PRODUCED
Publisher_002,topicA,topicA-627,172.172.1.2:1883,1551644436016,PRODUCED
Publisher_002,topicA,topicA-628,172.172.1.2:1883,1551644436117,PRODUCED
Publisher_002,topicA,topicA-629,172.172.1.2:1883,1551644436215,PRODUCED
Publisher_002,topicA,topicA-630,172.172.1.2:1883,1551644436323,PRODUCED
Publisher_002,topicA,topicA-631,172.172.1.2:1883,1551644436416,PRODUCED
Publisher_002,topicA,topicA-632,172.172.1.2:1883,1551644436516,PRODUCED
Publisher_002,topicA,topicA-633,172.172.1.2:1883,1551644436616,PRODUCED
Publisher_002,topicA,topicA-634,172.172.1.2:1883,1551644436716,PRODUCED
Publisher_002,topicA,topicA-635,172.172.1.2:1883,1551644436816,PRODUCED
Publisher_002,topicA,topicA-636,172.172.1.2:1883,1551644436916,PRODUCED
Publisher_002,topicA,topicA-637,172.172.1.2:1883,1551644437016,PRODUCED
Publisher_002,topicA,topicA-638,172.172.1.2:1883,1551644437118,PRODUCED
Publisher_002,topicA,topicA-639,172.172.1.2:1883,1551644437217,PRODUCED
Publisher_002,topicA,topicA-640,172.172.1.2:1883,1551644437316,PRODUCED
Publisher_002,topicA,topicA-641,172.172.1.2:1883,1551644437416,PRODUCED
Publisher_002,topicA,topicA-642,172.172.1.2:1883,1551644437517,PRODUCED
Publisher_002,topicA,topicA-643,172.172.1.2:1883,1551644437616,PRODUCED
Publisher_002,topicA,topicA-644,172.172.1.2:1883,1551644437716,PRODUCED
Publisher_002,topicA,topicA-645,172.172.1.2:1883,1551644437816,PRODUCED
Publisher_002,topicA,topicA-646,172.172.1.2:1883,1551644437918,PRODUCED
Publisher_002,topicA,topicA-647,172.172.1.2:1883,1551644438016,PRODUCED
Publisher_002,topicA,topicA-648,172.172.1.2:1883,1551644438116,PRODUCED
Publisher_002,topicA,topicA-649,172.172.1.2:1883,1551644438218,PRODUCED
Publisher_002,topicA,topicA-650,172.172.1.2:1883,1551644438316,PRODUCED
Publisher_002,topicA,topicA-651,172.172.1.2:1883,1551644438419,PRODUCED
Publisher_002,topicA,topicA-652,172.172.1.2:1883,1551644438518,PRODUCED
Publisher_002,topicA,topicA-653,172.172.1.2:1883,1551644438617,PRODUCED
Publisher_002,topicA,topicA-654,172.172.1.2:1883,1551644438717,PRODUCED
