timestamp,event,migrationId
1551658406325,INITIALIZED,301b3a7e-2e01-463c-a066-adeaf7266ad0
1551658406327,topicA-INITIALIZED,301b3a7e-2e01-463c-a066-adeaf7266ad0
1551658408303,topicA-FINISHED,301b3a7e-2e01-463c-a066-adeaf7266ad0
1551658408307,FINISHED,301b3a7e-2e01-463c-a066-adeaf7266ad0
