clientId,topic,guid,broker,timestamp,type
Subscriber_001,topicA,topicA-55,172.172.1.1:1883,1551657678631,RECEIVED
Subscriber_001,topicA,topicA-56,172.172.1.1:1883,1551657678633,RECEIVED
Subscriber_001,topicA,topicA-57,172.172.1.1:1883,1551657678634,RECEIVED
Subscriber_001,topicA,topicA-58,172.172.1.1:1883,1551657678716,RECEIVED
Subscriber_001,topicA,topicA-59,172.172.1.1:1883,1551657678812,RECEIVED
Subscriber_001,topicA,topicA-60,172.172.1.1:1883,1551657678910,RECEIVED
Subscriber_001,topicA,topicA-61,172.172.1.1:1883,1551657679012,RECEIVED
Subscriber_001,topicA,topicA-62,172.172.1.1:1883,1551657679112,RECEIVED
Subscriber_001,topicA,topicA-63,172.172.1.1:1883,1551657679215,RECEIVED
Subscriber_001,topicA,topicA-64,172.172.1.1:1883,1551657679310,RECEIVED
Subscriber_001,topicA,topicA-65,172.172.1.1:1883,1551657679413,RECEIVED
Subscriber_001,topicA,topicA-66,172.172.1.1:1883,1551657679519,RECEIVED
Subscriber_001,topicA,topicA-67,172.172.1.1:1883,1551657679611,RECEIVED
Subscriber_001,topicA,topicA-68,172.172.1.1:1883,1551657679716,RECEIVED
Subscriber_001,topicA,topicA-69,172.172.1.1:1883,1551657679834,RECEIVED
Subscriber_001,topicA,topicA-70,172.172.1.1:1883,1551657679917,RECEIVED
Subscriber_001,topicA,topicA-71,172.172.1.1:1883,1551657680006,RECEIVED
Subscriber_001,topicA,topicA-72,172.172.1.1:1883,1551657680108,RECEIVED
Subscriber_001,topicA,topicA-73,172.172.1.1:1883,1551657680207,RECEIVED
Subscriber_001,topicA,topicA-74,172.172.1.1:1883,1551657680304,RECEIVED
Subscriber_001,topicA,topicA-75,172.172.1.1:1883,1551657680411,RECEIVED
Subscriber_001,topicA,topicA-76,172.172.1.1:1883,1551657680508,RECEIVED
Subscriber_001,topicA,topicA-77,172.172.1.1:1883,1551657680617,RECEIVED
Subscriber_001,topicA,topicA-78,172.172.1.1:1883,1551657680709,RECEIVED
Subscriber_001,topicA,topicA-79,172.172.1.1:1883,1551657680817,RECEIVED
Subscriber_001,topicA,topicA-80,172.172.1.1:1883,1551657680901,RECEIVED
Subscriber_001,topicA,topicA-81,172.172.1.1:1883,1551657681002,RECEIVED
Subscriber_001,topicA,topicA-82,172.172.1.1:1883,1551657681109,RECEIVED
Subscriber_001,topicA,topicA-83,172.172.1.1:1883,1551657681206,RECEIVED
Subscriber_001,topicA,topicA-84,172.172.1.1:1883,1551657681316,RECEIVED
Subscriber_001,topicA,topicA-85,172.172.1.1:1883,1551657681419,RECEIVED
Subscriber_001,topicA,topicA-86,172.172.1.1:1883,1551657681515,RECEIVED
Subscriber_001,topicA,topicA-87,172.172.1.1:1883,1551657681602,RECEIVED
Subscriber_001,topicA,topicA-88,172.172.1.1:1883,1551657681719,RECEIVED
Subscriber_001,topicA,topicA-89,172.172.1.1:1883,1551657681814,RECEIVED
Subscriber_001,topicA,topicA-90,172.172.1.1:1883,1551657681912,RECEIVED
Subscriber_001,topicA,topicA-91,172.172.1.1:1883,1551657682022,RECEIVED
Subscriber_001,topicA,topicA-92,172.172.1.1:1883,1551657682104,RECEIVED
Subscriber_001,topicA,topicA-93,172.172.1.1:1883,1551657682199,RECEIVED
Subscriber_001,topicA,topicA-94,172.172.1.1:1883,1551657682305,RECEIVED
Subscriber_001,topicA,topicA-95,172.172.1.1:1883,1551657682417,RECEIVED
Subscriber_001,topicA,topicA-96,172.172.1.1:1883,1551657682507,RECEIVED
Subscriber_001,topicA,topicA-97,172.172.1.1:1883,1551657682622,RECEIVED
Subscriber_001,topicA,topicA-98,172.172.1.1:1883,1551657682702,RECEIVED
Subscriber_001,topicA,topicA-99,172.172.1.1:1883,1551657682821,RECEIVED
Subscriber_001,topicA,topicA-100,172.172.1.1:1883,1551657682900,RECEIVED
Subscriber_001,topicA,topicA-101,172.172.1.1:1883,1551657683011,RECEIVED
Subscriber_001,topicA,topicA-102,172.172.1.1:1883,1551657683120,RECEIVED
Subscriber_001,topicA,topicA-103,172.172.1.1:1883,1551657683204,RECEIVED
Subscriber_001,topicA,topicA-104,172.172.1.1:1883,1551657683304,RECEIVED
Subscriber_001,topicA,topicA-105,172.172.1.1:1883,1551657683397,RECEIVED
Subscriber_001,topicA,topicA-106,172.172.1.1:1883,1551657683519,RECEIVED
Subscriber_001,topicA,topicA-107,172.172.1.1:1883,1551657683607,RECEIVED
Subscriber_001,topicA,topicA-108,172.172.1.1:1883,1551657683705,RECEIVED
Subscriber_001,topicA,topicA-109,172.172.1.1:1883,1551657683804,RECEIVED
Subscriber_001,topicA,topicA-110,172.172.1.1:1883,1551657683902,RECEIVED
Subscriber_001,topicA,topicA-111,172.172.1.1:1883,1551657684006,RECEIVED
Subscriber_001,topicA,topicA-112,172.172.1.1:1883,1551657684102,RECEIVED
Subscriber_001,topicA,topicA-113,172.172.1.1:1883,1551657684203,RECEIVED
Subscriber_001,topicA,topicA-114,172.172.1.1:1883,1551657684311,RECEIVED
Subscriber_001,topicA,topicA-115,172.172.1.1:1883,1551657684406,RECEIVED
Subscriber_001,topicA,topicA-116,172.172.1.1:1883,1551657684510,RECEIVED
Subscriber_001,topicA,topicA-117,172.172.1.1:1883,1551657684633,RECEIVED
Subscriber_001,topicA,topicA-118,172.172.1.1:1883,1551657684701,RECEIVED
Subscriber_001,topicA,topicA-119,172.172.1.1:1883,1551657684801,RECEIVED
Subscriber_001,topicA,topicA-120,172.172.1.1:1883,1551657684909,RECEIVED
Subscriber_001,topicA,topicA-121,172.172.1.1:1883,1551657685011,RECEIVED
Subscriber_001,topicA,topicA-122,172.172.1.1:1883,1551657685105,RECEIVED
Subscriber_001,topicA,topicA-123,172.172.1.1:1883,1551657685203,RECEIVED
Subscriber_001,topicA,topicA-124,172.172.1.1:1883,1551657685305,RECEIVED
Subscriber_001,topicA,topicA-125,172.172.1.1:1883,1551657685419,RECEIVED
Subscriber_001,topicA,topicA-126,172.172.1.1:1883,1551657685508,RECEIVED
Subscriber_001,topicA,topicA-127,172.172.1.1:1883,1551657685619,RECEIVED
Subscriber_001,topicA,topicA-128,172.172.1.1:1883,1551657685722,RECEIVED
Subscriber_001,topicA,topicA-129,172.172.1.1:1883,1551657685802,RECEIVED
Subscriber_001,topicA,topicA-130,172.172.1.1:1883,1551657685901,RECEIVED
Subscriber_001,topicA,topicA-131,172.172.1.1:1883,1551657686009,RECEIVED
Subscriber_001,topicA,topicA-132,172.172.1.1:1883,1551657686100,RECEIVED
Subscriber_001,topicA,topicA-133,172.172.1.1:1883,1551657686208,RECEIVED
Subscriber_001,topicA,topicA-134,172.172.1.1:1883,1551657686304,RECEIVED
Subscriber_001,topicA,topicA-135,172.172.1.1:1883,1551657686399,RECEIVED
Subscriber_001,topicA,topicA-136,172.172.1.1:1883,1551657686500,RECEIVED
Subscriber_001,topicA,topicA-137,172.172.1.1:1883,1551657686602,RECEIVED
Subscriber_001,topicA,topicA-138,172.172.1.1:1883,1551657686698,RECEIVED
Subscriber_001,topicA,topicA-139,172.172.1.1:1883,1551657686805,RECEIVED
Subscriber_001,topicA,topicA-140,172.172.1.1:1883,1551657686913,RECEIVED
Subscriber_001,topicA,topicA-141,172.172.1.1:1883,1551657687010,RECEIVED
Subscriber_001,topicA,topicA-142,172.172.1.1:1883,1551657687117,RECEIVED
Subscriber_001,topicA,topicA-143,172.172.1.1:1883,1551657687210,RECEIVED
Subscriber_001,topicA,topicA-144,172.172.1.1:1883,1551657687311,RECEIVED
Subscriber_001,topicA,topicA-145,172.172.1.1:1883,1551657687406,RECEIVED
Subscriber_001,topicA,topicA-146,172.172.1.1:1883,1551657687511,RECEIVED
Subscriber_001,topicA,topicA-147,172.172.1.1:1883,1551657687603,RECEIVED
Subscriber_001,topicA,topicA-148,172.172.1.1:1883,1551657687703,RECEIVED
Subscriber_001,topicA,topicA-149,172.172.1.1:1883,1551657687803,RECEIVED
Subscriber_001,topicA,topicA-150,172.172.1.1:1883,1551657687912,RECEIVED
Subscriber_001,topicA,topicA-151,172.172.1.1:1883,1551657688010,RECEIVED
Subscriber_001,topicA,topicA-152,172.172.1.1:1883,1551657688109,RECEIVED
Subscriber_001,topicA,topicA-153,172.172.1.1:1883,1551657688203,RECEIVED
Subscriber_001,topicA,topicA-154,172.172.1.1:1883,1551657688310,RECEIVED
Subscriber_001,topicA,topicA-155,172.172.1.1:1883,1551657688415,RECEIVED
Subscriber_001,topicA,topicA-156,172.172.1.1:1883,1551657688503,RECEIVED
Subscriber_001,topicA,topicA-157,172.172.1.1:1883,1551657688606,RECEIVED
Subscriber_001,topicA,topicA-158,172.172.1.1:1883,1551657688700,RECEIVED
Subscriber_001,topicA,topicA-159,172.172.1.1:1883,1551657688810,RECEIVED
Subscriber_001,topicA,topicA-160,172.172.1.1:1883,1551657688905,RECEIVED
Subscriber_001,topicA,topicA-161,172.172.1.1:1883,1551657689010,RECEIVED
Subscriber_001,topicA,topicA-162,172.172.1.1:1883,1551657689109,RECEIVED
Subscriber_001,topicA,topicA-163,172.172.1.1:1883,1551657689208,RECEIVED
Subscriber_001,topicA,topicA-164,172.172.1.1:1883,1551657689314,RECEIVED
Subscriber_001,topicA,topicA-165,172.172.1.1:1883,1551657689408,RECEIVED
Subscriber_001,topicA,topicA-166,172.172.1.1:1883,1551657689502,RECEIVED
Subscriber_001,topicA,topicA-167,172.172.1.1:1883,1551657689603,RECEIVED
Subscriber_001,topicA,topicA-168,172.172.1.1:1883,1551657689701,RECEIVED
Subscriber_001,topicA,topicA-169,172.172.1.1:1883,1551657689815,RECEIVED
Subscriber_001,topicA,topicA-170,172.172.1.1:1883,1551657689905,RECEIVED
Subscriber_001,topicA,topicA-171,172.172.1.1:1883,1551657690025,RECEIVED
Subscriber_001,topicA,topicA-172,172.172.1.1:1883,1551657690098,RECEIVED
Subscriber_001,topicA,topicA-173,172.172.1.1:1883,1551657690205,RECEIVED
Subscriber_001,topicA,topicA-174,172.172.1.1:1883,1551657690311,RECEIVED
Subscriber_001,topicA,topicA-175,172.172.1.1:1883,1551657690412,RECEIVED
Subscriber_001,topicA,topicA-176,172.172.1.1:1883,1551657690512,RECEIVED
Subscriber_001,topicA,topicA-177,172.172.1.1:1883,1551657690613,RECEIVED
Subscriber_001,topicA,topicA-178,172.172.1.1:1883,1551657690712,RECEIVED
Subscriber_001,topicA,topicA-179,172.172.1.1:1883,1551657690806,RECEIVED
Subscriber_001,topicA,topicA-180,172.172.1.1:1883,1551657690916,RECEIVED
Subscriber_001,topicA,topicA-181,172.172.1.1:1883,1551657691011,RECEIVED
Subscriber_001,topicA,topicA-182,172.172.1.1:1883,1551657691114,RECEIVED
Subscriber_001,topicA,topicA-183,172.172.1.1:1883,1551657691210,RECEIVED
Subscriber_001,topicA,topicA-184,172.172.1.1:1883,1551657691301,RECEIVED
Subscriber_001,topicA,topicA-185,172.172.1.1:1883,1551657691412,RECEIVED
Subscriber_001,topicA,topicA-186,172.172.1.1:1883,1551657691515,RECEIVED
Subscriber_001,topicA,topicA-187,172.172.1.1:1883,1551657691616,RECEIVED
Subscriber_001,topicA,topicA-188,172.172.1.1:1883,1551657691723,RECEIVED
Subscriber_001,topicA,topicA-189,172.172.1.1:1883,1551657691804,RECEIVED
Subscriber_001,topicA,topicA-190,172.172.1.1:1883,1551657691922,RECEIVED
Subscriber_001,topicA,topicA-191,172.172.1.1:1883,1551657692002,RECEIVED
Subscriber_001,topicA,topicA-192,172.172.1.1:1883,1551657692114,RECEIVED
Subscriber_001,topicA,topicA-193,172.172.1.1:1883,1551657692208,RECEIVED
Subscriber_001,topicA,topicA-194,172.172.1.1:1883,1551657692310,RECEIVED
Subscriber_001,topicA,topicA-195,172.172.1.1:1883,1551657692400,RECEIVED
Subscriber_001,topicA,topicA-196,172.172.1.1:1883,1551657692514,RECEIVED
Subscriber_001,topicA,topicA-197,172.172.1.1:1883,1551657692621,RECEIVED
Subscriber_001,topicA,topicA-198,172.172.1.1:1883,1551657692712,RECEIVED
Subscriber_001,topicA,topicA-199,172.172.1.1:1883,1551657692805,RECEIVED
Subscriber_001,topicA,topicA-200,172.172.1.1:1883,1551657692902,RECEIVED
Subscriber_001,topicA,topicA-201,172.172.1.1:1883,1551657693006,RECEIVED
Subscriber_001,topicA,topicA-202,172.172.1.1:1883,1551657693101,RECEIVED
Subscriber_001,topicA,topicA-203,172.172.1.1:1883,1551657693201,RECEIVED
Subscriber_001,topicA,topicA-204,172.172.1.1:1883,1551657693309,RECEIVED
Subscriber_001,topicA,topicA-205,172.172.1.1:1883,1551657693399,RECEIVED
Subscriber_001,topicA,topicA-206,172.172.1.1:1883,1551657693500,RECEIVED
Subscriber_001,topicA,topicA-207,172.172.1.1:1883,1551657693597,RECEIVED
Subscriber_001,topicA,topicA-208,172.172.1.1:1883,1551657693700,RECEIVED
Subscriber_001,topicA,topicA-209,172.172.1.1:1883,1551657693797,RECEIVED
Subscriber_001,topicA,topicA-210,172.172.1.1:1883,1551657693899,RECEIVED
Subscriber_001,topicA,topicA-211,172.172.1.1:1883,1551657694000,RECEIVED
Subscriber_001,topicA,topicA-212,172.172.1.1:1883,1551657694105,RECEIVED
Subscriber_001,topicA,topicA-213,172.172.1.1:1883,1551657694211,RECEIVED
Subscriber_001,topicA,topicA-214,172.172.1.1:1883,1551657694303,RECEIVED
Subscriber_001,topicA,topicA-215,172.172.1.1:1883,1551657694408,RECEIVED
Subscriber_001,topicA,topicA-216,172.172.1.1:1883,1551657694505,RECEIVED
Subscriber_001,topicA,topicA-217,172.172.1.1:1883,1551657694612,RECEIVED
Subscriber_001,topicA,topicA-218,172.172.1.1:1883,1551657694706,RECEIVED
Subscriber_001,topicA,topicA-219,172.172.1.1:1883,1551657694830,RECEIVED
Subscriber_001,topicA,topicA-220,172.172.1.1:1883,1551657694915,RECEIVED
Subscriber_001,topicA,topicA-221,172.172.1.1:1883,1551657695010,RECEIVED
Subscriber_001,topicA,topicA-222,172.172.1.1:1883,1551657695112,RECEIVED
Subscriber_001,topicA,topicA-223,172.172.1.1:1883,1551657695211,RECEIVED
Subscriber_001,topicA,topicA-224,172.172.1.1:1883,1551657695321,RECEIVED
Subscriber_001,topicA,topicA-225,172.172.1.1:1883,1551657695403,RECEIVED
Subscriber_001,topicA,topicA-226,172.172.1.1:1883,1551657695509,RECEIVED
Subscriber_001,topicA,topicA-227,172.172.1.1:1883,1551657695611,RECEIVED
Subscriber_001,topicA,topicA-228,172.172.1.1:1883,1551657695712,RECEIVED
Subscriber_001,topicA,topicA-229,172.172.1.1:1883,1551657695807,RECEIVED
Subscriber_001,topicA,topicA-230,172.172.1.1:1883,1551657695904,RECEIVED
Subscriber_001,topicA,topicA-231,172.172.1.1:1883,1551657696006,RECEIVED
Subscriber_001,topicA,topicA-232,172.172.1.1:1883,1551657696112,RECEIVED
Subscriber_001,topicA,topicA-233,172.172.1.1:1883,1551657696202,RECEIVED
Subscriber_001,topicA,topicA-234,172.172.1.1:1883,1551657696305,RECEIVED
Subscriber_001,topicA,topicA-235,172.172.1.1:1883,1551657696412,RECEIVED
Subscriber_001,topicA,topicA-236,172.172.1.1:1883,1551657696504,RECEIVED
Subscriber_001,topicA,topicA-237,172.172.1.1:1883,1551657696605,RECEIVED
Subscriber_001,topicA,topicA-238,172.172.1.1:1883,1551657696702,RECEIVED
Subscriber_001,topicA,topicA-239,172.172.1.1:1883,1551657696807,RECEIVED
Subscriber_001,topicA,topicA-240,172.172.1.1:1883,1551657696911,RECEIVED
Subscriber_001,topicA,topicA-241,172.172.1.1:1883,1551657697010,RECEIVED
Subscriber_001,topicA,topicA-242,172.172.1.1:1883,1551657697101,RECEIVED
Subscriber_001,topicA,topicA-243,172.172.1.1:1883,1551657697203,RECEIVED
Subscriber_001,topicA,topicA-244,172.172.1.1:1883,1551657697303,RECEIVED
Subscriber_001,topicA,topicA-245,172.172.1.1:1883,1551657697404,RECEIVED
Subscriber_001,topicA,topicA-246,172.172.1.1:1883,1551657697511,RECEIVED
Subscriber_001,topicA,topicA-247,172.172.1.1:1883,1551657697612,RECEIVED
Subscriber_001,topicA,topicA-248,172.172.1.1:1883,1551657697705,RECEIVED
Subscriber_001,topicA,topicA-249,172.172.1.1:1883,1551657697811,RECEIVED
Subscriber_001,topicA,topicA-250,172.172.1.1:1883,1551657697903,RECEIVED
Subscriber_001,topicA,topicA-251,172.172.1.1:1883,1551657698004,RECEIVED
Subscriber_001,topicA,topicA-252,172.172.1.1:1883,1551657698121,RECEIVED
Subscriber_001,topicA,topicA-253,172.172.1.1:1883,1551657698207,RECEIVED
Subscriber_001,topicA,topicA-254,172.172.1.1:1883,1551657698303,RECEIVED
Subscriber_001,topicA,topicA-234,172.172.1.2:1883,1551657698387,RECEIVED
Subscriber_001,topicA,topicA-255,172.172.1.1:1883,1551657698400,RECEIVED
Subscriber_001,topicA,topicA-235,172.172.1.2:1883,1551657698477,RECEIVED
Subscriber_001,topicA,topicA-256,172.172.1.1:1883,1551657698513,RECEIVED
Subscriber_001,topicA,topicA-236,172.172.1.2:1883,1551657698588,RECEIVED
Subscriber_001,topicA,topicA-257,172.172.1.1:1883,1551657698611,RECEIVED
Subscriber_001,topicA,topicA-237,172.172.1.2:1883,1551657698678,RECEIVED
Subscriber_001,topicA,topicA-258,172.172.1.1:1883,1551657698701,RECEIVED
Subscriber_001,topicA,topicA-238,172.172.1.2:1883,1551657698782,RECEIVED
Subscriber_001,topicA,topicA-259,172.172.1.1:1883,1551657698800,RECEIVED
Subscriber_001,topicA,topicA-239,172.172.1.2:1883,1551657698876,RECEIVED
Subscriber_001,topicA,topicA-260,172.172.1.1:1883,1551657698903,RECEIVED
Subscriber_001,topicA,topicA-240,172.172.1.2:1883,1551657698980,RECEIVED
Subscriber_001,topicA,topicA-261,172.172.1.1:1883,1551657698996,RECEIVED
Subscriber_001,topicA,topicA-241,172.172.1.2:1883,1551657699084,RECEIVED
Subscriber_001,topicA,topicA-262,172.172.1.1:1883,1551657699113,RECEIVED
Subscriber_001,topicA,topicA-242,172.172.1.2:1883,1551657699184,RECEIVED
Subscriber_001,topicA,topicA-263,172.172.1.1:1883,1551657699206,RECEIVED
Subscriber_001,topicA,topicA-243,172.172.1.2:1883,1551657699277,RECEIVED
Subscriber_001,topicA,topicA-264,172.172.1.1:1883,1551657699300,RECEIVED
Subscriber_001,topicA,topicA-244,172.172.1.2:1883,1551657699382,RECEIVED
Subscriber_001,topicA,topicA-265,172.172.1.1:1883,1551657699403,RECEIVED
Subscriber_001,topicA,topicA-245,172.172.1.2:1883,1551657699476,RECEIVED
Subscriber_001,topicA,topicA-266,172.172.1.1:1883,1551657699503,RECEIVED
Subscriber_001,topicA,topicA-246,172.172.1.2:1883,1551657699584,RECEIVED
Subscriber_001,topicA,topicA-267,172.172.1.1:1883,1551657699604,RECEIVED
Subscriber_001,topicA,topicA-247,172.172.1.2:1883,1551657699690,RECEIVED
Subscriber_001,topicA,topicA-268,172.172.1.1:1883,1551657699702,RECEIVED
Subscriber_001,topicA,topicA-248,172.172.1.2:1883,1551657699782,RECEIVED
Subscriber_001,topicA,topicA-269,172.172.1.1:1883,1551657699803,RECEIVED
Subscriber_001,topicA,topicA-249,172.172.1.2:1883,1551657699902,RECEIVED
Subscriber_001,topicA,topicA-270,172.172.1.1:1883,1551657699915,RECEIVED
Subscriber_001,topicA,topicA-250,172.172.1.2:1883,1551657699976,RECEIVED
Subscriber_001,topicA,topicA-251,172.172.1.2:1883,1551657700079,RECEIVED
Subscriber_001,topicA,topicA-252,172.172.1.2:1883,1551657700183,RECEIVED
Subscriber_001,topicA,topicA-253,172.172.1.2:1883,1551657700282,RECEIVED
Subscriber_001,topicA,topicA-254,172.172.1.2:1883,1551657700383,RECEIVED
Subscriber_001,topicA,topicA-255,172.172.1.2:1883,1551657700480,RECEIVED
Subscriber_001,topicA,topicA-256,172.172.1.2:1883,1551657700581,RECEIVED
Subscriber_001,topicA,topicA-257,172.172.1.2:1883,1551657700679,RECEIVED
Subscriber_001,topicA,topicA-258,172.172.1.2:1883,1551657700777,RECEIVED
Subscriber_001,topicA,topicA-259,172.172.1.2:1883,1551657700896,RECEIVED
Subscriber_001,topicA,topicA-260,172.172.1.2:1883,1551657700987,RECEIVED
Subscriber_001,topicA,topicA-261,172.172.1.2:1883,1551657701091,RECEIVED
Subscriber_001,topicA,topicA-262,172.172.1.2:1883,1551657701179,RECEIVED
Subscriber_001,topicA,topicA-263,172.172.1.2:1883,1551657701275,RECEIVED
Subscriber_001,topicA,topicA-264,172.172.1.2:1883,1551657701373,RECEIVED
Subscriber_001,topicA,topicA-265,172.172.1.2:1883,1551657701479,RECEIVED
Subscriber_001,topicA,topicA-266,172.172.1.2:1883,1551657701580,RECEIVED
Subscriber_001,topicA,topicA-267,172.172.1.2:1883,1551657701685,RECEIVED
Subscriber_001,topicA,topicA-268,172.172.1.2:1883,1551657701789,RECEIVED
Subscriber_001,topicA,topicA-269,172.172.1.2:1883,1551657701888,RECEIVED
Subscriber_001,topicA,topicA-270,172.172.1.2:1883,1551657701993,RECEIVED
Subscriber_001,topicA,topicA-271,172.172.1.2:1883,1551657702097,RECEIVED
Subscriber_001,topicA,topicA-272,172.172.1.2:1883,1551657702178,RECEIVED
Subscriber_001,topicA,topicA-273,172.172.1.2:1883,1551657702283,RECEIVED
Subscriber_001,topicA,topicA-274,172.172.1.2:1883,1551657702378,RECEIVED
Subscriber_001,topicA,topicA-275,172.172.1.2:1883,1551657702493,RECEIVED
Subscriber_001,topicA,topicA-276,172.172.1.2:1883,1551657702586,RECEIVED
Subscriber_001,topicA,topicA-277,172.172.1.2:1883,1551657702688,RECEIVED
Subscriber_001,topicA,topicA-278,172.172.1.2:1883,1551657702789,RECEIVED
Subscriber_001,topicA,topicA-279,172.172.1.2:1883,1551657702887,RECEIVED
Subscriber_001,topicA,topicA-280,172.172.1.2:1883,1551657702974,RECEIVED
Subscriber_001,topicA,topicA-281,172.172.1.2:1883,1551657703090,RECEIVED
Subscriber_001,topicA,topicA-282,172.172.1.2:1883,1551657703185,RECEIVED
Subscriber_001,topicA,topicA-283,172.172.1.2:1883,1551657703279,RECEIVED
Subscriber_001,topicA,topicA-284,172.172.1.2:1883,1551657703393,RECEIVED
Subscriber_001,topicA,topicA-285,172.172.1.2:1883,1551657703491,RECEIVED
Subscriber_001,topicA,topicA-286,172.172.1.2:1883,1551657703593,RECEIVED
Subscriber_001,topicA,topicA-287,172.172.1.2:1883,1551657703691,RECEIVED
Subscriber_001,topicA,topicA-288,172.172.1.2:1883,1551657703792,RECEIVED
Subscriber_001,topicA,topicA-289,172.172.1.2:1883,1551657703890,RECEIVED
Subscriber_001,topicA,topicA-290,172.172.1.2:1883,1551657703993,RECEIVED
Subscriber_001,topicA,topicA-291,172.172.1.2:1883,1551657704088,RECEIVED
Subscriber_001,topicA,topicA-292,172.172.1.2:1883,1551657704182,RECEIVED
Subscriber_001,topicA,topicA-293,172.172.1.2:1883,1551657704283,RECEIVED
Subscriber_001,topicA,topicA-294,172.172.1.2:1883,1551657704382,RECEIVED
Subscriber_001,topicA,topicA-295,172.172.1.2:1883,1551657704485,RECEIVED
Subscriber_001,topicA,topicA-296,172.172.1.2:1883,1551657704587,RECEIVED
Subscriber_001,topicA,topicA-297,172.172.1.2:1883,1551657704692,RECEIVED
Subscriber_001,topicA,topicA-298,172.172.1.2:1883,1551657704788,RECEIVED
Subscriber_001,topicA,topicA-299,172.172.1.2:1883,1551657704885,RECEIVED
Subscriber_001,topicA,topicA-300,172.172.1.2:1883,1551657704981,RECEIVED
Subscriber_001,topicA,topicA-301,172.172.1.2:1883,1551657705085,RECEIVED
Subscriber_001,topicA,topicA-302,172.172.1.2:1883,1551657705174,RECEIVED
Subscriber_001,topicA,topicA-303,172.172.1.2:1883,1551657705279,RECEIVED
Subscriber_001,topicA,topicA-304,172.172.1.2:1883,1551657705383,RECEIVED
Subscriber_001,topicA,topicA-305,172.172.1.2:1883,1551657705473,RECEIVED
Subscriber_001,topicA,topicA-306,172.172.1.2:1883,1551657705574,RECEIVED
Subscriber_001,topicA,topicA-307,172.172.1.2:1883,1551657705673,RECEIVED
Subscriber_001,topicA,topicA-308,172.172.1.2:1883,1551657705783,RECEIVED
Subscriber_001,topicA,topicA-309,172.172.1.2:1883,1551657705876,RECEIVED
Subscriber_001,topicA,topicA-310,172.172.1.2:1883,1551657705987,RECEIVED
Subscriber_001,topicA,topicA-311,172.172.1.2:1883,1551657706084,RECEIVED
Subscriber_001,topicA,topicA-312,172.172.1.2:1883,1551657706183,RECEIVED
Subscriber_001,topicA,topicA-313,172.172.1.2:1883,1551657706281,RECEIVED
Subscriber_001,topicA,topicA-314,172.172.1.2:1883,1551657706381,RECEIVED
Subscriber_001,topicA,topicA-315,172.172.1.2:1883,1551657706474,RECEIVED
Subscriber_001,topicA,topicA-316,172.172.1.2:1883,1551657706573,RECEIVED
Subscriber_001,topicA,topicA-317,172.172.1.2:1883,1551657706686,RECEIVED
Subscriber_001,topicA,topicA-318,172.172.1.2:1883,1551657706780,RECEIVED
Subscriber_001,topicA,topicA-319,172.172.1.2:1883,1551657706880,RECEIVED
Subscriber_001,topicA,topicA-320,172.172.1.2:1883,1551657706990,RECEIVED
Subscriber_001,topicA,topicA-321,172.172.1.2:1883,1551657707094,RECEIVED
Subscriber_001,topicA,topicA-322,172.172.1.2:1883,1551657707185,RECEIVED
Subscriber_001,topicA,topicA-323,172.172.1.2:1883,1551657707290,RECEIVED
Subscriber_001,topicA,topicA-324,172.172.1.2:1883,1551657707387,RECEIVED
Subscriber_001,topicA,topicA-325,172.172.1.2:1883,1551657707497,RECEIVED
Subscriber_001,topicA,topicA-326,172.172.1.2:1883,1551657707596,RECEIVED
Subscriber_001,topicA,topicA-327,172.172.1.2:1883,1551657707690,RECEIVED
Subscriber_001,topicA,topicA-328,172.172.1.2:1883,1551657707785,RECEIVED
Subscriber_001,topicA,topicA-329,172.172.1.2:1883,1551657707882,RECEIVED
Subscriber_001,topicA,topicA-330,172.172.1.2:1883,1551657707991,RECEIVED
Subscriber_001,topicA,topicA-331,172.172.1.2:1883,1551657708080,RECEIVED
Subscriber_001,topicA,topicA-332,172.172.1.2:1883,1551657708190,RECEIVED
Subscriber_001,topicA,topicA-333,172.172.1.2:1883,1551657708281,RECEIVED
Subscriber_001,topicA,topicA-334,172.172.1.2:1883,1551657708394,RECEIVED
Subscriber_001,topicA,topicA-335,172.172.1.2:1883,1551657708476,RECEIVED
Subscriber_001,topicA,topicA-336,172.172.1.2:1883,1551657708578,RECEIVED
Subscriber_001,topicA,topicA-337,172.172.1.2:1883,1551657708685,RECEIVED
Subscriber_001,topicA,topicA-338,172.172.1.2:1883,1551657708786,RECEIVED
Subscriber_001,topicA,topicA-339,172.172.1.2:1883,1551657708892,RECEIVED
Subscriber_001,topicA,topicA-340,172.172.1.2:1883,1551657708980,RECEIVED
Subscriber_001,topicA,topicA-341,172.172.1.2:1883,1551657709085,RECEIVED
Subscriber_001,topicA,topicA-342,172.172.1.2:1883,1551657709184,RECEIVED
Subscriber_001,topicA,topicA-343,172.172.1.2:1883,1551657709276,RECEIVED
Subscriber_001,topicA,topicA-344,172.172.1.2:1883,1551657709384,RECEIVED
Subscriber_001,topicA,topicA-345,172.172.1.2:1883,1551657709483,RECEIVED
Subscriber_001,topicA,topicA-346,172.172.1.2:1883,1551657709585,RECEIVED
Subscriber_001,topicA,topicA-347,172.172.1.2:1883,1551657709672,RECEIVED
Subscriber_001,topicA,topicA-348,172.172.1.2:1883,1551657709775,RECEIVED
Subscriber_001,topicA,topicA-349,172.172.1.2:1883,1551657709893,RECEIVED
Subscriber_001,topicA,topicA-350,172.172.1.2:1883,1551657709989,RECEIVED
Subscriber_001,topicA,topicA-351,172.172.1.2:1883,1551657710086,RECEIVED
Subscriber_001,topicA,topicA-352,172.172.1.2:1883,1551657710185,RECEIVED
Subscriber_001,topicA,topicA-353,172.172.1.2:1883,1551657710293,RECEIVED
Subscriber_001,topicA,topicA-354,172.172.1.2:1883,1551657710385,RECEIVED
Subscriber_001,topicA,topicA-355,172.172.1.2:1883,1551657710484,RECEIVED
Subscriber_001,topicA,topicA-356,172.172.1.2:1883,1551657710591,RECEIVED
Subscriber_001,topicA,topicA-357,172.172.1.2:1883,1551657710693,RECEIVED
Subscriber_001,topicA,topicA-358,172.172.1.2:1883,1551657710787,RECEIVED
Subscriber_001,topicA,topicA-359,172.172.1.2:1883,1551657710891,RECEIVED
Subscriber_001,topicA,topicA-360,172.172.1.2:1883,1551657710985,RECEIVED
Subscriber_001,topicA,topicA-361,172.172.1.2:1883,1551657711079,RECEIVED
Subscriber_001,topicA,topicA-362,172.172.1.2:1883,1551657711184,RECEIVED
Subscriber_001,topicA,topicA-363,172.172.1.2:1883,1551657711295,RECEIVED
Subscriber_001,topicA,topicA-364,172.172.1.2:1883,1551657711376,RECEIVED
Subscriber_001,topicA,topicA-365,172.172.1.2:1883,1551657711476,RECEIVED
Subscriber_001,topicA,topicA-366,172.172.1.2:1883,1551657711585,RECEIVED
Subscriber_001,topicA,topicA-367,172.172.1.2:1883,1551657711683,RECEIVED
Subscriber_001,topicA,topicA-368,172.172.1.2:1883,1551657711792,RECEIVED
Subscriber_001,topicA,topicA-369,172.172.1.2:1883,1551657711883,RECEIVED
Subscriber_001,topicA,topicA-370,172.172.1.2:1883,1551657711985,RECEIVED
Subscriber_001,topicA,topicA-371,172.172.1.2:1883,1551657712074,RECEIVED
Subscriber_001,topicA,topicA-372,172.172.1.2:1883,1551657712181,RECEIVED
Subscriber_001,topicA,topicA-373,172.172.1.2:1883,1551657712280,RECEIVED
Subscriber_001,topicA,topicA-374,172.172.1.2:1883,1551657712388,RECEIVED
Subscriber_001,topicA,topicA-375,172.172.1.2:1883,1551657712481,RECEIVED
Subscriber_001,topicA,topicA-376,172.172.1.2:1883,1551657712580,RECEIVED
Subscriber_001,topicA,topicA-377,172.172.1.2:1883,1551657712694,RECEIVED
Subscriber_001,topicA,topicA-378,172.172.1.2:1883,1551657712787,RECEIVED
Subscriber_001,topicA,topicA-379,172.172.1.2:1883,1551657712884,RECEIVED
Subscriber_001,topicA,topicA-380,172.172.1.2:1883,1551657712982,RECEIVED
Subscriber_001,topicA,topicA-381,172.172.1.2:1883,1551657713097,RECEIVED
Subscriber_001,topicA,topicA-382,172.172.1.2:1883,1551657713187,RECEIVED
Subscriber_001,topicA,topicA-383,172.172.1.2:1883,1551657713279,RECEIVED
Subscriber_001,topicA,topicA-384,172.172.1.2:1883,1551657713387,RECEIVED
Subscriber_001,topicA,topicA-385,172.172.1.2:1883,1551657713490,RECEIVED
Subscriber_001,topicA,topicA-386,172.172.1.2:1883,1551657713578,RECEIVED
Subscriber_001,topicA,topicA-387,172.172.1.2:1883,1551657713690,RECEIVED
Subscriber_001,topicA,topicA-388,172.172.1.2:1883,1551657713791,RECEIVED
Subscriber_001,topicA,topicA-389,172.172.1.2:1883,1551657713886,RECEIVED
Subscriber_001,topicA,topicA-390,172.172.1.2:1883,1551657713976,RECEIVED
Subscriber_001,topicA,topicA-391,172.172.1.2:1883,1551657714076,RECEIVED
Subscriber_001,topicA,topicA-392,172.172.1.2:1883,1551657714185,RECEIVED
Subscriber_001,topicA,topicA-393,172.172.1.2:1883,1551657714281,RECEIVED
Subscriber_001,topicA,topicA-394,172.172.1.2:1883,1551657714385,RECEIVED
Subscriber_001,topicA,topicA-395,172.172.1.2:1883,1551657714493,RECEIVED
Subscriber_001,topicA,topicA-396,172.172.1.2:1883,1551657714586,RECEIVED
Subscriber_001,topicA,topicA-397,172.172.1.2:1883,1551657714684,RECEIVED
Subscriber_001,topicA,topicA-398,172.172.1.2:1883,1551657714782,RECEIVED
Subscriber_001,topicA,topicA-399,172.172.1.2:1883,1551657714883,RECEIVED
Subscriber_001,topicA,topicA-400,172.172.1.2:1883,1551657714981,RECEIVED
Subscriber_001,topicA,topicA-401,172.172.1.2:1883,1551657715083,RECEIVED
Subscriber_001,topicA,topicA-402,172.172.1.2:1883,1551657715182,RECEIVED
Subscriber_001,topicA,topicA-403,172.172.1.2:1883,1551657715289,RECEIVED
Subscriber_001,topicA,topicA-404,172.172.1.2:1883,1551657715382,RECEIVED
Subscriber_001,topicA,topicA-405,172.172.1.2:1883,1551657715481,RECEIVED
Subscriber_001,topicA,topicA-406,172.172.1.2:1883,1551657715581,RECEIVED
Subscriber_001,topicA,topicA-407,172.172.1.2:1883,1551657715680,RECEIVED
Subscriber_001,topicA,topicA-408,172.172.1.2:1883,1551657715784,RECEIVED
Subscriber_001,topicA,topicA-409,172.172.1.2:1883,1551657715883,RECEIVED
Subscriber_001,topicA,topicA-410,172.172.1.2:1883,1551657715990,RECEIVED
Subscriber_001,topicA,topicA-411,172.172.1.2:1883,1551657716084,RECEIVED
Subscriber_001,topicA,topicA-412,172.172.1.2:1883,1551657716188,RECEIVED
Subscriber_001,topicA,topicA-413,172.172.1.2:1883,1551657716279,RECEIVED
Subscriber_001,topicA,topicA-414,172.172.1.2:1883,1551657716381,RECEIVED
Subscriber_001,topicA,topicA-415,172.172.1.2:1883,1551657716490,RECEIVED
Subscriber_001,topicA,topicA-416,172.172.1.2:1883,1551657716587,RECEIVED
Subscriber_001,topicA,topicA-417,172.172.1.2:1883,1551657716693,RECEIVED
Subscriber_001,topicA,topicA-418,172.172.1.2:1883,1551657716783,RECEIVED
Subscriber_001,topicA,topicA-419,172.172.1.2:1883,1551657716894,RECEIVED
Subscriber_001,topicA,topicA-420,172.172.1.2:1883,1551657716989,RECEIVED
Subscriber_001,topicA,topicA-421,172.172.1.2:1883,1551657717077,RECEIVED
Subscriber_001,topicA,topicA-422,172.172.1.2:1883,1551657717183,RECEIVED
Subscriber_001,topicA,topicA-423,172.172.1.2:1883,1551657717283,RECEIVED
Subscriber_001,topicA,topicA-424,172.172.1.2:1883,1551657717379,RECEIVED
Subscriber_001,topicA,topicA-425,172.172.1.2:1883,1551657717477,RECEIVED
Subscriber_001,topicA,topicA-426,172.172.1.2:1883,1551657717586,RECEIVED
Subscriber_001,topicA,topicA-427,172.172.1.2:1883,1551657717686,RECEIVED
Subscriber_001,topicA,topicA-428,172.172.1.2:1883,1551657717790,RECEIVED
Subscriber_001,topicA,topicA-429,172.172.1.2:1883,1551657717880,RECEIVED
Subscriber_001,topicA,topicA-430,172.172.1.2:1883,1551657717980,RECEIVED
Subscriber_001,topicA,topicA-431,172.172.1.2:1883,1551657718077,RECEIVED
Subscriber_001,topicA,topicA-432,172.172.1.2:1883,1551657718174,RECEIVED
Subscriber_001,topicA,topicA-433,172.172.1.2:1883,1551657718278,RECEIVED
Subscriber_001,topicA,topicA-434,172.172.1.2:1883,1551657718380,RECEIVED
Subscriber_001,topicA,topicA-435,172.172.1.2:1883,1551657718481,RECEIVED
Subscriber_001,topicA,topicA-436,172.172.1.2:1883,1551657718579,RECEIVED
Subscriber_001,topicA,topicA-437,172.172.1.2:1883,1551657718675,RECEIVED
Subscriber_001,topicA,topicA-438,172.172.1.2:1883,1551657718784,RECEIVED
Subscriber_001,topicA,topicA-439,172.172.1.2:1883,1551657718882,RECEIVED
Subscriber_001,topicA,topicA-440,172.172.1.2:1883,1551657718988,RECEIVED
Subscriber_001,topicA,topicA-441,172.172.1.2:1883,1551657719091,RECEIVED
Subscriber_001,topicA,topicA-442,172.172.1.2:1883,1551657719191,RECEIVED
Subscriber_001,topicA,topicA-443,172.172.1.2:1883,1551657719283,RECEIVED
Subscriber_001,topicA,topicA-444,172.172.1.2:1883,1551657719382,RECEIVED
Subscriber_001,topicA,topicA-445,172.172.1.2:1883,1551657719480,RECEIVED
Subscriber_001,topicA,topicA-446,172.172.1.2:1883,1551657719577,RECEIVED
Subscriber_001,topicA,topicA-447,172.172.1.2:1883,1551657719682,RECEIVED
Subscriber_001,topicA,topicA-448,172.172.1.2:1883,1551657719782,RECEIVED
Subscriber_001,topicA,topicA-449,172.172.1.2:1883,1551657719881,RECEIVED
Subscriber_001,topicA,topicA-450,172.172.1.2:1883,1551657719985,RECEIVED
Subscriber_001,topicA,topicA-451,172.172.1.2:1883,1551657720094,RECEIVED
Subscriber_001,topicA,topicA-452,172.172.1.2:1883,1551657720189,RECEIVED
Subscriber_001,topicA,topicA-453,172.172.1.2:1883,1551657720290,RECEIVED
Subscriber_001,topicA,topicA-454,172.172.1.2:1883,1551657720381,RECEIVED
Subscriber_001,topicA,topicA-455,172.172.1.2:1883,1551657720483,RECEIVED
Subscriber_001,topicA,topicA-456,172.172.1.2:1883,1551657720581,RECEIVED
Subscriber_001,topicA,topicA-457,172.172.1.2:1883,1551657720688,RECEIVED
Subscriber_001,topicA,topicA-458,172.172.1.2:1883,1551657720786,RECEIVED
Subscriber_001,topicA,topicA-459,172.172.1.2:1883,1551657720884,RECEIVED
Subscriber_001,topicA,topicA-460,172.172.1.2:1883,1551657720985,RECEIVED
Subscriber_001,topicA,topicA-461,172.172.1.2:1883,1551657721094,RECEIVED
Subscriber_001,topicA,topicA-462,172.172.1.2:1883,1551657721186,RECEIVED
Subscriber_001,topicA,topicA-463,172.172.1.2:1883,1551657721292,RECEIVED
Subscriber_001,topicA,topicA-464,172.172.1.2:1883,1551657721385,RECEIVED
Subscriber_001,topicA,topicA-465,172.172.1.2:1883,1551657721492,RECEIVED
Subscriber_001,topicA,topicA-466,172.172.1.2:1883,1551657721580,RECEIVED
Subscriber_001,topicA,topicA-467,172.172.1.2:1883,1551657721688,RECEIVED
Subscriber_001,topicA,topicA-468,172.172.1.2:1883,1551657721785,RECEIVED
Subscriber_001,topicA,topicA-469,172.172.1.2:1883,1551657721884,RECEIVED
Subscriber_001,topicA,topicA-470,172.172.1.2:1883,1551657721976,RECEIVED
Subscriber_001,topicA,topicA-471,172.172.1.2:1883,1551657722083,RECEIVED
Subscriber_001,topicA,topicA-472,172.172.1.2:1883,1551657722179,RECEIVED
Subscriber_001,topicA,topicA-473,172.172.1.2:1883,1551657722276,RECEIVED
Subscriber_001,topicA,topicA-474,172.172.1.2:1883,1551657722381,RECEIVED
Subscriber_001,topicA,topicA-475,172.172.1.2:1883,1551657722483,RECEIVED
Subscriber_001,topicA,topicA-476,172.172.1.2:1883,1551657722577,RECEIVED
Subscriber_001,topicA,topicA-477,172.172.1.2:1883,1551657722674,RECEIVED
Subscriber_001,topicA,topicA-478,172.172.1.2:1883,1551657722785,RECEIVED
Subscriber_001,topicA,topicA-479,172.172.1.2:1883,1551657722887,RECEIVED
Subscriber_001,topicA,topicA-480,172.172.1.2:1883,1551657722989,RECEIVED
Subscriber_001,topicA,topicA-481,172.172.1.2:1883,1551657723084,RECEIVED
Subscriber_001,topicA,topicA-482,172.172.1.2:1883,1551657723182,RECEIVED
Subscriber_001,topicA,topicA-483,172.172.1.2:1883,1551657723276,RECEIVED
Subscriber_001,topicA,topicA-484,172.172.1.2:1883,1551657723373,RECEIVED
Subscriber_001,topicA,topicA-485,172.172.1.2:1883,1551657723485,RECEIVED
Subscriber_001,topicA,topicA-486,172.172.1.2:1883,1551657723586,RECEIVED
Subscriber_001,topicA,topicA-487,172.172.1.2:1883,1551657723712,RECEIVED
Subscriber_001,topicA,topicA-488,172.172.1.2:1883,1551657723778,RECEIVED
Subscriber_001,topicA,topicA-489,172.172.1.2:1883,1551657723879,RECEIVED
Subscriber_001,topicA,topicA-490,172.172.1.2:1883,1551657723983,RECEIVED
Subscriber_001,topicA,topicA-491,172.172.1.2:1883,1551657724095,RECEIVED
Subscriber_001,topicA,topicA-492,172.172.1.2:1883,1551657724175,RECEIVED
Subscriber_001,topicA,topicA-493,172.172.1.2:1883,1551657724284,RECEIVED
Subscriber_001,topicA,topicA-494,172.172.1.2:1883,1551657724383,RECEIVED
Subscriber_001,topicA,topicA-495,172.172.1.2:1883,1551657724476,RECEIVED
Subscriber_001,topicA,topicA-496,172.172.1.2:1883,1551657724575,RECEIVED
Subscriber_001,topicA,topicA-497,172.172.1.2:1883,1551657724681,RECEIVED
Subscriber_001,topicA,topicA-498,172.172.1.2:1883,1551657724783,RECEIVED
Subscriber_001,topicA,topicA-499,172.172.1.2:1883,1551657724882,RECEIVED
Subscriber_001,topicA,topicA-500,172.172.1.2:1883,1551657724980,RECEIVED
Subscriber_001,topicA,topicA-501,172.172.1.2:1883,1551657725087,RECEIVED
Subscriber_001,topicA,topicA-502,172.172.1.2:1883,1551657725175,RECEIVED
Subscriber_001,topicA,topicA-503,172.172.1.2:1883,1551657725274,RECEIVED
Subscriber_001,topicA,topicA-504,172.172.1.2:1883,1551657725380,RECEIVED
Subscriber_001,topicA,topicA-505,172.172.1.2:1883,1551657725488,RECEIVED
Subscriber_001,topicA,topicA-506,172.172.1.2:1883,1551657725583,RECEIVED
Subscriber_001,topicA,topicA-507,172.172.1.2:1883,1551657725688,RECEIVED
Subscriber_001,topicA,topicA-508,172.172.1.2:1883,1551657725793,RECEIVED
Subscriber_001,topicA,topicA-509,172.172.1.2:1883,1551657725886,RECEIVED
Subscriber_001,topicA,topicA-510,172.172.1.2:1883,1551657725983,RECEIVED
Subscriber_001,topicA,topicA-511,172.172.1.2:1883,1551657726079,RECEIVED
Subscriber_001,topicA,topicA-512,172.172.1.2:1883,1551657726179,RECEIVED
Subscriber_001,topicA,topicA-513,172.172.1.2:1883,1551657726284,RECEIVED
Subscriber_001,topicA,topicA-514,172.172.1.2:1883,1551657726393,RECEIVED
Subscriber_001,topicA,topicA-515,172.172.1.2:1883,1551657726490,RECEIVED
Subscriber_001,topicA,topicA-516,172.172.1.2:1883,1551657726585,RECEIVED
Subscriber_001,topicA,topicA-517,172.172.1.2:1883,1551657726685,RECEIVED
Subscriber_001,topicA,topicA-518,172.172.1.2:1883,1551657726786,RECEIVED
Subscriber_001,topicA,topicA-519,172.172.1.2:1883,1551657726883,RECEIVED
Subscriber_001,topicA,topicA-520,172.172.1.2:1883,1551657726980,RECEIVED
Subscriber_001,topicA,topicA-521,172.172.1.2:1883,1551657727080,RECEIVED
Subscriber_001,topicA,topicA-522,172.172.1.2:1883,1551657727188,RECEIVED
Subscriber_001,topicA,topicA-523,172.172.1.2:1883,1551657727281,RECEIVED
Subscriber_001,topicA,topicA-524,172.172.1.2:1883,1551657727377,RECEIVED
Subscriber_001,topicA,topicA-525,172.172.1.2:1883,1551657727483,RECEIVED
Subscriber_001,topicA,topicA-526,172.172.1.2:1883,1551657727580,RECEIVED
Subscriber_001,topicA,topicA-527,172.172.1.2:1883,1551657727676,RECEIVED
Subscriber_001,topicA,topicA-528,172.172.1.2:1883,1551657727795,RECEIVED
Subscriber_001,topicA,topicA-529,172.172.1.2:1883,1551657727877,RECEIVED
Subscriber_001,topicA,topicA-530,172.172.1.2:1883,1551657727979,RECEIVED
Subscriber_001,topicA,topicA-531,172.172.1.2:1883,1551657728080,RECEIVED
Subscriber_001,topicA,topicA-532,172.172.1.2:1883,1551657728177,RECEIVED
Subscriber_001,topicA,topicA-533,172.172.1.2:1883,1551657728283,RECEIVED
Subscriber_001,topicA,topicA-534,172.172.1.2:1883,1551657728371,RECEIVED
Subscriber_001,topicA,topicA-535,172.172.1.2:1883,1551657728475,RECEIVED
Subscriber_001,topicA,topicA-536,172.172.1.2:1883,1551657728580,RECEIVED
Subscriber_001,topicA,topicA-537,172.172.1.2:1883,1551657728684,RECEIVED
Subscriber_001,topicA,topicA-538,172.172.1.2:1883,1551657728780,RECEIVED
Subscriber_001,topicA,topicA-539,172.172.1.2:1883,1551657728882,RECEIVED
Subscriber_001,topicA,topicA-540,172.172.1.2:1883,1551657728981,RECEIVED
Subscriber_001,topicA,topicA-541,172.172.1.2:1883,1551657729078,RECEIVED
Subscriber_001,topicA,topicA-542,172.172.1.2:1883,1551657729182,RECEIVED
Subscriber_001,topicA,topicA-543,172.172.1.2:1883,1551657729274,RECEIVED
Subscriber_001,topicA,topicA-544,172.172.1.2:1883,1551657729377,RECEIVED
Subscriber_001,topicA,topicA-545,172.172.1.2:1883,1551657729475,RECEIVED
Subscriber_001,topicA,topicA-546,172.172.1.2:1883,1551657729582,RECEIVED
Subscriber_001,topicA,topicA-547,172.172.1.2:1883,1551657729677,RECEIVED
Subscriber_001,topicA,topicA-548,172.172.1.2:1883,1551657729773,RECEIVED
Subscriber_001,topicA,topicA-549,172.172.1.2:1883,1551657729884,RECEIVED
Subscriber_001,topicA,topicA-550,172.172.1.2:1883,1551657729983,RECEIVED
Subscriber_001,topicA,topicA-551,172.172.1.2:1883,1551657730074,RECEIVED
Subscriber_001,topicA,topicA-552,172.172.1.2:1883,1551657730185,RECEIVED
Subscriber_001,topicA,topicA-553,172.172.1.2:1883,1551657730286,RECEIVED
Subscriber_001,topicA,topicA-554,172.172.1.2:1883,1551657730388,RECEIVED
Subscriber_001,topicA,topicA-555,172.172.1.2:1883,1551657730482,RECEIVED
Subscriber_001,topicA,topicA-556,172.172.1.2:1883,1551657730576,RECEIVED
Subscriber_001,topicA,topicA-557,172.172.1.2:1883,1551657730673,RECEIVED
Subscriber_001,topicA,topicA-558,172.172.1.2:1883,1551657730772,RECEIVED
Subscriber_001,topicA,topicA-559,172.172.1.2:1883,1551657730882,RECEIVED
Subscriber_001,topicA,topicA-560,172.172.1.2:1883,1551657730979,RECEIVED
Subscriber_001,topicA,topicA-561,172.172.1.2:1883,1551657731077,RECEIVED
Subscriber_001,topicA,topicA-562,172.172.1.2:1883,1551657731175,RECEIVED
Subscriber_001,topicA,topicA-563,172.172.1.2:1883,1551657731288,RECEIVED
Subscriber_001,topicA,topicA-564,172.172.1.2:1883,1551657731393,RECEIVED
Subscriber_001,topicA,topicA-565,172.172.1.2:1883,1551657731478,RECEIVED
Subscriber_001,topicA,topicA-566,172.172.1.2:1883,1551657731583,RECEIVED
Subscriber_001,topicA,topicA-567,172.172.1.2:1883,1551657731678,RECEIVED
Subscriber_001,topicA,topicA-568,172.172.1.2:1883,1551657731787,RECEIVED
Subscriber_001,topicA,topicA-569,172.172.1.2:1883,1551657731876,RECEIVED
Subscriber_001,topicA,topicA-570,172.172.1.2:1883,1551657731980,RECEIVED
Subscriber_001,topicA,topicA-571,172.172.1.2:1883,1551657732091,RECEIVED
Subscriber_001,topicA,topicA-572,172.172.1.2:1883,1551657732190,RECEIVED
Subscriber_001,topicA,topicA-573,172.172.1.2:1883,1551657732274,RECEIVED
Subscriber_001,topicA,topicA-574,172.172.1.2:1883,1551657732384,RECEIVED
Subscriber_001,topicA,topicA-575,172.172.1.2:1883,1551657732477,RECEIVED
Subscriber_001,topicA,topicA-576,172.172.1.2:1883,1551657732587,RECEIVED
Subscriber_001,topicA,topicA-577,172.172.1.2:1883,1551657732680,RECEIVED
Subscriber_001,topicA,topicA-578,172.172.1.2:1883,1551657732783,RECEIVED
Subscriber_001,topicA,topicA-579,172.172.1.2:1883,1551657732878,RECEIVED
Subscriber_001,topicA,topicA-580,172.172.1.2:1883,1551657732983,RECEIVED
Subscriber_001,topicA,topicA-581,172.172.1.2:1883,1551657733094,RECEIVED
Subscriber_001,topicA,topicA-582,172.172.1.2:1883,1551657733180,RECEIVED
Subscriber_001,topicA,topicA-583,172.172.1.2:1883,1551657733278,RECEIVED
Subscriber_001,topicA,topicA-584,172.172.1.2:1883,1551657733373,RECEIVED
Subscriber_001,topicA,topicA-585,172.172.1.2:1883,1551657733482,RECEIVED
Subscriber_001,topicA,topicA-586,172.172.1.2:1883,1551657733577,RECEIVED
Subscriber_001,topicA,topicA-587,172.172.1.2:1883,1551657733679,RECEIVED
Subscriber_001,topicA,topicA-588,172.172.1.2:1883,1551657733775,RECEIVED
Subscriber_001,topicA,topicA-589,172.172.1.2:1883,1551657733887,RECEIVED
Subscriber_001,topicA,topicA-590,172.172.1.2:1883,1551657733987,RECEIVED
Subscriber_001,topicA,topicA-591,172.172.1.2:1883,1551657734089,RECEIVED
Subscriber_001,topicA,topicA-592,172.172.1.2:1883,1551657734184,RECEIVED
Subscriber_001,topicA,topicA-593,172.172.1.2:1883,1551657734287,RECEIVED
Subscriber_001,topicA,topicA-594,172.172.1.2:1883,1551657734387,RECEIVED
Subscriber_001,topicA,topicA-595,172.172.1.2:1883,1551657734481,RECEIVED
Subscriber_001,topicA,topicA-596,172.172.1.2:1883,1551657734590,RECEIVED
Subscriber_001,topicA,topicA-597,172.172.1.2:1883,1551657734687,RECEIVED
Subscriber_001,topicA,topicA-598,172.172.1.2:1883,1551657734783,RECEIVED
Subscriber_001,topicA,topicA-599,172.172.1.2:1883,1551657734883,RECEIVED
Subscriber_001,topicA,topicA-600,172.172.1.2:1883,1551657734986,RECEIVED
Subscriber_001,topicA,topicA-601,172.172.1.2:1883,1551657735086,RECEIVED
Subscriber_001,topicA,topicA-602,172.172.1.2:1883,1551657735183,RECEIVED
Subscriber_001,topicA,topicA-603,172.172.1.2:1883,1551657735286,RECEIVED
Subscriber_001,topicA,topicA-604,172.172.1.2:1883,1551657735386,RECEIVED
Subscriber_001,topicA,topicA-605,172.172.1.2:1883,1551657735479,RECEIVED
Subscriber_001,topicA,topicA-606,172.172.1.2:1883,1551657735582,RECEIVED
Subscriber_001,topicA,topicA-607,172.172.1.2:1883,1551657735686,RECEIVED
Subscriber_001,topicA,topicA-608,172.172.1.2:1883,1551657735789,RECEIVED
Subscriber_001,topicA,topicA-609,172.172.1.2:1883,1551657735884,RECEIVED
Subscriber_001,topicA,topicA-610,172.172.1.2:1883,1551657735985,RECEIVED
Subscriber_001,topicA,topicA-611,172.172.1.2:1883,1551657736085,RECEIVED
Subscriber_001,topicA,topicA-612,172.172.1.2:1883,1551657736177,RECEIVED
Subscriber_001,topicA,topicA-613,172.172.1.2:1883,1551657736286,RECEIVED
Subscriber_001,topicA,topicA-614,172.172.1.2:1883,1551657736389,RECEIVED
Subscriber_001,topicA,topicA-615,172.172.1.2:1883,1551657736487,RECEIVED
Subscriber_001,topicA,topicA-616,172.172.1.2:1883,1551657736588,RECEIVED
Subscriber_001,topicA,topicA-617,172.172.1.2:1883,1551657736690,RECEIVED
Subscriber_001,topicA,topicA-618,172.172.1.2:1883,1551657736788,RECEIVED
Subscriber_001,topicA,topicA-619,172.172.1.2:1883,1551657736883,RECEIVED
Subscriber_001,topicA,topicA-620,172.172.1.2:1883,1551657736978,RECEIVED
Subscriber_001,topicA,topicA-621,172.172.1.2:1883,1551657737122,RECEIVED
Subscriber_001,topicA,topicA-622,172.172.1.2:1883,1551657737177,RECEIVED
Subscriber_001,topicA,topicA-623,172.172.1.2:1883,1551657737272,RECEIVED
Subscriber_001,topicA,topicA-624,172.172.1.2:1883,1551657737385,RECEIVED
Subscriber_001,topicA,topicA-625,172.172.1.2:1883,1551657737489,RECEIVED
Subscriber_001,topicA,topicA-626,172.172.1.2:1883,1551657737585,RECEIVED
Subscriber_001,topicA,topicA-627,172.172.1.2:1883,1551657737685,RECEIVED
Subscriber_001,topicA,topicA-628,172.172.1.2:1883,1551657737786,RECEIVED
Subscriber_001,topicA,topicA-629,172.172.1.2:1883,1551657737878,RECEIVED
Subscriber_001,topicA,topicA-630,172.172.1.2:1883,1551657737995,RECEIVED
Subscriber_001,topicA,topicA-631,172.172.1.2:1883,1551657738090,RECEIVED
Subscriber_001,topicA,topicA-632,172.172.1.2:1883,1551657738183,RECEIVED
Subscriber_001,topicA,topicA-633,172.172.1.2:1883,1551657738273,RECEIVED
Subscriber_001,topicA,topicA-634,172.172.1.2:1883,1551657738387,RECEIVED
Subscriber_001,topicA,topicA-635,172.172.1.2:1883,1551657738473,RECEIVED
Subscriber_001,topicA,topicA-636,172.172.1.2:1883,1551657738585,RECEIVED
Subscriber_001,topicA,topicA-637,172.172.1.2:1883,1551657738677,RECEIVED
Subscriber_001,topicA,topicA-638,172.172.1.2:1883,1551657738775,RECEIVED
Subscriber_001,topicA,topicA-639,172.172.1.2:1883,1551657738880,RECEIVED
Subscriber_001,topicA,topicA-640,172.172.1.2:1883,1551657738997,RECEIVED
Subscriber_001,topicA,topicA-641,172.172.1.2:1883,1551657739076,RECEIVED
Subscriber_001,topicA,topicA-642,172.172.1.2:1883,1551657739177,RECEIVED
