clientId,topic,guid,broker,timestamp,type
Publisher_001,topicA,topicA-1,172.172.1.1:1883,1551655552082,PRODUCED
Publisher_001,topicA,topicA-2,172.172.1.1:1883,1551655552327,PRODUCED
Publisher_001,topicA,topicA-3,172.172.1.1:1883,1551655552334,PRODUCED
Publisher_001,topicA,topicA-4,172.172.1.1:1883,1551655552340,PRODUCED
Publisher_001,topicA,topicA-5,172.172.1.1:1883,1551655552347,PRODUCED
Publisher_001,topicA,topicA-6,172.172.1.1:1883,1551655552420,PRODUCED
Publisher_001,topicA,topicA-7,172.172.1.1:1883,1551655552520,PRODUCED
Publisher_001,topicA,topicA-8,172.172.1.1:1883,1551655552620,PRODUCED
Publisher_001,topicA,topicA-9,172.172.1.1:1883,1551655552720,PRODUCED
Publisher_001,topicA,topicA-10,172.172.1.1:1883,1551655552820,PRODUCED
Publisher_001,topicA,topicA-11,172.172.1.1:1883,1551655552921,PRODUCED
Publisher_001,topicA,topicA-12,172.172.1.1:1883,1551655553022,PRODUCED
Publisher_001,topicA,topicA-13,172.172.1.1:1883,1551655553120,PRODUCED
Publisher_001,topicA,topicA-14,172.172.1.1:1883,1551655553220,PRODUCED
Publisher_001,topicA,topicA-15,172.172.1.1:1883,1551655553320,PRODUCED
Publisher_001,topicA,topicA-16,172.172.1.1:1883,1551655553419,PRODUCED
Publisher_001,topicA,topicA-17,172.172.1.1:1883,1551655553520,PRODUCED
Publisher_001,topicA,topicA-18,172.172.1.1:1883,1551655553621,PRODUCED
Publisher_001,topicA,topicA-19,172.172.1.1:1883,1551655553724,PRODUCED
Publisher_001,topicA,topicA-20,172.172.1.1:1883,1551655553819,PRODUCED
Publisher_001,topicA,topicA-21,172.172.1.1:1883,1551655553924,PRODUCED
Publisher_001,topicA,topicA-22,172.172.1.1:1883,1551655554020,PRODUCED
Publisher_001,topicA,topicA-23,172.172.1.1:1883,1551655554119,PRODUCED
Publisher_001,topicA,topicA-24,172.172.1.1:1883,1551655554219,PRODUCED
Publisher_001,topicA,topicA-25,172.172.1.1:1883,1551655554320,PRODUCED
Publisher_001,topicA,topicA-26,172.172.1.1:1883,1551655554419,PRODUCED
Publisher_001,topicA,topicA-27,172.172.1.1:1883,1551655554520,PRODUCED
Publisher_001,topicA,topicA-28,172.172.1.1:1883,1551655554620,PRODUCED
Publisher_001,topicA,topicA-29,172.172.1.1:1883,1551655554719,PRODUCED
Publisher_001,topicA,topicA-30,172.172.1.1:1883,1551655554820,PRODUCED
Publisher_001,topicA,topicA-31,172.172.1.1:1883,1551655554923,PRODUCED
Publisher_001,topicA,topicA-32,172.172.1.1:1883,1551655555020,PRODUCED
Publisher_001,topicA,topicA-33,172.172.1.1:1883,1551655555120,PRODUCED
Publisher_001,topicA,topicA-34,172.172.1.1:1883,1551655555220,PRODUCED
Publisher_001,topicA,topicA-35,172.172.1.1:1883,1551655555321,PRODUCED
Publisher_001,topicA,topicA-36,172.172.1.1:1883,1551655555420,PRODUCED
Publisher_001,topicA,topicA-37,172.172.1.1:1883,1551655555521,PRODUCED
Publisher_001,topicA,topicA-38,172.172.1.1:1883,1551655555621,PRODUCED
Publisher_001,topicA,topicA-39,172.172.1.1:1883,1551655555720,PRODUCED
Publisher_001,topicA,topicA-40,172.172.1.1:1883,1551655555820,PRODUCED
Publisher_001,topicA,topicA-41,172.172.1.1:1883,1551655555920,PRODUCED
Publisher_001,topicA,topicA-42,172.172.1.1:1883,1551655556022,PRODUCED
Publisher_001,topicA,topicA-43,172.172.1.1:1883,1551655556122,PRODUCED
Publisher_001,topicA,topicA-44,172.172.1.1:1883,1551655556220,PRODUCED
Publisher_001,topicA,topicA-45,172.172.1.1:1883,1551655556319,PRODUCED
Publisher_001,topicA,topicA-46,172.172.1.1:1883,1551655556420,PRODUCED
Publisher_001,topicA,topicA-47,172.172.1.1:1883,1551655556519,PRODUCED
Publisher_001,topicA,topicA-48,172.172.1.1:1883,1551655556619,PRODUCED
Publisher_001,topicA,topicA-49,172.172.1.1:1883,1551655556720,PRODUCED
Publisher_001,topicA,topicA-50,172.172.1.1:1883,1551655556820,PRODUCED
Publisher_001,topicA,topicA-51,172.172.1.1:1883,1551655556920,PRODUCED
Publisher_001,topicA,topicA-52,172.172.1.1:1883,1551655557020,PRODUCED
Publisher_001,topicA,topicA-53,172.172.1.1:1883,1551655557120,PRODUCED
Publisher_001,topicA,topicA-54,172.172.1.1:1883,1551655557220,PRODUCED
Publisher_001,topicA,topicA-55,172.172.1.1:1883,1551655557320,PRODUCED
Publisher_001,topicA,topicA-56,172.172.1.1:1883,1551655557422,PRODUCED
Publisher_001,topicA,topicA-57,172.172.1.1:1883,1551655557519,PRODUCED
Publisher_001,topicA,topicA-58,172.172.1.1:1883,1551655557621,PRODUCED
Publisher_001,topicA,topicA-59,172.172.1.1:1883,1551655557721,PRODUCED
Publisher_001,topicA,topicA-60,172.172.1.1:1883,1551655557820,PRODUCED
Publisher_001,topicA,topicA-61,172.172.1.1:1883,1551655557922,PRODUCED
Publisher_001,topicA,topicA-62,172.172.1.1:1883,1551655558023,PRODUCED
Publisher_001,topicA,topicA-63,172.172.1.1:1883,1551655558120,PRODUCED
Publisher_001,topicA,topicA-64,172.172.1.1:1883,1551655558221,PRODUCED
Publisher_001,topicA,topicA-65,172.172.1.1:1883,1551655558323,PRODUCED
Publisher_001,topicA,topicA-66,172.172.1.1:1883,1551655558420,PRODUCED
Publisher_001,topicA,topicA-67,172.172.1.1:1883,1551655558519,PRODUCED
Publisher_001,topicA,topicA-68,172.172.1.1:1883,1551655558619,PRODUCED
Publisher_001,topicA,topicA-69,172.172.1.1:1883,1551655558724,PRODUCED
Publisher_001,topicA,topicA-70,172.172.1.1:1883,1551655558821,PRODUCED
Publisher_001,topicA,topicA-71,172.172.1.1:1883,1551655558921,PRODUCED
Publisher_001,topicA,topicA-72,172.172.1.1:1883,1551655559020,PRODUCED
Publisher_001,topicA,topicA-73,172.172.1.1:1883,1551655559120,PRODUCED
Publisher_001,topicA,topicA-74,172.172.1.1:1883,1551655559220,PRODUCED
Publisher_001,topicA,topicA-75,172.172.1.1:1883,1551655559321,PRODUCED
Publisher_001,topicA,topicA-76,172.172.1.1:1883,1551655559419,PRODUCED
Publisher_001,topicA,topicA-77,172.172.1.1:1883,1551655559522,PRODUCED
Publisher_001,topicA,topicA-78,172.172.1.1:1883,1551655559620,PRODUCED
Publisher_001,topicA,topicA-79,172.172.1.1:1883,1551655559721,PRODUCED
Publisher_001,topicA,topicA-80,172.172.1.1:1883,1551655559821,PRODUCED
Publisher_001,topicA,topicA-81,172.172.1.1:1883,1551655559922,PRODUCED
Publisher_001,topicA,topicA-82,172.172.1.1:1883,1551655560022,PRODUCED
Publisher_001,topicA,topicA-83,172.172.1.1:1883,1551655560120,PRODUCED
Publisher_001,topicA,topicA-84,172.172.1.1:1883,1551655560221,PRODUCED
Publisher_001,topicA,topicA-85,172.172.1.1:1883,1551655560320,PRODUCED
Publisher_001,topicA,topicA-86,172.172.1.1:1883,1551655560421,PRODUCED
Publisher_001,topicA,topicA-87,172.172.1.1:1883,1551655560520,PRODUCED
Publisher_001,topicA,topicA-88,172.172.1.1:1883,1551655560623,PRODUCED
Publisher_001,topicA,topicA-89,172.172.1.1:1883,1551655560721,PRODUCED
Publisher_001,topicA,topicA-90,172.172.1.1:1883,1551655560825,PRODUCED
Publisher_001,topicA,topicA-91,172.172.1.1:1883,1551655560921,PRODUCED
Publisher_001,topicA,topicA-92,172.172.1.1:1883,1551655561022,PRODUCED
Publisher_001,topicA,topicA-93,172.172.1.1:1883,1551655561121,PRODUCED
Publisher_001,topicA,topicA-94,172.172.1.1:1883,1551655561221,PRODUCED
Publisher_001,topicA,topicA-95,172.172.1.1:1883,1551655561320,PRODUCED
Publisher_001,topicA,topicA-96,172.172.1.1:1883,1551655561419,PRODUCED
Publisher_001,topicA,topicA-97,172.172.1.1:1883,1551655561519,PRODUCED
Publisher_001,topicA,topicA-98,172.172.1.1:1883,1551655561619,PRODUCED
Publisher_001,topicA,topicA-99,172.172.1.1:1883,1551655561721,PRODUCED
Publisher_001,topicA,topicA-100,172.172.1.1:1883,1551655561822,PRODUCED
Publisher_001,topicA,topicA-101,172.172.1.1:1883,1551655561921,PRODUCED
Publisher_001,topicA,topicA-102,172.172.1.1:1883,1551655562020,PRODUCED
Publisher_001,topicA,topicA-103,172.172.1.1:1883,1551655562120,PRODUCED
Publisher_001,topicA,topicA-104,172.172.1.1:1883,1551655562219,PRODUCED
Publisher_001,topicA,topicA-105,172.172.1.1:1883,1551655562320,PRODUCED
Publisher_001,topicA,topicA-106,172.172.1.1:1883,1551655562420,PRODUCED
Publisher_001,topicA,topicA-107,172.172.1.1:1883,1551655562521,PRODUCED
Publisher_001,topicA,topicA-108,172.172.1.1:1883,1551655562622,PRODUCED
Publisher_001,topicA,topicA-109,172.172.1.1:1883,1551655562722,PRODUCED
Publisher_001,topicA,topicA-110,172.172.1.1:1883,1551655562820,PRODUCED
Publisher_001,topicA,topicA-111,172.172.1.1:1883,1551655562920,PRODUCED
Publisher_001,topicA,topicA-112,172.172.1.1:1883,1551655563020,PRODUCED
Publisher_001,topicA,topicA-113,172.172.1.1:1883,1551655563121,PRODUCED
Publisher_001,topicA,topicA-114,172.172.1.1:1883,1551655563221,PRODUCED
Publisher_001,topicA,topicA-115,172.172.1.1:1883,1551655563325,PRODUCED
Publisher_001,topicA,topicA-116,172.172.1.1:1883,1551655563421,PRODUCED
Publisher_001,topicA,topicA-117,172.172.1.1:1883,1551655563520,PRODUCED
Publisher_001,topicA,topicA-118,172.172.1.1:1883,1551655563621,PRODUCED
Publisher_001,topicA,topicA-119,172.172.1.1:1883,1551655563721,PRODUCED
Publisher_001,topicA,topicA-120,172.172.1.1:1883,1551655563821,PRODUCED
Publisher_001,topicA,topicA-121,172.172.1.1:1883,1551655563922,PRODUCED
Publisher_001,topicA,topicA-122,172.172.1.1:1883,1551655564020,PRODUCED
Publisher_001,topicA,topicA-123,172.172.1.1:1883,1551655564119,PRODUCED
Publisher_001,topicA,topicA-124,172.172.1.1:1883,1551655564221,PRODUCED
Publisher_001,topicA,topicA-125,172.172.1.1:1883,1551655564323,PRODUCED
Publisher_001,topicA,topicA-126,172.172.1.1:1883,1551655564420,PRODUCED
Publisher_001,topicA,topicA-127,172.172.1.1:1883,1551655564522,PRODUCED
Publisher_001,topicA,topicA-128,172.172.1.1:1883,1551655564621,PRODUCED
Publisher_001,topicA,topicA-129,172.172.1.1:1883,1551655564720,PRODUCED
Publisher_001,topicA,topicA-130,172.172.1.1:1883,1551655564821,PRODUCED
Publisher_001,topicA,topicA-131,172.172.1.1:1883,1551655564921,PRODUCED
Publisher_001,topicA,topicA-132,172.172.1.1:1883,1551655565020,PRODUCED
Publisher_001,topicA,topicA-133,172.172.1.1:1883,1551655565120,PRODUCED
Publisher_001,topicA,topicA-134,172.172.1.1:1883,1551655565222,PRODUCED
Publisher_001,topicA,topicA-135,172.172.1.1:1883,1551655565321,PRODUCED
Publisher_001,topicA,topicA-136,172.172.1.1:1883,1551655565423,PRODUCED
Publisher_001,topicA,topicA-137,172.172.1.1:1883,1551655565521,PRODUCED
Publisher_001,topicA,topicA-138,172.172.1.1:1883,1551655565621,PRODUCED
Publisher_001,topicA,topicA-139,172.172.1.1:1883,1551655565720,PRODUCED
Publisher_001,topicA,topicA-140,172.172.1.1:1883,1551655565823,PRODUCED
Publisher_001,topicA,topicA-141,172.172.1.1:1883,1551655565925,PRODUCED
Publisher_001,topicA,topicA-142,172.172.1.1:1883,1551655566023,PRODUCED
Publisher_001,topicA,topicA-143,172.172.1.1:1883,1551655566120,PRODUCED
Publisher_001,topicA,topicA-144,172.172.1.1:1883,1551655566220,PRODUCED
Publisher_001,topicA,topicA-145,172.172.1.1:1883,1551655566321,PRODUCED
Publisher_001,topicA,topicA-146,172.172.1.1:1883,1551655566421,PRODUCED
Publisher_001,topicA,topicA-147,172.172.1.1:1883,1551655566522,PRODUCED
Publisher_001,topicA,topicA-148,172.172.1.1:1883,1551655566622,PRODUCED
Publisher_001,topicA,topicA-149,172.172.1.1:1883,1551655566719,PRODUCED
Publisher_001,topicA,topicA-150,172.172.1.1:1883,1551655566823,PRODUCED
Publisher_001,topicA,topicA-151,172.172.1.1:1883,1551655566919,PRODUCED
Publisher_001,topicA,topicA-152,172.172.1.1:1883,1551655567019,PRODUCED
Publisher_001,topicA,topicA-153,172.172.1.1:1883,1551655567125,PRODUCED
Publisher_001,topicA,topicA-154,172.172.1.1:1883,1551655567220,PRODUCED
Publisher_001,topicA,topicA-155,172.172.1.1:1883,1551655567321,PRODUCED
Publisher_001,topicA,topicA-156,172.172.1.1:1883,1551655567422,PRODUCED
Publisher_001,topicA,topicA-157,172.172.1.1:1883,1551655567520,PRODUCED
Publisher_001,topicA,topicA-158,172.172.1.1:1883,1551655567623,PRODUCED
Publisher_001,topicA,topicA-159,172.172.1.1:1883,1551655567722,PRODUCED
Publisher_001,topicA,topicA-160,172.172.1.1:1883,1551655567822,PRODUCED
Publisher_001,topicA,topicA-161,172.172.1.1:1883,1551655567920,PRODUCED
Publisher_001,topicA,topicA-162,172.172.1.1:1883,1551655568020,PRODUCED
Publisher_001,topicA,topicA-163,172.172.1.1:1883,1551655568122,PRODUCED
Publisher_001,topicA,topicA-164,172.172.1.1:1883,1551655568225,PRODUCED
Publisher_001,topicA,topicA-165,172.172.1.1:1883,1551655568321,PRODUCED
Publisher_001,topicA,topicA-166,172.172.1.1:1883,1551655568420,PRODUCED
Publisher_001,topicA,topicA-167,172.172.1.1:1883,1551655568520,PRODUCED
Publisher_001,topicA,topicA-168,172.172.1.1:1883,1551655568620,PRODUCED
Publisher_001,topicA,topicA-169,172.172.1.1:1883,1551655568721,PRODUCED
Publisher_001,topicA,topicA-170,172.172.1.1:1883,1551655568822,PRODUCED
Publisher_001,topicA,topicA-171,172.172.1.1:1883,1551655568921,PRODUCED
Publisher_001,topicA,topicA-172,172.172.1.1:1883,1551655569020,PRODUCED
Publisher_001,topicA,topicA-173,172.172.1.1:1883,1551655569127,PRODUCED
Publisher_001,topicA,topicA-174,172.172.1.1:1883,1551655569221,PRODUCED
Publisher_001,topicA,topicA-175,172.172.1.1:1883,1551655569321,PRODUCED
Publisher_001,topicA,topicA-176,172.172.1.1:1883,1551655569423,PRODUCED
Publisher_001,topicA,topicA-177,172.172.1.1:1883,1551655569520,PRODUCED
Publisher_001,topicA,topicA-178,172.172.1.1:1883,1551655569620,PRODUCED
Publisher_001,topicA,topicA-179,172.172.1.1:1883,1551655569720,PRODUCED
Publisher_001,topicA,topicA-180,172.172.1.1:1883,1551655569820,PRODUCED
Publisher_001,topicA,topicA-181,172.172.1.1:1883,1551655569922,PRODUCED
Publisher_001,topicA,topicA-182,172.172.1.1:1883,1551655570027,PRODUCED
Publisher_001,topicA,topicA-183,172.172.1.1:1883,1551655570121,PRODUCED
Publisher_001,topicA,topicA-184,172.172.1.1:1883,1551655570220,PRODUCED
Publisher_001,topicA,topicA-185,172.172.1.1:1883,1551655570322,PRODUCED
Publisher_001,topicA,topicA-186,172.172.1.1:1883,1551655570420,PRODUCED
Publisher_001,topicA,topicA-187,172.172.1.1:1883,1551655570520,PRODUCED
Publisher_001,topicA,topicA-188,172.172.1.1:1883,1551655570621,PRODUCED
Publisher_001,topicA,topicA-189,172.172.1.1:1883,1551655570722,PRODUCED
Publisher_001,topicA,topicA-190,172.172.1.1:1883,1551655570820,PRODUCED
Publisher_001,topicA,topicA-191,172.172.1.1:1883,1551655570920,PRODUCED
Publisher_001,topicA,topicA-192,172.172.1.1:1883,1551655571022,PRODUCED
Publisher_001,topicA,topicA-193,172.172.1.1:1883,1551655571120,PRODUCED
Publisher_001,topicA,topicA-194,172.172.1.1:1883,1551655571223,PRODUCED
Publisher_001,topicA,topicA-195,172.172.1.1:1883,1551655571321,PRODUCED
Publisher_001,topicA,topicA-196,172.172.1.1:1883,1551655571419,PRODUCED
Publisher_001,topicA,topicA-197,172.172.1.1:1883,1551655571519,PRODUCED
Publisher_001,topicA,topicA-198,172.172.1.1:1883,1551655571626,PRODUCED
Publisher_001,topicA,topicA-199,172.172.1.1:1883,1551655571720,PRODUCED
Publisher_001,topicA,topicA-200,172.172.1.1:1883,1551655571824,PRODUCED
Publisher_001,topicA,topicA-201,172.172.1.1:1883,1551655571920,PRODUCED
Publisher_001,topicA,topicA-202,172.172.1.1:1883,1551655572019,PRODUCED
Publisher_001,topicA,topicA-203,172.172.1.1:1883,1551655572120,PRODUCED
Publisher_001,topicA,topicA-204,172.172.1.1:1883,1551655572220,PRODUCED
Publisher_001,topicA,topicA-205,172.172.1.1:1883,1551655572320,PRODUCED
Publisher_001,topicA,topicA-206,172.172.1.1:1883,1551655572421,PRODUCED
Publisher_001,topicA,topicA-207,172.172.1.1:1883,1551655572523,PRODUCED
Publisher_001,topicA,topicA-208,172.172.1.1:1883,1551655572622,PRODUCED
Publisher_001,topicA,topicA-209,172.172.1.1:1883,1551655572720,PRODUCED
Publisher_001,topicA,topicA-210,172.172.1.1:1883,1551655572820,PRODUCED
Publisher_001,topicA,topicA-211,172.172.1.1:1883,1551655572919,PRODUCED
Publisher_001,topicA,topicA-212,172.172.1.1:1883,1551655573021,PRODUCED
Publisher_001,topicA,topicA-213,172.172.1.1:1883,1551655573119,PRODUCED
Publisher_001,topicA,topicA-214,172.172.1.1:1883,1551655573223,PRODUCED
Publisher_001,topicA,topicA-215,172.172.1.1:1883,1551655573321,PRODUCED
Publisher_001,topicA,topicA-216,172.172.1.1:1883,1551655573423,PRODUCED
Publisher_001,topicA,topicA-217,172.172.1.1:1883,1551655573524,PRODUCED
Publisher_001,topicA,topicA-218,172.172.1.1:1883,1551655573622,PRODUCED
Publisher_001,topicA,topicA-219,172.172.1.1:1883,1551655573721,PRODUCED
Publisher_001,topicA,topicA-220,172.172.1.1:1883,1551655573820,PRODUCED
Publisher_001,topicA,topicA-221,172.172.1.1:1883,1551655573920,PRODUCED
Publisher_001,topicA,topicA-222,172.172.1.1:1883,1551655574020,PRODUCED
Publisher_001,topicA,topicA-223,172.172.1.1:1883,1551655574119,PRODUCED
Publisher_001,topicA,topicA-224,172.172.1.1:1883,1551655574233,PRODUCED
Publisher_001,topicA,topicA-225,172.172.1.1:1883,1551655574319,PRODUCED
Publisher_001,topicA,topicA-226,172.172.1.1:1883,1551655574422,PRODUCED
Publisher_001,topicA,topicA-227,172.172.1.1:1883,1551655574520,PRODUCED
Publisher_001,topicA,topicA-228,172.172.1.1:1883,1551655574619,PRODUCED
Publisher_001,topicA,topicA-229,172.172.1.1:1883,1551655574721,PRODUCED
Publisher_001,topicA,topicA-230,172.172.1.1:1883,1551655574821,PRODUCED
Publisher_001,topicA,topicA-231,172.172.1.1:1883,1551655574922,PRODUCED
Publisher_001,topicA,topicA-232,172.172.1.1:1883,1551655575019,PRODUCED
Publisher_001,topicA,topicA-233,172.172.1.1:1883,1551655575122,PRODUCED
Publisher_001,topicA,topicA-234,172.172.1.1:1883,1551655575220,PRODUCED
Publisher_001,topicA,topicA-235,172.172.1.1:1883,1551655575320,PRODUCED
Publisher_001,topicA,topicA-236,172.172.1.1:1883,1551655575420,PRODUCED
Publisher_001,topicA,topicA-237,172.172.1.1:1883,1551655575524,PRODUCED
Publisher_001,topicA,topicA-238,172.172.1.1:1883,1551655575622,PRODUCED
Publisher_001,topicA,topicA-239,172.172.1.1:1883,1551655575720,PRODUCED
Publisher_001,topicA,topicA-240,172.172.1.1:1883,1551655575823,PRODUCED
Publisher_001,topicA,topicA-241,172.172.1.1:1883,1551655575924,PRODUCED
Publisher_001,topicA,topicA-242,172.172.1.1:1883,1551655576019,PRODUCED
Publisher_001,topicA,topicA-243,172.172.1.1:1883,1551655576119,PRODUCED
Publisher_001,topicA,topicA-244,172.172.1.1:1883,1551655576221,PRODUCED
Publisher_001,topicA,topicA-245,172.172.1.1:1883,1551655576320,PRODUCED
Publisher_001,topicA,topicA-246,172.172.1.1:1883,1551655576421,PRODUCED
Publisher_001,topicA,topicA-247,172.172.1.1:1883,1551655576521,PRODUCED
Publisher_001,topicA,topicA-248,172.172.1.1:1883,1551655576620,PRODUCED
Publisher_001,topicA,topicA-249,172.172.1.1:1883,1551655576720,PRODUCED
Publisher_001,topicA,topicA-250,172.172.1.1:1883,1551655576819,PRODUCED
Publisher_001,topicA,topicA-251,172.172.1.1:1883,1551655576920,PRODUCED
Publisher_001,topicA,topicA-252,172.172.1.1:1883,1551655577019,PRODUCED
Publisher_001,topicA,topicA-253,172.172.1.1:1883,1551655577120,PRODUCED
Publisher_001,topicA,topicA-254,172.172.1.1:1883,1551655577220,PRODUCED
Publisher_001,topicA,topicA-255,172.172.1.1:1883,1551655577320,PRODUCED
Publisher_001,topicA,topicA-256,172.172.1.1:1883,1551655577420,PRODUCED
Publisher_001,topicA,topicA-257,172.172.1.1:1883,1551655577524,PRODUCED
Publisher_001,topicA,topicA-258,172.172.1.1:1883,1551655577619,PRODUCED
Publisher_001,topicA,topicA-259,172.172.1.1:1883,1551655577720,PRODUCED
Publisher_001,topicA,topicA-260,172.172.1.1:1883,1551655577820,PRODUCED
Publisher_001,topicA,topicA-261,172.172.1.1:1883,1551655577920,PRODUCED
Publisher_001,topicA,topicA-262,172.172.1.1:1883,1551655578021,PRODUCED
Publisher_001,topicA,topicA-263,172.172.1.1:1883,1551655578121,PRODUCED
Publisher_001,topicA,topicA-264,172.172.1.1:1883,1551655578221,PRODUCED
Publisher_001,topicA,topicA-265,172.172.1.1:1883,1551655578319,PRODUCED
Publisher_001,topicA,topicA-266,172.172.1.1:1883,1551655578420,PRODUCED
Publisher_001,topicA,topicA-267,172.172.1.1:1883,1551655578521,PRODUCED
Publisher_001,topicA,topicA-268,172.172.1.1:1883,1551655578619,PRODUCED
Publisher_001,topicA,topicA-269,172.172.1.1:1883,1551655578720,PRODUCED
Publisher_001,topicA,topicA-270,172.172.1.1:1883,1551655578820,PRODUCED
Publisher_001,topicA,topicA-271,172.172.1.1:1883,1551655578921,PRODUCED
Publisher_001,topicA,topicA-272,172.172.1.1:1883,1551655579019,PRODUCED
Publisher_001,topicA,topicA-273,172.172.1.1:1883,1551655579120,PRODUCED
Publisher_001,topicA,topicA-274,172.172.1.1:1883,1551655579219,PRODUCED
Publisher_001,topicA,topicA-275,172.172.1.1:1883,1551655579319,PRODUCED
Publisher_001,topicA,topicA-276,172.172.1.1:1883,1551655579422,PRODUCED
Publisher_001,topicA,topicA-277,172.172.1.1:1883,1551655579523,PRODUCED
Publisher_001,topicA,topicA-278,172.172.1.1:1883,1551655579622,PRODUCED
Publisher_001,topicA,topicA-279,172.172.1.1:1883,1551655579721,PRODUCED
Publisher_001,topicA,topicA-280,172.172.1.1:1883,1551655579820,PRODUCED
Publisher_001,topicA,topicA-281,172.172.1.1:1883,1551655579923,PRODUCED
Publisher_001,topicA,topicA-282,172.172.1.1:1883,1551655580021,PRODUCED
Publisher_001,topicA,topicA-283,172.172.1.1:1883,1551655580122,PRODUCED
Publisher_001,topicA,topicA-284,172.172.1.1:1883,1551655580220,PRODUCED
Publisher_001,topicA,topicA-285,172.172.1.1:1883,1551655580320,PRODUCED
Publisher_001,topicA,topicA-286,172.172.1.1:1883,1551655580423,PRODUCED
Publisher_001,topicA,topicA-287,172.172.1.1:1883,1551655580521,PRODUCED
Publisher_001,topicA,topicA-288,172.172.1.1:1883,1551655580623,PRODUCED
Publisher_001,topicA,topicA-289,172.172.1.1:1883,1551655580720,PRODUCED
Publisher_001,topicA,topicA-290,172.172.1.1:1883,1551655580833,PRODUCED
Publisher_001,topicA,topicA-291,172.172.1.1:1883,1551655580920,PRODUCED
Publisher_001,topicA,topicA-292,172.172.1.1:1883,1551655581020,PRODUCED
Publisher_001,topicA,topicA-293,172.172.1.1:1883,1551655581119,PRODUCED
Publisher_001,topicA,topicA-294,172.172.1.1:1883,1551655581222,PRODUCED
Publisher_001,topicA,topicA-295,172.172.1.1:1883,1551655581325,PRODUCED
Publisher_001,topicA,topicA-296,172.172.1.1:1883,1551655581421,PRODUCED
Publisher_001,topicA,topicA-297,172.172.1.1:1883,1551655581522,PRODUCED
Publisher_001,topicA,topicA-298,172.172.1.1:1883,1551655581621,PRODUCED
Publisher_001,topicA,topicA-299,172.172.1.1:1883,1551655581719,PRODUCED
Publisher_001,topicA,topicA-300,172.172.1.1:1883,1551655581820,PRODUCED
Publisher_001,topicA,topicA-301,172.172.1.1:1883,1551655581919,PRODUCED
Publisher_001,topicA,topicA-302,172.172.1.1:1883,1551655582020,PRODUCED
Publisher_001,topicA,topicA-303,172.172.1.1:1883,1551655582121,PRODUCED
Publisher_001,topicA,topicA-304,172.172.1.1:1883,1551655582219,PRODUCED
Publisher_001,topicA,topicA-305,172.172.1.1:1883,1551655582321,PRODUCED
Publisher_001,topicA,topicA-306,172.172.1.1:1883,1551655582420,PRODUCED
Publisher_001,topicA,topicA-307,172.172.1.1:1883,1551655582521,PRODUCED
Publisher_001,topicA,topicA-308,172.172.1.1:1883,1551655582621,PRODUCED
Publisher_001,topicA,topicA-309,172.172.1.1:1883,1551655582720,PRODUCED
Publisher_001,topicA,topicA-310,172.172.1.1:1883,1551655582820,PRODUCED
Publisher_001,topicA,topicA-311,172.172.1.1:1883,1551655582923,PRODUCED
Publisher_001,topicA,topicA-312,172.172.1.1:1883,1551655583020,PRODUCED
Publisher_001,topicA,topicA-313,172.172.1.1:1883,1551655583121,PRODUCED
Publisher_001,topicA,topicA-314,172.172.1.1:1883,1551655583222,PRODUCED
Publisher_001,topicA,topicA-315,172.172.1.1:1883,1551655583320,PRODUCED
Publisher_001,topicA,topicA-316,172.172.1.1:1883,1551655583423,PRODUCED
Publisher_001,topicA,topicA-317,172.172.1.1:1883,1551655583520,PRODUCED
Publisher_001,topicA,topicA-318,172.172.1.1:1883,1551655583627,PRODUCED
Publisher_001,topicA,topicA-319,172.172.1.1:1883,1551655583720,PRODUCED
Publisher_001,topicA,topicA-320,172.172.1.1:1883,1551655583822,PRODUCED
Publisher_001,topicA,topicA-321,172.172.1.1:1883,1551655583920,PRODUCED
Publisher_001,topicA,topicA-322,172.172.1.1:1883,1551655584021,PRODUCED
Publisher_001,topicA,topicA-323,172.172.1.1:1883,1551655584119,PRODUCED
Publisher_001,topicA,topicA-324,172.172.1.1:1883,1551655584219,PRODUCED
Publisher_001,topicA,topicA-325,172.172.1.1:1883,1551655584321,PRODUCED
Publisher_001,topicA,topicA-326,172.172.1.1:1883,1551655584420,PRODUCED
Publisher_001,topicA,topicA-327,172.172.1.1:1883,1551655584521,PRODUCED
Publisher_001,topicA,topicA-328,172.172.1.1:1883,1551655584620,PRODUCED
Publisher_001,topicA,topicA-329,172.172.1.1:1883,1551655584721,PRODUCED
Publisher_001,topicA,topicA-330,172.172.1.1:1883,1551655584820,PRODUCED
Publisher_001,topicA,topicA-331,172.172.1.1:1883,1551655584919,PRODUCED
Publisher_001,topicA,topicA-332,172.172.1.1:1883,1551655585019,PRODUCED
Publisher_001,topicA,topicA-333,172.172.1.1:1883,1551655585121,PRODUCED
Publisher_001,topicA,topicA-334,172.172.1.1:1883,1551655585220,PRODUCED
Publisher_001,topicA,topicA-335,172.172.1.1:1883,1551655585321,PRODUCED
Publisher_001,topicA,topicA-336,172.172.1.1:1883,1551655585422,PRODUCED
Publisher_001,topicA,topicA-337,172.172.1.1:1883,1551655585520,PRODUCED
Publisher_001,topicA,topicA-338,172.172.1.1:1883,1551655585621,PRODUCED
Publisher_001,topicA,topicA-339,172.172.1.1:1883,1551655585720,PRODUCED
Publisher_001,topicA,topicA-340,172.172.1.1:1883,1551655585820,PRODUCED
Publisher_001,topicA,topicA-341,172.172.1.1:1883,1551655585922,PRODUCED
Publisher_001,topicA,topicA-342,172.172.1.1:1883,1551655586021,PRODUCED
Publisher_001,topicA,topicA-343,172.172.1.1:1883,1551655586121,PRODUCED
Publisher_001,topicA,topicA-344,172.172.1.1:1883,1551655586220,PRODUCED
Publisher_001,topicA,topicA-345,172.172.1.1:1883,1551655586320,PRODUCED
Publisher_001,topicA,topicA-346,172.172.1.1:1883,1551655586420,PRODUCED
Publisher_001,topicA,topicA-347,172.172.1.1:1883,1551655586520,PRODUCED
Publisher_001,topicA,topicA-348,172.172.1.1:1883,1551655586620,PRODUCED
Publisher_001,topicA,topicA-349,172.172.1.1:1883,1551655586720,PRODUCED
Publisher_001,topicA,topicA-350,172.172.1.1:1883,1551655586820,PRODUCED
Publisher_001,topicA,topicA-351,172.172.1.1:1883,1551655586920,PRODUCED
Publisher_001,topicA,topicA-352,172.172.1.1:1883,1551655587020,PRODUCED
Publisher_001,topicA,topicA-353,172.172.1.1:1883,1551655587123,PRODUCED
Publisher_001,topicA,topicA-354,172.172.1.1:1883,1551655587220,PRODUCED
Publisher_001,topicA,topicA-355,172.172.1.1:1883,1551655587320,PRODUCED
Publisher_001,topicA,topicA-356,172.172.1.1:1883,1551655587420,PRODUCED
Publisher_001,topicA,topicA-357,172.172.1.1:1883,1551655587519,PRODUCED
Publisher_001,topicA,topicA-358,172.172.1.1:1883,1551655587622,PRODUCED
Publisher_001,topicA,topicA-359,172.172.1.1:1883,1551655587719,PRODUCED
Publisher_001,topicA,topicA-360,172.172.1.1:1883,1551655587823,PRODUCED
Publisher_001,topicA,topicA-361,172.172.1.1:1883,1551655587920,PRODUCED
Publisher_001,topicA,topicA-362,172.172.1.1:1883,1551655588020,PRODUCED
Publisher_001,topicA,topicA-363,172.172.1.1:1883,1551655588120,PRODUCED
Publisher_001,topicA,topicA-364,172.172.1.1:1883,1551655588220,PRODUCED
Publisher_001,topicA,topicA-365,172.172.1.1:1883,1551655588319,PRODUCED
Publisher_001,topicA,topicA-366,172.172.1.1:1883,1551655588420,PRODUCED
Publisher_001,topicA,topicA-367,172.172.1.1:1883,1551655588523,PRODUCED
Publisher_001,topicA,topicA-368,172.172.1.1:1883,1551655588625,PRODUCED
Publisher_001,topicA,topicA-369,172.172.1.1:1883,1551655588719,PRODUCED
Publisher_001,topicA,topicA-370,172.172.1.1:1883,1551655588821,PRODUCED
Publisher_001,topicA,topicA-371,172.172.1.1:1883,1551655588923,PRODUCED
Publisher_001,topicA,topicA-372,172.172.1.1:1883,1551655589021,PRODUCED
Publisher_001,topicA,topicA-373,172.172.1.1:1883,1551655589120,PRODUCED
Publisher_001,topicA,topicA-374,172.172.1.1:1883,1551655589221,PRODUCED
Publisher_001,topicA,topicA-375,172.172.1.1:1883,1551655589324,PRODUCED
Publisher_001,topicA,topicA-376,172.172.1.1:1883,1551655589423,PRODUCED
Publisher_001,topicA,topicA-377,172.172.1.1:1883,1551655589521,PRODUCED
Publisher_001,topicA,topicA-378,172.172.1.1:1883,1551655589620,PRODUCED
Publisher_001,topicA,topicA-379,172.172.1.1:1883,1551655589720,PRODUCED
Publisher_001,topicA,topicA-380,172.172.1.1:1883,1551655589821,PRODUCED
Publisher_001,topicA,topicA-381,172.172.1.1:1883,1551655589920,PRODUCED
Publisher_001,topicA,topicA-382,172.172.1.1:1883,1551655590025,PRODUCED
Publisher_001,topicA,topicA-383,172.172.1.1:1883,1551655590120,PRODUCED
Publisher_001,topicA,topicA-384,172.172.1.1:1883,1551655590220,PRODUCED
Publisher_001,topicA,topicA-385,172.172.1.1:1883,1551655590320,PRODUCED
Publisher_001,topicA,topicA-386,172.172.1.1:1883,1551655590419,PRODUCED
Publisher_001,topicA,topicA-387,172.172.1.1:1883,1551655590522,PRODUCED
Publisher_001,topicA,topicA-388,172.172.1.1:1883,1551655590619,PRODUCED
Publisher_001,topicA,topicA-389,172.172.1.1:1883,1551655590720,PRODUCED
Publisher_001,topicA,topicA-390,172.172.1.1:1883,1551655590819,PRODUCED
Publisher_001,topicA,topicA-391,172.172.1.1:1883,1551655590920,PRODUCED
Publisher_001,topicA,topicA-392,172.172.1.1:1883,1551655591019,PRODUCED
Publisher_001,topicA,topicA-393,172.172.1.1:1883,1551655591121,PRODUCED
Publisher_001,topicA,topicA-394,172.172.1.1:1883,1551655591220,PRODUCED
Publisher_001,topicA,topicA-395,172.172.1.1:1883,1551655591319,PRODUCED
Publisher_001,topicA,topicA-396,172.172.1.1:1883,1551655591419,PRODUCED
Publisher_001,topicA,topicA-397,172.172.1.1:1883,1551655591519,PRODUCED
Publisher_001,topicA,topicA-398,172.172.1.1:1883,1551655591620,PRODUCED
Publisher_001,topicA,topicA-399,172.172.1.1:1883,1551655591722,PRODUCED
Publisher_001,topicA,topicA-400,172.172.1.1:1883,1551655591820,PRODUCED
Publisher_001,topicA,topicA-401,172.172.1.1:1883,1551655591920,PRODUCED
Publisher_001,topicA,topicA-402,172.172.1.1:1883,1551655592021,PRODUCED
Publisher_001,topicA,topicA-403,172.172.1.1:1883,1551655592122,PRODUCED
Publisher_001,topicA,topicA-404,172.172.1.1:1883,1551655592220,PRODUCED
Publisher_001,topicA,topicA-405,172.172.1.1:1883,1551655592320,PRODUCED
Publisher_001,topicA,topicA-406,172.172.1.1:1883,1551655592423,PRODUCED
Publisher_001,topicA,topicA-407,172.172.1.1:1883,1551655592520,PRODUCED
Publisher_001,topicA,topicA-408,172.172.1.1:1883,1551655592620,PRODUCED
Publisher_001,topicA,topicA-409,172.172.1.1:1883,1551655592721,PRODUCED
Publisher_001,topicA,topicA-410,172.172.1.1:1883,1551655592821,PRODUCED
Publisher_001,topicA,topicA-411,172.172.1.1:1883,1551655592919,PRODUCED
Publisher_001,topicA,topicA-412,172.172.1.1:1883,1551655593020,PRODUCED
Publisher_001,topicA,topicA-413,172.172.1.1:1883,1551655593119,PRODUCED
Publisher_001,topicA,topicA-414,172.172.1.1:1883,1551655593220,PRODUCED
Publisher_001,topicA,topicA-415,172.172.1.1:1883,1551655593320,PRODUCED
Publisher_001,topicA,topicA-416,172.172.1.1:1883,1551655593420,PRODUCED
Publisher_001,topicA,topicA-417,172.172.1.1:1883,1551655593521,PRODUCED
Publisher_001,topicA,topicA-418,172.172.1.1:1883,1551655593621,PRODUCED
Publisher_001,topicA,topicA-419,172.172.1.1:1883,1551655593719,PRODUCED
Publisher_001,topicA,topicA-420,172.172.1.1:1883,1551655593819,PRODUCED
Publisher_001,topicA,topicA-421,172.172.1.1:1883,1551655593920,PRODUCED
Publisher_001,topicA,topicA-422,172.172.1.1:1883,1551655594021,PRODUCED
Publisher_001,topicA,topicA-423,172.172.1.1:1883,1551655594120,PRODUCED
Publisher_001,topicA,topicA-424,172.172.1.1:1883,1551655594220,PRODUCED
Publisher_001,topicA,topicA-425,172.172.1.1:1883,1551655594321,PRODUCED
Publisher_001,topicA,topicA-426,172.172.1.1:1883,1551655594420,PRODUCED
Publisher_001,topicA,topicA-427,172.172.1.1:1883,1551655594519,PRODUCED
Publisher_001,topicA,topicA-428,172.172.1.1:1883,1551655594620,PRODUCED
Publisher_001,topicA,topicA-429,172.172.1.1:1883,1551655594719,PRODUCED
Publisher_001,topicA,topicA-430,172.172.1.1:1883,1551655594822,PRODUCED
Publisher_001,topicA,topicA-431,172.172.1.1:1883,1551655594921,PRODUCED
Publisher_001,topicA,topicA-432,172.172.1.1:1883,1551655595021,PRODUCED
Publisher_001,topicA,topicA-433,172.172.1.1:1883,1551655595121,PRODUCED
Publisher_001,topicA,topicA-434,172.172.1.1:1883,1551655595221,PRODUCED
Publisher_001,topicA,topicA-435,172.172.1.1:1883,1551655595320,PRODUCED
Publisher_001,topicA,topicA-436,172.172.1.1:1883,1551655595419,PRODUCED
Publisher_001,topicA,topicA-437,172.172.1.1:1883,1551655595521,PRODUCED
Publisher_001,topicA,topicA-438,172.172.1.1:1883,1551655595620,PRODUCED
Publisher_001,topicA,topicA-439,172.172.1.1:1883,1551655595719,PRODUCED
Publisher_001,topicA,topicA-440,172.172.1.1:1883,1551655595820,PRODUCED
Publisher_001,topicA,topicA-441,172.172.1.1:1883,1551655595921,PRODUCED
Publisher_001,topicA,topicA-442,172.172.1.1:1883,1551655596021,PRODUCED
Publisher_001,topicA,topicA-443,172.172.1.1:1883,1551655596119,PRODUCED
Publisher_001,topicA,topicA-444,172.172.1.1:1883,1551655596220,PRODUCED
Publisher_001,topicA,topicA-445,172.172.1.1:1883,1551655596320,PRODUCED
Publisher_001,topicA,topicA-446,172.172.1.1:1883,1551655596420,PRODUCED
Publisher_001,topicA,topicA-447,172.172.1.1:1883,1551655596521,PRODUCED
Publisher_001,topicA,topicA-448,172.172.1.1:1883,1551655596623,PRODUCED
Publisher_001,topicA,topicA-449,172.172.1.1:1883,1551655596719,PRODUCED
Publisher_001,topicA,topicA-450,172.172.1.1:1883,1551655596820,PRODUCED
Publisher_001,topicA,topicA-451,172.172.1.1:1883,1551655596920,PRODUCED
Publisher_001,topicA,topicA-452,172.172.1.1:1883,1551655597020,PRODUCED
Publisher_001,topicA,topicA-453,172.172.1.1:1883,1551655597121,PRODUCED
Publisher_001,topicA,topicA-454,172.172.1.1:1883,1551655597225,PRODUCED
Publisher_001,topicA,topicA-455,172.172.1.1:1883,1551655597324,PRODUCED
Publisher_001,topicA,topicA-456,172.172.1.1:1883,1551655597420,PRODUCED
Publisher_001,topicA,topicA-457,172.172.1.1:1883,1551655597522,PRODUCED
Publisher_001,topicA,topicA-458,172.172.1.1:1883,1551655597624,PRODUCED
Publisher_001,topicA,topicA-459,172.172.1.1:1883,1551655597722,PRODUCED
Publisher_001,topicA,topicA-460,172.172.1.1:1883,1551655597820,PRODUCED
Publisher_001,topicA,topicA-461,172.172.1.1:1883,1551655597920,PRODUCED
Publisher_001,topicA,topicA-462,172.172.1.1:1883,1551655598019,PRODUCED
Publisher_001,topicA,topicA-463,172.172.1.1:1883,1551655598122,PRODUCED
Publisher_001,topicA,topicA-464,172.172.1.1:1883,1551655598219,PRODUCED
Publisher_001,topicA,topicA-465,172.172.1.1:1883,1551655598319,PRODUCED
Publisher_001,topicA,topicA-466,172.172.1.1:1883,1551655598423,PRODUCED
Publisher_001,topicA,topicA-467,172.172.1.1:1883,1551655598521,PRODUCED
Publisher_001,topicA,topicA-468,172.172.1.1:1883,1551655598620,PRODUCED
Publisher_001,topicA,topicA-469,172.172.1.1:1883,1551655598721,PRODUCED
Publisher_001,topicA,topicA-470,172.172.1.1:1883,1551655598820,PRODUCED
Publisher_001,topicA,topicA-471,172.172.1.1:1883,1551655598921,PRODUCED
Publisher_001,topicA,topicA-472,172.172.1.1:1883,1551655599023,PRODUCED
Publisher_001,topicA,topicA-473,172.172.1.1:1883,1551655599120,PRODUCED
Publisher_001,topicA,topicA-474,172.172.1.1:1883,1551655599221,PRODUCED
Publisher_001,topicA,topicA-475,172.172.1.1:1883,1551655599321,PRODUCED
Publisher_001,topicA,topicA-476,172.172.1.1:1883,1551655599423,PRODUCED
Publisher_001,topicA,topicA-477,172.172.1.1:1883,1551655599519,PRODUCED
Publisher_001,topicA,topicA-478,172.172.1.1:1883,1551655599620,PRODUCED
Publisher_001,topicA,topicA-479,172.172.1.1:1883,1551655599721,PRODUCED
Publisher_001,topicA,topicA-480,172.172.1.1:1883,1551655599820,PRODUCED
Publisher_001,topicA,topicA-481,172.172.1.1:1883,1551655599922,PRODUCED
Publisher_001,topicA,topicA-482,172.172.1.1:1883,1551655600022,PRODUCED
Publisher_001,topicA,topicA-483,172.172.1.1:1883,1551655600120,PRODUCED
Publisher_001,topicA,topicA-484,172.172.1.1:1883,1551655600220,PRODUCED
Publisher_001,topicA,topicA-485,172.172.1.1:1883,1551655600319,PRODUCED
Publisher_001,topicA,topicA-486,172.172.1.1:1883,1551655600422,PRODUCED
Publisher_001,topicA,topicA-487,172.172.1.1:1883,1551655600521,PRODUCED
Publisher_001,topicA,topicA-488,172.172.1.1:1883,1551655600624,PRODUCED
Publisher_001,topicA,topicA-489,172.172.1.1:1883,1551655600721,PRODUCED
Publisher_001,topicA,topicA-490,172.172.1.1:1883,1551655600819,PRODUCED
Publisher_001,topicA,topicA-491,172.172.1.1:1883,1551655600919,PRODUCED
Publisher_001,topicA,topicA-492,172.172.1.1:1883,1551655601020,PRODUCED
Publisher_001,topicA,topicA-493,172.172.1.1:1883,1551655601123,PRODUCED
Publisher_001,topicA,topicA-494,172.172.1.1:1883,1551655601220,PRODUCED
Publisher_001,topicA,topicA-495,172.172.1.1:1883,1551655601320,PRODUCED
Publisher_001,topicA,topicA-496,172.172.1.1:1883,1551655601419,PRODUCED
Publisher_001,topicA,topicA-497,172.172.1.1:1883,1551655601519,PRODUCED
Publisher_001,topicA,topicA-498,172.172.1.1:1883,1551655601621,PRODUCED
Publisher_001,topicA,topicA-499,172.172.1.1:1883,1551655601720,PRODUCED
Publisher_001,topicA,topicA-500,172.172.1.1:1883,1551655601820,PRODUCED
Publisher_001,topicA,topicA-501,172.172.1.1:1883,1551655601921,PRODUCED
Publisher_001,topicA,topicA-502,172.172.1.1:1883,1551655602019,PRODUCED
Publisher_001,topicA,topicA-503,172.172.1.1:1883,1551655602121,PRODUCED
Publisher_001,topicA,topicA-504,172.172.1.1:1883,1551655602219,PRODUCED
Publisher_001,topicA,topicA-505,172.172.1.1:1883,1551655602320,PRODUCED
Publisher_001,topicA,topicA-506,172.172.1.1:1883,1551655602419,PRODUCED
Publisher_001,topicA,topicA-507,172.172.1.1:1883,1551655602519,PRODUCED
Publisher_001,topicA,topicA-508,172.172.1.1:1883,1551655602620,PRODUCED
Publisher_001,topicA,topicA-509,172.172.1.1:1883,1551655602719,PRODUCED
Publisher_001,topicA,topicA-510,172.172.1.1:1883,1551655602823,PRODUCED
Publisher_001,topicA,topicA-511,172.172.1.1:1883,1551655602920,PRODUCED
Publisher_001,topicA,topicA-512,172.172.1.1:1883,1551655603019,PRODUCED
Publisher_001,topicA,topicA-513,172.172.1.1:1883,1551655603121,PRODUCED
Publisher_001,topicA,topicA-514,172.172.1.1:1883,1551655603219,PRODUCED
Publisher_001,topicA,topicA-515,172.172.1.1:1883,1551655603319,PRODUCED
Publisher_001,topicA,topicA-516,172.172.1.1:1883,1551655603420,PRODUCED
Publisher_001,topicA,topicA-517,172.172.1.1:1883,1551655603519,PRODUCED
Publisher_001,topicA,topicA-518,172.172.1.1:1883,1551655603619,PRODUCED
Publisher_001,topicA,topicA-519,172.172.1.1:1883,1551655603719,PRODUCED
Publisher_001,topicA,topicA-520,172.172.1.1:1883,1551655603819,PRODUCED
Publisher_001,topicA,topicA-521,172.172.1.1:1883,1551655603919,PRODUCED
Publisher_001,topicA,topicA-522,172.172.1.1:1883,1551655604023,PRODUCED
Publisher_001,topicA,topicA-523,172.172.1.1:1883,1551655604119,PRODUCED
Publisher_001,topicA,topicA-524,172.172.1.1:1883,1551655604219,PRODUCED
Publisher_001,topicA,topicA-525,172.172.1.1:1883,1551655604320,PRODUCED
Publisher_001,topicA,topicA-526,172.172.1.1:1883,1551655604419,PRODUCED
Publisher_001,topicA,topicA-527,172.172.1.1:1883,1551655604519,PRODUCED
Publisher_001,topicA,topicA-528,172.172.1.1:1883,1551655604619,PRODUCED
Publisher_001,topicA,topicA-529,172.172.1.1:1883,1551655604720,PRODUCED
Publisher_001,topicA,topicA-530,172.172.1.1:1883,1551655604819,PRODUCED
Publisher_001,topicA,topicA-531,172.172.1.1:1883,1551655604920,PRODUCED
Publisher_001,topicA,topicA-532,172.172.1.1:1883,1551655605019,PRODUCED
Publisher_001,topicA,topicA-533,172.172.1.1:1883,1551655605121,PRODUCED
Publisher_001,topicA,topicA-534,172.172.1.1:1883,1551655605219,PRODUCED
Publisher_001,topicA,topicA-535,172.172.1.1:1883,1551655605320,PRODUCED
Publisher_001,topicA,topicA-536,172.172.1.1:1883,1551655605424,PRODUCED
Publisher_001,topicA,topicA-537,172.172.1.1:1883,1551655605521,PRODUCED
Publisher_001,topicA,topicA-538,172.172.1.1:1883,1551655605620,PRODUCED
Publisher_001,topicA,topicA-539,172.172.1.1:1883,1551655605720,PRODUCED
Publisher_001,topicA,topicA-540,172.172.1.1:1883,1551655605819,PRODUCED
Publisher_001,topicA,topicA-541,172.172.1.1:1883,1551655605921,PRODUCED
Publisher_001,topicA,topicA-542,172.172.1.1:1883,1551655606021,PRODUCED
Publisher_001,topicA,topicA-543,172.172.1.1:1883,1551655606120,PRODUCED
Publisher_001,topicA,topicA-544,172.172.1.1:1883,1551655606220,PRODUCED
Publisher_001,topicA,topicA-545,172.172.1.1:1883,1551655606319,PRODUCED
Publisher_001,topicA,topicA-546,172.172.1.1:1883,1551655606420,PRODUCED
Publisher_001,topicA,topicA-547,172.172.1.1:1883,1551655606520,PRODUCED
Publisher_001,topicA,topicA-548,172.172.1.1:1883,1551655606620,PRODUCED
Publisher_001,topicA,topicA-549,172.172.1.1:1883,1551655606720,PRODUCED
Publisher_001,topicA,topicA-550,172.172.1.1:1883,1551655606820,PRODUCED
Publisher_001,topicA,topicA-551,172.172.1.1:1883,1551655606920,PRODUCED
Publisher_001,topicA,topicA-552,172.172.1.1:1883,1551655607020,PRODUCED
Publisher_001,topicA,topicA-553,172.172.1.1:1883,1551655607121,PRODUCED
Publisher_001,topicA,topicA-554,172.172.1.1:1883,1551655607220,PRODUCED
Publisher_001,topicA,topicA-555,172.172.1.1:1883,1551655607320,PRODUCED
Publisher_001,topicA,topicA-556,172.172.1.1:1883,1551655607420,PRODUCED
Publisher_001,topicA,topicA-557,172.172.1.1:1883,1551655607520,PRODUCED
Publisher_001,topicA,topicA-558,172.172.1.1:1883,1551655607620,PRODUCED
Publisher_001,topicA,topicA-559,172.172.1.1:1883,1551655607720,PRODUCED
Publisher_001,topicA,topicA-560,172.172.1.1:1883,1551655607819,PRODUCED
Publisher_001,topicA,topicA-561,172.172.1.1:1883,1551655607921,PRODUCED
Publisher_001,topicA,topicA-562,172.172.1.1:1883,1551655608020,PRODUCED
Publisher_001,topicA,topicA-563,172.172.1.1:1883,1551655608121,PRODUCED
Publisher_001,topicA,topicA-564,172.172.1.1:1883,1551655608221,PRODUCED
Publisher_001,topicA,topicA-565,172.172.1.1:1883,1551655608320,PRODUCED
Publisher_001,topicA,topicA-566,172.172.1.1:1883,1551655608421,PRODUCED
Publisher_001,topicA,topicA-567,172.172.1.1:1883,1551655608520,PRODUCED
Publisher_001,topicA,topicA-568,172.172.1.1:1883,1551655608619,PRODUCED
Publisher_001,topicA,topicA-569,172.172.1.1:1883,1551655608723,PRODUCED
Publisher_001,topicA,topicA-570,172.172.1.1:1883,1551655608819,PRODUCED
Publisher_001,topicA,topicA-571,172.172.1.1:1883,1551655608919,PRODUCED
Publisher_001,topicA,topicA-572,172.172.1.1:1883,1551655609020,PRODUCED
Publisher_001,topicA,topicA-573,172.172.1.1:1883,1551655609119,PRODUCED
Publisher_001,topicA,topicA-574,172.172.1.1:1883,1551655609224,PRODUCED
Publisher_001,topicA,topicA-575,172.172.1.1:1883,1551655609320,PRODUCED
Publisher_001,topicA,topicA-576,172.172.1.1:1883,1551655609421,PRODUCED
Publisher_001,topicA,topicA-577,172.172.1.1:1883,1551655609520,PRODUCED
Publisher_001,topicA,topicA-578,172.172.1.1:1883,1551655609624,PRODUCED
Publisher_001,topicA,topicA-579,172.172.1.1:1883,1551655609721,PRODUCED
Publisher_001,topicA,topicA-580,172.172.1.1:1883,1551655609820,PRODUCED
Publisher_001,topicA,topicA-581,172.172.1.1:1883,1551655609920,PRODUCED
Publisher_001,topicA,topicA-582,172.172.1.1:1883,1551655610021,PRODUCED
Publisher_001,topicA,topicA-583,172.172.1.1:1883,1551655610121,PRODUCED
Publisher_001,topicA,topicA-584,172.172.1.1:1883,1551655610220,PRODUCED
Publisher_001,topicA,topicA-585,172.172.1.1:1883,1551655610319,PRODUCED
Publisher_001,topicA,topicA-586,172.172.1.1:1883,1551655610419,PRODUCED
Publisher_001,topicA,topicA-587,172.172.1.1:1883,1551655610520,PRODUCED
Publisher_001,topicA,topicA-588,172.172.1.1:1883,1551655610620,PRODUCED
Publisher_001,topicA,topicA-589,172.172.1.1:1883,1551655610720,PRODUCED
Publisher_001,topicA,topicA-590,172.172.1.1:1883,1551655610820,PRODUCED
Publisher_001,topicA,topicA-591,172.172.1.1:1883,1551655610920,PRODUCED
Publisher_001,topicA,topicA-592,172.172.1.1:1883,1551655611020,PRODUCED
Publisher_001,topicA,topicA-593,172.172.1.1:1883,1551655611120,PRODUCED
Publisher_001,topicA,topicA-594,172.172.1.1:1883,1551655611224,PRODUCED
Publisher_001,topicA,topicA-595,172.172.1.1:1883,1551655611320,PRODUCED
Publisher_001,topicA,topicA-596,172.172.1.1:1883,1551655611421,PRODUCED
Publisher_001,topicA,topicA-597,172.172.1.1:1883,1551655611521,PRODUCED
Publisher_001,topicA,topicA-598,172.172.1.1:1883,1551655611620,PRODUCED
Publisher_001,topicA,topicA-599,172.172.1.1:1883,1551655611719,PRODUCED
Publisher_001,topicA,topicA-600,172.172.1.1:1883,1551655611819,PRODUCED
Publisher_001,topicA,topicA-601,172.172.1.1:1883,1551655611922,PRODUCED
Publisher_001,topicA,topicA-602,172.172.1.1:1883,1551655612020,PRODUCED
Publisher_001,topicA,topicA-603,172.172.1.1:1883,1551655612122,PRODUCED
Publisher_001,topicA,topicA-604,172.172.1.1:1883,1551655612220,PRODUCED
Publisher_001,topicA,topicA-605,172.172.1.1:1883,1551655612320,PRODUCED
Publisher_001,topicA,topicA-606,172.172.1.1:1883,1551655612420,PRODUCED
Publisher_001,topicA,topicA-607,172.172.1.1:1883,1551655612520,PRODUCED
Publisher_001,topicA,topicA-608,172.172.1.1:1883,1551655612620,PRODUCED
Publisher_001,topicA,topicA-609,172.172.1.1:1883,1551655612720,PRODUCED
Publisher_001,topicA,topicA-610,172.172.1.1:1883,1551655612820,PRODUCED
Publisher_001,topicA,topicA-611,172.172.1.1:1883,1551655612920,PRODUCED
Publisher_001,topicA,topicA-612,172.172.1.1:1883,1551655613024,PRODUCED
Publisher_001,topicA,topicA-613,172.172.1.1:1883,1551655613120,PRODUCED
Publisher_001,topicA,topicA-614,172.172.1.1:1883,1551655613221,PRODUCED
Publisher_001,topicA,topicA-615,172.172.1.1:1883,1551655613319,PRODUCED
Publisher_001,topicA,topicA-616,172.172.1.1:1883,1551655613425,PRODUCED
Publisher_001,topicA,topicA-617,172.172.1.1:1883,1551655613520,PRODUCED
Publisher_001,topicA,topicA-618,172.172.1.1:1883,1551655613619,PRODUCED
Publisher_001,topicA,topicA-619,172.172.1.1:1883,1551655613719,PRODUCED
Publisher_001,topicA,topicA-620,172.172.1.1:1883,1551655613820,PRODUCED
Publisher_001,topicA,topicA-621,172.172.1.1:1883,1551655613919,PRODUCED
Publisher_001,topicA,topicA-622,172.172.1.1:1883,1551655614019,PRODUCED
Publisher_001,topicA,topicA-623,172.172.1.1:1883,1551655614119,PRODUCED
Publisher_001,topicA,topicA-624,172.172.1.1:1883,1551655614219,PRODUCED
Publisher_001,topicA,topicA-625,172.172.1.1:1883,1551655614319,PRODUCED
Publisher_001,topicA,topicA-626,172.172.1.1:1883,1551655614420,PRODUCED
Publisher_001,topicA,topicA-627,172.172.1.1:1883,1551655614519,PRODUCED
Publisher_001,topicA,topicA-628,172.172.1.1:1883,1551655614620,PRODUCED
Publisher_001,topicA,topicA-629,172.172.1.1:1883,1551655614719,PRODUCED
Publisher_001,topicA,topicA-630,172.172.1.1:1883,1551655614819,PRODUCED
Publisher_001,topicA,topicA-631,172.172.1.1:1883,1551655614919,PRODUCED
Publisher_001,topicA,topicA-632,172.172.1.1:1883,1551655615022,PRODUCED
Publisher_001,topicA,topicA-633,172.172.1.1:1883,1551655615120,PRODUCED
Publisher_001,topicA,topicA-634,172.172.1.1:1883,1551655615223,PRODUCED
Publisher_001,topicA,topicA-635,172.172.1.1:1883,1551655615319,PRODUCED
Publisher_001,topicA,topicA-636,172.172.1.1:1883,1551655615421,PRODUCED
Publisher_001,topicA,topicA-637,172.172.1.1:1883,1551655615522,PRODUCED
Publisher_001,topicA,topicA-638,172.172.1.1:1883,1551655615620,PRODUCED
Publisher_001,topicA,topicA-639,172.172.1.1:1883,1551655615720,PRODUCED
Publisher_001,topicA,topicA-640,172.172.1.1:1883,1551655615820,PRODUCED
Publisher_001,topicA,topicA-641,172.172.1.1:1883,1551655615919,PRODUCED
Publisher_001,topicA,topicA-642,172.172.1.1:1883,1551655616020,PRODUCED
Publisher_001,topicA,topicA-643,172.172.1.1:1883,1551655616120,PRODUCED
Publisher_001,topicA,topicA-644,172.172.1.1:1883,1551655616222,PRODUCED
Publisher_001,topicA,topicA-645,172.172.1.1:1883,1551655616320,PRODUCED
Publisher_001,topicA,topicA-646,172.172.1.1:1883,1551655616420,PRODUCED
Publisher_001,topicA,topicA-647,172.172.1.1:1883,1551655616520,PRODUCED
Publisher_001,topicA,topicA-648,172.172.1.1:1883,1551655616620,PRODUCED
Publisher_001,topicA,topicA-649,172.172.1.1:1883,1551655616720,PRODUCED
Publisher_001,topicA,topicA-650,172.172.1.1:1883,1551655616823,PRODUCED
Publisher_001,topicA,topicA-651,172.172.1.1:1883,1551655616922,PRODUCED
Publisher_001,topicA,topicA-652,172.172.1.1:1883,1551655617025,PRODUCED
Publisher_001,topicA,topicA-653,172.172.1.1:1883,1551655617119,PRODUCED
Publisher_001,topicA,topicA-654,172.172.1.1:1883,1551655617223,PRODUCED
Publisher_001,topicA,topicA-655,172.172.1.1:1883,1551655617319,PRODUCED
Publisher_001,topicA,topicA-656,172.172.1.1:1883,1551655617420,PRODUCED
Publisher_001,topicA,topicA-657,172.172.1.1:1883,1551655617522,PRODUCED
Publisher_001,topicA,topicA-658,172.172.1.1:1883,1551655617619,PRODUCED
Publisher_001,topicA,topicA-659,172.172.1.1:1883,1551655617720,PRODUCED
Publisher_001,topicA,topicA-660,172.172.1.1:1883,1551655617819,PRODUCED
Publisher_001,topicA,topicA-661,172.172.1.1:1883,1551655617920,PRODUCED
