timestamp,event,migrationId
1551643435821,INITIALIZED,9152befd-2991-4a67-bae0-9d7476a02f1b
1551643435823,topicA-INITIALIZED,9152befd-2991-4a67-bae0-9d7476a02f1b
1551643436031,topicA-SYNCING,9152befd-2991-4a67-bae0-9d7476a02f1b
1551643436032,SYNCING,9152befd-2991-4a67-bae0-9d7476a02f1b
1551643436035,topicA-SYNCING_THIS,9152befd-2991-4a67-bae0-9d7476a02f1b
1551643436250,topicA-SYNCED,9152befd-2991-4a67-bae0-9d7476a02f1b
1551643436250,SYNCED,9152befd-2991-4a67-bae0-9d7476a02f1b
1551643436257,topicA-FINISHED,9152befd-2991-4a67-bae0-9d7476a02f1b
1551643436257,FINISHED,9152befd-2991-4a67-bae0-9d7476a02f1b
