timestamp,event,migrationId
1551648554100,INITIALIZED,a366b21a-10d9-42c2-9a7b-5d4b30b6b61c
1551648554103,topicA-INITIALIZED,a366b21a-10d9-42c2-9a7b-5d4b30b6b61c
1551648554107,topicA-SYNCED,a366b21a-10d9-42c2-9a7b-5d4b30b6b61c
1551648554684,topicA-FINISHED,a366b21a-10d9-42c2-9a7b-5d4b30b6b61c
1551648554685,FINISHED,a366b21a-10d9-42c2-9a7b-5d4b30b6b61c
