clientId,topic,guid,broker,timestamp,type
Publisher_002,topicA,topicA-1,172.172.1.2:1883,1551648113900,PRODUCED
Publisher_002,topicA,topicA-2,172.172.1.2:1883,1551648114131,PRODUCED
Publisher_002,topicA,topicA-3,172.172.1.2:1883,1551648114138,PRODUCED
Publisher_002,topicA,topicA-4,172.172.1.2:1883,1551648114148,PRODUCED
Publisher_002,topicA,topicA-5,172.172.1.2:1883,1551648114153,PRODUCED
Publisher_002,topicA,topicA-6,172.172.1.2:1883,1551648114217,PRODUCED
Publisher_002,topicA,topicA-7,172.172.1.2:1883,1551648114318,PRODUCED
Publisher_002,topicA,topicA-8,172.172.1.2:1883,1551648114420,PRODUCED
Publisher_002,topicA,topicA-9,172.172.1.2:1883,1551648114520,PRODUCED
Publisher_002,topicA,topicA-10,172.172.1.2:1883,1551648114620,PRODUCED
Publisher_002,topicA,topicA-11,172.172.1.2:1883,1551648114718,PRODUCED
Publisher_002,topicA,topicA-12,172.172.1.2:1883,1551648114817,PRODUCED
Publisher_002,topicA,topicA-13,172.172.1.2:1883,1551648114917,PRODUCED
Publisher_002,topicA,topicA-14,172.172.1.2:1883,1551648115018,PRODUCED
Publisher_002,topicA,topicA-15,172.172.1.2:1883,1551648115117,PRODUCED
Publisher_002,topicA,topicA-16,172.172.1.2:1883,1551648115218,PRODUCED
Publisher_002,topicA,topicA-17,172.172.1.2:1883,1551648115318,PRODUCED
Publisher_002,topicA,topicA-18,172.172.1.2:1883,1551648115417,PRODUCED
Publisher_002,topicA,topicA-19,172.172.1.2:1883,1551648115518,PRODUCED
Publisher_002,topicA,topicA-20,172.172.1.2:1883,1551648115618,PRODUCED
Publisher_002,topicA,topicA-21,172.172.1.2:1883,1551648115718,PRODUCED
Publisher_002,topicA,topicA-22,172.172.1.2:1883,1551648115818,PRODUCED
Publisher_002,topicA,topicA-23,172.172.1.2:1883,1551648115917,PRODUCED
Publisher_002,topicA,topicA-24,172.172.1.2:1883,1551648116017,PRODUCED
Publisher_002,topicA,topicA-25,172.172.1.2:1883,1551648116117,PRODUCED
Publisher_002,topicA,topicA-26,172.172.1.2:1883,1551648116217,PRODUCED
Publisher_002,topicA,topicA-27,172.172.1.2:1883,1551648116317,PRODUCED
Publisher_002,topicA,topicA-28,172.172.1.2:1883,1551648116418,PRODUCED
Publisher_002,topicA,topicA-29,172.172.1.2:1883,1551648116518,PRODUCED
Publisher_002,topicA,topicA-30,172.172.1.2:1883,1551648116618,PRODUCED
Publisher_002,topicA,topicA-31,172.172.1.2:1883,1551648116718,PRODUCED
Publisher_002,topicA,topicA-32,172.172.1.2:1883,1551648116819,PRODUCED
Publisher_002,topicA,topicA-33,172.172.1.2:1883,1551648116918,PRODUCED
Publisher_002,topicA,topicA-34,172.172.1.2:1883,1551648117018,PRODUCED
Publisher_002,topicA,topicA-35,172.172.1.2:1883,1551648117118,PRODUCED
Publisher_002,topicA,topicA-36,172.172.1.2:1883,1551648117218,PRODUCED
Publisher_002,topicA,topicA-37,172.172.1.2:1883,1551648117317,PRODUCED
Publisher_002,topicA,topicA-38,172.172.1.2:1883,1551648117425,PRODUCED
Publisher_002,topicA,topicA-39,172.172.1.2:1883,1551648117521,PRODUCED
Publisher_002,topicA,topicA-40,172.172.1.2:1883,1551648117618,PRODUCED
Publisher_002,topicA,topicA-41,172.172.1.2:1883,1551648117718,PRODUCED
Publisher_002,topicA,topicA-42,172.172.1.2:1883,1551648117820,PRODUCED
Publisher_002,topicA,topicA-43,172.172.1.2:1883,1551648117918,PRODUCED
Publisher_002,topicA,topicA-44,172.172.1.2:1883,1551648118018,PRODUCED
Publisher_002,topicA,topicA-45,172.172.1.2:1883,1551648118118,PRODUCED
Publisher_002,topicA,topicA-46,172.172.1.2:1883,1551648118218,PRODUCED
Publisher_002,topicA,topicA-47,172.172.1.2:1883,1551648118318,PRODUCED
Publisher_002,topicA,topicA-48,172.172.1.2:1883,1551648118417,PRODUCED
Publisher_002,topicA,topicA-49,172.172.1.2:1883,1551648118518,PRODUCED
Publisher_002,topicA,topicA-50,172.172.1.2:1883,1551648118618,PRODUCED
Publisher_002,topicA,topicA-51,172.172.1.2:1883,1551648118718,PRODUCED
Publisher_002,topicA,topicA-52,172.172.1.2:1883,1551648118817,PRODUCED
Publisher_002,topicA,topicA-53,172.172.1.2:1883,1551648118918,PRODUCED
Publisher_002,topicA,topicA-54,172.172.1.2:1883,1551648119018,PRODUCED
Publisher_002,topicA,topicA-55,172.172.1.2:1883,1551648119117,PRODUCED
Publisher_002,topicA,topicA-56,172.172.1.2:1883,1551648119218,PRODUCED
Publisher_002,topicA,topicA-57,172.172.1.2:1883,1551648119317,PRODUCED
Publisher_002,topicA,topicA-58,172.172.1.2:1883,1551648119418,PRODUCED
Publisher_002,topicA,topicA-59,172.172.1.2:1883,1551648119517,PRODUCED
Publisher_002,topicA,topicA-60,172.172.1.2:1883,1551648119618,PRODUCED
Publisher_002,topicA,topicA-61,172.172.1.2:1883,1551648119718,PRODUCED
Publisher_002,topicA,topicA-62,172.172.1.2:1883,1551648119817,PRODUCED
Publisher_002,topicA,topicA-63,172.172.1.2:1883,1551648119918,PRODUCED
Publisher_002,topicA,topicA-64,172.172.1.2:1883,1551648120017,PRODUCED
Publisher_002,topicA,topicA-65,172.172.1.2:1883,1551648120117,PRODUCED
Publisher_002,topicA,topicA-66,172.172.1.2:1883,1551648120221,PRODUCED
Publisher_002,topicA,topicA-67,172.172.1.2:1883,1551648120317,PRODUCED
Publisher_002,topicA,topicA-68,172.172.1.2:1883,1551648120417,PRODUCED
Publisher_002,topicA,topicA-69,172.172.1.2:1883,1551648120517,PRODUCED
Publisher_002,topicA,topicA-70,172.172.1.2:1883,1551648120617,PRODUCED
Publisher_002,topicA,topicA-71,172.172.1.2:1883,1551648120719,PRODUCED
Publisher_002,topicA,topicA-72,172.172.1.2:1883,1551648120818,PRODUCED
Publisher_002,topicA,topicA-73,172.172.1.2:1883,1551648120918,PRODUCED
Publisher_002,topicA,topicA-74,172.172.1.2:1883,1551648121018,PRODUCED
Publisher_002,topicA,topicA-75,172.172.1.2:1883,1551648121117,PRODUCED
Publisher_002,topicA,topicA-76,172.172.1.2:1883,1551648121218,PRODUCED
Publisher_002,topicA,topicA-77,172.172.1.2:1883,1551648121318,PRODUCED
Publisher_002,topicA,topicA-78,172.172.1.2:1883,1551648121417,PRODUCED
Publisher_002,topicA,topicA-79,172.172.1.2:1883,1551648121518,PRODUCED
Publisher_002,topicA,topicA-80,172.172.1.2:1883,1551648121617,PRODUCED
Publisher_002,topicA,topicA-81,172.172.1.2:1883,1551648121717,PRODUCED
Publisher_002,topicA,topicA-82,172.172.1.2:1883,1551648121818,PRODUCED
Publisher_002,topicA,topicA-83,172.172.1.2:1883,1551648121919,PRODUCED
Publisher_002,topicA,topicA-84,172.172.1.2:1883,1551648122019,PRODUCED
Publisher_002,topicA,topicA-85,172.172.1.2:1883,1551648122118,PRODUCED
Publisher_002,topicA,topicA-86,172.172.1.2:1883,1551648122218,PRODUCED
Publisher_002,topicA,topicA-87,172.172.1.2:1883,1551648122319,PRODUCED
Publisher_002,topicA,topicA-88,172.172.1.2:1883,1551648122418,PRODUCED
Publisher_002,topicA,topicA-89,172.172.1.2:1883,1551648122517,PRODUCED
Publisher_002,topicA,topicA-90,172.172.1.2:1883,1551648122618,PRODUCED
Publisher_002,topicA,topicA-91,172.172.1.2:1883,1551648122718,PRODUCED
Publisher_002,topicA,topicA-92,172.172.1.2:1883,1551648122817,PRODUCED
Publisher_002,topicA,topicA-93,172.172.1.2:1883,1551648122917,PRODUCED
Publisher_002,topicA,topicA-94,172.172.1.2:1883,1551648123017,PRODUCED
Publisher_002,topicA,topicA-95,172.172.1.2:1883,1551648123117,PRODUCED
Publisher_002,topicA,topicA-96,172.172.1.2:1883,1551648123219,PRODUCED
Publisher_002,topicA,topicA-97,172.172.1.2:1883,1551648123319,PRODUCED
Publisher_002,topicA,topicA-98,172.172.1.2:1883,1551648123418,PRODUCED
Publisher_002,topicA,topicA-99,172.172.1.2:1883,1551648123518,PRODUCED
Publisher_002,topicA,topicA-100,172.172.1.2:1883,1551648123618,PRODUCED
Publisher_002,topicA,topicA-101,172.172.1.2:1883,1551648123718,PRODUCED
Publisher_002,topicA,topicA-102,172.172.1.2:1883,1551648123819,PRODUCED
Publisher_002,topicA,topicA-103,172.172.1.2:1883,1551648123923,PRODUCED
Publisher_002,topicA,topicA-104,172.172.1.2:1883,1551648124018,PRODUCED
Publisher_002,topicA,topicA-105,172.172.1.2:1883,1551648124119,PRODUCED
Publisher_002,topicA,topicA-106,172.172.1.2:1883,1551648124219,PRODUCED
Publisher_002,topicA,topicA-107,172.172.1.2:1883,1551648124318,PRODUCED
Publisher_002,topicA,topicA-108,172.172.1.2:1883,1551648124418,PRODUCED
Publisher_002,topicA,topicA-109,172.172.1.2:1883,1551648124517,PRODUCED
Publisher_002,topicA,topicA-110,172.172.1.2:1883,1551648124618,PRODUCED
Publisher_002,topicA,topicA-111,172.172.1.2:1883,1551648124718,PRODUCED
Publisher_002,topicA,topicA-112,172.172.1.2:1883,1551648124818,PRODUCED
Publisher_002,topicA,topicA-113,172.172.1.2:1883,1551648124918,PRODUCED
Publisher_002,topicA,topicA-114,172.172.1.2:1883,1551648125018,PRODUCED
Publisher_002,topicA,topicA-115,172.172.1.2:1883,1551648125118,PRODUCED
Publisher_002,topicA,topicA-116,172.172.1.2:1883,1551648125217,PRODUCED
Publisher_002,topicA,topicA-117,172.172.1.2:1883,1551648125317,PRODUCED
Publisher_002,topicA,topicA-118,172.172.1.2:1883,1551648125418,PRODUCED
Publisher_002,topicA,topicA-119,172.172.1.2:1883,1551648125518,PRODUCED
Publisher_002,topicA,topicA-120,172.172.1.2:1883,1551648125618,PRODUCED
Publisher_002,topicA,topicA-121,172.172.1.2:1883,1551648125721,PRODUCED
Publisher_002,topicA,topicA-122,172.172.1.2:1883,1551648125818,PRODUCED
Publisher_002,topicA,topicA-123,172.172.1.2:1883,1551648125918,PRODUCED
Publisher_002,topicA,topicA-124,172.172.1.2:1883,1551648126018,PRODUCED
Publisher_002,topicA,topicA-125,172.172.1.2:1883,1551648126117,PRODUCED
Publisher_002,topicA,topicA-126,172.172.1.2:1883,1551648126218,PRODUCED
Publisher_002,topicA,topicA-127,172.172.1.2:1883,1551648126317,PRODUCED
Publisher_002,topicA,topicA-128,172.172.1.2:1883,1551648126418,PRODUCED
Publisher_002,topicA,topicA-129,172.172.1.2:1883,1551648126517,PRODUCED
Publisher_002,topicA,topicA-130,172.172.1.2:1883,1551648126618,PRODUCED
Publisher_002,topicA,topicA-131,172.172.1.2:1883,1551648126718,PRODUCED
Publisher_002,topicA,topicA-132,172.172.1.2:1883,1551648126818,PRODUCED
Publisher_002,topicA,topicA-133,172.172.1.2:1883,1551648126917,PRODUCED
Publisher_002,topicA,topicA-134,172.172.1.2:1883,1551648127017,PRODUCED
Publisher_002,topicA,topicA-135,172.172.1.2:1883,1551648127118,PRODUCED
Publisher_002,topicA,topicA-136,172.172.1.2:1883,1551648127218,PRODUCED
Publisher_002,topicA,topicA-137,172.172.1.2:1883,1551648127317,PRODUCED
Publisher_002,topicA,topicA-138,172.172.1.2:1883,1551648127418,PRODUCED
Publisher_002,topicA,topicA-139,172.172.1.2:1883,1551648127518,PRODUCED
Publisher_002,topicA,topicA-140,172.172.1.2:1883,1551648127618,PRODUCED
Publisher_002,topicA,topicA-141,172.172.1.2:1883,1551648127717,PRODUCED
Publisher_002,topicA,topicA-142,172.172.1.2:1883,1551648127817,PRODUCED
Publisher_002,topicA,topicA-143,172.172.1.2:1883,1551648127918,PRODUCED
Publisher_002,topicA,topicA-144,172.172.1.2:1883,1551648128017,PRODUCED
Publisher_002,topicA,topicA-145,172.172.1.2:1883,1551648128117,PRODUCED
Publisher_002,topicA,topicA-146,172.172.1.2:1883,1551648128217,PRODUCED
Publisher_002,topicA,topicA-147,172.172.1.2:1883,1551648128317,PRODUCED
Publisher_002,topicA,topicA-148,172.172.1.2:1883,1551648128418,PRODUCED
Publisher_002,topicA,topicA-149,172.172.1.2:1883,1551648128518,PRODUCED
Publisher_002,topicA,topicA-150,172.172.1.2:1883,1551648128618,PRODUCED
Publisher_002,topicA,topicA-151,172.172.1.2:1883,1551648128718,PRODUCED
Publisher_002,topicA,topicA-152,172.172.1.2:1883,1551648128818,PRODUCED
Publisher_002,topicA,topicA-153,172.172.1.2:1883,1551648128918,PRODUCED
Publisher_002,topicA,topicA-154,172.172.1.2:1883,1551648129017,PRODUCED
Publisher_002,topicA,topicA-155,172.172.1.2:1883,1551648129120,PRODUCED
Publisher_002,topicA,topicA-156,172.172.1.2:1883,1551648129218,PRODUCED
Publisher_002,topicA,topicA-157,172.172.1.2:1883,1551648129318,PRODUCED
Publisher_002,topicA,topicA-158,172.172.1.2:1883,1551648129418,PRODUCED
Publisher_002,topicA,topicA-159,172.172.1.2:1883,1551648129519,PRODUCED
Publisher_002,topicA,topicA-160,172.172.1.2:1883,1551648129618,PRODUCED
Publisher_002,topicA,topicA-161,172.172.1.2:1883,1551648129724,PRODUCED
Publisher_002,topicA,topicA-162,172.172.1.2:1883,1551648129818,PRODUCED
Publisher_002,topicA,topicA-163,172.172.1.2:1883,1551648129918,PRODUCED
Publisher_002,topicA,topicA-164,172.172.1.2:1883,1551648130018,PRODUCED
Publisher_002,topicA,topicA-165,172.172.1.2:1883,1551648130118,PRODUCED
Publisher_002,topicA,topicA-166,172.172.1.2:1883,1551648130219,PRODUCED
Publisher_002,topicA,topicA-167,172.172.1.2:1883,1551648130321,PRODUCED
Publisher_002,topicA,topicA-168,172.172.1.2:1883,1551648130424,PRODUCED
Publisher_002,topicA,topicA-169,172.172.1.2:1883,1551648130518,PRODUCED
Publisher_002,topicA,topicA-170,172.172.1.2:1883,1551648130618,PRODUCED
Publisher_002,topicA,topicA-171,172.172.1.2:1883,1551648130718,PRODUCED
Publisher_002,topicA,topicA-172,172.172.1.2:1883,1551648130818,PRODUCED
Publisher_002,topicA,topicA-173,172.172.1.2:1883,1551648130918,PRODUCED
Publisher_002,topicA,topicA-174,172.172.1.2:1883,1551648131021,PRODUCED
Publisher_002,topicA,topicA-175,172.172.1.2:1883,1551648131117,PRODUCED
Publisher_002,topicA,topicA-176,172.172.1.2:1883,1551648131218,PRODUCED
Publisher_002,topicA,topicA-177,172.172.1.2:1883,1551648131318,PRODUCED
Publisher_002,topicA,topicA-178,172.172.1.2:1883,1551648131418,PRODUCED
Publisher_002,topicA,topicA-179,172.172.1.2:1883,1551648131518,PRODUCED
Publisher_002,topicA,topicA-180,172.172.1.2:1883,1551648131618,PRODUCED
Publisher_002,topicA,topicA-181,172.172.1.2:1883,1551648131718,PRODUCED
Publisher_002,topicA,topicA-182,172.172.1.2:1883,1551648131817,PRODUCED
Publisher_002,topicA,topicA-183,172.172.1.2:1883,1551648131918,PRODUCED
Publisher_002,topicA,topicA-184,172.172.1.2:1883,1551648132018,PRODUCED
Publisher_002,topicA,topicA-185,172.172.1.2:1883,1551648132117,PRODUCED
Publisher_002,topicA,topicA-186,172.172.1.2:1883,1551648132218,PRODUCED
Publisher_002,topicA,topicA-187,172.172.1.2:1883,1551648132317,PRODUCED
Publisher_002,topicA,topicA-188,172.172.1.2:1883,1551648132418,PRODUCED
Publisher_002,topicA,topicA-189,172.172.1.2:1883,1551648132519,PRODUCED
Publisher_002,topicA,topicA-190,172.172.1.2:1883,1551648132618,PRODUCED
Publisher_002,topicA,topicA-191,172.172.1.2:1883,1551648132718,PRODUCED
Publisher_002,topicA,topicA-192,172.172.1.2:1883,1551648132824,PRODUCED
Publisher_002,topicA,topicA-193,172.172.1.2:1883,1551648132918,PRODUCED
Publisher_002,topicA,topicA-194,172.172.1.2:1883,1551648133017,PRODUCED
Publisher_002,topicA,topicA-195,172.172.1.2:1883,1551648133118,PRODUCED
Publisher_002,topicA,topicA-196,172.172.1.2:1883,1551648133217,PRODUCED
Publisher_002,topicA,topicA-197,172.172.1.2:1883,1551648133318,PRODUCED
Publisher_002,topicA,topicA-198,172.172.1.2:1883,1551648133419,PRODUCED
Publisher_002,topicA,topicA-199,172.172.1.2:1883,1551648133517,PRODUCED
Publisher_002,topicA,topicA-200,172.172.1.2:1883,1551648133618,PRODUCED
Publisher_002,topicA,topicA-201,172.172.1.2:1883,1551648133718,PRODUCED
Publisher_002,topicA,topicA-202,172.172.1.2:1883,1551648133818,PRODUCED
Publisher_002,topicA,topicA-203,172.172.1.2:1883,1551648133920,PRODUCED
Publisher_002,topicA,topicA-204,172.172.1.2:1883,1551648134017,PRODUCED
Publisher_002,topicA,topicA-205,172.172.1.2:1883,1551648134118,PRODUCED
Publisher_002,topicA,topicA-206,172.172.1.2:1883,1551648134218,PRODUCED
Publisher_002,topicA,topicA-207,172.172.1.2:1883,1551648134318,PRODUCED
Publisher_002,topicA,topicA-208,172.172.1.2:1883,1551648134418,PRODUCED
Publisher_002,topicA,topicA-209,172.172.1.2:1883,1551648134517,PRODUCED
Publisher_002,topicA,topicA-210,172.172.1.2:1883,1551648134618,PRODUCED
Publisher_002,topicA,topicA-211,172.172.1.2:1883,1551648134717,PRODUCED
Publisher_002,topicA,topicA-212,172.172.1.2:1883,1551648134818,PRODUCED
Publisher_002,topicA,topicA-213,172.172.1.2:1883,1551648134921,PRODUCED
Publisher_002,topicA,topicA-214,172.172.1.2:1883,1551648135018,PRODUCED
Publisher_002,topicA,topicA-215,172.172.1.2:1883,1551648135118,PRODUCED
Publisher_002,topicA,topicA-216,172.172.1.2:1883,1551648135218,PRODUCED
Publisher_002,topicA,topicA-217,172.172.1.2:1883,1551648135318,PRODUCED
Publisher_002,topicA,topicA-218,172.172.1.2:1883,1551648135418,PRODUCED
Publisher_002,topicA,topicA-219,172.172.1.2:1883,1551648135517,PRODUCED
Publisher_002,topicA,topicA-220,172.172.1.2:1883,1551648135618,PRODUCED
Publisher_002,topicA,topicA-221,172.172.1.2:1883,1551648135718,PRODUCED
Publisher_002,topicA,topicA-222,172.172.1.2:1883,1551648135818,PRODUCED
Publisher_002,topicA,topicA-223,172.172.1.2:1883,1551648135918,PRODUCED
Publisher_002,topicA,topicA-224,172.172.1.2:1883,1551648136037,PRODUCED
Publisher_002,topicA,topicA-225,172.172.1.2:1883,1551648136117,PRODUCED
Publisher_002,topicA,topicA-226,172.172.1.2:1883,1551648136217,PRODUCED
Publisher_002,topicA,topicA-227,172.172.1.2:1883,1551648136318,PRODUCED
Publisher_002,topicA,topicA-228,172.172.1.2:1883,1551648136418,PRODUCED
Publisher_002,topicA,topicA-229,172.172.1.2:1883,1551648136522,PRODUCED
Publisher_002,topicA,topicA-230,172.172.1.2:1883,1551648136620,PRODUCED
Publisher_002,topicA,topicA-231,172.172.1.2:1883,1551648136718,PRODUCED
Publisher_002,topicA,topicA-232,172.172.1.2:1883,1551648136818,PRODUCED
Publisher_002,topicA,topicA-233,172.172.1.2:1883,1551648136918,PRODUCED
Publisher_002,topicA,topicA-234,172.172.1.2:1883,1551648137018,PRODUCED
Publisher_002,topicA,topicA-235,172.172.1.2:1883,1551648137117,PRODUCED
Publisher_002,topicA,topicA-236,172.172.1.2:1883,1551648137219,PRODUCED
Publisher_002,topicA,topicA-237,172.172.1.2:1883,1551648137318,PRODUCED
Publisher_002,topicA,topicA-238,172.172.1.2:1883,1551648137418,PRODUCED
Publisher_002,topicA,topicA-239,172.172.1.2:1883,1551648137518,PRODUCED
Publisher_002,topicA,topicA-240,172.172.1.2:1883,1551648137618,PRODUCED
Publisher_002,topicA,topicA-241,172.172.1.2:1883,1551648137718,PRODUCED
Publisher_002,topicA,topicA-242,172.172.1.2:1883,1551648137818,PRODUCED
Publisher_002,topicA,topicA-243,172.172.1.2:1883,1551648137918,PRODUCED
Publisher_002,topicA,topicA-244,172.172.1.2:1883,1551648138018,PRODUCED
Publisher_002,topicA,topicA-245,172.172.1.2:1883,1551648138117,PRODUCED
Publisher_002,topicA,topicA-246,172.172.1.2:1883,1551648138218,PRODUCED
Publisher_002,topicA,topicA-247,172.172.1.2:1883,1551648138318,PRODUCED
Publisher_002,topicA,topicA-248,172.172.1.2:1883,1551648138418,PRODUCED
Publisher_002,topicA,topicA-249,172.172.1.2:1883,1551648138517,PRODUCED
Publisher_002,topicA,topicA-250,172.172.1.2:1883,1551648138618,PRODUCED
Publisher_002,topicA,topicA-251,172.172.1.2:1883,1551648138718,PRODUCED
Publisher_002,topicA,topicA-252,172.172.1.2:1883,1551648138818,PRODUCED
Publisher_002,topicA,topicA-253,172.172.1.2:1883,1551648138917,PRODUCED
Publisher_002,topicA,topicA-254,172.172.1.2:1883,1551648139018,PRODUCED
Publisher_002,topicA,topicA-255,172.172.1.2:1883,1551648139118,PRODUCED
Publisher_002,topicA,topicA-256,172.172.1.2:1883,1551648139218,PRODUCED
Publisher_002,topicA,topicA-257,172.172.1.2:1883,1551648139322,PRODUCED
Publisher_002,topicA,topicA-258,172.172.1.2:1883,1551648139418,PRODUCED
Publisher_002,topicA,topicA-259,172.172.1.2:1883,1551648139521,PRODUCED
Publisher_002,topicA,topicA-260,172.172.1.2:1883,1551648139618,PRODUCED
Publisher_002,topicA,topicA-261,172.172.1.2:1883,1551648139718,PRODUCED
Publisher_002,topicA,topicA-262,172.172.1.2:1883,1551648139818,PRODUCED
Publisher_002,topicA,topicA-263,172.172.1.2:1883,1551648139918,PRODUCED
Publisher_002,topicA,topicA-264,172.172.1.2:1883,1551648140017,PRODUCED
Publisher_002,topicA,topicA-265,172.172.1.2:1883,1551648140117,PRODUCED
Publisher_002,topicA,topicA-266,172.172.1.2:1883,1551648140218,PRODUCED
Publisher_002,topicA,topicA-267,172.172.1.2:1883,1551648140320,PRODUCED
Publisher_002,topicA,topicA-268,172.172.1.2:1883,1551648140417,PRODUCED
Publisher_002,topicA,topicA-269,172.172.1.2:1883,1551648140523,PRODUCED
Publisher_002,topicA,topicA-270,172.172.1.2:1883,1551648140617,PRODUCED
Publisher_002,topicA,topicA-271,172.172.1.2:1883,1551648140717,PRODUCED
Publisher_002,topicA,topicA-272,172.172.1.2:1883,1551648140817,PRODUCED
Publisher_002,topicA,topicA-273,172.172.1.2:1883,1551648140918,PRODUCED
Publisher_002,topicA,topicA-274,172.172.1.2:1883,1551648141017,PRODUCED
Publisher_002,topicA,topicA-275,172.172.1.2:1883,1551648141118,PRODUCED
Publisher_002,topicA,topicA-276,172.172.1.2:1883,1551648141218,PRODUCED
Publisher_002,topicA,topicA-277,172.172.1.2:1883,1551648141317,PRODUCED
Publisher_002,topicA,topicA-278,172.172.1.2:1883,1551648141418,PRODUCED
Publisher_002,topicA,topicA-279,172.172.1.2:1883,1551648141517,PRODUCED
Publisher_002,topicA,topicA-280,172.172.1.2:1883,1551648141618,PRODUCED
Publisher_002,topicA,topicA-281,172.172.1.2:1883,1551648141718,PRODUCED
Publisher_002,topicA,topicA-282,172.172.1.2:1883,1551648141819,PRODUCED
Publisher_002,topicA,topicA-283,172.172.1.2:1883,1551648141918,PRODUCED
Publisher_002,topicA,topicA-284,172.172.1.2:1883,1551648142018,PRODUCED
Publisher_002,topicA,topicA-285,172.172.1.2:1883,1551648142118,PRODUCED
Publisher_002,topicA,topicA-286,172.172.1.2:1883,1551648142218,PRODUCED
Publisher_002,topicA,topicA-287,172.172.1.2:1883,1551648142317,PRODUCED
Publisher_002,topicA,topicA-288,172.172.1.2:1883,1551648142418,PRODUCED
Publisher_002,topicA,topicA-289,172.172.1.2:1883,1551648142518,PRODUCED
Publisher_002,topicA,topicA-290,172.172.1.2:1883,1551648142618,PRODUCED
Publisher_002,topicA,topicA-291,172.172.1.2:1883,1551648142719,PRODUCED
Publisher_002,topicA,topicA-292,172.172.1.2:1883,1551648142818,PRODUCED
Publisher_002,topicA,topicA-293,172.172.1.2:1883,1551648142919,PRODUCED
Publisher_002,topicA,topicA-294,172.172.1.2:1883,1551648143017,PRODUCED
Publisher_002,topicA,topicA-295,172.172.1.2:1883,1551648143117,PRODUCED
Publisher_002,topicA,topicA-296,172.172.1.2:1883,1551648143218,PRODUCED
Publisher_002,topicA,topicA-297,172.172.1.2:1883,1551648143317,PRODUCED
Publisher_002,topicA,topicA-298,172.172.1.2:1883,1551648143418,PRODUCED
Publisher_002,topicA,topicA-299,172.172.1.2:1883,1551648143517,PRODUCED
Publisher_002,topicA,topicA-300,172.172.1.2:1883,1551648143617,PRODUCED
Publisher_002,topicA,topicA-301,172.172.1.2:1883,1551648143722,PRODUCED
Publisher_002,topicA,topicA-302,172.172.1.2:1883,1551648143817,PRODUCED
Publisher_002,topicA,topicA-303,172.172.1.2:1883,1551648143918,PRODUCED
Publisher_002,topicA,topicA-304,172.172.1.2:1883,1551648144017,PRODUCED
Publisher_002,topicA,topicA-305,172.172.1.2:1883,1551648144118,PRODUCED
Publisher_002,topicA,topicA-306,172.172.1.2:1883,1551648144218,PRODUCED
Publisher_002,topicA,topicA-307,172.172.1.2:1883,1551648144318,PRODUCED
Publisher_002,topicA,topicA-308,172.172.1.2:1883,1551648144418,PRODUCED
Publisher_002,topicA,topicA-309,172.172.1.2:1883,1551648144518,PRODUCED
Publisher_002,topicA,topicA-310,172.172.1.2:1883,1551648144620,PRODUCED
Publisher_002,topicA,topicA-311,172.172.1.2:1883,1551648144718,PRODUCED
Publisher_002,topicA,topicA-312,172.172.1.2:1883,1551648144817,PRODUCED
Publisher_002,topicA,topicA-313,172.172.1.2:1883,1551648144918,PRODUCED
Publisher_002,topicA,topicA-314,172.172.1.2:1883,1551648145018,PRODUCED
Publisher_002,topicA,topicA-315,172.172.1.2:1883,1551648145118,PRODUCED
Publisher_002,topicA,topicA-316,172.172.1.2:1883,1551648145218,PRODUCED
Publisher_002,topicA,topicA-317,172.172.1.2:1883,1551648145318,PRODUCED
Publisher_002,topicA,topicA-318,172.172.1.2:1883,1551648145418,PRODUCED
Publisher_002,topicA,topicA-319,172.172.1.2:1883,1551648145524,PRODUCED
Publisher_002,topicA,topicA-320,172.172.1.2:1883,1551648145618,PRODUCED
Publisher_002,topicA,topicA-321,172.172.1.2:1883,1551648145718,PRODUCED
Publisher_002,topicA,topicA-322,172.172.1.2:1883,1551648145818,PRODUCED
Publisher_002,topicA,topicA-323,172.172.1.2:1883,1551648145917,PRODUCED
Publisher_002,topicA,topicA-324,172.172.1.2:1883,1551648146018,PRODUCED
Publisher_002,topicA,topicA-325,172.172.1.2:1883,1551648146118,PRODUCED
Publisher_002,topicA,topicA-326,172.172.1.2:1883,1551648146218,PRODUCED
Publisher_002,topicA,topicA-327,172.172.1.2:1883,1551648146318,PRODUCED
Publisher_002,topicA,topicA-328,172.172.1.2:1883,1551648146417,PRODUCED
Publisher_002,topicA,topicA-329,172.172.1.2:1883,1551648146517,PRODUCED
Publisher_002,topicA,topicA-330,172.172.1.2:1883,1551648146623,PRODUCED
Publisher_002,topicA,topicA-331,172.172.1.2:1883,1551648146719,PRODUCED
Publisher_002,topicA,topicA-332,172.172.1.2:1883,1551648146818,PRODUCED
Publisher_002,topicA,topicA-333,172.172.1.2:1883,1551648146918,PRODUCED
Publisher_002,topicA,topicA-334,172.172.1.2:1883,1551648147018,PRODUCED
Publisher_002,topicA,topicA-335,172.172.1.2:1883,1551648147118,PRODUCED
Publisher_002,topicA,topicA-336,172.172.1.2:1883,1551648147218,PRODUCED
Publisher_002,topicA,topicA-337,172.172.1.2:1883,1551648147317,PRODUCED
Publisher_002,topicA,topicA-338,172.172.1.2:1883,1551648147418,PRODUCED
Publisher_002,topicA,topicA-339,172.172.1.2:1883,1551648147517,PRODUCED
Publisher_002,topicA,topicA-340,172.172.1.2:1883,1551648147618,PRODUCED
Publisher_002,topicA,topicA-341,172.172.1.2:1883,1551648147718,PRODUCED
Publisher_002,topicA,topicA-342,172.172.1.2:1883,1551648147817,PRODUCED
Publisher_002,topicA,topicA-343,172.172.1.2:1883,1551648147918,PRODUCED
Publisher_002,topicA,topicA-344,172.172.1.2:1883,1551648148017,PRODUCED
Publisher_002,topicA,topicA-345,172.172.1.2:1883,1551648148117,PRODUCED
Publisher_002,topicA,topicA-346,172.172.1.2:1883,1551648148218,PRODUCED
Publisher_002,topicA,topicA-347,172.172.1.2:1883,1551648148321,PRODUCED
Publisher_002,topicA,topicA-348,172.172.1.2:1883,1551648148417,PRODUCED
Publisher_002,topicA,topicA-349,172.172.1.2:1883,1551648148517,PRODUCED
Publisher_002,topicA,topicA-350,172.172.1.2:1883,1551648148617,PRODUCED
Publisher_002,topicA,topicA-351,172.172.1.2:1883,1551648148717,PRODUCED
Publisher_002,topicA,topicA-352,172.172.1.2:1883,1551648148817,PRODUCED
Publisher_002,topicA,topicA-353,172.172.1.2:1883,1551648148918,PRODUCED
Publisher_002,topicA,topicA-354,172.172.1.2:1883,1551648149021,PRODUCED
Publisher_002,topicA,topicA-355,172.172.1.2:1883,1551648149118,PRODUCED
Publisher_002,topicA,topicA-356,172.172.1.2:1883,1551648149219,PRODUCED
Publisher_002,topicA,topicA-357,172.172.1.2:1883,1551648149318,PRODUCED
Publisher_002,topicA,topicA-358,172.172.1.2:1883,1551648149418,PRODUCED
Publisher_002,topicA,topicA-359,172.172.1.2:1883,1551648149518,PRODUCED
Publisher_002,topicA,topicA-360,172.172.1.2:1883,1551648149624,PRODUCED
Publisher_002,topicA,topicA-361,172.172.1.2:1883,1551648149718,PRODUCED
Publisher_002,topicA,topicA-362,172.172.1.2:1883,1551648149818,PRODUCED
Publisher_002,topicA,topicA-363,172.172.1.2:1883,1551648149918,PRODUCED
Publisher_002,topicA,topicA-364,172.172.1.2:1883,1551648150020,PRODUCED
Publisher_002,topicA,topicA-365,172.172.1.2:1883,1551648150117,PRODUCED
Publisher_002,topicA,topicA-366,172.172.1.2:1883,1551648150217,PRODUCED
Publisher_002,topicA,topicA-367,172.172.1.2:1883,1551648150318,PRODUCED
Publisher_002,topicA,topicA-368,172.172.1.2:1883,1551648150417,PRODUCED
Publisher_002,topicA,topicA-369,172.172.1.2:1883,1551648150518,PRODUCED
Publisher_002,topicA,topicA-370,172.172.1.2:1883,1551648150617,PRODUCED
Publisher_002,topicA,topicA-371,172.172.1.2:1883,1551648150722,PRODUCED
Publisher_002,topicA,topicA-372,172.172.1.2:1883,1551648150819,PRODUCED
Publisher_002,topicA,topicA-373,172.172.1.2:1883,1551648150918,PRODUCED
Publisher_002,topicA,topicA-374,172.172.1.2:1883,1551648151018,PRODUCED
Publisher_002,topicA,topicA-375,172.172.1.2:1883,1551648151117,PRODUCED
Publisher_002,topicA,topicA-376,172.172.1.2:1883,1551648151220,PRODUCED
Publisher_002,topicA,topicA-377,172.172.1.2:1883,1551648151317,PRODUCED
Publisher_002,topicA,topicA-378,172.172.1.2:1883,1551648151418,PRODUCED
Publisher_002,topicA,topicA-379,172.172.1.2:1883,1551648151518,PRODUCED
Publisher_002,topicA,topicA-380,172.172.1.2:1883,1551648151618,PRODUCED
Publisher_002,topicA,topicA-381,172.172.1.2:1883,1551648151722,PRODUCED
Publisher_002,topicA,topicA-382,172.172.1.2:1883,1551648151822,PRODUCED
Publisher_002,topicA,topicA-383,172.172.1.2:1883,1551648151920,PRODUCED
Publisher_002,topicA,topicA-384,172.172.1.2:1883,1551648152022,PRODUCED
Publisher_002,topicA,topicA-385,172.172.1.2:1883,1551648152118,PRODUCED
Publisher_002,topicA,topicA-386,172.172.1.2:1883,1551648152217,PRODUCED
Publisher_002,topicA,topicA-387,172.172.1.2:1883,1551648152317,PRODUCED
Publisher_002,topicA,topicA-388,172.172.1.2:1883,1551648152418,PRODUCED
Publisher_002,topicA,topicA-389,172.172.1.2:1883,1551648152517,PRODUCED
Publisher_002,topicA,topicA-390,172.172.1.2:1883,1551648152617,PRODUCED
Publisher_002,topicA,topicA-391,172.172.1.2:1883,1551648152718,PRODUCED
Publisher_002,topicA,topicA-392,172.172.1.2:1883,1551648152818,PRODUCED
Publisher_002,topicA,topicA-393,172.172.1.2:1883,1551648152918,PRODUCED
Publisher_002,topicA,topicA-394,172.172.1.2:1883,1551648153017,PRODUCED
Publisher_002,topicA,topicA-395,172.172.1.2:1883,1551648153117,PRODUCED
Publisher_002,topicA,topicA-396,172.172.1.2:1883,1551648153218,PRODUCED
Publisher_002,topicA,topicA-397,172.172.1.2:1883,1551648153318,PRODUCED
Publisher_002,topicA,topicA-398,172.172.1.2:1883,1551648153417,PRODUCED
Publisher_002,topicA,topicA-399,172.172.1.2:1883,1551648153518,PRODUCED
Publisher_002,topicA,topicA-400,172.172.1.2:1883,1551648153617,PRODUCED
Publisher_002,topicA,topicA-401,172.172.1.2:1883,1551648153718,PRODUCED
Publisher_002,topicA,topicA-402,172.172.1.2:1883,1551648153818,PRODUCED
Publisher_002,topicA,topicA-403,172.172.1.2:1883,1551648153917,PRODUCED
Publisher_002,topicA,topicA-404,172.172.1.2:1883,1551648154018,PRODUCED
Publisher_002,topicA,topicA-405,172.172.1.2:1883,1551648154117,PRODUCED
Publisher_002,topicA,topicA-406,172.172.1.2:1883,1551648154218,PRODUCED
Publisher_002,topicA,topicA-407,172.172.1.2:1883,1551648154317,PRODUCED
Publisher_002,topicA,topicA-408,172.172.1.2:1883,1551648154417,PRODUCED
Publisher_002,topicA,topicA-409,172.172.1.2:1883,1551648154526,PRODUCED
Publisher_002,topicA,topicA-410,172.172.1.2:1883,1551648154617,PRODUCED
Publisher_002,topicA,topicA-411,172.172.1.2:1883,1551648154717,PRODUCED
Publisher_002,topicA,topicA-412,172.172.1.2:1883,1551648154817,PRODUCED
Publisher_002,topicA,topicA-413,172.172.1.2:1883,1551648154917,PRODUCED
Publisher_002,topicA,topicA-414,172.172.1.2:1883,1551648155017,PRODUCED
Publisher_002,topicA,topicA-415,172.172.1.2:1883,1551648155118,PRODUCED
Publisher_002,topicA,topicA-416,172.172.1.2:1883,1551648155218,PRODUCED
Publisher_002,topicA,topicA-417,172.172.1.2:1883,1551648155325,PRODUCED
Publisher_002,topicA,topicA-418,172.172.1.2:1883,1551648155418,PRODUCED
Publisher_002,topicA,topicA-419,172.172.1.2:1883,1551648155517,PRODUCED
Publisher_002,topicA,topicA-420,172.172.1.2:1883,1551648155617,PRODUCED
Publisher_002,topicA,topicA-421,172.172.1.2:1883,1551648155718,PRODUCED
Publisher_002,topicA,topicA-422,172.172.1.2:1883,1551648155819,PRODUCED
Publisher_002,topicA,topicA-423,172.172.1.2:1883,1551648155918,PRODUCED
Publisher_002,topicA,topicA-424,172.172.1.2:1883,1551648156017,PRODUCED
Publisher_002,topicA,topicA-425,172.172.1.2:1883,1551648156121,PRODUCED
Publisher_002,topicA,topicA-426,172.172.1.2:1883,1551648156217,PRODUCED
Publisher_002,topicA,topicA-427,172.172.1.2:1883,1551648156318,PRODUCED
Publisher_002,topicA,topicA-428,172.172.1.2:1883,1551648156424,PRODUCED
Publisher_002,topicA,topicA-429,172.172.1.2:1883,1551648156518,PRODUCED
Publisher_002,topicA,topicA-430,172.172.1.2:1883,1551648156617,PRODUCED
Publisher_002,topicA,topicA-431,172.172.1.2:1883,1551648156717,PRODUCED
Publisher_002,topicA,topicA-432,172.172.1.2:1883,1551648156818,PRODUCED
Publisher_002,topicA,topicA-433,172.172.1.2:1883,1551648156918,PRODUCED
Publisher_002,topicA,topicA-434,172.172.1.2:1883,1551648157018,PRODUCED
Publisher_002,topicA,topicA-435,172.172.1.2:1883,1551648157124,PRODUCED
Publisher_002,topicA,topicA-436,172.172.1.2:1883,1551648157218,PRODUCED
Publisher_002,topicA,topicA-437,172.172.1.2:1883,1551648157318,PRODUCED
Publisher_002,topicA,topicA-438,172.172.1.2:1883,1551648157418,PRODUCED
Publisher_002,topicA,topicA-439,172.172.1.2:1883,1551648157517,PRODUCED
Publisher_002,topicA,topicA-440,172.172.1.2:1883,1551648157619,PRODUCED
Publisher_002,topicA,topicA-441,172.172.1.2:1883,1551648157724,PRODUCED
Publisher_002,topicA,topicA-442,172.172.1.2:1883,1551648157818,PRODUCED
Publisher_002,topicA,topicA-443,172.172.1.2:1883,1551648157917,PRODUCED
Publisher_002,topicA,topicA-444,172.172.1.2:1883,1551648158018,PRODUCED
Publisher_002,topicA,topicA-445,172.172.1.2:1883,1551648158118,PRODUCED
Publisher_002,topicA,topicA-446,172.172.1.2:1883,1551648158217,PRODUCED
Publisher_002,topicA,topicA-447,172.172.1.2:1883,1551648158318,PRODUCED
Publisher_002,topicA,topicA-448,172.172.1.2:1883,1551648158418,PRODUCED
Publisher_002,topicA,topicA-449,172.172.1.2:1883,1551648158520,PRODUCED
Publisher_002,topicA,topicA-450,172.172.1.2:1883,1551648158620,PRODUCED
Publisher_002,topicA,topicA-451,172.172.1.2:1883,1551648158718,PRODUCED
Publisher_002,topicA,topicA-452,172.172.1.2:1883,1551648158818,PRODUCED
Publisher_002,topicA,topicA-453,172.172.1.2:1883,1551648158920,PRODUCED
Publisher_002,topicA,topicA-454,172.172.1.2:1883,1551648159018,PRODUCED
Publisher_002,topicA,topicA-455,172.172.1.2:1883,1551648159118,PRODUCED
Publisher_002,topicA,topicA-456,172.172.1.2:1883,1551648159220,PRODUCED
Publisher_002,topicA,topicA-457,172.172.1.2:1883,1551648159318,PRODUCED
Publisher_002,topicA,topicA-458,172.172.1.2:1883,1551648159421,PRODUCED
Publisher_002,topicA,topicA-459,172.172.1.2:1883,1551648159524,PRODUCED
Publisher_002,topicA,topicA-460,172.172.1.2:1883,1551648159620,PRODUCED
Publisher_002,topicA,topicA-461,172.172.1.2:1883,1551648159717,PRODUCED
Publisher_002,topicA,topicA-462,172.172.1.2:1883,1551648159818,PRODUCED
Publisher_002,topicA,topicA-463,172.172.1.2:1883,1551648159918,PRODUCED
Publisher_002,topicA,topicA-464,172.172.1.2:1883,1551648160017,PRODUCED
Publisher_002,topicA,topicA-465,172.172.1.2:1883,1551648160118,PRODUCED
Publisher_002,topicA,topicA-466,172.172.1.2:1883,1551648160217,PRODUCED
Publisher_002,topicA,topicA-467,172.172.1.2:1883,1551648160318,PRODUCED
Publisher_002,topicA,topicA-468,172.172.1.2:1883,1551648160418,PRODUCED
Publisher_002,topicA,topicA-469,172.172.1.2:1883,1551648160518,PRODUCED
Publisher_002,topicA,topicA-470,172.172.1.2:1883,1551648160618,PRODUCED
Publisher_002,topicA,topicA-471,172.172.1.2:1883,1551648160717,PRODUCED
Publisher_002,topicA,topicA-472,172.172.1.2:1883,1551648160817,PRODUCED
Publisher_002,topicA,topicA-473,172.172.1.2:1883,1551648160918,PRODUCED
Publisher_002,topicA,topicA-474,172.172.1.2:1883,1551648161017,PRODUCED
Publisher_002,topicA,topicA-475,172.172.1.2:1883,1551648161117,PRODUCED
Publisher_002,topicA,topicA-476,172.172.1.2:1883,1551648161223,PRODUCED
Publisher_002,topicA,topicA-477,172.172.1.2:1883,1551648161329,PRODUCED
Publisher_002,topicA,topicA-478,172.172.1.2:1883,1551648161418,PRODUCED
Publisher_002,topicA,topicA-479,172.172.1.2:1883,1551648161517,PRODUCED
Publisher_002,topicA,topicA-480,172.172.1.2:1883,1551648161618,PRODUCED
Publisher_002,topicA,topicA-481,172.172.1.2:1883,1551648161718,PRODUCED
Publisher_002,topicA,topicA-482,172.172.1.2:1883,1551648161818,PRODUCED
Publisher_002,topicA,topicA-483,172.172.1.2:1883,1551648161918,PRODUCED
Publisher_002,topicA,topicA-484,172.172.1.2:1883,1551648162017,PRODUCED
Publisher_002,topicA,topicA-485,172.172.1.2:1883,1551648162118,PRODUCED
Publisher_002,topicA,topicA-486,172.172.1.2:1883,1551648162218,PRODUCED
Publisher_002,topicA,topicA-487,172.172.1.2:1883,1551648162318,PRODUCED
Publisher_002,topicA,topicA-488,172.172.1.2:1883,1551648162418,PRODUCED
Publisher_002,topicA,topicA-489,172.172.1.2:1883,1551648162522,PRODUCED
Publisher_002,topicA,topicA-490,172.172.1.2:1883,1551648162618,PRODUCED
Publisher_002,topicA,topicA-491,172.172.1.2:1883,1551648162717,PRODUCED
Publisher_002,topicA,topicA-492,172.172.1.2:1883,1551648162818,PRODUCED
Publisher_002,topicA,topicA-493,172.172.1.2:1883,1551648162917,PRODUCED
Publisher_002,topicA,topicA-494,172.172.1.2:1883,1551648163017,PRODUCED
Publisher_002,topicA,topicA-495,172.172.1.2:1883,1551648163118,PRODUCED
Publisher_002,topicA,topicA-496,172.172.1.2:1883,1551648163218,PRODUCED
Publisher_002,topicA,topicA-497,172.172.1.2:1883,1551648163318,PRODUCED
Publisher_002,topicA,topicA-498,172.172.1.2:1883,1551648163418,PRODUCED
Publisher_002,topicA,topicA-499,172.172.1.2:1883,1551648163518,PRODUCED
Publisher_002,topicA,topicA-500,172.172.1.2:1883,1551648163618,PRODUCED
Publisher_002,topicA,topicA-501,172.172.1.2:1883,1551648163717,PRODUCED
Publisher_002,topicA,topicA-502,172.172.1.2:1883,1551648163818,PRODUCED
Publisher_002,topicA,topicA-503,172.172.1.2:1883,1551648163917,PRODUCED
Publisher_002,topicA,topicA-504,172.172.1.2:1883,1551648164018,PRODUCED
Publisher_002,topicA,topicA-505,172.172.1.2:1883,1551648164123,PRODUCED
Publisher_002,topicA,topicA-506,172.172.1.2:1883,1551648164217,PRODUCED
Publisher_002,topicA,topicA-507,172.172.1.2:1883,1551648164318,PRODUCED
Publisher_002,topicA,topicA-508,172.172.1.2:1883,1551648164419,PRODUCED
Publisher_002,topicA,topicA-509,172.172.1.2:1883,1551648164518,PRODUCED
Publisher_002,topicA,topicA-510,172.172.1.2:1883,1551648164617,PRODUCED
Publisher_002,topicA,topicA-511,172.172.1.2:1883,1551648164718,PRODUCED
Publisher_002,topicA,topicA-512,172.172.1.2:1883,1551648164818,PRODUCED
Publisher_002,topicA,topicA-513,172.172.1.2:1883,1551648164918,PRODUCED
Publisher_002,topicA,topicA-514,172.172.1.2:1883,1551648165018,PRODUCED
Publisher_002,topicA,topicA-515,172.172.1.2:1883,1551648165117,PRODUCED
Publisher_002,topicA,topicA-516,172.172.1.2:1883,1551648165221,PRODUCED
Publisher_002,topicA,topicA-517,172.172.1.2:1883,1551648165317,PRODUCED
Publisher_002,topicA,topicA-518,172.172.1.2:1883,1551648165418,PRODUCED
Publisher_002,topicA,topicA-519,172.172.1.2:1883,1551648165524,PRODUCED
Publisher_002,topicA,topicA-520,172.172.1.2:1883,1551648165618,PRODUCED
Publisher_002,topicA,topicA-521,172.172.1.2:1883,1551648165721,PRODUCED
Publisher_002,topicA,topicA-522,172.172.1.2:1883,1551648165819,PRODUCED
Publisher_002,topicA,topicA-523,172.172.1.2:1883,1551648165919,PRODUCED
Publisher_002,topicA,topicA-524,172.172.1.2:1883,1551648166017,PRODUCED
Publisher_002,topicA,topicA-525,172.172.1.2:1883,1551648166118,PRODUCED
Publisher_002,topicA,topicA-526,172.172.1.2:1883,1551648166218,PRODUCED
Publisher_002,topicA,topicA-527,172.172.1.2:1883,1551648166318,PRODUCED
Publisher_002,topicA,topicA-528,172.172.1.2:1883,1551648166418,PRODUCED
Publisher_002,topicA,topicA-529,172.172.1.2:1883,1551648166519,PRODUCED
Publisher_002,topicA,topicA-530,172.172.1.2:1883,1551648166618,PRODUCED
Publisher_002,topicA,topicA-531,172.172.1.2:1883,1551648166717,PRODUCED
Publisher_002,topicA,topicA-532,172.172.1.2:1883,1551648166818,PRODUCED
Publisher_002,topicA,topicA-533,172.172.1.2:1883,1551648166917,PRODUCED
Publisher_002,topicA,topicA-534,172.172.1.2:1883,1551648167017,PRODUCED
Publisher_002,topicA,topicA-535,172.172.1.2:1883,1551648167118,PRODUCED
Publisher_002,topicA,topicA-536,172.172.1.2:1883,1551648167218,PRODUCED
Publisher_002,topicA,topicA-537,172.172.1.2:1883,1551648167318,PRODUCED
Publisher_002,topicA,topicA-538,172.172.1.2:1883,1551648167417,PRODUCED
Publisher_002,topicA,topicA-539,172.172.1.2:1883,1551648167518,PRODUCED
Publisher_002,topicA,topicA-540,172.172.1.2:1883,1551648167617,PRODUCED
Publisher_002,topicA,topicA-541,172.172.1.2:1883,1551648167726,PRODUCED
Publisher_002,topicA,topicA-542,172.172.1.2:1883,1551648167822,PRODUCED
Publisher_002,topicA,topicA-543,172.172.1.2:1883,1551648167918,PRODUCED
Publisher_002,topicA,topicA-544,172.172.1.2:1883,1551648168020,PRODUCED
Publisher_002,topicA,topicA-545,172.172.1.2:1883,1551648168124,PRODUCED
Publisher_002,topicA,topicA-546,172.172.1.2:1883,1551648168218,PRODUCED
Publisher_002,topicA,topicA-547,172.172.1.2:1883,1551648168321,PRODUCED
Publisher_002,topicA,topicA-548,172.172.1.2:1883,1551648168424,PRODUCED
Publisher_002,topicA,topicA-549,172.172.1.2:1883,1551648168520,PRODUCED
Publisher_002,topicA,topicA-550,172.172.1.2:1883,1551648168620,PRODUCED
Publisher_002,topicA,topicA-551,172.172.1.2:1883,1551648168718,PRODUCED
Publisher_002,topicA,topicA-552,172.172.1.2:1883,1551648168818,PRODUCED
Publisher_002,topicA,topicA-553,172.172.1.2:1883,1551648168924,PRODUCED
Publisher_002,topicA,topicA-554,172.172.1.2:1883,1551648169018,PRODUCED
Publisher_002,topicA,topicA-555,172.172.1.2:1883,1551648169122,PRODUCED
Publisher_002,topicA,topicA-556,172.172.1.2:1883,1551648169219,PRODUCED
Publisher_002,topicA,topicA-557,172.172.1.2:1883,1551648169318,PRODUCED
Publisher_002,topicA,topicA-558,172.172.1.2:1883,1551648169418,PRODUCED
Publisher_002,topicA,topicA-559,172.172.1.2:1883,1551648169518,PRODUCED
Publisher_002,topicA,topicA-560,172.172.1.2:1883,1551648169618,PRODUCED
Publisher_002,topicA,topicA-561,172.172.1.2:1883,1551648169718,PRODUCED
Publisher_002,topicA,topicA-562,172.172.1.2:1883,1551648169818,PRODUCED
Publisher_002,topicA,topicA-563,172.172.1.2:1883,1551648169921,PRODUCED
Publisher_002,topicA,topicA-564,172.172.1.2:1883,1551648170019,PRODUCED
Publisher_002,topicA,topicA-565,172.172.1.2:1883,1551648170118,PRODUCED
Publisher_002,topicA,topicA-566,172.172.1.2:1883,1551648170219,PRODUCED
Publisher_002,topicA,topicA-567,172.172.1.2:1883,1551648170317,PRODUCED
Publisher_002,topicA,topicA-568,172.172.1.2:1883,1551648170418,PRODUCED
Publisher_002,topicA,topicA-569,172.172.1.2:1883,1551648170522,PRODUCED
Publisher_002,topicA,topicA-570,172.172.1.2:1883,1551648170617,PRODUCED
Publisher_002,topicA,topicA-571,172.172.1.2:1883,1551648170718,PRODUCED
Publisher_002,topicA,topicA-572,172.172.1.2:1883,1551648170817,PRODUCED
Publisher_002,topicA,topicA-573,172.172.1.2:1883,1551648170918,PRODUCED
Publisher_002,topicA,topicA-574,172.172.1.2:1883,1551648171018,PRODUCED
Publisher_002,topicA,topicA-575,172.172.1.2:1883,1551648171117,PRODUCED
Publisher_002,topicA,topicA-576,172.172.1.2:1883,1551648171219,PRODUCED
Publisher_002,topicA,topicA-577,172.172.1.2:1883,1551648171319,PRODUCED
Publisher_002,topicA,topicA-578,172.172.1.2:1883,1551648171419,PRODUCED
Publisher_002,topicA,topicA-579,172.172.1.2:1883,1551648171517,PRODUCED
Publisher_002,topicA,topicA-580,172.172.1.2:1883,1551648171618,PRODUCED
Publisher_002,topicA,topicA-581,172.172.1.2:1883,1551648171718,PRODUCED
Publisher_002,topicA,topicA-582,172.172.1.2:1883,1551648171818,PRODUCED
Publisher_002,topicA,topicA-583,172.172.1.2:1883,1551648171918,PRODUCED
Publisher_002,topicA,topicA-584,172.172.1.2:1883,1551648172017,PRODUCED
Publisher_002,topicA,topicA-585,172.172.1.2:1883,1551648172118,PRODUCED
Publisher_002,topicA,topicA-586,172.172.1.2:1883,1551648172218,PRODUCED
Publisher_002,topicA,topicA-587,172.172.1.2:1883,1551648172317,PRODUCED
Publisher_002,topicA,topicA-588,172.172.1.2:1883,1551648172418,PRODUCED
Publisher_002,topicA,topicA-589,172.172.1.2:1883,1551648172517,PRODUCED
Publisher_002,topicA,topicA-590,172.172.1.2:1883,1551648172619,PRODUCED
Publisher_002,topicA,topicA-591,172.172.1.2:1883,1551648172718,PRODUCED
Publisher_002,topicA,topicA-592,172.172.1.2:1883,1551648172817,PRODUCED
Publisher_002,topicA,topicA-593,172.172.1.2:1883,1551648172919,PRODUCED
Publisher_002,topicA,topicA-594,172.172.1.2:1883,1551648173018,PRODUCED
Publisher_002,topicA,topicA-595,172.172.1.2:1883,1551648173118,PRODUCED
Publisher_002,topicA,topicA-596,172.172.1.2:1883,1551648173218,PRODUCED
Publisher_002,topicA,topicA-597,172.172.1.2:1883,1551648173318,PRODUCED
Publisher_002,topicA,topicA-598,172.172.1.2:1883,1551648173417,PRODUCED
Publisher_002,topicA,topicA-599,172.172.1.2:1883,1551648173517,PRODUCED
Publisher_002,topicA,topicA-600,172.172.1.2:1883,1551648173618,PRODUCED
Publisher_002,topicA,topicA-601,172.172.1.2:1883,1551648173718,PRODUCED
Publisher_002,topicA,topicA-602,172.172.1.2:1883,1551648173817,PRODUCED
Publisher_002,topicA,topicA-603,172.172.1.2:1883,1551648173917,PRODUCED
Publisher_002,topicA,topicA-604,172.172.1.2:1883,1551648174023,PRODUCED
Publisher_002,topicA,topicA-605,172.172.1.2:1883,1551648174118,PRODUCED
Publisher_002,topicA,topicA-606,172.172.1.2:1883,1551648174218,PRODUCED
Publisher_002,topicA,topicA-607,172.172.1.2:1883,1551648174318,PRODUCED
Publisher_002,topicA,topicA-608,172.172.1.2:1883,1551648174418,PRODUCED
Publisher_002,topicA,topicA-609,172.172.1.2:1883,1551648174518,PRODUCED
Publisher_002,topicA,topicA-610,172.172.1.2:1883,1551648174617,PRODUCED
Publisher_002,topicA,topicA-611,172.172.1.2:1883,1551648174718,PRODUCED
Publisher_002,topicA,topicA-612,172.172.1.2:1883,1551648174818,PRODUCED
Publisher_002,topicA,topicA-613,172.172.1.2:1883,1551648174918,PRODUCED
Publisher_002,topicA,topicA-614,172.172.1.2:1883,1551648175018,PRODUCED
Publisher_002,topicA,topicA-615,172.172.1.2:1883,1551648175117,PRODUCED
Publisher_002,topicA,topicA-616,172.172.1.2:1883,1551648175218,PRODUCED
Publisher_002,topicA,topicA-617,172.172.1.2:1883,1551648175318,PRODUCED
Publisher_002,topicA,topicA-618,172.172.1.2:1883,1551648175418,PRODUCED
Publisher_002,topicA,topicA-619,172.172.1.2:1883,1551648175518,PRODUCED
Publisher_002,topicA,topicA-620,172.172.1.2:1883,1551648175618,PRODUCED
Publisher_002,topicA,topicA-621,172.172.1.2:1883,1551648175718,PRODUCED
Publisher_002,topicA,topicA-622,172.172.1.2:1883,1551648175818,PRODUCED
Publisher_002,topicA,topicA-623,172.172.1.2:1883,1551648175918,PRODUCED
Publisher_002,topicA,topicA-624,172.172.1.2:1883,1551648176018,PRODUCED
Publisher_002,topicA,topicA-625,172.172.1.2:1883,1551648176117,PRODUCED
Publisher_002,topicA,topicA-626,172.172.1.2:1883,1551648176218,PRODUCED
Publisher_002,topicA,topicA-627,172.172.1.2:1883,1551648176318,PRODUCED
Publisher_002,topicA,topicA-628,172.172.1.2:1883,1551648176418,PRODUCED
Publisher_002,topicA,topicA-629,172.172.1.2:1883,1551648176518,PRODUCED
Publisher_002,topicA,topicA-630,172.172.1.2:1883,1551648176619,PRODUCED
Publisher_002,topicA,topicA-631,172.172.1.2:1883,1551648176718,PRODUCED
Publisher_002,topicA,topicA-632,172.172.1.2:1883,1551648176818,PRODUCED
Publisher_002,topicA,topicA-633,172.172.1.2:1883,1551648176919,PRODUCED
Publisher_002,topicA,topicA-634,172.172.1.2:1883,1551648177018,PRODUCED
Publisher_002,topicA,topicA-635,172.172.1.2:1883,1551648177119,PRODUCED
Publisher_002,topicA,topicA-636,172.172.1.2:1883,1551648177218,PRODUCED
Publisher_002,topicA,topicA-637,172.172.1.2:1883,1551648177318,PRODUCED
Publisher_002,topicA,topicA-638,172.172.1.2:1883,1551648177418,PRODUCED
Publisher_002,topicA,topicA-639,172.172.1.2:1883,1551648177517,PRODUCED
Publisher_002,topicA,topicA-640,172.172.1.2:1883,1551648177618,PRODUCED
Publisher_002,topicA,topicA-641,172.172.1.2:1883,1551648177718,PRODUCED
Publisher_002,topicA,topicA-642,172.172.1.2:1883,1551648177818,PRODUCED
Publisher_002,topicA,topicA-643,172.172.1.2:1883,1551648177918,PRODUCED
Publisher_002,topicA,topicA-644,172.172.1.2:1883,1551648178021,PRODUCED
Publisher_002,topicA,topicA-645,172.172.1.2:1883,1551648178118,PRODUCED
Publisher_002,topicA,topicA-646,172.172.1.2:1883,1551648178218,PRODUCED
Publisher_002,topicA,topicA-647,172.172.1.2:1883,1551648178318,PRODUCED
Publisher_002,topicA,topicA-648,172.172.1.2:1883,1551648178417,PRODUCED
Publisher_002,topicA,topicA-649,172.172.1.2:1883,1551648178517,PRODUCED
Publisher_002,topicA,topicA-650,172.172.1.2:1883,1551648178618,PRODUCED
Publisher_002,topicA,topicA-651,172.172.1.2:1883,1551648178717,PRODUCED
Publisher_002,topicA,topicA-652,172.172.1.2:1883,1551648178819,PRODUCED
Publisher_002,topicA,topicA-653,172.172.1.2:1883,1551648178918,PRODUCED
Publisher_002,topicA,topicA-654,172.172.1.2:1883,1551648179018,PRODUCED
Publisher_002,topicA,topicA-655,172.172.1.2:1883,1551648179117,PRODUCED
Publisher_002,topicA,topicA-656,172.172.1.2:1883,1551648179220,PRODUCED
Publisher_002,topicA,topicA-657,172.172.1.2:1883,1551648179317,PRODUCED
Publisher_002,topicA,topicA-658,172.172.1.2:1883,1551648179419,PRODUCED
Publisher_002,topicA,topicA-659,172.172.1.2:1883,1551648179518,PRODUCED
Publisher_002,topicA,topicA-660,172.172.1.2:1883,1551648179618,PRODUCED
Publisher_002,topicA,topicA-661,172.172.1.2:1883,1551648179718,PRODUCED
