timestamp,event,migrationId
1551649948493,INITIALIZED,870e9c59-b9a7-4868-b6b4-30ed889464d2
1551649948501,topicA-INITIALIZED,870e9c59-b9a7-4868-b6b4-30ed889464d2
1551649948783,topicA-SYNCING,870e9c59-b9a7-4868-b6b4-30ed889464d2
1551649948785,SYNCING,870e9c59-b9a7-4868-b6b4-30ed889464d2
1551649948787,topicA-SYNCING_OPPONENT,870e9c59-b9a7-4868-b6b4-30ed889464d2
1551649950755,topicA-SYNCED,870e9c59-b9a7-4868-b6b4-30ed889464d2
1551649950755,SYNCED,870e9c59-b9a7-4868-b6b4-30ed889464d2
1551649950760,topicA-FINISHED,870e9c59-b9a7-4868-b6b4-30ed889464d2
1551649950763,FINISHED,870e9c59-b9a7-4868-b6b4-30ed889464d2
