clientId,topic,guid,broker,timestamp,type
Publisher_001,topicA,topicA-1,172.172.1.1:1883,1551658664862,PRODUCED
Publisher_001,topicA,topicA-2,172.172.1.1:1883,1551658665089,PRODUCED
Publisher_001,topicA,topicA-3,172.172.1.1:1883,1551658665094,PRODUCED
Publisher_001,topicA,topicA-4,172.172.1.1:1883,1551658665099,PRODUCED
Publisher_001,topicA,topicA-5,172.172.1.1:1883,1551658665103,PRODUCED
Publisher_001,topicA,topicA-6,172.172.1.1:1883,1551658665171,PRODUCED
Publisher_001,topicA,topicA-7,172.172.1.1:1883,1551658665271,PRODUCED
Publisher_001,topicA,topicA-8,172.172.1.1:1883,1551658665372,PRODUCED
Publisher_001,topicA,topicA-9,172.172.1.1:1883,1551658665473,PRODUCED
Publisher_001,topicA,topicA-10,172.172.1.1:1883,1551658665572,PRODUCED
Publisher_001,topicA,topicA-11,172.172.1.1:1883,1551658665672,PRODUCED
Publisher_001,topicA,topicA-12,172.172.1.1:1883,1551658665775,PRODUCED
Publisher_001,topicA,topicA-13,172.172.1.1:1883,1551658665875,PRODUCED
Publisher_001,topicA,topicA-14,172.172.1.1:1883,1551658665977,PRODUCED
Publisher_001,topicA,topicA-15,172.172.1.1:1883,1551658666073,PRODUCED
Publisher_001,topicA,topicA-16,172.172.1.1:1883,1551658666173,PRODUCED
Publisher_001,topicA,topicA-17,172.172.1.1:1883,1551658666273,PRODUCED
Publisher_001,topicA,topicA-18,172.172.1.1:1883,1551658666372,PRODUCED
Publisher_001,topicA,topicA-19,172.172.1.1:1883,1551658666473,PRODUCED
Publisher_001,topicA,topicA-20,172.172.1.1:1883,1551658666576,PRODUCED
Publisher_001,topicA,topicA-21,172.172.1.1:1883,1551658666673,PRODUCED
Publisher_001,topicA,topicA-22,172.172.1.1:1883,1551658666771,PRODUCED
Publisher_001,topicA,topicA-23,172.172.1.1:1883,1551658666871,PRODUCED
Publisher_001,topicA,topicA-24,172.172.1.1:1883,1551658666971,PRODUCED
Publisher_001,topicA,topicA-25,172.172.1.1:1883,1551658667072,PRODUCED
Publisher_001,topicA,topicA-26,172.172.1.1:1883,1551658667172,PRODUCED
Publisher_001,topicA,topicA-27,172.172.1.1:1883,1551658667271,PRODUCED
Publisher_001,topicA,topicA-28,172.172.1.1:1883,1551658667371,PRODUCED
Publisher_001,topicA,topicA-29,172.172.1.1:1883,1551658667476,PRODUCED
Publisher_001,topicA,topicA-30,172.172.1.1:1883,1551658667573,PRODUCED
Publisher_001,topicA,topicA-31,172.172.1.1:1883,1551658667673,PRODUCED
Publisher_001,topicA,topicA-32,172.172.1.1:1883,1551658667772,PRODUCED
Publisher_001,topicA,topicA-33,172.172.1.1:1883,1551658667872,PRODUCED
Publisher_001,topicA,topicA-34,172.172.1.1:1883,1551658667972,PRODUCED
Publisher_001,topicA,topicA-35,172.172.1.1:1883,1551658668072,PRODUCED
Publisher_001,topicA,topicA-36,172.172.1.1:1883,1551658668172,PRODUCED
Publisher_001,topicA,topicA-37,172.172.1.1:1883,1551658668272,PRODUCED
Publisher_001,topicA,topicA-38,172.172.1.1:1883,1551658668372,PRODUCED
Publisher_001,topicA,topicA-39,172.172.1.1:1883,1551658668475,PRODUCED
Publisher_001,topicA,topicA-40,172.172.1.1:1883,1551658668572,PRODUCED
Publisher_001,topicA,topicA-41,172.172.1.1:1883,1551658668672,PRODUCED
Publisher_001,topicA,topicA-42,172.172.1.1:1883,1551658668772,PRODUCED
Publisher_001,topicA,topicA-43,172.172.1.1:1883,1551658668873,PRODUCED
Publisher_001,topicA,topicA-44,172.172.1.1:1883,1551658668981,PRODUCED
Publisher_001,topicA,topicA-45,172.172.1.1:1883,1551658669071,PRODUCED
Publisher_001,topicA,topicA-46,172.172.1.1:1883,1551658669173,PRODUCED
Publisher_001,topicA,topicA-47,172.172.1.1:1883,1551658669272,PRODUCED
Publisher_001,topicA,topicA-48,172.172.1.1:1883,1551658669372,PRODUCED
Publisher_001,topicA,topicA-49,172.172.1.1:1883,1551658669472,PRODUCED
Publisher_001,topicA,topicA-50,172.172.1.1:1883,1551658669571,PRODUCED
Publisher_001,topicA,topicA-51,172.172.1.1:1883,1551658669675,PRODUCED
Publisher_001,topicA,topicA-52,172.172.1.1:1883,1551658669771,PRODUCED
Publisher_001,topicA,topicA-53,172.172.1.1:1883,1551658669872,PRODUCED
Publisher_001,topicA,topicA-54,172.172.1.1:1883,1551658669972,PRODUCED
Publisher_001,topicA,topicA-55,172.172.1.1:1883,1551658670072,PRODUCED
Publisher_001,topicA,topicA-56,172.172.1.1:1883,1551658670173,PRODUCED
Publisher_001,topicA,topicA-57,172.172.1.1:1883,1551658670272,PRODUCED
Publisher_001,topicA,topicA-58,172.172.1.1:1883,1551658670372,PRODUCED
Publisher_001,topicA,topicA-59,172.172.1.1:1883,1551658670471,PRODUCED
Publisher_001,topicA,topicA-60,172.172.1.1:1883,1551658670572,PRODUCED
Publisher_001,topicA,topicA-61,172.172.1.1:1883,1551658670673,PRODUCED
Publisher_001,topicA,topicA-62,172.172.1.1:1883,1551658670772,PRODUCED
Publisher_001,topicA,topicA-63,172.172.1.1:1883,1551658670877,PRODUCED
Publisher_001,topicA,topicA-64,172.172.1.1:1883,1551658670972,PRODUCED
Publisher_001,topicA,topicA-65,172.172.1.1:1883,1551658671072,PRODUCED
Publisher_001,topicA,topicA-66,172.172.1.1:1883,1551658671173,PRODUCED
Publisher_001,topicA,topicA-67,172.172.1.1:1883,1551658671271,PRODUCED
Publisher_001,topicA,topicA-68,172.172.1.1:1883,1551658671371,PRODUCED
Publisher_001,topicA,topicA-69,172.172.1.1:1883,1551658671474,PRODUCED
Publisher_001,topicA,topicA-70,172.172.1.1:1883,1551658671573,PRODUCED
Publisher_001,topicA,topicA-71,172.172.1.1:1883,1551658671675,PRODUCED
Publisher_001,topicA,topicA-72,172.172.1.1:1883,1551658671772,PRODUCED
Publisher_001,topicA,topicA-73,172.172.1.1:1883,1551658671873,PRODUCED
Publisher_001,topicA,topicA-74,172.172.1.1:1883,1551658671972,PRODUCED
Publisher_001,topicA,topicA-75,172.172.1.1:1883,1551658672080,PRODUCED
Publisher_001,topicA,topicA-76,172.172.1.1:1883,1551658672172,PRODUCED
Publisher_001,topicA,topicA-77,172.172.1.1:1883,1551658672272,PRODUCED
Publisher_001,topicA,topicA-78,172.172.1.1:1883,1551658672372,PRODUCED
Publisher_001,topicA,topicA-79,172.172.1.1:1883,1551658672472,PRODUCED
Publisher_001,topicA,topicA-80,172.172.1.1:1883,1551658672572,PRODUCED
Publisher_001,topicA,topicA-81,172.172.1.1:1883,1551658672672,PRODUCED
Publisher_001,topicA,topicA-82,172.172.1.1:1883,1551658672772,PRODUCED
Publisher_001,topicA,topicA-83,172.172.1.1:1883,1551658672872,PRODUCED
Publisher_001,topicA,topicA-84,172.172.1.1:1883,1551658672972,PRODUCED
Publisher_001,topicA,topicA-85,172.172.1.1:1883,1551658673071,PRODUCED
Publisher_001,topicA,topicA-86,172.172.1.1:1883,1551658673172,PRODUCED
Publisher_001,topicA,topicA-87,172.172.1.1:1883,1551658673273,PRODUCED
Publisher_001,topicA,topicA-88,172.172.1.1:1883,1551658673373,PRODUCED
Publisher_001,topicA,topicA-89,172.172.1.1:1883,1551658673472,PRODUCED
Publisher_001,topicA,topicA-90,172.172.1.1:1883,1551658673576,PRODUCED
Publisher_001,topicA,topicA-91,172.172.1.1:1883,1551658673672,PRODUCED
Publisher_001,topicA,topicA-92,172.172.1.1:1883,1551658673772,PRODUCED
Publisher_001,topicA,topicA-93,172.172.1.1:1883,1551658673872,PRODUCED
Publisher_001,topicA,topicA-94,172.172.1.1:1883,1551658673971,PRODUCED
Publisher_001,topicA,topicA-95,172.172.1.1:1883,1551658674074,PRODUCED
Publisher_001,topicA,topicA-96,172.172.1.1:1883,1551658674172,PRODUCED
Publisher_001,topicA,topicA-97,172.172.1.1:1883,1551658674274,PRODUCED
Publisher_001,topicA,topicA-98,172.172.1.1:1883,1551658674372,PRODUCED
Publisher_001,topicA,topicA-99,172.172.1.1:1883,1551658674472,PRODUCED
Publisher_001,topicA,topicA-100,172.172.1.1:1883,1551658674572,PRODUCED
Publisher_001,topicA,topicA-101,172.172.1.1:1883,1551658674672,PRODUCED
Publisher_001,topicA,topicA-102,172.172.1.1:1883,1551658674772,PRODUCED
Publisher_001,topicA,topicA-103,172.172.1.1:1883,1551658674872,PRODUCED
Publisher_001,topicA,topicA-104,172.172.1.1:1883,1551658674975,PRODUCED
Publisher_001,topicA,topicA-105,172.172.1.1:1883,1551658675072,PRODUCED
Publisher_001,topicA,topicA-106,172.172.1.1:1883,1551658675172,PRODUCED
Publisher_001,topicA,topicA-107,172.172.1.1:1883,1551658675272,PRODUCED
Publisher_001,topicA,topicA-108,172.172.1.1:1883,1551658675371,PRODUCED
Publisher_001,topicA,topicA-109,172.172.1.1:1883,1551658675472,PRODUCED
Publisher_001,topicA,topicA-110,172.172.1.1:1883,1551658675571,PRODUCED
Publisher_001,topicA,topicA-111,172.172.1.1:1883,1551658675672,PRODUCED
Publisher_001,topicA,topicA-112,172.172.1.1:1883,1551658675771,PRODUCED
Publisher_001,topicA,topicA-113,172.172.1.1:1883,1551658675876,PRODUCED
Publisher_001,topicA,topicA-114,172.172.1.1:1883,1551658675972,PRODUCED
Publisher_001,topicA,topicA-115,172.172.1.1:1883,1551658676072,PRODUCED
Publisher_001,topicA,topicA-116,172.172.1.1:1883,1551658676172,PRODUCED
Publisher_001,topicA,topicA-117,172.172.1.1:1883,1551658676272,PRODUCED
Publisher_001,topicA,topicA-118,172.172.1.1:1883,1551658676376,PRODUCED
Publisher_001,topicA,topicA-119,172.172.1.1:1883,1551658676472,PRODUCED
Publisher_001,topicA,topicA-120,172.172.1.1:1883,1551658676573,PRODUCED
Publisher_001,topicA,topicA-121,172.172.1.1:1883,1551658676672,PRODUCED
Publisher_001,topicA,topicA-122,172.172.1.1:1883,1551658676773,PRODUCED
Publisher_001,topicA,topicA-123,172.172.1.1:1883,1551658676875,PRODUCED
Publisher_001,topicA,topicA-124,172.172.1.1:1883,1551658676972,PRODUCED
Publisher_001,topicA,topicA-125,172.172.1.1:1883,1551658677073,PRODUCED
Publisher_001,topicA,topicA-126,172.172.1.1:1883,1551658677173,PRODUCED
Publisher_001,topicA,topicA-127,172.172.1.1:1883,1551658677273,PRODUCED
Publisher_001,topicA,topicA-128,172.172.1.1:1883,1551658677373,PRODUCED
Publisher_001,topicA,topicA-129,172.172.1.1:1883,1551658677472,PRODUCED
Publisher_001,topicA,topicA-130,172.172.1.1:1883,1551658677576,PRODUCED
Publisher_001,topicA,topicA-131,172.172.1.1:1883,1551658677672,PRODUCED
Publisher_001,topicA,topicA-132,172.172.1.1:1883,1551658677777,PRODUCED
Publisher_001,topicA,topicA-133,172.172.1.1:1883,1551658677877,PRODUCED
Publisher_001,topicA,topicA-134,172.172.1.1:1883,1551658677972,PRODUCED
Publisher_001,topicA,topicA-135,172.172.1.1:1883,1551658678072,PRODUCED
Publisher_001,topicA,topicA-136,172.172.1.1:1883,1551658678173,PRODUCED
Publisher_001,topicA,topicA-137,172.172.1.1:1883,1551658678272,PRODUCED
Publisher_001,topicA,topicA-138,172.172.1.1:1883,1551658678372,PRODUCED
Publisher_001,topicA,topicA-139,172.172.1.1:1883,1551658678471,PRODUCED
Publisher_001,topicA,topicA-140,172.172.1.1:1883,1551658678572,PRODUCED
Publisher_001,topicA,topicA-141,172.172.1.1:1883,1551658678672,PRODUCED
Publisher_001,topicA,topicA-142,172.172.1.1:1883,1551658678772,PRODUCED
Publisher_001,topicA,topicA-143,172.172.1.1:1883,1551658678872,PRODUCED
Publisher_001,topicA,topicA-144,172.172.1.1:1883,1551658678972,PRODUCED
Publisher_001,topicA,topicA-145,172.172.1.1:1883,1551658679072,PRODUCED
Publisher_001,topicA,topicA-146,172.172.1.1:1883,1551658679174,PRODUCED
Publisher_001,topicA,topicA-147,172.172.1.1:1883,1551658679272,PRODUCED
Publisher_001,topicA,topicA-148,172.172.1.1:1883,1551658679373,PRODUCED
Publisher_001,topicA,topicA-149,172.172.1.1:1883,1551658679472,PRODUCED
Publisher_001,topicA,topicA-150,172.172.1.1:1883,1551658679571,PRODUCED
Publisher_001,topicA,topicA-151,172.172.1.1:1883,1551658679672,PRODUCED
Publisher_001,topicA,topicA-152,172.172.1.1:1883,1551658679772,PRODUCED
Publisher_001,topicA,topicA-153,172.172.1.1:1883,1551658679871,PRODUCED
Publisher_001,topicA,topicA-154,172.172.1.1:1883,1551658679972,PRODUCED
Publisher_001,topicA,topicA-155,172.172.1.1:1883,1551658680072,PRODUCED
Publisher_001,topicA,topicA-156,172.172.1.1:1883,1551658680172,PRODUCED
Publisher_001,topicA,topicA-157,172.172.1.1:1883,1551658680275,PRODUCED
Publisher_001,topicA,topicA-158,172.172.1.1:1883,1551658680372,PRODUCED
Publisher_001,topicA,topicA-159,172.172.1.1:1883,1551658680472,PRODUCED
Publisher_001,topicA,topicA-160,172.172.1.1:1883,1551658680572,PRODUCED
Publisher_001,topicA,topicA-161,172.172.1.1:1883,1551658680672,PRODUCED
Publisher_001,topicA,topicA-162,172.172.1.1:1883,1551658680772,PRODUCED
Publisher_001,topicA,topicA-163,172.172.1.1:1883,1551658680872,PRODUCED
Publisher_001,topicA,topicA-164,172.172.1.1:1883,1551658680972,PRODUCED
Publisher_001,topicA,topicA-165,172.172.1.1:1883,1551658681072,PRODUCED
Publisher_001,topicA,topicA-166,172.172.1.1:1883,1551658681173,PRODUCED
Publisher_001,topicA,topicA-167,172.172.1.1:1883,1551658681272,PRODUCED
Publisher_001,topicA,topicA-168,172.172.1.1:1883,1551658681372,PRODUCED
Publisher_001,topicA,topicA-169,172.172.1.1:1883,1551658681472,PRODUCED
Publisher_001,topicA,topicA-170,172.172.1.1:1883,1551658681572,PRODUCED
Publisher_001,topicA,topicA-171,172.172.1.1:1883,1551658681673,PRODUCED
Publisher_001,topicA,topicA-172,172.172.1.1:1883,1551658681773,PRODUCED
Publisher_001,topicA,topicA-173,172.172.1.1:1883,1551658681872,PRODUCED
Publisher_001,topicA,topicA-174,172.172.1.1:1883,1551658681972,PRODUCED
Publisher_001,topicA,topicA-175,172.172.1.1:1883,1551658682073,PRODUCED
Publisher_001,topicA,topicA-176,172.172.1.1:1883,1551658682172,PRODUCED
Publisher_001,topicA,topicA-177,172.172.1.1:1883,1551658682272,PRODUCED
Publisher_001,topicA,topicA-178,172.172.1.1:1883,1551658682372,PRODUCED
Publisher_001,topicA,topicA-179,172.172.1.1:1883,1551658682472,PRODUCED
Publisher_001,topicA,topicA-180,172.172.1.1:1883,1551658682576,PRODUCED
Publisher_001,topicA,topicA-181,172.172.1.1:1883,1551658682674,PRODUCED
Publisher_001,topicA,topicA-182,172.172.1.1:1883,1551658682773,PRODUCED
Publisher_001,topicA,topicA-183,172.172.1.1:1883,1551658682872,PRODUCED
Publisher_001,topicA,topicA-184,172.172.1.1:1883,1551658682974,PRODUCED
Publisher_001,topicA,topicA-185,172.172.1.1:1883,1551658683072,PRODUCED
Publisher_001,topicA,topicA-186,172.172.1.1:1883,1551658683172,PRODUCED
Publisher_001,topicA,topicA-187,172.172.1.1:1883,1551658683273,PRODUCED
Publisher_001,topicA,topicA-188,172.172.1.1:1883,1551658683372,PRODUCED
Publisher_001,topicA,topicA-189,172.172.1.1:1883,1551658683472,PRODUCED
Publisher_001,topicA,topicA-190,172.172.1.1:1883,1551658683573,PRODUCED
Publisher_001,topicA,topicA-191,172.172.1.1:1883,1551658683672,PRODUCED
Publisher_001,topicA,topicA-192,172.172.1.1:1883,1551658683772,PRODUCED
Publisher_001,topicA,topicA-193,172.172.1.1:1883,1551658683872,PRODUCED
Publisher_001,topicA,topicA-194,172.172.1.1:1883,1551658683972,PRODUCED
Publisher_001,topicA,topicA-195,172.172.1.1:1883,1551658684072,PRODUCED
Publisher_001,topicA,topicA-196,172.172.1.1:1883,1551658684176,PRODUCED
Publisher_001,topicA,topicA-197,172.172.1.1:1883,1551658684272,PRODUCED
Publisher_001,topicA,topicA-198,172.172.1.1:1883,1551658684372,PRODUCED
Publisher_001,topicA,topicA-199,172.172.1.1:1883,1551658684473,PRODUCED
Publisher_001,topicA,topicA-200,172.172.1.1:1883,1551658684572,PRODUCED
Publisher_001,topicA,topicA-201,172.172.1.1:1883,1551658684672,PRODUCED
Publisher_001,topicA,topicA-202,172.172.1.1:1883,1551658684773,PRODUCED
Publisher_001,topicA,topicA-203,172.172.1.1:1883,1551658684872,PRODUCED
Publisher_001,topicA,topicA-204,172.172.1.1:1883,1551658684982,PRODUCED
Publisher_001,topicA,topicA-205,172.172.1.1:1883,1551658685072,PRODUCED
Publisher_001,topicA,topicA-206,172.172.1.1:1883,1551658685172,PRODUCED
Publisher_001,topicA,topicA-207,172.172.1.1:1883,1551658685271,PRODUCED
Publisher_001,topicA,topicA-208,172.172.1.1:1883,1551658685373,PRODUCED
Publisher_001,topicA,topicA-209,172.172.1.1:1883,1551658685471,PRODUCED
Publisher_001,topicA,topicA-210,172.172.1.1:1883,1551658685571,PRODUCED
Publisher_001,topicA,topicA-211,172.172.1.1:1883,1551658685672,PRODUCED
Publisher_001,topicA,topicA-212,172.172.1.1:1883,1551658685772,PRODUCED
Publisher_001,topicA,topicA-213,172.172.1.1:1883,1551658685871,PRODUCED
Publisher_001,topicA,topicA-214,172.172.1.1:1883,1551658685971,PRODUCED
Publisher_001,topicA,topicA-215,172.172.1.1:1883,1551658686071,PRODUCED
Publisher_001,topicA,topicA-216,172.172.1.1:1883,1551658686172,PRODUCED
Publisher_001,topicA,topicA-217,172.172.1.1:1883,1551658686272,PRODUCED
Publisher_001,topicA,topicA-218,172.172.1.1:1883,1551658686373,PRODUCED
Publisher_001,topicA,topicA-219,172.172.1.1:1883,1551658686472,PRODUCED
Publisher_001,topicA,topicA-220,172.172.1.1:1883,1551658686574,PRODUCED
Publisher_001,topicA,topicA-221,172.172.1.1:1883,1551658686672,PRODUCED
Publisher_001,topicA,topicA-222,172.172.1.1:1883,1551658686772,PRODUCED
Publisher_001,topicA,topicA-223,172.172.1.1:1883,1551658686872,PRODUCED
Publisher_001,topicA,topicA-224,172.172.1.1:1883,1551658686972,PRODUCED
Publisher_001,topicA,topicA-225,172.172.1.1:1883,1551658687072,PRODUCED
Publisher_001,topicA,topicA-226,172.172.1.1:1883,1551658687177,PRODUCED
Publisher_001,topicA,topicA-227,172.172.1.1:1883,1551658687273,PRODUCED
Publisher_001,topicA,topicA-228,172.172.1.1:1883,1551658687372,PRODUCED
Publisher_001,topicA,topicA-229,172.172.1.1:1883,1551658687471,PRODUCED
Publisher_001,topicA,topicA-230,172.172.1.1:1883,1551658687572,PRODUCED
Publisher_001,topicA,topicA-231,172.172.1.1:1883,1551658687672,PRODUCED
Publisher_001,topicA,topicA-232,172.172.1.1:1883,1551658687772,PRODUCED
Publisher_001,topicA,topicA-233,172.172.1.1:1883,1551658687872,PRODUCED
Publisher_001,topicA,topicA-234,172.172.1.1:1883,1551658687972,PRODUCED
Publisher_001,topicA,topicA-235,172.172.1.1:1883,1551658688072,PRODUCED
Publisher_001,topicA,topicA-236,172.172.1.1:1883,1551658688172,PRODUCED
Publisher_001,topicA,topicA-237,172.172.1.1:1883,1551658688272,PRODUCED
Publisher_001,topicA,topicA-238,172.172.1.1:1883,1551658688373,PRODUCED
Publisher_001,topicA,topicA-239,172.172.1.1:1883,1551658688476,PRODUCED
Publisher_001,topicA,topicA-240,172.172.1.1:1883,1551658688573,PRODUCED
Publisher_001,topicA,topicA-241,172.172.1.1:1883,1551658688672,PRODUCED
Publisher_001,topicA,topicA-242,172.172.1.1:1883,1551658688772,PRODUCED
Publisher_001,topicA,topicA-243,172.172.1.1:1883,1551658688871,PRODUCED
Publisher_001,topicA,topicA-244,172.172.1.1:1883,1551658688972,PRODUCED
Publisher_001,topicA,topicA-245,172.172.1.1:1883,1551658689072,PRODUCED
Publisher_001,topicA,topicA-246,172.172.1.1:1883,1551658689175,PRODUCED
Publisher_001,topicA,topicA-247,172.172.1.1:1883,1551658689272,PRODUCED
Publisher_001,topicA,topicA-248,172.172.1.1:1883,1551658689371,PRODUCED
Publisher_001,topicA,topicA-249,172.172.1.1:1883,1551658689472,PRODUCED
Publisher_001,topicA,topicA-250,172.172.1.1:1883,1551658689574,PRODUCED
Publisher_001,topicA,topicA-251,172.172.1.1:1883,1551658689672,PRODUCED
Publisher_001,topicA,topicA-252,172.172.1.1:1883,1551658689771,PRODUCED
Publisher_001,topicA,topicA-253,172.172.1.1:1883,1551658689872,PRODUCED
Publisher_001,topicA,topicA-254,172.172.1.1:1883,1551658689971,PRODUCED
Publisher_001,topicA,topicA-255,172.172.1.1:1883,1551658690073,PRODUCED
Publisher_001,topicA,topicA-256,172.172.1.1:1883,1551658690172,PRODUCED
Publisher_001,topicA,topicA-257,172.172.1.1:1883,1551658690272,PRODUCED
Publisher_001,topicA,topicA-258,172.172.1.1:1883,1551658690372,PRODUCED
Publisher_001,topicA,topicA-259,172.172.1.1:1883,1551658690472,PRODUCED
Publisher_001,topicA,topicA-260,172.172.1.1:1883,1551658690573,PRODUCED
Publisher_001,topicA,topicA-261,172.172.1.1:1883,1551658690672,PRODUCED
Publisher_001,topicA,topicA-262,172.172.1.1:1883,1551658690772,PRODUCED
Publisher_001,topicA,topicA-263,172.172.1.1:1883,1551658690872,PRODUCED
Publisher_001,topicA,topicA-264,172.172.1.1:1883,1551658690971,PRODUCED
Publisher_001,topicA,topicA-265,172.172.1.1:1883,1551658691072,PRODUCED
Publisher_001,topicA,topicA-266,172.172.1.1:1883,1551658691172,PRODUCED
Publisher_001,topicA,topicA-267,172.172.1.1:1883,1551658691271,PRODUCED
Publisher_001,topicA,topicA-268,172.172.1.1:1883,1551658691372,PRODUCED
Publisher_001,topicA,topicA-269,172.172.1.1:1883,1551658691472,PRODUCED
Publisher_001,topicA,topicA-270,172.172.1.1:1883,1551658691572,PRODUCED
Publisher_001,topicA,topicA-271,172.172.1.1:1883,1551658691672,PRODUCED
Publisher_001,topicA,topicA-272,172.172.1.1:1883,1551658691773,PRODUCED
Publisher_001,topicA,topicA-273,172.172.1.1:1883,1551658691874,PRODUCED
Publisher_001,topicA,topicA-274,172.172.1.1:1883,1551658691972,PRODUCED
Publisher_001,topicA,topicA-275,172.172.1.1:1883,1551658692072,PRODUCED
Publisher_001,topicA,topicA-276,172.172.1.1:1883,1551658692171,PRODUCED
Publisher_001,topicA,topicA-277,172.172.1.1:1883,1551658692272,PRODUCED
Publisher_001,topicA,topicA-278,172.172.1.1:1883,1551658692371,PRODUCED
Publisher_001,topicA,topicA-279,172.172.1.1:1883,1551658692472,PRODUCED
Publisher_001,topicA,topicA-280,172.172.1.1:1883,1551658692572,PRODUCED
Publisher_001,topicA,topicA-281,172.172.1.1:1883,1551658692673,PRODUCED
Publisher_001,topicA,topicA-282,172.172.1.1:1883,1551658692772,PRODUCED
Publisher_001,topicA,topicA-283,172.172.1.1:1883,1551658692872,PRODUCED
Publisher_001,topicA,topicA-284,172.172.1.1:1883,1551658692972,PRODUCED
Publisher_001,topicA,topicA-285,172.172.1.1:1883,1551658693072,PRODUCED
Publisher_001,topicA,topicA-286,172.172.1.1:1883,1551658693171,PRODUCED
Publisher_001,topicA,topicA-287,172.172.1.1:1883,1551658693272,PRODUCED
Publisher_001,topicA,topicA-288,172.172.1.1:1883,1551658693372,PRODUCED
Publisher_001,topicA,topicA-289,172.172.1.1:1883,1551658693472,PRODUCED
Publisher_001,topicA,topicA-290,172.172.1.1:1883,1551658693572,PRODUCED
Publisher_001,topicA,topicA-291,172.172.1.1:1883,1551658693672,PRODUCED
Publisher_001,topicA,topicA-292,172.172.1.1:1883,1551658693772,PRODUCED
Publisher_001,topicA,topicA-293,172.172.1.1:1883,1551658693872,PRODUCED
Publisher_001,topicA,topicA-294,172.172.1.1:1883,1551658693972,PRODUCED
Publisher_001,topicA,topicA-295,172.172.1.1:1883,1551658694072,PRODUCED
Publisher_001,topicA,topicA-296,172.172.1.1:1883,1551658694172,PRODUCED
Publisher_001,topicA,topicA-297,172.172.1.1:1883,1551658694272,PRODUCED
Publisher_001,topicA,topicA-298,172.172.1.1:1883,1551658694373,PRODUCED
Publisher_001,topicA,topicA-299,172.172.1.1:1883,1551658694475,PRODUCED
Publisher_001,topicA,topicA-300,172.172.1.1:1883,1551658694572,PRODUCED
Publisher_001,topicA,topicA-301,172.172.1.1:1883,1551658694672,PRODUCED
Publisher_001,topicA,topicA-302,172.172.1.1:1883,1551658694772,PRODUCED
Publisher_001,topicA,topicA-303,172.172.1.1:1883,1551658694873,PRODUCED
Publisher_001,topicA,topicA-304,172.172.1.1:1883,1551658694974,PRODUCED
Publisher_001,topicA,topicA-305,172.172.1.1:1883,1551658695072,PRODUCED
Publisher_001,topicA,topicA-306,172.172.1.1:1883,1551658695173,PRODUCED
Publisher_001,topicA,topicA-307,172.172.1.1:1883,1551658695273,PRODUCED
Publisher_001,topicA,topicA-308,172.172.1.1:1883,1551658695372,PRODUCED
Publisher_001,topicA,topicA-309,172.172.1.1:1883,1551658695471,PRODUCED
Publisher_001,topicA,topicA-310,172.172.1.1:1883,1551658695572,PRODUCED
Publisher_001,topicA,topicA-311,172.172.1.1:1883,1551658695673,PRODUCED
Publisher_001,topicA,topicA-312,172.172.1.1:1883,1551658695779,PRODUCED
Publisher_001,topicA,topicA-313,172.172.1.1:1883,1551658695872,PRODUCED
Publisher_001,topicA,topicA-314,172.172.1.1:1883,1551658695974,PRODUCED
Publisher_001,topicA,topicA-315,172.172.1.1:1883,1551658696073,PRODUCED
Publisher_001,topicA,topicA-316,172.172.1.1:1883,1551658696172,PRODUCED
Publisher_001,topicA,topicA-317,172.172.1.1:1883,1551658696272,PRODUCED
Publisher_001,topicA,topicA-318,172.172.1.1:1883,1551658696373,PRODUCED
Publisher_001,topicA,topicA-319,172.172.1.1:1883,1551658696475,PRODUCED
Publisher_001,topicA,topicA-320,172.172.1.1:1883,1551658696572,PRODUCED
Publisher_001,topicA,topicA-321,172.172.1.1:1883,1551658696672,PRODUCED
Publisher_001,topicA,topicA-322,172.172.1.1:1883,1551658696772,PRODUCED
Publisher_001,topicA,topicA-323,172.172.1.1:1883,1551658696872,PRODUCED
Publisher_001,topicA,topicA-324,172.172.1.1:1883,1551658696973,PRODUCED
Publisher_001,topicA,topicA-325,172.172.1.1:1883,1551658697075,PRODUCED
Publisher_001,topicA,topicA-326,172.172.1.1:1883,1551658697174,PRODUCED
Publisher_001,topicA,topicA-327,172.172.1.1:1883,1551658697272,PRODUCED
Publisher_001,topicA,topicA-328,172.172.1.1:1883,1551658697371,PRODUCED
Publisher_001,topicA,topicA-329,172.172.1.1:1883,1551658697472,PRODUCED
Publisher_001,topicA,topicA-330,172.172.1.1:1883,1551658697572,PRODUCED
Publisher_001,topicA,topicA-331,172.172.1.1:1883,1551658697671,PRODUCED
Publisher_001,topicA,topicA-332,172.172.1.1:1883,1551658697772,PRODUCED
Publisher_001,topicA,topicA-333,172.172.1.1:1883,1551658697872,PRODUCED
Publisher_001,topicA,topicA-334,172.172.1.1:1883,1551658697974,PRODUCED
Publisher_001,topicA,topicA-335,172.172.1.1:1883,1551658698073,PRODUCED
Publisher_001,topicA,topicA-336,172.172.1.1:1883,1551658698171,PRODUCED
Publisher_001,topicA,topicA-337,172.172.1.1:1883,1551658698273,PRODUCED
Publisher_001,topicA,topicA-338,172.172.1.1:1883,1551658698373,PRODUCED
Publisher_001,topicA,topicA-339,172.172.1.1:1883,1551658698472,PRODUCED
Publisher_001,topicA,topicA-340,172.172.1.1:1883,1551658698572,PRODUCED
Publisher_001,topicA,topicA-341,172.172.1.1:1883,1551658698676,PRODUCED
Publisher_001,topicA,topicA-342,172.172.1.1:1883,1551658698773,PRODUCED
Publisher_001,topicA,topicA-343,172.172.1.1:1883,1551658698872,PRODUCED
Publisher_001,topicA,topicA-344,172.172.1.1:1883,1551658698972,PRODUCED
Publisher_001,topicA,topicA-345,172.172.1.1:1883,1551658699072,PRODUCED
Publisher_001,topicA,topicA-346,172.172.1.1:1883,1551658699172,PRODUCED
Publisher_001,topicA,topicA-347,172.172.1.1:1883,1551658699271,PRODUCED
Publisher_001,topicA,topicA-348,172.172.1.1:1883,1551658699373,PRODUCED
Publisher_001,topicA,topicA-349,172.172.1.1:1883,1551658699472,PRODUCED
Publisher_001,topicA,topicA-350,172.172.1.1:1883,1551658699572,PRODUCED
Publisher_001,topicA,topicA-351,172.172.1.1:1883,1551658699671,PRODUCED
Publisher_001,topicA,topicA-352,172.172.1.1:1883,1551658699772,PRODUCED
Publisher_001,topicA,topicA-353,172.172.1.1:1883,1551658699871,PRODUCED
Publisher_001,topicA,topicA-354,172.172.1.1:1883,1551658699972,PRODUCED
Publisher_001,topicA,topicA-355,172.172.1.1:1883,1551658700072,PRODUCED
Publisher_001,topicA,topicA-356,172.172.1.1:1883,1551658700171,PRODUCED
Publisher_001,topicA,topicA-357,172.172.1.1:1883,1551658700272,PRODUCED
Publisher_001,topicA,topicA-358,172.172.1.1:1883,1551658700373,PRODUCED
Publisher_001,topicA,topicA-359,172.172.1.1:1883,1551658700473,PRODUCED
Publisher_001,topicA,topicA-360,172.172.1.1:1883,1551658700577,PRODUCED
Publisher_001,topicA,topicA-361,172.172.1.1:1883,1551658700672,PRODUCED
Publisher_001,topicA,topicA-362,172.172.1.1:1883,1551658700774,PRODUCED
Publisher_001,topicA,topicA-363,172.172.1.1:1883,1551658700873,PRODUCED
Publisher_001,topicA,topicA-364,172.172.1.1:1883,1551658700977,PRODUCED
Publisher_001,topicA,topicA-365,172.172.1.1:1883,1551658701072,PRODUCED
Publisher_001,topicA,topicA-366,172.172.1.1:1883,1551658701172,PRODUCED
Publisher_001,topicA,topicA-367,172.172.1.1:1883,1551658701273,PRODUCED
Publisher_001,topicA,topicA-368,172.172.1.1:1883,1551658701372,PRODUCED
Publisher_001,topicA,topicA-369,172.172.1.1:1883,1551658701472,PRODUCED
Publisher_001,topicA,topicA-370,172.172.1.1:1883,1551658701573,PRODUCED
Publisher_001,topicA,topicA-371,172.172.1.1:1883,1551658701675,PRODUCED
Publisher_001,topicA,topicA-372,172.172.1.1:1883,1551658701772,PRODUCED
Publisher_001,topicA,topicA-373,172.172.1.1:1883,1551658701872,PRODUCED
Publisher_001,topicA,topicA-374,172.172.1.1:1883,1551658701975,PRODUCED
Publisher_001,topicA,topicA-375,172.172.1.1:1883,1551658702071,PRODUCED
Publisher_001,topicA,topicA-376,172.172.1.1:1883,1551658702172,PRODUCED
Publisher_001,topicA,topicA-377,172.172.1.1:1883,1551658702274,PRODUCED
Publisher_001,topicA,topicA-378,172.172.1.1:1883,1551658702372,PRODUCED
Publisher_001,topicA,topicA-379,172.172.1.1:1883,1551658702472,PRODUCED
Publisher_001,topicA,topicA-380,172.172.1.1:1883,1551658702572,PRODUCED
Publisher_001,topicA,topicA-381,172.172.1.1:1883,1551658702672,PRODUCED
Publisher_001,topicA,topicA-382,172.172.1.1:1883,1551658702773,PRODUCED
Publisher_001,topicA,topicA-383,172.172.1.1:1883,1551658702872,PRODUCED
Publisher_001,topicA,topicA-384,172.172.1.1:1883,1551658702976,PRODUCED
Publisher_001,topicA,topicA-385,172.172.1.1:1883,1551658703073,PRODUCED
Publisher_001,topicA,topicA-386,172.172.1.1:1883,1551658703175,PRODUCED
Publisher_001,topicA,topicA-387,172.172.1.1:1883,1551658703272,PRODUCED
Publisher_001,topicA,topicA-388,172.172.1.1:1883,1551658703372,PRODUCED
Publisher_001,topicA,topicA-389,172.172.1.1:1883,1551658703474,PRODUCED
Publisher_001,topicA,topicA-390,172.172.1.1:1883,1551658703571,PRODUCED
Publisher_001,topicA,topicA-391,172.172.1.1:1883,1551658703671,PRODUCED
Publisher_001,topicA,topicA-392,172.172.1.1:1883,1551658703771,PRODUCED
Publisher_001,topicA,topicA-393,172.172.1.1:1883,1551658703872,PRODUCED
Publisher_001,topicA,topicA-394,172.172.1.1:1883,1551658703974,PRODUCED
Publisher_001,topicA,topicA-395,172.172.1.1:1883,1551658704073,PRODUCED
Publisher_001,topicA,topicA-396,172.172.1.1:1883,1551658704172,PRODUCED
Publisher_001,topicA,topicA-397,172.172.1.1:1883,1551658704272,PRODUCED
Publisher_001,topicA,topicA-398,172.172.1.1:1883,1551658704373,PRODUCED
Publisher_001,topicA,topicA-399,172.172.1.1:1883,1551658704472,PRODUCED
Publisher_001,topicA,topicA-400,172.172.1.1:1883,1551658704572,PRODUCED
Publisher_001,topicA,topicA-401,172.172.1.1:1883,1551658704671,PRODUCED
Publisher_001,topicA,topicA-402,172.172.1.1:1883,1551658704771,PRODUCED
Publisher_001,topicA,topicA-403,172.172.1.1:1883,1551658704872,PRODUCED
Publisher_001,topicA,topicA-404,172.172.1.1:1883,1551658704972,PRODUCED
Publisher_001,topicA,topicA-405,172.172.1.1:1883,1551658705071,PRODUCED
Publisher_001,topicA,topicA-406,172.172.1.1:1883,1551658705172,PRODUCED
Publisher_001,topicA,topicA-407,172.172.1.1:1883,1551658705279,PRODUCED
Publisher_001,topicA,topicA-408,172.172.1.1:1883,1551658705372,PRODUCED
Publisher_001,topicA,topicA-409,172.172.1.1:1883,1551658705475,PRODUCED
Publisher_001,topicA,topicA-410,172.172.1.1:1883,1551658705573,PRODUCED
Publisher_001,topicA,topicA-411,172.172.1.1:1883,1551658705671,PRODUCED
Publisher_001,topicA,topicA-412,172.172.1.1:1883,1551658705772,PRODUCED
Publisher_001,topicA,topicA-413,172.172.1.1:1883,1551658705873,PRODUCED
Publisher_001,topicA,topicA-414,172.172.1.1:1883,1551658705972,PRODUCED
Publisher_001,topicA,topicA-415,172.172.1.1:1883,1551658706078,PRODUCED
Publisher_001,topicA,topicA-416,172.172.1.1:1883,1551658706172,PRODUCED
Publisher_001,topicA,topicA-417,172.172.1.1:1883,1551658706272,PRODUCED
Publisher_001,topicA,topicA-418,172.172.1.1:1883,1551658706372,PRODUCED
Publisher_001,topicA,topicA-419,172.172.1.1:1883,1551658706472,PRODUCED
Publisher_001,topicA,topicA-420,172.172.1.1:1883,1551658706572,PRODUCED
Publisher_001,topicA,topicA-421,172.172.1.1:1883,1551658706671,PRODUCED
Publisher_001,topicA,topicA-422,172.172.1.1:1883,1551658706776,PRODUCED
Publisher_001,topicA,topicA-423,172.172.1.1:1883,1551658706872,PRODUCED
Publisher_001,topicA,topicA-424,172.172.1.1:1883,1551658706971,PRODUCED
Publisher_001,topicA,topicA-425,172.172.1.1:1883,1551658707072,PRODUCED
Publisher_001,topicA,topicA-426,172.172.1.1:1883,1551658707172,PRODUCED
Publisher_001,topicA,topicA-427,172.172.1.1:1883,1551658707273,PRODUCED
Publisher_001,topicA,topicA-428,172.172.1.1:1883,1551658707372,PRODUCED
Publisher_001,topicA,topicA-429,172.172.1.1:1883,1551658707472,PRODUCED
Publisher_001,topicA,topicA-430,172.172.1.1:1883,1551658707572,PRODUCED
Publisher_001,topicA,topicA-431,172.172.1.1:1883,1551658707674,PRODUCED
Publisher_001,topicA,topicA-432,172.172.1.1:1883,1551658707772,PRODUCED
Publisher_001,topicA,topicA-433,172.172.1.1:1883,1551658707884,PRODUCED
Publisher_001,topicA,topicA-434,172.172.1.1:1883,1551658707972,PRODUCED
Publisher_001,topicA,topicA-435,172.172.1.1:1883,1551658708072,PRODUCED
Publisher_001,topicA,topicA-436,172.172.1.1:1883,1551658708171,PRODUCED
Publisher_001,topicA,topicA-437,172.172.1.1:1883,1551658708271,PRODUCED
Publisher_001,topicA,topicA-438,172.172.1.1:1883,1551658708371,PRODUCED
Publisher_001,topicA,topicA-439,172.172.1.1:1883,1551658708474,PRODUCED
Publisher_001,topicA,topicA-440,172.172.1.1:1883,1551658708572,PRODUCED
Publisher_001,topicA,topicA-441,172.172.1.1:1883,1551658708672,PRODUCED
Publisher_001,topicA,topicA-442,172.172.1.1:1883,1551658708771,PRODUCED
Publisher_001,topicA,topicA-443,172.172.1.1:1883,1551658708872,PRODUCED
Publisher_001,topicA,topicA-444,172.172.1.1:1883,1551658708973,PRODUCED
Publisher_001,topicA,topicA-445,172.172.1.1:1883,1551658709072,PRODUCED
Publisher_001,topicA,topicA-446,172.172.1.1:1883,1551658709171,PRODUCED
Publisher_001,topicA,topicA-447,172.172.1.1:1883,1551658709272,PRODUCED
Publisher_001,topicA,topicA-448,172.172.1.1:1883,1551658709372,PRODUCED
Publisher_001,topicA,topicA-449,172.172.1.1:1883,1551658709472,PRODUCED
Publisher_001,topicA,topicA-450,172.172.1.1:1883,1551658709572,PRODUCED
Publisher_001,topicA,topicA-451,172.172.1.1:1883,1551658709671,PRODUCED
Publisher_001,topicA,topicA-452,172.172.1.1:1883,1551658709772,PRODUCED
Publisher_001,topicA,topicA-453,172.172.1.1:1883,1551658709873,PRODUCED
Publisher_001,topicA,topicA-454,172.172.1.1:1883,1551658709974,PRODUCED
Publisher_001,topicA,topicA-455,172.172.1.1:1883,1551658710073,PRODUCED
Publisher_001,topicA,topicA-456,172.172.1.1:1883,1551658710171,PRODUCED
Publisher_001,topicA,topicA-457,172.172.1.1:1883,1551658710272,PRODUCED
Publisher_001,topicA,topicA-458,172.172.1.1:1883,1551658710372,PRODUCED
Publisher_001,topicA,topicA-459,172.172.1.1:1883,1551658710472,PRODUCED
Publisher_001,topicA,topicA-460,172.172.1.1:1883,1551658710576,PRODUCED
Publisher_001,topicA,topicA-461,172.172.1.1:1883,1551658710672,PRODUCED
Publisher_001,topicA,topicA-462,172.172.1.1:1883,1551658710771,PRODUCED
Publisher_001,topicA,topicA-463,172.172.1.1:1883,1551658710871,PRODUCED
Publisher_001,topicA,topicA-464,172.172.1.1:1883,1551658710972,PRODUCED
Publisher_001,topicA,topicA-465,172.172.1.1:1883,1551658711072,PRODUCED
Publisher_001,topicA,topicA-466,172.172.1.1:1883,1551658711173,PRODUCED
Publisher_001,topicA,topicA-467,172.172.1.1:1883,1551658711272,PRODUCED
Publisher_001,topicA,topicA-468,172.172.1.1:1883,1551658711371,PRODUCED
Publisher_001,topicA,topicA-469,172.172.1.1:1883,1551658711472,PRODUCED
Publisher_001,topicA,topicA-470,172.172.1.1:1883,1551658711571,PRODUCED
Publisher_001,topicA,topicA-471,172.172.1.1:1883,1551658711671,PRODUCED
Publisher_001,topicA,topicA-472,172.172.1.1:1883,1551658711772,PRODUCED
Publisher_001,topicA,topicA-473,172.172.1.1:1883,1551658711873,PRODUCED
Publisher_001,topicA,topicA-474,172.172.1.1:1883,1551658711973,PRODUCED
Publisher_001,topicA,topicA-475,172.172.1.1:1883,1551658712071,PRODUCED
Publisher_001,topicA,topicA-476,172.172.1.1:1883,1551658712171,PRODUCED
Publisher_001,topicA,topicA-477,172.172.1.1:1883,1551658712271,PRODUCED
Publisher_001,topicA,topicA-478,172.172.1.1:1883,1551658712371,PRODUCED
Publisher_001,topicA,topicA-479,172.172.1.1:1883,1551658712472,PRODUCED
Publisher_001,topicA,topicA-480,172.172.1.1:1883,1551658712574,PRODUCED
Publisher_001,topicA,topicA-481,172.172.1.1:1883,1551658712672,PRODUCED
Publisher_001,topicA,topicA-482,172.172.1.1:1883,1551658712771,PRODUCED
Publisher_001,topicA,topicA-483,172.172.1.1:1883,1551658712871,PRODUCED
Publisher_001,topicA,topicA-484,172.172.1.1:1883,1551658712973,PRODUCED
Publisher_001,topicA,topicA-485,172.172.1.1:1883,1551658713072,PRODUCED
Publisher_001,topicA,topicA-486,172.172.1.1:1883,1551658713174,PRODUCED
Publisher_001,topicA,topicA-487,172.172.1.1:1883,1551658713272,PRODUCED
Publisher_001,topicA,topicA-488,172.172.1.1:1883,1551658713372,PRODUCED
Publisher_001,topicA,topicA-489,172.172.1.1:1883,1551658713472,PRODUCED
Publisher_001,topicA,topicA-490,172.172.1.1:1883,1551658713571,PRODUCED
Publisher_001,topicA,topicA-491,172.172.1.1:1883,1551658713672,PRODUCED
Publisher_001,topicA,topicA-492,172.172.1.1:1883,1551658713772,PRODUCED
Publisher_001,topicA,topicA-493,172.172.1.1:1883,1551658713872,PRODUCED
Publisher_001,topicA,topicA-494,172.172.1.1:1883,1551658713972,PRODUCED
Publisher_001,topicA,topicA-495,172.172.1.1:1883,1551658714075,PRODUCED
Publisher_001,topicA,topicA-496,172.172.1.1:1883,1551658714172,PRODUCED
Publisher_001,topicA,topicA-497,172.172.1.1:1883,1551658714272,PRODUCED
Publisher_001,topicA,topicA-498,172.172.1.1:1883,1551658714374,PRODUCED
Publisher_001,topicA,topicA-499,172.172.1.1:1883,1551658714472,PRODUCED
Publisher_001,topicA,topicA-500,172.172.1.1:1883,1551658714572,PRODUCED
Publisher_001,topicA,topicA-501,172.172.1.1:1883,1551658714672,PRODUCED
Publisher_001,topicA,topicA-502,172.172.1.1:1883,1551658714772,PRODUCED
Publisher_001,topicA,topicA-503,172.172.1.1:1883,1551658714871,PRODUCED
Publisher_001,topicA,topicA-504,172.172.1.1:1883,1551658714974,PRODUCED
Publisher_001,topicA,topicA-505,172.172.1.1:1883,1551658715071,PRODUCED
Publisher_001,topicA,topicA-506,172.172.1.1:1883,1551658715172,PRODUCED
Publisher_001,topicA,topicA-507,172.172.1.1:1883,1551658715271,PRODUCED
Publisher_001,topicA,topicA-508,172.172.1.1:1883,1551658715372,PRODUCED
Publisher_001,topicA,topicA-509,172.172.1.1:1883,1551658715471,PRODUCED
Publisher_001,topicA,topicA-510,172.172.1.1:1883,1551658715571,PRODUCED
Publisher_001,topicA,topicA-511,172.172.1.1:1883,1551658715672,PRODUCED
Publisher_001,topicA,topicA-512,172.172.1.1:1883,1551658715772,PRODUCED
Publisher_001,topicA,topicA-513,172.172.1.1:1883,1551658715871,PRODUCED
Publisher_001,topicA,topicA-514,172.172.1.1:1883,1551658715971,PRODUCED
Publisher_001,topicA,topicA-515,172.172.1.1:1883,1551658716071,PRODUCED
Publisher_001,topicA,topicA-516,172.172.1.1:1883,1551658716171,PRODUCED
Publisher_001,topicA,topicA-517,172.172.1.1:1883,1551658716272,PRODUCED
Publisher_001,topicA,topicA-518,172.172.1.1:1883,1551658716372,PRODUCED
Publisher_001,topicA,topicA-519,172.172.1.1:1883,1551658716472,PRODUCED
Publisher_001,topicA,topicA-520,172.172.1.1:1883,1551658716575,PRODUCED
Publisher_001,topicA,topicA-521,172.172.1.1:1883,1551658716672,PRODUCED
Publisher_001,topicA,topicA-522,172.172.1.1:1883,1551658716771,PRODUCED
Publisher_001,topicA,topicA-523,172.172.1.1:1883,1551658716871,PRODUCED
Publisher_001,topicA,topicA-524,172.172.1.1:1883,1551658716972,PRODUCED
Publisher_001,topicA,topicA-525,172.172.1.1:1883,1551658717072,PRODUCED
Publisher_001,topicA,topicA-526,172.172.1.1:1883,1551658717172,PRODUCED
Publisher_001,topicA,topicA-527,172.172.1.1:1883,1551658717272,PRODUCED
Publisher_001,topicA,topicA-528,172.172.1.1:1883,1551658717372,PRODUCED
Publisher_001,topicA,topicA-529,172.172.1.1:1883,1551658717475,PRODUCED
Publisher_001,topicA,topicA-530,172.172.1.1:1883,1551658717572,PRODUCED
Publisher_001,topicA,topicA-531,172.172.1.1:1883,1551658717673,PRODUCED
Publisher_001,topicA,topicA-532,172.172.1.1:1883,1551658717772,PRODUCED
Publisher_001,topicA,topicA-533,172.172.1.1:1883,1551658717874,PRODUCED
Publisher_001,topicA,topicA-534,172.172.1.1:1883,1551658717972,PRODUCED
Publisher_001,topicA,topicA-535,172.172.1.1:1883,1551658718074,PRODUCED
Publisher_001,topicA,topicA-536,172.172.1.1:1883,1551658718172,PRODUCED
Publisher_001,topicA,topicA-537,172.172.1.1:1883,1551658718271,PRODUCED
Publisher_001,topicA,topicA-538,172.172.1.1:1883,1551658718372,PRODUCED
Publisher_001,topicA,topicA-539,172.172.1.1:1883,1551658718473,PRODUCED
Publisher_001,topicA,topicA-540,172.172.1.1:1883,1551658718571,PRODUCED
Publisher_001,topicA,topicA-541,172.172.1.1:1883,1551658718672,PRODUCED
Publisher_001,topicA,topicA-542,172.172.1.1:1883,1551658718773,PRODUCED
Publisher_001,topicA,topicA-543,172.172.1.1:1883,1551658718872,PRODUCED
Publisher_001,topicA,topicA-544,172.172.1.1:1883,1551658718972,PRODUCED
Publisher_001,topicA,topicA-545,172.172.1.1:1883,1551658719071,PRODUCED
Publisher_001,topicA,topicA-546,172.172.1.1:1883,1551658719171,PRODUCED
Publisher_001,topicA,topicA-547,172.172.1.1:1883,1551658719273,PRODUCED
Publisher_001,topicA,topicA-548,172.172.1.1:1883,1551658719372,PRODUCED
Publisher_001,topicA,topicA-549,172.172.1.1:1883,1551658719471,PRODUCED
Publisher_001,topicA,topicA-550,172.172.1.1:1883,1551658719573,PRODUCED
Publisher_001,topicA,topicA-551,172.172.1.1:1883,1551658719672,PRODUCED
Publisher_001,topicA,topicA-552,172.172.1.1:1883,1551658719772,PRODUCED
Publisher_001,topicA,topicA-553,172.172.1.1:1883,1551658719876,PRODUCED
Publisher_001,topicA,topicA-554,172.172.1.1:1883,1551658719971,PRODUCED
Publisher_001,topicA,topicA-555,172.172.1.1:1883,1551658720074,PRODUCED
Publisher_001,topicA,topicA-556,172.172.1.1:1883,1551658720171,PRODUCED
Publisher_001,topicA,topicA-557,172.172.1.1:1883,1551658720272,PRODUCED
Publisher_001,topicA,topicA-558,172.172.1.1:1883,1551658720371,PRODUCED
Publisher_001,topicA,topicA-559,172.172.1.1:1883,1551658720471,PRODUCED
Publisher_001,topicA,topicA-560,172.172.1.1:1883,1551658720572,PRODUCED
Publisher_001,topicA,topicA-561,172.172.1.1:1883,1551658720671,PRODUCED
Publisher_001,topicA,topicA-562,172.172.1.1:1883,1551658720771,PRODUCED
Publisher_001,topicA,topicA-563,172.172.1.1:1883,1551658720878,PRODUCED
Publisher_001,topicA,topicA-564,172.172.1.1:1883,1551658720972,PRODUCED
Publisher_001,topicA,topicA-565,172.172.1.1:1883,1551658721074,PRODUCED
Publisher_001,topicA,topicA-566,172.172.1.1:1883,1551658721173,PRODUCED
Publisher_001,topicA,topicA-567,172.172.1.1:1883,1551658721275,PRODUCED
Publisher_001,topicA,topicA-568,172.172.1.1:1883,1551658721372,PRODUCED
Publisher_001,topicA,topicA-569,172.172.1.1:1883,1551658721472,PRODUCED
Publisher_001,topicA,topicA-570,172.172.1.1:1883,1551658721571,PRODUCED
Publisher_001,topicA,topicA-571,172.172.1.1:1883,1551658721672,PRODUCED
Publisher_001,topicA,topicA-572,172.172.1.1:1883,1551658721772,PRODUCED
Publisher_001,topicA,topicA-573,172.172.1.1:1883,1551658721872,PRODUCED
Publisher_001,topicA,topicA-574,172.172.1.1:1883,1551658721975,PRODUCED
Publisher_001,topicA,topicA-575,172.172.1.1:1883,1551658722072,PRODUCED
Publisher_001,topicA,topicA-576,172.172.1.1:1883,1551658722172,PRODUCED
Publisher_001,topicA,topicA-577,172.172.1.1:1883,1551658722273,PRODUCED
Publisher_001,topicA,topicA-578,172.172.1.1:1883,1551658722372,PRODUCED
Publisher_001,topicA,topicA-579,172.172.1.1:1883,1551658722472,PRODUCED
Publisher_001,topicA,topicA-580,172.172.1.1:1883,1551658722572,PRODUCED
Publisher_001,topicA,topicA-581,172.172.1.1:1883,1551658722672,PRODUCED
Publisher_001,topicA,topicA-582,172.172.1.1:1883,1551658722772,PRODUCED
Publisher_001,topicA,topicA-583,172.172.1.1:1883,1551658722875,PRODUCED
Publisher_001,topicA,topicA-584,172.172.1.1:1883,1551658722974,PRODUCED
Publisher_001,topicA,topicA-585,172.172.1.1:1883,1551658723072,PRODUCED
Publisher_001,topicA,topicA-586,172.172.1.1:1883,1551658723173,PRODUCED
Publisher_001,topicA,topicA-587,172.172.1.1:1883,1551658723272,PRODUCED
Publisher_001,topicA,topicA-588,172.172.1.1:1883,1551658723372,PRODUCED
Publisher_001,topicA,topicA-589,172.172.1.1:1883,1551658723473,PRODUCED
Publisher_001,topicA,topicA-590,172.172.1.1:1883,1551658723572,PRODUCED
Publisher_001,topicA,topicA-591,172.172.1.1:1883,1551658723673,PRODUCED
Publisher_001,topicA,topicA-592,172.172.1.1:1883,1551658723772,PRODUCED
Publisher_001,topicA,topicA-593,172.172.1.1:1883,1551658723872,PRODUCED
Publisher_001,topicA,topicA-594,172.172.1.1:1883,1551658723976,PRODUCED
Publisher_001,topicA,topicA-595,172.172.1.1:1883,1551658724072,PRODUCED
Publisher_001,topicA,topicA-596,172.172.1.1:1883,1551658724172,PRODUCED
Publisher_001,topicA,topicA-597,172.172.1.1:1883,1551658724272,PRODUCED
Publisher_001,topicA,topicA-598,172.172.1.1:1883,1551658724372,PRODUCED
Publisher_001,topicA,topicA-599,172.172.1.1:1883,1551658724472,PRODUCED
Publisher_001,topicA,topicA-600,172.172.1.1:1883,1551658724572,PRODUCED
Publisher_001,topicA,topicA-601,172.172.1.1:1883,1551658724672,PRODUCED
Publisher_001,topicA,topicA-602,172.172.1.1:1883,1551658724775,PRODUCED
Publisher_001,topicA,topicA-603,172.172.1.1:1883,1551658724872,PRODUCED
Publisher_001,topicA,topicA-604,172.172.1.1:1883,1551658724972,PRODUCED
Publisher_001,topicA,topicA-605,172.172.1.1:1883,1551658725071,PRODUCED
Publisher_001,topicA,topicA-606,172.172.1.1:1883,1551658725171,PRODUCED
Publisher_001,topicA,topicA-607,172.172.1.1:1883,1551658725272,PRODUCED
Publisher_001,topicA,topicA-608,172.172.1.1:1883,1551658725372,PRODUCED
Publisher_001,topicA,topicA-609,172.172.1.1:1883,1551658725472,PRODUCED
Publisher_001,topicA,topicA-610,172.172.1.1:1883,1551658725572,PRODUCED
Publisher_001,topicA,topicA-611,172.172.1.1:1883,1551658725672,PRODUCED
Publisher_001,topicA,topicA-612,172.172.1.1:1883,1551658725773,PRODUCED
Publisher_001,topicA,topicA-613,172.172.1.1:1883,1551658725872,PRODUCED
Publisher_001,topicA,topicA-614,172.172.1.1:1883,1551658725972,PRODUCED
Publisher_001,topicA,topicA-615,172.172.1.1:1883,1551658726072,PRODUCED
Publisher_001,topicA,topicA-616,172.172.1.1:1883,1551658726173,PRODUCED
Publisher_001,topicA,topicA-617,172.172.1.1:1883,1551658726272,PRODUCED
Publisher_001,topicA,topicA-618,172.172.1.1:1883,1551658726374,PRODUCED
Publisher_001,topicA,topicA-619,172.172.1.1:1883,1551658726473,PRODUCED
Publisher_001,topicA,topicA-620,172.172.1.1:1883,1551658726572,PRODUCED
Publisher_001,topicA,topicA-621,172.172.1.1:1883,1551658726672,PRODUCED
Publisher_001,topicA,topicA-622,172.172.1.1:1883,1551658726772,PRODUCED
Publisher_001,topicA,topicA-623,172.172.1.1:1883,1551658726873,PRODUCED
Publisher_001,topicA,topicA-624,172.172.1.1:1883,1551658726974,PRODUCED
Publisher_001,topicA,topicA-625,172.172.1.1:1883,1551658727074,PRODUCED
Publisher_001,topicA,topicA-626,172.172.1.1:1883,1551658727173,PRODUCED
Publisher_001,topicA,topicA-627,172.172.1.1:1883,1551658727272,PRODUCED
Publisher_001,topicA,topicA-628,172.172.1.1:1883,1551658727373,PRODUCED
Publisher_001,topicA,topicA-629,172.172.1.1:1883,1551658727472,PRODUCED
Publisher_001,topicA,topicA-630,172.172.1.1:1883,1551658727575,PRODUCED
Publisher_001,topicA,topicA-631,172.172.1.1:1883,1551658727672,PRODUCED
Publisher_001,topicA,topicA-632,172.172.1.1:1883,1551658727772,PRODUCED
Publisher_001,topicA,topicA-633,172.172.1.1:1883,1551658727872,PRODUCED
Publisher_001,topicA,topicA-634,172.172.1.1:1883,1551658727972,PRODUCED
Publisher_001,topicA,topicA-635,172.172.1.1:1883,1551658728071,PRODUCED
Publisher_001,topicA,topicA-636,172.172.1.1:1883,1551658728171,PRODUCED
Publisher_001,topicA,topicA-637,172.172.1.1:1883,1551658728272,PRODUCED
Publisher_001,topicA,topicA-638,172.172.1.1:1883,1551658728371,PRODUCED
Publisher_001,topicA,topicA-639,172.172.1.1:1883,1551658728475,PRODUCED
Publisher_001,topicA,topicA-640,172.172.1.1:1883,1551658728572,PRODUCED
Publisher_001,topicA,topicA-641,172.172.1.1:1883,1551658728673,PRODUCED
Publisher_001,topicA,topicA-642,172.172.1.1:1883,1551658728773,PRODUCED
Publisher_001,topicA,topicA-643,172.172.1.1:1883,1551658728872,PRODUCED
Publisher_001,topicA,topicA-644,172.172.1.1:1883,1551658728972,PRODUCED
Publisher_001,topicA,topicA-645,172.172.1.1:1883,1551658729072,PRODUCED
Publisher_001,topicA,topicA-646,172.172.1.1:1883,1551658729172,PRODUCED
Publisher_001,topicA,topicA-647,172.172.1.1:1883,1551658729277,PRODUCED
Publisher_001,topicA,topicA-648,172.172.1.1:1883,1551658729373,PRODUCED
Publisher_001,topicA,topicA-649,172.172.1.1:1883,1551658729472,PRODUCED
Publisher_001,topicA,topicA-650,172.172.1.1:1883,1551658729573,PRODUCED
Publisher_001,topicA,topicA-651,172.172.1.1:1883,1551658729677,PRODUCED
Publisher_001,topicA,topicA-652,172.172.1.1:1883,1551658729772,PRODUCED
Publisher_001,topicA,topicA-653,172.172.1.1:1883,1551658729872,PRODUCED
Publisher_001,topicA,topicA-654,172.172.1.1:1883,1551658729974,PRODUCED
Publisher_001,topicA,topicA-655,172.172.1.1:1883,1551658730076,PRODUCED
Publisher_001,topicA,topicA-656,172.172.1.1:1883,1551658730172,PRODUCED
Publisher_001,topicA,topicA-657,172.172.1.1:1883,1551658730272,PRODUCED
Publisher_001,topicA,topicA-658,172.172.1.1:1883,1551658730371,PRODUCED
Publisher_001,topicA,topicA-659,172.172.1.1:1883,1551658730474,PRODUCED
Publisher_001,topicA,topicA-660,172.172.1.1:1883,1551658730575,PRODUCED
Publisher_001,topicA,topicA-661,172.172.1.1:1883,1551658730671,PRODUCED
Publisher_001,topicA,topicA-662,172.172.1.1:1883,1551658730772,PRODUCED
