clientId,topic,guid,broker,timestamp,type
Subscriber_001,topicA,topicA-35,172.172.1.1:1883,1551651199455,RECEIVED
Subscriber_001,topicA,topicA-36,172.172.1.1:1883,1551651199457,RECEIVED
Subscriber_001,topicA,topicA-37,172.172.1.1:1883,1551651199458,RECEIVED
Subscriber_001,topicA,topicA-38,172.172.1.1:1883,1551651199542,RECEIVED
Subscriber_001,topicA,topicA-39,172.172.1.1:1883,1551651199639,RECEIVED
Subscriber_001,topicA,topicA-40,172.172.1.1:1883,1551651199749,RECEIVED
Subscriber_001,topicA,topicA-41,172.172.1.1:1883,1551651199841,RECEIVED
Subscriber_001,topicA,topicA-42,172.172.1.1:1883,1551651199945,RECEIVED
Subscriber_001,topicA,topicA-43,172.172.1.1:1883,1551651200051,RECEIVED
Subscriber_001,topicA,topicA-44,172.172.1.1:1883,1551651200144,RECEIVED
Subscriber_001,topicA,topicA-45,172.172.1.1:1883,1551651200243,RECEIVED
Subscriber_001,topicA,topicA-46,172.172.1.1:1883,1551651200353,RECEIVED
Subscriber_001,topicA,topicA-47,172.172.1.1:1883,1551651200458,RECEIVED
Subscriber_001,topicA,topicA-48,172.172.1.1:1883,1551651200550,RECEIVED
Subscriber_001,topicA,topicA-49,172.172.1.1:1883,1551651200656,RECEIVED
Subscriber_001,topicA,topicA-50,172.172.1.1:1883,1551651200773,RECEIVED
Subscriber_001,topicA,topicA-51,172.172.1.1:1883,1551651200844,RECEIVED
Subscriber_001,topicA,topicA-52,172.172.1.1:1883,1551651200945,RECEIVED
Subscriber_001,topicA,topicA-53,172.172.1.1:1883,1551651201048,RECEIVED
Subscriber_001,topicA,topicA-54,172.172.1.1:1883,1551651201153,RECEIVED
Subscriber_001,topicA,topicA-55,172.172.1.1:1883,1551651201242,RECEIVED
Subscriber_001,topicA,topicA-56,172.172.1.1:1883,1551651201342,RECEIVED
Subscriber_001,topicA,topicA-57,172.172.1.1:1883,1551651201453,RECEIVED
Subscriber_001,topicA,topicA-58,172.172.1.1:1883,1551651201553,RECEIVED
Subscriber_001,topicA,topicA-59,172.172.1.1:1883,1551651201644,RECEIVED
Subscriber_001,topicA,topicA-60,172.172.1.1:1883,1551651201769,RECEIVED
Subscriber_001,topicA,topicA-61,172.172.1.1:1883,1551651201842,RECEIVED
Subscriber_001,topicA,topicA-62,172.172.1.1:1883,1551651201945,RECEIVED
Subscriber_001,topicA,topicA-63,172.172.1.1:1883,1551651202053,RECEIVED
Subscriber_001,topicA,topicA-64,172.172.1.1:1883,1551651202137,RECEIVED
Subscriber_001,topicA,topicA-65,172.172.1.1:1883,1551651202246,RECEIVED
Subscriber_001,topicA,topicA-66,172.172.1.1:1883,1551651202340,RECEIVED
Subscriber_001,topicA,topicA-67,172.172.1.1:1883,1551651202437,RECEIVED
Subscriber_001,topicA,topicA-68,172.172.1.1:1883,1551651202543,RECEIVED
Subscriber_001,topicA,topicA-69,172.172.1.1:1883,1551651202638,RECEIVED
Subscriber_001,topicA,topicA-70,172.172.1.1:1883,1551651202751,RECEIVED
Subscriber_001,topicA,topicA-71,172.172.1.1:1883,1551651202851,RECEIVED
Subscriber_001,topicA,topicA-72,172.172.1.1:1883,1551651202947,RECEIVED
Subscriber_001,topicA,topicA-73,172.172.1.1:1883,1551651203050,RECEIVED
Subscriber_001,topicA,topicA-74,172.172.1.1:1883,1551651203152,RECEIVED
Subscriber_001,topicA,topicA-75,172.172.1.1:1883,1551651203248,RECEIVED
Subscriber_001,topicA,topicA-76,172.172.1.1:1883,1551651203337,RECEIVED
Subscriber_001,topicA,topicA-77,172.172.1.1:1883,1551651203448,RECEIVED
Subscriber_001,topicA,topicA-78,172.172.1.1:1883,1551651203547,RECEIVED
Subscriber_001,topicA,topicA-79,172.172.1.1:1883,1551651203643,RECEIVED
Subscriber_001,topicA,topicA-80,172.172.1.1:1883,1551651203746,RECEIVED
Subscriber_001,topicA,topicA-81,172.172.1.1:1883,1551651203853,RECEIVED
Subscriber_001,topicA,topicA-82,172.172.1.1:1883,1551651203952,RECEIVED
Subscriber_001,topicA,topicA-83,172.172.1.1:1883,1551651204044,RECEIVED
Subscriber_001,topicA,topicA-84,172.172.1.1:1883,1551651204143,RECEIVED
Subscriber_001,topicA,topicA-85,172.172.1.1:1883,1551651204240,RECEIVED
Subscriber_001,topicA,topicA-86,172.172.1.1:1883,1551651204353,RECEIVED
Subscriber_001,topicA,topicA-87,172.172.1.1:1883,1551651204453,RECEIVED
Subscriber_001,topicA,topicA-88,172.172.1.1:1883,1551651204552,RECEIVED
Subscriber_001,topicA,topicA-89,172.172.1.1:1883,1551651204649,RECEIVED
Subscriber_001,topicA,topicA-90,172.172.1.1:1883,1551651204752,RECEIVED
Subscriber_001,topicA,topicA-91,172.172.1.1:1883,1551651204839,RECEIVED
Subscriber_001,topicA,topicA-92,172.172.1.1:1883,1551651204945,RECEIVED
Subscriber_001,topicA,topicA-93,172.172.1.1:1883,1551651205045,RECEIVED
Subscriber_001,topicA,topicA-94,172.172.1.1:1883,1551651205155,RECEIVED
Subscriber_001,topicA,topicA-95,172.172.1.1:1883,1551651205243,RECEIVED
Subscriber_001,topicA,topicA-96,172.172.1.1:1883,1551651205348,RECEIVED
Subscriber_001,topicA,topicA-97,172.172.1.1:1883,1551651205451,RECEIVED
Subscriber_001,topicA,topicA-98,172.172.1.1:1883,1551651205542,RECEIVED
Subscriber_001,topicA,topicA-99,172.172.1.1:1883,1551651205638,RECEIVED
Subscriber_001,topicA,topicA-100,172.172.1.1:1883,1551651205745,RECEIVED
Subscriber_001,topicA,topicA-101,172.172.1.1:1883,1551651205838,RECEIVED
Subscriber_001,topicA,topicA-102,172.172.1.1:1883,1551651205946,RECEIVED
Subscriber_001,topicA,topicA-103,172.172.1.1:1883,1551651206047,RECEIVED
Subscriber_001,topicA,topicA-104,172.172.1.1:1883,1551651206166,RECEIVED
Subscriber_001,topicA,topicA-105,172.172.1.1:1883,1551651206240,RECEIVED
Subscriber_001,topicA,topicA-106,172.172.1.1:1883,1551651206343,RECEIVED
Subscriber_001,topicA,topicA-107,172.172.1.1:1883,1551651206444,RECEIVED
Subscriber_001,topicA,topicA-108,172.172.1.1:1883,1551651206547,RECEIVED
Subscriber_001,topicA,topicA-109,172.172.1.1:1883,1551651206645,RECEIVED
Subscriber_001,topicA,topicA-110,172.172.1.1:1883,1551651206743,RECEIVED
Subscriber_001,topicA,topicA-111,172.172.1.1:1883,1551651206840,RECEIVED
Subscriber_001,topicA,topicA-112,172.172.1.1:1883,1551651206943,RECEIVED
Subscriber_001,topicA,topicA-113,172.172.1.1:1883,1551651207041,RECEIVED
Subscriber_001,topicA,topicA-114,172.172.1.1:1883,1551651207155,RECEIVED
Subscriber_001,topicA,topicA-115,172.172.1.1:1883,1551651207241,RECEIVED
Subscriber_001,topicA,topicA-116,172.172.1.1:1883,1551651207340,RECEIVED
Subscriber_001,topicA,topicA-117,172.172.1.1:1883,1551651207443,RECEIVED
Subscriber_001,topicA,topicA-118,172.172.1.1:1883,1551651207545,RECEIVED
Subscriber_001,topicA,topicA-119,172.172.1.1:1883,1551651207646,RECEIVED
Subscriber_001,topicA,topicA-120,172.172.1.1:1883,1551651207740,RECEIVED
Subscriber_001,topicA,topicA-121,172.172.1.1:1883,1551651207844,RECEIVED
Subscriber_001,topicA,topicA-122,172.172.1.1:1883,1551651207957,RECEIVED
Subscriber_001,topicA,topicA-123,172.172.1.1:1883,1551651208049,RECEIVED
Subscriber_001,topicA,topicA-124,172.172.1.1:1883,1551651208151,RECEIVED
Subscriber_001,topicA,topicA-125,172.172.1.1:1883,1551651208237,RECEIVED
Subscriber_001,topicA,topicA-126,172.172.1.1:1883,1551651208343,RECEIVED
Subscriber_001,topicA,topicA-127,172.172.1.1:1883,1551651208449,RECEIVED
Subscriber_001,topicA,topicA-128,172.172.1.1:1883,1551651208572,RECEIVED
Subscriber_001,topicA,topicA-129,172.172.1.1:1883,1551651208652,RECEIVED
Subscriber_001,topicA,topicA-130,172.172.1.1:1883,1551651208742,RECEIVED
Subscriber_001,topicA,topicA-131,172.172.1.1:1883,1551651208854,RECEIVED
Subscriber_001,topicA,topicA-132,172.172.1.1:1883,1551651208954,RECEIVED
Subscriber_001,topicA,topicA-133,172.172.1.1:1883,1551651209052,RECEIVED
Subscriber_001,topicA,topicA-134,172.172.1.1:1883,1551651209143,RECEIVED
Subscriber_001,topicA,topicA-135,172.172.1.1:1883,1551651209243,RECEIVED
Subscriber_001,topicA,topicA-136,172.172.1.1:1883,1551651209344,RECEIVED
Subscriber_001,topicA,topicA-137,172.172.1.1:1883,1551651209455,RECEIVED
Subscriber_001,topicA,topicA-138,172.172.1.1:1883,1551651209541,RECEIVED
Subscriber_001,topicA,topicA-139,172.172.1.1:1883,1551651209650,RECEIVED
Subscriber_001,topicA,topicA-140,172.172.1.1:1883,1551651209755,RECEIVED
Subscriber_001,topicA,topicA-141,172.172.1.1:1883,1551651209839,RECEIVED
Subscriber_001,topicA,topicA-142,172.172.1.1:1883,1551651209941,RECEIVED
Subscriber_001,topicA,topicA-143,172.172.1.1:1883,1551651210041,RECEIVED
Subscriber_001,topicA,topicA-144,172.172.1.1:1883,1551651210144,RECEIVED
Subscriber_001,topicA,topicA-145,172.172.1.1:1883,1551651210245,RECEIVED
Subscriber_001,topicA,topicA-146,172.172.1.1:1883,1551651210341,RECEIVED
Subscriber_001,topicA,topicA-147,172.172.1.1:1883,1551651210438,RECEIVED
Subscriber_001,topicA,topicA-148,172.172.1.1:1883,1551651210539,RECEIVED
Subscriber_001,topicA,topicA-149,172.172.1.1:1883,1551651210643,RECEIVED
Subscriber_001,topicA,topicA-150,172.172.1.1:1883,1551651210741,RECEIVED
Subscriber_001,topicA,topicA-151,172.172.1.1:1883,1551651210845,RECEIVED
Subscriber_001,topicA,topicA-152,172.172.1.1:1883,1551651210947,RECEIVED
Subscriber_001,topicA,topicA-153,172.172.1.1:1883,1551651211049,RECEIVED
Subscriber_001,topicA,topicA-154,172.172.1.1:1883,1551651211145,RECEIVED
Subscriber_001,topicA,topicA-155,172.172.1.1:1883,1551651211245,RECEIVED
Subscriber_001,topicA,topicA-156,172.172.1.1:1883,1551651211352,RECEIVED
Subscriber_001,topicA,topicA-157,172.172.1.1:1883,1551651211451,RECEIVED
Subscriber_001,topicA,topicA-158,172.172.1.1:1883,1551651211541,RECEIVED
Subscriber_001,topicA,topicA-159,172.172.1.1:1883,1551651211640,RECEIVED
Subscriber_001,topicA,topicA-160,172.172.1.1:1883,1551651211753,RECEIVED
Subscriber_001,topicA,topicA-161,172.172.1.1:1883,1551651211848,RECEIVED
Subscriber_001,topicA,topicA-162,172.172.1.1:1883,1551651211945,RECEIVED
Subscriber_001,topicA,topicA-163,172.172.1.1:1883,1551651212046,RECEIVED
Subscriber_001,topicA,topicA-164,172.172.1.1:1883,1551651212143,RECEIVED
Subscriber_001,topicA,topicA-165,172.172.1.1:1883,1551651212247,RECEIVED
Subscriber_001,topicA,topicA-166,172.172.1.1:1883,1551651212338,RECEIVED
Subscriber_001,topicA,topicA-167,172.172.1.1:1883,1551651212450,RECEIVED
Subscriber_001,topicA,topicA-168,172.172.1.1:1883,1551651212540,RECEIVED
Subscriber_001,topicA,topicA-169,172.172.1.1:1883,1551651212647,RECEIVED
Subscriber_001,topicA,topicA-170,172.172.1.1:1883,1551651212745,RECEIVED
Subscriber_001,topicA,topicA-171,172.172.1.1:1883,1551651212842,RECEIVED
Subscriber_001,topicA,topicA-172,172.172.1.1:1883,1551651212961,RECEIVED
Subscriber_001,topicA,topicA-173,172.172.1.1:1883,1551651213046,RECEIVED
Subscriber_001,topicA,topicA-174,172.172.1.1:1883,1551651213148,RECEIVED
Subscriber_001,topicA,topicA-175,172.172.1.1:1883,1551651213237,RECEIVED
Subscriber_001,topicA,topicA-176,172.172.1.1:1883,1551651213348,RECEIVED
Subscriber_001,topicA,topicA-177,172.172.1.1:1883,1551651213447,RECEIVED
Subscriber_001,topicA,topicA-178,172.172.1.1:1883,1551651213545,RECEIVED
Subscriber_001,topicA,topicA-179,172.172.1.1:1883,1551651213652,RECEIVED
Subscriber_001,topicA,topicA-180,172.172.1.1:1883,1551651213738,RECEIVED
Subscriber_001,topicA,topicA-181,172.172.1.1:1883,1551651213849,RECEIVED
Subscriber_001,topicA,topicA-182,172.172.1.1:1883,1551651213941,RECEIVED
Subscriber_001,topicA,topicA-183,172.172.1.1:1883,1551651214041,RECEIVED
Subscriber_001,topicA,topicA-184,172.172.1.1:1883,1551651214155,RECEIVED
Subscriber_001,topicA,topicA-185,172.172.1.1:1883,1551651214242,RECEIVED
Subscriber_001,topicA,topicA-186,172.172.1.1:1883,1551651214338,RECEIVED
Subscriber_001,topicA,topicA-187,172.172.1.1:1883,1551651214446,RECEIVED
Subscriber_001,topicA,topicA-188,172.172.1.1:1883,1551651214552,RECEIVED
Subscriber_001,topicA,topicA-189,172.172.1.1:1883,1551651214648,RECEIVED
Subscriber_001,topicA,topicA-190,172.172.1.1:1883,1551651214750,RECEIVED
Subscriber_001,topicA,topicA-191,172.172.1.1:1883,1551651214847,RECEIVED
Subscriber_001,topicA,topicA-192,172.172.1.1:1883,1551651214947,RECEIVED
Subscriber_001,topicA,topicA-193,172.172.1.1:1883,1551651215042,RECEIVED
Subscriber_001,topicA,topicA-194,172.172.1.1:1883,1551651215140,RECEIVED
Subscriber_001,topicA,topicA-195,172.172.1.1:1883,1551651215239,RECEIVED
Subscriber_001,topicA,topicA-196,172.172.1.1:1883,1551651215337,RECEIVED
Subscriber_001,topicA,topicA-197,172.172.1.1:1883,1551651215436,RECEIVED
Subscriber_001,topicA,topicA-198,172.172.1.1:1883,1551651215543,RECEIVED
Subscriber_001,topicA,topicA-199,172.172.1.1:1883,1551651215642,RECEIVED
Subscriber_001,topicA,topicA-200,172.172.1.1:1883,1551651215744,RECEIVED
Subscriber_001,topicA,topicA-201,172.172.1.1:1883,1551651215851,RECEIVED
Subscriber_001,topicA,topicA-202,172.172.1.1:1883,1551651215949,RECEIVED
Subscriber_001,topicA,topicA-203,172.172.1.1:1883,1551651216043,RECEIVED
Subscriber_001,topicA,topicA-204,172.172.1.1:1883,1551651216152,RECEIVED
Subscriber_001,topicA,topicA-205,172.172.1.1:1883,1551651216243,RECEIVED
Subscriber_001,topicA,topicA-206,172.172.1.1:1883,1551651216348,RECEIVED
Subscriber_001,topicA,topicA-207,172.172.1.1:1883,1551651216444,RECEIVED
Subscriber_001,topicA,topicA-208,172.172.1.1:1883,1551651216550,RECEIVED
Subscriber_001,topicA,topicA-209,172.172.1.1:1883,1551651216651,RECEIVED
Subscriber_001,topicA,topicA-210,172.172.1.1:1883,1551651216745,RECEIVED
Subscriber_001,topicA,topicA-211,172.172.1.1:1883,1551651216856,RECEIVED
Subscriber_001,topicA,topicA-212,172.172.1.1:1883,1551651216949,RECEIVED
Subscriber_001,topicA,topicA-213,172.172.1.1:1883,1551651217047,RECEIVED
Subscriber_001,topicA,topicA-214,172.172.1.1:1883,1551651217140,RECEIVED
Subscriber_001,topicA,topicA-215,172.172.1.1:1883,1551651217246,RECEIVED
Subscriber_001,topicA,topicA-216,172.172.1.1:1883,1551651217338,RECEIVED
Subscriber_001,topicA,topicA-217,172.172.1.1:1883,1551651217449,RECEIVED
Subscriber_001,topicA,topicA-218,172.172.1.1:1883,1551651217540,RECEIVED
Subscriber_001,topicA,topicA-219,172.172.1.1:1883,1551651217648,RECEIVED
Subscriber_001,topicA,topicA-220,172.172.1.1:1883,1551651217754,RECEIVED
Subscriber_001,topicA,topicA-221,172.172.1.1:1883,1551651217840,RECEIVED
Subscriber_001,topicA,topicA-222,172.172.1.1:1883,1551651217954,RECEIVED
Subscriber_001,topicA,topicA-223,172.172.1.1:1883,1551651218053,RECEIVED
Subscriber_001,topicA,topicA-224,172.172.1.1:1883,1551651218156,RECEIVED
Subscriber_001,topicA,topicA-225,172.172.1.1:1883,1551651218246,RECEIVED
Subscriber_001,topicA,topicA-226,172.172.1.1:1883,1551651218345,RECEIVED
Subscriber_001,topicA,topicA-227,172.172.1.1:1883,1551651218442,RECEIVED
Subscriber_001,topicA,topicA-228,172.172.1.1:1883,1551651218542,RECEIVED
Subscriber_001,topicA,topicA-253,172.172.1.2:1883,1551651219045,RECEIVED
Subscriber_001,topicA,topicA-229,172.172.1.1:1883,1551651219104,RECEIVED
Subscriber_001,topicA,topicA-230,172.172.1.1:1883,1551651219109,RECEIVED
Subscriber_001,topicA,topicA-231,172.172.1.1:1883,1551651219112,RECEIVED
Subscriber_001,topicA,topicA-232,172.172.1.1:1883,1551651219115,RECEIVED
Subscriber_001,topicA,topicA-233,172.172.1.1:1883,1551651219119,RECEIVED
Subscriber_001,topicA,topicA-254,172.172.1.2:1883,1551651219151,RECEIVED
Subscriber_001,topicA,topicA-234,172.172.1.1:1883,1551651219180,RECEIVED
Subscriber_001,topicA,topicA-255,172.172.1.2:1883,1551651219238,RECEIVED
Subscriber_001,topicA,topicA-235,172.172.1.1:1883,1551651219242,RECEIVED
Subscriber_001,topicA,topicA-256,172.172.1.2:1883,1551651219342,RECEIVED
Subscriber_001,topicA,topicA-236,172.172.1.1:1883,1551651219347,RECEIVED
Subscriber_001,topicA,topicA-237,172.172.1.1:1883,1551651219439,RECEIVED
Subscriber_001,topicA,topicA-257,172.172.1.2:1883,1551651219445,RECEIVED
Subscriber_001,topicA,topicA-258,172.172.1.2:1883,1551651219534,RECEIVED
Subscriber_001,topicA,topicA-238,172.172.1.1:1883,1551651219539,RECEIVED
Subscriber_001,topicA,topicA-259,172.172.1.2:1883,1551651219637,RECEIVED
Subscriber_001,topicA,topicA-239,172.172.1.1:1883,1551651219645,RECEIVED
Subscriber_001,topicA,topicA-260,172.172.1.2:1883,1551651219739,RECEIVED
Subscriber_001,topicA,topicA-240,172.172.1.1:1883,1551651219745,RECEIVED
Subscriber_001,topicA,topicA-261,172.172.1.2:1883,1551651219836,RECEIVED
Subscriber_001,topicA,topicA-241,172.172.1.1:1883,1551651219846,RECEIVED
Subscriber_001,topicA,topicA-262,172.172.1.2:1883,1551651219936,RECEIVED
Subscriber_001,topicA,topicA-242,172.172.1.1:1883,1551651219941,RECEIVED
Subscriber_001,topicA,topicA-243,172.172.1.1:1883,1551651220041,RECEIVED
Subscriber_001,topicA,topicA-263,172.172.1.2:1883,1551651220042,RECEIVED
Subscriber_001,topicA,topicA-264,172.172.1.2:1883,1551651220137,RECEIVED
Subscriber_001,topicA,topicA-244,172.172.1.1:1883,1551651220138,RECEIVED
Subscriber_001,topicA,topicA-245,172.172.1.1:1883,1551651220246,RECEIVED
Subscriber_001,topicA,topicA-265,172.172.1.2:1883,1551651220247,RECEIVED
Subscriber_001,topicA,topicA-246,172.172.1.1:1883,1551651220345,RECEIVED
Subscriber_001,topicA,topicA-266,172.172.1.2:1883,1551651220365,RECEIVED
Subscriber_001,topicA,topicA-267,172.172.1.2:1883,1551651220451,RECEIVED
Subscriber_001,topicA,topicA-247,172.172.1.1:1883,1551651220458,RECEIVED
Subscriber_001,topicA,topicA-268,172.172.1.2:1883,1551651220540,RECEIVED
Subscriber_001,topicA,topicA-248,172.172.1.1:1883,1551651220551,RECEIVED
Subscriber_001,topicA,topicA-269,172.172.1.2:1883,1551651220643,RECEIVED
Subscriber_001,topicA,topicA-249,172.172.1.1:1883,1551651220670,RECEIVED
Subscriber_001,topicA,topicA-250,172.172.1.1:1883,1551651220737,RECEIVED
Subscriber_001,topicA,topicA-270,172.172.1.2:1883,1551651220742,RECEIVED
Subscriber_001,topicA,topicA-271,172.172.1.2:1883,1551651220843,RECEIVED
Subscriber_001,topicA,topicA-251,172.172.1.1:1883,1551651220846,RECEIVED
Subscriber_001,topicA,topicA-272,172.172.1.2:1883,1551651220945,RECEIVED
Subscriber_001,topicA,topicA-252,172.172.1.1:1883,1551651220987,RECEIVED
Subscriber_001,topicA,topicA-273,172.172.1.2:1883,1551651221050,RECEIVED
Subscriber_001,topicA,topicA-274,172.172.1.2:1883,1551651221147,RECEIVED
Subscriber_001,topicA,topicA-275,172.172.1.2:1883,1551651221238,RECEIVED
Subscriber_001,topicA,topicA-276,172.172.1.2:1883,1551651221334,RECEIVED
Subscriber_001,topicA,topicA-277,172.172.1.2:1883,1551651221439,RECEIVED
Subscriber_001,topicA,topicA-278,172.172.1.2:1883,1551651221536,RECEIVED
Subscriber_001,topicA,topicA-279,172.172.1.2:1883,1551651221638,RECEIVED
Subscriber_001,topicA,topicA-280,172.172.1.2:1883,1551651221737,RECEIVED
Subscriber_001,topicA,topicA-281,172.172.1.2:1883,1551651221834,RECEIVED
Subscriber_001,topicA,topicA-282,172.172.1.2:1883,1551651221930,RECEIVED
Subscriber_001,topicA,topicA-283,172.172.1.2:1883,1551651222039,RECEIVED
Subscriber_001,topicA,topicA-284,172.172.1.2:1883,1551651222133,RECEIVED
Subscriber_001,topicA,topicA-285,172.172.1.2:1883,1551651222241,RECEIVED
Subscriber_001,topicA,topicA-286,172.172.1.2:1883,1551651222344,RECEIVED
Subscriber_001,topicA,topicA-287,172.172.1.2:1883,1551651222438,RECEIVED
Subscriber_001,topicA,topicA-288,172.172.1.2:1883,1551651222531,RECEIVED
Subscriber_001,topicA,topicA-289,172.172.1.2:1883,1551651222630,RECEIVED
Subscriber_001,topicA,topicA-290,172.172.1.2:1883,1551651222734,RECEIVED
Subscriber_001,topicA,topicA-291,172.172.1.2:1883,1551651222834,RECEIVED
Subscriber_001,topicA,topicA-292,172.172.1.2:1883,1551651222935,RECEIVED
Subscriber_001,topicA,topicA-293,172.172.1.2:1883,1551651223035,RECEIVED
Subscriber_001,topicA,topicA-294,172.172.1.2:1883,1551651223130,RECEIVED
Subscriber_001,topicA,topicA-295,172.172.1.2:1883,1551651223229,RECEIVED
Subscriber_001,topicA,topicA-296,172.172.1.2:1883,1551651223338,RECEIVED
Subscriber_001,topicA,topicA-297,172.172.1.2:1883,1551651223433,RECEIVED
Subscriber_001,topicA,topicA-298,172.172.1.2:1883,1551651223534,RECEIVED
Subscriber_001,topicA,topicA-299,172.172.1.2:1883,1551651223635,RECEIVED
Subscriber_001,topicA,topicA-300,172.172.1.2:1883,1551651223734,RECEIVED
Subscriber_001,topicA,topicA-301,172.172.1.2:1883,1551651223835,RECEIVED
Subscriber_001,topicA,topicA-302,172.172.1.2:1883,1551651223936,RECEIVED
Subscriber_001,topicA,topicA-303,172.172.1.2:1883,1551651224038,RECEIVED
Subscriber_001,topicA,topicA-304,172.172.1.2:1883,1551651224133,RECEIVED
Subscriber_001,topicA,topicA-305,172.172.1.2:1883,1551651224238,RECEIVED
Subscriber_001,topicA,topicA-306,172.172.1.2:1883,1551651224337,RECEIVED
Subscriber_001,topicA,topicA-307,172.172.1.2:1883,1551651224436,RECEIVED
Subscriber_001,topicA,topicA-308,172.172.1.2:1883,1551651224538,RECEIVED
Subscriber_001,topicA,topicA-309,172.172.1.2:1883,1551651224638,RECEIVED
Subscriber_001,topicA,topicA-310,172.172.1.2:1883,1551651224736,RECEIVED
Subscriber_001,topicA,topicA-311,172.172.1.2:1883,1551651224835,RECEIVED
Subscriber_001,topicA,topicA-312,172.172.1.2:1883,1551651224935,RECEIVED
Subscriber_001,topicA,topicA-313,172.172.1.2:1883,1551651225031,RECEIVED
Subscriber_001,topicA,topicA-314,172.172.1.2:1883,1551651225134,RECEIVED
Subscriber_001,topicA,topicA-315,172.172.1.2:1883,1551651225233,RECEIVED
Subscriber_001,topicA,topicA-316,172.172.1.2:1883,1551651225329,RECEIVED
Subscriber_001,topicA,topicA-317,172.172.1.2:1883,1551651225438,RECEIVED
Subscriber_001,topicA,topicA-318,172.172.1.2:1883,1551651225543,RECEIVED
Subscriber_001,topicA,topicA-319,172.172.1.2:1883,1551651225633,RECEIVED
Subscriber_001,topicA,topicA-320,172.172.1.2:1883,1551651225732,RECEIVED
Subscriber_001,topicA,topicA-321,172.172.1.2:1883,1551651225836,RECEIVED
Subscriber_001,topicA,topicA-322,172.172.1.2:1883,1551651225938,RECEIVED
Subscriber_001,topicA,topicA-323,172.172.1.2:1883,1551651226034,RECEIVED
Subscriber_001,topicA,topicA-324,172.172.1.2:1883,1551651226144,RECEIVED
Subscriber_001,topicA,topicA-325,172.172.1.2:1883,1551651226240,RECEIVED
Subscriber_001,topicA,topicA-326,172.172.1.2:1883,1551651226330,RECEIVED
Subscriber_001,topicA,topicA-327,172.172.1.2:1883,1551651226439,RECEIVED
Subscriber_001,topicA,topicA-328,172.172.1.2:1883,1551651226536,RECEIVED
Subscriber_001,topicA,topicA-329,172.172.1.2:1883,1551651226633,RECEIVED
Subscriber_001,topicA,topicA-330,172.172.1.2:1883,1551651226734,RECEIVED
Subscriber_001,topicA,topicA-331,172.172.1.2:1883,1551651226838,RECEIVED
Subscriber_001,topicA,topicA-332,172.172.1.2:1883,1551651226944,RECEIVED
Subscriber_001,topicA,topicA-333,172.172.1.2:1883,1551651227033,RECEIVED
Subscriber_001,topicA,topicA-334,172.172.1.2:1883,1551651227135,RECEIVED
Subscriber_001,topicA,topicA-335,172.172.1.2:1883,1551651227238,RECEIVED
Subscriber_001,topicA,topicA-336,172.172.1.2:1883,1551651227336,RECEIVED
Subscriber_001,topicA,topicA-337,172.172.1.2:1883,1551651227433,RECEIVED
Subscriber_001,topicA,topicA-338,172.172.1.2:1883,1551651227535,RECEIVED
Subscriber_001,topicA,topicA-339,172.172.1.2:1883,1551651227630,RECEIVED
Subscriber_001,topicA,topicA-340,172.172.1.2:1883,1551651227733,RECEIVED
Subscriber_001,topicA,topicA-341,172.172.1.2:1883,1551651227829,RECEIVED
Subscriber_001,topicA,topicA-342,172.172.1.2:1883,1551651227934,RECEIVED
Subscriber_001,topicA,topicA-343,172.172.1.2:1883,1551651228035,RECEIVED
Subscriber_001,topicA,topicA-344,172.172.1.2:1883,1551651228131,RECEIVED
Subscriber_001,topicA,topicA-345,172.172.1.2:1883,1551651228235,RECEIVED
Subscriber_001,topicA,topicA-346,172.172.1.2:1883,1551651228345,RECEIVED
Subscriber_001,topicA,topicA-347,172.172.1.2:1883,1551651228430,RECEIVED
Subscriber_001,topicA,topicA-348,172.172.1.2:1883,1551651228539,RECEIVED
Subscriber_001,topicA,topicA-349,172.172.1.2:1883,1551651228633,RECEIVED
Subscriber_001,topicA,topicA-350,172.172.1.2:1883,1551651228730,RECEIVED
Subscriber_001,topicA,topicA-351,172.172.1.2:1883,1551651228832,RECEIVED
Subscriber_001,topicA,topicA-352,172.172.1.2:1883,1551651228930,RECEIVED
Subscriber_001,topicA,topicA-353,172.172.1.2:1883,1551651229033,RECEIVED
Subscriber_001,topicA,topicA-354,172.172.1.2:1883,1551651229138,RECEIVED
Subscriber_001,topicA,topicA-355,172.172.1.2:1883,1551651229235,RECEIVED
Subscriber_001,topicA,topicA-356,172.172.1.2:1883,1551651229338,RECEIVED
Subscriber_001,topicA,topicA-357,172.172.1.2:1883,1551651229437,RECEIVED
Subscriber_001,topicA,topicA-358,172.172.1.2:1883,1551651229531,RECEIVED
Subscriber_001,topicA,topicA-359,172.172.1.2:1883,1551651229632,RECEIVED
Subscriber_001,topicA,topicA-360,172.172.1.2:1883,1551651229739,RECEIVED
Subscriber_001,topicA,topicA-361,172.172.1.2:1883,1551651229836,RECEIVED
Subscriber_001,topicA,topicA-362,172.172.1.2:1883,1551651229939,RECEIVED
Subscriber_001,topicA,topicA-363,172.172.1.2:1883,1551651230039,RECEIVED
Subscriber_001,topicA,topicA-364,172.172.1.2:1883,1551651230135,RECEIVED
Subscriber_001,topicA,topicA-365,172.172.1.2:1883,1551651230232,RECEIVED
Subscriber_001,topicA,topicA-366,172.172.1.2:1883,1551651230333,RECEIVED
Subscriber_001,topicA,topicA-367,172.172.1.2:1883,1551651230436,RECEIVED
Subscriber_001,topicA,topicA-368,172.172.1.2:1883,1551651230535,RECEIVED
Subscriber_001,topicA,topicA-369,172.172.1.2:1883,1551651230633,RECEIVED
Subscriber_001,topicA,topicA-370,172.172.1.2:1883,1551651230733,RECEIVED
Subscriber_001,topicA,topicA-371,172.172.1.2:1883,1551651230834,RECEIVED
Subscriber_001,topicA,topicA-372,172.172.1.2:1883,1551651230939,RECEIVED
Subscriber_001,topicA,topicA-373,172.172.1.2:1883,1551651231039,RECEIVED
Subscriber_001,topicA,topicA-374,172.172.1.2:1883,1551651231130,RECEIVED
Subscriber_001,topicA,topicA-375,172.172.1.2:1883,1551651231234,RECEIVED
Subscriber_001,topicA,topicA-376,172.172.1.2:1883,1551651231333,RECEIVED
Subscriber_001,topicA,topicA-377,172.172.1.2:1883,1551651231436,RECEIVED
Subscriber_001,topicA,topicA-378,172.172.1.2:1883,1551651231539,RECEIVED
Subscriber_001,topicA,topicA-379,172.172.1.2:1883,1551651231635,RECEIVED
Subscriber_001,topicA,topicA-380,172.172.1.2:1883,1551651231735,RECEIVED
Subscriber_001,topicA,topicA-381,172.172.1.2:1883,1551651231833,RECEIVED
Subscriber_001,topicA,topicA-382,172.172.1.2:1883,1551651231936,RECEIVED
Subscriber_001,topicA,topicA-383,172.172.1.2:1883,1551651232039,RECEIVED
Subscriber_001,topicA,topicA-384,172.172.1.2:1883,1551651232135,RECEIVED
Subscriber_001,topicA,topicA-385,172.172.1.2:1883,1551651232241,RECEIVED
Subscriber_001,topicA,topicA-386,172.172.1.2:1883,1551651232348,RECEIVED
Subscriber_001,topicA,topicA-387,172.172.1.2:1883,1551651232434,RECEIVED
Subscriber_001,topicA,topicA-388,172.172.1.2:1883,1551651232537,RECEIVED
Subscriber_001,topicA,topicA-389,172.172.1.2:1883,1551651232634,RECEIVED
Subscriber_001,topicA,topicA-390,172.172.1.2:1883,1551651232733,RECEIVED
Subscriber_001,topicA,topicA-391,172.172.1.2:1883,1551651232837,RECEIVED
Subscriber_001,topicA,topicA-392,172.172.1.2:1883,1551651232931,RECEIVED
Subscriber_001,topicA,topicA-393,172.172.1.2:1883,1551651233036,RECEIVED
Subscriber_001,topicA,topicA-394,172.172.1.2:1883,1551651233138,RECEIVED
Subscriber_001,topicA,topicA-395,172.172.1.2:1883,1551651233241,RECEIVED
Subscriber_001,topicA,topicA-396,172.172.1.2:1883,1551651233334,RECEIVED
Subscriber_001,topicA,topicA-397,172.172.1.2:1883,1551651233436,RECEIVED
Subscriber_001,topicA,topicA-398,172.172.1.2:1883,1551651233535,RECEIVED
Subscriber_001,topicA,topicA-399,172.172.1.2:1883,1551651233633,RECEIVED
Subscriber_001,topicA,topicA-400,172.172.1.2:1883,1551651233739,RECEIVED
Subscriber_001,topicA,topicA-401,172.172.1.2:1883,1551651233830,RECEIVED
Subscriber_001,topicA,topicA-402,172.172.1.2:1883,1551651233937,RECEIVED
Subscriber_001,topicA,topicA-403,172.172.1.2:1883,1551651234037,RECEIVED
Subscriber_001,topicA,topicA-404,172.172.1.2:1883,1551651234132,RECEIVED
Subscriber_001,topicA,topicA-405,172.172.1.2:1883,1551651234249,RECEIVED
Subscriber_001,topicA,topicA-406,172.172.1.2:1883,1551651234345,RECEIVED
Subscriber_001,topicA,topicA-407,172.172.1.2:1883,1551651234436,RECEIVED
Subscriber_001,topicA,topicA-408,172.172.1.2:1883,1551651234538,RECEIVED
Subscriber_001,topicA,topicA-409,172.172.1.2:1883,1551651234630,RECEIVED
Subscriber_001,topicA,topicA-410,172.172.1.2:1883,1551651234732,RECEIVED
Subscriber_001,topicA,topicA-411,172.172.1.2:1883,1551651234841,RECEIVED
Subscriber_001,topicA,topicA-412,172.172.1.2:1883,1551651234939,RECEIVED
Subscriber_001,topicA,topicA-413,172.172.1.2:1883,1551651235037,RECEIVED
Subscriber_001,topicA,topicA-414,172.172.1.2:1883,1551651235135,RECEIVED
Subscriber_001,topicA,topicA-415,172.172.1.2:1883,1551651235229,RECEIVED
Subscriber_001,topicA,topicA-416,172.172.1.2:1883,1551651235338,RECEIVED
Subscriber_001,topicA,topicA-417,172.172.1.2:1883,1551651235441,RECEIVED
Subscriber_001,topicA,topicA-418,172.172.1.2:1883,1551651235532,RECEIVED
Subscriber_001,topicA,topicA-419,172.172.1.2:1883,1551651235637,RECEIVED
Subscriber_001,topicA,topicA-420,172.172.1.2:1883,1551651235738,RECEIVED
Subscriber_001,topicA,topicA-421,172.172.1.2:1883,1551651235838,RECEIVED
Subscriber_001,topicA,topicA-422,172.172.1.2:1883,1551651235931,RECEIVED
Subscriber_001,topicA,topicA-423,172.172.1.2:1883,1551651236031,RECEIVED
Subscriber_001,topicA,topicA-424,172.172.1.2:1883,1551651236132,RECEIVED
Subscriber_001,topicA,topicA-425,172.172.1.2:1883,1551651236233,RECEIVED
Subscriber_001,topicA,topicA-426,172.172.1.2:1883,1551651236342,RECEIVED
Subscriber_001,topicA,topicA-427,172.172.1.2:1883,1551651236436,RECEIVED
Subscriber_001,topicA,topicA-428,172.172.1.2:1883,1551651236532,RECEIVED
Subscriber_001,topicA,topicA-429,172.172.1.2:1883,1551651236637,RECEIVED
Subscriber_001,topicA,topicA-430,172.172.1.2:1883,1551651236731,RECEIVED
Subscriber_001,topicA,topicA-431,172.172.1.2:1883,1551651236833,RECEIVED
Subscriber_001,topicA,topicA-432,172.172.1.2:1883,1551651236939,RECEIVED
Subscriber_001,topicA,topicA-433,172.172.1.2:1883,1551651237037,RECEIVED
Subscriber_001,topicA,topicA-434,172.172.1.2:1883,1551651237131,RECEIVED
Subscriber_001,topicA,topicA-435,172.172.1.2:1883,1551651237236,RECEIVED
Subscriber_001,topicA,topicA-436,172.172.1.2:1883,1551651237338,RECEIVED
Subscriber_001,topicA,topicA-437,172.172.1.2:1883,1551651237431,RECEIVED
Subscriber_001,topicA,topicA-438,172.172.1.2:1883,1551651237537,RECEIVED
Subscriber_001,topicA,topicA-439,172.172.1.2:1883,1551651237630,RECEIVED
Subscriber_001,topicA,topicA-440,172.172.1.2:1883,1551651237736,RECEIVED
Subscriber_001,topicA,topicA-441,172.172.1.2:1883,1551651237834,RECEIVED
Subscriber_001,topicA,topicA-442,172.172.1.2:1883,1551651237938,RECEIVED
Subscriber_001,topicA,topicA-443,172.172.1.2:1883,1551651238038,RECEIVED
Subscriber_001,topicA,topicA-444,172.172.1.2:1883,1551651238136,RECEIVED
Subscriber_001,topicA,topicA-445,172.172.1.2:1883,1551651238246,RECEIVED
Subscriber_001,topicA,topicA-446,172.172.1.2:1883,1551651238340,RECEIVED
Subscriber_001,topicA,topicA-447,172.172.1.2:1883,1551651238435,RECEIVED
Subscriber_001,topicA,topicA-448,172.172.1.2:1883,1551651238534,RECEIVED
Subscriber_001,topicA,topicA-449,172.172.1.2:1883,1551651238633,RECEIVED
Subscriber_001,topicA,topicA-450,172.172.1.2:1883,1551651238738,RECEIVED
Subscriber_001,topicA,topicA-451,172.172.1.2:1883,1551651238831,RECEIVED
Subscriber_001,topicA,topicA-452,172.172.1.2:1883,1551651238938,RECEIVED
Subscriber_001,topicA,topicA-453,172.172.1.2:1883,1551651239034,RECEIVED
Subscriber_001,topicA,topicA-454,172.172.1.2:1883,1551651239138,RECEIVED
Subscriber_001,topicA,topicA-455,172.172.1.2:1883,1551651239231,RECEIVED
Subscriber_001,topicA,topicA-456,172.172.1.2:1883,1551651239334,RECEIVED
Subscriber_001,topicA,topicA-457,172.172.1.2:1883,1551651239432,RECEIVED
Subscriber_001,topicA,topicA-458,172.172.1.2:1883,1551651239539,RECEIVED
Subscriber_001,topicA,topicA-459,172.172.1.2:1883,1551651239637,RECEIVED
Subscriber_001,topicA,topicA-460,172.172.1.2:1883,1551651239735,RECEIVED
Subscriber_001,topicA,topicA-461,172.172.1.2:1883,1551651239836,RECEIVED
Subscriber_001,topicA,topicA-462,172.172.1.2:1883,1551651239930,RECEIVED
Subscriber_001,topicA,topicA-463,172.172.1.2:1883,1551651240034,RECEIVED
Subscriber_001,topicA,topicA-464,172.172.1.2:1883,1551651240133,RECEIVED
Subscriber_001,topicA,topicA-465,172.172.1.2:1883,1551651240233,RECEIVED
Subscriber_001,topicA,topicA-466,172.172.1.2:1883,1551651240347,RECEIVED
Subscriber_001,topicA,topicA-467,172.172.1.2:1883,1551651240435,RECEIVED
Subscriber_001,topicA,topicA-468,172.172.1.2:1883,1551651240533,RECEIVED
Subscriber_001,topicA,topicA-469,172.172.1.2:1883,1551651240636,RECEIVED
Subscriber_001,topicA,topicA-470,172.172.1.2:1883,1551651240733,RECEIVED
Subscriber_001,topicA,topicA-471,172.172.1.2:1883,1551651240832,RECEIVED
Subscriber_001,topicA,topicA-472,172.172.1.2:1883,1551651240930,RECEIVED
Subscriber_001,topicA,topicA-473,172.172.1.2:1883,1551651241032,RECEIVED
Subscriber_001,topicA,topicA-474,172.172.1.2:1883,1551651241131,RECEIVED
Subscriber_001,topicA,topicA-475,172.172.1.2:1883,1551651241230,RECEIVED
Subscriber_001,topicA,topicA-476,172.172.1.2:1883,1551651241329,RECEIVED
Subscriber_001,topicA,topicA-477,172.172.1.2:1883,1551651241436,RECEIVED
Subscriber_001,topicA,topicA-478,172.172.1.2:1883,1551651241536,RECEIVED
Subscriber_001,topicA,topicA-479,172.172.1.2:1883,1551651241635,RECEIVED
Subscriber_001,topicA,topicA-480,172.172.1.2:1883,1551651241737,RECEIVED
Subscriber_001,topicA,topicA-481,172.172.1.2:1883,1551651241835,RECEIVED
Subscriber_001,topicA,topicA-482,172.172.1.2:1883,1551651241934,RECEIVED
Subscriber_001,topicA,topicA-483,172.172.1.2:1883,1551651242036,RECEIVED
Subscriber_001,topicA,topicA-484,172.172.1.2:1883,1551651242131,RECEIVED
Subscriber_001,topicA,topicA-485,172.172.1.2:1883,1551651242240,RECEIVED
Subscriber_001,topicA,topicA-486,172.172.1.2:1883,1551651242343,RECEIVED
Subscriber_001,topicA,topicA-487,172.172.1.2:1883,1551651242435,RECEIVED
Subscriber_001,topicA,topicA-488,172.172.1.2:1883,1551651242536,RECEIVED
Subscriber_001,topicA,topicA-489,172.172.1.2:1883,1551651242632,RECEIVED
Subscriber_001,topicA,topicA-490,172.172.1.2:1883,1551651242738,RECEIVED
Subscriber_001,topicA,topicA-491,172.172.1.2:1883,1551651242833,RECEIVED
Subscriber_001,topicA,topicA-492,172.172.1.2:1883,1551651242937,RECEIVED
Subscriber_001,topicA,topicA-493,172.172.1.2:1883,1551651243034,RECEIVED
Subscriber_001,topicA,topicA-494,172.172.1.2:1883,1551651243134,RECEIVED
Subscriber_001,topicA,topicA-495,172.172.1.2:1883,1551651243232,RECEIVED
Subscriber_001,topicA,topicA-496,172.172.1.2:1883,1551651243331,RECEIVED
Subscriber_001,topicA,topicA-497,172.172.1.2:1883,1551651243431,RECEIVED
Subscriber_001,topicA,topicA-498,172.172.1.2:1883,1551651243530,RECEIVED
Subscriber_001,topicA,topicA-499,172.172.1.2:1883,1551651243629,RECEIVED
Subscriber_001,topicA,topicA-500,172.172.1.2:1883,1551651243731,RECEIVED
Subscriber_001,topicA,topicA-501,172.172.1.2:1883,1551651243829,RECEIVED
Subscriber_001,topicA,topicA-502,172.172.1.2:1883,1551651243939,RECEIVED
Subscriber_001,topicA,topicA-503,172.172.1.2:1883,1551651244029,RECEIVED
Subscriber_001,topicA,topicA-504,172.172.1.2:1883,1551651244136,RECEIVED
Subscriber_001,topicA,topicA-505,172.172.1.2:1883,1551651244239,RECEIVED
Subscriber_001,topicA,topicA-506,172.172.1.2:1883,1551651244335,RECEIVED
Subscriber_001,topicA,topicA-507,172.172.1.2:1883,1551651244432,RECEIVED
Subscriber_001,topicA,topicA-508,172.172.1.2:1883,1551651244534,RECEIVED
Subscriber_001,topicA,topicA-509,172.172.1.2:1883,1551651244639,RECEIVED
Subscriber_001,topicA,topicA-510,172.172.1.2:1883,1551651244739,RECEIVED
Subscriber_001,topicA,topicA-511,172.172.1.2:1883,1551651244835,RECEIVED
Subscriber_001,topicA,topicA-512,172.172.1.2:1883,1551651244956,RECEIVED
Subscriber_001,topicA,topicA-513,172.172.1.2:1883,1551651245033,RECEIVED
Subscriber_001,topicA,topicA-514,172.172.1.2:1883,1551651245134,RECEIVED
Subscriber_001,topicA,topicA-515,172.172.1.2:1883,1551651245234,RECEIVED
Subscriber_001,topicA,topicA-516,172.172.1.2:1883,1551651245330,RECEIVED
Subscriber_001,topicA,topicA-517,172.172.1.2:1883,1551651245434,RECEIVED
Subscriber_001,topicA,topicA-518,172.172.1.2:1883,1551651245531,RECEIVED
Subscriber_001,topicA,topicA-519,172.172.1.2:1883,1551651245634,RECEIVED
Subscriber_001,topicA,topicA-520,172.172.1.2:1883,1551651245732,RECEIVED
Subscriber_001,topicA,topicA-521,172.172.1.2:1883,1551651245831,RECEIVED
Subscriber_001,topicA,topicA-522,172.172.1.2:1883,1551651245937,RECEIVED
Subscriber_001,topicA,topicA-523,172.172.1.2:1883,1551651246029,RECEIVED
Subscriber_001,topicA,topicA-524,172.172.1.2:1883,1551651246137,RECEIVED
Subscriber_001,topicA,topicA-525,172.172.1.2:1883,1551651246232,RECEIVED
Subscriber_001,topicA,topicA-526,172.172.1.2:1883,1551651246345,RECEIVED
Subscriber_001,topicA,topicA-527,172.172.1.2:1883,1551651246433,RECEIVED
Subscriber_001,topicA,topicA-528,172.172.1.2:1883,1551651246535,RECEIVED
Subscriber_001,topicA,topicA-529,172.172.1.2:1883,1551651246638,RECEIVED
Subscriber_001,topicA,topicA-530,172.172.1.2:1883,1551651246733,RECEIVED
Subscriber_001,topicA,topicA-531,172.172.1.2:1883,1551651246839,RECEIVED
Subscriber_001,topicA,topicA-532,172.172.1.2:1883,1551651246937,RECEIVED
Subscriber_001,topicA,topicA-533,172.172.1.2:1883,1551651247037,RECEIVED
Subscriber_001,topicA,topicA-534,172.172.1.2:1883,1551651247132,RECEIVED
Subscriber_001,topicA,topicA-535,172.172.1.2:1883,1551651247235,RECEIVED
Subscriber_001,topicA,topicA-536,172.172.1.2:1883,1551651247338,RECEIVED
Subscriber_001,topicA,topicA-537,172.172.1.2:1883,1551651247438,RECEIVED
Subscriber_001,topicA,topicA-538,172.172.1.2:1883,1551651247531,RECEIVED
Subscriber_001,topicA,topicA-539,172.172.1.2:1883,1551651247633,RECEIVED
Subscriber_001,topicA,topicA-540,172.172.1.2:1883,1551651247736,RECEIVED
Subscriber_001,topicA,topicA-541,172.172.1.2:1883,1551651247829,RECEIVED
Subscriber_001,topicA,topicA-542,172.172.1.2:1883,1551651247933,RECEIVED
Subscriber_001,topicA,topicA-543,172.172.1.2:1883,1551651248029,RECEIVED
Subscriber_001,topicA,topicA-544,172.172.1.2:1883,1551651248132,RECEIVED
Subscriber_001,topicA,topicA-545,172.172.1.2:1883,1551651248238,RECEIVED
Subscriber_001,topicA,topicA-546,172.172.1.2:1883,1551651248338,RECEIVED
Subscriber_001,topicA,topicA-547,172.172.1.2:1883,1551651248431,RECEIVED
Subscriber_001,topicA,topicA-548,172.172.1.2:1883,1551651248534,RECEIVED
Subscriber_001,topicA,topicA-549,172.172.1.2:1883,1551651248639,RECEIVED
Subscriber_001,topicA,topicA-550,172.172.1.2:1883,1551651248752,RECEIVED
Subscriber_001,topicA,topicA-551,172.172.1.2:1883,1551651248832,RECEIVED
Subscriber_001,topicA,topicA-552,172.172.1.2:1883,1551651248936,RECEIVED
Subscriber_001,topicA,topicA-553,172.172.1.2:1883,1551651249033,RECEIVED
Subscriber_001,topicA,topicA-554,172.172.1.2:1883,1551651249139,RECEIVED
Subscriber_001,topicA,topicA-555,172.172.1.2:1883,1551651249238,RECEIVED
Subscriber_001,topicA,topicA-556,172.172.1.2:1883,1551651249332,RECEIVED
Subscriber_001,topicA,topicA-557,172.172.1.2:1883,1551651249435,RECEIVED
Subscriber_001,topicA,topicA-558,172.172.1.2:1883,1551651249537,RECEIVED
Subscriber_001,topicA,topicA-559,172.172.1.2:1883,1551651249633,RECEIVED
Subscriber_001,topicA,topicA-560,172.172.1.2:1883,1551651249736,RECEIVED
Subscriber_001,topicA,topicA-561,172.172.1.2:1883,1551651249837,RECEIVED
Subscriber_001,topicA,topicA-562,172.172.1.2:1883,1551651249937,RECEIVED
Subscriber_001,topicA,topicA-563,172.172.1.2:1883,1551651250030,RECEIVED
Subscriber_001,topicA,topicA-564,172.172.1.2:1883,1551651250136,RECEIVED
Subscriber_001,topicA,topicA-565,172.172.1.2:1883,1551651250239,RECEIVED
Subscriber_001,topicA,topicA-566,172.172.1.2:1883,1551651250332,RECEIVED
Subscriber_001,topicA,topicA-567,172.172.1.2:1883,1551651250437,RECEIVED
Subscriber_001,topicA,topicA-568,172.172.1.2:1883,1551651250531,RECEIVED
Subscriber_001,topicA,topicA-569,172.172.1.2:1883,1551651250637,RECEIVED
Subscriber_001,topicA,topicA-570,172.172.1.2:1883,1551651250745,RECEIVED
Subscriber_001,topicA,topicA-571,172.172.1.2:1883,1551651250831,RECEIVED
Subscriber_001,topicA,topicA-572,172.172.1.2:1883,1551651250931,RECEIVED
Subscriber_001,topicA,topicA-573,172.172.1.2:1883,1551651251032,RECEIVED
Subscriber_001,topicA,topicA-574,172.172.1.2:1883,1551651251131,RECEIVED
Subscriber_001,topicA,topicA-575,172.172.1.2:1883,1551651251229,RECEIVED
Subscriber_001,topicA,topicA-576,172.172.1.2:1883,1551651251333,RECEIVED
Subscriber_001,topicA,topicA-577,172.172.1.2:1883,1551651251432,RECEIVED
Subscriber_001,topicA,topicA-578,172.172.1.2:1883,1551651251529,RECEIVED
Subscriber_001,topicA,topicA-579,172.172.1.2:1883,1551651251629,RECEIVED
Subscriber_001,topicA,topicA-580,172.172.1.2:1883,1551651251733,RECEIVED
Subscriber_001,topicA,topicA-581,172.172.1.2:1883,1551651251834,RECEIVED
Subscriber_001,topicA,topicA-582,172.172.1.2:1883,1551651251935,RECEIVED
Subscriber_001,topicA,topicA-583,172.172.1.2:1883,1551651252033,RECEIVED
Subscriber_001,topicA,topicA-584,172.172.1.2:1883,1551651252132,RECEIVED
Subscriber_001,topicA,topicA-585,172.172.1.2:1883,1551651252234,RECEIVED
Subscriber_001,topicA,topicA-586,172.172.1.2:1883,1551651252342,RECEIVED
Subscriber_001,topicA,topicA-587,172.172.1.2:1883,1551651252432,RECEIVED
Subscriber_001,topicA,topicA-588,172.172.1.2:1883,1551651252532,RECEIVED
Subscriber_001,topicA,topicA-589,172.172.1.2:1883,1551651252630,RECEIVED
Subscriber_001,topicA,topicA-590,172.172.1.2:1883,1551651252747,RECEIVED
Subscriber_001,topicA,topicA-591,172.172.1.2:1883,1551651252837,RECEIVED
Subscriber_001,topicA,topicA-592,172.172.1.2:1883,1551651252936,RECEIVED
Subscriber_001,topicA,topicA-593,172.172.1.2:1883,1551651253042,RECEIVED
Subscriber_001,topicA,topicA-594,172.172.1.2:1883,1551651253133,RECEIVED
Subscriber_001,topicA,topicA-595,172.172.1.2:1883,1551651253229,RECEIVED
Subscriber_001,topicA,topicA-596,172.172.1.2:1883,1551651253332,RECEIVED
Subscriber_001,topicA,topicA-597,172.172.1.2:1883,1551651253431,RECEIVED
Subscriber_001,topicA,topicA-598,172.172.1.2:1883,1551651253533,RECEIVED
Subscriber_001,topicA,topicA-599,172.172.1.2:1883,1551651253642,RECEIVED
Subscriber_001,topicA,topicA-600,172.172.1.2:1883,1551651253734,RECEIVED
Subscriber_001,topicA,topicA-601,172.172.1.2:1883,1551651253830,RECEIVED
Subscriber_001,topicA,topicA-602,172.172.1.2:1883,1551651253933,RECEIVED
Subscriber_001,topicA,topicA-603,172.172.1.2:1883,1551651254032,RECEIVED
Subscriber_001,topicA,topicA-604,172.172.1.2:1883,1551651254132,RECEIVED
Subscriber_001,topicA,topicA-605,172.172.1.2:1883,1551651254237,RECEIVED
Subscriber_001,topicA,topicA-606,172.172.1.2:1883,1551651254332,RECEIVED
Subscriber_001,topicA,topicA-607,172.172.1.2:1883,1551651254431,RECEIVED
Subscriber_001,topicA,topicA-608,172.172.1.2:1883,1551651254531,RECEIVED
Subscriber_001,topicA,topicA-609,172.172.1.2:1883,1551651254630,RECEIVED
Subscriber_001,topicA,topicA-610,172.172.1.2:1883,1551651254731,RECEIVED
Subscriber_001,topicA,topicA-611,172.172.1.2:1883,1551651254832,RECEIVED
Subscriber_001,topicA,topicA-612,172.172.1.2:1883,1551651254937,RECEIVED
Subscriber_001,topicA,topicA-613,172.172.1.2:1883,1551651255032,RECEIVED
Subscriber_001,topicA,topicA-614,172.172.1.2:1883,1551651255129,RECEIVED
Subscriber_001,topicA,topicA-615,172.172.1.2:1883,1551651255230,RECEIVED
Subscriber_001,topicA,topicA-616,172.172.1.2:1883,1551651255335,RECEIVED
Subscriber_001,topicA,topicA-617,172.172.1.2:1883,1551651255438,RECEIVED
Subscriber_001,topicA,topicA-618,172.172.1.2:1883,1551651255531,RECEIVED
Subscriber_001,topicA,topicA-619,172.172.1.2:1883,1551651255637,RECEIVED
Subscriber_001,topicA,topicA-620,172.172.1.2:1883,1551651255736,RECEIVED
Subscriber_001,topicA,topicA-621,172.172.1.2:1883,1551651255837,RECEIVED
Subscriber_001,topicA,topicA-622,172.172.1.2:1883,1551651255930,RECEIVED
Subscriber_001,topicA,topicA-623,172.172.1.2:1883,1551651256033,RECEIVED
Subscriber_001,topicA,topicA-624,172.172.1.2:1883,1551651256135,RECEIVED
Subscriber_001,topicA,topicA-625,172.172.1.2:1883,1551651256235,RECEIVED
Subscriber_001,topicA,topicA-626,172.172.1.2:1883,1551651256336,RECEIVED
Subscriber_001,topicA,topicA-627,172.172.1.2:1883,1551651256437,RECEIVED
Subscriber_001,topicA,topicA-628,172.172.1.2:1883,1551651256538,RECEIVED
Subscriber_001,topicA,topicA-629,172.172.1.2:1883,1551651256630,RECEIVED
Subscriber_001,topicA,topicA-630,172.172.1.2:1883,1551651256733,RECEIVED
Subscriber_001,topicA,topicA-631,172.172.1.2:1883,1551651256833,RECEIVED
Subscriber_001,topicA,topicA-632,172.172.1.2:1883,1551651256938,RECEIVED
Subscriber_001,topicA,topicA-633,172.172.1.2:1883,1551651257041,RECEIVED
Subscriber_001,topicA,topicA-634,172.172.1.2:1883,1551651257132,RECEIVED
Subscriber_001,topicA,topicA-635,172.172.1.2:1883,1551651257238,RECEIVED
Subscriber_001,topicA,topicA-636,172.172.1.2:1883,1551651257333,RECEIVED
Subscriber_001,topicA,topicA-637,172.172.1.2:1883,1551651257429,RECEIVED
Subscriber_001,topicA,topicA-638,172.172.1.2:1883,1551651257536,RECEIVED
Subscriber_001,topicA,topicA-639,172.172.1.2:1883,1551651257635,RECEIVED
Subscriber_001,topicA,topicA-640,172.172.1.2:1883,1551651257740,RECEIVED
Subscriber_001,topicA,topicA-641,172.172.1.2:1883,1551651257836,RECEIVED
Subscriber_001,topicA,topicA-642,172.172.1.2:1883,1551651257936,RECEIVED
Subscriber_001,topicA,topicA-643,172.172.1.2:1883,1551651258035,RECEIVED
Subscriber_001,topicA,topicA-644,172.172.1.2:1883,1551651258136,RECEIVED
Subscriber_001,topicA,topicA-645,172.172.1.2:1883,1551651258233,RECEIVED
Subscriber_001,topicA,topicA-646,172.172.1.2:1883,1551651258344,RECEIVED
Subscriber_001,topicA,topicA-647,172.172.1.2:1883,1551651258438,RECEIVED
Subscriber_001,topicA,topicA-648,172.172.1.2:1883,1551651258543,RECEIVED
Subscriber_001,topicA,topicA-649,172.172.1.2:1883,1551651258637,RECEIVED
Subscriber_001,topicA,topicA-650,172.172.1.2:1883,1551651258737,RECEIVED
Subscriber_001,topicA,topicA-651,172.172.1.2:1883,1551651258835,RECEIVED
Subscriber_001,topicA,topicA-652,172.172.1.2:1883,1551651258933,RECEIVED
Subscriber_001,topicA,topicA-653,172.172.1.2:1883,1551651259031,RECEIVED
Subscriber_001,topicA,topicA-654,172.172.1.2:1883,1551651259139,RECEIVED
Subscriber_001,topicA,topicA-655,172.172.1.2:1883,1551651259232,RECEIVED
Subscriber_001,topicA,topicA-656,172.172.1.2:1883,1551651259335,RECEIVED
Subscriber_001,topicA,topicA-657,172.172.1.2:1883,1551651259429,RECEIVED
Subscriber_001,topicA,topicA-658,172.172.1.2:1883,1551651259534,RECEIVED
Subscriber_001,topicA,topicA-659,172.172.1.2:1883,1551651259635,RECEIVED
Subscriber_001,topicA,topicA-660,172.172.1.2:1883,1551651259737,RECEIVED
Subscriber_001,topicA,topicA-661,172.172.1.2:1883,1551651259836,RECEIVED
Subscriber_001,topicA,topicA-662,172.172.1.2:1883,1551651259935,RECEIVED
Subscriber_001,topicA,topicA-663,172.172.1.2:1883,1551651260045,RECEIVED
