clientId,topic,guid,broker,timestamp,type
Subscriber_001,topicA,topicA-55,172.172.1.1:1883,1551655416761,RECEIVED
Subscriber_001,topicA,topicA-56,172.172.1.1:1883,1551655416763,RECEIVED
Subscriber_001,topicA,topicA-57,172.172.1.1:1883,1551655416764,RECEIVED
Subscriber_001,topicA,topicA-58,172.172.1.1:1883,1551655416794,RECEIVED
Subscriber_001,topicA,topicA-59,172.172.1.1:1883,1551655416888,RECEIVED
Subscriber_001,topicA,topicA-60,172.172.1.1:1883,1551655416997,RECEIVED
Subscriber_001,topicA,topicA-61,172.172.1.1:1883,1551655417095,RECEIVED
Subscriber_001,topicA,topicA-62,172.172.1.1:1883,1551655417204,RECEIVED
Subscriber_001,topicA,topicA-63,172.172.1.1:1883,1551655417305,RECEIVED
Subscriber_001,topicA,topicA-64,172.172.1.1:1883,1551655417390,RECEIVED
Subscriber_001,topicA,topicA-65,172.172.1.1:1883,1551655417489,RECEIVED
Subscriber_001,topicA,topicA-66,172.172.1.1:1883,1551655417586,RECEIVED
Subscriber_001,topicA,topicA-67,172.172.1.1:1883,1551655417687,RECEIVED
Subscriber_001,topicA,topicA-68,172.172.1.1:1883,1551655417802,RECEIVED
Subscriber_001,topicA,topicA-69,172.172.1.1:1883,1551655417896,RECEIVED
Subscriber_001,topicA,topicA-70,172.172.1.1:1883,1551655418013,RECEIVED
Subscriber_001,topicA,topicA-71,172.172.1.1:1883,1551655418081,RECEIVED
Subscriber_001,topicA,topicA-72,172.172.1.1:1883,1551655418191,RECEIVED
Subscriber_001,topicA,topicA-73,172.172.1.1:1883,1551655418302,RECEIVED
Subscriber_001,topicA,topicA-74,172.172.1.1:1883,1551655418391,RECEIVED
Subscriber_001,topicA,topicA-75,172.172.1.1:1883,1551655418496,RECEIVED
Subscriber_001,topicA,topicA-76,172.172.1.1:1883,1551655418605,RECEIVED
Subscriber_001,topicA,topicA-77,172.172.1.1:1883,1551655418699,RECEIVED
Subscriber_001,topicA,topicA-78,172.172.1.1:1883,1551655418797,RECEIVED
Subscriber_001,topicA,topicA-79,172.172.1.1:1883,1551655418888,RECEIVED
Subscriber_001,topicA,topicA-80,172.172.1.1:1883,1551655418989,RECEIVED
Subscriber_001,topicA,topicA-81,172.172.1.1:1883,1551655419100,RECEIVED
Subscriber_001,topicA,topicA-82,172.172.1.1:1883,1551655419194,RECEIVED
Subscriber_001,topicA,topicA-83,172.172.1.1:1883,1551655419297,RECEIVED
Subscriber_001,topicA,topicA-84,172.172.1.1:1883,1551655419394,RECEIVED
Subscriber_001,topicA,topicA-85,172.172.1.1:1883,1551655419486,RECEIVED
Subscriber_001,topicA,topicA-86,172.172.1.1:1883,1551655419598,RECEIVED
Subscriber_001,topicA,topicA-87,172.172.1.1:1883,1551655419697,RECEIVED
Subscriber_001,topicA,topicA-88,172.172.1.1:1883,1551655419798,RECEIVED
Subscriber_001,topicA,topicA-89,172.172.1.1:1883,1551655419894,RECEIVED
Subscriber_001,topicA,topicA-90,172.172.1.1:1883,1551655419996,RECEIVED
Subscriber_001,topicA,topicA-91,172.172.1.1:1883,1551655420103,RECEIVED
Subscriber_001,topicA,topicA-92,172.172.1.1:1883,1551655420200,RECEIVED
Subscriber_001,topicA,topicA-93,172.172.1.1:1883,1551655420288,RECEIVED
Subscriber_001,topicA,topicA-94,172.172.1.1:1883,1551655420400,RECEIVED
Subscriber_001,topicA,topicA-95,172.172.1.1:1883,1551655420494,RECEIVED
Subscriber_001,topicA,topicA-96,172.172.1.1:1883,1551655420590,RECEIVED
Subscriber_001,topicA,topicA-97,172.172.1.1:1883,1551655420688,RECEIVED
Subscriber_001,topicA,topicA-98,172.172.1.1:1883,1551655420798,RECEIVED
Subscriber_001,topicA,topicA-99,172.172.1.1:1883,1551655420902,RECEIVED
Subscriber_001,topicA,topicA-100,172.172.1.1:1883,1551655420998,RECEIVED
Subscriber_001,topicA,topicA-101,172.172.1.1:1883,1551655421095,RECEIVED
Subscriber_001,topicA,topicA-102,172.172.1.1:1883,1551655421187,RECEIVED
Subscriber_001,topicA,topicA-103,172.172.1.1:1883,1551655421306,RECEIVED
Subscriber_001,topicA,topicA-104,172.172.1.1:1883,1551655421383,RECEIVED
Subscriber_001,topicA,topicA-105,172.172.1.1:1883,1551655421494,RECEIVED
Subscriber_001,topicA,topicA-106,172.172.1.1:1883,1551655421585,RECEIVED
Subscriber_001,topicA,topicA-107,172.172.1.1:1883,1551655421685,RECEIVED
Subscriber_001,topicA,topicA-108,172.172.1.1:1883,1551655421795,RECEIVED
Subscriber_001,topicA,topicA-109,172.172.1.1:1883,1551655421895,RECEIVED
Subscriber_001,topicA,topicA-110,172.172.1.1:1883,1551655421998,RECEIVED
Subscriber_001,topicA,topicA-111,172.172.1.1:1883,1551655422091,RECEIVED
Subscriber_001,topicA,topicA-112,172.172.1.1:1883,1551655422197,RECEIVED
Subscriber_001,topicA,topicA-113,172.172.1.1:1883,1551655422296,RECEIVED
Subscriber_001,topicA,topicA-114,172.172.1.1:1883,1551655422403,RECEIVED
Subscriber_001,topicA,topicA-115,172.172.1.1:1883,1551655422481,RECEIVED
Subscriber_001,topicA,topicA-116,172.172.1.1:1883,1551655422596,RECEIVED
Subscriber_001,topicA,topicA-117,172.172.1.1:1883,1551655422683,RECEIVED
Subscriber_001,topicA,topicA-118,172.172.1.1:1883,1551655422785,RECEIVED
Subscriber_001,topicA,topicA-119,172.172.1.1:1883,1551655422897,RECEIVED
Subscriber_001,topicA,topicA-120,172.172.1.1:1883,1551655422984,RECEIVED
Subscriber_001,topicA,topicA-121,172.172.1.1:1883,1551655423096,RECEIVED
Subscriber_001,topicA,topicA-122,172.172.1.1:1883,1551655423195,RECEIVED
Subscriber_001,topicA,topicA-123,172.172.1.1:1883,1551655423310,RECEIVED
Subscriber_001,topicA,topicA-124,172.172.1.1:1883,1551655423386,RECEIVED
Subscriber_001,topicA,topicA-125,172.172.1.1:1883,1551655423496,RECEIVED
Subscriber_001,topicA,topicA-126,172.172.1.1:1883,1551655423599,RECEIVED
Subscriber_001,topicA,topicA-127,172.172.1.1:1883,1551655423696,RECEIVED
Subscriber_001,topicA,topicA-128,172.172.1.1:1883,1551655423802,RECEIVED
Subscriber_001,topicA,topicA-129,172.172.1.1:1883,1551655423908,RECEIVED
Subscriber_001,topicA,topicA-130,172.172.1.1:1883,1551655423990,RECEIVED
Subscriber_001,topicA,topicA-131,172.172.1.1:1883,1551655424092,RECEIVED
Subscriber_001,topicA,topicA-132,172.172.1.1:1883,1551655424197,RECEIVED
Subscriber_001,topicA,topicA-133,172.172.1.1:1883,1551655424297,RECEIVED
Subscriber_001,topicA,topicA-134,172.172.1.1:1883,1551655424396,RECEIVED
Subscriber_001,topicA,topicA-135,172.172.1.1:1883,1551655424487,RECEIVED
Subscriber_001,topicA,topicA-136,172.172.1.1:1883,1551655424594,RECEIVED
Subscriber_001,topicA,topicA-137,172.172.1.1:1883,1551655424713,RECEIVED
Subscriber_001,topicA,topicA-138,172.172.1.1:1883,1551655424788,RECEIVED
Subscriber_001,topicA,topicA-139,172.172.1.1:1883,1551655424881,RECEIVED
Subscriber_001,topicA,topicA-140,172.172.1.1:1883,1551655424981,RECEIVED
Subscriber_001,topicA,topicA-141,172.172.1.1:1883,1551655425086,RECEIVED
Subscriber_001,topicA,topicA-142,172.172.1.1:1883,1551655425185,RECEIVED
Subscriber_001,topicA,topicA-143,172.172.1.1:1883,1551655425282,RECEIVED
Subscriber_001,topicA,topicA-144,172.172.1.1:1883,1551655425385,RECEIVED
Subscriber_001,topicA,topicA-145,172.172.1.1:1883,1551655425497,RECEIVED
Subscriber_001,topicA,topicA-146,172.172.1.1:1883,1551655425589,RECEIVED
Subscriber_001,topicA,topicA-147,172.172.1.1:1883,1551655425686,RECEIVED
Subscriber_001,topicA,topicA-148,172.172.1.1:1883,1551655425794,RECEIVED
Subscriber_001,topicA,topicA-149,172.172.1.1:1883,1551655425890,RECEIVED
Subscriber_001,topicA,topicA-150,172.172.1.1:1883,1551655425980,RECEIVED
Subscriber_001,topicA,topicA-151,172.172.1.1:1883,1551655426085,RECEIVED
Subscriber_001,topicA,topicA-152,172.172.1.1:1883,1551655426193,RECEIVED
Subscriber_001,topicA,topicA-153,172.172.1.1:1883,1551655426288,RECEIVED
Subscriber_001,topicA,topicA-154,172.172.1.1:1883,1551655426401,RECEIVED
Subscriber_001,topicA,topicA-155,172.172.1.1:1883,1551655426492,RECEIVED
Subscriber_001,topicA,topicA-156,172.172.1.1:1883,1551655426595,RECEIVED
Subscriber_001,topicA,topicA-157,172.172.1.1:1883,1551655426704,RECEIVED
Subscriber_001,topicA,topicA-158,172.172.1.1:1883,1551655426796,RECEIVED
Subscriber_001,topicA,topicA-159,172.172.1.1:1883,1551655426897,RECEIVED
Subscriber_001,topicA,topicA-160,172.172.1.1:1883,1551655426990,RECEIVED
Subscriber_001,topicA,topicA-161,172.172.1.1:1883,1551655427089,RECEIVED
Subscriber_001,topicA,topicA-162,172.172.1.1:1883,1551655427194,RECEIVED
Subscriber_001,topicA,topicA-163,172.172.1.1:1883,1551655427295,RECEIVED
Subscriber_001,topicA,topicA-164,172.172.1.1:1883,1551655427391,RECEIVED
Subscriber_001,topicA,topicA-165,172.172.1.1:1883,1551655427497,RECEIVED
Subscriber_001,topicA,topicA-166,172.172.1.1:1883,1551655427588,RECEIVED
Subscriber_001,topicA,topicA-167,172.172.1.1:1883,1551655427689,RECEIVED
Subscriber_001,topicA,topicA-168,172.172.1.1:1883,1551655427788,RECEIVED
Subscriber_001,topicA,topicA-169,172.172.1.1:1883,1551655427887,RECEIVED
Subscriber_001,topicA,topicA-170,172.172.1.1:1883,1551655428002,RECEIVED
Subscriber_001,topicA,topicA-171,172.172.1.1:1883,1551655428085,RECEIVED
Subscriber_001,topicA,topicA-172,172.172.1.1:1883,1551655428192,RECEIVED
Subscriber_001,topicA,topicA-173,172.172.1.1:1883,1551655428289,RECEIVED
Subscriber_001,topicA,topicA-174,172.172.1.1:1883,1551655428392,RECEIVED
Subscriber_001,topicA,topicA-175,172.172.1.1:1883,1551655428494,RECEIVED
Subscriber_001,topicA,topicA-176,172.172.1.1:1883,1551655428593,RECEIVED
Subscriber_001,topicA,topicA-177,172.172.1.1:1883,1551655428699,RECEIVED
Subscriber_001,topicA,topicA-178,172.172.1.1:1883,1551655428794,RECEIVED
Subscriber_001,topicA,topicA-179,172.172.1.1:1883,1551655428887,RECEIVED
Subscriber_001,topicA,topicA-180,172.172.1.1:1883,1551655428984,RECEIVED
Subscriber_001,topicA,topicA-181,172.172.1.1:1883,1551655429096,RECEIVED
Subscriber_001,topicA,topicA-182,172.172.1.1:1883,1551655429200,RECEIVED
Subscriber_001,topicA,topicA-183,172.172.1.1:1883,1551655429295,RECEIVED
Subscriber_001,topicA,topicA-184,172.172.1.1:1883,1551655429393,RECEIVED
Subscriber_001,topicA,topicA-185,172.172.1.1:1883,1551655429500,RECEIVED
Subscriber_001,topicA,topicA-186,172.172.1.1:1883,1551655429590,RECEIVED
Subscriber_001,topicA,topicA-187,172.172.1.1:1883,1551655429693,RECEIVED
Subscriber_001,topicA,topicA-188,172.172.1.1:1883,1551655429784,RECEIVED
Subscriber_001,topicA,topicA-189,172.172.1.1:1883,1551655429890,RECEIVED
Subscriber_001,topicA,topicA-190,172.172.1.1:1883,1551655429986,RECEIVED
Subscriber_001,topicA,topicA-191,172.172.1.1:1883,1551655430085,RECEIVED
Subscriber_001,topicA,topicA-192,172.172.1.1:1883,1551655430192,RECEIVED
Subscriber_001,topicA,topicA-193,172.172.1.1:1883,1551655430279,RECEIVED
Subscriber_001,topicA,topicA-194,172.172.1.1:1883,1551655430381,RECEIVED
Subscriber_001,topicA,topicA-195,172.172.1.1:1883,1551655430484,RECEIVED
Subscriber_001,topicA,topicA-196,172.172.1.1:1883,1551655430581,RECEIVED
Subscriber_001,topicA,topicA-197,172.172.1.1:1883,1551655430677,RECEIVED
Subscriber_001,topicA,topicA-198,172.172.1.1:1883,1551655430783,RECEIVED
Subscriber_001,topicA,topicA-199,172.172.1.1:1883,1551655430877,RECEIVED
Subscriber_001,topicA,topicA-200,172.172.1.1:1883,1551655430985,RECEIVED
Subscriber_001,topicA,topicA-201,172.172.1.1:1883,1551655431085,RECEIVED
Subscriber_001,topicA,topicA-202,172.172.1.1:1883,1551655431185,RECEIVED
Subscriber_001,topicA,topicA-203,172.172.1.1:1883,1551655431285,RECEIVED
Subscriber_001,topicA,topicA-204,172.172.1.1:1883,1551655431394,RECEIVED
Subscriber_001,topicA,topicA-205,172.172.1.1:1883,1551655431487,RECEIVED
Subscriber_001,topicA,topicA-206,172.172.1.1:1883,1551655431590,RECEIVED
Subscriber_001,topicA,topicA-207,172.172.1.1:1883,1551655431684,RECEIVED
Subscriber_001,topicA,topicA-208,172.172.1.1:1883,1551655431790,RECEIVED
Subscriber_001,topicA,topicA-209,172.172.1.1:1883,1551655431897,RECEIVED
Subscriber_001,topicA,topicA-210,172.172.1.1:1883,1551655431991,RECEIVED
Subscriber_001,topicA,topicA-211,172.172.1.1:1883,1551655432096,RECEIVED
Subscriber_001,topicA,topicA-212,172.172.1.1:1883,1551655432204,RECEIVED
Subscriber_001,topicA,topicA-213,172.172.1.1:1883,1551655432281,RECEIVED
Subscriber_001,topicA,topicA-214,172.172.1.1:1883,1551655432387,RECEIVED
Subscriber_001,topicA,topicA-215,172.172.1.1:1883,1551655432484,RECEIVED
Subscriber_001,topicA,topicA-216,172.172.1.1:1883,1551655432583,RECEIVED
Subscriber_001,topicA,topicA-217,172.172.1.1:1883,1551655432681,RECEIVED
Subscriber_001,topicA,topicA-218,172.172.1.1:1883,1551655432795,RECEIVED
Subscriber_001,topicA,topicA-219,172.172.1.1:1883,1551655432894,RECEIVED
Subscriber_001,topicA,topicA-220,172.172.1.1:1883,1551655432994,RECEIVED
Subscriber_001,topicA,topicA-221,172.172.1.1:1883,1551655433094,RECEIVED
Subscriber_001,topicA,topicA-222,172.172.1.1:1883,1551655433186,RECEIVED
Subscriber_001,topicA,topicA-223,172.172.1.1:1883,1551655433299,RECEIVED
Subscriber_001,topicA,topicA-224,172.172.1.1:1883,1551655433402,RECEIVED
Subscriber_001,topicA,topicA-225,172.172.1.1:1883,1551655433483,RECEIVED
Subscriber_001,topicA,topicA-226,172.172.1.1:1883,1551655433598,RECEIVED
Subscriber_001,topicA,topicA-227,172.172.1.1:1883,1551655433704,RECEIVED
Subscriber_001,topicA,topicA-228,172.172.1.1:1883,1551655433790,RECEIVED
Subscriber_001,topicA,topicA-229,172.172.1.1:1883,1551655433909,RECEIVED
Subscriber_001,topicA,topicA-230,172.172.1.1:1883,1551655433994,RECEIVED
Subscriber_001,topicA,topicA-231,172.172.1.1:1883,1551655434096,RECEIVED
Subscriber_001,topicA,topicA-232,172.172.1.1:1883,1551655434189,RECEIVED
Subscriber_001,topicA,topicA-233,172.172.1.1:1883,1551655434284,RECEIVED
Subscriber_001,topicA,topicA-234,172.172.1.1:1883,1551655434380,RECEIVED
Subscriber_001,topicA,topicA-235,172.172.1.1:1883,1551655434494,RECEIVED
Subscriber_001,topicA,topicA-236,172.172.1.1:1883,1551655434590,RECEIVED
Subscriber_001,topicA,topicA-237,172.172.1.1:1883,1551655434689,RECEIVED
Subscriber_001,topicA,topicA-238,172.172.1.1:1883,1551655434794,RECEIVED
Subscriber_001,topicA,topicA-239,172.172.1.1:1883,1551655434893,RECEIVED
Subscriber_001,topicA,topicA-240,172.172.1.1:1883,1551655435002,RECEIVED
Subscriber_001,topicA,topicA-241,172.172.1.1:1883,1551655435086,RECEIVED
Subscriber_001,topicA,topicA-242,172.172.1.1:1883,1551655435197,RECEIVED
Subscriber_001,topicA,topicA-243,172.172.1.1:1883,1551655435290,RECEIVED
Subscriber_001,topicA,topicA-244,172.172.1.1:1883,1551655435390,RECEIVED
Subscriber_001,topicA,topicA-245,172.172.1.1:1883,1551655435487,RECEIVED
Subscriber_001,topicA,topicA-246,172.172.1.1:1883,1551655435581,RECEIVED
Subscriber_001,topicA,topicA-247,172.172.1.1:1883,1551655435694,RECEIVED
Subscriber_001,topicA,topicA-248,172.172.1.1:1883,1551655435777,RECEIVED
Subscriber_001,topicA,topicA-249,172.172.1.1:1883,1551655435881,RECEIVED
Subscriber_001,topicA,topicA-250,172.172.1.2:1883,1551655438055,RECEIVED
Subscriber_001,topicA,topicA-251,172.172.1.2:1883,1551655438164,RECEIVED
Subscriber_001,topicA,topicA-252,172.172.1.2:1883,1551655438260,RECEIVED
Subscriber_001,topicA,topicA-253,172.172.1.2:1883,1551655438366,RECEIVED
Subscriber_001,topicA,topicA-254,172.172.1.2:1883,1551655438455,RECEIVED
Subscriber_001,topicA,topicA-255,172.172.1.2:1883,1551655438576,RECEIVED
Subscriber_001,topicA,topicA-256,172.172.1.2:1883,1551655438662,RECEIVED
Subscriber_001,topicA,topicA-257,172.172.1.2:1883,1551655438750,RECEIVED
Subscriber_001,topicA,topicA-258,172.172.1.2:1883,1551655438855,RECEIVED
Subscriber_001,topicA,topicA-259,172.172.1.2:1883,1551655438962,RECEIVED
Subscriber_001,topicA,topicA-260,172.172.1.2:1883,1551655439068,RECEIVED
Subscriber_001,topicA,topicA-261,172.172.1.2:1883,1551655439164,RECEIVED
Subscriber_001,topicA,topicA-262,172.172.1.2:1883,1551655439266,RECEIVED
Subscriber_001,topicA,topicA-263,172.172.1.2:1883,1551655439368,RECEIVED
Subscriber_001,topicA,topicA-264,172.172.1.2:1883,1551655439457,RECEIVED
Subscriber_001,topicA,topicA-265,172.172.1.2:1883,1551655439559,RECEIVED
Subscriber_001,topicA,topicA-266,172.172.1.2:1883,1551655439657,RECEIVED
Subscriber_001,topicA,topicA-267,172.172.1.2:1883,1551655439753,RECEIVED
Subscriber_001,topicA,topicA-268,172.172.1.2:1883,1551655439865,RECEIVED
Subscriber_001,topicA,topicA-269,172.172.1.2:1883,1551655439963,RECEIVED
Subscriber_001,topicA,topicA-270,172.172.1.2:1883,1551655440061,RECEIVED
Subscriber_001,topicA,topicA-271,172.172.1.2:1883,1551655440159,RECEIVED
Subscriber_001,topicA,topicA-272,172.172.1.2:1883,1551655440276,RECEIVED
Subscriber_001,topicA,topicA-273,172.172.1.2:1883,1551655440383,RECEIVED
Subscriber_001,topicA,topicA-274,172.172.1.2:1883,1551655440455,RECEIVED
Subscriber_001,topicA,topicA-275,172.172.1.2:1883,1551655440554,RECEIVED
Subscriber_001,topicA,topicA-276,172.172.1.2:1883,1551655440657,RECEIVED
Subscriber_001,topicA,topicA-277,172.172.1.2:1883,1551655440764,RECEIVED
Subscriber_001,topicA,topicA-278,172.172.1.2:1883,1551655440869,RECEIVED
Subscriber_001,topicA,topicA-279,172.172.1.2:1883,1551655440959,RECEIVED
Subscriber_001,topicA,topicA-280,172.172.1.2:1883,1551655441065,RECEIVED
Subscriber_001,topicA,topicA-281,172.172.1.2:1883,1551655441174,RECEIVED
Subscriber_001,topicA,topicA-282,172.172.1.2:1883,1551655441262,RECEIVED
Subscriber_001,topicA,topicA-283,172.172.1.2:1883,1551655441371,RECEIVED
Subscriber_001,topicA,topicA-284,172.172.1.2:1883,1551655441457,RECEIVED
Subscriber_001,topicA,topicA-285,172.172.1.2:1883,1551655441564,RECEIVED
Subscriber_001,topicA,topicA-286,172.172.1.2:1883,1551655441650,RECEIVED
Subscriber_001,topicA,topicA-287,172.172.1.2:1883,1551655441752,RECEIVED
Subscriber_001,topicA,topicA-288,172.172.1.2:1883,1551655441866,RECEIVED
Subscriber_001,topicA,topicA-289,172.172.1.2:1883,1551655441970,RECEIVED
Subscriber_001,topicA,topicA-290,172.172.1.2:1883,1551655442067,RECEIVED
Subscriber_001,topicA,topicA-291,172.172.1.2:1883,1551655442161,RECEIVED
Subscriber_001,topicA,topicA-292,172.172.1.2:1883,1551655442257,RECEIVED
Subscriber_001,topicA,topicA-293,172.172.1.2:1883,1551655442352,RECEIVED
Subscriber_001,topicA,topicA-294,172.172.1.2:1883,1551655442452,RECEIVED
Subscriber_001,topicA,topicA-295,172.172.1.2:1883,1551655442553,RECEIVED
Subscriber_001,topicA,topicA-296,172.172.1.2:1883,1551655442653,RECEIVED
Subscriber_001,topicA,topicA-297,172.172.1.2:1883,1551655442759,RECEIVED
Subscriber_001,topicA,topicA-298,172.172.1.2:1883,1551655442855,RECEIVED
Subscriber_001,topicA,topicA-299,172.172.1.2:1883,1551655442972,RECEIVED
Subscriber_001,topicA,topicA-300,172.172.1.2:1883,1551655443063,RECEIVED
Subscriber_001,topicA,topicA-301,172.172.1.2:1883,1551655443157,RECEIVED
Subscriber_001,topicA,topicA-302,172.172.1.2:1883,1551655443257,RECEIVED
Subscriber_001,topicA,topicA-303,172.172.1.2:1883,1551655443356,RECEIVED
Subscriber_001,topicA,topicA-304,172.172.1.2:1883,1551655443466,RECEIVED
Subscriber_001,topicA,topicA-305,172.172.1.2:1883,1551655443563,RECEIVED
Subscriber_001,topicA,topicA-306,172.172.1.2:1883,1551655443664,RECEIVED
Subscriber_001,topicA,topicA-307,172.172.1.2:1883,1551655443770,RECEIVED
Subscriber_001,topicA,topicA-308,172.172.1.2:1883,1551655443857,RECEIVED
Subscriber_001,topicA,topicA-309,172.172.1.2:1883,1551655443970,RECEIVED
Subscriber_001,topicA,topicA-310,172.172.1.2:1883,1551655444056,RECEIVED
Subscriber_001,topicA,topicA-311,172.172.1.2:1883,1551655444159,RECEIVED
Subscriber_001,topicA,topicA-312,172.172.1.2:1883,1551655444275,RECEIVED
Subscriber_001,topicA,topicA-313,172.172.1.2:1883,1551655444361,RECEIVED
Subscriber_001,topicA,topicA-314,172.172.1.2:1883,1551655444460,RECEIVED
Subscriber_001,topicA,topicA-315,172.172.1.2:1883,1551655444559,RECEIVED
Subscriber_001,topicA,topicA-316,172.172.1.2:1883,1551655444661,RECEIVED
Subscriber_001,topicA,topicA-317,172.172.1.2:1883,1551655444762,RECEIVED
Subscriber_001,topicA,topicA-318,172.172.1.2:1883,1551655444849,RECEIVED
Subscriber_001,topicA,topicA-319,172.172.1.2:1883,1551655444959,RECEIVED
Subscriber_001,topicA,topicA-320,172.172.1.2:1883,1551655445053,RECEIVED
Subscriber_001,topicA,topicA-321,172.172.1.2:1883,1551655445158,RECEIVED
Subscriber_001,topicA,topicA-322,172.172.1.2:1883,1551655445266,RECEIVED
Subscriber_001,topicA,topicA-323,172.172.1.2:1883,1551655445363,RECEIVED
Subscriber_001,topicA,topicA-324,172.172.1.2:1883,1551655445473,RECEIVED
Subscriber_001,topicA,topicA-325,172.172.1.2:1883,1551655445566,RECEIVED
Subscriber_001,topicA,topicA-326,172.172.1.2:1883,1551655445653,RECEIVED
Subscriber_001,topicA,topicA-327,172.172.1.2:1883,1551655445757,RECEIVED
Subscriber_001,topicA,topicA-328,172.172.1.2:1883,1551655445864,RECEIVED
Subscriber_001,topicA,topicA-329,172.172.1.2:1883,1551655445970,RECEIVED
Subscriber_001,topicA,topicA-330,172.172.1.2:1883,1551655446057,RECEIVED
Subscriber_001,topicA,topicA-331,172.172.1.2:1883,1551655446160,RECEIVED
Subscriber_001,topicA,topicA-332,172.172.1.2:1883,1551655446284,RECEIVED
Subscriber_001,topicA,topicA-333,172.172.1.2:1883,1551655446363,RECEIVED
Subscriber_001,topicA,topicA-334,172.172.1.2:1883,1551655446479,RECEIVED
Subscriber_001,topicA,topicA-335,172.172.1.2:1883,1551655446566,RECEIVED
Subscriber_001,topicA,topicA-336,172.172.1.2:1883,1551655446659,RECEIVED
Subscriber_001,topicA,topicA-337,172.172.1.2:1883,1551655446766,RECEIVED
Subscriber_001,topicA,topicA-338,172.172.1.2:1883,1551655446860,RECEIVED
Subscriber_001,topicA,topicA-339,172.172.1.2:1883,1551655446960,RECEIVED
Subscriber_001,topicA,topicA-340,172.172.1.2:1883,1551655447066,RECEIVED
Subscriber_001,topicA,topicA-341,172.172.1.2:1883,1551655447165,RECEIVED
Subscriber_001,topicA,topicA-342,172.172.1.2:1883,1551655447259,RECEIVED
Subscriber_001,topicA,topicA-343,172.172.1.2:1883,1551655447366,RECEIVED
Subscriber_001,topicA,topicA-344,172.172.1.2:1883,1551655447452,RECEIVED
Subscriber_001,topicA,topicA-345,172.172.1.2:1883,1551655447555,RECEIVED
Subscriber_001,topicA,topicA-346,172.172.1.2:1883,1551655447657,RECEIVED
Subscriber_001,topicA,topicA-347,172.172.1.2:1883,1551655447763,RECEIVED
Subscriber_001,topicA,topicA-348,172.172.1.2:1883,1551655447858,RECEIVED
Subscriber_001,topicA,topicA-349,172.172.1.2:1883,1551655447953,RECEIVED
Subscriber_001,topicA,topicA-350,172.172.1.2:1883,1551655448058,RECEIVED
Subscriber_001,topicA,topicA-351,172.172.1.2:1883,1551655448158,RECEIVED
Subscriber_001,topicA,topicA-352,172.172.1.2:1883,1551655448258,RECEIVED
Subscriber_001,topicA,topicA-353,172.172.1.2:1883,1551655448371,RECEIVED
Subscriber_001,topicA,topicA-354,172.172.1.2:1883,1551655448466,RECEIVED
Subscriber_001,topicA,topicA-355,172.172.1.2:1883,1551655448561,RECEIVED
Subscriber_001,topicA,topicA-356,172.172.1.2:1883,1551655448662,RECEIVED
Subscriber_001,topicA,topicA-357,172.172.1.2:1883,1551655448757,RECEIVED
Subscriber_001,topicA,topicA-358,172.172.1.2:1883,1551655448854,RECEIVED
Subscriber_001,topicA,topicA-359,172.172.1.2:1883,1551655448953,RECEIVED
Subscriber_001,topicA,topicA-360,172.172.1.2:1883,1551655449057,RECEIVED
Subscriber_001,topicA,topicA-361,172.172.1.2:1883,1551655449151,RECEIVED
Subscriber_001,topicA,topicA-362,172.172.1.2:1883,1551655449261,RECEIVED
Subscriber_001,topicA,topicA-363,172.172.1.2:1883,1551655449368,RECEIVED
Subscriber_001,topicA,topicA-364,172.172.1.2:1883,1551655449466,RECEIVED
Subscriber_001,topicA,topicA-365,172.172.1.2:1883,1551655449562,RECEIVED
Subscriber_001,topicA,topicA-366,172.172.1.2:1883,1551655449671,RECEIVED
Subscriber_001,topicA,topicA-367,172.172.1.2:1883,1551655449763,RECEIVED
Subscriber_001,topicA,topicA-368,172.172.1.2:1883,1551655449868,RECEIVED
Subscriber_001,topicA,topicA-369,172.172.1.2:1883,1551655449968,RECEIVED
Subscriber_001,topicA,topicA-370,172.172.1.2:1883,1551655450065,RECEIVED
Subscriber_001,topicA,topicA-371,172.172.1.2:1883,1551655450168,RECEIVED
Subscriber_001,topicA,topicA-372,172.172.1.2:1883,1551655450258,RECEIVED
Subscriber_001,topicA,topicA-373,172.172.1.2:1883,1551655450358,RECEIVED
Subscriber_001,topicA,topicA-374,172.172.1.2:1883,1551655450463,RECEIVED
Subscriber_001,topicA,topicA-375,172.172.1.2:1883,1551655450558,RECEIVED
Subscriber_001,topicA,topicA-376,172.172.1.2:1883,1551655450656,RECEIVED
Subscriber_001,topicA,topicA-377,172.172.1.2:1883,1551655450763,RECEIVED
Subscriber_001,topicA,topicA-378,172.172.1.2:1883,1551655450867,RECEIVED
Subscriber_001,topicA,topicA-379,172.172.1.2:1883,1551655450956,RECEIVED
Subscriber_001,topicA,topicA-380,172.172.1.2:1883,1551655451056,RECEIVED
Subscriber_001,topicA,topicA-381,172.172.1.2:1883,1551655451163,RECEIVED
Subscriber_001,topicA,topicA-382,172.172.1.2:1883,1551655451258,RECEIVED
Subscriber_001,topicA,topicA-383,172.172.1.2:1883,1551655451355,RECEIVED
Subscriber_001,topicA,topicA-384,172.172.1.2:1883,1551655451456,RECEIVED
Subscriber_001,topicA,topicA-385,172.172.1.2:1883,1551655451563,RECEIVED
Subscriber_001,topicA,topicA-386,172.172.1.2:1883,1551655451663,RECEIVED
Subscriber_001,topicA,topicA-387,172.172.1.2:1883,1551655451763,RECEIVED
Subscriber_001,topicA,topicA-388,172.172.1.2:1883,1551655451856,RECEIVED
Subscriber_001,topicA,topicA-389,172.172.1.2:1883,1551655451960,RECEIVED
Subscriber_001,topicA,topicA-390,172.172.1.2:1883,1551655452055,RECEIVED
Subscriber_001,topicA,topicA-391,172.172.1.2:1883,1551655452150,RECEIVED
Subscriber_001,topicA,topicA-392,172.172.1.2:1883,1551655452262,RECEIVED
Subscriber_001,topicA,topicA-393,172.172.1.2:1883,1551655452362,RECEIVED
Subscriber_001,topicA,topicA-394,172.172.1.2:1883,1551655452451,RECEIVED
Subscriber_001,topicA,topicA-395,172.172.1.2:1883,1551655452557,RECEIVED
Subscriber_001,topicA,topicA-396,172.172.1.2:1883,1551655452657,RECEIVED
Subscriber_001,topicA,topicA-397,172.172.1.2:1883,1551655452767,RECEIVED
Subscriber_001,topicA,topicA-398,172.172.1.2:1883,1551655452863,RECEIVED
Subscriber_001,topicA,topicA-399,172.172.1.2:1883,1551655452954,RECEIVED
Subscriber_001,topicA,topicA-400,172.172.1.2:1883,1551655453056,RECEIVED
Subscriber_001,topicA,topicA-401,172.172.1.2:1883,1551655453159,RECEIVED
Subscriber_001,topicA,topicA-402,172.172.1.2:1883,1551655453253,RECEIVED
Subscriber_001,topicA,topicA-403,172.172.1.2:1883,1551655453351,RECEIVED
Subscriber_001,topicA,topicA-404,172.172.1.2:1883,1551655453458,RECEIVED
Subscriber_001,topicA,topicA-405,172.172.1.2:1883,1551655453568,RECEIVED
Subscriber_001,topicA,topicA-406,172.172.1.2:1883,1551655453649,RECEIVED
Subscriber_001,topicA,topicA-407,172.172.1.2:1883,1551655453754,RECEIVED
Subscriber_001,topicA,topicA-408,172.172.1.2:1883,1551655453857,RECEIVED
Subscriber_001,topicA,topicA-409,172.172.1.2:1883,1551655453951,RECEIVED
Subscriber_001,topicA,topicA-410,172.172.1.2:1883,1551655454065,RECEIVED
Subscriber_001,topicA,topicA-411,172.172.1.2:1883,1551655454158,RECEIVED
Subscriber_001,topicA,topicA-412,172.172.1.2:1883,1551655454254,RECEIVED
Subscriber_001,topicA,topicA-413,172.172.1.2:1883,1551655454376,RECEIVED
Subscriber_001,topicA,topicA-414,172.172.1.2:1883,1551655454450,RECEIVED
Subscriber_001,topicA,topicA-415,172.172.1.2:1883,1551655454549,RECEIVED
Subscriber_001,topicA,topicA-416,172.172.1.2:1883,1551655454668,RECEIVED
Subscriber_001,topicA,topicA-417,172.172.1.2:1883,1551655454762,RECEIVED
Subscriber_001,topicA,topicA-418,172.172.1.2:1883,1551655454865,RECEIVED
Subscriber_001,topicA,topicA-419,172.172.1.2:1883,1551655454970,RECEIVED
Subscriber_001,topicA,topicA-420,172.172.1.2:1883,1551655455055,RECEIVED
Subscriber_001,topicA,topicA-421,172.172.1.2:1883,1551655455161,RECEIVED
Subscriber_001,topicA,topicA-422,172.172.1.2:1883,1551655455257,RECEIVED
Subscriber_001,topicA,topicA-423,172.172.1.2:1883,1551655455352,RECEIVED
Subscriber_001,topicA,topicA-424,172.172.1.2:1883,1551655455456,RECEIVED
Subscriber_001,topicA,topicA-425,172.172.1.2:1883,1551655455560,RECEIVED
Subscriber_001,topicA,topicA-426,172.172.1.2:1883,1551655455650,RECEIVED
Subscriber_001,topicA,topicA-427,172.172.1.2:1883,1551655455755,RECEIVED
Subscriber_001,topicA,topicA-428,172.172.1.2:1883,1551655455848,RECEIVED
Subscriber_001,topicA,topicA-429,172.172.1.2:1883,1551655455958,RECEIVED
Subscriber_001,topicA,topicA-430,172.172.1.2:1883,1551655456062,RECEIVED
Subscriber_001,topicA,topicA-431,172.172.1.2:1883,1551655456158,RECEIVED
Subscriber_001,topicA,topicA-432,172.172.1.2:1883,1551655456251,RECEIVED
Subscriber_001,topicA,topicA-433,172.172.1.2:1883,1551655456349,RECEIVED
Subscriber_001,topicA,topicA-434,172.172.1.2:1883,1551655456448,RECEIVED
Subscriber_001,topicA,topicA-435,172.172.1.2:1883,1551655456565,RECEIVED
Subscriber_001,topicA,topicA-436,172.172.1.2:1883,1551655456660,RECEIVED
Subscriber_001,topicA,topicA-437,172.172.1.2:1883,1551655456758,RECEIVED
Subscriber_001,topicA,topicA-438,172.172.1.2:1883,1551655456858,RECEIVED
Subscriber_001,topicA,topicA-439,172.172.1.2:1883,1551655456963,RECEIVED
Subscriber_001,topicA,topicA-440,172.172.1.2:1883,1551655457063,RECEIVED
Subscriber_001,topicA,topicA-441,172.172.1.2:1883,1551655457154,RECEIVED
Subscriber_001,topicA,topicA-442,172.172.1.2:1883,1551655457256,RECEIVED
Subscriber_001,topicA,topicA-443,172.172.1.2:1883,1551655457358,RECEIVED
Subscriber_001,topicA,topicA-444,172.172.1.2:1883,1551655457456,RECEIVED
Subscriber_001,topicA,topicA-445,172.172.1.2:1883,1551655457560,RECEIVED
Subscriber_001,topicA,topicA-446,172.172.1.2:1883,1551655457663,RECEIVED
Subscriber_001,topicA,topicA-447,172.172.1.2:1883,1551655457765,RECEIVED
Subscriber_001,topicA,topicA-448,172.172.1.2:1883,1551655457866,RECEIVED
Subscriber_001,topicA,topicA-449,172.172.1.2:1883,1551655457960,RECEIVED
Subscriber_001,topicA,topicA-450,172.172.1.2:1883,1551655458053,RECEIVED
Subscriber_001,topicA,topicA-451,172.172.1.2:1883,1551655458163,RECEIVED
Subscriber_001,topicA,topicA-452,172.172.1.2:1883,1551655458248,RECEIVED
Subscriber_001,topicA,topicA-453,172.172.1.2:1883,1551655458357,RECEIVED
Subscriber_001,topicA,topicA-454,172.172.1.2:1883,1551655458452,RECEIVED
Subscriber_001,topicA,topicA-455,172.172.1.2:1883,1551655458553,RECEIVED
Subscriber_001,topicA,topicA-456,172.172.1.2:1883,1551655458650,RECEIVED
Subscriber_001,topicA,topicA-457,172.172.1.2:1883,1551655458758,RECEIVED
Subscriber_001,topicA,topicA-458,172.172.1.2:1883,1551655458854,RECEIVED
Subscriber_001,topicA,topicA-459,172.172.1.2:1883,1551655458950,RECEIVED
Subscriber_001,topicA,topicA-460,172.172.1.2:1883,1551655459055,RECEIVED
Subscriber_001,topicA,topicA-461,172.172.1.2:1883,1551655459149,RECEIVED
Subscriber_001,topicA,topicA-462,172.172.1.2:1883,1551655459250,RECEIVED
Subscriber_001,topicA,topicA-463,172.172.1.2:1883,1551655459357,RECEIVED
Subscriber_001,topicA,topicA-464,172.172.1.2:1883,1551655459457,RECEIVED
Subscriber_001,topicA,topicA-465,172.172.1.2:1883,1551655459551,RECEIVED
Subscriber_001,topicA,topicA-466,172.172.1.2:1883,1551655459657,RECEIVED
Subscriber_001,topicA,topicA-467,172.172.1.2:1883,1551655459764,RECEIVED
Subscriber_001,topicA,topicA-468,172.172.1.2:1883,1551655459862,RECEIVED
Subscriber_001,topicA,topicA-469,172.172.1.2:1883,1551655459959,RECEIVED
Subscriber_001,topicA,topicA-470,172.172.1.2:1883,1551655460064,RECEIVED
Subscriber_001,topicA,topicA-471,172.172.1.2:1883,1551655460162,RECEIVED
Subscriber_001,topicA,topicA-472,172.172.1.2:1883,1551655460262,RECEIVED
Subscriber_001,topicA,topicA-473,172.172.1.2:1883,1551655460360,RECEIVED
Subscriber_001,topicA,topicA-474,172.172.1.2:1883,1551655460466,RECEIVED
Subscriber_001,topicA,topicA-475,172.172.1.2:1883,1551655460561,RECEIVED
Subscriber_001,topicA,topicA-476,172.172.1.2:1883,1551655460661,RECEIVED
Subscriber_001,topicA,topicA-477,172.172.1.2:1883,1551655460763,RECEIVED
Subscriber_001,topicA,topicA-478,172.172.1.2:1883,1551655460861,RECEIVED
Subscriber_001,topicA,topicA-479,172.172.1.2:1883,1551655460963,RECEIVED
Subscriber_001,topicA,topicA-480,172.172.1.2:1883,1551655461063,RECEIVED
Subscriber_001,topicA,topicA-481,172.172.1.2:1883,1551655461164,RECEIVED
Subscriber_001,topicA,topicA-482,172.172.1.2:1883,1551655461263,RECEIVED
Subscriber_001,topicA,topicA-483,172.172.1.2:1883,1551655461366,RECEIVED
Subscriber_001,topicA,topicA-484,172.172.1.2:1883,1551655461460,RECEIVED
Subscriber_001,topicA,topicA-485,172.172.1.2:1883,1551655461557,RECEIVED
Subscriber_001,topicA,topicA-486,172.172.1.2:1883,1551655461665,RECEIVED
Subscriber_001,topicA,topicA-487,172.172.1.2:1883,1551655461770,RECEIVED
Subscriber_001,topicA,topicA-488,172.172.1.2:1883,1551655461872,RECEIVED
Subscriber_001,topicA,topicA-489,172.172.1.2:1883,1551655461952,RECEIVED
Subscriber_001,topicA,topicA-490,172.172.1.2:1883,1551655462065,RECEIVED
Subscriber_001,topicA,topicA-491,172.172.1.2:1883,1551655462158,RECEIVED
Subscriber_001,topicA,topicA-492,172.172.1.2:1883,1551655462252,RECEIVED
Subscriber_001,topicA,topicA-493,172.172.1.2:1883,1551655462364,RECEIVED
Subscriber_001,topicA,topicA-494,172.172.1.2:1883,1551655462463,RECEIVED
Subscriber_001,topicA,topicA-495,172.172.1.2:1883,1551655462562,RECEIVED
Subscriber_001,topicA,topicA-496,172.172.1.2:1883,1551655462660,RECEIVED
Subscriber_001,topicA,topicA-497,172.172.1.2:1883,1551655462767,RECEIVED
Subscriber_001,topicA,topicA-498,172.172.1.2:1883,1551655462868,RECEIVED
Subscriber_001,topicA,topicA-499,172.172.1.2:1883,1551655462963,RECEIVED
Subscriber_001,topicA,topicA-500,172.172.1.2:1883,1551655463064,RECEIVED
Subscriber_001,topicA,topicA-501,172.172.1.2:1883,1551655463163,RECEIVED
Subscriber_001,topicA,topicA-502,172.172.1.2:1883,1551655463260,RECEIVED
Subscriber_001,topicA,topicA-503,172.172.1.2:1883,1551655463377,RECEIVED
Subscriber_001,topicA,topicA-504,172.172.1.2:1883,1551655463456,RECEIVED
Subscriber_001,topicA,topicA-505,172.172.1.2:1883,1551655463559,RECEIVED
Subscriber_001,topicA,topicA-506,172.172.1.2:1883,1551655463658,RECEIVED
Subscriber_001,topicA,topicA-507,172.172.1.2:1883,1551655463756,RECEIVED
Subscriber_001,topicA,topicA-508,172.172.1.2:1883,1551655463857,RECEIVED
Subscriber_001,topicA,topicA-509,172.172.1.2:1883,1551655463961,RECEIVED
Subscriber_001,topicA,topicA-510,172.172.1.2:1883,1551655464061,RECEIVED
Subscriber_001,topicA,topicA-511,172.172.1.2:1883,1551655464159,RECEIVED
Subscriber_001,topicA,topicA-512,172.172.1.2:1883,1551655464253,RECEIVED
Subscriber_001,topicA,topicA-513,172.172.1.2:1883,1551655464354,RECEIVED
Subscriber_001,topicA,topicA-514,172.172.1.2:1883,1551655464465,RECEIVED
Subscriber_001,topicA,topicA-515,172.172.1.2:1883,1551655464561,RECEIVED
Subscriber_001,topicA,topicA-516,172.172.1.2:1883,1551655464653,RECEIVED
Subscriber_001,topicA,topicA-517,172.172.1.2:1883,1551655464753,RECEIVED
Subscriber_001,topicA,topicA-518,172.172.1.2:1883,1551655464849,RECEIVED
Subscriber_001,topicA,topicA-519,172.172.1.2:1883,1551655464951,RECEIVED
Subscriber_001,topicA,topicA-520,172.172.1.2:1883,1551655465053,RECEIVED
Subscriber_001,topicA,topicA-521,172.172.1.2:1883,1551655465153,RECEIVED
Subscriber_001,topicA,topicA-522,172.172.1.2:1883,1551655465256,RECEIVED
Subscriber_001,topicA,topicA-523,172.172.1.2:1883,1551655465356,RECEIVED
Subscriber_001,topicA,topicA-524,172.172.1.2:1883,1551655465449,RECEIVED
Subscriber_001,topicA,topicA-525,172.172.1.2:1883,1551655465559,RECEIVED
Subscriber_001,topicA,topicA-526,172.172.1.2:1883,1551655465651,RECEIVED
Subscriber_001,topicA,topicA-527,172.172.1.2:1883,1551655465753,RECEIVED
Subscriber_001,topicA,topicA-528,172.172.1.2:1883,1551655465856,RECEIVED
Subscriber_001,topicA,topicA-529,172.172.1.2:1883,1551655465950,RECEIVED
Subscriber_001,topicA,topicA-530,172.172.1.2:1883,1551655466048,RECEIVED
Subscriber_001,topicA,topicA-531,172.172.1.2:1883,1551655466160,RECEIVED
Subscriber_001,topicA,topicA-532,172.172.1.2:1883,1551655466260,RECEIVED
Subscriber_001,topicA,topicA-533,172.172.1.2:1883,1551655466361,RECEIVED
Subscriber_001,topicA,topicA-534,172.172.1.2:1883,1551655466459,RECEIVED
Subscriber_001,topicA,topicA-535,172.172.1.2:1883,1551655466558,RECEIVED
Subscriber_001,topicA,topicA-536,172.172.1.2:1883,1551655466662,RECEIVED
Subscriber_001,topicA,topicA-537,172.172.1.2:1883,1551655466758,RECEIVED
Subscriber_001,topicA,topicA-538,172.172.1.2:1883,1551655466866,RECEIVED
Subscriber_001,topicA,topicA-539,172.172.1.2:1883,1551655466959,RECEIVED
Subscriber_001,topicA,topicA-540,172.172.1.2:1883,1551655467068,RECEIVED
Subscriber_001,topicA,topicA-541,172.172.1.2:1883,1551655467165,RECEIVED
Subscriber_001,topicA,topicA-542,172.172.1.2:1883,1551655467258,RECEIVED
Subscriber_001,topicA,topicA-543,172.172.1.2:1883,1551655467366,RECEIVED
Subscriber_001,topicA,topicA-544,172.172.1.2:1883,1551655467462,RECEIVED
Subscriber_001,topicA,topicA-545,172.172.1.2:1883,1551655467566,RECEIVED
Subscriber_001,topicA,topicA-546,172.172.1.2:1883,1551655467656,RECEIVED
Subscriber_001,topicA,topicA-547,172.172.1.2:1883,1551655467751,RECEIVED
Subscriber_001,topicA,topicA-548,172.172.1.2:1883,1551655467865,RECEIVED
Subscriber_001,topicA,topicA-549,172.172.1.2:1883,1551655467952,RECEIVED
Subscriber_001,topicA,topicA-550,172.172.1.2:1883,1551655468054,RECEIVED
Subscriber_001,topicA,topicA-551,172.172.1.2:1883,1551655468161,RECEIVED
Subscriber_001,topicA,topicA-552,172.172.1.2:1883,1551655468259,RECEIVED
Subscriber_001,topicA,topicA-553,172.172.1.2:1883,1551655468368,RECEIVED
Subscriber_001,topicA,topicA-554,172.172.1.2:1883,1551655468464,RECEIVED
Subscriber_001,topicA,topicA-555,172.172.1.2:1883,1551655468563,RECEIVED
Subscriber_001,topicA,topicA-556,172.172.1.2:1883,1551655468663,RECEIVED
Subscriber_001,topicA,topicA-557,172.172.1.2:1883,1551655468762,RECEIVED
Subscriber_001,topicA,topicA-558,172.172.1.2:1883,1551655468857,RECEIVED
Subscriber_001,topicA,topicA-559,172.172.1.2:1883,1551655468961,RECEIVED
Subscriber_001,topicA,topicA-560,172.172.1.2:1883,1551655469063,RECEIVED
Subscriber_001,topicA,topicA-561,172.172.1.2:1883,1551655469160,RECEIVED
Subscriber_001,topicA,topicA-562,172.172.1.2:1883,1551655469259,RECEIVED
Subscriber_001,topicA,topicA-563,172.172.1.2:1883,1551655469359,RECEIVED
Subscriber_001,topicA,topicA-564,172.172.1.2:1883,1551655469465,RECEIVED
Subscriber_001,topicA,topicA-565,172.172.1.2:1883,1551655469563,RECEIVED
Subscriber_001,topicA,topicA-566,172.172.1.2:1883,1551655469659,RECEIVED
Subscriber_001,topicA,topicA-567,172.172.1.2:1883,1551655469760,RECEIVED
Subscriber_001,topicA,topicA-568,172.172.1.2:1883,1551655469859,RECEIVED
Subscriber_001,topicA,topicA-569,172.172.1.2:1883,1551655469960,RECEIVED
Subscriber_001,topicA,topicA-570,172.172.1.2:1883,1551655470067,RECEIVED
Subscriber_001,topicA,topicA-571,172.172.1.2:1883,1551655470167,RECEIVED
Subscriber_001,topicA,topicA-572,172.172.1.2:1883,1551655470254,RECEIVED
Subscriber_001,topicA,topicA-573,172.172.1.2:1883,1551655470361,RECEIVED
Subscriber_001,topicA,topicA-574,172.172.1.2:1883,1551655470455,RECEIVED
Subscriber_001,topicA,topicA-575,172.172.1.2:1883,1551655470555,RECEIVED
Subscriber_001,topicA,topicA-576,172.172.1.2:1883,1551655470659,RECEIVED
Subscriber_001,topicA,topicA-577,172.172.1.2:1883,1551655470754,RECEIVED
Subscriber_001,topicA,topicA-578,172.172.1.2:1883,1551655470856,RECEIVED
Subscriber_001,topicA,topicA-579,172.172.1.2:1883,1551655470952,RECEIVED
Subscriber_001,topicA,topicA-580,172.172.1.2:1883,1551655471054,RECEIVED
Subscriber_001,topicA,topicA-581,172.172.1.2:1883,1551655471155,RECEIVED
Subscriber_001,topicA,topicA-582,172.172.1.2:1883,1551655471253,RECEIVED
Subscriber_001,topicA,topicA-583,172.172.1.2:1883,1551655471355,RECEIVED
Subscriber_001,topicA,topicA-584,172.172.1.2:1883,1551655471450,RECEIVED
Subscriber_001,topicA,topicA-585,172.172.1.2:1883,1551655471556,RECEIVED
Subscriber_001,topicA,topicA-586,172.172.1.2:1883,1551655471666,RECEIVED
Subscriber_001,topicA,topicA-587,172.172.1.2:1883,1551655471753,RECEIVED
Subscriber_001,topicA,topicA-588,172.172.1.2:1883,1551655471855,RECEIVED
Subscriber_001,topicA,topicA-589,172.172.1.2:1883,1551655471962,RECEIVED
Subscriber_001,topicA,topicA-590,172.172.1.2:1883,1551655472063,RECEIVED
Subscriber_001,topicA,topicA-591,172.172.1.2:1883,1551655472163,RECEIVED
Subscriber_001,topicA,topicA-592,172.172.1.2:1883,1551655472265,RECEIVED
Subscriber_001,topicA,topicA-593,172.172.1.2:1883,1551655472364,RECEIVED
Subscriber_001,topicA,topicA-594,172.172.1.2:1883,1551655472468,RECEIVED
Subscriber_001,topicA,topicA-595,172.172.1.2:1883,1551655472564,RECEIVED
Subscriber_001,topicA,topicA-596,172.172.1.2:1883,1551655472662,RECEIVED
Subscriber_001,topicA,topicA-597,172.172.1.2:1883,1551655472769,RECEIVED
Subscriber_001,topicA,topicA-598,172.172.1.2:1883,1551655472854,RECEIVED
Subscriber_001,topicA,topicA-599,172.172.1.2:1883,1551655472960,RECEIVED
Subscriber_001,topicA,topicA-600,172.172.1.2:1883,1551655473061,RECEIVED
Subscriber_001,topicA,topicA-601,172.172.1.2:1883,1551655473161,RECEIVED
Subscriber_001,topicA,topicA-602,172.172.1.2:1883,1551655473267,RECEIVED
Subscriber_001,topicA,topicA-603,172.172.1.2:1883,1551655473363,RECEIVED
Subscriber_001,topicA,topicA-604,172.172.1.2:1883,1551655473458,RECEIVED
Subscriber_001,topicA,topicA-605,172.172.1.2:1883,1551655473566,RECEIVED
Subscriber_001,topicA,topicA-606,172.172.1.2:1883,1551655473666,RECEIVED
Subscriber_001,topicA,topicA-607,172.172.1.2:1883,1551655473764,RECEIVED
Subscriber_001,topicA,topicA-608,172.172.1.2:1883,1551655473864,RECEIVED
Subscriber_001,topicA,topicA-609,172.172.1.2:1883,1551655473961,RECEIVED
Subscriber_001,topicA,topicA-610,172.172.1.2:1883,1551655474059,RECEIVED
Subscriber_001,topicA,topicA-611,172.172.1.2:1883,1551655474164,RECEIVED
Subscriber_001,topicA,topicA-612,172.172.1.2:1883,1551655474263,RECEIVED
Subscriber_001,topicA,topicA-613,172.172.1.2:1883,1551655474352,RECEIVED
Subscriber_001,topicA,topicA-614,172.172.1.2:1883,1551655474461,RECEIVED
Subscriber_001,topicA,topicA-615,172.172.1.2:1883,1551655474555,RECEIVED
Subscriber_001,topicA,topicA-616,172.172.1.2:1883,1551655474669,RECEIVED
Subscriber_001,topicA,topicA-617,172.172.1.2:1883,1551655474748,RECEIVED
Subscriber_001,topicA,topicA-618,172.172.1.2:1883,1551655474847,RECEIVED
Subscriber_001,topicA,topicA-619,172.172.1.2:1883,1551655474969,RECEIVED
Subscriber_001,topicA,topicA-620,172.172.1.2:1883,1551655475060,RECEIVED
Subscriber_001,topicA,topicA-621,172.172.1.2:1883,1551655475159,RECEIVED
Subscriber_001,topicA,topicA-622,172.172.1.2:1883,1551655475258,RECEIVED
Subscriber_001,topicA,topicA-623,172.172.1.2:1883,1551655475353,RECEIVED
Subscriber_001,topicA,topicA-624,172.172.1.2:1883,1551655475462,RECEIVED
Subscriber_001,topicA,topicA-625,172.172.1.2:1883,1551655475557,RECEIVED
Subscriber_001,topicA,topicA-626,172.172.1.2:1883,1551655475653,RECEIVED
Subscriber_001,topicA,topicA-627,172.172.1.2:1883,1551655475749,RECEIVED
Subscriber_001,topicA,topicA-628,172.172.1.2:1883,1551655475854,RECEIVED
Subscriber_001,topicA,topicA-629,172.172.1.2:1883,1551655475952,RECEIVED
Subscriber_001,topicA,topicA-630,172.172.1.2:1883,1551655476055,RECEIVED
Subscriber_001,topicA,topicA-631,172.172.1.2:1883,1551655476158,RECEIVED
Subscriber_001,topicA,topicA-632,172.172.1.2:1883,1551655476253,RECEIVED
Subscriber_001,topicA,topicA-633,172.172.1.2:1883,1551655476361,RECEIVED
Subscriber_001,topicA,topicA-634,172.172.1.2:1883,1551655476456,RECEIVED
Subscriber_001,topicA,topicA-635,172.172.1.2:1883,1551655476550,RECEIVED
Subscriber_001,topicA,topicA-636,172.172.1.2:1883,1551655476650,RECEIVED
Subscriber_001,topicA,topicA-637,172.172.1.2:1883,1551655476750,RECEIVED
Subscriber_001,topicA,topicA-638,172.172.1.2:1883,1551655476852,RECEIVED
Subscriber_001,topicA,topicA-639,172.172.1.2:1883,1551655476966,RECEIVED
Subscriber_001,topicA,topicA-640,172.172.1.2:1883,1551655477077,RECEIVED
Subscriber_001,topicA,topicA-641,172.172.1.2:1883,1551655477156,RECEIVED
Subscriber_001,topicA,topicA-642,172.172.1.2:1883,1551655477259,RECEIVED
Subscriber_001,topicA,topicA-643,172.172.1.2:1883,1551655477352,RECEIVED
