clientId,topic,guid,broker,timestamp,type
Publisher_002,topicA,topicA-1,172.172.1.2:1883,1551656259557,PRODUCED
Publisher_002,topicA,topicA-2,172.172.1.2:1883,1551656259785,PRODUCED
Publisher_002,topicA,topicA-3,172.172.1.2:1883,1551656259791,PRODUCED
Publisher_002,topicA,topicA-4,172.172.1.2:1883,1551656259796,PRODUCED
Publisher_002,topicA,topicA-5,172.172.1.2:1883,1551656259801,PRODUCED
Publisher_002,topicA,topicA-6,172.172.1.2:1883,1551656259897,PRODUCED
Publisher_002,topicA,topicA-7,172.172.1.2:1883,1551656259997,PRODUCED
Publisher_002,topicA,topicA-8,172.172.1.2:1883,1551656260098,PRODUCED
Publisher_002,topicA,topicA-9,172.172.1.2:1883,1551656260198,PRODUCED
Publisher_002,topicA,topicA-10,172.172.1.2:1883,1551656260298,PRODUCED
Publisher_002,topicA,topicA-11,172.172.1.2:1883,1551656260398,PRODUCED
Publisher_002,topicA,topicA-12,172.172.1.2:1883,1551656260498,PRODUCED
Publisher_002,topicA,topicA-13,172.172.1.2:1883,1551656260601,PRODUCED
Publisher_002,topicA,topicA-14,172.172.1.2:1883,1551656260702,PRODUCED
Publisher_002,topicA,topicA-15,172.172.1.2:1883,1551656260799,PRODUCED
Publisher_002,topicA,topicA-16,172.172.1.2:1883,1551656260899,PRODUCED
Publisher_002,topicA,topicA-17,172.172.1.2:1883,1551656260998,PRODUCED
Publisher_002,topicA,topicA-18,172.172.1.2:1883,1551656261097,PRODUCED
Publisher_002,topicA,topicA-19,172.172.1.2:1883,1551656261197,PRODUCED
Publisher_002,topicA,topicA-20,172.172.1.2:1883,1551656261300,PRODUCED
Publisher_002,topicA,topicA-21,172.172.1.2:1883,1551656261398,PRODUCED
Publisher_002,topicA,topicA-22,172.172.1.2:1883,1551656261502,PRODUCED
Publisher_002,topicA,topicA-23,172.172.1.2:1883,1551656261603,PRODUCED
Publisher_002,topicA,topicA-24,172.172.1.2:1883,1551656261699,PRODUCED
Publisher_002,topicA,topicA-25,172.172.1.2:1883,1551656261797,PRODUCED
Publisher_002,topicA,topicA-26,172.172.1.2:1883,1551656261897,PRODUCED
Publisher_002,topicA,topicA-27,172.172.1.2:1883,1551656261997,PRODUCED
Publisher_002,topicA,topicA-28,172.172.1.2:1883,1551656262097,PRODUCED
Publisher_002,topicA,topicA-29,172.172.1.2:1883,1551656262197,PRODUCED
Publisher_002,topicA,topicA-30,172.172.1.2:1883,1551656262297,PRODUCED
Publisher_002,topicA,topicA-31,172.172.1.2:1883,1551656262397,PRODUCED
Publisher_002,topicA,topicA-32,172.172.1.2:1883,1551656262497,PRODUCED
Publisher_002,topicA,topicA-33,172.172.1.2:1883,1551656262597,PRODUCED
Publisher_002,topicA,topicA-34,172.172.1.2:1883,1551656262700,PRODUCED
Publisher_002,topicA,topicA-35,172.172.1.2:1883,1551656262798,PRODUCED
Publisher_002,topicA,topicA-36,172.172.1.2:1883,1551656262897,PRODUCED
Publisher_002,topicA,topicA-37,172.172.1.2:1883,1551656262997,PRODUCED
Publisher_002,topicA,topicA-38,172.172.1.2:1883,1551656263097,PRODUCED
Publisher_002,topicA,topicA-39,172.172.1.2:1883,1551656263198,PRODUCED
Publisher_002,topicA,topicA-40,172.172.1.2:1883,1551656263297,PRODUCED
Publisher_002,topicA,topicA-41,172.172.1.2:1883,1551656263399,PRODUCED
Publisher_002,topicA,topicA-42,172.172.1.2:1883,1551656263500,PRODUCED
Publisher_002,topicA,topicA-43,172.172.1.2:1883,1551656263601,PRODUCED
Publisher_002,topicA,topicA-44,172.172.1.2:1883,1551656263702,PRODUCED
Publisher_002,topicA,topicA-45,172.172.1.2:1883,1551656263797,PRODUCED
Publisher_002,topicA,topicA-46,172.172.1.2:1883,1551656263898,PRODUCED
Publisher_002,topicA,topicA-47,172.172.1.2:1883,1551656263997,PRODUCED
Publisher_002,topicA,topicA-48,172.172.1.2:1883,1551656264097,PRODUCED
Publisher_002,topicA,topicA-49,172.172.1.2:1883,1551656264198,PRODUCED
Publisher_002,topicA,topicA-50,172.172.1.2:1883,1551656264298,PRODUCED
Publisher_002,topicA,topicA-51,172.172.1.2:1883,1551656264397,PRODUCED
Publisher_002,topicA,topicA-52,172.172.1.2:1883,1551656264506,PRODUCED
Publisher_002,topicA,topicA-53,172.172.1.2:1883,1551656264600,PRODUCED
Publisher_002,topicA,topicA-54,172.172.1.2:1883,1551656264697,PRODUCED
Publisher_002,topicA,topicA-55,172.172.1.2:1883,1551656264797,PRODUCED
Publisher_002,topicA,topicA-56,172.172.1.2:1883,1551656264897,PRODUCED
Publisher_002,topicA,topicA-57,172.172.1.2:1883,1551656264997,PRODUCED
Publisher_002,topicA,topicA-58,172.172.1.2:1883,1551656265097,PRODUCED
Publisher_002,topicA,topicA-59,172.172.1.2:1883,1551656265198,PRODUCED
Publisher_002,topicA,topicA-60,172.172.1.2:1883,1551656265301,PRODUCED
Publisher_002,topicA,topicA-61,172.172.1.2:1883,1551656265401,PRODUCED
Publisher_002,topicA,topicA-62,172.172.1.2:1883,1551656265497,PRODUCED
Publisher_002,topicA,topicA-63,172.172.1.2:1883,1551656265600,PRODUCED
Publisher_002,topicA,topicA-64,172.172.1.2:1883,1551656265697,PRODUCED
Publisher_002,topicA,topicA-65,172.172.1.2:1883,1551656265802,PRODUCED
Publisher_002,topicA,topicA-66,172.172.1.2:1883,1551656265898,PRODUCED
Publisher_002,topicA,topicA-67,172.172.1.2:1883,1551656265998,PRODUCED
Publisher_002,topicA,topicA-68,172.172.1.2:1883,1551656266097,PRODUCED
Publisher_002,topicA,topicA-69,172.172.1.2:1883,1551656266198,PRODUCED
Publisher_002,topicA,topicA-70,172.172.1.2:1883,1551656266297,PRODUCED
Publisher_002,topicA,topicA-71,172.172.1.2:1883,1551656266397,PRODUCED
Publisher_002,topicA,topicA-72,172.172.1.2:1883,1551656266500,PRODUCED
Publisher_002,topicA,topicA-73,172.172.1.2:1883,1551656266602,PRODUCED
Publisher_002,topicA,topicA-74,172.172.1.2:1883,1551656266698,PRODUCED
Publisher_002,topicA,topicA-75,172.172.1.2:1883,1551656266802,PRODUCED
Publisher_002,topicA,topicA-76,172.172.1.2:1883,1551656266897,PRODUCED
Publisher_002,topicA,topicA-77,172.172.1.2:1883,1551656266998,PRODUCED
Publisher_002,topicA,topicA-78,172.172.1.2:1883,1551656267102,PRODUCED
Publisher_002,topicA,topicA-79,172.172.1.2:1883,1551656267197,PRODUCED
Publisher_002,topicA,topicA-80,172.172.1.2:1883,1551656267297,PRODUCED
Publisher_002,topicA,topicA-81,172.172.1.2:1883,1551656267397,PRODUCED
Publisher_002,topicA,topicA-82,172.172.1.2:1883,1551656267503,PRODUCED
Publisher_002,topicA,topicA-83,172.172.1.2:1883,1551656267597,PRODUCED
Publisher_002,topicA,topicA-84,172.172.1.2:1883,1551656267698,PRODUCED
Publisher_002,topicA,topicA-85,172.172.1.2:1883,1551656267797,PRODUCED
Publisher_002,topicA,topicA-86,172.172.1.2:1883,1551656267900,PRODUCED
Publisher_002,topicA,topicA-87,172.172.1.2:1883,1551656268000,PRODUCED
Publisher_002,topicA,topicA-88,172.172.1.2:1883,1551656268101,PRODUCED
Publisher_002,topicA,topicA-89,172.172.1.2:1883,1551656268198,PRODUCED
Publisher_002,topicA,topicA-90,172.172.1.2:1883,1551656268297,PRODUCED
Publisher_002,topicA,topicA-91,172.172.1.2:1883,1551656268400,PRODUCED
Publisher_002,topicA,topicA-92,172.172.1.2:1883,1551656268498,PRODUCED
Publisher_002,topicA,topicA-93,172.172.1.2:1883,1551656268597,PRODUCED
Publisher_002,topicA,topicA-94,172.172.1.2:1883,1551656268699,PRODUCED
Publisher_002,topicA,topicA-95,172.172.1.2:1883,1551656268799,PRODUCED
Publisher_002,topicA,topicA-96,172.172.1.2:1883,1551656268897,PRODUCED
Publisher_002,topicA,topicA-97,172.172.1.2:1883,1551656269001,PRODUCED
Publisher_002,topicA,topicA-98,172.172.1.2:1883,1551656269097,PRODUCED
Publisher_002,topicA,topicA-99,172.172.1.2:1883,1551656269203,PRODUCED
Publisher_002,topicA,topicA-100,172.172.1.2:1883,1551656269299,PRODUCED
Publisher_002,topicA,topicA-101,172.172.1.2:1883,1551656269402,PRODUCED
Publisher_002,topicA,topicA-102,172.172.1.2:1883,1551656269498,PRODUCED
Publisher_002,topicA,topicA-103,172.172.1.2:1883,1551656269602,PRODUCED
Publisher_002,topicA,topicA-104,172.172.1.2:1883,1551656269701,PRODUCED
Publisher_002,topicA,topicA-105,172.172.1.2:1883,1551656269798,PRODUCED
Publisher_002,topicA,topicA-106,172.172.1.2:1883,1551656269898,PRODUCED
Publisher_002,topicA,topicA-107,172.172.1.2:1883,1551656269997,PRODUCED
Publisher_002,topicA,topicA-108,172.172.1.2:1883,1551656270097,PRODUCED
Publisher_002,topicA,topicA-109,172.172.1.2:1883,1551656270197,PRODUCED
Publisher_002,topicA,topicA-110,172.172.1.2:1883,1551656270299,PRODUCED
Publisher_002,topicA,topicA-111,172.172.1.2:1883,1551656270397,PRODUCED
Publisher_002,topicA,topicA-112,172.172.1.2:1883,1551656270497,PRODUCED
Publisher_002,topicA,topicA-113,172.172.1.2:1883,1551656270597,PRODUCED
Publisher_002,topicA,topicA-114,172.172.1.2:1883,1551656270697,PRODUCED
Publisher_002,topicA,topicA-115,172.172.1.2:1883,1551656270797,PRODUCED
Publisher_002,topicA,topicA-116,172.172.1.2:1883,1551656270897,PRODUCED
Publisher_002,topicA,topicA-117,172.172.1.2:1883,1551656270997,PRODUCED
Publisher_002,topicA,topicA-118,172.172.1.2:1883,1551656271097,PRODUCED
Publisher_002,topicA,topicA-119,172.172.1.2:1883,1551656271197,PRODUCED
Publisher_002,topicA,topicA-120,172.172.1.2:1883,1551656271297,PRODUCED
Publisher_002,topicA,topicA-121,172.172.1.2:1883,1551656271399,PRODUCED
Publisher_002,topicA,topicA-122,172.172.1.2:1883,1551656271497,PRODUCED
Publisher_002,topicA,topicA-123,172.172.1.2:1883,1551656271602,PRODUCED
Publisher_002,topicA,topicA-124,172.172.1.2:1883,1551656271698,PRODUCED
Publisher_002,topicA,topicA-125,172.172.1.2:1883,1551656271799,PRODUCED
Publisher_002,topicA,topicA-126,172.172.1.2:1883,1551656271897,PRODUCED
Publisher_002,topicA,topicA-127,172.172.1.2:1883,1551656271997,PRODUCED
Publisher_002,topicA,topicA-128,172.172.1.2:1883,1551656272097,PRODUCED
Publisher_002,topicA,topicA-129,172.172.1.2:1883,1551656272198,PRODUCED
Publisher_002,topicA,topicA-130,172.172.1.2:1883,1551656272297,PRODUCED
Publisher_002,topicA,topicA-131,172.172.1.2:1883,1551656272397,PRODUCED
Publisher_002,topicA,topicA-132,172.172.1.2:1883,1551656272499,PRODUCED
Publisher_002,topicA,topicA-133,172.172.1.2:1883,1551656272598,PRODUCED
Publisher_002,topicA,topicA-134,172.172.1.2:1883,1551656272697,PRODUCED
Publisher_002,topicA,topicA-135,172.172.1.2:1883,1551656272798,PRODUCED
Publisher_002,topicA,topicA-136,172.172.1.2:1883,1551656272898,PRODUCED
Publisher_002,topicA,topicA-137,172.172.1.2:1883,1551656272997,PRODUCED
Publisher_002,topicA,topicA-138,172.172.1.2:1883,1551656273102,PRODUCED
Publisher_002,topicA,topicA-139,172.172.1.2:1883,1551656273198,PRODUCED
Publisher_002,topicA,topicA-140,172.172.1.2:1883,1551656273297,PRODUCED
Publisher_002,topicA,topicA-141,172.172.1.2:1883,1551656273401,PRODUCED
Publisher_002,topicA,topicA-142,172.172.1.2:1883,1551656273499,PRODUCED
Publisher_002,topicA,topicA-143,172.172.1.2:1883,1551656273602,PRODUCED
Publisher_002,topicA,topicA-144,172.172.1.2:1883,1551656273698,PRODUCED
Publisher_002,topicA,topicA-145,172.172.1.2:1883,1551656273798,PRODUCED
Publisher_002,topicA,topicA-146,172.172.1.2:1883,1551656273897,PRODUCED
Publisher_002,topicA,topicA-147,172.172.1.2:1883,1551656273999,PRODUCED
Publisher_002,topicA,topicA-148,172.172.1.2:1883,1551656274101,PRODUCED
Publisher_002,topicA,topicA-149,172.172.1.2:1883,1551656274199,PRODUCED
Publisher_002,topicA,topicA-150,172.172.1.2:1883,1551656274301,PRODUCED
Publisher_002,topicA,topicA-151,172.172.1.2:1883,1551656274398,PRODUCED
Publisher_002,topicA,topicA-152,172.172.1.2:1883,1551656274501,PRODUCED
Publisher_002,topicA,topicA-153,172.172.1.2:1883,1551656274598,PRODUCED
Publisher_002,topicA,topicA-154,172.172.1.2:1883,1551656274697,PRODUCED
Publisher_002,topicA,topicA-155,172.172.1.2:1883,1551656274798,PRODUCED
Publisher_002,topicA,topicA-156,172.172.1.2:1883,1551656274897,PRODUCED
Publisher_002,topicA,topicA-157,172.172.1.2:1883,1551656274999,PRODUCED
Publisher_002,topicA,topicA-158,172.172.1.2:1883,1551656275102,PRODUCED
Publisher_002,topicA,topicA-159,172.172.1.2:1883,1551656275199,PRODUCED
Publisher_002,topicA,topicA-160,172.172.1.2:1883,1551656275297,PRODUCED
Publisher_002,topicA,topicA-161,172.172.1.2:1883,1551656275397,PRODUCED
Publisher_002,topicA,topicA-162,172.172.1.2:1883,1551656275501,PRODUCED
Publisher_002,topicA,topicA-163,172.172.1.2:1883,1551656275602,PRODUCED
Publisher_002,topicA,topicA-164,172.172.1.2:1883,1551656275697,PRODUCED
Publisher_002,topicA,topicA-165,172.172.1.2:1883,1551656275797,PRODUCED
Publisher_002,topicA,topicA-166,172.172.1.2:1883,1551656275901,PRODUCED
Publisher_002,topicA,topicA-167,172.172.1.2:1883,1551656276002,PRODUCED
Publisher_002,topicA,topicA-168,172.172.1.2:1883,1551656276099,PRODUCED
Publisher_002,topicA,topicA-169,172.172.1.2:1883,1551656276197,PRODUCED
Publisher_002,topicA,topicA-170,172.172.1.2:1883,1551656276299,PRODUCED
Publisher_002,topicA,topicA-171,172.172.1.2:1883,1551656276399,PRODUCED
Publisher_002,topicA,topicA-172,172.172.1.2:1883,1551656276498,PRODUCED
Publisher_002,topicA,topicA-173,172.172.1.2:1883,1551656276602,PRODUCED
Publisher_002,topicA,topicA-174,172.172.1.2:1883,1551656276698,PRODUCED
Publisher_002,topicA,topicA-175,172.172.1.2:1883,1551656276798,PRODUCED
Publisher_002,topicA,topicA-176,172.172.1.2:1883,1551656276897,PRODUCED
Publisher_002,topicA,topicA-177,172.172.1.2:1883,1551656277001,PRODUCED
Publisher_002,topicA,topicA-178,172.172.1.2:1883,1551656277102,PRODUCED
Publisher_002,topicA,topicA-179,172.172.1.2:1883,1551656277199,PRODUCED
Publisher_002,topicA,topicA-180,172.172.1.2:1883,1551656277298,PRODUCED
Publisher_002,topicA,topicA-181,172.172.1.2:1883,1551656277402,PRODUCED
Publisher_002,topicA,topicA-182,172.172.1.2:1883,1551656277498,PRODUCED
Publisher_002,topicA,topicA-183,172.172.1.2:1883,1551656277597,PRODUCED
Publisher_002,topicA,topicA-184,172.172.1.2:1883,1551656277700,PRODUCED
Publisher_002,topicA,topicA-185,172.172.1.2:1883,1551656277799,PRODUCED
Publisher_002,topicA,topicA-186,172.172.1.2:1883,1551656277900,PRODUCED
Publisher_002,topicA,topicA-187,172.172.1.2:1883,1551656278001,PRODUCED
Publisher_002,topicA,topicA-188,172.172.1.2:1883,1551656278100,PRODUCED
Publisher_002,topicA,topicA-189,172.172.1.2:1883,1551656278197,PRODUCED
Publisher_002,topicA,topicA-190,172.172.1.2:1883,1551656278297,PRODUCED
Publisher_002,topicA,topicA-191,172.172.1.2:1883,1551656278398,PRODUCED
Publisher_002,topicA,topicA-192,172.172.1.2:1883,1551656278498,PRODUCED
Publisher_002,topicA,topicA-193,172.172.1.2:1883,1551656278599,PRODUCED
Publisher_002,topicA,topicA-194,172.172.1.2:1883,1551656278697,PRODUCED
Publisher_002,topicA,topicA-195,172.172.1.2:1883,1551656278797,PRODUCED
Publisher_002,topicA,topicA-196,172.172.1.2:1883,1551656278898,PRODUCED
Publisher_002,topicA,topicA-197,172.172.1.2:1883,1551656278997,PRODUCED
Publisher_002,topicA,topicA-198,172.172.1.2:1883,1551656279099,PRODUCED
Publisher_002,topicA,topicA-199,172.172.1.2:1883,1551656279202,PRODUCED
Publisher_002,topicA,topicA-200,172.172.1.2:1883,1551656279299,PRODUCED
Publisher_002,topicA,topicA-201,172.172.1.2:1883,1551656279397,PRODUCED
Publisher_002,topicA,topicA-202,172.172.1.2:1883,1551656279498,PRODUCED
Publisher_002,topicA,topicA-203,172.172.1.2:1883,1551656279598,PRODUCED
Publisher_002,topicA,topicA-204,172.172.1.2:1883,1551656279697,PRODUCED
Publisher_002,topicA,topicA-205,172.172.1.2:1883,1551656279797,PRODUCED
Publisher_002,topicA,topicA-206,172.172.1.2:1883,1551656279897,PRODUCED
Publisher_002,topicA,topicA-207,172.172.1.2:1883,1551656279997,PRODUCED
Publisher_002,topicA,topicA-208,172.172.1.2:1883,1551656280097,PRODUCED
Publisher_002,topicA,topicA-209,172.172.1.2:1883,1551656280197,PRODUCED
Publisher_002,topicA,topicA-210,172.172.1.2:1883,1551656280297,PRODUCED
Publisher_002,topicA,topicA-211,172.172.1.2:1883,1551656280397,PRODUCED
Publisher_002,topicA,topicA-212,172.172.1.2:1883,1551656280498,PRODUCED
Publisher_002,topicA,topicA-213,172.172.1.2:1883,1551656280598,PRODUCED
Publisher_002,topicA,topicA-214,172.172.1.2:1883,1551656280698,PRODUCED
Publisher_002,topicA,topicA-215,172.172.1.2:1883,1551656280797,PRODUCED
Publisher_002,topicA,topicA-216,172.172.1.2:1883,1551656280897,PRODUCED
Publisher_002,topicA,topicA-217,172.172.1.2:1883,1551656280997,PRODUCED
Publisher_002,topicA,topicA-218,172.172.1.2:1883,1551656281098,PRODUCED
Publisher_002,topicA,topicA-219,172.172.1.2:1883,1551656281197,PRODUCED
Publisher_002,topicA,topicA-220,172.172.1.2:1883,1551656281300,PRODUCED
Publisher_002,topicA,topicA-221,172.172.1.2:1883,1551656281397,PRODUCED
Publisher_002,topicA,topicA-222,172.172.1.2:1883,1551656281498,PRODUCED
Publisher_002,topicA,topicA-223,172.172.1.2:1883,1551656281597,PRODUCED
Publisher_002,topicA,topicA-224,172.172.1.2:1883,1551656281698,PRODUCED
Publisher_002,topicA,topicA-225,172.172.1.2:1883,1551656281798,PRODUCED
Publisher_002,topicA,topicA-226,172.172.1.2:1883,1551656281899,PRODUCED
Publisher_002,topicA,topicA-227,172.172.1.2:1883,1551656282000,PRODUCED
Publisher_002,topicA,topicA-228,172.172.1.2:1883,1551656282100,PRODUCED
Publisher_002,topicA,topicA-229,172.172.1.2:1883,1551656282197,PRODUCED
Publisher_002,topicA,topicA-230,172.172.1.2:1883,1551656282301,PRODUCED
Publisher_002,topicA,topicA-231,172.172.1.2:1883,1551656282401,PRODUCED
Publisher_002,topicA,topicA-232,172.172.1.2:1883,1551656282497,PRODUCED
Publisher_002,topicA,topicA-233,172.172.1.2:1883,1551656282597,PRODUCED
Publisher_002,topicA,topicA-234,172.172.1.2:1883,1551656282697,PRODUCED
Publisher_002,topicA,topicA-235,172.172.1.2:1883,1551656282798,PRODUCED
Publisher_002,topicA,topicA-236,172.172.1.2:1883,1551656282901,PRODUCED
Publisher_002,topicA,topicA-237,172.172.1.2:1883,1551656282997,PRODUCED
Publisher_002,topicA,topicA-238,172.172.1.2:1883,1551656283097,PRODUCED
Publisher_002,topicA,topicA-239,172.172.1.2:1883,1551656283197,PRODUCED
Publisher_002,topicA,topicA-240,172.172.1.2:1883,1551656283299,PRODUCED
Publisher_002,topicA,topicA-241,172.172.1.2:1883,1551656283397,PRODUCED
Publisher_002,topicA,topicA-242,172.172.1.2:1883,1551656283500,PRODUCED
Publisher_002,topicA,topicA-243,172.172.1.2:1883,1551656283598,PRODUCED
Publisher_002,topicA,topicA-244,172.172.1.2:1883,1551656283697,PRODUCED
Publisher_002,topicA,topicA-245,172.172.1.2:1883,1551656283801,PRODUCED
Publisher_002,topicA,topicA-246,172.172.1.2:1883,1551656283901,PRODUCED
Publisher_002,topicA,topicA-247,172.172.1.2:1883,1551656283997,PRODUCED
Publisher_002,topicA,topicA-248,172.172.1.2:1883,1551656284101,PRODUCED
Publisher_002,topicA,topicA-249,172.172.1.2:1883,1551656284198,PRODUCED
Publisher_002,topicA,topicA-250,172.172.1.2:1883,1551656284297,PRODUCED
Publisher_002,topicA,topicA-251,172.172.1.2:1883,1551656284397,PRODUCED
Publisher_002,topicA,topicA-252,172.172.1.2:1883,1551656284497,PRODUCED
Publisher_002,topicA,topicA-253,172.172.1.2:1883,1551656284597,PRODUCED
Publisher_002,topicA,topicA-254,172.172.1.2:1883,1551656284697,PRODUCED
Publisher_002,topicA,topicA-255,172.172.1.2:1883,1551656284798,PRODUCED
Publisher_002,topicA,topicA-256,172.172.1.2:1883,1551656284899,PRODUCED
Publisher_002,topicA,topicA-257,172.172.1.2:1883,1551656284997,PRODUCED
Publisher_002,topicA,topicA-258,172.172.1.2:1883,1551656285097,PRODUCED
Publisher_002,topicA,topicA-259,172.172.1.2:1883,1551656285197,PRODUCED
Publisher_002,topicA,topicA-260,172.172.1.2:1883,1551656285299,PRODUCED
Publisher_002,topicA,topicA-261,172.172.1.2:1883,1551656285400,PRODUCED
Publisher_002,topicA,topicA-262,172.172.1.2:1883,1551656285500,PRODUCED
Publisher_002,topicA,topicA-263,172.172.1.2:1883,1551656285598,PRODUCED
Publisher_002,topicA,topicA-264,172.172.1.2:1883,1551656285698,PRODUCED
Publisher_002,topicA,topicA-265,172.172.1.2:1883,1551656285802,PRODUCED
Publisher_002,topicA,topicA-266,172.172.1.2:1883,1551656285899,PRODUCED
Publisher_002,topicA,topicA-267,172.172.1.2:1883,1551656285997,PRODUCED
Publisher_002,topicA,topicA-268,172.172.1.2:1883,1551656286098,PRODUCED
Publisher_002,topicA,topicA-269,172.172.1.2:1883,1551656286202,PRODUCED
Publisher_002,topicA,topicA-270,172.172.1.2:1883,1551656286298,PRODUCED
Publisher_002,topicA,topicA-271,172.172.1.2:1883,1551656286397,PRODUCED
Publisher_002,topicA,topicA-272,172.172.1.2:1883,1551656286497,PRODUCED
Publisher_002,topicA,topicA-273,172.172.1.2:1883,1551656286597,PRODUCED
Publisher_002,topicA,topicA-274,172.172.1.2:1883,1551656286697,PRODUCED
Publisher_002,topicA,topicA-275,172.172.1.2:1883,1551656286798,PRODUCED
Publisher_002,topicA,topicA-276,172.172.1.2:1883,1551656286900,PRODUCED
Publisher_002,topicA,topicA-277,172.172.1.2:1883,1551656286997,PRODUCED
Publisher_002,topicA,topicA-278,172.172.1.2:1883,1551656287098,PRODUCED
Publisher_002,topicA,topicA-279,172.172.1.2:1883,1551656287200,PRODUCED
Publisher_002,topicA,topicA-280,172.172.1.2:1883,1551656287300,PRODUCED
Publisher_002,topicA,topicA-281,172.172.1.2:1883,1551656287398,PRODUCED
Publisher_002,topicA,topicA-282,172.172.1.2:1883,1551656287501,PRODUCED
Publisher_002,topicA,topicA-283,172.172.1.2:1883,1551656287601,PRODUCED
Publisher_002,topicA,topicA-284,172.172.1.2:1883,1551656287698,PRODUCED
Publisher_002,topicA,topicA-285,172.172.1.2:1883,1551656287797,PRODUCED
Publisher_002,topicA,topicA-286,172.172.1.2:1883,1551656287900,PRODUCED
Publisher_002,topicA,topicA-287,172.172.1.2:1883,1551656287997,PRODUCED
Publisher_002,topicA,topicA-288,172.172.1.2:1883,1551656288097,PRODUCED
Publisher_002,topicA,topicA-289,172.172.1.2:1883,1551656288197,PRODUCED
Publisher_002,topicA,topicA-290,172.172.1.2:1883,1551656288297,PRODUCED
Publisher_002,topicA,topicA-291,172.172.1.2:1883,1551656288397,PRODUCED
Publisher_002,topicA,topicA-292,172.172.1.2:1883,1551656288499,PRODUCED
Publisher_002,topicA,topicA-293,172.172.1.2:1883,1551656288597,PRODUCED
Publisher_002,topicA,topicA-294,172.172.1.2:1883,1551656288697,PRODUCED
Publisher_002,topicA,topicA-295,172.172.1.2:1883,1551656288799,PRODUCED
Publisher_002,topicA,topicA-296,172.172.1.2:1883,1551656288898,PRODUCED
Publisher_002,topicA,topicA-297,172.172.1.2:1883,1551656288997,PRODUCED
Publisher_002,topicA,topicA-298,172.172.1.2:1883,1551656289099,PRODUCED
Publisher_002,topicA,topicA-299,172.172.1.2:1883,1551656289198,PRODUCED
Publisher_002,topicA,topicA-300,172.172.1.2:1883,1551656289298,PRODUCED
Publisher_002,topicA,topicA-301,172.172.1.2:1883,1551656289398,PRODUCED
Publisher_002,topicA,topicA-302,172.172.1.2:1883,1551656289497,PRODUCED
Publisher_002,topicA,topicA-303,172.172.1.2:1883,1551656289601,PRODUCED
Publisher_002,topicA,topicA-304,172.172.1.2:1883,1551656289697,PRODUCED
Publisher_002,topicA,topicA-305,172.172.1.2:1883,1551656289800,PRODUCED
Publisher_002,topicA,topicA-306,172.172.1.2:1883,1551656289900,PRODUCED
Publisher_002,topicA,topicA-307,172.172.1.2:1883,1551656289998,PRODUCED
Publisher_002,topicA,topicA-308,172.172.1.2:1883,1551656290098,PRODUCED
Publisher_002,topicA,topicA-309,172.172.1.2:1883,1551656290198,PRODUCED
Publisher_002,topicA,topicA-310,172.172.1.2:1883,1551656290298,PRODUCED
Publisher_002,topicA,topicA-311,172.172.1.2:1883,1551656290402,PRODUCED
Publisher_002,topicA,topicA-312,172.172.1.2:1883,1551656290501,PRODUCED
Publisher_002,topicA,topicA-313,172.172.1.2:1883,1551656290598,PRODUCED
Publisher_002,topicA,topicA-314,172.172.1.2:1883,1551656290697,PRODUCED
Publisher_002,topicA,topicA-315,172.172.1.2:1883,1551656290797,PRODUCED
Publisher_002,topicA,topicA-316,172.172.1.2:1883,1551656290902,PRODUCED
Publisher_002,topicA,topicA-317,172.172.1.2:1883,1551656290998,PRODUCED
Publisher_002,topicA,topicA-318,172.172.1.2:1883,1551656291097,PRODUCED
Publisher_002,topicA,topicA-319,172.172.1.2:1883,1551656291198,PRODUCED
Publisher_002,topicA,topicA-320,172.172.1.2:1883,1551656291298,PRODUCED
Publisher_002,topicA,topicA-321,172.172.1.2:1883,1551656291397,PRODUCED
Publisher_002,topicA,topicA-322,172.172.1.2:1883,1551656291500,PRODUCED
Publisher_002,topicA,topicA-323,172.172.1.2:1883,1551656291597,PRODUCED
Publisher_002,topicA,topicA-324,172.172.1.2:1883,1551656291699,PRODUCED
Publisher_002,topicA,topicA-325,172.172.1.2:1883,1551656291797,PRODUCED
Publisher_002,topicA,topicA-326,172.172.1.2:1883,1551656291903,PRODUCED
Publisher_002,topicA,topicA-327,172.172.1.2:1883,1551656291999,PRODUCED
Publisher_002,topicA,topicA-328,172.172.1.2:1883,1551656292098,PRODUCED
Publisher_002,topicA,topicA-329,172.172.1.2:1883,1551656292201,PRODUCED
Publisher_002,topicA,topicA-330,172.172.1.2:1883,1551656292300,PRODUCED
Publisher_002,topicA,topicA-331,172.172.1.2:1883,1551656292403,PRODUCED
Publisher_002,topicA,topicA-332,172.172.1.2:1883,1551656292505,PRODUCED
Publisher_002,topicA,topicA-333,172.172.1.2:1883,1551656292597,PRODUCED
Publisher_002,topicA,topicA-334,172.172.1.2:1883,1551656292697,PRODUCED
Publisher_002,topicA,topicA-335,172.172.1.2:1883,1551656292799,PRODUCED
Publisher_002,topicA,topicA-336,172.172.1.2:1883,1551656292899,PRODUCED
Publisher_002,topicA,topicA-337,172.172.1.2:1883,1551656292999,PRODUCED
Publisher_002,topicA,topicA-338,172.172.1.2:1883,1551656293097,PRODUCED
Publisher_002,topicA,topicA-339,172.172.1.2:1883,1551656293197,PRODUCED
Publisher_002,topicA,topicA-340,172.172.1.2:1883,1551656293299,PRODUCED
Publisher_002,topicA,topicA-341,172.172.1.2:1883,1551656293397,PRODUCED
Publisher_002,topicA,topicA-342,172.172.1.2:1883,1551656293497,PRODUCED
Publisher_002,topicA,topicA-343,172.172.1.2:1883,1551656293597,PRODUCED
Publisher_002,topicA,topicA-344,172.172.1.2:1883,1551656293699,PRODUCED
Publisher_002,topicA,topicA-345,172.172.1.2:1883,1551656293798,PRODUCED
Publisher_002,topicA,topicA-346,172.172.1.2:1883,1551656293898,PRODUCED
Publisher_002,topicA,topicA-347,172.172.1.2:1883,1551656293997,PRODUCED
Publisher_002,topicA,topicA-348,172.172.1.2:1883,1551656294097,PRODUCED
Publisher_002,topicA,topicA-349,172.172.1.2:1883,1551656294197,PRODUCED
Publisher_002,topicA,topicA-350,172.172.1.2:1883,1551656294297,PRODUCED
Publisher_002,topicA,topicA-351,172.172.1.2:1883,1551656294397,PRODUCED
Publisher_002,topicA,topicA-352,172.172.1.2:1883,1551656294500,PRODUCED
Publisher_002,topicA,topicA-353,172.172.1.2:1883,1551656294601,PRODUCED
Publisher_002,topicA,topicA-354,172.172.1.2:1883,1551656294697,PRODUCED
Publisher_002,topicA,topicA-355,172.172.1.2:1883,1551656294797,PRODUCED
Publisher_002,topicA,topicA-356,172.172.1.2:1883,1551656294897,PRODUCED
Publisher_002,topicA,topicA-357,172.172.1.2:1883,1551656294997,PRODUCED
Publisher_002,topicA,topicA-358,172.172.1.2:1883,1551656295097,PRODUCED
Publisher_002,topicA,topicA-359,172.172.1.2:1883,1551656295197,PRODUCED
Publisher_002,topicA,topicA-360,172.172.1.2:1883,1551656295298,PRODUCED
Publisher_002,topicA,topicA-361,172.172.1.2:1883,1551656295397,PRODUCED
Publisher_002,topicA,topicA-362,172.172.1.2:1883,1551656295497,PRODUCED
Publisher_002,topicA,topicA-363,172.172.1.2:1883,1551656295598,PRODUCED
Publisher_002,topicA,topicA-364,172.172.1.2:1883,1551656295697,PRODUCED
Publisher_002,topicA,topicA-365,172.172.1.2:1883,1551656295798,PRODUCED
Publisher_002,topicA,topicA-366,172.172.1.2:1883,1551656295898,PRODUCED
Publisher_002,topicA,topicA-367,172.172.1.2:1883,1551656295998,PRODUCED
Publisher_002,topicA,topicA-368,172.172.1.2:1883,1551656296099,PRODUCED
Publisher_002,topicA,topicA-369,172.172.1.2:1883,1551656296200,PRODUCED
Publisher_002,topicA,topicA-370,172.172.1.2:1883,1551656296297,PRODUCED
Publisher_002,topicA,topicA-371,172.172.1.2:1883,1551656296397,PRODUCED
Publisher_002,topicA,topicA-372,172.172.1.2:1883,1551656296497,PRODUCED
Publisher_002,topicA,topicA-373,172.172.1.2:1883,1551656296598,PRODUCED
Publisher_002,topicA,topicA-374,172.172.1.2:1883,1551656296697,PRODUCED
Publisher_002,topicA,topicA-375,172.172.1.2:1883,1551656296797,PRODUCED
Publisher_002,topicA,topicA-376,172.172.1.2:1883,1551656296898,PRODUCED
Publisher_002,topicA,topicA-377,172.172.1.2:1883,1551656296998,PRODUCED
Publisher_002,topicA,topicA-378,172.172.1.2:1883,1551656297098,PRODUCED
Publisher_002,topicA,topicA-379,172.172.1.2:1883,1551656297197,PRODUCED
Publisher_002,topicA,topicA-380,172.172.1.2:1883,1551656297297,PRODUCED
Publisher_002,topicA,topicA-381,172.172.1.2:1883,1551656297397,PRODUCED
Publisher_002,topicA,topicA-382,172.172.1.2:1883,1551656297498,PRODUCED
Publisher_002,topicA,topicA-383,172.172.1.2:1883,1551656297598,PRODUCED
Publisher_002,topicA,topicA-384,172.172.1.2:1883,1551656297698,PRODUCED
Publisher_002,topicA,topicA-385,172.172.1.2:1883,1551656297803,PRODUCED
Publisher_002,topicA,topicA-386,172.172.1.2:1883,1551656297897,PRODUCED
Publisher_002,topicA,topicA-387,172.172.1.2:1883,1551656298000,PRODUCED
Publisher_002,topicA,topicA-388,172.172.1.2:1883,1551656298097,PRODUCED
Publisher_002,topicA,topicA-389,172.172.1.2:1883,1551656298197,PRODUCED
Publisher_002,topicA,topicA-390,172.172.1.2:1883,1551656298298,PRODUCED
Publisher_002,topicA,topicA-391,172.172.1.2:1883,1551656298397,PRODUCED
Publisher_002,topicA,topicA-392,172.172.1.2:1883,1551656298497,PRODUCED
Publisher_002,topicA,topicA-393,172.172.1.2:1883,1551656298599,PRODUCED
Publisher_002,topicA,topicA-394,172.172.1.2:1883,1551656298698,PRODUCED
Publisher_002,topicA,topicA-395,172.172.1.2:1883,1551656298799,PRODUCED
Publisher_002,topicA,topicA-396,172.172.1.2:1883,1551656298900,PRODUCED
Publisher_002,topicA,topicA-397,172.172.1.2:1883,1551656299003,PRODUCED
Publisher_002,topicA,topicA-398,172.172.1.2:1883,1551656299101,PRODUCED
Publisher_002,topicA,topicA-399,172.172.1.2:1883,1551656299198,PRODUCED
Publisher_002,topicA,topicA-400,172.172.1.2:1883,1551656299297,PRODUCED
Publisher_002,topicA,topicA-401,172.172.1.2:1883,1551656299397,PRODUCED
Publisher_002,topicA,topicA-402,172.172.1.2:1883,1551656299501,PRODUCED
Publisher_002,topicA,topicA-403,172.172.1.2:1883,1551656299598,PRODUCED
Publisher_002,topicA,topicA-404,172.172.1.2:1883,1551656299698,PRODUCED
Publisher_002,topicA,topicA-405,172.172.1.2:1883,1551656299799,PRODUCED
Publisher_002,topicA,topicA-406,172.172.1.2:1883,1551656299901,PRODUCED
Publisher_002,topicA,topicA-407,172.172.1.2:1883,1551656299998,PRODUCED
Publisher_002,topicA,topicA-408,172.172.1.2:1883,1551656300101,PRODUCED
Publisher_002,topicA,topicA-409,172.172.1.2:1883,1551656300202,PRODUCED
Publisher_002,topicA,topicA-410,172.172.1.2:1883,1551656300297,PRODUCED
Publisher_002,topicA,topicA-411,172.172.1.2:1883,1551656300398,PRODUCED
Publisher_002,topicA,topicA-412,172.172.1.2:1883,1551656300498,PRODUCED
Publisher_002,topicA,topicA-413,172.172.1.2:1883,1551656300601,PRODUCED
Publisher_002,topicA,topicA-414,172.172.1.2:1883,1551656300697,PRODUCED
Publisher_002,topicA,topicA-415,172.172.1.2:1883,1551656300797,PRODUCED
Publisher_002,topicA,topicA-416,172.172.1.2:1883,1551656300897,PRODUCED
Publisher_002,topicA,topicA-417,172.172.1.2:1883,1551656301002,PRODUCED
Publisher_002,topicA,topicA-418,172.172.1.2:1883,1551656301097,PRODUCED
Publisher_002,topicA,topicA-419,172.172.1.2:1883,1551656301197,PRODUCED
Publisher_002,topicA,topicA-420,172.172.1.2:1883,1551656301301,PRODUCED
Publisher_002,topicA,topicA-421,172.172.1.2:1883,1551656301401,PRODUCED
Publisher_002,topicA,topicA-422,172.172.1.2:1883,1551656301499,PRODUCED
Publisher_002,topicA,topicA-423,172.172.1.2:1883,1551656301599,PRODUCED
Publisher_002,topicA,topicA-424,172.172.1.2:1883,1551656301702,PRODUCED
Publisher_002,topicA,topicA-425,172.172.1.2:1883,1551656301800,PRODUCED
Publisher_002,topicA,topicA-426,172.172.1.2:1883,1551656301901,PRODUCED
Publisher_002,topicA,topicA-427,172.172.1.2:1883,1551656302002,PRODUCED
Publisher_002,topicA,topicA-428,172.172.1.2:1883,1551656302098,PRODUCED
Publisher_002,topicA,topicA-429,172.172.1.2:1883,1551656302200,PRODUCED
Publisher_002,topicA,topicA-430,172.172.1.2:1883,1551656302297,PRODUCED
Publisher_002,topicA,topicA-431,172.172.1.2:1883,1551656302401,PRODUCED
Publisher_002,topicA,topicA-432,172.172.1.2:1883,1551656302498,PRODUCED
Publisher_002,topicA,topicA-433,172.172.1.2:1883,1551656302598,PRODUCED
Publisher_002,topicA,topicA-434,172.172.1.2:1883,1551656302698,PRODUCED
Publisher_002,topicA,topicA-435,172.172.1.2:1883,1551656302801,PRODUCED
Publisher_002,topicA,topicA-436,172.172.1.2:1883,1551656302898,PRODUCED
Publisher_002,topicA,topicA-437,172.172.1.2:1883,1551656302997,PRODUCED
Publisher_002,topicA,topicA-438,172.172.1.2:1883,1551656303102,PRODUCED
Publisher_002,topicA,topicA-439,172.172.1.2:1883,1551656303197,PRODUCED
Publisher_002,topicA,topicA-440,172.172.1.2:1883,1551656303297,PRODUCED
Publisher_002,topicA,topicA-441,172.172.1.2:1883,1551656303398,PRODUCED
Publisher_002,topicA,topicA-442,172.172.1.2:1883,1551656303498,PRODUCED
Publisher_002,topicA,topicA-443,172.172.1.2:1883,1551656303601,PRODUCED
Publisher_002,topicA,topicA-444,172.172.1.2:1883,1551656303698,PRODUCED
Publisher_002,topicA,topicA-445,172.172.1.2:1883,1551656303798,PRODUCED
Publisher_002,topicA,topicA-446,172.172.1.2:1883,1551656303898,PRODUCED
Publisher_002,topicA,topicA-447,172.172.1.2:1883,1551656304001,PRODUCED
Publisher_002,topicA,topicA-448,172.172.1.2:1883,1551656304099,PRODUCED
Publisher_002,topicA,topicA-449,172.172.1.2:1883,1551656304202,PRODUCED
Publisher_002,topicA,topicA-450,172.172.1.2:1883,1551656304298,PRODUCED
Publisher_002,topicA,topicA-451,172.172.1.2:1883,1551656304398,PRODUCED
Publisher_002,topicA,topicA-452,172.172.1.2:1883,1551656304498,PRODUCED
Publisher_002,topicA,topicA-453,172.172.1.2:1883,1551656304601,PRODUCED
Publisher_002,topicA,topicA-454,172.172.1.2:1883,1551656304697,PRODUCED
Publisher_002,topicA,topicA-455,172.172.1.2:1883,1551656304800,PRODUCED
Publisher_002,topicA,topicA-456,172.172.1.2:1883,1551656304898,PRODUCED
Publisher_002,topicA,topicA-457,172.172.1.2:1883,1551656305001,PRODUCED
Publisher_002,topicA,topicA-458,172.172.1.2:1883,1551656305098,PRODUCED
Publisher_002,topicA,topicA-459,172.172.1.2:1883,1551656305197,PRODUCED
Publisher_002,topicA,topicA-460,172.172.1.2:1883,1551656305298,PRODUCED
Publisher_002,topicA,topicA-461,172.172.1.2:1883,1551656305403,PRODUCED
Publisher_002,topicA,topicA-462,172.172.1.2:1883,1551656305497,PRODUCED
Publisher_002,topicA,topicA-463,172.172.1.2:1883,1551656305598,PRODUCED
Publisher_002,topicA,topicA-464,172.172.1.2:1883,1551656305698,PRODUCED
Publisher_002,topicA,topicA-465,172.172.1.2:1883,1551656305799,PRODUCED
Publisher_002,topicA,topicA-466,172.172.1.2:1883,1551656305898,PRODUCED
Publisher_002,topicA,topicA-467,172.172.1.2:1883,1551656305997,PRODUCED
Publisher_002,topicA,topicA-468,172.172.1.2:1883,1551656306098,PRODUCED
Publisher_002,topicA,topicA-469,172.172.1.2:1883,1551656306201,PRODUCED
Publisher_002,topicA,topicA-470,172.172.1.2:1883,1551656306299,PRODUCED
Publisher_002,topicA,topicA-471,172.172.1.2:1883,1551656306398,PRODUCED
Publisher_002,topicA,topicA-472,172.172.1.2:1883,1551656306498,PRODUCED
Publisher_002,topicA,topicA-473,172.172.1.2:1883,1551656306598,PRODUCED
Publisher_002,topicA,topicA-474,172.172.1.2:1883,1551656306698,PRODUCED
Publisher_002,topicA,topicA-475,172.172.1.2:1883,1551656306802,PRODUCED
Publisher_002,topicA,topicA-476,172.172.1.2:1883,1551656306897,PRODUCED
Publisher_002,topicA,topicA-477,172.172.1.2:1883,1551656307000,PRODUCED
Publisher_002,topicA,topicA-478,172.172.1.2:1883,1551656307098,PRODUCED
Publisher_002,topicA,topicA-479,172.172.1.2:1883,1551656307197,PRODUCED
Publisher_002,topicA,topicA-480,172.172.1.2:1883,1551656307299,PRODUCED
Publisher_002,topicA,topicA-481,172.172.1.2:1883,1551656307397,PRODUCED
Publisher_002,topicA,topicA-482,172.172.1.2:1883,1551656307497,PRODUCED
Publisher_002,topicA,topicA-483,172.172.1.2:1883,1551656307598,PRODUCED
Publisher_002,topicA,topicA-484,172.172.1.2:1883,1551656307697,PRODUCED
Publisher_002,topicA,topicA-485,172.172.1.2:1883,1551656307825,PRODUCED
Publisher_002,topicA,topicA-486,172.172.1.2:1883,1551656307897,PRODUCED
Publisher_002,topicA,topicA-487,172.172.1.2:1883,1551656307997,PRODUCED
Publisher_002,topicA,topicA-488,172.172.1.2:1883,1551656308097,PRODUCED
Publisher_002,topicA,topicA-489,172.172.1.2:1883,1551656308197,PRODUCED
Publisher_002,topicA,topicA-490,172.172.1.2:1883,1551656308297,PRODUCED
Publisher_002,topicA,topicA-491,172.172.1.2:1883,1551656308398,PRODUCED
Publisher_002,topicA,topicA-492,172.172.1.2:1883,1551656308501,PRODUCED
Publisher_002,topicA,topicA-493,172.172.1.2:1883,1551656308597,PRODUCED
Publisher_002,topicA,topicA-494,172.172.1.2:1883,1551656308697,PRODUCED
Publisher_002,topicA,topicA-495,172.172.1.2:1883,1551656308797,PRODUCED
Publisher_002,topicA,topicA-496,172.172.1.2:1883,1551656308897,PRODUCED
Publisher_002,topicA,topicA-497,172.172.1.2:1883,1551656308997,PRODUCED
Publisher_002,topicA,topicA-498,172.172.1.2:1883,1551656309097,PRODUCED
Publisher_002,topicA,topicA-499,172.172.1.2:1883,1551656309197,PRODUCED
Publisher_002,topicA,topicA-500,172.172.1.2:1883,1551656309297,PRODUCED
Publisher_002,topicA,topicA-501,172.172.1.2:1883,1551656309397,PRODUCED
Publisher_002,topicA,topicA-502,172.172.1.2:1883,1551656309498,PRODUCED
Publisher_002,topicA,topicA-503,172.172.1.2:1883,1551656309597,PRODUCED
Publisher_002,topicA,topicA-504,172.172.1.2:1883,1551656309698,PRODUCED
Publisher_002,topicA,topicA-505,172.172.1.2:1883,1551656309797,PRODUCED
Publisher_002,topicA,topicA-506,172.172.1.2:1883,1551656309898,PRODUCED
Publisher_002,topicA,topicA-507,172.172.1.2:1883,1551656309997,PRODUCED
Publisher_002,topicA,topicA-508,172.172.1.2:1883,1551656310101,PRODUCED
Publisher_002,topicA,topicA-509,172.172.1.2:1883,1551656310197,PRODUCED
Publisher_002,topicA,topicA-510,172.172.1.2:1883,1551656310298,PRODUCED
Publisher_002,topicA,topicA-511,172.172.1.2:1883,1551656310398,PRODUCED
Publisher_002,topicA,topicA-512,172.172.1.2:1883,1551656310500,PRODUCED
Publisher_002,topicA,topicA-513,172.172.1.2:1883,1551656310598,PRODUCED
Publisher_002,topicA,topicA-514,172.172.1.2:1883,1551656310697,PRODUCED
Publisher_002,topicA,topicA-515,172.172.1.2:1883,1551656310800,PRODUCED
Publisher_002,topicA,topicA-516,172.172.1.2:1883,1551656310901,PRODUCED
Publisher_002,topicA,topicA-517,172.172.1.2:1883,1551656310998,PRODUCED
Publisher_002,topicA,topicA-518,172.172.1.2:1883,1551656311098,PRODUCED
Publisher_002,topicA,topicA-519,172.172.1.2:1883,1551656311202,PRODUCED
Publisher_002,topicA,topicA-520,172.172.1.2:1883,1551656311297,PRODUCED
Publisher_002,topicA,topicA-521,172.172.1.2:1883,1551656311399,PRODUCED
Publisher_002,topicA,topicA-522,172.172.1.2:1883,1551656311500,PRODUCED
Publisher_002,topicA,topicA-523,172.172.1.2:1883,1551656311602,PRODUCED
Publisher_002,topicA,topicA-524,172.172.1.2:1883,1551656311698,PRODUCED
Publisher_002,topicA,topicA-525,172.172.1.2:1883,1551656311802,PRODUCED
Publisher_002,topicA,topicA-526,172.172.1.2:1883,1551656311897,PRODUCED
Publisher_002,topicA,topicA-527,172.172.1.2:1883,1551656311997,PRODUCED
Publisher_002,topicA,topicA-528,172.172.1.2:1883,1551656312097,PRODUCED
Publisher_002,topicA,topicA-529,172.172.1.2:1883,1551656312202,PRODUCED
Publisher_002,topicA,topicA-530,172.172.1.2:1883,1551656312302,PRODUCED
Publisher_002,topicA,topicA-531,172.172.1.2:1883,1551656312398,PRODUCED
Publisher_002,topicA,topicA-532,172.172.1.2:1883,1551656312500,PRODUCED
Publisher_002,topicA,topicA-533,172.172.1.2:1883,1551656312601,PRODUCED
Publisher_002,topicA,topicA-534,172.172.1.2:1883,1551656312697,PRODUCED
Publisher_002,topicA,topicA-535,172.172.1.2:1883,1551656312797,PRODUCED
Publisher_002,topicA,topicA-536,172.172.1.2:1883,1551656312897,PRODUCED
Publisher_002,topicA,topicA-537,172.172.1.2:1883,1551656312997,PRODUCED
Publisher_002,topicA,topicA-538,172.172.1.2:1883,1551656313098,PRODUCED
Publisher_002,topicA,topicA-539,172.172.1.2:1883,1551656313204,PRODUCED
Publisher_002,topicA,topicA-540,172.172.1.2:1883,1551656313298,PRODUCED
Publisher_002,topicA,topicA-541,172.172.1.2:1883,1551656313399,PRODUCED
Publisher_002,topicA,topicA-542,172.172.1.2:1883,1551656313503,PRODUCED
Publisher_002,topicA,topicA-543,172.172.1.2:1883,1551656313598,PRODUCED
Publisher_002,topicA,topicA-544,172.172.1.2:1883,1551656313698,PRODUCED
Publisher_002,topicA,topicA-545,172.172.1.2:1883,1551656313798,PRODUCED
Publisher_002,topicA,topicA-546,172.172.1.2:1883,1551656313905,PRODUCED
Publisher_002,topicA,topicA-547,172.172.1.2:1883,1551656313997,PRODUCED
Publisher_002,topicA,topicA-548,172.172.1.2:1883,1551656314105,PRODUCED
Publisher_002,topicA,topicA-549,172.172.1.2:1883,1551656314197,PRODUCED
Publisher_002,topicA,topicA-550,172.172.1.2:1883,1551656314298,PRODUCED
Publisher_002,topicA,topicA-551,172.172.1.2:1883,1551656314398,PRODUCED
Publisher_002,topicA,topicA-552,172.172.1.2:1883,1551656314498,PRODUCED
Publisher_002,topicA,topicA-553,172.172.1.2:1883,1551656314600,PRODUCED
Publisher_002,topicA,topicA-554,172.172.1.2:1883,1551656314697,PRODUCED
Publisher_002,topicA,topicA-555,172.172.1.2:1883,1551656314797,PRODUCED
Publisher_002,topicA,topicA-556,172.172.1.2:1883,1551656314901,PRODUCED
Publisher_002,topicA,topicA-557,172.172.1.2:1883,1551656314998,PRODUCED
Publisher_002,topicA,topicA-558,172.172.1.2:1883,1551656315097,PRODUCED
Publisher_002,topicA,topicA-559,172.172.1.2:1883,1551656315198,PRODUCED
Publisher_002,topicA,topicA-560,172.172.1.2:1883,1551656315301,PRODUCED
Publisher_002,topicA,topicA-561,172.172.1.2:1883,1551656315398,PRODUCED
Publisher_002,topicA,topicA-562,172.172.1.2:1883,1551656315501,PRODUCED
Publisher_002,topicA,topicA-563,172.172.1.2:1883,1551656315597,PRODUCED
Publisher_002,topicA,topicA-564,172.172.1.2:1883,1551656315699,PRODUCED
Publisher_002,topicA,topicA-565,172.172.1.2:1883,1551656315798,PRODUCED
Publisher_002,topicA,topicA-566,172.172.1.2:1883,1551656315897,PRODUCED
Publisher_002,topicA,topicA-567,172.172.1.2:1883,1551656316000,PRODUCED
Publisher_002,topicA,topicA-568,172.172.1.2:1883,1551656316098,PRODUCED
Publisher_002,topicA,topicA-569,172.172.1.2:1883,1551656316197,PRODUCED
Publisher_002,topicA,topicA-570,172.172.1.2:1883,1551656316300,PRODUCED
Publisher_002,topicA,topicA-571,172.172.1.2:1883,1551656316403,PRODUCED
Publisher_002,topicA,topicA-572,172.172.1.2:1883,1551656316499,PRODUCED
Publisher_002,topicA,topicA-573,172.172.1.2:1883,1551656316598,PRODUCED
Publisher_002,topicA,topicA-574,172.172.1.2:1883,1551656316698,PRODUCED
Publisher_002,topicA,topicA-575,172.172.1.2:1883,1551656316797,PRODUCED
Publisher_002,topicA,topicA-576,172.172.1.2:1883,1551656316901,PRODUCED
Publisher_002,topicA,topicA-577,172.172.1.2:1883,1551656317002,PRODUCED
Publisher_002,topicA,topicA-578,172.172.1.2:1883,1551656317098,PRODUCED
Publisher_002,topicA,topicA-579,172.172.1.2:1883,1551656317200,PRODUCED
Publisher_002,topicA,topicA-580,172.172.1.2:1883,1551656317303,PRODUCED
Publisher_002,topicA,topicA-581,172.172.1.2:1883,1551656317398,PRODUCED
Publisher_002,topicA,topicA-582,172.172.1.2:1883,1551656317502,PRODUCED
Publisher_002,topicA,topicA-583,172.172.1.2:1883,1551656317598,PRODUCED
Publisher_002,topicA,topicA-584,172.172.1.2:1883,1551656317701,PRODUCED
Publisher_002,topicA,topicA-585,172.172.1.2:1883,1551656317798,PRODUCED
Publisher_002,topicA,topicA-586,172.172.1.2:1883,1551656317898,PRODUCED
Publisher_002,topicA,topicA-587,172.172.1.2:1883,1551656317997,PRODUCED
Publisher_002,topicA,topicA-588,172.172.1.2:1883,1551656318097,PRODUCED
Publisher_002,topicA,topicA-589,172.172.1.2:1883,1551656318197,PRODUCED
Publisher_002,topicA,topicA-590,172.172.1.2:1883,1551656318299,PRODUCED
Publisher_002,topicA,topicA-591,172.172.1.2:1883,1551656318398,PRODUCED
Publisher_002,topicA,topicA-592,172.172.1.2:1883,1551656318497,PRODUCED
Publisher_002,topicA,topicA-593,172.172.1.2:1883,1551656318597,PRODUCED
Publisher_002,topicA,topicA-594,172.172.1.2:1883,1551656318699,PRODUCED
Publisher_002,topicA,topicA-595,172.172.1.2:1883,1551656318797,PRODUCED
Publisher_002,topicA,topicA-596,172.172.1.2:1883,1551656318897,PRODUCED
Publisher_002,topicA,topicA-597,172.172.1.2:1883,1551656318997,PRODUCED
Publisher_002,topicA,topicA-598,172.172.1.2:1883,1551656319097,PRODUCED
Publisher_002,topicA,topicA-599,172.172.1.2:1883,1551656319197,PRODUCED
Publisher_002,topicA,topicA-600,172.172.1.2:1883,1551656319302,PRODUCED
Publisher_002,topicA,topicA-601,172.172.1.2:1883,1551656319397,PRODUCED
Publisher_002,topicA,topicA-602,172.172.1.2:1883,1551656319501,PRODUCED
Publisher_002,topicA,topicA-603,172.172.1.2:1883,1551656319597,PRODUCED
Publisher_002,topicA,topicA-604,172.172.1.2:1883,1551656319698,PRODUCED
Publisher_002,topicA,topicA-605,172.172.1.2:1883,1551656319800,PRODUCED
Publisher_002,topicA,topicA-606,172.172.1.2:1883,1551656319901,PRODUCED
Publisher_002,topicA,topicA-607,172.172.1.2:1883,1551656319999,PRODUCED
Publisher_002,topicA,topicA-608,172.172.1.2:1883,1551656320097,PRODUCED
Publisher_002,topicA,topicA-609,172.172.1.2:1883,1551656320197,PRODUCED
Publisher_002,topicA,topicA-610,172.172.1.2:1883,1551656320298,PRODUCED
Publisher_002,topicA,topicA-611,172.172.1.2:1883,1551656320398,PRODUCED
Publisher_002,topicA,topicA-612,172.172.1.2:1883,1551656320497,PRODUCED
Publisher_002,topicA,topicA-613,172.172.1.2:1883,1551656320600,PRODUCED
Publisher_002,topicA,topicA-614,172.172.1.2:1883,1551656320698,PRODUCED
Publisher_002,topicA,topicA-615,172.172.1.2:1883,1551656320797,PRODUCED
Publisher_002,topicA,topicA-616,172.172.1.2:1883,1551656320897,PRODUCED
Publisher_002,topicA,topicA-617,172.172.1.2:1883,1551656320999,PRODUCED
Publisher_002,topicA,topicA-618,172.172.1.2:1883,1551656321098,PRODUCED
Publisher_002,topicA,topicA-619,172.172.1.2:1883,1551656321198,PRODUCED
Publisher_002,topicA,topicA-620,172.172.1.2:1883,1551656321300,PRODUCED
Publisher_002,topicA,topicA-621,172.172.1.2:1883,1551656321397,PRODUCED
Publisher_002,topicA,topicA-622,172.172.1.2:1883,1551656321501,PRODUCED
Publisher_002,topicA,topicA-623,172.172.1.2:1883,1551656321599,PRODUCED
Publisher_002,topicA,topicA-624,172.172.1.2:1883,1551656321698,PRODUCED
Publisher_002,topicA,topicA-625,172.172.1.2:1883,1551656321802,PRODUCED
Publisher_002,topicA,topicA-626,172.172.1.2:1883,1551656321898,PRODUCED
Publisher_002,topicA,topicA-627,172.172.1.2:1883,1551656321998,PRODUCED
Publisher_002,topicA,topicA-628,172.172.1.2:1883,1551656322097,PRODUCED
Publisher_002,topicA,topicA-629,172.172.1.2:1883,1551656322201,PRODUCED
Publisher_002,topicA,topicA-630,172.172.1.2:1883,1551656322298,PRODUCED
Publisher_002,topicA,topicA-631,172.172.1.2:1883,1551656322397,PRODUCED
Publisher_002,topicA,topicA-632,172.172.1.2:1883,1551656322497,PRODUCED
Publisher_002,topicA,topicA-633,172.172.1.2:1883,1551656322601,PRODUCED
Publisher_002,topicA,topicA-634,172.172.1.2:1883,1551656322701,PRODUCED
Publisher_002,topicA,topicA-635,172.172.1.2:1883,1551656322799,PRODUCED
Publisher_002,topicA,topicA-636,172.172.1.2:1883,1551656322898,PRODUCED
Publisher_002,topicA,topicA-637,172.172.1.2:1883,1551656322998,PRODUCED
Publisher_002,topicA,topicA-638,172.172.1.2:1883,1551656323097,PRODUCED
Publisher_002,topicA,topicA-639,172.172.1.2:1883,1551656323204,PRODUCED
Publisher_002,topicA,topicA-640,172.172.1.2:1883,1551656323302,PRODUCED
Publisher_002,topicA,topicA-641,172.172.1.2:1883,1551656323398,PRODUCED
Publisher_002,topicA,topicA-642,172.172.1.2:1883,1551656323497,PRODUCED
