timestamp,event,migrationId
1551656988924,INITIALIZED,c0314a4c-d031-478a-8242-f4c2448135ae
1551656988927,topicA-INITIALIZED,c0314a4c-d031-478a-8242-f4c2448135ae
1551656989134,topicA-SYNCING,c0314a4c-d031-478a-8242-f4c2448135ae
1551656989140,SYNCING,c0314a4c-d031-478a-8242-f4c2448135ae
1551656989140,topicA-SYNCING_THIS,c0314a4c-d031-478a-8242-f4c2448135ae
1551656990667,topicA-SYNCED,c0314a4c-d031-478a-8242-f4c2448135ae
1551656990668,SYNCED,c0314a4c-d031-478a-8242-f4c2448135ae
1551656990674,topicA-FINISHED,c0314a4c-d031-478a-8242-f4c2448135ae
1551656990675,FINISHED,c0314a4c-d031-478a-8242-f4c2448135ae
