clientId,topic,guid,broker,timestamp,type
Subscriber_001,topicA,topicA-34,172.172.1.1:1883,1551650068512,RECEIVED
Subscriber_001,topicA,topicA-35,172.172.1.1:1883,1551650068514,RECEIVED
Subscriber_001,topicA,topicA-36,172.172.1.1:1883,1551650068515,RECEIVED
Subscriber_001,topicA,topicA-37,172.172.1.1:1883,1551650068554,RECEIVED
Subscriber_001,topicA,topicA-38,172.172.1.1:1883,1551650068648,RECEIVED
Subscriber_001,topicA,topicA-39,172.172.1.1:1883,1551650068762,RECEIVED
Subscriber_001,topicA,topicA-40,172.172.1.1:1883,1551650068873,RECEIVED
Subscriber_001,topicA,topicA-41,172.172.1.1:1883,1551650068949,RECEIVED
Subscriber_001,topicA,topicA-42,172.172.1.1:1883,1551650069054,RECEIVED
Subscriber_001,topicA,topicA-43,172.172.1.1:1883,1551650069154,RECEIVED
Subscriber_001,topicA,topicA-44,172.172.1.1:1883,1551650069250,RECEIVED
Subscriber_001,topicA,topicA-45,172.172.1.1:1883,1551650069352,RECEIVED
Subscriber_001,topicA,topicA-46,172.172.1.1:1883,1551650069448,RECEIVED
Subscriber_001,topicA,topicA-47,172.172.1.1:1883,1551650069548,RECEIVED
Subscriber_001,topicA,topicA-48,172.172.1.1:1883,1551650069658,RECEIVED
Subscriber_001,topicA,topicA-49,172.172.1.1:1883,1551650069757,RECEIVED
Subscriber_001,topicA,topicA-50,172.172.1.1:1883,1551650069849,RECEIVED
Subscriber_001,topicA,topicA-51,172.172.1.1:1883,1551650069951,RECEIVED
Subscriber_001,topicA,topicA-52,172.172.1.1:1883,1551650070061,RECEIVED
Subscriber_001,topicA,topicA-53,172.172.1.1:1883,1551650070159,RECEIVED
Subscriber_001,topicA,topicA-54,172.172.1.1:1883,1551650070248,RECEIVED
Subscriber_001,topicA,topicA-55,172.172.1.1:1883,1551650070354,RECEIVED
Subscriber_001,topicA,topicA-56,172.172.1.1:1883,1551650070455,RECEIVED
Subscriber_001,topicA,topicA-57,172.172.1.1:1883,1551650070558,RECEIVED
Subscriber_001,topicA,topicA-58,172.172.1.1:1883,1551650070652,RECEIVED
Subscriber_001,topicA,topicA-59,172.172.1.1:1883,1551650070765,RECEIVED
Subscriber_001,topicA,topicA-60,172.172.1.1:1883,1551650070870,RECEIVED
Subscriber_001,topicA,topicA-61,172.172.1.1:1883,1551650070951,RECEIVED
Subscriber_001,topicA,topicA-62,172.172.1.1:1883,1551650071061,RECEIVED
Subscriber_001,topicA,topicA-63,172.172.1.1:1883,1551650071155,RECEIVED
Subscriber_001,topicA,topicA-64,172.172.1.1:1883,1551650071247,RECEIVED
Subscriber_001,topicA,topicA-65,172.172.1.1:1883,1551650071352,RECEIVED
Subscriber_001,topicA,topicA-66,172.172.1.1:1883,1551650071466,RECEIVED
Subscriber_001,topicA,topicA-67,172.172.1.1:1883,1551650071556,RECEIVED
Subscriber_001,topicA,topicA-68,172.172.1.1:1883,1551650071655,RECEIVED
Subscriber_001,topicA,topicA-69,172.172.1.1:1883,1551650071747,RECEIVED
Subscriber_001,topicA,topicA-70,172.172.1.1:1883,1551650071844,RECEIVED
Subscriber_001,topicA,topicA-71,172.172.1.1:1883,1551650071959,RECEIVED
Subscriber_001,topicA,topicA-72,172.172.1.1:1883,1551650072053,RECEIVED
Subscriber_001,topicA,topicA-73,172.172.1.1:1883,1551650072156,RECEIVED
Subscriber_001,topicA,topicA-74,172.172.1.1:1883,1551650072254,RECEIVED
Subscriber_001,topicA,topicA-75,172.172.1.1:1883,1551650072352,RECEIVED
Subscriber_001,topicA,topicA-76,172.172.1.1:1883,1551650072445,RECEIVED
Subscriber_001,topicA,topicA-77,172.172.1.1:1883,1551650072567,RECEIVED
Subscriber_001,topicA,topicA-78,172.172.1.1:1883,1551650072654,RECEIVED
Subscriber_001,topicA,topicA-79,172.172.1.1:1883,1551650072756,RECEIVED
Subscriber_001,topicA,topicA-80,172.172.1.1:1883,1551650072869,RECEIVED
Subscriber_001,topicA,topicA-81,172.172.1.1:1883,1551650072970,RECEIVED
Subscriber_001,topicA,topicA-82,172.172.1.1:1883,1551650073054,RECEIVED
Subscriber_001,topicA,topicA-83,172.172.1.1:1883,1551650073166,RECEIVED
Subscriber_001,topicA,topicA-84,172.172.1.1:1883,1551650073254,RECEIVED
Subscriber_001,topicA,topicA-85,172.172.1.1:1883,1551650073353,RECEIVED
Subscriber_001,topicA,topicA-86,172.172.1.1:1883,1551650073451,RECEIVED
Subscriber_001,topicA,topicA-87,172.172.1.1:1883,1551650073567,RECEIVED
Subscriber_001,topicA,topicA-88,172.172.1.1:1883,1551650073648,RECEIVED
Subscriber_001,topicA,topicA-89,172.172.1.1:1883,1551650073753,RECEIVED
Subscriber_001,topicA,topicA-90,172.172.1.1:1883,1551650073858,RECEIVED
Subscriber_001,topicA,topicA-91,172.172.1.1:1883,1551650073948,RECEIVED
Subscriber_001,topicA,topicA-92,172.172.1.1:1883,1551650074054,RECEIVED
Subscriber_001,topicA,topicA-93,172.172.1.1:1883,1551650074146,RECEIVED
Subscriber_001,topicA,topicA-94,172.172.1.1:1883,1551650074249,RECEIVED
Subscriber_001,topicA,topicA-95,172.172.1.1:1883,1551650074365,RECEIVED
Subscriber_001,topicA,topicA-96,172.172.1.1:1883,1551650074447,RECEIVED
Subscriber_001,topicA,topicA-97,172.172.1.1:1883,1551650074561,RECEIVED
Subscriber_001,topicA,topicA-98,172.172.1.1:1883,1551650074655,RECEIVED
Subscriber_001,topicA,topicA-99,172.172.1.1:1883,1551650074746,RECEIVED
Subscriber_001,topicA,topicA-100,172.172.1.1:1883,1551650074850,RECEIVED
Subscriber_001,topicA,topicA-101,172.172.1.1:1883,1551650074946,RECEIVED
Subscriber_001,topicA,topicA-102,172.172.1.1:1883,1551650075059,RECEIVED
Subscriber_001,topicA,topicA-103,172.172.1.1:1883,1551650075164,RECEIVED
Subscriber_001,topicA,topicA-104,172.172.1.1:1883,1551650075247,RECEIVED
Subscriber_001,topicA,topicA-105,172.172.1.1:1883,1551650075354,RECEIVED
Subscriber_001,topicA,topicA-106,172.172.1.1:1883,1551650075455,RECEIVED
Subscriber_001,topicA,topicA-107,172.172.1.1:1883,1551650075562,RECEIVED
Subscriber_001,topicA,topicA-108,172.172.1.1:1883,1551650075656,RECEIVED
Subscriber_001,topicA,topicA-109,172.172.1.1:1883,1551650075753,RECEIVED
Subscriber_001,topicA,topicA-110,172.172.1.1:1883,1551650075853,RECEIVED
Subscriber_001,topicA,topicA-111,172.172.1.1:1883,1551650075950,RECEIVED
Subscriber_001,topicA,topicA-112,172.172.1.1:1883,1551650076061,RECEIVED
Subscriber_001,topicA,topicA-113,172.172.1.1:1883,1551650076155,RECEIVED
Subscriber_001,topicA,topicA-114,172.172.1.1:1883,1551650076251,RECEIVED
Subscriber_001,topicA,topicA-115,172.172.1.1:1883,1551650076344,RECEIVED
Subscriber_001,topicA,topicA-116,172.172.1.1:1883,1551650076451,RECEIVED
Subscriber_001,topicA,topicA-117,172.172.1.1:1883,1551650076554,RECEIVED
Subscriber_001,topicA,topicA-118,172.172.1.1:1883,1551650076657,RECEIVED
Subscriber_001,topicA,topicA-119,172.172.1.1:1883,1551650076749,RECEIVED
Subscriber_001,topicA,topicA-120,172.172.1.1:1883,1551650076854,RECEIVED
Subscriber_001,topicA,topicA-121,172.172.1.1:1883,1551650076957,RECEIVED
Subscriber_001,topicA,topicA-122,172.172.1.1:1883,1551650077050,RECEIVED
Subscriber_001,topicA,topicA-123,172.172.1.1:1883,1551650077143,RECEIVED
Subscriber_001,topicA,topicA-124,172.172.1.1:1883,1551650077248,RECEIVED
Subscriber_001,topicA,topicA-125,172.172.1.1:1883,1551650077364,RECEIVED
Subscriber_001,topicA,topicA-126,172.172.1.1:1883,1551650077443,RECEIVED
Subscriber_001,topicA,topicA-127,172.172.1.1:1883,1551650077557,RECEIVED
Subscriber_001,topicA,topicA-128,172.172.1.1:1883,1551650077659,RECEIVED
Subscriber_001,topicA,topicA-129,172.172.1.1:1883,1551650077750,RECEIVED
Subscriber_001,topicA,topicA-130,172.172.1.1:1883,1551650077858,RECEIVED
Subscriber_001,topicA,topicA-131,172.172.1.1:1883,1551650077948,RECEIVED
Subscriber_001,topicA,topicA-132,172.172.1.1:1883,1551650078047,RECEIVED
Subscriber_001,topicA,topicA-133,172.172.1.1:1883,1551650078148,RECEIVED
Subscriber_001,topicA,topicA-134,172.172.1.1:1883,1551650078250,RECEIVED
Subscriber_001,topicA,topicA-135,172.172.1.1:1883,1551650078352,RECEIVED
Subscriber_001,topicA,topicA-136,172.172.1.1:1883,1551650078453,RECEIVED
Subscriber_001,topicA,topicA-137,172.172.1.1:1883,1551650078559,RECEIVED
Subscriber_001,topicA,topicA-138,172.172.1.1:1883,1551650078649,RECEIVED
Subscriber_001,topicA,topicA-139,172.172.1.1:1883,1551650078751,RECEIVED
Subscriber_001,topicA,topicA-140,172.172.1.1:1883,1551650078854,RECEIVED
Subscriber_001,topicA,topicA-141,172.172.1.1:1883,1551650078956,RECEIVED
Subscriber_001,topicA,topicA-142,172.172.1.1:1883,1551650079068,RECEIVED
Subscriber_001,topicA,topicA-143,172.172.1.1:1883,1551650079160,RECEIVED
Subscriber_001,topicA,topicA-144,172.172.1.1:1883,1551650079250,RECEIVED
Subscriber_001,topicA,topicA-145,172.172.1.1:1883,1551650079366,RECEIVED
Subscriber_001,topicA,topicA-146,172.172.1.1:1883,1551650079448,RECEIVED
Subscriber_001,topicA,topicA-147,172.172.1.1:1883,1551650079550,RECEIVED
Subscriber_001,topicA,topicA-148,172.172.1.1:1883,1551650079656,RECEIVED
Subscriber_001,topicA,topicA-149,172.172.1.1:1883,1551650079761,RECEIVED
Subscriber_001,topicA,topicA-150,172.172.1.1:1883,1551650079866,RECEIVED
Subscriber_001,topicA,topicA-151,172.172.1.1:1883,1551650079950,RECEIVED
Subscriber_001,topicA,topicA-152,172.172.1.1:1883,1551650080054,RECEIVED
Subscriber_001,topicA,topicA-153,172.172.1.1:1883,1551650080145,RECEIVED
Subscriber_001,topicA,topicA-154,172.172.1.1:1883,1551650080246,RECEIVED
Subscriber_001,topicA,topicA-155,172.172.1.1:1883,1551650080348,RECEIVED
Subscriber_001,topicA,topicA-156,172.172.1.1:1883,1551650080454,RECEIVED
Subscriber_001,topicA,topicA-157,172.172.1.1:1883,1551650080559,RECEIVED
Subscriber_001,topicA,topicA-158,172.172.1.1:1883,1551650080659,RECEIVED
Subscriber_001,topicA,topicA-159,172.172.1.1:1883,1551650080761,RECEIVED
Subscriber_001,topicA,topicA-160,172.172.1.1:1883,1551650080859,RECEIVED
Subscriber_001,topicA,topicA-161,172.172.1.1:1883,1551650080948,RECEIVED
Subscriber_001,topicA,topicA-162,172.172.1.1:1883,1551650081057,RECEIVED
Subscriber_001,topicA,topicA-163,172.172.1.1:1883,1551650081150,RECEIVED
Subscriber_001,topicA,topicA-164,172.172.1.1:1883,1551650081252,RECEIVED
Subscriber_001,topicA,topicA-165,172.172.1.1:1883,1551650081355,RECEIVED
Subscriber_001,topicA,topicA-166,172.172.1.1:1883,1551650081446,RECEIVED
Subscriber_001,topicA,topicA-167,172.172.1.1:1883,1551650081546,RECEIVED
Subscriber_001,topicA,topicA-168,172.172.1.1:1883,1551650081651,RECEIVED
Subscriber_001,topicA,topicA-169,172.172.1.1:1883,1551650081751,RECEIVED
Subscriber_001,topicA,topicA-170,172.172.1.1:1883,1551650081857,RECEIVED
Subscriber_001,topicA,topicA-171,172.172.1.1:1883,1551650081951,RECEIVED
Subscriber_001,topicA,topicA-172,172.172.1.1:1883,1551650082053,RECEIVED
Subscriber_001,topicA,topicA-173,172.172.1.1:1883,1551650082166,RECEIVED
Subscriber_001,topicA,topicA-174,172.172.1.1:1883,1551650082249,RECEIVED
Subscriber_001,topicA,topicA-175,172.172.1.1:1883,1551650082348,RECEIVED
Subscriber_001,topicA,topicA-176,172.172.1.1:1883,1551650082445,RECEIVED
Subscriber_001,topicA,topicA-177,172.172.1.1:1883,1551650082555,RECEIVED
Subscriber_001,topicA,topicA-178,172.172.1.1:1883,1551650082660,RECEIVED
Subscriber_001,topicA,topicA-179,172.172.1.1:1883,1551650082752,RECEIVED
Subscriber_001,topicA,topicA-180,172.172.1.1:1883,1551650082855,RECEIVED
Subscriber_001,topicA,topicA-181,172.172.1.1:1883,1551650082968,RECEIVED
Subscriber_001,topicA,topicA-182,172.172.1.1:1883,1551650083048,RECEIVED
Subscriber_001,topicA,topicA-183,172.172.1.1:1883,1551650083151,RECEIVED
Subscriber_001,topicA,topicA-184,172.172.1.1:1883,1551650083246,RECEIVED
Subscriber_001,topicA,topicA-185,172.172.1.1:1883,1551650083349,RECEIVED
Subscriber_001,topicA,topicA-186,172.172.1.1:1883,1551650083453,RECEIVED
Subscriber_001,topicA,topicA-187,172.172.1.1:1883,1551650083552,RECEIVED
Subscriber_001,topicA,topicA-188,172.172.1.1:1883,1551650083649,RECEIVED
Subscriber_001,topicA,topicA-189,172.172.1.1:1883,1551650083746,RECEIVED
Subscriber_001,topicA,topicA-190,172.172.1.1:1883,1551650083848,RECEIVED
Subscriber_001,topicA,topicA-191,172.172.1.1:1883,1551650083953,RECEIVED
Subscriber_001,topicA,topicA-192,172.172.1.1:1883,1551650084055,RECEIVED
Subscriber_001,topicA,topicA-193,172.172.1.1:1883,1551650084159,RECEIVED
Subscriber_001,topicA,topicA-194,172.172.1.1:1883,1551650084248,RECEIVED
Subscriber_001,topicA,topicA-195,172.172.1.1:1883,1551650084350,RECEIVED
Subscriber_001,topicA,topicA-196,172.172.1.1:1883,1551650084444,RECEIVED
Subscriber_001,topicA,topicA-197,172.172.1.1:1883,1551650084544,RECEIVED
Subscriber_001,topicA,topicA-198,172.172.1.1:1883,1551650084654,RECEIVED
Subscriber_001,topicA,topicA-199,172.172.1.1:1883,1551650084749,RECEIVED
Subscriber_001,topicA,topicA-200,172.172.1.1:1883,1551650084848,RECEIVED
Subscriber_001,topicA,topicA-201,172.172.1.1:1883,1551650084953,RECEIVED
Subscriber_001,topicA,topicA-202,172.172.1.1:1883,1551650085052,RECEIVED
Subscriber_001,topicA,topicA-203,172.172.1.1:1883,1551650085152,RECEIVED
Subscriber_001,topicA,topicA-204,172.172.1.1:1883,1551650085251,RECEIVED
Subscriber_001,topicA,topicA-205,172.172.1.1:1883,1551650085351,RECEIVED
Subscriber_001,topicA,topicA-206,172.172.1.1:1883,1551650085446,RECEIVED
Subscriber_001,topicA,topicA-207,172.172.1.1:1883,1551650085560,RECEIVED
Subscriber_001,topicA,topicA-208,172.172.1.1:1883,1551650085651,RECEIVED
Subscriber_001,topicA,topicA-209,172.172.1.1:1883,1551650085749,RECEIVED
Subscriber_001,topicA,topicA-210,172.172.1.1:1883,1551650085851,RECEIVED
Subscriber_001,topicA,topicA-211,172.172.1.1:1883,1551650085949,RECEIVED
Subscriber_001,topicA,topicA-212,172.172.1.1:1883,1551650086046,RECEIVED
Subscriber_001,topicA,topicA-213,172.172.1.1:1883,1551650086146,RECEIVED
Subscriber_001,topicA,topicA-214,172.172.1.1:1883,1551650086251,RECEIVED
Subscriber_001,topicA,topicA-215,172.172.1.1:1883,1551650086354,RECEIVED
Subscriber_001,topicA,topicA-216,172.172.1.1:1883,1551650086445,RECEIVED
Subscriber_001,topicA,topicA-217,172.172.1.1:1883,1551650086552,RECEIVED
Subscriber_001,topicA,topicA-218,172.172.1.1:1883,1551650086644,RECEIVED
Subscriber_001,topicA,topicA-219,172.172.1.1:1883,1551650086754,RECEIVED
Subscriber_001,topicA,topicA-220,172.172.1.1:1883,1551650086846,RECEIVED
Subscriber_001,topicA,topicA-221,172.172.1.1:1883,1551650086950,RECEIVED
Subscriber_001,topicA,topicA-222,172.172.1.1:1883,1551650087054,RECEIVED
Subscriber_001,topicA,topicA-223,172.172.1.1:1883,1551650087154,RECEIVED
Subscriber_001,topicA,topicA-224,172.172.1.1:1883,1551650087259,RECEIVED
Subscriber_001,topicA,topicA-225,172.172.1.1:1883,1551650087351,RECEIVED
Subscriber_001,topicA,topicA-226,172.172.1.1:1883,1551650087445,RECEIVED
Subscriber_001,topicA,topicA-227,172.172.1.1:1883,1551650087550,RECEIVED
Subscriber_001,topicA,topicA-228,172.172.1.1:1883,1551650087648,RECEIVED
Subscriber_001,topicA,topicA-229,172.172.1.1:1883,1551650087760,RECEIVED
Subscriber_001,topicA,topicA-230,172.172.1.1:1883,1551650087850,RECEIVED
Subscriber_001,topicA,topicA-231,172.172.1.1:1883,1551650087944,RECEIVED
Subscriber_001,topicA,topicA-232,172.172.1.1:1883,1551650088047,RECEIVED
Subscriber_001,topicA,topicA-233,172.172.1.1:1883,1551650088143,RECEIVED
Subscriber_001,topicA,topicA-234,172.172.1.1:1883,1551650088244,RECEIVED
Subscriber_001,topicA,topicA-235,172.172.1.1:1883,1551650088350,RECEIVED
Subscriber_001,topicA,topicA-256,172.172.1.2:1883,1551650088391,RECEIVED
Subscriber_001,topicA,topicA-236,172.172.1.1:1883,1551650088448,RECEIVED
Subscriber_001,topicA,topicA-257,172.172.1.2:1883,1551650088479,RECEIVED
Subscriber_001,topicA,topicA-237,172.172.1.1:1883,1551650088546,RECEIVED
Subscriber_001,topicA,topicA-258,172.172.1.2:1883,1551650088589,RECEIVED
Subscriber_001,topicA,topicA-238,172.172.1.1:1883,1551650088652,RECEIVED
Subscriber_001,topicA,topicA-259,172.172.1.2:1883,1551650088679,RECEIVED
Subscriber_001,topicA,topicA-239,172.172.1.1:1883,1551650088749,RECEIVED
Subscriber_001,topicA,topicA-260,172.172.1.2:1883,1551650088782,RECEIVED
Subscriber_001,topicA,topicA-240,172.172.1.1:1883,1551650088844,RECEIVED
Subscriber_001,topicA,topicA-261,172.172.1.2:1883,1551650088878,RECEIVED
Subscriber_001,topicA,topicA-241,172.172.1.1:1883,1551650088953,RECEIVED
Subscriber_001,topicA,topicA-262,172.172.1.2:1883,1551650088980,RECEIVED
Subscriber_001,topicA,topicA-242,172.172.1.1:1883,1551650089050,RECEIVED
Subscriber_001,topicA,topicA-263,172.172.1.2:1883,1551650089075,RECEIVED
Subscriber_001,topicA,topicA-243,172.172.1.1:1883,1551650089146,RECEIVED
Subscriber_001,topicA,topicA-264,172.172.1.2:1883,1551650089178,RECEIVED
Subscriber_001,topicA,topicA-244,172.172.1.1:1883,1551650089245,RECEIVED
Subscriber_001,topicA,topicA-265,172.172.1.2:1883,1551650089286,RECEIVED
Subscriber_001,topicA,topicA-245,172.172.1.1:1883,1551650089354,RECEIVED
Subscriber_001,topicA,topicA-266,172.172.1.2:1883,1551650089376,RECEIVED
Subscriber_001,topicA,topicA-246,172.172.1.1:1883,1551650089451,RECEIVED
Subscriber_001,topicA,topicA-267,172.172.1.2:1883,1551650089485,RECEIVED
Subscriber_001,topicA,topicA-247,172.172.1.1:1883,1551650089555,RECEIVED
Subscriber_001,topicA,topicA-268,172.172.1.2:1883,1551650089588,RECEIVED
Subscriber_001,topicA,topicA-248,172.172.1.1:1883,1551650089645,RECEIVED
Subscriber_001,topicA,topicA-269,172.172.1.2:1883,1551650089681,RECEIVED
Subscriber_001,topicA,topicA-249,172.172.1.1:1883,1551650089765,RECEIVED
Subscriber_001,topicA,topicA-270,172.172.1.2:1883,1551650089791,RECEIVED
Subscriber_001,topicA,topicA-250,172.172.1.1:1883,1551650089848,RECEIVED
Subscriber_001,topicA,topicA-271,172.172.1.2:1883,1551650089895,RECEIVED
Subscriber_001,topicA,topicA-251,172.172.1.1:1883,1551650089950,RECEIVED
Subscriber_001,topicA,topicA-272,172.172.1.2:1883,1551650089981,RECEIVED
Subscriber_001,topicA,topicA-252,172.172.1.1:1883,1551650090058,RECEIVED
Subscriber_001,topicA,topicA-273,172.172.1.2:1883,1551650090085,RECEIVED
Subscriber_001,topicA,topicA-253,172.172.1.1:1883,1551650090153,RECEIVED
Subscriber_001,topicA,topicA-274,172.172.1.2:1883,1551650090177,RECEIVED
Subscriber_001,topicA,topicA-254,172.172.1.1:1883,1551650090254,RECEIVED
Subscriber_001,topicA,topicA-275,172.172.1.2:1883,1551650090274,RECEIVED
Subscriber_001,topicA,topicA-255,172.172.1.1:1883,1551650090358,RECEIVED
Subscriber_001,topicA,topicA-276,172.172.1.2:1883,1551650090396,RECEIVED
Subscriber_001,topicA,topicA-277,172.172.1.2:1883,1551650090472,RECEIVED
Subscriber_001,topicA,topicA-278,172.172.1.2:1883,1551650090584,RECEIVED
Subscriber_001,topicA,topicA-279,172.172.1.2:1883,1551650090679,RECEIVED
Subscriber_001,topicA,topicA-280,172.172.1.2:1883,1551650090773,RECEIVED
Subscriber_001,topicA,topicA-281,172.172.1.2:1883,1551650090875,RECEIVED
Subscriber_001,topicA,topicA-282,172.172.1.2:1883,1551650090975,RECEIVED
Subscriber_001,topicA,topicA-283,172.172.1.2:1883,1551650091082,RECEIVED
Subscriber_001,topicA,topicA-284,172.172.1.2:1883,1551650091177,RECEIVED
Subscriber_001,topicA,topicA-285,172.172.1.2:1883,1551650091287,RECEIVED
Subscriber_001,topicA,topicA-286,172.172.1.2:1883,1551650091382,RECEIVED
Subscriber_001,topicA,topicA-287,172.172.1.2:1883,1551650091479,RECEIVED
Subscriber_001,topicA,topicA-288,172.172.1.2:1883,1551650091588,RECEIVED
Subscriber_001,topicA,topicA-289,172.172.1.2:1883,1551650091684,RECEIVED
Subscriber_001,topicA,topicA-290,172.172.1.2:1883,1551650091781,RECEIVED
Subscriber_001,topicA,topicA-291,172.172.1.2:1883,1551650091879,RECEIVED
Subscriber_001,topicA,topicA-292,172.172.1.2:1883,1551650091975,RECEIVED
Subscriber_001,topicA,topicA-293,172.172.1.2:1883,1551650092080,RECEIVED
Subscriber_001,topicA,topicA-294,172.172.1.2:1883,1551650092190,RECEIVED
Subscriber_001,topicA,topicA-295,172.172.1.2:1883,1551650092284,RECEIVED
Subscriber_001,topicA,topicA-296,172.172.1.2:1883,1551650092380,RECEIVED
Subscriber_001,topicA,topicA-297,172.172.1.2:1883,1551650092480,RECEIVED
Subscriber_001,topicA,topicA-298,172.172.1.2:1883,1551650092579,RECEIVED
Subscriber_001,topicA,topicA-299,172.172.1.2:1883,1551650092682,RECEIVED
Subscriber_001,topicA,topicA-300,172.172.1.2:1883,1551650092780,RECEIVED
Subscriber_001,topicA,topicA-301,172.172.1.2:1883,1551650092875,RECEIVED
Subscriber_001,topicA,topicA-302,172.172.1.2:1883,1551650092977,RECEIVED
Subscriber_001,topicA,topicA-303,172.172.1.2:1883,1551650093082,RECEIVED
Subscriber_001,topicA,topicA-304,172.172.1.2:1883,1551650093188,RECEIVED
Subscriber_001,topicA,topicA-305,172.172.1.2:1883,1551650093285,RECEIVED
Subscriber_001,topicA,topicA-306,172.172.1.2:1883,1551650093378,RECEIVED
Subscriber_001,topicA,topicA-307,172.172.1.2:1883,1551650093482,RECEIVED
Subscriber_001,topicA,topicA-308,172.172.1.2:1883,1551650093580,RECEIVED
Subscriber_001,topicA,topicA-309,172.172.1.2:1883,1551650093674,RECEIVED
Subscriber_001,topicA,topicA-310,172.172.1.2:1883,1551650093787,RECEIVED
Subscriber_001,topicA,topicA-311,172.172.1.2:1883,1551650093880,RECEIVED
Subscriber_001,topicA,topicA-312,172.172.1.2:1883,1551650093982,RECEIVED
Subscriber_001,topicA,topicA-313,172.172.1.2:1883,1551650094079,RECEIVED
Subscriber_001,topicA,topicA-314,172.172.1.2:1883,1551650094182,RECEIVED
Subscriber_001,topicA,topicA-315,172.172.1.2:1883,1551650094279,RECEIVED
Subscriber_001,topicA,topicA-316,172.172.1.2:1883,1551650094388,RECEIVED
Subscriber_001,topicA,topicA-317,172.172.1.2:1883,1551650094487,RECEIVED
Subscriber_001,topicA,topicA-318,172.172.1.2:1883,1551650094580,RECEIVED
Subscriber_001,topicA,topicA-319,172.172.1.2:1883,1551650094680,RECEIVED
Subscriber_001,topicA,topicA-320,172.172.1.2:1883,1551650094780,RECEIVED
Subscriber_001,topicA,topicA-321,172.172.1.2:1883,1551650094888,RECEIVED
Subscriber_001,topicA,topicA-322,172.172.1.2:1883,1551650094984,RECEIVED
Subscriber_001,topicA,topicA-323,172.172.1.2:1883,1551650095095,RECEIVED
Subscriber_001,topicA,topicA-324,172.172.1.2:1883,1551650095185,RECEIVED
Subscriber_001,topicA,topicA-325,172.172.1.2:1883,1551650095279,RECEIVED
Subscriber_001,topicA,topicA-326,172.172.1.2:1883,1551650095379,RECEIVED
Subscriber_001,topicA,topicA-327,172.172.1.2:1883,1551650095473,RECEIVED
Subscriber_001,topicA,topicA-328,172.172.1.2:1883,1551650095584,RECEIVED
Subscriber_001,topicA,topicA-329,172.172.1.2:1883,1551650095683,RECEIVED
Subscriber_001,topicA,topicA-330,172.172.1.2:1883,1551650095784,RECEIVED
Subscriber_001,topicA,topicA-331,172.172.1.2:1883,1551650095875,RECEIVED
Subscriber_001,topicA,topicA-332,172.172.1.2:1883,1551650095980,RECEIVED
Subscriber_001,topicA,topicA-333,172.172.1.2:1883,1551650096086,RECEIVED
Subscriber_001,topicA,topicA-334,172.172.1.2:1883,1551650096186,RECEIVED
Subscriber_001,topicA,topicA-335,172.172.1.2:1883,1551650096272,RECEIVED
Subscriber_001,topicA,topicA-336,172.172.1.2:1883,1551650096373,RECEIVED
Subscriber_001,topicA,topicA-337,172.172.1.2:1883,1551650096474,RECEIVED
Subscriber_001,topicA,topicA-338,172.172.1.2:1883,1551650096573,RECEIVED
Subscriber_001,topicA,topicA-339,172.172.1.2:1883,1551650096681,RECEIVED
Subscriber_001,topicA,topicA-340,172.172.1.2:1883,1551650096774,RECEIVED
Subscriber_001,topicA,topicA-341,172.172.1.2:1883,1551650096880,RECEIVED
Subscriber_001,topicA,topicA-342,172.172.1.2:1883,1551650096979,RECEIVED
Subscriber_001,topicA,topicA-343,172.172.1.2:1883,1551650097080,RECEIVED
Subscriber_001,topicA,topicA-344,172.172.1.2:1883,1551650097176,RECEIVED
Subscriber_001,topicA,topicA-345,172.172.1.2:1883,1551650097284,RECEIVED
Subscriber_001,topicA,topicA-346,172.172.1.2:1883,1551650097384,RECEIVED
Subscriber_001,topicA,topicA-347,172.172.1.2:1883,1551650097472,RECEIVED
Subscriber_001,topicA,topicA-348,172.172.1.2:1883,1551650097583,RECEIVED
Subscriber_001,topicA,topicA-349,172.172.1.2:1883,1551650097674,RECEIVED
Subscriber_001,topicA,topicA-350,172.172.1.2:1883,1551650097781,RECEIVED
Subscriber_001,topicA,topicA-351,172.172.1.2:1883,1551650097879,RECEIVED
Subscriber_001,topicA,topicA-352,172.172.1.2:1883,1551650097988,RECEIVED
Subscriber_001,topicA,topicA-353,172.172.1.2:1883,1551650098075,RECEIVED
Subscriber_001,topicA,topicA-354,172.172.1.2:1883,1551650098178,RECEIVED
Subscriber_001,topicA,topicA-355,172.172.1.2:1883,1551650098284,RECEIVED
Subscriber_001,topicA,topicA-356,172.172.1.2:1883,1551650098386,RECEIVED
Subscriber_001,topicA,topicA-357,172.172.1.2:1883,1551650098484,RECEIVED
Subscriber_001,topicA,topicA-358,172.172.1.2:1883,1551650098581,RECEIVED
Subscriber_001,topicA,topicA-359,172.172.1.2:1883,1551650098687,RECEIVED
Subscriber_001,topicA,topicA-360,172.172.1.2:1883,1551650098787,RECEIVED
Subscriber_001,topicA,topicA-361,172.172.1.2:1883,1551650098878,RECEIVED
Subscriber_001,topicA,topicA-362,172.172.1.2:1883,1551650098978,RECEIVED
Subscriber_001,topicA,topicA-363,172.172.1.2:1883,1551650099085,RECEIVED
Subscriber_001,topicA,topicA-364,172.172.1.2:1883,1551650099183,RECEIVED
Subscriber_001,topicA,topicA-365,172.172.1.2:1883,1551650099280,RECEIVED
Subscriber_001,topicA,topicA-366,172.172.1.2:1883,1551650099378,RECEIVED
Subscriber_001,topicA,topicA-367,172.172.1.2:1883,1551650099479,RECEIVED
Subscriber_001,topicA,topicA-368,172.172.1.2:1883,1551650099610,RECEIVED
Subscriber_001,topicA,topicA-369,172.172.1.2:1883,1551650099675,RECEIVED
Subscriber_001,topicA,topicA-370,172.172.1.2:1883,1551650099780,RECEIVED
Subscriber_001,topicA,topicA-371,172.172.1.2:1883,1551650099880,RECEIVED
Subscriber_001,topicA,topicA-372,172.172.1.2:1883,1551650099978,RECEIVED
Subscriber_001,topicA,topicA-373,172.172.1.2:1883,1551650100091,RECEIVED
Subscriber_001,topicA,topicA-374,172.172.1.2:1883,1551650100176,RECEIVED
Subscriber_001,topicA,topicA-375,172.172.1.2:1883,1551650100282,RECEIVED
Subscriber_001,topicA,topicA-376,172.172.1.2:1883,1551650100378,RECEIVED
Subscriber_001,topicA,topicA-377,172.172.1.2:1883,1551650100478,RECEIVED
Subscriber_001,topicA,topicA-378,172.172.1.2:1883,1551650100574,RECEIVED
Subscriber_001,topicA,topicA-379,172.172.1.2:1883,1551650100680,RECEIVED
Subscriber_001,topicA,topicA-380,172.172.1.2:1883,1551650100774,RECEIVED
Subscriber_001,topicA,topicA-381,172.172.1.2:1883,1551650100880,RECEIVED
Subscriber_001,topicA,topicA-382,172.172.1.2:1883,1551650100982,RECEIVED
Subscriber_001,topicA,topicA-383,172.172.1.2:1883,1551650101086,RECEIVED
Subscriber_001,topicA,topicA-384,172.172.1.2:1883,1551650101178,RECEIVED
Subscriber_001,topicA,topicA-385,172.172.1.2:1883,1551650101283,RECEIVED
Subscriber_001,topicA,topicA-386,172.172.1.2:1883,1551650101377,RECEIVED
Subscriber_001,topicA,topicA-387,172.172.1.2:1883,1551650101487,RECEIVED
Subscriber_001,topicA,topicA-388,172.172.1.2:1883,1551650101579,RECEIVED
Subscriber_001,topicA,topicA-389,172.172.1.2:1883,1551650101687,RECEIVED
Subscriber_001,topicA,topicA-390,172.172.1.2:1883,1551650101790,RECEIVED
Subscriber_001,topicA,topicA-391,172.172.1.2:1883,1551650101880,RECEIVED
Subscriber_001,topicA,topicA-392,172.172.1.2:1883,1551650101981,RECEIVED
Subscriber_001,topicA,topicA-393,172.172.1.2:1883,1551650102086,RECEIVED
Subscriber_001,topicA,topicA-394,172.172.1.2:1883,1551650102181,RECEIVED
Subscriber_001,topicA,topicA-395,172.172.1.2:1883,1551650102283,RECEIVED
Subscriber_001,topicA,topicA-396,172.172.1.2:1883,1551650102381,RECEIVED
Subscriber_001,topicA,topicA-397,172.172.1.2:1883,1551650102473,RECEIVED
Subscriber_001,topicA,topicA-398,172.172.1.2:1883,1551650102579,RECEIVED
Subscriber_001,topicA,topicA-399,172.172.1.2:1883,1551650102678,RECEIVED
Subscriber_001,topicA,topicA-400,172.172.1.2:1883,1551650102784,RECEIVED
Subscriber_001,topicA,topicA-401,172.172.1.2:1883,1551650102888,RECEIVED
Subscriber_001,topicA,topicA-402,172.172.1.2:1883,1551650102977,RECEIVED
Subscriber_001,topicA,topicA-403,172.172.1.2:1883,1551650103077,RECEIVED
Subscriber_001,topicA,topicA-404,172.172.1.2:1883,1551650103176,RECEIVED
Subscriber_001,topicA,topicA-405,172.172.1.2:1883,1551650103288,RECEIVED
Subscriber_001,topicA,topicA-406,172.172.1.2:1883,1551650103379,RECEIVED
Subscriber_001,topicA,topicA-407,172.172.1.2:1883,1551650103475,RECEIVED
Subscriber_001,topicA,topicA-408,172.172.1.2:1883,1551650103582,RECEIVED
Subscriber_001,topicA,topicA-409,172.172.1.2:1883,1551650103685,RECEIVED
Subscriber_001,topicA,topicA-410,172.172.1.2:1883,1551650103781,RECEIVED
Subscriber_001,topicA,topicA-411,172.172.1.2:1883,1551650103878,RECEIVED
Subscriber_001,topicA,topicA-412,172.172.1.2:1883,1551650103984,RECEIVED
Subscriber_001,topicA,topicA-413,172.172.1.2:1883,1551650104080,RECEIVED
Subscriber_001,topicA,topicA-414,172.172.1.2:1883,1551650104183,RECEIVED
Subscriber_001,topicA,topicA-415,172.172.1.2:1883,1551650104284,RECEIVED
Subscriber_001,topicA,topicA-416,172.172.1.2:1883,1551650104386,RECEIVED
Subscriber_001,topicA,topicA-417,172.172.1.2:1883,1551650104502,RECEIVED
Subscriber_001,topicA,topicA-418,172.172.1.2:1883,1551650104576,RECEIVED
Subscriber_001,topicA,topicA-419,172.172.1.2:1883,1551650104684,RECEIVED
Subscriber_001,topicA,topicA-420,172.172.1.2:1883,1551650104779,RECEIVED
Subscriber_001,topicA,topicA-421,172.172.1.2:1883,1551650104878,RECEIVED
Subscriber_001,topicA,topicA-422,172.172.1.2:1883,1551650104981,RECEIVED
Subscriber_001,topicA,topicA-423,172.172.1.2:1883,1551650105077,RECEIVED
Subscriber_001,topicA,topicA-424,172.172.1.2:1883,1551650105175,RECEIVED
Subscriber_001,topicA,topicA-425,172.172.1.2:1883,1551650105276,RECEIVED
Subscriber_001,topicA,topicA-426,172.172.1.2:1883,1551650105381,RECEIVED
Subscriber_001,topicA,topicA-427,172.172.1.2:1883,1551650105480,RECEIVED
Subscriber_001,topicA,topicA-428,172.172.1.2:1883,1551650105606,RECEIVED
Subscriber_001,topicA,topicA-429,172.172.1.2:1883,1551650105671,RECEIVED
Subscriber_001,topicA,topicA-430,172.172.1.2:1883,1551650105778,RECEIVED
Subscriber_001,topicA,topicA-431,172.172.1.2:1883,1551650105881,RECEIVED
Subscriber_001,topicA,topicA-432,172.172.1.2:1883,1551650105974,RECEIVED
Subscriber_001,topicA,topicA-433,172.172.1.2:1883,1551650106080,RECEIVED
Subscriber_001,topicA,topicA-434,172.172.1.2:1883,1551650106175,RECEIVED
Subscriber_001,topicA,topicA-435,172.172.1.2:1883,1551650106282,RECEIVED
Subscriber_001,topicA,topicA-436,172.172.1.2:1883,1551650106374,RECEIVED
Subscriber_001,topicA,topicA-437,172.172.1.2:1883,1551650106480,RECEIVED
Subscriber_001,topicA,topicA-438,172.172.1.2:1883,1551650106573,RECEIVED
Subscriber_001,topicA,topicA-439,172.172.1.2:1883,1551650106677,RECEIVED
Subscriber_001,topicA,topicA-440,172.172.1.2:1883,1551650106776,RECEIVED
Subscriber_001,topicA,topicA-441,172.172.1.2:1883,1551650106878,RECEIVED
Subscriber_001,topicA,topicA-442,172.172.1.2:1883,1551650106981,RECEIVED
Subscriber_001,topicA,topicA-443,172.172.1.2:1883,1551650107072,RECEIVED
Subscriber_001,topicA,topicA-444,172.172.1.2:1883,1551650107174,RECEIVED
Subscriber_001,topicA,topicA-445,172.172.1.2:1883,1551650107276,RECEIVED
Subscriber_001,topicA,topicA-446,172.172.1.2:1883,1551650107385,RECEIVED
Subscriber_001,topicA,topicA-447,172.172.1.2:1883,1551650107483,RECEIVED
Subscriber_001,topicA,topicA-448,172.172.1.2:1883,1551650107576,RECEIVED
Subscriber_001,topicA,topicA-449,172.172.1.2:1883,1551650107682,RECEIVED
Subscriber_001,topicA,topicA-450,172.172.1.2:1883,1551650107778,RECEIVED
Subscriber_001,topicA,topicA-451,172.172.1.2:1883,1551650107882,RECEIVED
Subscriber_001,topicA,topicA-452,172.172.1.2:1883,1551650107977,RECEIVED
Subscriber_001,topicA,topicA-453,172.172.1.2:1883,1551650108081,RECEIVED
Subscriber_001,topicA,topicA-454,172.172.1.2:1883,1551650108175,RECEIVED
Subscriber_001,topicA,topicA-455,172.172.1.2:1883,1551650108273,RECEIVED
Subscriber_001,topicA,topicA-456,172.172.1.2:1883,1551650108373,RECEIVED
Subscriber_001,topicA,topicA-457,172.172.1.2:1883,1551650108479,RECEIVED
Subscriber_001,topicA,topicA-458,172.172.1.2:1883,1551650108585,RECEIVED
Subscriber_001,topicA,topicA-459,172.172.1.2:1883,1551650108690,RECEIVED
Subscriber_001,topicA,topicA-460,172.172.1.2:1883,1551650108779,RECEIVED
Subscriber_001,topicA,topicA-461,172.172.1.2:1883,1551650108880,RECEIVED
Subscriber_001,topicA,topicA-462,172.172.1.2:1883,1551650108983,RECEIVED
Subscriber_001,topicA,topicA-463,172.172.1.2:1883,1551650109089,RECEIVED
Subscriber_001,topicA,topicA-464,172.172.1.2:1883,1551650109189,RECEIVED
Subscriber_001,topicA,topicA-465,172.172.1.2:1883,1551650109282,RECEIVED
Subscriber_001,topicA,topicA-466,172.172.1.2:1883,1551650109382,RECEIVED
Subscriber_001,topicA,topicA-467,172.172.1.2:1883,1551650109477,RECEIVED
Subscriber_001,topicA,topicA-468,172.172.1.2:1883,1551650109583,RECEIVED
Subscriber_001,topicA,topicA-469,172.172.1.2:1883,1551650109680,RECEIVED
Subscriber_001,topicA,topicA-470,172.172.1.2:1883,1551650109788,RECEIVED
Subscriber_001,topicA,topicA-471,172.172.1.2:1883,1551650109881,RECEIVED
Subscriber_001,topicA,topicA-472,172.172.1.2:1883,1551650109982,RECEIVED
Subscriber_001,topicA,topicA-473,172.172.1.2:1883,1551650110076,RECEIVED
Subscriber_001,topicA,topicA-474,172.172.1.2:1883,1551650110180,RECEIVED
Subscriber_001,topicA,topicA-475,172.172.1.2:1883,1551650110279,RECEIVED
Subscriber_001,topicA,topicA-476,172.172.1.2:1883,1551650110383,RECEIVED
Subscriber_001,topicA,topicA-477,172.172.1.2:1883,1551650110476,RECEIVED
Subscriber_001,topicA,topicA-478,172.172.1.2:1883,1551650110584,RECEIVED
Subscriber_001,topicA,topicA-479,172.172.1.2:1883,1551650110681,RECEIVED
Subscriber_001,topicA,topicA-480,172.172.1.2:1883,1551650110781,RECEIVED
Subscriber_001,topicA,topicA-481,172.172.1.2:1883,1551650110878,RECEIVED
Subscriber_001,topicA,topicA-482,172.172.1.2:1883,1551650110972,RECEIVED
Subscriber_001,topicA,topicA-483,172.172.1.2:1883,1551650111073,RECEIVED
Subscriber_001,topicA,topicA-484,172.172.1.2:1883,1551650111178,RECEIVED
Subscriber_001,topicA,topicA-485,172.172.1.2:1883,1551650111279,RECEIVED
Subscriber_001,topicA,topicA-486,172.172.1.2:1883,1551650111378,RECEIVED
Subscriber_001,topicA,topicA-487,172.172.1.2:1883,1551650111483,RECEIVED
Subscriber_001,topicA,topicA-488,172.172.1.2:1883,1551650111576,RECEIVED
Subscriber_001,topicA,topicA-489,172.172.1.2:1883,1551650111696,RECEIVED
Subscriber_001,topicA,topicA-490,172.172.1.2:1883,1551650111778,RECEIVED
Subscriber_001,topicA,topicA-491,172.172.1.2:1883,1551650111880,RECEIVED
Subscriber_001,topicA,topicA-492,172.172.1.2:1883,1551650111979,RECEIVED
Subscriber_001,topicA,topicA-493,172.172.1.2:1883,1551650112090,RECEIVED
Subscriber_001,topicA,topicA-494,172.172.1.2:1883,1551650112182,RECEIVED
Subscriber_001,topicA,topicA-495,172.172.1.2:1883,1551650112273,RECEIVED
Subscriber_001,topicA,topicA-496,172.172.1.2:1883,1551650112374,RECEIVED
Subscriber_001,topicA,topicA-497,172.172.1.2:1883,1551650112480,RECEIVED
Subscriber_001,topicA,topicA-498,172.172.1.2:1883,1551650112582,RECEIVED
Subscriber_001,topicA,topicA-499,172.172.1.2:1883,1551650112682,RECEIVED
Subscriber_001,topicA,topicA-500,172.172.1.2:1883,1551650112775,RECEIVED
Subscriber_001,topicA,topicA-501,172.172.1.2:1883,1551650112875,RECEIVED
Subscriber_001,topicA,topicA-502,172.172.1.2:1883,1551650112981,RECEIVED
Subscriber_001,topicA,topicA-503,172.172.1.2:1883,1551650113076,RECEIVED
Subscriber_001,topicA,topicA-504,172.172.1.2:1883,1551650113180,RECEIVED
Subscriber_001,topicA,topicA-505,172.172.1.2:1883,1551650113282,RECEIVED
Subscriber_001,topicA,topicA-506,172.172.1.2:1883,1551650113378,RECEIVED
Subscriber_001,topicA,topicA-507,172.172.1.2:1883,1551650113473,RECEIVED
Subscriber_001,topicA,topicA-508,172.172.1.2:1883,1551650113582,RECEIVED
Subscriber_001,topicA,topicA-509,172.172.1.2:1883,1551650113672,RECEIVED
Subscriber_001,topicA,topicA-510,172.172.1.2:1883,1551650113780,RECEIVED
Subscriber_001,topicA,topicA-511,172.172.1.2:1883,1551650113879,RECEIVED
Subscriber_001,topicA,topicA-512,172.172.1.2:1883,1551650113991,RECEIVED
Subscriber_001,topicA,topicA-513,172.172.1.2:1883,1551650114078,RECEIVED
Subscriber_001,topicA,topicA-514,172.172.1.2:1883,1551650114178,RECEIVED
Subscriber_001,topicA,topicA-515,172.172.1.2:1883,1551650114276,RECEIVED
Subscriber_001,topicA,topicA-516,172.172.1.2:1883,1551650114381,RECEIVED
Subscriber_001,topicA,topicA-517,172.172.1.2:1883,1551650114482,RECEIVED
Subscriber_001,topicA,topicA-518,172.172.1.2:1883,1551650114579,RECEIVED
Subscriber_001,topicA,topicA-519,172.172.1.2:1883,1551650114675,RECEIVED
Subscriber_001,topicA,topicA-520,172.172.1.2:1883,1551650114778,RECEIVED
Subscriber_001,topicA,topicA-521,172.172.1.2:1883,1551650114873,RECEIVED
Subscriber_001,topicA,topicA-522,172.172.1.2:1883,1551650114973,RECEIVED
Subscriber_001,topicA,topicA-523,172.172.1.2:1883,1551650115073,RECEIVED
Subscriber_001,topicA,topicA-524,172.172.1.2:1883,1551650115173,RECEIVED
Subscriber_001,topicA,topicA-525,172.172.1.2:1883,1551650115272,RECEIVED
Subscriber_001,topicA,topicA-526,172.172.1.2:1883,1551650115374,RECEIVED
Subscriber_001,topicA,topicA-527,172.172.1.2:1883,1551650115483,RECEIVED
Subscriber_001,topicA,topicA-528,172.172.1.2:1883,1551650115585,RECEIVED
Subscriber_001,topicA,topicA-529,172.172.1.2:1883,1551650115688,RECEIVED
Subscriber_001,topicA,topicA-530,172.172.1.2:1883,1551650115787,RECEIVED
Subscriber_001,topicA,topicA-531,172.172.1.2:1883,1551650115894,RECEIVED
Subscriber_001,topicA,topicA-532,172.172.1.2:1883,1551650115978,RECEIVED
Subscriber_001,topicA,topicA-533,172.172.1.2:1883,1551650116082,RECEIVED
Subscriber_001,topicA,topicA-534,172.172.1.2:1883,1551650116177,RECEIVED
Subscriber_001,topicA,topicA-535,172.172.1.2:1883,1551650116274,RECEIVED
Subscriber_001,topicA,topicA-536,172.172.1.2:1883,1551650116381,RECEIVED
Subscriber_001,topicA,topicA-537,172.172.1.2:1883,1551650116476,RECEIVED
Subscriber_001,topicA,topicA-538,172.172.1.2:1883,1551650116578,RECEIVED
Subscriber_001,topicA,topicA-539,172.172.1.2:1883,1551650116678,RECEIVED
Subscriber_001,topicA,topicA-540,172.172.1.2:1883,1551650116776,RECEIVED
Subscriber_001,topicA,topicA-541,172.172.1.2:1883,1551650116876,RECEIVED
Subscriber_001,topicA,topicA-542,172.172.1.2:1883,1551650116974,RECEIVED
Subscriber_001,topicA,topicA-543,172.172.1.2:1883,1551650117082,RECEIVED
Subscriber_001,topicA,topicA-544,172.172.1.2:1883,1551650117176,RECEIVED
Subscriber_001,topicA,topicA-545,172.172.1.2:1883,1551650117275,RECEIVED
Subscriber_001,topicA,topicA-546,172.172.1.2:1883,1551650117381,RECEIVED
Subscriber_001,topicA,topicA-547,172.172.1.2:1883,1551650117481,RECEIVED
Subscriber_001,topicA,topicA-548,172.172.1.2:1883,1551650117572,RECEIVED
Subscriber_001,topicA,topicA-549,172.172.1.2:1883,1551650117673,RECEIVED
Subscriber_001,topicA,topicA-550,172.172.1.2:1883,1551650117787,RECEIVED
Subscriber_001,topicA,topicA-551,172.172.1.2:1883,1551650117890,RECEIVED
Subscriber_001,topicA,topicA-552,172.172.1.2:1883,1551650117988,RECEIVED
Subscriber_001,topicA,topicA-553,172.172.1.2:1883,1551650118083,RECEIVED
Subscriber_001,topicA,topicA-554,172.172.1.2:1883,1551650118191,RECEIVED
Subscriber_001,topicA,topicA-555,172.172.1.2:1883,1551650118274,RECEIVED
Subscriber_001,topicA,topicA-556,172.172.1.2:1883,1551650118388,RECEIVED
Subscriber_001,topicA,topicA-557,172.172.1.2:1883,1551650118488,RECEIVED
Subscriber_001,topicA,topicA-558,172.172.1.2:1883,1551650118584,RECEIVED
Subscriber_001,topicA,topicA-559,172.172.1.2:1883,1551650118683,RECEIVED
Subscriber_001,topicA,topicA-560,172.172.1.2:1883,1551650118779,RECEIVED
Subscriber_001,topicA,topicA-561,172.172.1.2:1883,1551650118884,RECEIVED
Subscriber_001,topicA,topicA-562,172.172.1.2:1883,1551650118983,RECEIVED
Subscriber_001,topicA,topicA-563,172.172.1.2:1883,1551650119085,RECEIVED
Subscriber_001,topicA,topicA-564,172.172.1.2:1883,1551650119183,RECEIVED
Subscriber_001,topicA,topicA-565,172.172.1.2:1883,1551650119273,RECEIVED
Subscriber_001,topicA,topicA-566,172.172.1.2:1883,1551650119377,RECEIVED
Subscriber_001,topicA,topicA-567,172.172.1.2:1883,1551650119484,RECEIVED
Subscriber_001,topicA,topicA-568,172.172.1.2:1883,1551650119581,RECEIVED
Subscriber_001,topicA,topicA-569,172.172.1.2:1883,1551650119682,RECEIVED
Subscriber_001,topicA,topicA-570,172.172.1.2:1883,1551650119784,RECEIVED
Subscriber_001,topicA,topicA-571,172.172.1.2:1883,1551650119877,RECEIVED
Subscriber_001,topicA,topicA-572,172.172.1.2:1883,1551650119977,RECEIVED
Subscriber_001,topicA,topicA-573,172.172.1.2:1883,1551650120073,RECEIVED
Subscriber_001,topicA,topicA-574,172.172.1.2:1883,1551650120174,RECEIVED
Subscriber_001,topicA,topicA-575,172.172.1.2:1883,1551650120273,RECEIVED
Subscriber_001,topicA,topicA-576,172.172.1.2:1883,1551650120380,RECEIVED
Subscriber_001,topicA,topicA-577,172.172.1.2:1883,1551650120478,RECEIVED
Subscriber_001,topicA,topicA-578,172.172.1.2:1883,1551650120581,RECEIVED
Subscriber_001,topicA,topicA-579,172.172.1.2:1883,1551650120676,RECEIVED
Subscriber_001,topicA,topicA-580,172.172.1.2:1883,1551650120781,RECEIVED
Subscriber_001,topicA,topicA-581,172.172.1.2:1883,1551650120877,RECEIVED
Subscriber_001,topicA,topicA-582,172.172.1.2:1883,1551650120971,RECEIVED
Subscriber_001,topicA,topicA-583,172.172.1.2:1883,1551650121083,RECEIVED
Subscriber_001,topicA,topicA-584,172.172.1.2:1883,1551650121181,RECEIVED
Subscriber_001,topicA,topicA-585,172.172.1.2:1883,1551650121280,RECEIVED
Subscriber_001,topicA,topicA-586,172.172.1.2:1883,1551650121374,RECEIVED
Subscriber_001,topicA,topicA-587,172.172.1.2:1883,1551650121474,RECEIVED
Subscriber_001,topicA,topicA-588,172.172.1.2:1883,1551650121573,RECEIVED
Subscriber_001,topicA,topicA-589,172.172.1.2:1883,1551650121679,RECEIVED
Subscriber_001,topicA,topicA-590,172.172.1.2:1883,1551650121799,RECEIVED
Subscriber_001,topicA,topicA-591,172.172.1.2:1883,1551650121882,RECEIVED
Subscriber_001,topicA,topicA-592,172.172.1.2:1883,1551650121975,RECEIVED
Subscriber_001,topicA,topicA-593,172.172.1.2:1883,1551650122079,RECEIVED
Subscriber_001,topicA,topicA-594,172.172.1.2:1883,1551650122175,RECEIVED
Subscriber_001,topicA,topicA-595,172.172.1.2:1883,1551650122284,RECEIVED
Subscriber_001,topicA,topicA-596,172.172.1.2:1883,1551650122377,RECEIVED
Subscriber_001,topicA,topicA-597,172.172.1.2:1883,1551650122485,RECEIVED
Subscriber_001,topicA,topicA-598,172.172.1.2:1883,1551650122587,RECEIVED
Subscriber_001,topicA,topicA-599,172.172.1.2:1883,1551650122684,RECEIVED
Subscriber_001,topicA,topicA-600,172.172.1.2:1883,1551650122785,RECEIVED
Subscriber_001,topicA,topicA-601,172.172.1.2:1883,1551650122886,RECEIVED
Subscriber_001,topicA,topicA-602,172.172.1.2:1883,1551650122983,RECEIVED
Subscriber_001,topicA,topicA-603,172.172.1.2:1883,1551650123081,RECEIVED
Subscriber_001,topicA,topicA-604,172.172.1.2:1883,1551650123175,RECEIVED
Subscriber_001,topicA,topicA-605,172.172.1.2:1883,1551650123280,RECEIVED
Subscriber_001,topicA,topicA-606,172.172.1.2:1883,1551650123378,RECEIVED
Subscriber_001,topicA,topicA-607,172.172.1.2:1883,1551650123472,RECEIVED
Subscriber_001,topicA,topicA-608,172.172.1.2:1883,1551650123585,RECEIVED
Subscriber_001,topicA,topicA-609,172.172.1.2:1883,1551650123678,RECEIVED
Subscriber_001,topicA,topicA-610,172.172.1.2:1883,1551650123781,RECEIVED
Subscriber_001,topicA,topicA-611,172.172.1.2:1883,1551650123879,RECEIVED
Subscriber_001,topicA,topicA-612,172.172.1.2:1883,1551650123977,RECEIVED
Subscriber_001,topicA,topicA-613,172.172.1.2:1883,1551650124079,RECEIVED
Subscriber_001,topicA,topicA-614,172.172.1.2:1883,1551650124184,RECEIVED
Subscriber_001,topicA,topicA-615,172.172.1.2:1883,1551650124273,RECEIVED
Subscriber_001,topicA,topicA-616,172.172.1.2:1883,1551650124380,RECEIVED
Subscriber_001,topicA,topicA-617,172.172.1.2:1883,1551650124485,RECEIVED
Subscriber_001,topicA,topicA-618,172.172.1.2:1883,1551650124584,RECEIVED
Subscriber_001,topicA,topicA-619,172.172.1.2:1883,1551650124688,RECEIVED
Subscriber_001,topicA,topicA-620,172.172.1.2:1883,1551650124778,RECEIVED
Subscriber_001,topicA,topicA-621,172.172.1.2:1883,1551650124880,RECEIVED
Subscriber_001,topicA,topicA-622,172.172.1.2:1883,1551650124981,RECEIVED
Subscriber_001,topicA,topicA-623,172.172.1.2:1883,1551650125085,RECEIVED
Subscriber_001,topicA,topicA-624,172.172.1.2:1883,1551650125174,RECEIVED
Subscriber_001,topicA,topicA-625,172.172.1.2:1883,1551650125280,RECEIVED
Subscriber_001,topicA,topicA-626,172.172.1.2:1883,1551650125379,RECEIVED
Subscriber_001,topicA,topicA-627,172.172.1.2:1883,1551650125473,RECEIVED
Subscriber_001,topicA,topicA-628,172.172.1.2:1883,1551650125584,RECEIVED
Subscriber_001,topicA,topicA-629,172.172.1.2:1883,1551650125681,RECEIVED
Subscriber_001,topicA,topicA-630,172.172.1.2:1883,1551650125780,RECEIVED
Subscriber_001,topicA,topicA-631,172.172.1.2:1883,1551650125883,RECEIVED
Subscriber_001,topicA,topicA-632,172.172.1.2:1883,1551650125978,RECEIVED
Subscriber_001,topicA,topicA-633,172.172.1.2:1883,1551650126082,RECEIVED
Subscriber_001,topicA,topicA-634,172.172.1.2:1883,1551650126179,RECEIVED
Subscriber_001,topicA,topicA-635,172.172.1.2:1883,1551650126294,RECEIVED
Subscriber_001,topicA,topicA-636,172.172.1.2:1883,1551650126380,RECEIVED
Subscriber_001,topicA,topicA-637,172.172.1.2:1883,1551650126483,RECEIVED
Subscriber_001,topicA,topicA-638,172.172.1.2:1883,1551650126572,RECEIVED
Subscriber_001,topicA,topicA-639,172.172.1.2:1883,1551650126677,RECEIVED
Subscriber_001,topicA,topicA-640,172.172.1.2:1883,1551650126773,RECEIVED
Subscriber_001,topicA,topicA-641,172.172.1.2:1883,1551650126881,RECEIVED
Subscriber_001,topicA,topicA-642,172.172.1.2:1883,1551650126982,RECEIVED
Subscriber_001,topicA,topicA-643,172.172.1.2:1883,1551650127077,RECEIVED
Subscriber_001,topicA,topicA-644,172.172.1.2:1883,1551650127187,RECEIVED
Subscriber_001,topicA,topicA-645,172.172.1.2:1883,1551650127283,RECEIVED
Subscriber_001,topicA,topicA-646,172.172.1.2:1883,1551650127378,RECEIVED
Subscriber_001,topicA,topicA-647,172.172.1.2:1883,1551650127488,RECEIVED
Subscriber_001,topicA,topicA-648,172.172.1.2:1883,1551650127599,RECEIVED
Subscriber_001,topicA,topicA-649,172.172.1.2:1883,1551650127673,RECEIVED
Subscriber_001,topicA,topicA-650,172.172.1.2:1883,1551650127781,RECEIVED
Subscriber_001,topicA,topicA-651,172.172.1.2:1883,1551650127881,RECEIVED
Subscriber_001,topicA,topicA-652,172.172.1.2:1883,1551650127986,RECEIVED
Subscriber_001,topicA,topicA-653,172.172.1.2:1883,1551650128074,RECEIVED
Subscriber_001,topicA,topicA-654,172.172.1.2:1883,1551650128177,RECEIVED
Subscriber_001,topicA,topicA-655,172.172.1.2:1883,1551650128280,RECEIVED
Subscriber_001,topicA,topicA-656,172.172.1.2:1883,1551650128387,RECEIVED
Subscriber_001,topicA,topicA-657,172.172.1.2:1883,1551650128473,RECEIVED
Subscriber_001,topicA,topicA-658,172.172.1.2:1883,1551650128572,RECEIVED
Subscriber_001,topicA,topicA-659,172.172.1.2:1883,1551650128676,RECEIVED
Subscriber_001,topicA,topicA-660,172.172.1.2:1883,1551650128773,RECEIVED
Subscriber_001,topicA,topicA-661,172.172.1.2:1883,1551650128884,RECEIVED
Subscriber_001,topicA,topicA-662,172.172.1.2:1883,1551650128980,RECEIVED
Subscriber_001,topicA,topicA-663,172.172.1.2:1883,1551650129078,RECEIVED
