timestamp,event,migrationId
1551651218776,topicA-INITIALIZED,6d3f9db4-640b-42f1-b11e-eff4547a9924
1551651218779,INITIALIZED,6d3f9db4-640b-42f1-b11e-eff4547a9924
1551651218993,topicA-SYNCING,6d3f9db4-640b-42f1-b11e-eff4547a9924
1551651218994,SYNCING,6d3f9db4-640b-42f1-b11e-eff4547a9924
1551651218995,topicA-SYNCING_OPPONENT,6d3f9db4-640b-42f1-b11e-eff4547a9924
1551651220983,topicA-SYNCED,6d3f9db4-640b-42f1-b11e-eff4547a9924
1551651220984,SYNCED,6d3f9db4-640b-42f1-b11e-eff4547a9924
1551651221002,topicA-FINISHED,6d3f9db4-640b-42f1-b11e-eff4547a9924
1551651221027,FINISHED,6d3f9db4-640b-42f1-b11e-eff4547a9924
